0 [1.0, 1.0, 1.0, 1.0, 1.0, 1.0, 1.0, 1.0]
1 [1.0, 1.0, 1.0, 1.0, 1.0, 1.0, 1.0, 1.0]
2 [1.0, 1.0, 1.0, 1.0, 1.0, 1.0, 1.0, 1.0]
3 [1.0, 1.0, 1.0, 1.0, 1.0, 1.0, 1.0, 1.0]
4 [1.0, 1.0, 1.0, 1.0, 1.0, 1.0, 1.0, 1.0]
5 [1.0, 1.0, 1.0, 1.0, 1.0, 1.0, 1.0, 1.0]
6 [1.0, 1.0, 1.0, 1.0, 1.0, 1.0, 1.0, 1.0]
7 [1.0, 1.0, 1.0, 1.0, 1.0, 1.0, 1.0, 1.0]
8 [1.0, 1.0, 1.0, 1.0, 1.0, 1.0, 1.0, 1.0]
9 [1.0, 1.0, 1.0, 1.0, 1.0, 1.0, 1.0, 1.0]
10 [1.0, 1.0, 1.0, 1.0, 1.0, 1.0, 1.0, 1.0]
11 [1.6964109, 1.094249, 1.0002337, 1.0, 1.0, 1.0, 1.0, 1.0]
12 [1.5857688, 1.0792751, 1.0001965, 1.0, 1.0, 1.0002337, 1.094249, 1.6964109]
13 [1.4463251, 1.0604036, 1.0001497, 1.0, 1.0, 1.0001967, 1.0793481, 1.5863078]
14 [1.3375448, 1.0456817, 1.0003469, 1.0942376, 1.6963267, 1.0943874, 1.0606972, 1.4467688]
15 [1.2548692, 1.0344929, 1.0002822, 1.0793481, 1.5863078, 1.0794613, 1.0458784, 1.3375448]
16 [1.1924343, 1.0260432, 1.0002143, 1.0604036, 1.4463251, 1.060489, 1.0346426, 1.2548692]
17 [1.1454388, 1.019683, 1.000162, 1.0456817, 1.3375448, 1.0457463, 1.0261824, 1.1926268]
18 [0.31229192, 0.90692884, 0.99985474, 1.0344929, 1.2548692, 1.0347753, 1.114006, 1.8417656]
19 [0.3942821, 0.918025, 0.9998614, 1.0260692, 1.1926268, 1.0260354, 0.9864729, 0.8995701]
20 [0.53743976, 0.93739927, 0.99989367, 1.019683, 1.1454388, 1.0196296, 0.97853744, 0.8410509]
21 [0.6500898, 0.9526448, 0.9996521, 0.9069872, 0.31272316, 0.9069452, 0.9828341, 0.8748635]
22 [0.7357887, 0.9642429, 0.9997082, 0.918025, 0.3942821, 0.91799325, 0.98696893, 0.9052141]
23 [0.8003123, 0.9729752, 1.0000113, 1.0315748, 1.2333078, 1.0315508, 0.99038064, 0.928344]
24 [0.8490792, 0.9795751, 1.0000287, 1.0320185, 1.2365869, 1.0320003, 0.99275, 0.94584244]
25 [0.8860505, 0.9845786, 1.0000229, 1.0246707, 1.1822932, 1.0243896, 0.88668334, 0.16224533]
26 [0.9138788, 0.9883448, 1.0000174, 1.0186756, 1.1379949, 1.0184338, 0.9024889, 0.27914286]
27 [0.934911, 0.99119115, 1.0000132, 1.0141165, 1.1043077, 1.013932, 0.925581, 0.4498551]
28 [0.950856, 0.9933491, 1.0000099, 1.0106585, 1.0787561, 1.010519, 0.9437676, 0.58430076]
29 [0.9628577, 0.99497336, 1.0000075, 1.0080556, 1.0595226, 1.0079502, 0.95749784, 0.68580174]
30 [0.97195655, 0.99620473, 0.99973834, 0.8982383, 0.24807715, 0.8981587, 0.9676422, 0.76277024]
31 [0.9788052, 0.9971316, 0.99977285, 0.9112218, 0.34401315, 0.91116166, 0.97551507, 0.82070553]
32 [1.0, 1.0, 0.9998319, 0.9321812, 0.498883, 0.93214285, 0.9843642, 0.88570815]
33 [1.0, 1.0, 0.9998824, 0.95255005, 0.64938974, 0.9525211, 0.9882038, 0.9137064]
34 [1.0, 1.0, 0.99990404, 0.9612642, 0.713779, 0.9612423, 0.99107754, 0.9347807]
35 [1.0, 1.0, 0.9999328, 0.972894, 0.7997123, 0.972894, 0.9999328, 1.0]
36 [1.0, 1.0, 0.9999493, 0.9795342, 0.84877706, 0.97952175, 0.99491256, 0.9627834]
37 [1.0, 1.0, 0.9999617, 0.9845323, 0.88570815, 0.9845229, 0.996155, 0.97187227]
38 [1.0, 1.0, 0.99997103, 0.98830974, 0.91362005, 0.9883026, 0.99709404, 0.9787415]
39 [1.0, 1.0, 1.0, 1.0, 1.0, 1.0, 1.0, 1.0]
40 [1.0, 1.0, 0.9999835, 0.9933291, 0.9507083, 0.9933291, 0.9999835, 1.0]
41 [1.0, 1.0, 0.99998754, 0.9949633, 0.9627834, 0.9949633, 0.99998754, 1.0]
42 [1.0, 1.0, 0.9999906, 0.99619335, 0.97187227, 0.99619335, 0.9999906, 1.0]
43 [1.0, 1.0, 0.99999285, 0.997123, 0.9787415, 0.997123, 0.99999285, 1.0]
44 [1.0, 1.0, 1.0, 1.0, 1.0, 1.0, 1.0, 1.0]
45 [1.0, 1.0, 1.0, 1.0, 1.0, 1.0, 1.0, 1.0]
46 [1.0, 1.0, 1.0, 1.0, 1.0, 1.0, 1.0, 1.0]
47 [1.0, 1.0, 1.0, 1.0, 1.0, 1.0, 1.0, 1.0]
48 [1.0, 1.0, 1.0, 1.0, 1.0, 1.0, 1.0, 1.0]
49 [1.0, 1.0, 1.0, 1.0, 1.0, 1.0, 1.0, 1.0]
