0 -1.5707963
0 -3.1415923
0 -3.1415923
0 -3.1415925
0 -3.1415927
0 3.1415925
0 3.1415925
0 1.5707964
0 1.5707976
1 -1.5707963
1 -3.1415923
1 -3.1415923
1 -3.1415925
1 -3.1415927
1 3.1415925
1 3.1415925
1 1.5707964
1 1.5707976
2 -1.5707963
2 -3.1415923
2 -3.1415923
2 -3.1415925
2 -3.1415927
2 3.1415925
2 3.1415925
2 1.5707964
2 1.5707976
3 -1.5707963
3 -3.1415923
3 -3.1415923
3 -3.1415925
3 -3.1415927
3 3.1415925
3 3.1415925
3 1.5707964
3 1.5707976
4 -1.5707963
4 -3.1415923
4 -3.1415923
4 -3.1415925
4 -3.1415927
4 3.1415925
4 3.1415925
4 1.5707964
4 1.5707976
5 -1.5707963
5 -3.1415923
5 -3.1415923
5 -3.1415925
5 -3.1415927
5 3.1415925
5 3.1415925
5 1.5707964
5 1.5707976
6 -1.5707963
6 -3.1415923
6 -3.1415923
6 -3.1415925
6 -3.1415927
6 3.1415925
6 3.1415925
6 1.5707964
6 1.5707976
7 -1.5707963
7 -3.1415923
7 -3.1415923
7 -3.1415925
7 -3.1415927
7 3.1415925
7 3.1415925
7 1.5707964
7 1.5707976
8 -1.5707963
8 -3.1415923
8 -3.1415923
8 -3.1415925
8 -3.1415927
8 3.1415925
8 3.1415925
8 1.5707964
8 1.5707976
9 -1.5707963
9 -3.1415923
9 -3.1415923
9 -3.1415925
9 -3.1415927
9 3.1415925
9 3.1415925
9 1.5707964
9 1.5707976
10 -1.5707963
10 -3.1415923
10 -3.1415923
10 -3.1415925
10 -3.1415927
10 3.1415925
10 3.1415925
10 1.5707964
10 1.5707976
11 -1.5707963
11 -3.1415923
11 -3.1415923
11 -3.1415925
11 -3.1415927
11 3.1415925
11 3.1415925
11 1.5707964
11 1.5707976
12 0.002569975
12 3.1415155
12 3.1415355
12 3.1415424
12 3.1415424
12 3.1415353
12 3.1415157
12 3.1390648
12 1.5757364
13 -0.0080873575
13 -3.1414537
13 -3.1414905
13 -3.1415036
13 -3.141504
13 -3.1414928
13 -3.141459
13 -3.1334898
13 1.5861671
14 -0.009154473
14 -3.1411617
14 -3.1412795
14 -3.141321
14 -3.1413243
14 -3.1412916
14 -3.1411948
14 -3.1324356
14 1.6038643
15 -0.011113993
15 -3.1406279
15 -3.1409016
15 -3.1409988
15 -3.1410105
15 -3.1409452
15 -3.1407478
15 -3.1304739
15 1.62615
16 -0.01073843
16 -3.1400988
16 -3.140544
16 -3.140702
16 -3.1407282
16 -3.1406415
16 -3.1403708
16 -3.130852
16 1.6544938
17 -0.010687538
17 -3.139351
17 -3.1400595
17 -3.1403103
17 -3.1403632
17 -3.1402574
17 -3.1399086
17 -3.1309037
17 1.6893556
18 -0.010210256
18 -3.1384666
18 -3.1395276
18 -3.1398985
18 -3.139993
18 -3.139882
18 -3.13948
18 -3.1313806
18 1.7317123
19 -0.009272277
19 -3.1375144
19 -3.139021
19 -3.1395333
19 -3.1396835
19 -3.1395879
19 -3.139175
19 -3.132319
19 1.782009
20 -0.0060831457
20 -3.1378543
20 -3.1393697
20 -3.1398625
20 -3.1400213
20 -3.1399748
20 -3.1396885
20 -3.1355088
20 1.8370017
21 -0.0053452104
21 -3.1371748
21 -3.1391335
21 -3.1397336
21 -3.1399379
21 -3.13992
21 -3.1396666
21 -3.1362467
21 1.8890835
22 -0.003234071
22 -3.1382148
22 -3.1398335
22 -3.140298
22 -3.1404605
22 -3.140466
22 -3.1403182
22 -3.1383579
22 1.9332886
23 -0.001834807
23 -3.1393063
23 -3.1404738
23 -3.140788
23 -3.140899
23 -3.1409109
23 -3.140832
23 -3.1397574
23 1.9684535
24 -7.692496E-4
24 -3.140549
24 -3.1411083
24 -3.1412504
24 -3.141301
24 -3.1413088
24 -3.141279
24 -3.140823
24 1.9944906
25 -1.8691448E-4
25 -3.1414092
25 -3.1415107
25 -3.1415358
25 -3.1415446
25 -3.1415462
25 -3.1415417
25 -3.1414053
25 2.0117815
26 -1.6605746E-4
26 -3.141429
26 -3.1415215
26 -3.1415436
26 -3.1415515
26 -3.1415532
26 -3.1415493
26 -3.141426
26 2.0242648
27 4.3559972E-5
27 3.141367
27 3.1414976
27 3.1415274
27 3.141538
27 3.14154
27 3.1415355
27 3.1415496
27 2.0354686
28 6.804619E-4
28 3.1400802
28 3.140967
28 3.1411657
28 3.1412358
28 3.1412506
28 3.1412218
28 3.1409125
28 2.04136
29 0.0014228376
29 3.1385674
29 3.1403446
29 3.1407418
29 3.1408823
29 3.1409123
29 3.1408548
29 3.1401703
29 2.0424902
30 6.856691E-4
30 3.1400588
30 3.1409602
30 3.1411612
30 3.1412325
30 3.1412475
30 3.1412184
30 3.1409073
30 2.0425687
31 0.0010636619
31 3.1392868
31 3.140643
31 3.1409452
31 3.1410522
31 3.1410751
31 3.1410315
31 3.1405294
31 2.0430362
32 0.0015859632
32 3.1383126
32 3.140226
32 3.1406581
32 3.140811
32 3.1408432
32 3.1407785
32 3.140007
32 2.038777
33 0.0017993451
33 3.1381836
33 3.1401203
33 3.1405752
33 3.1407363
33 3.1407676
33 3.140692
33 3.1397936
33 2.025188
34 0.002310039
34 3.1377013
34 3.139835
34 3.1403615
34 3.1405482
34 3.14058
34 3.1404793
34 3.1392832
34 2.0067294
35 0.0017027473
35 3.1389756
35 3.1403623
35 3.1407197
35 3.1408463
35 3.140864
35 3.140786
35 3.1398904
35 1.988511
36 0.0012120586
36 3.1399164
36 3.140768
36 3.1409984
36 3.1410797
36 3.1410878
36 3.141029
36 3.140381
36 1.9658196
37 0.001072797
37 3.1403198
37 3.1409323
37 3.141107
37 3.141168
37 3.1411703
37 3.1411154
37 3.1405206
37 1.9353164
38 5.1796756E-4
38 3.141016
38 3.141279
38 3.141358
38 3.141385
38 3.1413836
38 3.1413538
38 3.1410751
38 1.905672
39 -2.2066031E-4
39 -3.141505
39 -3.1415434
39 -3.1415553
39 -3.1415596
39 -3.1415594
39 -3.141554
39 -3.1413715
39 1.8836774
40 -3.7672734E-4
40 -3.1413972
40 -3.1414812
40 -3.1415074
40 -3.1415164
40 -3.1415153
40 -3.1415026
40 -3.1412153
40 1.8696676
41 -4.3298912E-4
41 -3.141364
41 -3.1414611
41 -3.141492
41 -3.1415021
41 -3.1415005
41 -3.1414855
41 -3.1411593
41 1.864065
42 -4.877511E-4
42 -3.1413333
42 -3.1414423
42 -3.141477
42 -3.1414888
42 -3.1414866
42 -3.141469
42 -3.141104
42 1.8588232
43 -9.892943E-4
43 -3.1410215
43 -3.1412568
43 -3.1413326
43 -3.1413577
43 -3.1413515
43 -3.14131
43 -3.1406026
43 1.8466085
44 -9.943339E-4
44 -3.1410594
44 -3.1412747
44 -3.141345
44 -3.141368
44 -3.141361
44 -3.1413198
44 -3.1405976
44 1.8349448
45 -0.0013420777
45 -3.1408668
45 -3.1411574
45 -3.141253
45 -3.1412833
45 -3.1412735
45 -3.1412156
45 -3.1402497
45 1.8299686
46 -0.001681333
46 -3.140684
46 -3.1410456
46 -3.1411645
46 -3.1412022
46 -3.1411893
46 -3.1411157
46 -3.1399107
46 1.8262408
47 -0.0020222631
47 -3.1405184
47 -3.1409423
47 -3.141082
47 -3.1411264
47 -3.14111
47 -3.1410203
47 -3.1395698
47 1.8210269
48 -0.0023027014
48 -3.1404366
48 -3.1408849
48 -3.1410341
48 -3.1410804
48 -3.1410604
48 -3.1409588
48 -3.1392891
48 1.8106321
49 -0.003550122
49 -3.1399724
49 -3.1405811
49 -3.140787
49 -3.1408484
49 -3.140814
49 -3.140658
49 -3.1380417
49 1.7921546
