0 [0.0, 0.0, 0.0, 0.0, 0.0, 0.0, 0.0, 0.0]
1 [0.0, 0.0, 0.0, 0.0, 0.0, 0.0, 0.0, 0.0]
2 [0.0, 0.0, 0.0, 0.0, 0.0, 0.0, 0.0, 0.0]
3 [0.0, 0.0, 0.0, 0.0, 0.0, 0.0, 0.0, 0.0]
4 [0.0, 0.0, 0.0, 0.0, 0.0, 0.0, 0.0, 0.0]
5 [0.0, 0.0, 0.0, 0.0, 0.0, 0.0, 0.0, 0.0]
6 [0.0, 0.0, 0.0, 0.0, 0.0, 0.0, 0.0, 0.0]
7 [0.0, 0.0, 0.0, 0.0, 0.0, 0.0, 0.0, 0.0]
8 [0.0, 0.0, 0.0, 0.0, 0.0, 0.0, 0.0, 0.0]
9 [0.0, 0.0, 0.0, 0.0, 0.0, 0.0, 0.0, 0.0]
10 [0.0, 0.0, 0.0, 0.0, 0.0, 0.0, 0.0, 0.0]
11 [0.0, 0.0, 0.0, 0.0, 0.0, 0.0, 0.0, 0.0]
12 [5.0677867E13, 5.0677867E13, 5.0677867E13, 5.0677867E13, 5.0677867E13, 5.0677867E13, 5.0677867E13, 9.172694E15]
13 [0.14160562, 0.15061662, 0.13960561, 0.9733944, 0.9743944, 0.023494508, 0.02149451, 0.4415055]
14 [0.030494502, 0.039505504, 0.028494503, 0.0845055, 0.08550549, 0.023494508, 0.02149451, 0.0665055]
15 [0.030494502, 0.039505504, 0.028494503, 0.0845055, 0.08550549, 0.023494508, 0.02149451, 0.0665055]
16 [0.03415384, 0.03815384, 0.03215384, 0.085846156, 0.08684615, 0.020153854, 0.017153857, 0.06484615]
17 [0.10082051, 0.104820505, 0.09882051, 1.0191795, 1.0201795, 0.020153854, 0.017153857, 0.13151282]
18 [0.03415384, 0.03815384, 0.03215384, 0.085846156, 0.08684615, 0.020153854, 0.017153857, 0.06484615]
19 [0.03415384, 0.03815384, 0.03215384, 0.085846156, 0.08684615, 0.020153854, 0.017153857, 0.06484615]
20 [0.03415384, 0.03815384, 0.03215384, 0.085846156, 0.9618462, 0.020153854, 0.017153857, 0.93984616]
21 [0.041917585, 0.04908242, 0.039082408, 0.034082413, 0.08791758, 0.08893836, 0.013221726, 0.008343934]
22 [0.041917585, 0.11158242, 0.10158241, 0.09658241, 1.0254176, 1.0266184, 0.01303584, 1.195091]
23 [0.045851648, 0.05714835, 0.04314836, 0.04014834, 0.08685164, 0.08886488, 0.011817741, 0.014222542]
24 [0.045851648, 0.05714835, 0.04314836, 0.04014834, 0.08685164, 0.08886164, 0.011654071, 0.013153833]
25 [0.045851648, 0.05714835, 0.04314836, 0.04014834, 0.08685164, 0.0888592, 0.011530584, 0.012347507]
26 [0.050631862, 0.12786812, 0.12686813, 0.10986814, 1.0231318, 1.0272192, 0.010723614, 0.019592123]
27 [0.053906593, 0.050093412, 0.07409342, 0.05109341, 0.9150934, 0.96596855, 0.09325993, 0.023714388]
28 [0.053906593, 0.050093412, 0.07409342, 0.05109341, 0.0400934, 0.09091101, 0.09268521, 0.022784464]
29 [0.056494504, 0.033505496, 0.1815055, 0.15450549, 0.9235055, 1.0392538, 0.94604343, 0.0075918953]
30 [0.061197802, 0.030197797, 0.056802202, 0.09280219, 0.055802204, 0.043793336, 0.088354036, 0.04022739]
31 [0.061197802, 0.030197797, 0.056802202, 0.098296694, 0.06129671, 0.049289085, 1.0227621, 0.054619182]
32 [0.0614011, 0.0334011, 0.0375989, 0.12693223, 0.12993222, 0.9284905, 0.055205237, 0.7004871]
33 [0.0614011, 0.0334011, 0.0375989, 0.093598895, 0.09659889, 0.053594183, 0.023723692, 0.07916604]
34 [0.0614011, 0.0334011, 0.0375989, 0.093598895, 0.09659889, 0.05359534, 0.023938088, 0.08608271]
35 [0.0614011, 0.0334011, 0.0375989, 0.093598895, 0.09659889, 0.92855215, 0.8813346, 0.091289]
36 [0.0666044, 0.043604393, 0.019604392, 0.042395595, 0.5863956, 0.5813735, 0.52718025, 0.54226]
37 [0.0666044, 0.043604393, 0.019604392, 0.042395595, 0.0863956, 0.081393264, 0.8998377, 0.10204083]
38 [1.0362332, 0.044010986, 0.022010993, 0.028989017, 0.06798901, 1.0551883, 0.056291513, 0.05498515]
39 [0.059329674, 0.041329667, 0.022329671, 0.019670324, 0.04967032, 0.07866905, 0.061262216, 0.025042176]
40 [0.059329674, 0.041329667, 0.022329671, 0.019670324, 0.04967032, 0.07866936, 0.93198544, 0.025356602]
41 [0.09467522, 1.0130086, 0.020230768, 0.009769227, 0.028769221, 0.054768708, 0.112786144, 0.08328457]
42 [0.040813185, 0.028813185, 0.017813183, 0.005813183, 0.018186819, 0.03518655, 0.056026444, 0.05206515]
43 [0.14081319, 0.9788132, 0.017813183, 0.005813183, 0.018186819, 0.0351868, 0.1561868, 1.0031868]
44 [0.033989012, 0.02498901, 0.015989007, 0.0079890145, 0.008010994, 0.019010995, 0.033010982, 0.922989]
45 [0.23398902, 0.95832235, 0.015989007, 0.0079890145, 0.008010994, 0.019010995, 0.033010982, 0.24798901]
46 [0.7769121, 0.01891209, 0.012912083, 0.0069120894, 0.005087911, 0.012087916, 0.021087907, 0.78108793]
47 [0.77257144, 0.015571429, 0.010571434, 0.0055714273, 0.0044285753, 0.00942857, 0.017428575, 0.77742857]
48 [0.022571422, 0.015571429, 0.010571434, 0.0055714273, 0.0044285753, 0.00942857, 0.017428575, 0.027428577]
49 [0.8968077, 0.01580769, 0.009807696, 0.005807687, 0.0041923034, 0.00919231, 0.016192304, 0.9011923]
