0 -3.1415286
0 -3.1415925
0 -3.1415925
0 -3.1415925
0 -3.1415927
0 3.1415923
0 3.1415925
0 -6.4194304E-5
0 1.0471984
1 -3.1415286
1 -3.1415925
1 -3.1415925
1 -3.1415925
1 -3.1415927
1 3.1415923
1 3.1415925
1 -6.4194304E-5
1 1.0471984
2 -3.1415286
2 -3.1415925
2 -3.1415925
2 -3.1415925
2 -3.1415927
2 3.1415923
2 3.1415925
2 -6.4194304E-5
2 1.0471984
3 -3.1415286
3 -3.1415925
3 -3.1415925
3 -3.1415925
3 -3.1415927
3 3.1415923
3 3.1415925
3 -6.4194304E-5
3 1.0471984
4 -3.1415286
4 -3.1415925
4 -3.1415925
4 -3.1415925
4 -3.1415927
4 3.1415923
4 3.1415925
4 -6.4194304E-5
4 1.0471984
5 -3.1415286
5 -3.1415925
5 -3.1415925
5 -3.1415925
5 -3.1415927
5 3.1415923
5 3.1415925
5 -6.4194304E-5
5 1.0471984
6 -3.1415286
6 -3.1415925
6 -3.1415925
6 -3.1415925
6 -3.1415927
6 3.1415923
6 3.1415925
6 -6.4194304E-5
6 1.0471984
7 -3.1415286
7 -3.1415925
7 -3.1415925
7 -3.1415925
7 -3.1415927
7 3.1415923
7 3.1415925
7 -6.4194304E-5
7 1.0471984
8 -3.1415286
8 -3.1415925
8 -3.1415925
8 -3.1415925
8 -3.1415927
8 3.1415923
8 3.1415925
8 -6.4194304E-5
8 1.0471984
9 -3.1415286
9 -3.1415925
9 -3.1415925
9 -3.1415925
9 -3.1415927
9 3.1415923
9 3.1415925
9 -6.4194304E-5
9 1.0471984
10 -3.1415286
10 -3.1415925
10 -3.1415925
10 -3.1415925
10 -3.1415927
10 3.1415923
10 3.1415925
10 -6.4194304E-5
10 1.0471984
11 -3.1415286
11 -3.1415925
11 -3.1415925
11 -3.1415925
11 -3.1415927
11 3.1415923
11 3.1415925
11 -6.4194304E-5
11 1.0471984
12 -3.1415286
12 -3.1415925
12 -3.1415925
12 -3.1415925
12 -3.1415927
12 3.1415923
12 3.1415925
12 -6.4194304E-5
12 1.0471984
13 -3.1415286
13 -3.1415925
13 -3.1415925
13 -3.1415925
13 -3.1415927
13 3.1415923
13 3.1415925
13 -6.4194304E-5
13 1.0471984
14 -3.1415286
14 -3.1415925
14 -3.1415925
14 -3.1415925
14 -3.1415927
14 3.1415923
14 3.1415925
14 -6.4194304E-5
14 1.0471984
15 -3.1415286
15 -3.1415925
15 -3.1415925
15 -3.1415925
15 -3.1415927
15 3.1415923
15 3.1415925
15 -6.4194304E-5
15 1.0471984
16 -3.1415286
16 -3.1415925
16 -3.1415925
16 -3.1415925
16 -3.1415927
16 3.1415923
16 3.1415925
16 -6.4194304E-5
16 1.0471984
17 3.134883
17 3.138013
17 3.1382349
17 3.1380255
17 3.1372273
17 3.134934
17 3.1227872
17 0.0067096413
17 1.0521764
18 3.129022
18 3.1350117
18 3.1354434
18 3.1350856
18 3.1336682
18 3.1296153
18 3.1090503
18 0.012570408
18 1.0626824
19 3.129022
19 3.1350117
19 3.1354434
19 3.1350856
19 3.1336682
19 3.1296153
19 3.1090503
19 0.012570408
19 1.0626824
20 3.130244
20 3.135796
20 3.1362114
20 3.135934
20 3.1347575
20 3.1314135
20 3.1155078
20 0.011348387
20 1.0803084
21 3.1301656
21 3.135949
21 3.136397
21 3.136173
21 3.1351123
21 3.1321142
21 3.1188514
21 0.011426965
21 1.1027912
22 3.1303551
22 3.1362867
22 3.1367595
22 3.1366022
22 3.1356993
22 3.1331558
22 3.1227536
22 0.011237291
22 1.1311685
23 3.130087
23 3.1364841
23 3.1370022
23 3.1369119
23 3.1361485
23 3.133992
23 3.1258676
23 0.01150578
23 1.1667173
24 3.1306083
24 3.137108
24 3.137631
24 3.1376147
24 3.1370482
24 3.1354263
24 3.1297917
24 0.010984041
24 1.2103051
25 3.1321247
25 3.1381485
25 3.1386135
25 3.1386557
25 3.138306
25 3.1372693
25 3.1339283
25 0.009467652
25 1.2622305
26 3.134011
26 3.1391861
26 3.1395557
26 3.1396205
26 3.1394286
26 3.1388254
26 3.136986
26 0.007581269
26 1.3134663
27 3.1348047
27 3.1397457
27 3.1400614
27 3.1401343
27 3.14002
27 3.1396286
27 3.1384792
27 0.006786832
27 1.3598574
28 3.1370246
28 3.1405504
28 3.1407464
28 3.1407995
28 3.1407511
28 3.1405642
28 3.1400285
28 0.0045667402
28 1.4043756
29 3.1393445
29 3.1411662
29 3.1412537
29 3.1412802
29 3.141266
29 3.1412013
29 3.1410186
29 0.0022469934
29 1.4479222
30 -3.1412117
30 3.1415849
30 3.1415868
30 3.141587
30 3.1415868
30 3.1415856
30 3.141583
30 -3.8355752E-4
30 1.4888089
31 -3.1385486
31 -3.1414206
31 -3.141461
31 -3.1414745
31 -3.1414726
31 -3.1414535
31 -3.1413987
31 -0.0030457524
31 1.5202067
32 -3.1343703
32 -3.1413262
32 -3.1413913
32 -3.1414135
32 -3.1414118
32 -3.1413846
32 -3.1413069
32 -0.0072273654
32 1.5411525
33 -3.1284773
33 -3.1412745
33 -3.1413538
33 -3.141381
33 -3.1413798
33 -3.1413488
33 -3.1412601
33 -0.01311854
33 1.5520427
34 -3.1235085
34 -3.1412852
34 -3.1413627
34 -3.1413894
34 -3.1413887
34 -3.1413596
34 -3.141276
34 -0.01809561
34 1.5576663
35 -3.1235085
35 -3.1412852
35 -3.1413627
35 -3.1413894
35 -3.1413887
35 -3.1413596
35 -3.141276
35 -0.01809561
35 1.5576663
36 -3.0724933
36 -3.1411185
36 -3.14124
36 -3.1412818
36 -3.1412814
36 -3.141238
36 -3.1411135
36 -0.069126464
36 1.565837
37 -0.05805299
37 -3.1408932
37 -3.1410763
37 -3.1411402
37 -3.1411417
37 -3.1410816
37 -3.1409075
37 -3.0835109
37 1.5790839
38 -0.05805299
38 -3.1408932
38 -3.1410763
38 -3.1411402
38 -3.1411417
38 -3.1410816
38 -3.1409075
38 -3.0835109
38 1.5790839
39 -0.023904016
39 -3.1405494
39 -3.1408322
39 -3.1409318
39 -3.1409385
39 -3.1408575
39 -3.1406186
39 -3.1176836
39 1.599414
40 -0.012692367
40 -3.140553
40 -3.1408465
40 -3.1409507
40 -3.1409624
40 -3.1408908
40 -3.1406755
40 -3.1288974
40 1.6230075
41 -0.012692367
41 -3.140553
41 -3.1408465
41 -3.1409507
41 -3.1409624
41 -3.1408908
41 -3.1406755
41 -3.1288974
41 1.6230075
42 -0.012692367
42 -3.140553
42 -3.1408465
42 -3.1409507
42 -3.1409624
42 -3.1408908
42 -3.1406755
42 -3.1288974
42 1.6230075
43 -0.0042208084
43 -3.1408975
43 -3.141111
43 -3.141187
43 -3.1412013
43 -3.1411648
43 -3.1410484
43 -3.13737
43 1.6721506
44 -0.0042208084
44 -3.1408975
44 -3.141111
44 -3.141187
44 -3.1412013
44 -3.1411648
44 -3.1410484
44 -3.13737
44 1.6721506
45 -0.0042208084
45 -3.1408975
45 -3.141111
45 -3.141187
45 -3.1412013
45 -3.1411648
45 -3.1410484
45 -3.13737
45 1.6721506
46 -0.0042208084
46 -3.1408975
46 -3.141111
46 -3.141187
46 -3.1412013
46 -3.1411648
46 -3.1410484
46 -3.13737
46 1.6721506
47 -0.0022743263
47 -3.1411088
47 -3.141265
47 -3.14132
47 -3.1413326
47 -3.1413116
47 -3.1412404
47 -3.1393166
47 1.7014853
48 -3.0686578E-4
48 -3.141563
48 -3.141573
48 -3.1415768
48 -3.1415777
48 -3.141577
48 -3.141573
48 -3.1412845
48 1.7386267
49 3.3550843E-4
49 3.1413627
49 3.141448
49 3.1414769
49 3.1414855
49 3.14148
49 3.1414568
49 3.1412578
49 1.7846308
