-1.3152278E-36 4.5814E-41
-0.85000795 -0.69976854
-0.85000795 -0.69976854
-0.85000795 -0.69976854
-0.85000795 -0.69976854
-0.85000795 -0.69976854
-0.85000795 -0.69976854
-0.85000795 -0.69976854
-0.85000795 -0.69976854
-0.85000795 -0.69976854
-0.85000795 -0.69976854
-0.85000795 -0.69976854
-0.8499139 -0.7000339
-0.8501275 -0.6999369
-0.84980404 -0.7002586
-0.84836894 -0.7018453
-0.8471855 -0.7030195
-0.8435559 -0.70477575
-0.84102666 -0.7046293
-0.83823454 -0.70207745
-0.8317835 -0.68747246
-0.82872504 -0.6753839
-0.8247093 -0.6455619
-0.8238373 -0.62811273
-0.82349586 -0.6085281
-0.8233787 -0.5882939
-0.8232535 -0.5680344
-0.82302344 -0.54769814
-0.8227264 -0.529152
-0.8227264 -0.529152
-0.8224438 -0.50380725
-0.8224438 -0.50380725
-0.82223636 -0.49478954
-0.82198507 -0.48571268
-0.8213496 -0.46812963
-0.820442 -0.46192008
-0.81892264 -0.45251578
-0.81960136 -0.44537076
-0.82277554 -0.4312531
-0.82475865 -0.42480865
-0.8295757 -0.41099963
-0.8323687 -0.40384564
-0.8339547 -0.397909
-0.83678675 -0.3887382
-0.83678675 -0.3887382
-0.85147935 -0.37153095
-0.8580041 -0.36569265
-0.872326 -0.35583907
-0.87992907 -0.35247934
-0.89770377 -0.34774968
-0.90760726 -0.34616977
-0.9273194 -0.34529504
-0.9368213 -0.3460347
-0.9465129 -0.34714985
-0.9659132 -0.35054696
-0.97491443 -0.35315353
-0.99451005 -0.36297598
-1.0040677 -0.3699981
-1.0199357 -0.38601828
-1.0261223 -0.39442438
-1.035258 -0.40971738
-1.0389141 -0.41834778
-1.0423054 -0.4290146
-1.0472229 -0.45750037
-1.0486691 -0.4715917
-1.0503466 -0.4926315
-1.0507519 -0.5032956
-1.0505675 -0.5216455
-1.0493295 -0.5307386
-1.0437176 -0.5516114
-1.039822 -0.56258345
-1.0304085 -0.58505857
-1.0249245 -0.5960543
-1.0192559 -0.6063384
-1.007596 -0.62488127
-1.0017529 -0.6330207
-0.99022704 -0.64650524
-0.98399705 -0.65158343
-0.97046435 -0.6590117
-0.97046435 -0.6590117
-0.9560894 -0.66462237
-0.9491619 -0.66689557
-0.93698895 -0.6692039
-0.930237 -0.6685748
-0.9228587 -0.66630405
-0.90784466 -0.658861
-0.90051556 -0.6540955
-0.8887041 -0.6432521
-0.88366187 -0.6365075
-0.87550193 -0.6191031
-0.87261283 -0.61098754
-0.8684738 -0.5986109
-0.8663843 -0.5922309
-0.8621858 -0.57937944
-0.8600866 -0.5732496
-0.8580419 -0.5676529
-0.8560842 -0.5571271
-0.8570647 -0.54941547
-0.86347073 -0.5313332
-0.86900413 -0.5214665
-0.8846221 -0.50007164
-0.89398515 -0.48863512
-0.91520405 -0.46567026
-0.9265853 -0.4548486
-0.93828785 -0.4445478
-0.96157634 -0.42653626
-0.9727937 -0.41896552
-0.9948026 -0.40706187
-1.0056899 -0.4032742
-1.0263406 -0.39988843
-1.036027 -0.4000999
-1.0542948 -0.40339074
-1.0629516 -0.40647942
-1.0713317 -0.41042274
-1.0883204 -0.42163292
-1.0987151 -0.4302899
-1.120789 -0.45272055
-1.1308601 -0.46405014
-1.1430004 -0.47766262
-1.1456107 -0.48018044
-1.1472602 -0.48184466
-1.1476251 -0.48233336
-1.1526264 -0.48904628
-1.15431 -0.49160868
-1.1561188 -0.4944388
-1.1654625 -0.50827736
-1.1710541 -0.51599
-1.18256 -0.5317568
-1.1885105 -0.539708
-1.2007393 -0.5552088
-1.2066388 -0.5626391
-1.2191358 -0.5732905
-1.2191358 -0.5732905
