0 [0.0, 0.0, 0.0, 0.0, 0.0, 0.0, 0.0, 0.0]
1 [0.0, 0.0, 0.0, 0.0, 0.0, 0.0, 0.0, 0.0]
2 [0.0, 0.0, 0.0, 0.0, 0.0, 0.0, 0.0, 0.0]
3 [0.0, 0.0, 0.0, 0.0, 0.0, 0.0, 0.0, 0.0]
4 [0.0, 0.0, 0.0, 0.0, 0.0, 0.0, 0.0, 0.0]
5 [0.0, 0.0, 0.0, 0.0, 0.0, 0.0, 0.0, 0.0]
6 [0.0, 0.0, 0.0, 0.0, 0.0, 0.0, 0.0, 0.0]
7 [0.0, 0.0, 0.0, 0.0, 0.0, 0.0, 0.0, 0.0]
8 [0.0, 0.0, 0.0, 0.0, 0.0, 0.0, 0.0, 0.0]
9 [0.0, 0.47995728, 0.6708648, 0.0, 0.0, 0.0, 0.0, 0.67039514]
10 [0.0, 0.47995728, 0.6708648, 0.0, 0.0, 0.0, 0.0, 0.67039514]
11 [0.0, 0.4756218, 0.47587392, 0.0, 0.0, 0.0, 0.0, 0.6762353]
12 [0.0, 0.48469964, 0.48245952, 0.0, 0.0, 0.0, 0.0, 0.68212265]
13 [0.0, 0.5057293, 0.4860902, 0.0, 0.0, 0.0, 0.0, 0.68481874]
14 [0.0, 0.5306293, 0.48007628, 0.0, 0.0, 0.0, 0.0, 0.679302]
15 [0.0, 0.0, 0.4593622, 0.6581312, 0.0, 0.0, 0.0, 0.0]
16 [0.0, 0.0, 0.44039777, 0.4390188, 0.0, 0.0, 0.0, 0.0]
17 [0.0, 0.0, 0.41303423, 0.40849757, 0.0, 0.0, 0.0, 0.0]
18 [0.0, 0.0, 0.37600696, 0.37047517, 0.0, 0.0, 0.0, 0.0]
19 [0.0, 0.0, 0.35822505, 0.3514104, 0.0, 0.0, 0.0, 0.0]
20 [0.0, 0.0, 0.32717624, 0.31510952, 0.0, 0.0, 0.0, 0.0]
21 [0.0, 0.0, 0.32717624, 0.31510952, 0.0, 0.0, 0.0, 0.0]
22 [0.0, 0.0, 0.3113729, 0.29154232, 0.0, 0.0, 0.0, 0.0]
23 [0.0, 0.0, 0.3113729, 0.29154232, 0.0, 0.0, 0.0, 0.0]
24 [0.0, 0.0, 0.3087464, 0.2745055, 0.0, 0.0, 0.0, 0.0]
25 [0.0, 0.0, 0.32029375, 0.2553435, 0.44387937, 0.0, 0.0, 0.0]
26 [0.0, 0.0, 0.0, 0.2538229, 0.244695, 0.0, 0.0, 0.0]
27 [0.61873007, 0.0, 0.0, 0.26467496, 0.23752786, 0.0, 0.0, 0.0]
28 [0.5335837, 0.0, 0.0, 0.27673241, 0.22309275, 0.4108689, 0.0, 0.0]
29 [0.4854999, 0.0, 0.0, 0.29701802, 0.21608832, 0.40545714, 0.0, 0.0]
30 [0.47168005, 0.0, 0.0, 0.0, 0.22846542, 0.19998714, 0.0, 0.0]
31 [0.4671276, 0.0, 0.0, 0.0, 0.25810188, 0.1935036, 0.38684392, 0.0]
32 [0.452916, 0.0, 0.0, 0.0, 0.0, 0.20693201, 0.18699725, 0.0]
33 [0.6152128, 0.5210092, 0.0, 0.0, 0.0, 0.23285508, 0.179862, 0.0]
34 [0.0, 0.42566732, 0.0, 0.0, 0.0, 0.0, 0.19845304, 0.37633193]
35 [0.0, 0.41607845, 0.4916045, 0.0, 0.0, 0.0, 0.0, 0.19447936]
36 [0.0, 0.40887827, 0.45204628, 0.0, 0.0, 0.0, 0.0, 0.19914411]
37 [0.0, 0.5696634, 0.38759843, 0.0, 0.0, 0.0, 0.0, 0.21282703]
38 [0.0, 0.0, 0.3723643, 0.43119743, 0.0, 0.0, 0.0, 0.2533344]
39 [0.0, 0.0, 0.53442085, 0.3520792, 0.0, 0.0, 0.0, 0.0]
40 [0.0, 0.0, 0.52227145, 0.3480998, 0.45215195, 0.0, 0.0, 0.0]
41 [0.95748955, 0.0, 0.0, 0.3271448, 0.34934175, 0.0, 0.0, 0.0]
42 [0.9654432, 0.0, 0.0, 0.48230162, 0.30613708, 0.39602688, 0.0, 0.0]
43 [0.9485309, 0.0, 0.0, 0.0, 0.28562462, 0.31138813, 0.0, 0.0]
44 [0.0, 0.0, 0.0, 0.0, 0.44962266, 0.26882154, 0.39759594, 0.0]
45 [0.0, 0.0, 0.0, 0.0, 0.42374113, 0.25489593, 0.3134158, 0.0]
46 [0.0, 0.9191906, 0.0, 0.0, 0.0, 0.40450072, 0.2429593, 0.0]
47 [0.0, 0.88766915, 0.0, 0.0, 0.0, 0.3833455, 0.21367499, 0.0]
48 [0.0, 0.8893146, 0.0, 0.0, 0.0, 0.0, 0.19998847, 0.0]
49 [0.0, 0.88110715, 0.9109583, 0.0, 0.0, 0.0, 0.35731196, 0.36793628]
