0 [0.0, 0.0, 0.0, 0.0, 0.0, 0.0, 0.0, 0.0]
1 [0.0, 0.0, 0.0, 0.0, 0.0, 0.0, 0.0, 0.0]
2 [0.0, 0.0, 0.0, 0.0, 0.0, 0.0, 0.0, 0.0]
3 [0.06983516, 0.048164833, 0.048164833, 0.10083517, 0.10083517, 0.047164835, 0.047164835, 0.047164835]
4 [0.070450544, 0.052450553, 0.04754945, 0.10245055, 0.10245055, 0.045549452, 0.04454945, 0.043549452]
5 [0.070450544, 0.052450553, 0.04754945, 0.10245055, 0.10245055, 0.045549452, 0.04454945, 0.043549452]
6 [0.95669657, 0.17091879, 0.0521923, 0.9916966, 0.9916966, 0.15530342, 0.15030342, 0.14930344]
7 [0.06780769, 0.059807688, 0.0521923, 0.10280769, 0.10280769, 0.04419231, 0.039192315, 0.038192317]
8 [0.06780769, 0.059807688, 0.0521923, 0.10280769, 0.10280769, 0.04419231, 0.039192315, 0.038192317]
9 [0.06780769, 0.059807688, 0.0521923, 0.10280769, 0.10280769, 0.04419231, 0.039192315, 0.038192317]
10 [0.0695, 0.0675, 0.0655, 0.05650001, 0.1045, 0.105500005, 0.048499998, 0.048499998]
11 [0.0695, 0.0675, 0.0655, 0.05650001, 0.1045, 0.105500005, 0.048499998, 0.048499998]
12 [0.0695, 0.0675, 0.0655, 0.05650001, 0.1045, 0.105500005, 0.048499998, 0.048499998]
13 [0.8122637, 0.99993044, 0.07526373, 0.063263744, 1.021403, 1.024403, 0.052736267, 0.05673626]
14 [0.056208782, 0.0872088, 0.07820878, 0.0672088, 0.9926801, 0.9966801, 0.1087912, 0.059791204]
15 [0.5562088, 0.0872088, 0.07820878, 0.0672088, 0.60379124, 0.6077912, 0.1087912, 0.059791204]
16 [0.041543957, 0.1530995, 0.13709952, 0.1310995, 1.0009884, 1.0559005, 0.11345604, 0.1250116]
17 [0.54154396, 0.097543955, 0.08154397, 0.07554395, 0.55654395, 0.61145604, 0.11345604, 0.06945604]
18 [0.035170335, 0.16067033, 1.0196704, 0.14167032, 0.9956703, 1.0503297, 0.11682967, 0.13432968]
19 [0.5351703, 0.098170325, 0.08217034, 0.07917032, 0.5581703, 0.6128297, 0.11682967, 0.07182967]
20 [0.030109901, 0.19610989, 0.19910988, 0.18210989, 0.9591099, 1.01389, 1.0198901, 0.1748901]
21 [0.021664836, 0.08133517, 0.14279671, 0.12079671, 0.09979671, 1.0782033, 1.0842032, 0.16312638]
22 [0.89666486, 0.08133517, 0.104335174, 0.082335174, 0.06133517, 0.9916648, 0.12266483, 0.124664836]
23 [0.0240989, 0.069901094, 1.0579011, 0.1329011, 0.118901104, 0.9929011, 1.0730989, 0.1270989]
24 [0.8990989, 0.069901094, 0.107901104, 0.082901105, 0.0689011, 0.9179011, 0.1230989, 0.1270989]
25 [0.027318686, 0.057681326, 0.15713587, 0.12813587, 0.122135855, 1.0022267, 1.0788641, 0.13131869]
26 [0.036197804, 0.038802195, 0.09080219, 0.1078022, 0.07380221, 0.047802188, 0.017802192, 0.1391978]
27 [0.041846156, 0.02815385, 0.074153855, 1.0426538, 0.12965384, 0.79915386, 0.9536538, 1.0813462]
28 [0.041846156, 0.02815385, 0.074153855, 0.10515385, 0.067153834, 0.049153853, 0.016153838, 0.14384615]
29 [0.04748901, 0.767489, 0.056510985, 0.12828878, 0.09926679, 0.08028877, 0.765511, 1.1217113]
30 [1.0114175, 0.89587915, 0.044120885, 0.12858243, 0.13558242, 0.103340656, 0.8931209, 1.0074176]
31 [0.04987912, 0.020879123, 0.044120885, 0.09012089, 0.09712088, 0.06487912, 0.018120887, 0.045879122]
32 [1.0252668, 0.773489, 0.029510988, 0.06351098, 0.11873321, 0.099711224, 0.781511, 0.06571124]
33 [0.04748901, 0.02348901, 0.029510988, 0.06351098, 0.09651099, 0.077489, 0.031510986, 0.043489017]
34 [0.9437967, 0.0227967, 0.021203306, 0.048203304, 0.0812033, 0.29020327, 0.2767967, 0.23879671]
35 [0.043796703, 0.7727967, 0.021203306, 0.048203304, 0.0812033, 0.090203285, 0.8267967, 0.038796708]
36 [0.043796703, 0.0227967, 0.021203306, 0.048203304, 0.0812033, 0.090203285, 0.07679671, 0.038796708]
37 [0.043796703, 0.7727967, 0.021203306, 0.048203304, 0.0812033, 0.090203285, 0.07679671, 0.7887967]
38 [0.12757692, 0.76757693, 0.019423068, 0.040423073, 0.06742307, 0.089423075, 0.082576916, 0.78157693]
39 [1.0868242, 0.014285711, 0.018714283, 0.037714288, 0.05971429, 0.2020989, 0.19867033, 0.19067033]
40 [0.12528571, 0.5142857, 0.5187143, 0.037714288, 0.05971429, 0.08671429, 0.08328572, 0.57528573]
41 [0.12110989, 0.3861099, 0.3938901, 0.03489012, 0.0538901, 0.0788901, 0.08410989, 0.95710987]
42 [1.0715289, 0.9615619, 0.020016488, 0.033016473, 0.048016485, 0.06701649, 0.30725625, 0.31225625]
43 [0.11698352, 0.38201648, 0.3950165, 0.033016473, 0.048016485, 0.06701649, 0.07998352, 0.9599835]
44 [0.11227473, 1.075608, 0.02072527, 0.031725273, 0.043725286, 0.057725273, 0.23939195, 1.0706081]
45 [0.11286264, 1.0868737, 0.018137364, 0.027137367, 0.036137357, 0.047137372, 0.16103846, 1.0818737]
46 [0.11286264, 0.09786264, 0.018137364, 0.027137367, 0.036137357, 0.71380407, 0.062137358, 0.75952935]
47 [1.0586587, 0.9315476, 0.014785718, 0.02278571, 0.031785715, 0.041785706, 0.054785717, 1.0366588]
48 [0.6142143, 0.09821428, 0.014785718, 0.5227857, 0.5317857, 0.041785706, 0.054785717, 0.09221429]
49 [0.61804944, 0.004049452, 0.011950545, 0.51995057, 0.5279505, 0.037950546, 0.050950557, 0.09304945]
