0 8.746679E-8
0 7.780826E-8
0 1.1920902E-7
0 -0.0
0 -3.1415927
0 -3.1415927
0 -3.1415927
0 3.1415927
0 -3.1415915
1 8.746679E-8
1 7.780826E-8
1 1.1920902E-7
1 -0.0
1 -3.1415927
1 -3.1415927
1 -3.1415927
1 3.1415927
1 -3.1415915
2 -0.0066039497
2 -0.0085874405
2 -0.013101953
2 -0.037036225
2 -3.1025467
2 -3.1282773
2 -3.1329377
2 -3.1349885
2 -3.13693
3 -0.0066039497
3 -0.0085874405
3 -0.013101953
3 -0.037036225
3 -3.1025467
3 -3.1282773
3 -3.1329377
3 -3.1349885
3 -3.13693
4 -0.012579832
4 -0.01621115
4 -0.024499143
4 -0.066497445
4 -3.0623217
4 -3.1157417
4 -3.1249542
4 -3.1290128
4 -3.1260877
5 -0.012579832
5 -0.01621115
5 -0.024499143
5 -0.066497445
5 -3.0623217
5 -3.1157417
5 -3.1249542
5 -3.1290128
5 -3.1260877
6 -0.011383164
6 -0.014214097
6 -0.020810049
6 -0.050083812
6 -3.0471144
6 -3.1164613
6 -3.126021
6 -3.1302094
6 -3.0873246
7 -0.011383164
7 -0.014214097
7 -0.020810049
7 -0.050083812
7 -3.0471144
7 -3.1164613
7 -3.126021
7 -3.1302094
7 -3.0873246
8 -0.011383164
8 -0.014214097
8 -0.020810049
8 -0.050083812
8 -3.0471144
8 -3.1164613
8 -3.126021
8 -3.1302094
8 -3.0873246
9 -0.011177185
9 -0.013647361
9 -0.019556915
9 -0.04380095
9 -3.020911
9 -3.115498
9 -3.12591
9 -3.1304154
9 -3.0590725
10 -0.01077815
10 -0.012406465
10 -0.016875198
10 -0.03249899
10 -2.535812
10 -3.1117265
10 -3.1253245
10 -3.1308146
10 -2.9824333
11 -0.01077815
11 -0.012406465
11 -0.016875198
11 -0.03249899
11 -2.535812
11 -3.1117265
11 -3.1253245
11 -3.1308146
11 -2.9824333
12 -0.01077815
12 -0.012406465
12 -0.016875198
12 -0.03249899
12 -2.535812
12 -3.1117265
12 -3.1253245
12 -3.1308146
12 -2.9824333
13 -0.01077815
13 -0.012406465
13 -0.016875198
13 -0.03249899
13 -2.535812
13 -3.1117265
13 -3.1253245
13 -3.1308146
13 -2.9824333
14 -0.010025308
14 -0.011189996
14 -0.014843566
14 -0.026845869
14 -0.36384243
14 -3.110648
14 -3.125806
14 -3.1315672
14 -2.9412358
15 -0.008997024
15 -0.009794069
15 -0.012741846
15 -0.022028198
15 -0.14544086
15 -3.1108878
15 -3.1268914
15 -3.1325955
15 -2.9072187
16 -0.008997024
16 -0.009794069
16 -0.012741846
16 -0.022028198
16 -0.14544086
16 -3.1108878
16 -3.1268914
16 -3.1325955
16 -2.9072187
17 -0.008432581
17 -0.008984561
17 -0.011503095
17 -0.019200834
17 -0.09115484
17 -3.1098711
17 -3.127342
17 -3.13316
17 -2.877772
18 -0.006684716
18 -0.006999075
18 -0.00884722
18 -0.014377881
18 -0.056505274
18 -3.114067
18 -3.129957
18 -3.134908
18 -2.853326
19 -0.0057538743
19 -0.0059402534
19 -0.007433656
19 -0.011837775
19 -0.04123493
19 -3.115904
19 -3.1313243
19 -3.1358387
19 -2.8334935
20 -0.005655103
20 -0.0057683056
20 -0.007158937
20 -0.011215717
20 -0.03585129
20 -3.1143942
20 -3.1312797
20 -3.1359375
20 -2.8167393
21 -0.00399737
21 -0.0040330547
21 -0.004965419
21 -0.0076608597
21 -0.022756182
21 -3.1207438
21 -3.1341338
21 -3.1375952
21 -2.8002434
22 -0.001342944
22 -0.0013479564
22 -0.0016465372
22 -0.002503142
22 -0.0069661844
22 -3.1338835
22 -3.139011
22 -3.1402497
22 -2.7836068
23 -7.928639E-4
23 -7.932001E-4
23 -9.6209353E-4
23 -0.0014438805
23 -0.0038093952
23 -3.1365755
23 -3.1400228
23 -3.1407998
23 -2.7684119
24 -7.858111E-4
24 -7.797905E-4
24 -9.4044866E-4
24 -0.0013970908
24 -0.0035442563
24 -3.1362023
24 -3.1400073
24 -3.140807
24 -2.7561078
25 2.8231056E-4
25 2.5702867E-4
25 3.0793145E-4
25 4.519349E-4
25 0.0010984506
25 3.1396008
25 3.1410534
25 3.1413105
25 -2.7415926
26 9.970091E-4
26 9.3065866E-4
26 0.0011050194
26 0.0015962693
26 0.0036738897
26 3.1328871
26 3.139544
26 3.1405957
26 -2.7209668
27 0.0016863329
27 0.0015525016
27 0.0018217055
27 0.0025799572
27 0.005572439
27 3.1217327
27 3.1379437
27 3.1399064
27 -2.693778
28 0.0021738173
28 0.001963751
28 0.0022772301
28 0.0031634686
28 0.0064539947
28 3.1015084
28 3.136637
28 3.1394188
28 -2.665767
29 0.001855467
29 0.0016401223
29 0.001881409
29 0.0025688743
29 0.0049989875
29 3.0667686
29 3.1371508
29 3.1397371
29 -2.6394517
30 0.001484204
30 0.0012783303
30 0.0014489865
30 0.0019425276
30 0.0036053727
30 0.1548472
30 3.1378233
30 3.1401083
30 -2.6099193
31 2.498862E-4
31 1.9315592E-4
31 2.1623967E-4
31 2.8408272E-4
31 5.037398E-4
31 0.0047041313
31 3.1409626
31 3.1413429
31 -2.577329
32 -0.0014550989
32 -0.001225718
32 -0.0013518058
32 -0.0017409624
32 -0.0029429477
32 -0.015567568
32 -3.1370275
32 -3.1401377
32 -2.5395274
33 -0.004135325
33 -0.0033280642
33 -0.0036098103
33 -0.0045426227
33 -0.007314087
33 -0.027163375
33 -3.1267877
33 -3.1374574
33 -2.4953485
34 -0.004135325
34 -0.0033280642
34 -0.0036098103
34 -0.0045426227
34 -0.007314087
34 -0.027163375
34 -3.1267877
34 -3.1374574
34 -2.4953485
35 -0.006912362
35 -0.005322956
35 -0.005666401
35 -0.006954183
35 -0.010663031
35 -0.030807415
35 -3.111107
35 -3.1346803
35 -2.4443877
36 -0.006912362
36 -0.005322956
36 -0.005666401
36 -0.006954183
36 -0.010663031
36 -0.030807415
36 -3.111107
36 -3.1346803
36 -2.4443877
37 -0.008254661
37 -0.006038127
37 -0.0062915096
37 -0.007513211
37 -0.010964534
37 -0.026100772
37 -3.0895813
37 -3.133338
37 -2.3849823
38 -0.008254661
38 -0.006038127
38 -0.0062915096
38 -0.007513211
38 -0.010964534
38 -0.026100772
38 -3.0895813
38 -3.133338
38 -2.3849823
39 -0.00736911
39 -0.0050969482
39 -0.0051943297
39 -0.0060382765
39 -0.008422148
39 -0.01737981
39 -3.0475478
39 -3.1342237
39 -2.3225987
40 -0.00736911
40 -0.0050969482
40 -0.0051943297
40 -0.0060382765
40 -0.008422148
40 -0.01737981
40 -3.0475478
40 -3.1342237
40 -2.3225987
41 -0.0033056054
41 -0.00206112
41 -0.0020197856
41 -0.002245982
41 -0.0029263564
41 -0.005076877
41 -0.03506842
41 -3.138287
41 -2.211711
42 -0.0033056054
42 -0.00206112
42 -0.0020197856
42 -0.002245982
42 -0.0029263564
42 -0.005076877
42 -0.03506842
42 -3.138287
42 -2.211711
43 -5.8335235E-4
43 -3.6994368E-4
43 -3.5604107E-4
43 -3.8856274E-4
43 -4.9277156E-4
43 -8.065075E-4
43 -0.0033111451
43 -3.1410096
43 -2.1613348
44 -5.8335235E-4
44 -3.6994368E-4
44 -3.5604107E-4
44 -3.8856274E-4
44 -4.9277156E-4
44 -8.065075E-4
44 -0.0033111451
44 -3.1410096
44 -2.1613348
45 0.0015534894
45 8.166396E-4
45 7.73175E-4
45 8.2890916E-4
45 0.0010268983
45 0.0016031268
45 0.005043605
45 3.140039
45 -2.1151166
46 0.0015534894
46 8.166396E-4
46 7.73175E-4
46 8.2890916E-4
46 0.0010268983
46 0.0016031268
46 0.005043605
46 3.140039
46 -2.1151166
47 0.0028161313
47 0.0014235671
47 0.0013282854
47 0.0014032857
47 0.0017055828
47 0.002568707
47 0.006883485
47 3.1387763
47 -2.0748556
48 0.0029976924
48 0.0014420553
48 0.0013290746
48 0.0013875518
48 0.0016611457
48 0.002434763
48 0.0058894996
48 3.1385949
48 -2.041677
49 0.0018628594
49 8.4568E-4
49 7.72099E-4
49 7.9877215E-4
49 9.455747E-4
49 0.001359415
49 0.0030798085
49 3.1397297
49 -2.0164213
