0 -1
1 -1
2 -1
3 -1
4 -1
5 -1
6 -1
7 -1
8 -1
9 -1
10 -1
11 -1
12 -1
13 -1
14 -1
15 -1
16 -1
17 -1
18 -1
19 -1
20 -1
21 -1
22 -1
23 -1
24 -1
25 -1
26 -1
27 237375
28 237375
29 237375
30 237375
31 237375
32 237375
33 237375
34 236875
35 236875
36 234375
37 234375
38 234375
39 234375
40 234375
41 234375
42 234375
43 234375
44 234375
45 234375
46 234375
47 234375
48 46875
49 46875
50 46875
51 46875
52 46875
53 46875
54 56250
55 56250
56 56250
57 56250
58 11250
59 11250
60 11250
61 1875
62 1875
63 1875
64 314750
65 314750
66 314750
67 314750
68 -1
69 314750
70 312875
71 312875
72 312875
73 312875
74 312950
75 312950
76 312950
77 312950
78 312950
79 312950
80 312950
81 312950
82 312950
83 312950
84 312950
85 312950
86 312950
87 312950
88 312950
89 312950
90 312585
91 312585
92 312560
93 62510
94 46885
95 56253
96 75002
97 -1
98 3000
99 3000
100 600
101 100
102 100
103 120
104 20
105 0
106 0
107 4
108 4
109 4
110 4
111 4
112 4
113 0
114 0
115 0
116 62500
117 62500
118 75000
119 75000
120 75000
121 75000
122 75000
123 75000
124 75000
125 75000
126 -1
127 75000
128 75000
129 75000
130 75000
131 56250
132 56250
133 56250
134 56250
135 56250
136 56250
137 56250
138 56250
139 56250
140 56250
141 40625
142 40625
143 31250
144 31250
145 31250
146 31250
147 31250
148 31250
149 31250
150 31250
151 31250
152 33750
153 34250
154 190500
155 -1
156 190500
157 190500
158 80500
159 80375
160 80375
161 80375
162 80375
163 80375
164 80375
165 80375
166 79625
167 79625
168 157750
169 157750
170 157750
171 157750
172 157770
173 157770
174 157770
175 895
176 895
177 895
178 13395
179 75870
180 75870
181 75870
182 75874
183 75874
184 -1
185 75874
186 75874
187 75874
188 66499
189 66499
190 65874
191 65874
192 65874
193 65874
194 50124
195 50124
196 50124
197 56268
198 31250
199 31250
200 31250
201 31250
202 31250
203 31250
204 281250
205 281250
206 205625
207 205625
208 158750
209 158750
210 -1
211 158750
212 158750
213 158750
214 170625
215 170625
216 170625
217 170625
218 170625
219 167500
220 170625
221 170625
222 170625
223 170625
224 158500
225 158500
226 158520
227 158520
228 157770
229 158379
230 158379
231 156554
232 156554
233 156554
234 156554
235 156404
236 156404
237 158904
238 171404
239 -1
240 171404
241 171404
242 171529
243 233884
244 230134
245 230134
246 230129
247 230379
248 230379
249 167951
250 20
251 20
252 20
253 20
254 20
255 20
256 20
257 4
258 312504
259 312504
260 312504
261 312504
262 312504
263 312504
264 62500
265 -1
266 75000
267 75000
268 12500
269 12500
270 15000
271 15000
272 15000
273 234375
274 234375
275 234375
276 234375
277 234375
278 234375
279 234375
280 234375
281 234375
282 234975
283 234975
284 234975
285 234975
286 234975
287 234975
288 234975
289 234975
290 234975
291 234975
292 234975
293 234825
294 234825
295 234825
296 234950
297 234950
298 234950
299 234950
300 234950
301 234450
302 234440
303 -1
304 234435
305 234435
306 234435
307 312560
308 312560
309 312560
310 312560
311 312560
312 312560
313 312560
314 312560
315 312560
316 312560
317 312535
318 312555
319 312505
320 234380
321 234380
322 234380
323 299376
324 297376
325 297376
326 388102
327 59975
328 61975
329 61975
330 61995
331 61995
332 -1
333 61365
334 58740
335 58615
336 58615
337 46015
338 42890
339 42890
340 42265
341 42140
342 42140
343 42140
344 42140
345 42140
346 42140
347 42140
348 39015
349 39015
350 39015
351 272640
352 272640
353 194515
354 163268
355 160143
356 160143
357 160152
358 160152
359 160152
360 159402
361 -1
362 159402
363 156252
364 11878
365 11878
366 11253
367 11253
368 11253
369 11253
370 11253
371 11253
372 8128
373 8128
374 8128
375 8128
376 8629
377 39979
378 38100
379 38100
380 38100
381 38100
382 38100
383 34975
384 19200
385 19200
386 19200
387 22325
388 -1
389 22325
390 22325
391 19220
392 19220
393 19215
394 19215
395 19215
396 3565
397 78565
398 78565
399 78440
400 78440
401 320
402 320
403 320
404 79695
405 79695
406 79695
407 1600
408 7829
409 4229
410 35379
411 35379
412 20375
413 21125
414 21125
415 21125
416 20645
417 26895
418 183770
419 183770
420 183770
421 103245
422 103245
423 118850
424 134475
425 134475
426 134475
427 134475
428 137600
429 137600
430 125600
431 125100
432 125100
433 125100
434 125075
435 -1
436 187595
437 187595
438 187595
439 187595
440 187595
441 187595
442 187595
443 187595
444 203215
445 203215
446 203185
447 203185
448 156310
449 156310
450 156310
451 156310
452 156310
453 156310
454 156310
455 171260
456 233760
457 233760
458 233760
459 233760
460 233755
461 234255
462 234255
463 234256
464 -1
465 234251
466 234251
467 171852
468 280622
469 268595
470 268595
471 274840
472 274840
473 196715
474 253594
475 253594
476 253594
477 177968
478 177968
479 177968
480 177968
481 177968
482 177938
483 177938
484 174813
485 80313
486 80313
487 2187
488 2187
489 2187
490 17812
491 17812
492 17812
493 -1
494 0
495 0
496 0
497 0
498 0
499 0
500 0
501 0
502 0
503 0
504 0
505 0
506 0
507 20
508 20
509 20
510 20
511 20
512 20
513 20
514 20
515 3020
516 3020
517 3015
518 3015
519 3015
520 -1
521 3020
522 2895
523 2274
524 2274
525 2273
526 2253
527 2253
528 2253
529 2253
530 2253
531 2253
532 77128
533 77128
534 77925
535 77925
536 15560
537 15610
538 15610
539 3123
540 3122
541 3122
542 592
543 593
544 93
545 93
546 118
547 23
548 -1
549 4
550 312500
551 312500
552 62500
553 62500
554 75000
555 171250
556 158750
557 158750
558 344250
559 266225
560 266225
561 271975
562 304395
563 304395
564 292754
565 370929
566 370929
567 74235
568 2998
569 124
570 124
571 24
572 4
573 312500
574 62500
575 62500
576 171250
577 -1
578 284250
579 271975
580 271975
581 292125
582 292125
583 371054
584 58585
585 14848
586 14848
587 2968
588 124
589 124
590 124
591 24
592 24
593 24
594 312504
595 312504
596 312500
597 312500
598 312500
599 0
600 0
601 62500
602 62500
603 62500
604 75000
605 75000
606 -1
607 75000
608 249375
609 171250
610 159250
611 159250
612 159250
613 159250
614 344350
615 344350
616 350120
617 382520
618 382520
619 389145
620 389629
621 77804
622 77804
623 78065
624 78065
625 78085
626 3124
627 3124
628 623
629 623
630 120
631 120
632 24
633 24
634 4
635 -1
636 234375
637 234375
638 312500
639 46875
640 46875
641 56250
642 11875
643 170625
644 170625
645 158500
646 158500
647 159125
648 281700
649 359950
650 353215
651 353215
652 350115
653 383140
654 382878
655 76503
656 76503
657 77800
658 77800
659 77800
660 78060
661 78060
662 78060
663 15555
664 -1
665 15430
666 14855
667 14855
668 14830
669 14830
670 11705
671 11705
672 11707
673 11707
674 74207
675 74207
676 74206
677 74206
678 74206
679 73441
680 73441
681 73441
682 54691
683 54691
684 54691
685 54691
686 54686
687 54686
688 54686
689 54686
690 38286
691 38286
692 35161
693 -1
694 35161
695 35161
696 35156
697 35157
698 35157
699 19530
700 18780
701 15630
702 15625
703 15625
704 15020
705 15020
706 15020
707 15020
708 15020
709 14395
710 11270
711 11270
712 11270
713 11270
714 11250
715 11250
716 9379
717 9379
718 9379
719 -1
720 6254
721 6254
722 6254
723 6254
724 6254
725 6254
726 6254
727 6254
728 6254
729 6254
730 6254
731 6254
732 6254
733 6254
734 6254
735 6254
736 7504
737 7504
738 7504
739 7504
740 7504
741 7504
742 1879
743 2254
744 2254
745 375
746 450
747 75
748 75
749 90
750 15
751 15
752 3
753 3
754 3
755 3
756 3
757 3
758 103
759 103
760 103
761 103
762 103
763 103
764 103
765 104
766 99
767 99
768 99
769 95
770 95
771 95
772 95
773 95
774 95
775 95
776 -1
777 90
778 90
779 90
780 90
781 15560
782 15560
783 15560
784 15560
785 78060
786 78060
787 78060
788 78060
789 74185
790 74185
791 74185
792 74185
793 74185
794 74185
795 74185
796 58585
797 58585
798 58580
799 58580
800 58580
801 58580
802 58580
803 55330
804 54705
805 -1
806 54705
807 54707
808 39056
809 39056
810 39056
811 39051
812 39051
813 35176
814 35186
815 35186
816 35186
817 35161
818 35161
819 19536
820 19536
821 19531
822 19531
823 19532
824 19407
825 19407
826 19407
827 15630
828 15630
829 15630
830 0
831 0
832 -1
833 0
834 0
835 0
836 0
837 0
838 0
839 4
840 4
841 0
842 0
843 0
844 0
845 0
846 0
847 0
848 0
849 0
850 0
851 0
852 0
853 0
854 0
855 0
856 0
857 0
858 500
859 3104
860 3104
861 -1
862 3104
863 3104
864 3124
865 3124
866 3124
867 15599
868 14849
869 14849
870 14849
871 14849
872 14849
873 14844
874 14844
875 14844
876 14844
877 14844
878 11715
879 14690
880 14690
881 2188
882 2188
883 2188
884 2188
885 437
886 437
887 437
888 62
889 87
890 -1
891 87
892 87
893 87
894 87
895 12
896 12
897 12
898 12
899 12
900 12
901 12
902 12
903 12
904 12
905 12
906 12
907 12
908 12
909 12
910 12
911 12
912 12
913 12
914 12
915 12
916 12
917 12
918 12
919 -1
920 12
921 12
922 12
923 12
924 12
925 12
926 12
927 12
928 12
929 2512
930 2512
931 2512
932 2512
933 2512
934 2512
935 2512
936 2512
937 2512
938 1887
939 1887
940 1887
941 1887
942 1887
943 1887
944 1887
945 11262
946 10637
947 10637
948 10637
949 7512
950 7512
951 320012
952 320012
953 320012
954 320012
955 320012
956 320012
957 320012
958 320012
959 320012
960 319387
961 319387
962 316262
963 316262
964 316262
965 316837
966 316837
967 316837
968 316837
969 316837
970 333087
971 334312
972 334312
973 18687
974 6062
975 6062
976 93437
977 27812
978 27812
979 58437
980 57812
981 57812
982 57782
983 135782
984 135782
985 135782
986 135157
987 135157
988 291406
989 291406
990 291376
991 291251
992 291251
993 290626
994 290626
995 275001
996 275001
997 275000
998 100
999 100
