0 [0.0, 0.0, 0.0, 0.0, 0.0, 0.0, 0.0, 0.0]
1 [0.0, 0.0, 0.0, 0.0, 0.0, 0.0, 0.0, 0.0]
2 [0.0, 0.0, 0.0, 0.0, 0.0, 0.0, 0.0, 0.0]
3 [0.0, 0.0, 0.0, 0.5, 0.5, 0.0, 0.0, 0.5]
4 [0.8888889, 0.8888889, 0.0, 0.0, 0.8888889, 0.0, 0.0, 0.0]
5 [0.0, 0.0, 0.0, 0.5, 0.5, 0.0, 0.0, 0.5]
6 [0.99450547, 0.054945055, 0.0, 0.0, 0.054945055, 0.0, 0.0, 0.0]
7 [0.85714287, 0.85714287, 0.0, 0.0, 0.85714287, 0.85714287, 0.85714287, 0.85714287]
8 [0.0, 0.0, 0.0, 0.5, 0.5, 0.0, 0.0, 0.5]
9 [0.0, 0.0, 0.0, 0.0, 0.0, 0.0, 0.0, 0.0]
10 [0.0, 0.0, 0.0, 0.5, 0.9166667, 0.9166667, 0.0, 0.5]
11 [0.75, 0.0, 0.75, 0.75, 0.75, 0.75, 0.0, 0.5]
12 [0.0, 0.0, 0.0, 0.0, 0.0, 0.0, 0.0, 0.0]
13 [0.0, 0.0, 0.0, 0.0, 0.0, 0.0, 0.0, 0.0]
14 [0.5, 0.5, 0.5, 0.5, 0.5, 0.5, 0.0, 0.5]
15 [0.0, 0.0, 0.0, 0.75, 0.0, 0.0, 0.0, 0.75]
16 [0.1, 0.1, 0.9, 0.9, 0.0, 0.0, 0.1, 0.9]
17 [0.9444444, 0.055555556, 0.9444444, 0.9444444, 0.0, 0.0, 0.055555556, 0.055555556]
18 [0.0, 0.0, 0.0, 0.75, 0.0, 0.0, 0.0, 0.75]
19 [0.071428575, 0.071428575, 0.9285714, 0.9285714, 0.0, 0.0, 0.9285714, 0.071428575]
20 [0.0, 0.0, 0.5, 0.5, 0.0, 0.0, 0.0, 0.5]
21 [0.0, 0.0, 0.9166667, 0.9166667, 0.0, 0.0, 0.9166667, 0.0]
22 [0.0, 0.0, 0.0, 0.0, 0.0, 0.0, 0.0, 0.0]
23 [0.33333334, 0.33333334, 0.6666667, 0.6666667, 0.6666667, 0.6666667, 0.6666667, 0.5]
24 [0.010989011, 0.010989011, 0.010989011, 0.0, 0.0, 0.0, 0.010989011, 0.99450547]
25 [0.0, 0.0, 0.375, 0.375, 0.0, 0.0, 0.0, 0.875]
26 [0.8888889, 0.8888889, 0.8888889, 0.0, 0.0, 0.0, 0.22222222, 0.22222222]
27 [0.07692308, 0.9230769, 0.9230769, 0.0, 0.0, 0.0, 0.07692308, 0.07692308]
28 [0.0, 0.0, 0.375, 0.375, 0.0, 0.0, 0.0, 0.875]
29 [0.0, 0.0, 0.0, 0.0, 0.0, 0.0, 0.0, 0.0]
30 [0.022222223, 0.9777778, 0.9777778, 0.0, 0.0, 0.0, 0.022222223, 0.022222223]
31 [0.06666667, 0.96666664, 0.96666664, 0.875, 0.0, 0.0, 0.06666667, 0.875]
32 [0.0, 0.0, 0.0, 0.0, 0.0, 0.0, 0.0, 0.0]
33 [0.93333334, 0.93333334, 0.93333334, 0.875, 0.0, 0.0, 0.2, 0.875]
34 [0.0, 0.0, 0.0, 0.0, 0.0, 0.0, 0.0, 0.0]
35 [0.15384616, 0.9230769, 0.9230769, 0.75, 0.0, 0.0, 0.0, 0.9230769]
36 [0.0, 0.0, 0.0, 0.0, 0.0, 0.0, 0.0, 0.0]
37 [0.8, 0.8, 0.8, 0.8, 0.5, 0.0, 0.0, 0.8]
38 [0.0, 0.0, 0.0, 0.0, 0.0, 0.0, 0.0, 0.0]
39 [0.0, 0.0, 0.0, 0.0, 0.0, 0.0, 0.0, 0.0]
40 [0.2, 0.2, 0.9, 0.9, 0.5, 0.0, 0.0, 0.5]
41 [0.0, 0.0, 0.0, 0.0, 0.0, 0.0, 0.0, 0.0]
42 [0.5, 0.5, 0.5, 0.5, 0.5, 0.5, 0.0, 0.5]
43 [0.96153843, 0.07692308, 0.0, 0.96153843, 0.07692308, 0.07692308, 0.07692308, 0.96153843]
44 [0.0, 0.0, 0.0, 0.0, 0.0, 0.0, 0.0, 0.0]
45 [0.5, 0.5, 0.75, 0.75, 0.75, 0.5, 0.0, 0.5]
46 [0.0, 0.0, 0.0, 0.0, 0.0, 0.0, 0.0, 0.0]
47 [0.9722222, 0.9722222, 0.027777778, 0.9722222, 0.5, 0.5, 0.0, 0.9722222]
48 [0.0, 0.0, 0.0, 0.0, 0.0, 0.0, 0.0, 0.0]
49 [0.90909094, 0.90909094, 0.09090909, 0.5, 0.90909094, 0.5, 0.09090909, 0.90909094]
