0 [0.0, 0.0, 0.0, 0.0, 0.0, 0.0, 0.0, 0.0]
1 [0.0, 0.0, 0.0, 0.0, 0.0, 0.0, 0.0, 0.0]
2 [0.0, 0.0, 0.0, 0.0, 0.0, 0.0, 0.0, 0.0]
3 [0.041434072, 0.041434072, 0.025565935, 0.08443407, 0.08443407, 0.025565935, 0.025565935, 0.061434064]
4 [0.041434072, 0.041434072, 0.025565935, 0.08443407, 0.08443407, 0.025565935, 0.025565935, 0.061434064]
5 [0.04063737, 0.04063737, 0.026362639, 0.58363736, 0.58363736, 0.026362639, 0.026362639, 0.56063735]
6 [0.93175703, 0.93075705, 0.025131872, 0.083868146, 0.97275704, 0.02713187, 0.02713187, 0.059868142]
7 [0.042868134, 0.041868135, 0.025131872, 0.58386815, 0.58386815, 0.02713187, 0.02713187, 0.55986816]
8 [1.0381649, 0.0976044, 0.025340648, 0.08365934, 0.1386044, 0.02834067, 0.02934067, 0.057659343]
9 [0.90176374, 0.89976376, 0.025379114, 0.083620876, 0.9397637, 0.887522, 0.890522, 0.9127637]
10 [0.04462088, 0.04262088, 0.025379114, 0.5836209, 0.58262086, 0.030379133, 0.03337913, 0.5556209]
11 [0.04462088, 0.0426275, 0.02696895, 0.12232704, 0.08779654, 0.030383851, 0.03337913, 0.05562088]
12 [0.04788461, 0.03289137, 0.027197935, 0.94001675, 1.0263717, 0.9519777, 0.039115388, 0.5508846]
13 [0.80036265, 0.01964045, 0.8872714, 1.2253081, 0.8312027, 0.78576094, 0.041637365, 0.54936266]
14 [0.050362643, 0.01964045, 0.089712255, 0.123891234, 0.03364357, 0.03564297, 0.041637365, 0.049362633]
15 [0.050362643, 0.01963955, 0.088175036, 0.12034152, 0.05510171, 0.039001558, 0.0416471, 0.049362633]
16 [0.55098355, 0.52006024, 0.6039201, 0.77607536, 0.8571329, 0.57900786, 0.04302481, 0.5479835]
17 [0.08327488, 0.021733508, 0.086168356, 1.0416619, 0.046902172, 0.039219484, 0.04302282, 0.7979835]
18 [0.22987384, 0.1236383, 0.8934399, 0.33400387, 0.039260335, 0.04376727, 0.14944579, 0.9445659]
19 [0.09749819, 0.010799614, 0.08233935, 0.2842251, 0.042380106, 0.050715167, 0.055174667, 0.79217035]
20 [0.17803504, 0.081333295, 0.94592094, 0.47235766, 0.044334743, 0.05658095, 0.9878992, 0.1216978]
21 [0.07664868, 0.006490715, 0.5605451, 0.32972518, 0.033251554, 0.05438816, 0.059266914, 0.55026925]
22 [0.026476622, 0.099699706, 1.0026201, 0.7881278, 0.013070998, 0.056098983, 0.9703424, 0.041901097]
23 [0.40938607, 0.43987393, 0.80923843, 0.9539594, 0.35554627, 0.6747092, 0.7217893, 0.5402582]
24 [0.009877713, 0.098265834, 0.11229433, 0.03785339, 0.029305687, 0.059253983, 0.06450263, 1.0360274]
25 [0.00923158, 0.08996431, 0.48750666, 0.4910023, 0.03303521, 0.06005412, 0.053516738, 0.91652197]
26 [0.5146511, 0.92791283, 1.0100023, 0.032748677, 0.033160172, 0.05548612, 0.28139368, 0.2694145]
27 [0.09058936, 0.8889798, 1.0377113, 0.10083936, 0.033369657, 0.051939264, 0.13505289, 0.12206044]
28 [0.043536745, 0.006898471, 0.47675323, 0.5077355, 0.03478258, 0.052232757, 0.058134913, 0.92013735]
29 [0.047035325, 0.006955301, 0.0878125, 0.03941869, 0.03250364, 0.052442428, 0.058135513, 0.04513736]
30 [0.07379054, 0.9689458, 0.9676805, 0.02575783, 0.030259341, 0.045829732, 0.0755116, 0.06493101]
31 [0.11645419, 0.9626618, 0.9795458, 0.43240973, 0.031648874, 0.04594217, 0.11995568, 0.9177088]
32 [0.0534456, 0.01568729, 0.082487844, 0.051587384, 0.032056686, 0.04185711, 0.049862638, 0.04513737]
33 [0.92384017, 0.94691324, 0.9758012, 0.6684971, 0.031157408, 0.037388038, 0.24354693, 0.92245054]
34 [0.04812723, 0.021413518, 0.08090837, 0.06364396, 0.031741563, 0.037427455, 0.04354912, 0.047450546]
35 [0.20429671, 0.9445725, 0.98337126, 0.6909401, 0.03277761, 0.0375473, 0.043549463, 0.97052747]
36 [0.04432037, 0.023398984, 0.08108243, 0.07192555, 0.029954016, 0.033482075, 0.03648351, 0.052516486]
37 [0.82850295, 0.82146794, 0.87168944, 0.7976082, 0.5756337, 0.029707827, 0.03270879, 0.85529125]
38 [0.045291208, 0.023708787, 0.08329121, 0.08329121, 0.08329121, 0.029708793, 0.03270879, 0.05529121]
39 [0.043351647, 0.027351143, 0.025456203, 0.07873777, 0.08173472, 0.028647823, 0.030648353, 0.16735165]
40 [0.2425989, 0.23159567, 0.92016155, 0.9434073, 0.58128893, 0.026400732, 0.026401103, 0.5525989]
41 [0.042598903, 0.031598568, 0.02529241, 0.081923984, 0.0842369, 0.026400823, 0.026401103, 0.052598905]
42 [0.54191756, 0.5339133, 0.52338594, 0.5709538, 0.58302784, 0.52507824, 0.02508242, 0.5519176]
43 [1.003456, 0.11083978, 0.025001382, 1.0214738, 0.1613178, 0.102004685, 0.1020055, 1.013456]
44 [0.04212088, 0.03512088, 0.024879126, 0.08512088, 0.08512088, 0.024879126, 0.023879115, 0.051120885]
45 [0.5397527, 0.53675276, 0.77724725, 0.83375275, 0.83375275, 0.5252473, 0.02424725, 0.66775274]
46 [1.0117662, 1.0097662, 0.05523383, 1.0567662, 0.58454394, 0.524456, 0.02345604, 1.1397662]
47 [0.039543957, 0.03754396, 0.027456049, 0.08454396, 0.08454396, 0.024456041, 0.02345604, 0.16754396]
48 [0.95414037, 0.9501404, 0.11285965, 0.58904946, 0.9981404, 0.51995057, 0.10985964, 1.7370415]
49 [0.04051648, 0.034516476, 0.026483513, 0.08451648, 0.08451648, 0.024483515, 0.024483515, 0.16651648]
