0 [0.0, 0.0, 0.0, 0.0, 0.0, 0.0, 0.0, 0.0]
1 [0.0, 0.0, 0.0, 0.0, 0.0, 0.0, 0.0, 0.0]
2 [0.0, 0.0, 0.0, 0.0, 0.0, 0.0, 0.0, 0.0]
3 [0.0, 0.0, 0.0, 0.0, 0.0, 0.0, 0.0, 0.0]
4 [0.0, 0.0, 0.0, 0.0, 0.0, 0.0, 0.0, 0.0]
5 [0.0, 0.0, 0.0, 0.0, 0.0, 0.0, 0.0, 0.0]
6 [0.0, 0.0, 0.0, 0.0, 0.0, 0.0, 0.0, 0.0]
7 [0.0, 0.0, 0.0, 0.0, 0.0, 0.0, 0.0, 0.0]
8 [0.0, 0.0, 0.0, 0.0, 0.0, 0.0, 0.0, 0.0]
9 [0.040120885, 0.040120885, 0.026879122, 0.08312088, 0.08312088, 0.025879122, 0.025879122, 0.062120877]
10 [0.040120885, 0.040120885, 0.026879122, 0.08312088, 0.08312088, 0.025879122, 0.025879122, 0.062120877]
11 [0.027945055, 0.04005495, 0.69361174, 0.95905495, 0.75072163, 0.69161177, 0.023945058, 0.43905497]
12 [0.030494502, 0.039505504, 0.028494503, 0.9595055, 0.8855055, 0.8234945, 0.02149451, 0.8665055]
13 [0.030494502, 0.039505504, 0.028494503, 0.0845055, 0.08550549, 0.023494508, 0.02149451, 0.0665055]
14 [0.17720878, 0.1805055, 0.17320879, 0.9596484, 0.9427912, 0.022351652, 0.020351654, 0.44264835]
15 [0.1599066, 0.16490659, 0.1530934, 0.9639066, 0.9649066, 0.017093414, 0.014093417, 1.1750934]
16 [0.034906596, 0.03990659, 0.028093403, 0.08890659, 0.08990659, 0.017093414, 0.014093417, 0.8000934]
17 [0.03411538, 0.9297735, 0.25610682, 0.91877353, 0.97600424, 0.019884625, 0.015884604, 0.9361154]
18 [0.03728571, 0.93360317, 0.2579365, 0.91960317, 0.9771746, 0.08828571, 0.013714276, 0.5077143]
19 [0.03728571, 0.044714294, 0.03571428, 0.030714285, 0.8382857, 0.08828571, 0.013714276, 0.7577143]
20 [0.039087918, 0.2989121, 0.2889121, 0.90891206, 0.9620879, 0.9630879, 0.012912081, 0.005912088]
21 [0.039087918, 0.048912093, 0.03891208, 0.033912085, 0.08708791, 0.08808791, 0.012912081, 0.005912088]
22 [0.04137363, 0.05262638, 0.040626366, 0.03662637, 0.8373736, 0.08837363, 0.012626369, 0.7553736]
23 [0.04402747, 0.18297252, 0.16897252, 0.16497251, 1.0235275, 1.0255275, 0.011972523, 0.009027468]
24 [0.045351643, 0.36164835, 0.9586483, 0.94364834, 0.9853516, 0.08935165, 0.01064835, 0.012351652]
25 [0.045351643, 0.06164835, 0.05864835, 0.043648344, 0.96035165, 0.08935165, 0.01064835, 0.012351652]
26 [0.04654395, 0.973547, 0.24427423, 0.22827423, 0.99463487, 0.9986349, 0.010456043, 0.014543956]
27 [0.04654395, 0.06445604, 0.06245604, 0.04645603, 0.835544, 0.83954394, 0.010456043, 0.014543956]
28 [0.046582423, 0.066417575, 0.06841758, 0.049417593, 0.78541756, 0.84058243, 0.010417583, 0.015582416]
29 [0.048126373, 0.05687363, 0.18298474, 0.16198474, 0.98331803, 0.20123748, 0.091126375, 0.018126369]
30 [0.048126373, 0.05687363, 0.07187362, 0.050873637, 0.7888736, 0.8401264, 0.091126375, 0.018126369]
31 [0.050192304, 0.044807687, 0.11114104, 0.086141035, 0.077141024, 1.0725256, 0.09319231, 0.021192309]
32 [0.05222528, 0.032774735, 0.12721919, 0.11921917, 0.095219165, 1.067003, 0.095225275, 0.02422527]
33 [0.05222528, 0.032774735, 0.082774736, 0.07477472, 0.8007747, 0.8392253, 0.095225275, 0.02422527]
34 [0.0526044, 0.024395598, 1.0238956, 0.21139562, 0.18039559, 0.97189564, 1.0341043, 0.0976044]
35 [0.0526044, 0.024395598, 0.086395614, 0.086395614, 0.055395592, 0.90939564, 0.09660439, 0.0976044]
36 [0.053994507, 0.021994501, 0.07000549, 0.0900055, 0.055005483, 0.9130055, 0.096994504, 0.100994505]
37 [0.055153847, 0.02515385, 0.053846147, 1.0706239, 0.07606837, 0.06806838, 1.0739316, 0.105153844]
38 [0.055153847, 0.02515385, 0.053846147, 0.092846155, 0.053846147, 0.79584616, 0.84615386, 0.105153844]
39 [0.057972524, 0.031972524, 0.03502748, 0.13147193, 1.0688052, 0.09147192, 0.9988052, 0.15341698]
40 [0.06142307, 0.03742307, 0.02157692, 0.064576924, 1.0310214, 0.14968804, 0.96702135, 1.0568675]
41 [0.06142307, 0.03742307, 0.02157692, 0.064576924, 0.08657693, 0.038576927, 0.8975769, 0.11242308]
42 [0.062137358, 0.039137367, 0.014862642, 0.053862628, 0.9828626, 0.9338626, 0.9228626, 0.9361373]
43 [0.062137358, 0.039137367, 0.014862642, 0.053862628, 0.082862645, 0.033862647, 0.8978626, 0.036137357]
44 [0.06115385, 0.039153848, 0.014153848, 0.04984615, 0.08184614, 0.031846143, 0.9008461, 0.03515384]
45 [0.061302204, 0.0393022, 0.015302198, 0.044697803, 0.2806978, 0.26969782, 0.92869776, 0.93430215]
46 [0.9822198, 0.03914286, 0.017142855, 0.036857154, 1.001934, 0.2347033, 0.18198901, 0.9552198]
47 [1.000895, 0.03745055, 0.018450554, 0.02754945, 0.06154944, 1.0219939, 0.14656167, 0.13956165]
48 [0.056450553, 0.03745055, 0.018450554, 0.02754945, 0.06154944, 0.07754945, 0.9104506, 0.028450545]
49 [0.9861026, 0.035769228, 0.018769233, 0.020230766, 0.046230778, 0.20656411, 0.19156411, 0.15710257]
