0.14999999 1.0499998
0.14982545 1.0501714
0.15013005 1.0501374
0.14912365 1.0502297
0.1480107 1.0504981
0.14568362 1.0501757
0.1452802 1.0475137
0.14650646 1.0346261
0.14803283 1.0249665
0.14803283 1.0249665
0.15256348 1.0032876
0.15942922 0.98061657
0.15942922 0.98061657
0.1653169 0.9541289
0.1672998 0.9423226
0.1690922 0.9299367
0.16999002 0.91581315
0.17001349 0.90121984
0.16794634 0.86972415
0.16794634 0.86972415
0.1637881 0.8314602
0.1615079 0.8117527
0.15925896 0.7918956
0.1569273 0.77201736
0.1569273 0.77201736
0.15231033 0.73302716
0.15083276 0.7140637
0.14940886 0.6951913
0.14819752 0.67826074
0.1470219 0.6630563
0.14597626 0.6477496
0.14597626 0.6477496
0.14353207 0.61697406
0.14266129 0.60341436
0.14223446 0.5896059
0.14227471 0.5736445
0.14274302 0.5597978
0.14339872 0.54746854
0.14421548 0.5346567
0.14582476 0.5089311
0.14687535 0.49628288
0.14871325 0.4762346
0.15016186 0.46715608
0.15535305 0.450342
0.16042905 0.4398387
0.17677954 0.4147058
0.1850942 0.40321642
0.19337389 0.3931989
0.20637257 0.37851116
0.20954657 0.3743463
0.21443114 0.36787882
0.21863338 0.36357355
0.23323376 0.35219297
0.24180761 0.34613568
0.25927156 0.3345589
0.25927156 0.3345589
0.28425726 0.3208529
0.29267904 0.31693596
0.31031936 0.31185928
0.32078546 0.31052163
0.34555238 0.31066883
0.35922754 0.3124087
0.3864481 0.31651947
0.39556456 0.31785527
0.40316635 0.31922132
0.41420883 0.32141095
0.41420883 0.32141095
0.42558083 0.32395235
0.42933607 0.32488516
0.43633002 0.3273877
0.4418187 0.33026156
0.45003143 0.334333
0.45232564 0.33545893
0.45399967 0.3363946
0.45398378 0.33638328
0.45531043 0.33727342
0.4629374 0.34374875
0.46532091 0.34625396
0.46854672 0.3497544
0.46895957 0.34962803
0.46895957 0.34962803
0.46943623 0.34949577
0.47022623 0.34935933
0.4709939 0.3492369
0.47121078 0.34842822
0.471214 0.34815034
0.47238737 0.34749562
0.47244492 0.34704676
0.4724113 0.3469829
0.47277793 0.34731352
0.4750968 0.34837633
0.4767918 0.3489464
0.47974953 0.34998068
0.48136324 0.35123783
0.48641157 0.35609502
0.4876911 0.35734522
0.48884898 0.35839513
0.49320403 0.36208147
0.49320403 0.36208147
0.50000846 0.36921936
0.50433975 0.37454432
0.508899 0.38093013
0.508899 0.38093013
0.5135383 0.38777533
0.51835454 0.39508888
0.51835454 0.39508888
0.52275777 0.4024604
0.5265378 0.40983972
0.5299134 0.41730198
0.5299134 0.41730198
0.5326966 0.42463788
0.5346359 0.43172225
0.5346359 0.43172225
0.5358186 0.4388073
0.536226 0.4473687
0.5364374 0.45509094
0.5364374 0.45509094
0.5361196 0.46212053
0.53503096 0.47121912
0.5330991 0.4816092
0.5330991 0.4816092
0.53070533 0.4918303
0.52795106 0.50202215
0.52472275 0.51206714
0.52472275 0.51206714
0.5209943 0.52191037
0.5167197 0.53350407
0.5167197 0.53350407
0.51183516 0.54772097
0.50738555 0.56148756
0.50377566 0.5729353
0.50377566 0.5729353
0.5006868 0.5826901
0.49795875 0.59231466
0.49517855 0.60385907
0.49517855 0.60385907
0.4924108 0.6177441
0.4903717 0.6314499
0.4903717 0.6314499
0.48858684 0.6425137
0.4871246 0.6496047
0.48595127 0.6559979
0.48595127 0.6559979
0.48479897 0.6629472
0.48368365 0.67133033
0.48368365 0.67133033
0.48292214 0.68073624
0.48221272 0.6899998
0.4817082 0.69920355
0.4817082 0.69920355
0.48194605 0.7096817
0.4825472 0.7193018
0.4833327 0.7276198
0.4833327 0.7276198
0.48432198 0.7360502
0.485202 0.74370146
0.485202 0.74370146
0.4859562 0.7508806
0.48645273 0.7577306
0.4870534 0.76438475
0.4870534 0.76438475
0.48777866 0.7710371
0.48871914 0.7777733
0.4917304 0.7919072
0.49288297 0.79942435
0.49565607 0.8066624
0.5060845 0.81783754
0.51287663 0.8220439
0.52820027 0.8303461
0.5368792 0.8349813
0.55715024 0.83876485
0.56633997 0.8352517
0.5779682 0.82058334
0.580089 0.8113569
0.58072144 0.79465663
0.5806079 0.7868303
0.58116496 0.7785766
0.5820789 0.7593881
0.581407 0.749405
0.57638556 0.72731537
0.5710842 0.71612036
0.55356157 0.6964056
0.54112375 0.6881067
0.51037145 0.6759772
0.49257365 0.67299974
0.45336825 0.674619
0.43584713 0.6809348
0.42287523 0.6901804
0.41289958 0.7113526
0.411779 0.72319436
0.41659713 0.74822426
0.42305404 0.7605095
0.444241 0.7813174
0.45765775 0.7886734
0.48521224 0.7912674
0.49838957 0.7878778
0.5123459 0.7823167
0.5299712 0.76298594
0.53351754 0.7512323
0.5330713 0.72795975
0.5295845 0.71754515
0.5204208 0.6955484
0.5140225 0.6817242
0.4938419 0.65502906
0.47936115 0.6431781
0.4470853 0.6294883
0.43239102 0.6294051
0.4199474 0.63253343
0.40053192 0.644241
0.39218867 0.6516222
0.37681466 0.6694504
0.36876452 0.6808229
0.3551807 0.7101588
0.3511525 0.7280706
0.3522925 0.76468664
0.35807183 0.7784292
0.36591473 0.78810215
0.3841024 0.7986394
0.39324424 0.80104274
0.41473418 0.8051842
0.4281072 0.80637085
0.45932803 0.80282354
0.45932803 0.80282354
0.50203437 0.78012604
0.5117066 0.7682328
0.52439696 0.73850834
0.52654284 0.7218088
0.5252912 0.704264
0.51204467 0.67406094
0.50109977 0.6642605
0.47439536 0.6543184
0.46063477 0.65412074
0.42859063 0.65946186
0.41375056 0.6667026
0.39155227 0.69033015
0.3859688 0.7044587
0.38405317 0.71870315
0.38626108 0.7482636
0.39088544 0.7646366
0.4103666 0.79253036
0.42444816 0.8023592
0.45417124 0.8096638
0.46667305 0.8058077
0.48924989 0.7899373
0.49549904 0.77892065
0.49537724 0.754975
0.4925801 0.7418748
0.4882238 0.7281866
0.47277135 0.70683205
0.46220312 0.698892
0.43502194 0.6817081
0.4160741 0.67286193
0.37272826 0.666369
0.35063297 0.6690587
0.3179974 0.68765867
0.30691436 0.7011417
0.29404038 0.73130095
0.2911293 0.7473344
0.2906567 0.76283884
0.29782954 0.79397124
0.30567807 0.8085435
0.3303291 0.8338971
0.34631068 0.8427049
0.37516823 0.8454175
0.38485062 0.84020674
0.39842528 0.82543457
0.40154767 0.8171445
0.40373993 0.80882627
0.40560055 0.7921832
0.40616068 0.7837597
0.40535045 0.7648531
0.40334454 0.75473356
0.39626276 0.73593754
0.3918336 0.7272268
0.38002095 0.70924747
0.3717343 0.70020187
0.35166162 0.6862024
0.3418637 0.6834212
0.3418637 0.6834212
0.31167525 0.6836283
0.30062872 0.6867726
0.283016 0.6985019
0.27812022 0.70561993
0.2743531 0.71976364
0.27450168 0.72626144
0.27787793 0.7387669
0.28105888 0.7448722
0.28494287 0.74974644
0.2936187 0.7567953
0.29798955 0.75994503
0.30888408 0.7661285
0.31544155 0.7689332
0.3309558 0.77205396
0.3401173 0.772236
0.36174467 0.7698865
0.3737085 0.76623905
0.39525804 0.75304806
0.4042306 0.7444677
0.41101894 0.73498917
0.4161675 0.71623194
0.41581306 0.7074397
0.41129723 0.6886566
0.40686876 0.67829275
0.39184386 0.6585617
0.3811943 0.650786
0.35436484 0.6405445
0.34003192 0.6397427
0.31461254 0.6463025
0.3025114 0.6521191
0.29011995 0.65940696
0.263107 0.6808698
0.25059798 0.6955656
0.23324065 0.73292077
0.23057394 0.75145596
0.23810868 0.77930623
0.24563482 0.7880694
0.26484543 0.8011015
0.27638653 0.8045778
0.28749233 0.80438626
0.30661872 0.7963544
0.3134145 0.78940344
0.32589322 0.7727071
0.33202165 0.76195157
0.34098366 0.73354375
0.34227082 0.7165556
0.3319947 0.68338305
0.32101652 0.66951174
0.2956286 0.650801
0.2794158 0.64774877
0.26206714 0.646673
0.23005922 0.65559804
0.2181241 0.66367626
0.19615245 0.68489695
0.18354133 0.69882005
0.16729468 0.7300056
0.16164562 0.74716574
0.15504286 0.78334945
0.1549951 0.8025776
0.15748246 0.82206756
0.1715638 0.86239976
0.18334486 0.8815486
0.21144316 0.90875447
0.22495365 0.9144017
0.24653026 0.91403705
0.25489572 0.9108124
0.26883462 0.90060985
0.27464503 0.893871
0.28028592 0.8797178
0.28096655 0.87294734
0.27997452 0.86718196
0.2763989 0.85540897
0.2733679 0.849668
0.26654318 0.84053403
0.2620786 0.83847225
0.25249815 0.83557236
0.24708478 0.8346928
0.23437329 0.83443785
0.22730859 0.8353194
0.21958618 0.8366798
0.20256755 0.84140384
0.19467415 0.8454131
0.18080035 0.85542834
0.17400262 0.8615279
0.15952386 0.87805045
0.15343516 0.8886949
0.15055394 0.9099094
0.15271811 0.9198686
0.16227461 0.9405297
0.17026749 0.9494556
0.18015158 0.95647967
0.20596465 0.9664167
0.22215088 0.9687001
0.25510556 0.96296084
0.27134556 0.9561607
0.30149606 0.93495864
0.31365603 0.92103213
0.33308983 0.88524216
0.3391199 0.86343443
0.34066936 0.8419698
0.3300498 0.8092736
0.32064614 0.7977141
0.2987832 0.7834703
0.2872635 0.77997476
0.2600699 0.7776383
0.24505231 0.78015673
0.21676615 0.7943019
0.2039994 0.8064121
0.1853029 0.8384694
0.18303162 0.85501754
0.1842681 0.8717605
0.19540268 0.9024339
0.20438686 0.9141712
0.22923632 0.9325865
0.24432433 0.9387843
0.27538863 0.94155294
0.2911 0.9381816
0.3234937 0.9219812
0.33883095 0.9083317
0.35899252 0.8712717
0.36344284 0.84860504
0.363579 0.82527715
0.35345948 0.7863116
0.34075823 0.7733224
0.3095127 0.75118625
0.2915051 0.7417075
0.25618765 0.73840606
0.2393153 0.7408439
0.21159759 0.7539881
0.20503971 0.761228
0.19982381 0.7694153
0.1892351 0.79003704
0.1839074 0.8023578
0.18379492 0.822028
0.18758252 0.827248
0.19775887 0.8304552
0.20262194 0.8298249
0.21065684 0.82263887
0.21350484 0.817146
0.2156631 0.80361557
0.21467507 0.79430413
0.21245603 0.7845584
0.20397308 0.7642732
0.19898632 0.75469136
0.19113024 0.74089015
0.1867203 0.7335684
0.17656586 0.7179224
0.17008947 0.7099271
0.15766676 0.69744647
0.15188381 0.69233066
0.14573601 0.68718296
0.13318136 0.6765882
0.1272607 0.6714741
0.11486425 0.66203207
0.10702051 0.65800655
0.08998192 0.65371853
0.08075474 0.653118
0.06509161 0.65360105
0.058857482 0.6541458
0.0461076 0.65622646
0.03902752 0.6585556
0.02961275 0.66284287
0.008076968 0.6750784
-0.0016724495 0.6811277
-0.01655536 0.6909813
-0.022528587 0.6956451
-0.035975277 0.7088915
-0.0430714 0.71688133
-0.05482751 0.7305195
-0.060184576 0.7379954
-0.07208391 0.7599162
-0.077571325 0.7731055
-0.082382895 0.78661233
-0.09127243 0.8143102
-0.09546218 0.8284953
-0.10276908 0.8619319
-0.10476433 0.8766538
-0.10689986 0.9042916
-0.10733293 0.91813886
-0.10596075 0.9440007
-0.10445567 0.95444715
-0.10445567 0.95444715
-0.1005981 0.97367
-0.09839554 0.98328686
-0.09607134 0.9923379
-0.09317149 1.0004684
-0.089031324 1.0084757
-0.08401549 1.0162158
-0.07857107 1.0231674
-0.07857107 1.0231674
-0.073369935 1.029047
-0.066804424 1.0353936
-0.066804424 1.0353936
-0.057255667 1.043124
-0.04593458 1.0509391
-0.033774346 1.0582169
-0.033774346 1.0582169
-0.021029651 1.0655544
-0.007623855 1.0724287
0.006339398 1.0790527
0.006339398 1.0790527
0.020495396 1.0852057
0.0331224 1.090332
0.0331224 1.090332
0.044039514 1.0942749
0.054003406 1.0972694
0.062302 1.0993925
0.062302 1.0993925
0.06946014 1.1009835
0.0762996 1.1023405
0.08320775 1.1033286
0.08320775 1.1033286
0.08974965 1.1040938
0.09801378 1.1043415
0.09801378 1.1043415
0.108191155 1.1034122
0.11923887 1.101268
0.12874082 1.0991333
0.12874082 1.0991333
0.13553779 1.097594
0.14038104 1.0967662
0.14038104 1.0967662
0.14616477 1.0949961
0.15307029 1.0923122
0.15968302 1.0896767
0.15968302 1.0896767
0.16533235 1.0871251
0.17074722 1.0844635
0.17774081 1.0805504
0.17774081 1.0805504
0.18540339 1.0755869
0.19303764 1.070153
0.19303764 1.070153
0.20046143 1.0642998
0.20890932 1.0568155
0.21753828 1.0482361
0.21753828 1.0482361
0.22567192 1.0394608
0.23304915 1.0304726
0.23944399 1.022547
0.23944399 1.022547
0.24461457 1.0158473
0.24916139 1.0096791
0.24916139 1.0096791
0.2537253 1.0034956
0.257989 0.9976115
0.26132044 0.99220264
0.26132044 0.99220264
0.26442558 0.98697424
0.26766962 0.98007184
0.27051216 0.97376317
0.27051216 0.97376317
0.27282244 0.96671313
0.27282244 0.96671313
0.27495664 0.9581858
0.27668852 0.947888
0.27789757 0.9383804
0.27867937 0.9297511
0.27867937 0.9297511
0.2791826 0.9205038
0.27890202 0.9101577
0.2777177 0.8994802
0.2777177 0.8994802
0.2755342 0.8897306
0.27287084 0.8807273
0.27287084 0.8807273
0.26946467 0.87198097
0.2654789 0.8635627
0.25978345 0.8536501
0.25978345 0.8536501
0.25375828 0.84443283
0.24777536 0.8362667
0.24777536 0.8362667
0.24127278 0.82786655
0.2347168 0.8199765
0.2282565 0.8131571
0.2282565 0.8131571
0.22169904 0.8071944
0.21482667 0.80137414
0.20776531 0.7957625
0.20776531 0.7957625
0.20056498 0.7910362
0.1915871 0.7867886
0.1915871 0.7867886
0.18148664 0.78333086
0.16987881 0.7806649
0.15679014 0.7788264
0.15679014 0.7788264
0.1422738 0.7779428
0.12903604 0.7775675
0.11495547 0.7780231
0.11495547 0.7780231
0.10139785 0.77868235
0.08925866 0.7795374
0.08925866 0.7795374
0.07662575 0.78061354
0.06399997 0.78170264
0.051757447 0.78301126
0.051757447 0.78301126
0.039700083 0.7842898
0.028140048 0.7858751
0.017221462 0.7877252
0.017221462 0.7877252
0.008502474 0.7893018
6.2326825E-4 0.79086435
6.2326825E-4 0.79086435
-0.006906492 0.79241514
-0.014191831 0.7941097
-0.022006458 0.7968343
-0.022006458 0.7968343
-0.03002261 0.80040836
-0.038266584 0.8060505
-0.045927994 0.8132
-0.045927994 0.8132
-0.058761276 0.8312023
-0.06849092 0.85259426
-0.07158394 0.86355984
-0.07400648 0.8844919
-0.073684976 0.89495164
-0.071421936 0.9168215
-0.06954819 0.92749155
-0.06392748 0.9479666
-0.06024648 0.95742244
-0.056132406 0.96559685
-0.046737615 0.9786561
-0.043209184 0.9835572
-0.03554693 0.9926136
-0.030119736 0.99672383
-0.017444994 1.0022329
-0.010295013 1.0039103
0.004350026 1.0065444
0.011736048 1.0074831
0.025705228 1.0092323
0.03311477 1.0091913
0.041156158 1.0072631
0.056383826 1.0002136
0.06358371 0.995656
0.074956715 0.9923857
0.08055927 0.98988974
0.092712104 0.9858637
0.09845656 0.98367244
0.109306075 0.9790314
0.11437789 0.97692204
0.11924045 0.9749135
0.1279271 0.9707735
0.13352863 0.9691108
0.1479141 0.9649455
0.155971 0.9616771
0.17297208 0.9510892
0.1796904 0.9445654
0.18783009 0.9309124
0.1904488 0.9232416
0.19237562 0.90644866
0.19139378 0.8972993
0.18927561 0.8874604
0.18039696 0.87040985
0.17450568 0.864573
0.16188471 0.860034
0.15502325 0.8593874
0.1397892 0.860211
0.132162 0.8614858
0.11826052 0.8675954
0.1130928 0.87271565
0.10604445 0.88402194
0.103925765 0.8896062
0.10272364 0.895442
0.10197844 0.9017805
0.10217297 0.9085539
0.10524118 0.92319757
0.10785222 0.93147296
0.118465915 0.9441148
0.12569872 0.94670725
0.14002539 0.9475505
0.14758995 0.94735366
0.15594503 0.9468831
0.16996303 0.9395922
0.1747482 0.9339892
0.18259642 0.92239475
0.18608193 0.9165862
0.19071974 0.9051278
0.19182333 0.8989757
0.19139165 0.88811016
0.1883932 0.88441736
0.18013206 0.8797833
0.17568797 0.877874
0.1700911 0.8776929
0.1583539 0.88132066
0.15245655 0.88438815
0.1409989 0.8918643
0.13525878 0.895795
0.12637058 0.9083722
0.12407713 0.91600686
0.123763636 0.9315196
0.12527601 0.9386145
0.12758234 0.9452816
0.13334686 0.95872164
0.13648692 0.9654018
0.14014123 0.97172946
0.14413236 0.9780423
0.15159173 0.9907197
0.15506145 0.99746335
0.15881306 1.0044856
0.164072 1.0102208
0.17702658 1.0200092
0.17702658 1.0200092
0.1934706 1.0303423
0.1934706 1.0303423
0.20368442 1.0346707
0.2284096 1.0417981
0.24358158 1.0435137
0.27888486 1.0407512
0.27888486 1.0407512
0.30876413 1.02516
0.32152957 1.0122603
0.33818898 0.9801369
0.34082788 0.9629261
0.3412513 0.9447142
0.3344706 0.90782213
0.32672524 0.89266
0.3025059 0.86757517
0.28870678 0.8609111
0.26633653 0.86223143
0.25889236 0.8677794
0.25265115 0.8749695
0.24357566 0.8918133
0.24104543 0.9010671
0.2402472 0.9217262
0.24319358 0.93130124
0.25554758 0.9444686
0.26275173 0.94915485
0.27905816 0.9574725
0.28923258 0.9607786
0.31148767 0.9612457
0.32140356 0.9573696
0.33936328 0.94520235
0.34623045 0.93747216
0.3521377 0.9289775
0.3602075 0.91087663
0.36245957 0.90116227
0.36217374 0.87988454
0.35898787 0.86886054
0.34790844 0.8464011
0.34031963 0.835569
0.32248202 0.8184333
0.31381655 0.81467515
0.3051883 0.81295186
0.2897448 0.81299686
0.28265485 0.8140689
0.2697795 0.8173332
0.26406953 0.81927216
0.25316373 0.82305825
0.24952403 0.82516307
0.24984959 0.8295463
0.25419354 0.83159494
0.26745892 0.83415854
0.27547702 0.83487684
0.28450602 0.8352383
0.3041714 0.83456624
0.31433904 0.83361787
0.33441782 0.8303813
0.3438992 0.8283906
0.36075956 0.8240898
0.36843848 0.8220767
0.3831504 0.81755793
0.39028922 0.8143834
0.39661518 0.8112587
0.40843529 0.804644
0.4147703 0.80116045
0.42762738 0.7916856
0.43418998 0.7855147
0.44778442 0.770878
0.45363742 0.76251906
0.4607605 0.74486357
0.4622693 0.7360241
0.46322027 0.718309
0.46190113 0.7091092
0.45910615 0.69997936
0.44846082 0.6850921
0.44198275 0.6791268
0.42810026 0.6688522
0.4208665 0.66450894
0.40679964 0.65887517
0.40176982 0.65941447
0.39767423 0.6668601
0.39903983 0.67220217
0.40789947 0.68433166
0.41488895 0.6900982
0.4225076 0.6953209
0.43720752 0.7036437
0.44397068 0.7066885
0.4586506 0.7112743
0.46831784 0.7132071
0.4899772 0.71646464
0.5013873 0.7178209
0.52406347 0.7197192
0.5348252 0.7202781
0.5451728 0.7205094
0.56450146 0.72002137
0.5736469 0.71930206
0.59055746 0.7171951
0.598203 0.71652234
0.61320704 0.7159865
0.62105 0.7149555
0.63709986 0.70993614
0.6440641 0.705164
0.6550063 0.6937006
0.65852547 0.68724436
0.66147965 0.680929
0.6669455 0.6689681
0.66905123 0.662994
0.6681929 0.6525774
0.6655525 0.6482587
0.65793556 0.64019287
0.65347373 0.63591874
0.6429591 0.62711734
0.636651 0.6235343
0.63025683 0.6208208
0.61621004 0.61588633
0.60804284 0.61381924
0.5911652 0.6113676
0.5821158 0.61183465
0.56408036 0.6176295
0.55696833 0.6229227
0.545928 0.6353544
0.5417585 0.64202994
0.5403 0.6541274
0.54292077 0.65865743
0.5469176 0.66223854
0.55851203 0.666694
0.565889 0.66614664
0.5802671 0.6605438
0.5872814 0.65680635
0.6008204 0.6494659
0.6075832 0.6457237
0.6182674 0.6340024
0.6218615 0.6270975
0.62539876 0.61999875
0.63153064 0.60563296
0.63315696 0.59853065
0.63449895 0.58373255
0.634825 0.5750381
0.6321664 0.5556785
0.62712926 0.5481172
0.615226 0.536488
0.6087032 0.5312762
0.5945509 0.5232686
0.5877396 0.52180636
0.5807463 0.5210315
0.56612706 0.52197117
0.5600393 0.5244701
0.55011296 0.531874
0.546399 0.5360031
0.5407593 0.5437689
0.53844327 0.5473043
0.53376245 0.5549828
0.5312788 0.5596194
0.52915376 0.5641275
0.52566147 0.5719356
0.52566147 0.5719356
0.5225162 0.5786715
0.51978916 0.5825644
0.512883 0.5928739
0.512883 0.5928739
0.5105359 0.5979662
0.5100956 0.60131055
0.5112309 0.6055944
0.5123711 0.60758936
0.5139789 0.609578
0.51894796 0.6138412
0.5225254 0.6144101
0.53038573 0.6104314
0.5345588 0.6044773
0.5410353 0.5883156
0.5430701 0.5815958
0.5468308 0.56803596
0.54842097 0.560813
0.55088747 0.5480091
0.5511559 0.5426146
0.5513083 0.5373913
0.55153453 0.5263921
0.5517144 0.5207795
0.55255854 0.5099497
0.552103 0.50376636
0.5477286 0.4915165
0.54416585 0.48596066
0.53481716 0.47535333
0.52945507 0.4704815
0.52391857 0.46642715
0.51134354 0.46077245
0.5031477 0.45917106
0.48342332 0.45919052
0.4727533 0.46053344
0.45663977 0.46289882
0.4501183 0.4637021
0.43504363 0.4674925
0.42689228 0.4705698
0.40838122 0.48065466
0.40120173 0.48477045
0.39551288 0.4880398
0.3849757 0.4954671
0.37774217 0.50238097
0.35992476 0.5232018
0.35140136 0.53513885
0.33787432 0.5548249
0.33115536 0.5663172
0.31522864 0.59624875
0.30720842 0.61291796
0.29923296 0.6302274
0.28306213 0.6651983
0.2756146 0.681187
0.26447982 0.7048808
0.25952673 0.7160896
0.2502007 0.73875725
0.24571355 0.7498957
0.2369622 0.77109194
0.2319744 0.7811662
0.2201871 0.80086327
0.21361586 0.81093806
0.20670645 0.8207401
0.19248554 0.83861923
0.18729112 0.8458082
0.1797073 0.85635155
0.17503724 0.8607093
0.1634473 0.86759406
0.15691794 0.8701631
0.1419133 0.8747265
0.13387132 0.8765031
0.12764183 0.8786295
0.11733111 0.88198483
0.11026613 0.88155204
0.094376504 0.8760443
0.08624233 0.87095195
0.07018004 0.856425
0.062269468 0.84670746
0.04796361 0.825264
0.043440685 0.81838113
0.03528168 0.8042472
0.030896306 0.7966066
0.02651989 0.7893158
0.022202272 0.7823496
0.018066356 0.77588814
0.010246343 0.76458424
0.006522427 0.75933707
0.0029231585 0.75469434
0.0029231585 0.75469434
-1.589389E-4 0.75048685
-0.0021055155 0.7454601
-0.0028215065 0.73906624
-0.0019754502 0.7313964
5.018221E-4 0.72258973
0.01008768 0.70418876
0.01706231 0.6947844
0.035802882 0.67565316
0.04700429 0.6662361
0.066594675 0.6518644
0.07645838 0.64482296
0.08956027 0.63476443
0.09442975 0.63089
0.09977838 0.6267642
0.10992171 0.61831343
0.11427303 0.6141148
0.12137504 0.6059481
0.12394842 0.6016413
0.12618694 0.5973749
0.12967166 0.5877539
0.13114458 0.5830195
0.13114458 0.5830195
0.13215217 0.5785233
0.13215217 0.5785233
0.13328964 0.5742112
0.13470498 0.5698477
0.13629702 0.5657816
0.13784619 0.56226677
0.13784619 0.56226677
0.14028433 0.56026065
0.14322908 0.55934334
0.14689642 0.56027055
0.14689642 0.56027055
0.15088765 0.5628081
0.15447362 0.56619465
0.15447362 0.56619465
0.15763706 0.5701205
0.16026083 0.5743373
0.16239539 0.57858837
0.16239539 0.57858837
0.16401371 0.5829782
0.16517708 0.5872351
0.16600747 0.5913752
0.16640308 0.5952909
0.16640308 0.5952909
0.16644673 0.59881717
0.16612594 0.60190165
0.16612594 0.60190165
0.166036 0.6066349
0.16678686 0.6145568
0.16678686 0.6145568
0.1710771 0.6372712
0.1710771 0.6372712
0.1710771 0.6372712
0.17508961 0.6543165
0.17508961 0.6543165
0.177143 0.66160166
0.18079183 0.67147684
0.18079183 0.67147684
0.18579595 0.6828366
0.19221422 0.6947121
0.20631866 0.71752936
0.2135083 0.72836703
0.2135083 0.72836703
0.22100599 0.7391779
0.2270869 0.7482763
0.2270869 0.7482763
0.23242506 0.75579584
0.23814814 0.7636483
0.24384019 0.7710114
0.24384019 0.7710114
0.24939688 0.77716804
0.2550716 0.7825548
0.2550716 0.7825548
0.2613154 0.7876173
0.26805407 0.792544
0.27388936 0.79656
0.27388936 0.79656
0.27888036 0.7996725
0.28188783 0.80198157
0.2840721 0.8039756
0.2840721 0.8039756
0.28861 0.8087591
0.29022953 0.81154203
0.29143518 0.81454057
0.29187897 0.82175004
0.29287094 0.825686
0.29999834 0.8315381
0.30446824 0.8338658
0.31765512 0.83460456
0.32437292 0.83297634
0.33729035 0.82631505
0.3439191 0.82178134
0.35014126 0.81672084
0.36003342 0.8055792
0.3638059 0.7994386
0.369908 0.7826086
0.3724712 0.773342
0.3762571 0.75335515
0.37753505 0.7434618
0.37912568 0.725211
0.37893942 0.7174517
0.37613147 0.70287603
0.37284833 0.6954097
0.3682019 0.68794566
0.35571295 0.6736337
0.3476099 0.6666771
0.32729658 0.6524616
0.32113743 0.64790803
0.29973984 0.6374157
0.28839234 0.6324161
0.2731124 0.6258612
0.26611236 0.62303436
0.25258654 0.61851066
0.25258654 0.61851066
0.23949909 0.6160945
0.23269966 0.61592716
0.23269966 0.61592716
0.2270797 0.61733973
0.22515845 0.6183817
0.22131917 0.62165225
0.2177883 0.6224794
0.20706432 0.6210636
0.20110445 0.61955506
0.19556388 0.61726993
0.18566726 0.6117135
0.18239461 0.6096307
0.17468114 0.6042109
0.17020117 0.6010016
0.16047129 0.5943464
0.15544753 0.59098077
0.14565846 0.5845273
0.14081363 0.5817878
0.13130665 0.5776181
0.12715998 0.57528245
0.123488724 0.5719718
0.11866589 0.56182325
0.11696166 0.5555037
0.114936076 0.5415664
0.11449908 0.53471226
0.1179499 0.5200263
0.11907337 0.51350105
0.1225917 0.50219285
0.12524022 0.49742246
0.12872276 0.49324173
0.13944548 0.48700112
0.14678429 0.48520455
0.16319463 0.4847683
0.17132111 0.4857803
0.18518701 0.48824397
0.19238573 0.48972344
0.20269266 0.49084115
0.20688021 0.49125734
0.21537146 0.49168724
0.21944778 0.4917211
0.22281694 0.49174538
0.23137252 0.4961484
0.23637512 0.50069666
0.2432429 0.5063199
0.24526186 0.50655574
0.24822804 0.50502926
0.24968585 0.5049368
0.2540548 0.5113143
0.25686675 0.5182451
0.25996023 0.5284076
0.26553088 0.5583191
0.2675845 0.57631266
0.2701848 0.61164004
0.27098018 0.6283215
0.27428138 0.6645544
0.2764914 0.68249315
0.28126767 0.71621037
0.2831433 0.72819144
0.28647894 0.748825
0.28795016 0.75718766
0.28924796 0.76237684
0.29150754 0.77467674
0.29230604 0.78116286
0.29317373 0.79205024
0.29344267 0.7982012
0.2946921 0.80580074
0.2952295 0.80886996
0.29707775 0.8154538
0.2985136 0.81854737
0.299462 0.82268584
0.2963342 0.83689326
0.29190946 0.8459856
0.28263223 0.8619567
0.27627546 0.86975944
0.25933793 0.8848941
0.24792477 0.89269745
0.22975436 0.90447533
0.22066458 0.90910864
0.19798169 0.9176466
0.18365984 0.9215225
0.17049254 0.9245803
0.14661524 0.92832434
0.13724875 0.9292307
0.1270571 0.9305638
0.12250499 0.93106335
0.11232011 0.9322109
0.10726968 0.9330098
0.09616281 0.9346963
0.08965516 0.9346452
0.07611211 0.9318404
0.06787147 0.9286915
0.059022564 0.9247006
0.04051157 0.9147379
0.031415943 0.9092308
0.014861313 0.8981694
0.014861313 0.8981694
0.0016196787 0.8876997
0.0016196787 0.8876997
-0.0033500965 0.882277
-0.010833892 0.8703262
-0.010833892 0.8703262
-0.015228441 0.8530549
-0.01577309 0.8411337
-0.015132422 0.8274108
-0.01123097 0.79786444
-0.008921629 0.78496945
-0.0062921075 0.7737595
5.1632326E-4 0.7540775
0.005119941 0.74495685
0.018856876 0.7252539
0.027994344 0.7150294
0.039679132 0.7036948
0.06797772 0.6797092
0.083074376 0.6679858
0.11465462 0.646169
0.1307187 0.63678426
0.16287571 0.6224739
0.17687722 0.6176525
0.19424097 0.6116773
0.2008264 0.60972947
0.20567267 0.6082093
0.21612866 0.6053526
0.22164547 0.60373247
0.23781864 0.60137326
0.24773374 0.6015786
0.27039558 0.60550135
0.28300214 0.60938215
0.3104403 0.6208773
0.3251284 0.62846243
0.3568974 0.64661664
0.37333173 0.65639776
0.38987756 0.66631395
0.42364955 0.6860807
0.4392178 0.6948694
0.4694367 0.7125225
0.48222747 0.7205478
0.5052758 0.7352594
0.5170772 0.7426271
0.54066026 0.7572047
0.550633 0.7632612
0.5579863 0.7676171
0.5687149 0.7743301
0.5729242 0.77717805
0.58167493 0.7829088
0.586415 0.78548175
0.59266084 0.78550804
0.5949055 0.784549
0.6002759 0.78059673
0.6036414 0.7774998
0.6074073 0.7757653
0.6146256 0.7755453
0.6173111 0.7776381
0.6199864 0.7897221
0.61923796 0.7987827
0.61574143 0.8155444
0.6133171 0.82353497
0.60723203 0.84062606
0.6038617 0.84910166
0.595495 0.86481446
0.58976704 0.8722533
0.5827594 0.8795245
0.5677527 0.891918
0.56082106 0.89681053
0.5457299 0.90714395
0.5381366 0.91202813
0.5236689 0.9213413
0.5166997 0.9255761
0.50287837 0.9333588
0.4966268 0.93678886
0.48597938 0.9419707
0.48079473 0.9445592
0.47569126 0.94738656
0.4644789 0.95326024
0.45838684 0.95567024
0.44702178 0.95989704
0.44161072 0.9609173
0.43165603 0.96108407
0.42728987 0.96052456
0.42074618 0.9571082
0.41985202 0.9525172
0.42124504 0.9457021
0.4302807 0.9286996
0.43701786 0.9194687
0.45378995 0.9010293
0.4630627 0.8926304
0.4826663 0.8781746
0.49284515 0.87214005
0.51116675 0.86287844
0.5188633 0.8597678
0.5262525 0.857731
0.5381669 0.85369414
0.5381669 0.85369414
0.5481985 0.8516426
0.5533176 0.85216504
0.55871 0.8550154
0.56442815 0.85986537
0.56442815 0.85986537
0.5699845 0.8657759
0.5753229 0.87266463
0.5836082 0.8881286
0.58586085 0.8961528
0.58586085 0.8961528
0.5869402 0.903899
0.5879363 0.91014194
0.5879363 0.91014194
0.5890806 0.9150764
0.5895901 0.92021513
0.5892427 0.92589104
0.58819354 0.9310754
0.58819354 0.9310754
0.58790433 0.9348861
0.58914834 0.9372574
0.58914834 0.9372574
0.58914834 0.9372574
0.5884875 0.94383323
0.5884875 0.94383323
0.58632654 0.9476266
0.5845634 0.95115584
0.583689 0.9540288
0.583689 0.9540288
0.58431894 0.9564487
0.5855242 0.9584471
0.5855242 0.9584471
0.5861052 0.9603497
0.5861052 0.9603497
0.5832574 0.9644002
0.5832574 0.9644002
0.5812106 0.9659888
0.57894033 0.9670674
0.57649577 0.9680909
0.5738651 0.96940535
0.569434 0.97088444
0.569434 0.97088444
0.5646554 0.9722241
0.5611945 0.97304404
0.55790937 0.97395754
0.55456704 0.974829
0.55130243 0.97557724
0.55130243 0.97557724
0.54967606 0.9766033
0.5489922 0.9774927
0.5485264 0.9780432
0.54238164 0.97796977
0.5354847 0.97723925
0.5121628 0.9735034
0.49690825 0.9701145
0.47365227 0.9643771
0.46456248 0.96155435
0.44713965 0.95674485
0.4406019 0.955675
0.4344015 0.9549662
0.42754468 0.9535761
0.42120552 0.95244133
0.40436855 0.948473
0.3946206 0.9461459
0.38065514 0.94285524
0.37560725 0.94203347
0.36851764 0.941183
0.36655834 0.94099504
0.36544144 0.9410478
0.36471832 0.94077265
0.36328512 0.9403636
0.35912192 0.93988544
0.35650522 0.94007415
0.35063368 0.9414538
0.34832048 0.9428202
0.34088692 0.9426559
0.33626702 0.94103515
0.32908064 0.9376564
0.32707462 0.9373519
0.32276487 0.93764627
0.32045168 0.93789494
0.31768668 0.9370612
0.30966407 0.92832327
0.30448323 0.9195584
0.29654187 0.9040429
0.29388815 0.8988078
0.28984368 0.89298564
0.2875603 0.8863676
0.2840531 0.87330437
0.28310952 0.86915314
0.28198844 0.86215174
0.28162497 0.85532475
0.28145492 0.845613
0.2825879 0.81976974
0.28282315 0.8117517
0.28289536 0.80344164
0.2828445 0.8026581
0.28238225 0.80237323
0.28216335 0.8000382
0.28213578 0.79169106
0.28154492 0.78815484
0.28051993 0.7856368
0.27620867 0.786684
0.2742255 0.7872946
0.27256125 0.7834289
0.27232328 0.7809111
0.27213818 0.7762322
0.2731957 0.77303773
0.27489376 0.76645005
0.27494696 0.76420087
0.27374265 0.7607502
0.27297252 0.75900495
0.27211773 0.7573677
0.27069587 0.75496894
0.27021226 0.75418353
0.2738883 0.7501592
0.2785429 0.7463107
0.28764278 0.738573
0.28938526 0.7368258
0.29056352 0.7359241
0.29054108 0.73595035
0.29054028 0.73595
0.2919731 0.73434347
0.29137295 0.73409367
0.2906678 0.7336117
0.2918076 0.73244375
0.2943852 0.72840786
0.29568034 0.7258922
0.29755616 0.72019106
0.2993311 0.71666116
0.30460814 0.70940113
0.30757368 0.7056319
0.310758 0.7017515
0.31651825 0.6934143
0.3189985 0.68880093
0.32326698 0.6784154
0.3259903 0.6725554
0.33339557 0.65926343
0.33730927 0.6508789
0.3471604 0.63671285
0.35313255 0.6316468
0.35933477 0.6275561
0.3714755 0.6214665
0.37768134 0.6190125
0.3942104 0.6133634
0.40527645 0.6095187
0.42645413 0.6053511
0.43584496 0.60460013
0.44874278 0.60770214
0.4540496 0.61043394
0.46430078 0.6192643
0.46893716 0.6251948
0.47300324 0.632006
0.4780976 0.64839226
0.47894245 0.65773475
0.4778835 0.6777853
0.47568488 0.68676597
0.46622524 0.7021074
0.4595036 0.7069632
0.44496068 0.7079115
0.4371234 0.7065903
0.42902833 0.7041379
0.4129842 0.6950797
0.4063464 0.68811214
0.39505205 0.67037356
0.3927279 0.6597503
0.39661312 0.6399066
0.4013191 0.6315378
0.41660228 0.62216574
0.42529607 0.6206304
0.4415686 0.61890817
0.44952112 0.618937
0.45712692 0.6200774
0.4708975 0.62428224
0.47591382 0.62805504
0.48295563 0.6383936
0.48555246 0.64482814
0.48813978 0.6583192
0.4880733 0.66463053
0.4862329 0.6765185
0.48447537 0.6828765
0.4820528 0.68964404
0.4737669 0.7028337
0.46848425 0.7114197
0.45476493 0.72901195
0.44666177 0.73506176
0.4295376 0.7427305
0.42082196 0.74491847
0.39996013 0.74683917
0.38801417 0.74590415
0.36488408 0.7375752
0.35801664 0.7304641
0.3535687 0.72238714
0.34849733 0.7028722
0.34882858 0.69225395
0.35672385 0.6717626
0.36382788 0.6628844
0.38205788 0.65066445
0.3917513 0.64887875
0.4106907 0.65179443
0.4194941 0.6553101
0.43271667 0.666252
0.4381519 0.6725095
0.4434126 0.67925006
0.45233107 0.6940291
0.45460743 0.7019367
0.45248777 0.7154112
0.45007977 0.72085106
0.4434678 0.7314104
0.4390524 0.7369734
0.4272688 0.7474486
0.41993117 0.7518959
0.41220468 0.75628406
0.39546767 0.76390445
0.38561857 0.7666043
0.3636759 0.7677846
0.35286805 0.76544434
0.33462328 0.75632614
0.32752392 0.75026816
0.3193566 0.73709047
0.3171487 0.73051184
0.31865138 0.7204857
0.3221692 0.71744376
0.32688302 0.71592337
0.34034792 0.71997374
0.34807554 0.7244183
0.3556172 0.73014563
0.3697471 0.74408805
0.38133997 0.7518207
0.38573188 0.75714
0.39294767 0.76976573
0.39679348 0.77465856
0.40060115 0.7791572
0.41211215 0.78744423
0.42029804 0.79139817
0.4310097 0.8020611
0.43297178 0.80779475
0.4327124 0.81979406
0.43155432 0.8263713
0.4309888 0.84356606
0.43219152 0.84973943
0.43476543 0.84915316
0.43118015 0.84653074
0.42728585 0.8423551
0.42025766 0.830747
0.4162077 0.82196033
0.41011184 0.8075768
0.40823308 0.802475
0.40577206 0.79594207
0.40514198 0.79435015
0.4036467 0.78993994
0.40228796 0.7871013
0.400664 0.7839397
0.39689434 0.7759246
0.3954928 0.7689694
0.39519408 0.7473059
0.39692402 0.7336987
0.40394086 0.704505
0.40768886 0.69189805
0.41127238 0.6787659
0.41261044 0.67481345
0.4189418 0.6587306
0.4244631 0.64585054
0.43128973 0.6313063
0.44777632 0.6001492
0.45754695 0.58316123
0.47760922 0.5486276
0.48638234 0.5334233
0.49876133 0.5122949
0.5055668 0.50005305
0.523736 0.46864858
0.53360814 0.4521285
0.54352343 0.4356266
0.56132066 0.4052698
0.5705477 0.3900782
0.5893402 0.35995102
0.59889853 0.34519285
0.61383986 0.32273442
0.6194123 0.3144575
0.6327454 0.29768735
0.63987666 0.28958517
0.65431577 0.2744503
0.66126627 0.26766473
0.667787 0.2614558
0.6801438 0.2502617
0.6861001 0.24526162
0.6982746 0.23711658
0.7051202 0.23478825
0.7207259 0.23332854
0.72902775 0.2337892
0.7460147 0.2374583
0.7544097 0.24022636
0.76245344 0.24298048
0.7778133 0.2465787
0.78532344 0.24882658
0.8001231 0.25530094
0.80739915 0.2588232
0.8210062 0.2672134
0.82558167 0.27256486
0.8304771 0.28366905
0.83201855 0.28901464
0.8346156 0.298697
0.8357188 0.30325168
0.83664477 0.3079191
0.8376421 0.31897372
0.83734053 0.32539284
0.8342946 0.33937776
0.8316533 0.3471019
0.82790184 0.35520196
0.8159787 0.3718678
0.80748904 0.3794812
0.7980302 0.38528478
0.7759948 0.39208284
0.7759948 0.39208284
0.76295483 0.39344862
0.7373414 0.38918334
0.72560173 0.38445684
0.7031077 0.3700717
0.6941898 0.36039895
0.68495834 0.3399399
0.6830857 0.32969543
0.6850846 0.3132754
0.6884969 0.30724874
0.6925713 0.30239603
0.7010771 0.2954612
0.7052082 0.29432565
0.7130044 0.29933244
0.7168396 0.30248806
0.7230364 0.30962685
0.7230364 0.30962685
0.72672474 0.31730622
0.72778654 0.32102352
0.7278851 0.32759142
0.7278851 0.32759142
0.7278851 0.32759142
0.7263283 0.33284166
0.7263283 0.33284166
0.7250861 0.335045
0.7240564 0.33646137
0.7228007 0.337969
0.7228007 0.337969
0.7211031 0.33969456
0.71935725 0.3409661
0.71935725 0.3409661
0.7187112 0.3412674
0.718324 0.34122238
0.71681505 0.3418775
0.71681505 0.3418775
0.71458554 0.343048
0.7110461 0.34511456
0.7066761 0.34781325
0.702515 0.35006493
0.702515 0.35006493
0.6966821 0.35335928
0.6886834 0.35879076
0.6886834 0.35879076
0.68012524 0.36492884
0.6679225 0.37300307
0.6679225 0.37300307
0.66014206 0.37850133
0.66014206 0.37850133
0.6576077 0.3804754
0.65587085 0.38198468
0.65587085 0.38198468
0.65254414 0.3844111
0.6505439 0.38567904
0.6448989 0.38786834
0.64201236 0.38875192
0.6354145 0.38892743
0.631617 0.3899617
0.62428063 0.3992486
0.62154955 0.4064859
0.61913836 0.42290503
0.61945957 0.43318534
0.6207932 0.4450914
0.6246328 0.46935678
0.626454 0.47892553
0.6330465 0.49943805
0.6373913 0.50976354
0.64582884 0.52731264
0.65223706 0.5376166
0.66629267 0.5568765
0.67392987 0.56648433
0.6817279 0.5758816
0.69721663 0.59327954
0.7063227 0.6014363
0.7265729 0.6149157
0.73564464 0.61996
0.75789297 0.62790126
0.7694279 0.6300929
0.79216534 0.6302537
0.8023542 0.6290995
0.82255477 0.6243513
0.8321897 0.6211849
0.83951795 0.61872244
0.85375565 0.61249584
0.8636466 0.6067705
0.88832724 0.5899226
0.9011057 0.5801224
0.92671174 0.55933154
0.9387991 0.5485526
0.9562255 0.5315855
0.96170866 0.5265392
0.9696043 0.51901656
0.9724038 0.51606166
0.9744333 0.5137454
0.97637 0.5114776
0.97640914 0.51146275
0.97757167 0.508909
0.9785274 0.5059823
0.9817999 0.4994034
0.9841914 0.49546131
0.99005824 0.48721638
0.9931674 0.48307234
0.9960886 0.47921854
0.99997723 0.47497255
1.0018369 0.47484964
1.0060952 0.46962053
1.0079556 0.46332198
1.0097485 0.44518885
1.0102322 0.43817148
1.0083334 0.4173327
1.0057034 0.4038926
0.9973763 0.37519598
0.99341476 0.36325714
0.9909361 0.35519132
0.9856974 0.34007663
0.9830028 0.33211976
0.9749962 0.31232768
0.9697234 0.3020197
0.9579824 0.2813449
0.95169246 0.27133322
0.9358241 0.25137013
0.92753506 0.24333903
0.91973656 0.2366883
0.9036865 0.22573793
0.8939273 0.22106493
0.8705584 0.21319655
0.85732985 0.21004865
0.8286811 0.20459703
0.81399804 0.202496
0.7850708 0.19937211
0.7713861 0.19883707
0.7417017 0.20144057
0.72740215 0.20512167
0.7133392 0.21033561
0.68603086 0.2241557
0.67424273 0.2310555
0.6555801 0.24458537
0.64795965 0.2513861
0.6341575 0.26789755
0.62797797 0.27716905
0.61665213 0.29656297
0.6112382 0.3068609
0.6060772 0.31879348
0.598663 0.34460145
0.5963119 0.3578888
0.5936837 0.38451496
0.5939337 0.39907718
0.60001767 0.42922258
0.60574067 0.44340715
0.6177307 0.46584922
0.6234046 0.47468486
0.632488 0.48780876
0.63560075 0.49248022
0.6387073 0.4971932
0.6458331 0.504956
0.6525473 0.50943065
0.66922176 0.518029
0.6786406 0.5220534
0.698248 0.5290304
0.70787185 0.53190196
0.7258054 0.5354365
0.73416805 0.5358144
0.750717 0.5333427
0.7585752 0.53090274
0.76431334 0.5292736
0.7752014 0.5256386
0.78096545 0.52370685
0.7934917 0.51729786
0.799578 0.51302004
0.8120081 0.5025107
0.8178773 0.49648055
0.8287961 0.4793965
0.832486 0.4697414
0.8348826 0.45988846
0.8365159 0.44006032
0.8355214 0.4297591
0.83109426 0.408899
0.82959193 0.401971
0.8250011 0.38806394
0.82228136 0.38111702
0.81913507 0.3724391
0.81761396 0.36806148
0.81497955 0.35911384
0.8143237 0.35481772
0.8130903 0.3495695
0.8054263 0.3370995
0.7992794 0.3306424
0.7835201 0.31799313
0.7743524 0.31184572
0.75417876 0.30070055
0.75417876 0.30070055
0.7437035 0.29599863
0.73361 0.29211646
0.7240646 0.28924823
0.7059558 0.2847758
0.7059558 0.2847758
0.68847954 0.28253904
0.6805215 0.28280216
0.67303044 0.28371558
0.66580623 0.2848385
0.6587217 0.2858832
0.6587217 0.2858832
0.64462507 0.287829
0.6375337 0.29072326
0.6375337 0.29072326
0.62328273 0.2952394
0.61414343 0.29479352
0.6046105 0.29530257
0.5946152 0.29629457
0.5946152 0.29629457
0.58533657 0.29868278
0.57778037 0.30266604
0.56395584 0.3138599
0.56395584 0.3138599
0.5505969 0.3302711
0.54578996 0.34054795
0.5447142 0.36116093
0.54628503 0.37143028
0.5532299 0.38958496
0.55854833 0.3970288
0.5736166 0.4100109
0.58340114 0.41569504
0.6079429 0.4240703
0.622032 0.42483526
0.6369134 0.4229497
0.6684176 0.4099802
0.6829189 0.39859265
0.6999376 0.36946905
0.70541704 0.3516186
0.7045932 0.31581265
0.69889647 0.29856247
0.6797566 0.26806676
0.66693 0.2555049
0.6526323 0.24512665
0.6178486 0.22711536
0.5957377 0.21984851
0.55450946 0.21316624
0.53840595 0.21672806
0.5174054 0.23027515
0.5099213 0.23948345
0.5031244 0.25873163
0.5030016 0.26792532
0.50654376 0.28861684
0.5110426 0.2979904
0.5173662 0.3052382
0.5318867 0.3147601
0.5397425 0.31850597
0.55954057 0.3243218
0.5712976 0.3255903
0.5946544 0.32241347
0.60642123 0.3185919
0.6276357 0.30525634
0.63416445 0.29630518
0.6387101 0.28710768
0.64472866 0.26800138
0.6468903 0.2579086
0.6454053 0.24185932
0.6420744 0.2369188
0.63446397 0.23092577
0.6307179 0.22911854
0.6236738 0.23158193
0.6207006 0.23705594
0.6180633 0.25304565
0.6185018 0.26285985
0.619843 0.2724795
0.6239537 0.29306743
0.6268491 0.30395204
0.6336387 0.32494694
0.63769996 0.33455795
0.6459858 0.35113412
0.6504937 0.35858458
0.6604804 0.37063283
0.6660541 0.3752399
0.6779523 0.38210288
0.68411696 0.38423523
0.69021046 0.38573208
0.70106685 0.3871824
0.7077714 0.3871437
0.7248796 0.38604742
0.7361851 0.384777
0.7628037 0.37885216
0.7772137 0.37444347
0.8000988 0.36712158
0.8087637 0.36430544
0.817544 0.3613193
0.83453226 0.35556805
0.84163505 0.3527416
0.8526146 0.3474185
0.85679865 0.34502986
0.86799526 0.33651036
0.8729944 0.3327994
0.87895286 0.32857573
0.882305 0.32578236
0.8924508 0.3158424
0.89496005 0.31360683
0.8964162 0.31229785
0.89962226 0.31033367
0.9025978 0.30773583
0.9134203 0.2951419
0.91996944 0.2859742
0.93325853 0.26598006
0.93987226 0.2554943
0.95309496 0.2300174
0.95806533 0.21683256
0.96202886 0.20333211
0.96202886 0.20333211
