0 [0.0, 0.0, 0.0, 0.0, 0.0, 0.0, 0.0, 0.0]
1 [0.0, 0.0, 0.0, 0.9745045, 0.97445333, 0.0, 0.0, 0.7868312]
2 [0.0, 0.0, 0.0, 0.9621891, 0.96151245, 0.0, 0.0, 0.78680307]
3 [0.0, 0.0, 0.0, 0.9621891, 0.96151245, 0.0, 0.0, 0.78680307]
4 [0.0, 0.0, 0.0, 0.94964194, 0.94809604, 0.0, 0.0, 0.7864799]
5 [0.0, 0.0, 0.0, 0.926658, 0.924006, 0.0, 0.0, 0.78639454]
6 [0.0, 0.0, 0.0, 0.8988589, 0.895176, 0.0, 0.0, 0.7866556]
7 [0.0, 0.0, 0.0, 0.8659985, 0.8573399, 0.0, 0.0, 0.7866371]
8 [0.0, 0.0, 0.0, 0.8163932, 0.80056286, 0.0, 0.0, 0.787147]
9 [0.0, 0.0, 0.0, 0.79899925, 0.78335315, 0.0, 0.0, 0.7877979]
10 [0.0, 0.0, 0.0, 0.76626277, 0.0, 0.0, 0.0, 0.78861505]
11 [0.0, 0.0, 0.0, 0.74094176, 0.0, 0.0, 0.0, 0.7889946]
12 [0.0, 0.0, 0.70705205, 0.72043234, 0.0, 0.0, 0.0, 0.7821028]
13 [0.0, 0.0, 0.71037745, 0.0, 0.0, 0.0, 0.0, 0.7568439]
14 [0.0, 0.6861591, 0.6993072, 0.0, 0.0, 0.0, 0.0, 0.7867303]
15 [0.0, 0.6935233, 0.0, 0.0, 0.0, 0.0, 0.7483814, 0.0]
16 [0.0, 0.6899524, 0.0, 0.0, 0.0, 0.0, 0.74730885, 0.0]
17 [0.6938841, 0.0, 0.0, 0.0, 0.0, 0.7322903, 0.7253066, 0.0]
18 [0.6799152, 0.0, 0.0, 0.0, 0.0, 0.7308068, 0.76268685, 0.0]
19 [0.6799152, 0.0, 0.0, 0.0, 0.0, 0.7308068, 0.76268685, 0.0]
20 [0.70576614, 0.0, 0.0, 0.0, 0.7012008, 0.69536626, 0.0, 0.0]
21 [0.70732933, 0.0, 0.0, 0.0, 0.6961967, 0.6983362, 0.0, 0.0]
22 [0.70347726, 0.0, 0.0, 0.0, 0.6757967, 0.7011887, 0.0, 0.0]
23 [0.0, 0.0, 0.0, 0.0, 0.6298645, 0.6836691, 0.0, 0.0]
24 [0.0, 0.0, 0.0, 0.0, 0.6120011, 0.6692466, 0.0, 0.0]
25 [0.0, 0.0, 0.0, 0.0, 0.5735119, 0.6285931, 0.0, 0.0]
26 [0.0, 0.0, 0.0, 0.0, 0.5338471, 0.5856741, 0.0, 0.0]
27 [0.0, 0.0, 0.0, 0.0, 0.49520025, 0.5441183, 0.0, 0.0]
28 [0.0, 0.0, 0.0, 0.0, 0.45801875, 0.5041564, 0.0, 0.0]
29 [0.0, 0.0, 0.0, 0.0, 0.42062727, 0.46396568, 0.0, 0.0]
30 [0.0, 0.0, 0.0, 0.0, 0.38149336, 0.4218924, 0.0, 0.0]
31 [0.0, 0.0, 0.0, 0.0, 0.3224749, 0.35843667, 0.0, 0.0]
32 [0.0, 0.0, 0.0, 0.0, 0.28496695, 0.31809705, 0.0, 0.0]
33 [0.0, 0.0, 0.0, 0.0, 0.26652908, 0.29827017, 0.0, 0.0]
34 [0.0, 0.0, 0.0, 0.0, 0.22874829, 0.25764057, 0.0, 0.0]
35 [0.0, 0.0, 0.0, 0.0, 0.18918349, 0.21509992, 0.0, 0.0]
36 [0.0, 0.0, 0.0, 0.0, 0.1496725, 0.17261468, 0.0, 0.0]
37 [0.0, 0.0, 0.0, 0.0, 0.3008101, 0.13182218, 0.2382573, 0.0]
38 [0.0, 0.0, 0.0, 0.0, 0.26373914, 0.09198131, 0.21404766, 0.0]
39 [0.0, 0.0, 0.0, 0.0, 0.23681965, 0.061970785, 0.1347612, 0.0]
40 [0.0, 0.0, 0.0, 0.0, 0.23648484, 0.06181336, 0.13515721, 0.0]
41 [0.0, 0.0, 0.9386171, 0.0, 0.0, 0.0, 0.0, 0.0]
42 [0.0, 0.0, 0.9255744, 0.0, 0.0, 0.0, 0.0, 0.0]
43 [0.0, 0.0, 0.8996248, 0.0, 0.0, 0.0, 0.0, 0.0]
44 [0.0, 0.0, 0.8666909, 0.0, 0.0, 0.0, 0.0, 0.0]
45 [0.0, 0.8691807, 0.83395225, 0.0, 0.0, 0.9947695, 0.0, 0.0]
46 [0.0, 0.8298133, 0.7997621, 0.0, 0.0, 0.96058184, 0.0, 0.0]
47 [0.0, 0.7895258, 0.76476413, 0.0, 0.0, 0.9256058, 0.0, 0.0]
48 [0.0, 0.73162097, 0.7144656, 0.0, 0.0, 0.8753001, 0.0, 0.0]
49 [0.0, 0.69389385, 0.68240947, 0.0, 0.0, 0.8433764, 0.0, 0.0]
