0 0 1 2 3 4 5 6 7
1 0.0 0.0 0.0 0.0 0.0 0.0 0.0 0.0
2 0.989011 0.989011 0.989011 0.989011 0.989011 0.989011 0.989011 0.989011
3 0.0 0.0 0.0 0.5 0.5 0.0 0.0 0.5
4 0.0989011 0.0989011 0.0 0.0 0.0 0.0 0.0 0.989011
5 0.0 0.0 0.0 0.5 0.5 0.0 0.0 0.5
6 0.9 0.9 0.0 0.0 0.9 0.0 0.0 0.0
7 0.875 0.875 0.0 0.5 0.875 0.625 0.875 0.875
8 0.125 0.125 0.0 0.0 0.875 0.875 0.125 0.125
9 0.0 0.0 0.0 0.5 0.5 0.0 0.0 0.5
10 0.9375 0.9375 0.0 0.0 0.9375 0.1875 0.1875 0.1875
11 0.0 0.0 0.0 0.5 0.5 0.0 0.0 0.5
12 0.0 0.0 0.0 0.75 0.0 0.0 0.0 0.75
13 0.0 0.0 0.0 0.9411765 0.9411765 0.0 0.0 0.9411765
14 0.0 0.0 0.0 0.75 0.0 0.0 0.0 0.75
15 0.9 0.0 0.0 0.9 0.9 0.1 0.1 0.1
16 0.09090909 0.0 0.0 0.09090909 0.90909094 0.90909094 0.09090909 0.09090909
17 0.0 0.0 0.0 0.75 0.0 0.0 0.0 0.75
18 0.0625 0.0 0.0 0.9375 0.9375 0.0625 0.0625 0.0625
19 0.0 0.0 0.5 0.5 0.0 0.0 0.0 0.5
20 0.0 0.0 0.0 0.0 0.0 0.0 0.0 0.0
21 0.0 0.0 0.5 0.9166667 0.9166667 0.16666667 0.16666667 0.5
22 0.0 0.0 0.5 0.5 0.0 0.0 0.0 0.5
23 0.0 0.0 0.989011 0.0 0.13186814 0.13186814 0.989011 0.0
24 0.5 0.5 0.5 0.0 0.0 0.0 0.8333333 0.8333333
25 0.0 0.0 0.375 0.375 0.0 0.0 0.0 0.875
26 0.875 0.875 0.0 0.0 0.0 0.0 0.875 0.5
27 0.0 0.0 0.375 0.375 0.0 0.0 0.0 0.875
28 0.0 0.0 0.375 0.375 0.0 0.0 0.0 0.875
29 0.071428575 0.9285714 0.9285714 0.0 0.0 0.0 0.9285714 0.071428575
30 0.0 0.0 0.375 0.375 0.0 0.0 0.0 0.875
31 0.14285715 0.85714287 0.85714287 0.85714287 0.0 0.0 0.85714287 0.14285715
32 0.09090909 0.09090909 0.90909094 0.0 0.0 0.0 0.09090909 0.09090909
33 0.0 0.0 0.875 0.375 0.0 0.0 0.0 0.375
34 0.22222222 0.22222222 0.8888889 0.8888889 0.0 0.0 0.22222222 0.8888889
35 0.0 0.0 0.0 0.75 0.0 0.0 0.0 0.75
36 0.0 0.0 0.0 0.75 0.0 0.0 0.0 0.75
37 0.5 0.5 0.5 0.5 0.5 0.0 0.0 0.5
38 0.0 0.0 0.0 0.875 0.0 0.0 0.0 0.875
39 0.14285715 0.14285715 0.85714287 0.85714287 0.0 0.0 0.0 0.85714287
40 0.8888889 0.11111111 0.11111111 0.8888889 0.0 0.0 0.0 0.11111111
41 0.0 0.0 0.0 0.875 0.875 0.0 0.0 0.0
42 0.027777778 0.027777778 0.027777778 0.027777778 0.9722222 0.0 0.0 0.027777778
43 0.0 0.0 0.0 0.75 0.75 0.0 0.0 0.0
44 0.0 0.0 0.0 0.0 0.875 0.0 0.0 0.0
45 0.0 0.5 0.5 0.5 0.5 0.5 0.0 0.0
46 0.0 0.0 0.0 0.0 0.75 0.75 0.0 0.0
47 0.0 0.0 0.5 0.5 0.5 0.5 0.5 0.0
48 0.989011 0.0 0.0 0.010989011 0.010989011 0.010989011 0.010989011 0.010989011
49 0.0 0.0 0.0 0.0 0.0 0.0 0.875 0.0
