0 0 1 2 3 4 5 6 7
1 0.01058441 0.01058441 0.01058441 0.01058441 0.01058441 0.01058441 0.01058441 0.01058441
2 1.6729884 1.6729884 1.6729884 1.6729884 1.6729884 1.6729884 1.6729884 1.6729884
3 0.041280225 0.041280225 0.025719782 0.08328022 0.08328022 0.025719782 0.025719782 0.061280217
4 0.041280225 0.041280225 0.025719782 0.08328022 0.08328022 0.025719782 0.025719782 0.061280217
5 0.040829677 0.040829677 0.026170332 0.58382964 0.58382964 0.026170332 0.026170332 0.56082964
6 0.14067033 0.14067033 0.025230773 0.08376923 0.08376923 0.026230771 0.026230771 1.0497802
7 0.041769236 0.041769236 0.025230773 0.5837692 0.5837692 0.026230771 0.026230771 0.56076926
8 0.9427857 0.9427857 0.025214292 0.08378572 0.9827857 0.02821429 0.02821429 0.05878572
9 0.91946703 0.91846704 0.025532955 0.583467 0.957467 0.65453297 0.906533 0.93146706
10 0.17192307 0.16592309 0.025076915 0.08392308 0.95792305 0.90707695 0.16007693 0.17892309
11 0.046923075 0.04092308 0.025076915 0.5839231 0.58292305 0.032076932 0.035076927 0.5539231
12 0.9843736 0.9736011 0.027494503 0.14058772 1.1154486 0.22067793 0.22462638 0.23937362
13 0.046873625 0.035880677 0.027120097 0.924617 0.6280442 0.0331329 0.03712638 0.5518736
14 0.050252754 0.02075036 0.089346975 1.205524 0.03366679 0.035752617 0.041747253 0.79925275
15 0.055016484 0.017985554 0.08890018 1.3712416 1.0207527 0.040997736 0.052505914 1.6729884
16 0.055016484 0.017985057 0.08795187 1.0467943 0.036191415 0.04099509 0.051790915 1.2611408
17 0.9593901 0.01461084 0.0896683 1.1752026 0.96000046 0.14364068 0.15970726 0.20738873
18 0.15470031 0.011209337 0.091560334 0.20471627 0.9639247 0.95645475 0.15174711 0.17749259
19 0.06379121 0.011206207 0.08144486 0.26236784 0.03284309 0.047201954 0.056080468 0.9937963
20 0.11682418 0.09430499 0.08658508 0.40469977 0.89608276 0.11415998 0.12433479 0.1254355
21 0.054324176 0.0943095 0.55718404 0.3723452 0.06317735 0.05653947 0.05984561 0.621681
22 0.019203292 0.09719187 0.09070916 0.020997431 0.06588315 0.064525 0.056968175 0.015572581
23 0.021500003 0.0995144 0.63036436 1.41319 1.4486471 0.24514417 0.21315274 0.21478744
24 0.021500003 0.09951292 0.6267534 0.76004034 0.06325645 0.067462854 0.06757558 0.6727694
25 0.022258243 0.0992681 1.128858 0.040908143 0.23008615 0.20447496 1.0896469 0.056563668
26 0.8937033 0.97277635 0.09758091 0.037875846 0.052966315 0.061879955 0.9625535 0.6471634
27 0.018703299 0.097708836 0.4804801 0.48185503 0.050597616 0.061492115 0.06550061 1.0495689
28 0.016576925 0.096582405 0.48035082 0.4808164 0.048408028 0.05856152 0.06461063 1.0474367
29 0.08347803 1.0226647 1.0390636 0.028927902 0.0128896935 0.04712884 1.0012349 0.12410112
30 0.012049456 0.09405249 0.47407526 0.40876913 0.01580405 0.04768362 0.05956749 0.9881594
31 0.15181868 0.9498738 0.85601753 0.18890917 0.016228007 0.045011573 0.9214033 0.19476005
32 0.14045855 0.104337394 0.9126435 0.027759453 0.0188341 0.0404145 0.12786363 0.03365695
33 0.049549453 0.013448358 0.90113294 0.22155282 0.022389678 0.040911824 0.046878297 0.14433053
34 0.27617276 0.2392435 0.9284716 0.6056631 0.024860295 0.037980303 0.25234678 0.5022574
35 0.053950544 0.017047932 0.082863614 0.59659654 0.026866317 0.03824184 0.04463582 0.49584267
36 0.05218681 0.018811919 0.08287448 0.6542065 0.028173476 0.038206507 0.044036813 0.56901515
37 0.55186266 0.5191111 0.5738845 0.4965064 0.52027804 0.03613311 0.040997468 0.43915185
38 0.051862635 0.019136637 0.084535316 0.84192204 0.028630007 0.035815824 0.041275788 0.78443253
39 0.18963188 0.16507766 0.9299245 0.85353935 0.028385757 0.032008573 0.035665475 0.8061292
40 0.92911416 0.13933332 0.1366683 0.90481544 0.08035116 0.024648808 0.023497052 0.14377284
41 0.04022527 0.028224807 0.026596215 0.90839374 0.92591226 0.024679653 0.023565074 0.043216523
42 0.07515139 0.06715056 0.06482345 0.106946796 1.0301102 0.0213117 0.016264606 0.037227347
43 0.047373615 0.03937362 0.037373625 0.8336264 0.83562636 0.021373361 0.016291317 0.010951184
44 0.031109896 0.0681094 0.05196028 0.04317405 0.95813113 0.088888645 0.011067683 0.01058441
45 0.029956043 0.55504394 0.584044 0.55804396 0.54504395 0.591956 0.09595604 0.024956048
46 0.029956043 0.05504396 0.08404396 0.058043957 0.79504395 0.841956 0.09595604 0.024956048
47 0.038406596 0.022593405 0.5645934 0.5945934 0.5575934 0.5425934 0.6004066 0.107406594
48 1.0383022 0.027291209 0.020708792 0.0636978 0.09469779 0.045697812 0.032697804 0.13128023
49 0.049291212 0.027291209 0.020708792 0.052708786 0.08370878 0.0347088 0.8967088 0.12029121
