0 -1
1 -1
2 -1
3 -975371270
4 -975371270
5 -975293151
6 -975296151
7 -975293151
8 -975606127
9 -975221502
10 -975593651
11 -975293151
12 -1952168627
13 -1951936276
14 -1951856276
15 -1951858151
16 -1922871272
17 -1922859151
18 -1971389776
19 -1971699776
20 -1971389551
21 -1971662906
22 -1971699351
23 -1971389301
24 -1971639801
25 -1971405502
26 -1971389601
27 -1971639781
28 -1971389601
29 -1971639781
30 -1971702301
31 -1971702176
32 -2000826920
33 -2000686276
34 146797371
35 146721870
36 879219250
37 879219350
38 878906754
39 878908750
40 99566954
41 99566454
42 99579574
43 -1
44 -2147405551
45 -2147483647
46 -2147421151
47 -2147483631
48 -2147098644
49 -2147171151
50 -2147483151
51 -2147483151
52 -2147171151
53 -2147171151
54 -2147171151
55 -2147483647
56 -2147171151
57 -2147096148
58 -2147405647
59 -2147171151
60 -2147468147
61 -2147171151
62 -2147171151
63 -2147249398
64 -2147171151
65 -2147171772
66 -2147171151
67 -2147480651
68 -2147171151
69 -2147171151
70 -2147171151
71 -2147483051
72 -2147421051
73 -2147483535
74 -2147171151
75 -2147421151
76 -2147471127
77 -2147421151
78 -2147483647
79 1514688224
80 1514628224
81 99638954
82 99576454
83 732499995
84 878908746
85 878909370
86 879063120
87 175861121
88 176016121
89 176016121
90 176094346
91 19593866
92 19844046
93 19843846
94 23437620
95 23750096
96 23750116
97 -1
98 19921250
99 19543770
100 19843846
101 19856370
102 117500096
103 117500096
104 117575000
105 117500596
106 117284395
107 117500146
108 117250020
109 117500146
110 97968896
111 97968746
112 586250500
113 586078249
114 -1365279792
115 -1365276672
116 -1365277296
117 -1853546048
118 -1853545428
119 -1853498448
120 312498
121 62498
122 62498
123 62496
124 62518
125 312498
126 -1
127 98
128 312498
129 98
130 312498
131 312498
132 315598
133 375779
134 195122
135 312498
136 797
137 312498
138 2998
139 312498
140 498
141 313098
142 312498
143 78223
144 312498
145 -1853514541
146 -1853170548
147 -1853185058
148 -1365267296
149 -1365217196
150 -1365264796
151 -1365264796
152 585952500
153 585940000
154 585953000
155 -1
156 585940500
157 634766125
158 634768625
159 -1365276792
160 -1365277296
161 -1121136673
162 -1121124173
163 -1853185424
164 -1853486048
165 74998
166 312498
167 62496
168 2
169 187125
170 -2147158645
171 -2147386750
172 -1559538421
173 -1559328976
174 -1559327688
175 -1559327688
176 -1559250921
177 -1559249563
178 -1559250943
179 -1559250945
180 -1559252813
181 -1559288445
182 -1559252813
183 588195202
184 -1
185 588170202
186 588235702
187 588170202
188 588235822
189 588163827
190 344029577
191 344017677
192 344029577
193 99887077
194 99639072
195 99626576
196 99950830
197 99880202
198 99629326
199 99649601
200 732434397
201 879064998
202 878919252
203 878918675
204 879143623
205 879143623
206 -1268262149
207 -1268262299
208 -1317324649
209 -1317093024
210 -2020525528
211 -2029983149
212 -2029920628
213 -1
214 -1297874254
215 -1317092724
216 -1317396404
217 -1317403654
218 -1317090024
219 -1317247524
220 -1317237449
221 -1317389924
222 -1561310024
223 586308576
224 586021113
225 586252248
226 586252998
227 586327752
228 586018623
229 586015554
230 585946229
231 586096748
232 -1317105924
233 -2030215274
234 -2029986174
235 -2030283149
236 -2030217474
237 -2030281051
238 -2030295153
239 -2029983351
240 -2030295902
241 -2029906046
242 -1
243 -2030280979
244 -1297869902
245 -1297717474
246 -1317389979
247 586251498
248 586031223
249 586012598
250 586327948
251 593836853
252 594063248
253 594062498
254 594068166
255 301096352
256 300786733
257 888767181
258 1134335067
259 1153863347
260 1154092577
261 1624579647
262 1624861327
263 1624639052
264 1624938976
265 1624641552
266 1624907712
267 1624939072
268 1624567076
269 1624579748
270 1624907712
271 -1
272 1624907712
273 1632376476
274 1144470318
275 1144110433
276 890201950
277 928014054
278 927763950
279 -1513716780
280 1707401871
281 486484868
282 486490492
283 486424367
284 242187496
285 242187992
286 -1904983651
287 -2050217776
288 -2098983481
289 -2098889901
290 -2110702231
