0 [1.0, 1.0, 1.0, 1.0, 1.0, 1.0, 1.0, 1.0]
1 [1.0, 1.0, 1.0, 1.0, 1.0, 1.0, 1.0, 1.0]
2 [1.0, 1.0, 1.0, 1.0, 1.0, 1.0, 1.0, 1.0]
3 [1.0, 1.0, 1.0, 1.0, 1.0, 1.0, 1.0, 1.0]
4 [1.0, 1.0, 1.0, 1.0, 1.0, 1.0, 1.0, 1.0]
5 [1.0, 1.0, 1.0, 1.0, 1.0, 1.0, 1.0, 1.0]
6 [1.0, 1.0, 1.0, 1.0, 1.0, 1.0, 1.0, 1.0]
7 [1.0, 1.0, 1.0, 1.0, 1.0, 1.0, 1.0, 1.0]
8 [1.0, 1.0, 1.0, 1.0, 1.0, 1.0, 1.0, 1.0]
9 [1.0, 1.0, 1.0, 1.0, 1.0, 1.0, 1.0, 1.0]
10 [1.4773357, 1.0646003, 1.0001601, 1.0, 1.0, 1.0, 1.0, 1.0]
11 [1.6369405, 1.0864139, 1.0863135, 1.6361964, 1.0860999, 1.0002134, 1.0, 1.0]
12 [1.490336, 1.0665734, 1.086365, 1.6369405, 1.0862005, 1.0002136, 1.0, 1.0]
13 [1.3711556, 1.0503951, 1.0665495, 1.4908191, 1.0664251, 1.0001646, 1.0, 1.0]
14 [1.265005, 1.0359824, 1.0475863, 1.3509607, 1.0474974, 1.0001178, 1.0, 1.0]
15 [1.2002877, 1.027195, 1.0359676, 1.2652702, 1.0359004, 1.000256, 1.0673598, 1.4977255]
16 [1.151223, 1.0205331, 1.0271568, 1.2002877, 1.027106, 1.000291, 1.0902543, 1.6668942]
17 [0.34001064, 0.91073096, 1.0202649, 1.1513742, 1.0204862, 1.0002258, 1.0705851, 1.5215571]
18 [0.53494877, 0.9368407, 0.9105242, 0.34001064, 0.9106802, 0.999911, 1.053438, 1.3948561]
19 [1.2097976, 1.0281827, 0.915209, 0.37295455, 0.9151386, 0.9998898, 1.0403962, 1.29849]
20 [1.1926929, 1.0259166, 0.9348724, 0.5182912, 0.9348078, 0.9999141, 1.0305313, 1.2255979]
21 [1.1459662, 1.0196335, 0.95130146, 0.6398023, 0.9512525, 0.9999357, 1.0227998, 1.1684695]
22 [1.1104307, 1.0150876, 1.0574961, 1.4245682, 1.0574591, 1.0000091, 0.94620794, 0.6025276]
23 [1.0786866, 1.0107685, 1.0482097, 1.3560283, 1.0481832, 0.9999007, 0.9117608, 0.34799558]
24 [1.0594703, 1.0081393, 1.0366861, 1.270928, 1.0366662, 0.9999213, 0.9315876, 0.49449676]
25 [0.5665574, 0.94140863, 1.0275815, 1.2048753, 1.0277269, 0.9999403, 0.9481903, 0.61717486]
26 [0.2555002, 0.8992948, 1.0206857, 1.1546935, 1.0209355, 0.9999549, 0.9608758, 0.7109091]
27 [0.4121939, 0.92048836, 1.0156256, 1.1169152, 1.0158228, 0.9999659, 0.9704302, 0.78150696]
28 [0.5546622, 0.9397597, 1.0117972, 1.0882744, 1.0119467, 0.9999743, 0.97767395, 0.8350314]
29 [0.6633289, 0.9541911, 0.9008588, 0.26827514, 0.9009718, 0.9997127, 0.98312634, 0.8753194]
30 [0.74554384, 0.9653627, 0.919058, 0.40254605, 0.9191434, 0.999768, 0.98724717, 0.90576845]
31 [0.8234233, 0.97595763, 0.9413126, 0.5667932, 0.94137186, 0.99983084, 0.9903712, 0.9288525]
32 [0.8665462, 0.9818291, 0.95562303, 0.6724267, 0.9556678, 0.9998901, 1.0, 1.0]
33 [0.8991378, 0.98626673, 0.9664592, 0.75241554, 0.96649307, 0.9999033, 0.9945, 0.9593599]
34 [0.9238462, 0.989631, 0.97467566, 0.8130661, 0.9747012, 0.999927, 0.9958473, 0.9693156]
35 [0.9424442, 0.9921633, 0.9808603, 0.8587184, 0.9808796, 0.9999448, 0.99686146, 0.9768092]
36 [1.0, 0.9999642, 0.9855491, 0.8932216, 0.9855491, 0.9999642, 1.0, 1.0]
37 [0.9710157, 0.9960536, 0.9903615, 0.9288525, 0.9903712, 0.99997616, 1.0, 1.0]
38 [0.9780941, 0.9970173, 0.9927154, 0.94622785, 0.99272275, 0.99998194, 1.0, 1.0]
39 [1.0, 1.0, 1.0, 1.0, 1.0, 1.0, 1.0, 1.0]
40 [1.0, 0.9999897, 0.9958473, 0.9693156, 0.9958473, 0.9999897, 1.0, 1.0]
41 [1.0, 0.9999922, 0.99686146, 0.9768092, 0.99686146, 0.9999922, 1.0, 1.0]
42 [1.0, 1.0, 1.0, 1.0, 1.0, 1.0, 1.0, 1.0]
43 [1.0, 1.0, 1.0, 1.0, 1.0, 1.0, 1.0, 1.0]
