0 1.5707965
0 2.3182125E-7
0 2.7530228E-7
0 8.3220726E-8
0 -0.0
0 -1.8927005E-7
0 -1.3909238E-7
0 -1.5707965
0 -1.5707958
1 1.5707965
1 2.3182125E-7
1 2.7530228E-7
1 8.3220726E-8
1 -0.0
1 -1.8927005E-7
1 -1.3909238E-7
1 -1.5707965
1 -1.5707958
2 -3.1376119
2 -8.757697E-5
2 -6.4670574E-5
2 -5.6972138E-5
2 -5.689787E-5
2 -6.479141E-5
2 -8.685131E-5
2 -0.003937425
2 -1.5659673
3 -3.1376119
3 -8.757697E-5
3 -6.4670574E-5
3 -5.6972138E-5
3 -5.689787E-5
3 -6.479141E-5
3 -8.685131E-5
3 -0.003937425
3 -1.5659673
4 3.1280878
4 2.8202924E-4
4 2.07372E-4
4 1.8101282E-4
4 1.7991858E-4
4 2.0307416E-4
4 2.7123062E-4
4 0.013519992
4 -1.5549124
5 3.1280878
5 2.8202924E-4
5 2.07372E-4
5 1.8101282E-4
5 1.7991858E-4
5 2.0307416E-4
5 2.7123062E-4
5 0.013519992
5 -1.5549124
6 3.1315057
6 8.6435094E-4
6 6.192535E-4
6 5.3230365E-4
6 5.2192406E-4
6 5.805989E-4
6 7.575616E-4
6 0.010091935
6 -1.5157484
7 3.1315057
7 8.6435094E-4
7 6.192535E-4
7 5.3230365E-4
7 5.2192406E-4
7 5.805989E-4
7 7.575616E-4
7 0.010091935
7 -1.5157484
8 3.1315057
8 8.6435094E-4
8 6.192535E-4
8 5.3230365E-4
8 5.2192406E-4
8 5.805989E-4
8 7.575616E-4
8 0.010091935
8 -1.5157484
9 3.1315057
9 8.6435094E-4
9 6.192535E-4
9 5.3230365E-4
9 5.2192406E-4
9 5.805989E-4
9 7.575616E-4
9 0.010091935
9 -1.5157484
10 3.1306386
10 0.0013552044
10 9.569535E-4
10 8.155027E-4
10 7.939572E-4
10 8.7631977E-4
10 0.0011304256
10 0.01095718
10 -1.4952478
11 3.1306386
11 0.0013552044
11 9.569535E-4
11 8.155027E-4
11 7.939572E-4
11 8.7631977E-4
11 0.0011304256
11 0.01095718
11 -1.4952478
12 3.1292324
12 0.0019412462
12 0.0013541601
12 0.0011456574
12 0.0011086952
12 0.0012160515
12 0.0015544931
12 0.012362748
12 -1.4783047
13 3.1292324
13 0.0019412462
13 0.0013541601
13 0.0011456574
13 0.0011086952
13 0.0012160515
13 0.0015544931
13 0.012362748
13 -1.4783047
14 3.1306028
14 0.0021640914
14 0.0014871584
14 0.001247135
14 0.0011984212
14 0.0013046595
14 0.001650475
14 0.010991707
14 -1.4583931
15 3.1306028
15 0.0021640914
15 0.0014871584
15 0.001247135
15 0.0011984212
15 0.0013046595
15 0.001650475
15 0.010991707
15 -1.4583931
16 3.1307876
16 0.0032527295
16 0.0021529584
16 0.0017681579
16 0.0016710197
16 0.0017884339
16 0.0022107232
16 0.010806123
16 -1.4121338
17 3.1307876
17 0.0032527295
17 0.0021529584
17 0.0017681579
17 0.0016710197
17 0.0017884339
17 0.0022107232
17 0.010806123
17 -1.4121338
18 3.1313906
18 0.0039018653
18 0.0025099171
18 0.0020302786
18 0.0018966454
18 0.0020064763
18 0.002442915
18 0.01020339
18 -1.380227
19 3.132333
19 0.004600779
19 0.0028466647
19 0.0022579285
19 0.0020787732
19 0.0021680626
19 0.002592618
19 0.009260786
19 -1.3407524
20 3.1350877
20 0.0041478924
20 0.0024492806
20 0.0019002102
20 0.0017217769
20 0.0017689768
20 0.0020766945
20 0.0065057063
20 -1.2985709
21 3.1350877
21 0.0041478924
21 0.0024492806
21 0.0019002102
21 0.0017217769
21 0.0017689768
21 0.0020766945
21 0.0065057063
21 -1.2985709
22 3.1358597
22 0.0044624126
22 0.0025212916
22 0.0019180224
22 0.0017145923
22 0.0017398802
22 0.0020124586
22 0.0057336944
22 -1.2634207
23 3.137194
23 0.003964216
23 0.0021561384
23 0.0016143814
23 0.0014277832
23 0.0014348974
23 0.0016413938
23 0.0043991534
23 -1.2362283
24 3.138053
24 0.0036944328
24 0.0019259375
24 0.0014180999
24 0.0012405358
24 0.001234854
24 0.0013970967
24 0.0035404668
24 -1.2089045
25 3.1393828
25 0.0026955914
25 0.0013321715
25 9.6169504E-4
25 8.3076826E-4
25 8.179767E-4
25 9.144928E-4
25 0.0022105263
25 -1.178357
26 3.1413112
26 3.0600606E-4
26 1.419041E-4
26 1.0011971E-4
26 8.512172E-5
26 8.2740095E-5
26 9.145414E-5
26 2.8210485E-4
26 -1.1460251
27 -3.1407099
27 -0.0017858936
27 -7.6295406E-4
27 -5.2558986E-4
27 -4.4152417E-4
27 -4.2491077E-4
27 -4.629964E-4
27 -8.822291E-4
27 -1.1122309
28 -3.1392531
28 -0.0054996493
28 -0.00214648
28 -0.0014414284
28 -0.0011934416
28 -0.0011352167
28 -0.0012227356
28 -0.0023390735
28 -1.0803878
29 -3.140244
29 -0.004000685
29 -0.0014015123
29 -9.1672264E-4
29 -7.481958E-4
29 -7.038305E-4
29 -7.4953266E-4
29 -0.001348266
29 -1.0494462
30 3.1409779
30 0.0020012886
30 6.130724E-4
30 3.895841E-4
30 3.13223E-4
30 2.9109637E-4
30 3.0675743E-4
30 6.152898E-4
30 -1.0187635
31 3.139791
31 0.008455016
31 0.0021551398
31 0.0013264625
31 0.0010494341
31 9.643093E-4
31 0.0010041894
31 0.0018020488
31 -0.9867821
32 3.1351478
32 0.1361103
32 0.010752965
32 0.0059709586
32 0.0045093354
32 0.0040111756
32 0.00405248
32 0.0064450633
32 -0.9016485
33 3.1351478
33 0.1361103
33 0.010752965
33 0.0059709586
33 0.0045093354
33 0.0040111756
33 0.00405248
33 0.0064450633
33 -0.9016485
34 3.1332924
34 2.8243768
34 0.016574476
34 0.008588996
34 0.0063096164
34 0.0055116746
34 0.0054798294
34 0.008300573
34 -0.85618013
35 3.1319532
35 3.0299666
35 0.023036866
35 0.011050473
35 0.007894557
35 0.006776572
35 0.0066372617
35 0.009639488
35 -0.81381184
36 3.1330824
36 3.0804553
36 0.024519151
36 0.010755771
36 0.007465174
36 0.0062979194
36 0.0060807383
36 0.008510562
36 -0.77344376
37 3.1338875
37 3.1000736
37 0.027077645
37 0.010699124
37 0.0072080065
37 0.0059782467
37 0.0056937463
37 0.007705386
37 -0.7352648
38 3.1347408
38 3.1117992
38 0.03048127
38 0.010504559
38 0.0068440335
38 0.005573898
38 0.0052339993
38 0.0068519334
38 -0.69611776
39 3.1366456
39 3.123898
39 0.031210799
39 0.008568392
39 0.005338724
39 0.0042494205
39 0.0039223796
39 0.004947284
39 -0.6494184
40 3.1366456
40 3.123898
40 0.031210799
40 0.008568392
40 0.005338724
40 0.0042494205
40 0.0039223796
40 0.004947284
40 -0.6494184
41 3.1415286
41 3.1414835
41 0.00542209
41 1.0522393E-4
41 5.6297085E-5
41 4.199254E-5
41 3.7035265E-5
41 6.412205E-5
41 -0.53036505
42 3.1415286
42 3.1414835
42 0.00542209
42 1.0522393E-4
42 5.6297085E-5
42 4.199254E-5
42 3.7035265E-5
42 6.412205E-5
42 -0.53036505
43 3.1415286
43 3.1414835
43 0.00542209
43 1.0522393E-4
43 5.6297085E-5
43 4.199254E-5
43 3.7035265E-5
43 6.412205E-5
43 -0.53036505
44 3.1415286
44 3.1414835
44 0.00542209
44 1.0522393E-4
44 5.6297085E-5
44 4.199254E-5
44 3.7035265E-5
44 6.412205E-5
44 -0.53036505
45 -3.139491
45 -3.1373549
45 -3.1265688
45 -0.009017165
45 -0.003636644
45 -0.002463876
45 -0.002049961
45 -0.0021013678
45 -0.39310288
46 -3.139491
46 -3.1373549
46 -3.1265688
46 -0.009017165
46 -0.003636644
46 -0.002463876
46 -0.002049961
46 -0.0021013678
46 -0.39310288
47 3.1400578
47 3.1390455
47 3.1360407
47 0.018479986
47 0.0035489025
47 0.002103001
47 0.001634419
47 0.0015349503
47 -0.2544906
48 3.1400578
48 3.1390455
48 3.1360407
48 0.018479986
48 0.0035489025
48 0.002103001
48 0.001634419
48 0.0015349503
48 -0.2544906
49 3.136867
49 3.1343212
49 3.127807
49 0.6923302
49 0.013368223
49 0.0071748463
49 0.0053437036
49 0.0047258353
49 -0.18013231
