0 [1.0, 1.0, 1.0, 1.0, 1.0, 1.0, 1.0, 1.0]
1 [1.0, 1.0, 1.0, 1.0, 1.0, 1.0, 1.0, 1.0]
2 [1.0, 1.0, 1.0, 1.0, 1.0, 1.0, 1.0, 1.0]
3 [1.0, 1.0, 1.0, 1.0, 1.0, 1.0, 1.0, 1.0]
4 [1.0, 1.0, 1.0, 1.0, 1.0, 1.0, 1.0, 1.0]
5 [1.0, 1.0, 1.0, 1.0, 1.0, 1.0, 1.0, 1.0]
6 [1.0, 1.0, 1.0, 1.0, 1.0, 1.0, 1.0, 1.0]
7 [1.0, 1.0, 1.0, 1.0, 1.0, 1.0, 1.0, 1.0]
8 [1.0, 1.0, 1.0, 1.0, 1.0, 1.0, 1.0, 1.0]
9 [1.0, 1.0, 1.0, 1.0, 1.0, 1.0, 1.0, 1.0]
10 [1.6799539, 1.0920217, 1.000228, 1.0, 1.0, 1.0, 1.0, 1.0]
11 [1.6137686, 1.0830646, 1.0002059, 1.0, 1.0, 1.0, 1.0, 1.0]
12 [1.4694846, 1.0635378, 1.0001575, 1.0, 1.0, 1.0, 1.0, 1.0]
13 [1.3551943, 1.0480703, 1.0001192, 1.0, 1.0, 1.0, 1.0, 1.0]
14 [1.2682041, 1.0362974, 1.00009, 1.0, 1.0, 1.0, 1.0, 1.0]
15 [1.2027056, 1.0274333, 1.000068, 1.0, 1.0, 1.0, 1.0, 1.0]
16 [1.1530485, 1.0207129, 1.0000514, 1.0, 1.0, 1.0, 1.0, 1.0]
17 [0.3533411, 0.9124842, 0.9997831, 1.0, 1.0, 1.0, 1.0, 1.0]
18 [0.3666798, 0.9142894, 0.99978757, 1.0, 1.0, 1.0, 1.0, 1.0]
19 [0.51303494, 0.93409646, 0.9998366, 1.0, 1.0, 1.0, 1.0, 1.0]
20 [0.6314304, 0.9501195, 0.9998764, 1.0, 1.0, 1.0, 1.0, 1.0]
21 [0.72140884, 0.9622968, 0.99990654, 1.0, 1.0, 1.0, 1.0, 1.0]
22 [0.78965384, 0.97153276, 0.9999294, 1.0, 1.0, 1.0, 1.0, 1.0]
23 [0.8410237, 0.97848487, 0.99994665, 1.0, 1.0, 1.0, 1.0, 1.0]
24 [0.8798483, 0.98373926, 0.9999597, 1.0, 1.0, 1.0, 1.0, 1.0]
25 [0.909282, 0.98772264, 0.99996954, 1.0, 1.0, 1.0, 1.0, 1.0]
26 [0.93143684, 0.990721, 0.999977, 1.0, 1.0, 1.0, 1.0, 1.0]
27 [0.9481811, 0.9929871, 0.9999826, 1.0, 1.0, 1.0, 1.0, 1.0]
28 [0.9608753, 0.994705, 0.9999869, 1.0, 1.0, 1.0, 1.0, 1.0]
29 [0.97043014, 0.99599814, 0.9999901, 1.0, 1.0, 1.0, 1.0, 1.0]
30 [0.9776516, 0.9969755, 0.9999925, 1.0, 1.0, 1.0, 1.0, 1.0]
31 [1.0, 1.0, 1.0, 1.0, 1.0, 1.0, 1.0, 1.0]
32 [1.0, 1.0, 1.0, 1.0, 1.0, 1.0, 1.0, 1.0]
33 [1.0, 1.0, 1.0, 1.0, 1.0, 1.0, 1.0, 1.0]
34 [1.0, 1.0, 1.0, 1.0, 1.0, 1.0, 1.0, 1.0]
35 [1.0, 1.0, 1.0, 1.0, 1.0, 1.0, 1.0, 1.0]
36 [1.0, 1.0, 1.0, 1.0, 1.0, 1.0, 1.0, 1.0]
37 [1.0, 1.0, 1.0, 1.0, 1.0, 1.0, 1.0, 1.0]
38 [1.0, 1.0, 1.0, 1.0, 1.0, 1.0, 1.0, 1.0]
39 [1.0, 1.0, 1.0, 1.0, 1.0, 1.0, 1.0, 1.0]
40 [1.6962347, 1.0942252, 1.0002335, 1.0, 1.0, 1.0, 1.0, 1.0]
41 [1.5873861, 1.0794941, 1.000197, 1.0, 1.0, 1.0, 1.0, 1.0]
42 [1.4472129, 1.0605237, 1.00015, 1.0, 1.0, 1.0, 1.0, 1.0]
43 [1.3382202, 1.0457731, 1.0001135, 1.0, 1.0, 1.0, 1.0, 1.0]
44 [1.255635, 1.0345964, 1.0000857, 1.0, 1.0, 1.0, 1.0, 1.0]
45 [1.1930125, 1.0261214, 1.0000647, 1.0, 1.0, 1.0, 1.0, 1.0]
46 [1.1458757, 1.0197421, 1.000049, 1.0, 1.0, 1.0, 1.0, 1.0]
47 [0.31362087, 0.90710866, 0.99976975, 1.0, 1.0, 1.0, 1.0, 1.0]
48 [0.39266866, 0.9178066, 0.9997963, 1.0, 1.0, 1.0, 1.0, 1.0]
49 [0.53560245, 0.9371506, 0.9998442, 1.0, 1.0, 1.0, 1.0, 1.0]
