0 [0.0, 0.0, 0.0, 0.0, 0.0, 0.0, 0.0, 0.0]
1 [0.0, 0.0, 0.0, 0.0, 0.0, 0.0, 0.0, 0.0]
2 [0.0, 0.0, 0.0, 0.0, 0.0, 0.0, 0.0, 0.0]
3 [0.20337363, 0.09737363, 0.021373626, 0.030626372, 0.06562636, 0.115626365, 0.115626365, 0.099373624]
4 [1.034174, 0.92917395, 0.853174, 0.029159341, 0.06315933, 0.109159335, 0.44749266, 0.430174]
5 [0.20084067, 0.095840655, 0.01984066, 0.029159341, 0.06315933, 0.109159335, 0.11415933, 0.09684066]
6 [1.0729285, 0.9669286, 0.01792857, 0.029071432, 0.060071427, 0.102071434, 0.36407143, 0.3429286]
7 [0.19792858, 0.46692857, 0.8929286, 0.029071432, 0.060071427, 0.102071434, 0.11407142, 0.4679286]
8 [0.1895055, 0.5785055, 0.5105055, 0.029494517, 0.054494515, 0.08749451, 0.11149451, 0.5514945]
9 [1.131033, 0.674033, 1.0110329, 0.031967025, 0.052967027, 0.07896703, 1.0579671, 0.59096706]
10 [1.0321374, 1.0281373, 0.9131374, 0.8921484, 0.053005494, 0.0770055, 0.53557694, 0.53157693]
11 [0.29398268, 0.18672971, 0.056007277, 0.035005488, 0.053005494, 0.0770055, 0.10700549, 0.10300549]
12 [1.1750907, 1.1453395, 0.6092909, 0.035390105, 0.05339011, 0.075390115, 0.996279, 0.996279]
13 [0.25364757, 1.0301533, 0.8537443, 0.6353901, 0.6533901, 0.8753901, 0.9073901, 0.9823901]
14 [0.237092, 0.1791682, 0.056957338, 0.033049446, 0.05204945, 0.07504945, 0.10604945, 0.10404945]
15 [0.7019161, 0.56423545, 0.4355117, 0.03052747, 0.92452747, 0.9495275, 0.48052746, 0.9735275]
16 [0.2263396, 0.17562395, 0.06047797, 0.03052747, 0.049527474, 0.07452747, 0.10552747, 0.098527476]
17 [0.21464992, 0.17412172, 0.060476635, 0.03052747, 0.049527474, 0.07452747, 0.10552747, 0.098527476]
18 [0.21343435, 0.0746186, 0.06710784, 0.025895603, 0.04689561, 0.0738956, 0.1038956, 0.086895615]
19 [0.38506028, 0.1631241, 0.11274476, 0.92323077, 0.9452307, 0.17323077, 0.20223077, 0.18023077]
20 [0.06958454, 0.8720211, 0.38768685, 0.023230767, 0.04523077, 0.073230766, 0.102230765, 0.45523077]
21 [0.5618634, 0.4345191, 0.39511126, 0.91882414, 0.9428241, 0.07482417, 0.10082417, 0.9138242]
22 [0.16754416, 0.16469434, 0.9563652, 0.015087908, 0.043087903, 0.08108792, 0.17151651, 0.9686593]
23 [0.1398899, 0.94007933, 0.02790949, 0.015087908, 0.043087903, 0.08108792, 0.100087926, 0.91508794]
24 [0.21992873, 0.9934047, 0.947446, 0.017153837, 0.049153853, 0.09415384, 1.0208205, 0.26551282]
25 [0.094065264, 0.10356886, 0.03084452, 0.017153837, 0.049153853, 0.09415384, 0.10415385, 0.098846145]
26 [0.102130085, 0.84215647, 0.030075721, 0.021923088, 0.05792308, 0.10892308, 0.10592308, 0.8500769]
27 [0.15946908, 0.992048, 0.9783493, 0.03262088, 0.077620886, 0.16562088, 0.11162087, 0.14937912]
28 [0.11678274, 0.9207554, 0.02837848, 0.03262088, 0.077620886, 0.115620874, 0.061620876, 0.9743791]
29 [0.7957688, 0.954517, 0.930242, 0.048741765, 0.11274175, 1.0177418, 0.18425825, 0.84525824]
30 [0.80642253, 0.060933877, 0.030257836, 0.048741765, 0.11274175, 0.11774177, 0.08425824, 0.84525824]
31 [1.0237665, 0.06117727, 0.024422834, 0.07757692, 0.1965, 0.1505, 1.0499616, 0.11534616]
32 [1.0371612, 0.05802726, 0.036796417, 0.11479671, 0.18246338, 0.14086998, 0.14986998, 1.00587]
33 [0.9692033, 0.0582033, 0.036796693, 0.11479671, 0.115796715, 0.0742033, 0.0832033, 0.9142033]
34 [0.094593406, 0.052593406, 0.07040659, 0.15185103, 0.118851036, 0.12503785, 0.060851045, 1.0173712]
35 [0.08593407, 0.034065925, 0.09206594, 0.06806594, 0.07593407, 0.074934065, 0.88706595, 0.09693407]
36 [0.07346154, 0.068538465, 0.08776069, 0.09668376, 0.09868376, 1.0023162, 0.08868376, 0.103683755]
37 [0.07346154, 0.068538465, 0.065538466, 0.07446154, 0.07646154, 0.02453846, 0.94146156, 0.081461534]
38 [0.05593956, 0.07028266, 0.06428266, 0.10116178, 0.052282654, 1.0028383, 0.09016178, 0.07316179]
39 [0.035241757, 0.03624176, 0.072758235, 0.072758235, 1.0155145, 0.044758238, 0.047758233, 0.18575823]
40 [0.035241757, 0.03624176, 0.072758235, 0.072758235, 0.038241755, 0.79475826, 0.7977582, 0.18575823]
41 [0.053100735, 0.055232614, 0.08310073, 1.0358993, 0.07623259, 0.084232606, 0.087232605, 0.17743407]
42 [0.061800733, 0.042199828, 0.066449575, 0.052565932, 0.059565924, 0.8175659, 0.82056594, 0.17743407]
43 [0.0646729, 0.06880885, 0.056752935, 0.06825823, 0.07925825, 0.96925825, 1.0267417, 0.16174176]
44 [0.108195186, 0.11093286, 1.0254383, 1.0432363, 0.14015934, 0.14815935, 0.1493022, 1.1128407]
45 [0.042979028, 0.06819401, 0.06370736, 0.081697814, 0.101697795, 0.8596978, 0.8993022, 0.15130219]
46 [0.09082987, 0.086434625, 1.0484675, 0.12290416, 0.15190415, 0.12987362, 1.1120958, 0.1646514]
47 [1.3051245, 1.0624471, 1.0560099, 0.15458608, 0.16658609, 0.12974726, 0.16508059, 0.09508059]
48 [0.086788386, 0.061826628, 0.089258514, 0.12125274, 0.88325274, 0.8797473, 0.13174726, 0.061747257]
49 [0.10935978, 1.0529473, 0.12823522, 0.16722894, 0.1218956, 0.16143773, 0.15743773, 0.0611044]
