0 [0.0, 0.0, 0.0, 0.0, 0.0, 0.0, 0.0, 0.0]
1 [0.0, 0.0, 0.0, 0.0, 0.0, 0.0, 0.0, 0.0]
2 [0.0, 0.0, 0.0, 0.0, 0.0, 0.0, 0.0, 0.0]
3 [0.1772088, 0.060208786, 0.036791217, 0.03479122, 0.09020879, 0.032791197, 0.0317912, 0.10220879]
4 [0.1772088, 0.060208786, 0.036791217, 0.03479122, 0.09020879, 0.032791197, 0.0317912, 0.10220879]
5 [0.17771429, 0.051714286, 0.04628572, 0.04228572, 0.087714285, 0.034285706, 0.030285709, 0.105714284]
6 [0.17492858, 0.07506043, 0.07006043, 0.06306044, 1.0749396, 0.08592857, 0.02807143, 0.11691759]
7 [0.17492858, 0.06407142, 0.05907142, 0.05207143, 0.08592857, 0.08592857, 0.02807143, 0.10592858]
8 [0.16537912, 0.077620886, 0.07162089, 0.06362087, 0.081379116, 0.084379114, 0.028620884, 0.015620872]
9 [0.21565446, 0.20165446, 0.13845666, 0.12545665, 1.0003455, 1.0285434, 0.028901104, 0.014901094]
10 [0.16009891, 0.14609891, 0.0829011, 0.06990109, 0.055901103, 0.084098905, 0.028901104, 0.014901094]
11 [0.15396702, 0.14947252, 1.096033, 0.09302198, 0.07302198, 0.08896703, 0.08447253, 0.012527477]
12 [0.14847252, 0.14947252, 0.10152746, 0.087527476, 0.06752747, 0.08347253, 0.08447253, 0.012527477]
13 [0.09658242, 1.1335933, 0.1204066, 0.10240659, 0.08640658, 0.08558241, 0.08608792, 0.012087904]
14 [0.091087915, 0.13908792, 0.11491209, 0.096912086, 0.080912076, 0.08008791, 0.08608792, 0.012087904]
15 [0.09094505, 0.13494506, 0.119945064, 0.11605495, 0.08705495, 0.060054936, 0.08694506, 0.013945066]
16 [0.09134065, 0.17679521, 0.12134066, 0.16611388, 0.14011389, 1.0192047, 1.0428861, 0.014340668]
17 [0.09134065, 0.13134067, 0.12134066, 0.120659344, 0.09465935, 0.06465935, 0.088340655, 0.014340668]
18 [0.09028572, 0.1262857, 0.12328571, 0.12571429, 0.10471429, 0.070714295, 0.08928572, 0.08928572]
19 [0.088785715, 0.16678572, 1.0707858, 0.18021429, 0.15921429, 0.12821428, 1.0367857, 0.091785714]
20 [0.088324174, 0.15732417, 1.0673242, 0.18267582, 0.15967582, 0.13567582, 1.0353242, 1.0453242]
21 [0.08641758, 0.11291758, 0.17491758, 0.19108243, 0.20008242, 0.15708241, 0.9930824, 1.0339175]
22 [0.08641758, 0.05041758, 0.11241758, 0.12858243, 0.13758242, 0.094582416, 0.055582426, 0.09641758]
23 [0.084219776, 0.050219774, 1.0312967, 0.11278023, 0.21570331, 0.1797033, 0.98385715, 1.0222967]
24 [0.084219776, 0.050219774, 0.10821978, 0.11278023, 0.13878022, 0.10278021, 0.060780227, 0.09921978]
25 [0.08463736, 0.054637365, 0.12741515, 0.105637364, 0.16414042, 0.1331404, 0.09714042, 1.0728595]
26 [0.08463736, 0.054637365, 0.09963737, 0.105637364, 0.13636264, 0.105362624, 0.06936264, 0.10063737]
27 [0.95963734, 0.054637365, 0.09963737, 0.105637364, 0.13636264, 0.105362624, 0.06936264, 0.10063737]
28 [0.12518682, 0.051186807, 0.021186814, 0.09818681, 0.118813194, 0.13681318, 0.087813176, 0.038813177]
29 [1.0947723, 0.0449945, 0.0189945, 1.0667722, 0.093005486, 0.15722771, 0.11922771, 0.07422773]
30 [0.1169945, 0.0449945, 0.0189945, 0.0889945, 0.093005486, 0.13500549, 0.09700549, 0.052005503]
31 [1.0632873, 0.040741764, 0.017741762, 0.1181963, 0.1331963, 0.1777128, 0.13771278, 0.10871279]
32 [0.10874176, 0.040741764, 0.017741762, 0.072741754, 0.087741755, 0.13225825, 0.09225824, 0.063258246]
33 [0.09764286, 0.090642855, 0.013642859, 0.033357132, 0.08264285, 0.11335715, 0.12735714, 0.07635714]
34 [1.0009811, 0.996981, 0.012890109, 0.030109886, 0.99098104, 0.09910989, 0.30492806, 0.26392806]
35 [0.091890104, 0.08789011, 0.012890109, 0.030109886, 0.08189011, 0.09910989, 0.12310989, 0.08210988]
36 [0.9593242, 1.0287685, 0.010324174, 0.027675826, 0.12787972, 0.14123137, 1.0631202, 0.12923138]
37 [0.08432417, 0.08432417, 0.010324174, 0.027675826, 0.07232417, 0.08567582, 0.118675835, 0.073675826]
38 [0.9166483, 1.0171484, 0.009648349, 0.023351654, 0.16835167, 0.20564836, 0.23335165, 0.9303517]
39 [0.041648354, 0.07964835, 0.009648349, 0.023351654, 0.04335166, 0.080648355, 0.10835165, 0.8053517]
40 [0.91571975, 1.0131642, 0.06471978, 0.02428021, 0.040280215, 1.0211642, 0.09028022, 0.21239135]
41 [1.0074499, 0.116116606, 1.00145, 0.021994501, 0.031994518, 0.1701166, 0.18811661, 0.19010562]
42 [0.06300549, 0.005005496, 0.057005495, 0.021994501, 0.031994518, 0.05900549, 0.0770055, 0.0789945]
43 [0.06611538, 0.008115387, 0.060115386, 0.018884612, 0.028884625, 0.062115382, 0.08011539, 1.8093901]
44 [0.06611538, 0.008115387, 0.060115386, 0.018884612, 0.028884625, 0.062115382, 0.08011539, 0.8148846]
45 [0.06842308, 0.018576922, 0.04342308, 0.04242308, 0.032576922, 0.038576916, 0.074423075, 0.074423075]
46 [0.072615385, 1.0026069, 0.08694017, 1.0078377, 0.033384617, 0.034384616, 0.09094017, 1.0478376]
47 [0.8226154, 0.7803846, 0.031384617, 0.03561539, 0.033384617, 0.034384616, 0.035384614, 0.07561538]
48 [0.072615385, 0.030384619, 0.031384617, 0.03561539, 0.033384617, 0.034384616, 0.035384614, 0.07561538]
49 [0.083032966, 0.050032966, 0.70763373, 0.7046337, 0.037032966, 0.02796703, 0.022967035, 0.73969966]
