0 [0.0, 0.0, 0.0, 0.0, 0.0, 0.0, 0.0, 0.0]
1 [0.0, 0.0, 0.0, 0.0, 0.0, 0.0, 0.0, 0.0]
2 [0.0, 0.0, 0.0, 0.0, 0.0, 0.0, 0.0, 0.0]
3 [0.1772088, 0.060208786, 0.036791217, 0.03479122, 0.09020879, 0.032791197, 0.0317912, 0.10220879]
4 [0.1772088, 0.060208786, 0.036791217, 0.03479122, 0.09020879, 0.032791197, 0.0317912, 0.10220879]
5 [0.17771429, 0.051714286, 0.04628572, 0.04228572, 0.087714285, 0.034285706, 0.030285709, 0.105714284]
6 [0.17492858, 0.07506043, 0.07006043, 0.06306044, 1.0749396, 0.08592857, 0.02807143, 0.11691759]
7 [0.17492858, 0.06407142, 0.05907142, 0.05207143, 0.08592857, 0.08592857, 0.02807143, 0.10592858]
8 [0.16537912, 0.077620886, 0.07162089, 0.06362087, 0.081379116, 0.084379114, 0.028620884, 0.015620872]
9 [0.21565446, 0.20165446, 0.13845666, 0.12545665, 1.0003455, 1.0285434, 0.028901104, 0.014901094]
10 [0.16009891, 0.14609891, 0.0829011, 0.06990109, 0.055901103, 0.084098905, 0.028901104, 0.014901094]
11 [0.15396702, 0.14947252, 1.096033, 0.09302198, 0.07302198, 0.08896703, 0.08447253, 0.012527477]
12 [0.25187188, 0.16356035, 0.10155118, 0.087527476, 0.06752747, 0.08347253, 0.08447253, 0.012527477]
13 [0.15041752, 1.219107, 0.12042912, 0.10240659, 0.08640658, 0.08558241, 0.08608792, 0.012087904]
14 [0.12965448, 0.14705779, 0.11492841, 0.096912086, 0.080912076, 0.08008791, 0.08608792, 0.012087904]
15 [0.11779431, 0.14033672, 0.119984, 0.12661666, 0.14559495, 0.065520294, 0.08696467, 0.013945066]
16 [0.11172148, 0.18213397, 0.12137124, 0.17798813, 0.21412046, 1.0920601, 1.0430709, 0.014340668]
17 [0.10672877, 0.13433522, 0.121363804, 0.1271913, 0.13252415, 0.06815972, 0.08835252, 0.014340668]
18 [0.05439964, 0.11949253, 0.12328178, 0.1308591, 0.13637936, 0.07360826, 0.08929478, 0.08928572]
19 [0.028600989, 0.16176027, 1.5582355, 0.19689482, 0.19562699, 0.13218006, 1.0368652, 0.091785714]
20 [0.041101217, 0.16024438, 1.7844722, 0.20355633, 0.18726575, 0.13884436, 1.0353842, 1.0453242]
21 [0.05497394, 0.14949368, 0.27445465, 0.19768962, 0.14550698, 0.15128, 0.9929915, 1.0339175]
22 [0.070029795, 0.08315627, 0.16258164, 0.123722896, 0.049403843, 0.08637695, 0.055570472, 0.09641758]
23 [0.07225866, 0.07534936, 1.3804705, 0.10940367, 0.10901473, 0.16767211, 0.9836939, 1.0222967]
24 [0.07518642, 0.069241695, 0.13592097, 0.110218845, 0.08681566, 0.097570896, 0.06077259, 0.09921978]
25 [0.07777665, 0.07028039, 0.15206541, 0.10382358, 0.117683455, 0.12803963, 0.09713119, 1.0728595]
26 [0.07943625, 0.060951985, 0.04012837, 0.09364093, 0.10718803, 0.10231487, 0.06935766, 0.10063737]
27 [0.9151487, 0.061268024, 0.07969978, 0.10016327, 0.11432442, 0.10305918, 0.069358885, 0.10063737]
28 [0.10926275, 0.023396293, 0.023421343, 0.098956265, 0.104314566, 0.13455261, 0.08780958, 0.038813177]
29 [0.9550244, 0.016168226, 0.020309538, 1.0760636, 0.08443707, 0.15526624, 0.11922402, 0.07422773]
30 [0.10548466, 0.022582885, 0.01997649, 0.0895953, 0.08652966, 0.13373257, 0.09700322, 0.052005503]
31 [0.9586817, 0.020448424, 0.018658986, 0.118994236, 0.12392204, 0.1760372, 0.13770956, 0.10871279]
32 [0.10064951, 0.02538518, 0.018433616, 0.07311328, 0.08312905, 0.1313167, 0.09225661, 0.063258246]
33 [0.094930746, 0.07262396, 0.013925671, 0.033447705, 0.080333546, 0.11292822, 0.12735595, 0.07635714]
34 [0.97317797, 0.79879117, 0.0131573165, 0.030191641, 0.96328986, 0.09873487, 0.3049252, 0.26392806]
35 [0.08994261, 0.066823676, 0.004557986, 0.027473813, 0.08014422, 0.098826736, 0.12310902, 0.08210988]
36 [0.94389725, 0.8161778, 0.003335854, 0.025198841, 0.12785137, 0.14123137, 1.0631202, 0.12923138]
37 [0.0832975, 0.07042021, 0.004378256, 0.025562776, 0.07231049, 0.08567582, 0.118675835, 0.073675826]
38 [0.90822154, 0.8903902, 0.005443857, 0.022002555, 0.16832756, 0.20564836, 0.23335165, 0.9303517]
39 [0.041358985, 0.07214594, 0.006470119, 0.02233185, 0.04334697, 0.080648355, 0.10835165, 0.8053517]
40 [0.910916, 0.94110817, 0.048623018, 0.023479598, 0.040276922, 1.0211642, 0.09028022, 0.21239135]
41 [1.007393, 0.11347445, 0.8330732, 0.021494031, 0.031992715, 0.1701166, 0.18811661, 0.19010562]
42 [0.06281695, 0.004810312, 0.049593523, 0.021616092, 0.031993154, 0.05900549, 0.0770055, 0.0789945]
43 [0.06611538, 0.008115387, 0.060115386, 0.018884612, 0.028884625, 0.062115382, 0.08011539, 1.8093901]
44 [0.06611377, 0.008035746, 0.055756286, 0.018699288, 0.028883923, 0.062115382, 0.08011539, 0.8148846]
45 [0.06842182, 0.01843914, 0.04104334, 0.042108435, 0.032576323, 0.038576916, 0.074423075, 0.074423075]
46 [0.07261438, 0.99699235, 0.08334274, 1.0021938, 0.033384155, 0.034384616, 0.09094017, 1.0478376]
47 [0.82260674, 0.7770817, 0.030403126, 0.035464652, 0.033384267, 0.034384616, 0.035384614, 0.07561538]
48 [0.07261481, 0.030287426, 0.030642822, 0.035501465, 0.033384353, 0.034384616, 0.035384614, 0.07561538]
49 [0.083032966, 0.050032966, 0.70763373, 0.7046337, 0.037032966, 0.02796703, 0.022967035, 0.73969966]
