0 [10.0, 10.0, 10.0, 10.0, 10.0, 10.0, 10.0, 10.0, 10.0, 10.0, 10.0, 10.0, 10.0, 10.0, 10.0, 10.0, 10.0, 10.0, 10.0, 10.0, 10.0, 10.0, 10.0, 10.0, 10.0, 10.0, 10.0, 10.0, 10.0, 10.0, 10.0, 10.0, 10.0, 10.0, 10.0, 10.0, 10.0, 10.0, 10.0, 10.0, 10.0, 10.0, 10.0, 10.0, 10.0, 10.0, 10.0, 10.0, 10.0, 10.0, 10.0, 10.0, 10.0, 10.0, 10.0, 10.0, 10.0, 10.0, 10.0, 10.0, 10.0, 10.0, 10.0, 10.0, 10.0, 10.0, 10.0, 10.0, 10.0, 10.0, 10.0, 10.0, 10.0, 10.0, 10.0, 10.0, 10.0, 10.0, 10.0, 10.0, 10.0, 10.0, 10.0, 10.0, 10.0, 10.0, 10.0, 10.0, 10.0, 10.0, 10.0, 10.0, 10.0, 10.0, 10.0, 10.0, 10.0, 10.0, 10.0, 10.0, 10.0, 10.0, 10.0, 10.0, 10.0, 10.0, 10.0, 10.0, 10.0, 10.0, 10.0, 10.0, 10.0, 10.0, 10.0, 10.0, 10.0, 10.0, 10.0, 10.0, 10.0, 10.0, 10.0, 10.0, 10.0, 10.0, 10.0, 10.0, 10.0, 10.0, 10.0, 10.0, 10.0, 10.0, 10.0, 10.0, 10.0, 10.0, 10.0, 10.0, 10.0, 10.0, 10.0, 10.0, 10.0, 10.0, 10.0, 10.0, 10.0, 10.0, 10.0, 10.0, 10.0, 10.0, 10.0, 10.0, 10.0, 10.0, 10.0, 10.0, 10.0, 10.0, 10.0, 10.0, 10.0, 10.0, 10.0, 10.0, 10.0, 10.0, 10.0, 10.0, 10.0, 10.0, 10.0, 10.0, 10.0, 10.0, 10.0, 10.0, 10.0, 10.0]
1 [10.0, 10.0, 10.0, 10.0, 10.0, 10.0, 10.0, 10.0, 10.0, 10.0, 10.0, 10.0, 10.0, 10.0, 10.0, 10.0, 10.0, 10.0, 10.0, 10.0, 10.0, 10.0, 10.0, 10.0, 10.0, 10.0, 10.0, 10.0, 10.0, 10.0, 10.0, 10.0, 10.0, 10.0, 10.0, 10.0, 10.0, 10.0, 10.0, 10.0, 10.0, 10.0, 10.0, 10.0, 10.0, 10.0, 10.0, 10.0, 10.0, 10.0, 10.0, 10.0, 10.0, 10.0, 10.0, 10.0, 10.0, 10.0, 10.0, 10.0, 10.0, 10.0, 10.0, 10.0, 10.0, 10.0, 10.0, 10.0, 10.0, 10.0, 10.0, 10.0, 10.0, 10.0, 10.0, 10.0, 10.0, 10.0, 10.0, 10.0, 10.0, 10.0, 10.0, 10.0, 10.0, 10.0, 10.0, 10.0, 10.0, 10.0, 10.0, 10.0, 10.0, 10.0, 10.0, 10.0, 10.0, 10.0, 10.0, 10.0, 10.0, 10.0, 10.0, 10.0, 10.0, 10.0, 10.0, 10.0, 10.0, 10.0, 10.0, 10.0, 10.0, 10.0, 10.0, 10.0, 10.0, 10.0, 10.0, 10.0, 10.0, 10.0, 10.0, 10.0, 10.0, 10.0, 10.0, 10.0, 10.0, 10.0, 10.0, 10.0, 10.0, 10.0, 10.0, 10.0, 10.0, 10.0, 10.0, 10.0, 10.0, 10.0, 10.0, 10.0, 10.0, 10.0, 10.0, 10.0, 10.0, 10.0, 10.0, 10.0, 10.0, 10.0, 10.0, 10.0, 10.0, 10.0, 10.0, 10.0, 10.0, 10.0, 10.0, 10.0, 10.0, 10.0, 10.0, 10.0, 10.0, 10.0, 10.0, 10.0, 10.0, 10.0, 10.0, 10.0, 10.0, 10.0, 10.0, 10.0, 10.0, 10.0]
2 [10.0, 10.0, 10.0, 10.0, 10.0, 10.0, 10.0, 10.0, 10.0, 10.0, 10.0, 10.0, 10.0, 10.0, 10.0, 10.0, 10.0, 10.0, 10.0, 10.0, 10.0, 10.0, 10.0, 10.0, 10.0, 10.0, 10.0, 10.0, 10.0, 10.0, 10.0, 10.0, 10.0, 10.0, 10.0, 10.0, 10.0, 10.0, 10.0, 10.0, 10.0, 10.0, 10.0, 10.0, 10.0, 10.0, 10.0, 10.0, 10.0, 10.0, 10.0, 10.0, 10.0, 10.0, 10.0, 10.0, 10.0, 10.0, 10.0, 10.0, 10.0, 10.0, 10.0, 10.0, 10.0, 10.0, 10.0, 10.0, 10.0, 10.0, 10.0, 10.0, 10.0, 10.0, 10.0, 10.0, 10.0, 10.0, 10.0, 10.0, 10.0, 10.0, 10.0, 10.0, 10.0, 10.0, 10.0, 10.0, 10.0, 10.0, 10.0, 10.0, 10.0, 10.0, 10.0, 10.0, 10.0, 10.0, 10.0, 10.0, 10.0, 10.0, 10.0, 10.0, 10.0, 10.0, 10.0, 10.0, 10.0, 10.0, 10.0, 10.0, 10.0, 10.0, 10.0, 10.0, 10.0, 10.0, 10.0, 10.0, 10.0, 10.0, 10.0, 10.0, 10.0, 10.0, 10.0, 10.0, 10.0, 10.0, 10.0, 10.0, 10.0, 10.0, 10.0, 10.0, 10.0, 10.0, 10.0, 10.0, 10.0, 10.0, 10.0, 10.0, 10.0, 10.0, 10.0, 10.0, 10.0, 10.0, 10.0, 10.0, 10.0, 10.0, 10.0, 10.0, 10.0, 10.0, 10.0, 10.0, 10.0, 10.0, 10.0, 10.0, 10.0, 10.0, 10.0, 10.0, 10.0, 10.0, 10.0, 10.0, 10.0, 10.0, 10.0, 10.0, 10.0, 10.0, 10.0, 10.0, 10.0, 10.0]
3 [10.0, 10.0, 10.0, 10.0, 10.0, 10.0, 10.0, 10.0, 10.0, 10.0, 10.0, 10.0, 10.0, 10.0, 10.0, 10.0, 10.0, 10.0, 10.0, 10.0, 10.0, 10.0, 10.0, 10.0, 10.0, 10.0, 10.0, 10.0, 10.0, 10.0, 10.0, 10.0, 10.0, 10.0, 10.0, 10.0, 10.0, 10.0, 10.0, 10.0, 10.0, 10.0, 10.0, 10.0, 10.0, 10.0, 10.0, 10.0, 10.0, 10.0, 10.0, 10.0, 10.0, 10.0, 10.0, 10.0, 10.0, 10.0, 10.0, 10.0, 10.0, 10.0, 10.0, 10.0, 10.0, 10.0, 10.0, 10.0, 10.0, 10.0, 10.0, 10.0, 10.0, 10.0, 10.0, 10.0, 10.0, 10.0, 10.0, 10.0, 10.0, 10.0, 10.0, 10.0, 10.0, 10.0, 10.0, 10.0, 10.0, 10.0, 10.0, 10.0, 10.0, 10.0, 10.0, 10.0, 10.0, 10.0, 10.0, 10.0, 10.0, 10.0, 10.0, 10.0, 10.0, 10.0, 10.0, 10.0, 10.0, 10.0, 10.0, 10.0, 10.0, 10.0, 10.0, 10.0, 10.0, 10.0, 10.0, 10.0, 10.0, 10.0, 10.0, 10.0, 10.0, 10.0, 10.0, 10.0, 10.0, 10.0, 10.0, 10.0, 10.0, 10.0, 10.0, 10.0, 10.0, 10.0, 10.0, 10.0, 10.0, 10.0, 10.0, 10.0, 10.0, 10.0, 10.0, 10.0, 10.0, 10.0, 10.0, 10.0, 10.0, 10.0, 10.0, 10.0, 10.0, 10.0, 10.0, 10.0, 10.0, 10.0, 10.0, 10.0, 10.0, 10.0, 10.0, 10.0, 10.0, 10.0, 10.0, 10.0, 10.0, 10.0, 10.0, 10.0, 10.0, 10.0, 10.0, 10.0, 10.0, 10.0]
4 [10.0, 10.0, 10.0, 10.0, 10.0, 10.0, 10.0, 10.0, 10.0, 10.0, 10.0, 10.0, 10.0, 10.0, 10.0, 10.0, 10.0, 10.0, 10.0, 10.0, 10.0, 10.0, 10.0, 10.0, 10.0, 10.0, 10.0, 10.0, 10.0, 10.0, 10.0, 10.0, 10.0, 10.0, 10.0, 10.0, 10.0, 10.0, 10.0, 10.0, 10.0, 10.0, 10.0, 10.0, 10.0, 10.0, 10.0, 10.0, 10.0, 10.0, 10.0, 10.0, 10.0, 10.0, 10.0, 10.0, 10.0, 10.0, 10.0, 10.0, 10.0, 10.0, 10.0, 10.0, 10.0, 10.0, 10.0, 10.0, 10.0, 10.0, 10.0, 10.0, 10.0, 10.0, 10.0, 10.0, 10.0, 10.0, 10.0, 10.0, 10.0, 10.0, 10.0, 10.0, 10.0, 10.0, 10.0, 10.0, 10.0, 10.0, 10.0, 10.0, 10.0, 10.0, 10.0, 10.0, 10.0, 10.0, 10.0, 10.0, 10.0, 10.0, 10.0, 10.0, 10.0, 10.0, 10.0, 10.0, 10.0, 10.0, 10.0, 10.0, 10.0, 10.0, 10.0, 10.0, 10.0, 10.0, 10.0, 10.0, 10.0, 10.0, 10.0, 10.0, 10.0, 10.0, 10.0, 10.0, 10.0, 10.0, 10.0, 10.0, 10.0, 10.0, 10.0, 10.0, 10.0, 10.0, 10.0, 10.0, 10.0, 10.0, 10.0, 10.0, 10.0, 10.0, 10.0, 10.0, 10.0, 10.0, 10.0, 10.0, 10.0, 10.0, 10.0, 10.0, 10.0, 10.0, 10.0, 10.0, 10.0, 10.0, 10.0, 10.0, 10.0, 10.0, 10.0, 10.0, 10.0, 10.0, 10.0, 10.0, 10.0, 10.0, 10.0, 10.0, 10.0, 10.0, 10.0, 10.0, 10.0, 10.0]
5 [10.0, 10.0, 10.0, 10.0, 10.0, 10.0, 10.0, 10.0, 10.0, 10.0, 10.0, 10.0, 10.0, 10.0, 10.0, 10.0, 10.0, 10.0, 10.0, 10.0, 10.0, 10.0, 10.0, 10.0, 10.0, 10.0, 10.0, 10.0, 10.0, 10.0, 10.0, 10.0, 10.0, 10.0, 10.0, 10.0, 10.0, 10.0, 10.0, 10.0, 10.0, 10.0, 10.0, 10.0, 10.0, 10.0, 10.0, 10.0, 10.0, 10.0, 10.0, 10.0, 10.0, 10.0, 10.0, 10.0, 10.0, 10.0, 10.0, 10.0, 10.0, 10.0, 10.0, 10.0, 10.0, 10.0, 10.0, 10.0, 10.0, 10.0, 10.0, 10.0, 10.0, 10.0, 10.0, 10.0, 10.0, 10.0, 10.0, 10.0, 10.0, 10.0, 10.0, 10.0, 10.0, 10.0, 10.0, 10.0, 10.0, 10.0, 10.0, 10.0, 10.0, 10.0, 10.0, 10.0, 10.0, 10.0, 10.0, 10.0, 10.0, 10.0, 10.0, 10.0, 10.0, 10.0, 10.0, 10.0, 10.0, 10.0, 10.0, 10.0, 10.0, 10.0, 10.0, 10.0, 10.0, 10.0, 10.0, 10.0, 10.0, 10.0, 10.0, 10.0, 10.0, 10.0, 10.0, 10.0, 10.0, 10.0, 10.0, 10.0, 10.0, 10.0, 10.0, 10.0, 10.0, 10.0, 10.0, 10.0, 10.0, 10.0, 10.0, 10.0, 10.0, 10.0, 10.0, 10.0, 10.0, 10.0, 10.0, 10.0, 10.0, 10.0, 10.0, 10.0, 10.0, 10.0, 10.0, 10.0, 10.0, 10.0, 10.0, 10.0, 10.0, 10.0, 10.0, 10.0, 10.0, 10.0, 10.0, 10.0, 10.0, 10.0, 10.0, 10.0, 10.0, 10.0, 10.0, 10.0, 10.0, 10.0]
6 [10.0, 10.0, 10.0, 10.0, 10.0, 10.0, 10.0, 10.0, 10.0, 10.0, 10.0, 10.0, 10.0, 10.0, 10.0, 10.0, 10.0, 10.0, 10.0, 10.0, 10.0, 10.0, 10.0, 10.0, 10.0, 10.0, 10.0, 10.0, 10.0, 10.0, 10.0, 10.0, 10.0, 10.0, 10.0, 10.0, 10.0, 10.0, 10.0, 10.0, 10.0, 10.0, 10.0, 10.0, 10.0, 10.0, 10.0, 10.0, 10.0, 10.0, 10.0, 10.0, 10.0, 10.0, 10.0, 10.0, 10.0, 10.0, 10.0, 10.0, 10.0, 10.0, 10.0, 10.0, 10.0, 10.0, 10.0, 10.0, 10.0, 10.0, 10.0, 10.0, 10.0, 10.0, 10.0, 10.0, 10.0, 10.0, 10.0, 10.0, 10.0, 10.0, 10.0, 10.0, 10.0, 10.0, 10.0, 10.0, 10.0, 10.0, 10.0, 10.0, 10.0, 10.0, 10.0, 10.0, 10.0, 10.0, 10.0, 10.0, 10.0, 10.0, 10.0, 10.0, 10.0, 10.0, 10.0, 10.0, 10.0, 10.0, 10.0, 10.0, 10.0, 10.0, 10.0, 10.0, 10.0, 10.0, 10.0, 10.0, 10.0, 10.0, 10.0, 10.0, 10.0, 10.0, 10.0, 10.0, 10.0, 10.0, 10.0, 10.0, 10.0, 10.0, 10.0, 10.0, 10.0, 10.0, 10.0, 10.0, 10.0, 10.0, 10.0, 10.0, 10.0, 10.0, 10.0, 10.0, 10.0, 10.0, 10.0, 10.0, 10.0, 10.0, 10.0, 10.0, 10.0, 10.0, 10.0, 10.0, 10.0, 10.0, 10.0, 10.0, 10.0, 10.0, 10.0, 10.0, 10.0, 10.0, 10.0, 10.0, 10.0, 10.0, 10.0, 10.0, 10.0, 10.0, 10.0, 10.0, 10.0, 10.0]
7 [10.0, 10.0, 10.0, 10.0, 10.0, 10.0, 10.0, 10.0, 10.0, 10.0, 10.0, 10.0, 10.0, 10.0, 10.0, 10.0, 10.0, 10.0, 10.0, 10.0, 10.0, 10.0, 10.0, 10.0, 10.0, 10.0, 10.0, 10.0, 10.0, 10.0, 10.0, 10.0, 10.0, 10.0, 10.0, 10.0, 10.0, 10.0, 10.0, 10.0, 10.0, 10.0, 10.0, 10.0, 10.0, 10.0, 10.0, 10.0, 10.0, 10.0, 10.0, 10.0, 10.0, 10.0, 10.0, 10.0, 10.0, 10.0, 10.0, 10.0, 10.0, 10.0, 10.0, 10.0, 10.0, 10.0, 10.0, 10.0, 10.0, 10.0, 10.0, 10.0, 10.0, 10.0, 10.0, 10.0, 10.0, 10.0, 10.0, 10.0, 10.0, 10.0, 10.0, 10.0, 10.0, 10.0, 10.0, 10.0, 10.0, 10.0, 10.0, 10.0, 10.0, 10.0, 10.0, 10.0, 10.0, 10.0, 10.0, 10.0, 10.0, 10.0, 10.0, 10.0, 10.0, 10.0, 10.0, 10.0, 10.0, 10.0, 10.0, 10.0, 10.0, 10.0, 10.0, 10.0, 10.0, 10.0, 10.0, 10.0, 10.0, 10.0, 10.0, 10.0, 10.0, 10.0, 10.0, 10.0, 10.0, 10.0, 10.0, 10.0, 10.0, 10.0, 10.0, 10.0, 10.0, 10.0, 10.0, 10.0, 10.0, 10.0, 10.0, 10.0, 10.0, 10.0, 10.0, 10.0, 10.0, 10.0, 10.0, 10.0, 10.0, 10.0, 10.0, 10.0, 10.0, 10.0, 10.0, 10.0, 10.0, 10.0, 10.0, 10.0, 10.0, 10.0, 10.0, 10.0, 10.0, 10.0, 10.0, 10.0, 10.0, 10.0, 10.0, 10.0, 10.0, 10.0, 10.0, 10.0, 10.0, 10.0]
8 [1.75, 1.78, 1.81, 1.85, 1.88, 1.91, 1.94, 1.98, 2.01, 2.05, 2.08, 2.12, 2.16, 2.19, 2.23, 2.23, 2.23, 2.23, 2.23, 2.23, 2.23, 2.23, 1.55, 1.55, 1.55, 1.55, 1.55, 1.55, 1.55, 1.55, 1.55, 1.55, 1.55, 1.57, 1.61, 1.64, 1.67, 1.71, 1.75, 2.22, 2.22, 2.22, 2.22, 2.22, 2.22, 2.22, 2.22, 2.22, 2.22, 2.22, 2.22, 2.22, 2.22, 2.22, 2.22, 2.22, 2.22, 2.22, 2.22, 2.21, 2.21, 2.21, 2.21, 2.21, 2.21, 2.21, 2.21, 2.21, 2.21, 2.21, 2.21, 2.21, 2.21, 2.21, 2.21, 2.21, 2.21, 2.21, 2.21, 2.21, 2.21, 1.11, 1.11, 1.11, 1.11, 1.11, 1.11, 1.11, 1.11, 1.11, 1.11, 1.11, 1.11, 1.11, 1.11, 1.11, 1.11, 1.11, 1.11, 1.11, 1.11, 2.2, 2.2, 2.2, 2.2, 2.2, 2.2, 2.2, 2.2, 2.2, 2.2, 2.2, 2.2, 2.2, 2.2, 2.2, 2.2, 2.2, 2.2, 2.19, 2.19, 2.19, 2.19, 2.19, 2.19, 2.19, 2.19, 2.19, 2.19, 2.19, 2.19, 2.19, 2.19, 2.19, 2.19, 2.19, 2.19, 2.19, 2.19, 2.19, 2.19, 2.19, 2.19, 2.19, 2.19, 2.18, 2.18, 2.18, 2.18, 2.18, 2.18, 2.18, 2.18, 2.18, 2.18, 2.18, 2.18, 2.18, 2.18, 2.18, 2.18, 2.18, 2.18, 2.18, 2.18, 2.18, 2.18, 2.17, 2.17, 2.17, 1.49, 1.46, 1.43, 1.41, 1.38, 1.36, 1.34, 1.31, 1.31, 1.31, 1.31, 1.31]
9 [1.72, 1.75, 1.78, 1.81, 1.84, 1.88, 1.91, 1.94, 1.97, 2.01, 2.04, 2.08, 2.11, 2.15, 2.19, 2.22, 2.26, 2.26, 2.26, 2.26, 2.26, 2.26, 2.26, 2.26, 1.57, 1.57, 1.57, 1.57, 1.57, 1.56, 1.56, 1.56, 1.56, 1.56, 1.56, 1.59, 1.62, 1.65, 1.69, 1.72, 1.76, 2.24, 2.24, 2.24, 2.24, 2.24, 2.24, 2.24, 2.23, 2.23, 2.23, 2.23, 2.23, 2.23, 2.23, 2.23, 2.23, 2.23, 2.23, 2.23, 2.23, 2.22, 2.22, 2.22, 2.22, 2.22, 2.22, 2.22, 2.22, 2.22, 2.22, 2.22, 2.22, 2.22, 2.22, 2.22, 2.21, 2.21, 2.21, 2.21, 2.21, 2.21, 2.21, 1.11, 1.11, 1.11, 1.11, 1.11, 1.11, 1.11, 1.11, 1.11, 1.11, 1.11, 1.11, 1.11, 1.11, 1.11, 1.11, 1.11, 1.11, 1.11, 1.1, 2.2, 2.2, 2.2, 2.19, 2.19, 2.19, 2.19, 2.19, 2.19, 2.19, 2.19, 2.19, 2.19, 2.19, 2.19, 2.19, 2.19, 2.19, 2.18, 2.18, 2.18, 2.18, 2.18, 2.18, 2.18, 2.18, 2.18, 2.18, 2.18, 2.18, 2.18, 2.18, 2.17, 2.17, 2.17, 2.17, 2.17, 2.17, 2.17, 2.17, 2.17, 2.17, 2.17, 2.17, 2.17, 2.16, 2.16, 2.16, 2.16, 2.16, 2.16, 2.16, 2.16, 2.16, 2.16, 2.16, 2.16, 2.15, 2.15, 2.15, 2.15, 2.15, 2.15, 2.15, 2.15, 2.15, 2.15, 2.14, 2.14, 1.47, 1.44, 1.41, 1.39, 1.36, 1.34, 1.31, 1.29, 1.29, 1.29]
10 [1.72, 1.75, 1.78, 1.81, 1.84, 1.88, 1.91, 1.94, 1.97, 2.01, 2.04, 2.08, 2.11, 2.15, 2.19, 2.22, 2.26, 2.26, 2.26, 2.26, 2.26, 2.26, 2.26, 2.26, 1.57, 1.57, 1.57, 1.57, 1.57, 1.56, 1.56, 1.56, 1.56, 1.56, 1.56, 1.59, 1.62, 1.65, 1.69, 1.72, 1.76, 2.24, 2.24, 2.24, 2.24, 2.24, 2.24, 2.24, 2.23, 2.23, 2.23, 2.23, 2.23, 2.23, 2.23, 2.23, 2.23, 2.23, 2.23, 2.23, 2.23, 2.22, 2.22, 2.22, 2.22, 2.22, 2.22, 2.22, 2.22, 2.22, 2.22, 2.22, 2.22, 2.22, 2.22, 2.22, 2.21, 2.21, 2.21, 2.21, 2.21, 2.21, 2.21, 1.11, 1.11, 1.11, 1.11, 1.11, 1.11, 1.11, 1.11, 1.11, 1.11, 1.11, 1.11, 1.11, 1.11, 1.11, 1.11, 1.11, 1.11, 1.11, 1.1, 2.2, 2.2, 2.2, 2.19, 2.19, 2.19, 2.19, 2.19, 2.19, 2.19, 2.19, 2.19, 2.19, 2.19, 2.19, 2.19, 2.19, 2.19, 2.18, 2.18, 2.18, 2.18, 2.18, 2.18, 2.18, 2.18, 2.18, 2.18, 2.18, 2.18, 2.18, 2.18, 2.17, 2.17, 2.17, 2.17, 2.17, 2.17, 2.17, 2.17, 2.17, 2.17, 2.17, 2.17, 2.17, 2.16, 2.16, 2.16, 2.16, 2.16, 2.16, 2.16, 2.16, 2.16, 2.16, 2.16, 2.16, 2.15, 2.15, 2.15, 2.15, 2.15, 2.15, 2.15, 2.15, 2.15, 2.15, 2.14, 2.14, 1.47, 1.44, 1.41, 1.39, 1.36, 1.34, 1.31, 1.29, 1.29, 1.29]
11 [1.65, 1.67, 1.7, 1.73, 1.76, 1.79, 1.81, 1.84, 1.87, 1.9, 1.94, 1.97, 2.0, 2.03, 2.06, 2.1, 2.13, 2.17, 2.2, 2.24, 2.28, 2.31, 2.35, 2.34, 2.34, 2.34, 2.34, 2.33, 2.33, 2.33, 1.62, 1.62, 1.62, 1.61, 1.61, 1.61, 1.61, 1.61, 1.61, 1.6, 1.6, 1.63, 1.67, 1.7, 1.73, 1.77, 2.29, 2.29, 2.29, 2.29, 2.28, 2.28, 2.28, 2.28, 2.28, 2.27, 2.27, 2.27, 2.27, 2.27, 2.26, 2.26, 2.26, 2.26, 2.26, 2.26, 2.25, 2.25, 2.25, 2.25, 2.25, 2.25, 2.24, 2.24, 2.24, 2.24, 2.24, 2.23, 2.23, 2.23, 2.23, 2.23, 2.23, 2.22, 2.22, 2.22, 2.22, 2.22, 2.22, 1.11, 1.11, 1.11, 1.11, 1.11, 1.11, 1.11, 1.11, 1.11, 1.11, 1.11, 1.1, 1.1, 1.1, 1.1, 1.1, 1.1, 1.1, 1.1, 1.1, 2.18, 2.18, 2.18, 2.18, 2.18, 2.17, 2.17, 2.17, 2.17, 2.17, 2.17, 2.16, 2.16, 2.16, 2.16, 2.16, 2.16, 2.15, 2.15, 2.15, 2.15, 2.15, 2.15, 2.14, 2.14, 2.14, 2.14, 2.14, 2.14, 2.13, 2.13, 2.13, 2.13, 2.13, 2.12, 2.12, 2.12, 2.12, 2.12, 2.12, 2.11, 2.11, 2.11, 2.11, 2.11, 2.1, 2.1, 2.1, 2.1, 2.09, 2.09, 2.09, 2.09, 2.09, 2.08, 2.08, 2.08, 2.08, 2.08, 2.07, 2.07, 2.07, 2.07, 2.06, 2.06, 2.06, 2.06, 2.05, 1.42, 1.4, 1.37, 1.34, 1.32]
12 [1.65, 1.67, 1.7, 1.73, 1.76, 1.79, 1.81, 1.84, 1.87, 1.9, 1.94, 1.97, 2.0, 2.03, 2.06, 2.1, 2.13, 2.17, 2.2, 2.24, 2.28, 2.31, 2.35, 2.34, 2.34, 2.34, 2.34, 2.33, 2.33, 2.33, 1.62, 1.62, 1.62, 1.61, 1.61, 1.61, 1.61, 1.61, 1.61, 1.6, 1.6, 1.63, 1.67, 1.7, 1.73, 1.77, 2.29, 2.29, 2.29, 2.29, 2.28, 2.28, 2.28, 2.28, 2.28, 2.27, 2.27, 2.27, 2.27, 2.27, 2.26, 2.26, 2.26, 2.26, 2.26, 2.26, 2.25, 2.25, 2.25, 2.25, 2.25, 2.25, 2.24, 2.24, 2.24, 2.24, 2.24, 2.23, 2.23, 2.23, 2.23, 2.23, 2.23, 2.22, 2.22, 2.22, 2.22, 2.22, 2.22, 1.11, 1.11, 1.11, 1.11, 1.11, 1.11, 1.11, 1.11, 1.11, 1.11, 1.11, 1.1, 1.1, 1.1, 1.1, 1.1, 1.1, 1.1, 1.1, 1.1, 2.18, 2.18, 2.18, 2.18, 2.18, 2.17, 2.17, 2.17, 2.17, 2.17, 2.17, 2.16, 2.16, 2.16, 2.16, 2.16, 2.16, 2.15, 2.15, 2.15, 2.15, 2.15, 2.15, 2.14, 2.14, 2.14, 2.14, 2.14, 2.14, 2.13, 2.13, 2.13, 2.13, 2.13, 2.12, 2.12, 2.12, 2.12, 2.12, 2.12, 2.11, 2.11, 2.11, 2.11, 2.11, 2.1, 2.1, 2.1, 2.1, 2.09, 2.09, 2.09, 2.09, 2.09, 2.08, 2.08, 2.08, 2.08, 2.08, 2.07, 2.07, 2.07, 2.07, 2.06, 2.06, 2.06, 2.06, 2.05, 1.42, 1.4, 1.37, 1.34, 1.32]
13 [1.56, 1.59, 1.61, 1.64, 1.66, 1.69, 1.71, 1.74, 1.76, 1.79, 1.82, 1.85, 1.87, 1.9, 1.93, 1.96, 1.99, 2.02, 2.05, 2.08, 2.11, 2.15, 2.18, 2.21, 2.25, 2.28, 2.32, 2.36, 2.39, 2.43, 2.45, 2.45, 2.44, 2.44, 2.44, 2.43, 2.43, 2.42, 1.68, 1.68, 1.68, 1.67, 1.67, 1.67, 1.67, 1.66, 1.66, 1.66, 1.66, 1.69, 1.72, 1.76, 1.79, 1.82, 2.35, 2.35, 2.35, 2.34, 2.34, 2.34, 2.33, 2.33, 2.33, 2.32, 2.32, 2.32, 2.31, 2.31, 2.31, 2.3, 2.3, 2.3, 2.29, 2.29, 2.29, 2.28, 2.28, 2.28, 2.27, 2.27, 2.27, 2.27, 2.26, 2.26, 2.26, 2.25, 2.25, 2.25, 2.24, 2.24, 2.24, 2.24, 2.23, 2.23, 2.23, 2.22, 2.22, 1.12, 1.12, 1.12, 1.11, 1.11, 1.11, 1.11, 1.11, 1.11, 1.11, 1.1, 1.1, 1.1, 1.1, 1.1, 1.1, 1.1, 1.09, 1.09, 1.09, 2.16, 2.16, 2.15, 2.15, 2.15, 2.15, 2.14, 2.14, 2.14, 2.13, 2.13, 2.13, 2.13, 2.12, 2.12, 2.12, 2.11, 2.11, 2.11, 2.1, 2.1, 2.1, 2.09, 2.09, 2.09, 2.09, 2.08, 2.08, 2.08, 2.07, 2.07, 2.07, 2.06, 2.06, 2.06, 2.05, 2.05, 2.05, 2.04, 2.04, 2.04, 2.03, 2.03, 2.03, 2.02, 2.02, 2.01, 2.01, 2.01, 2.0, 2.0, 2.0, 1.99, 1.99, 1.98, 1.98, 1.98, 1.97, 1.97, 1.96, 1.96, 1.96, 1.95, 1.95, 1.94]
14 [1.52, 1.55, 1.57, 1.59, 1.61, 1.64, 1.66, 1.69, 1.71, 1.74, 1.76, 1.79, 1.81, 1.84, 1.87, 1.89, 1.92, 1.95, 1.98, 2.01, 2.04, 2.07, 2.1, 2.13, 2.16, 2.19, 2.22, 2.26, 2.29, 2.33, 2.36, 2.4, 2.43, 2.47, 2.51, 2.51, 2.5, 2.49, 2.49, 2.48, 2.48, 2.47, 1.72, 1.71, 1.71, 1.71, 1.7, 1.7, 1.7, 1.69, 1.69, 1.69, 1.68, 1.7, 1.73, 1.77, 1.8, 1.83, 1.87, 2.38, 2.38, 2.37, 2.37, 2.37, 2.36, 2.36, 2.35, 2.35, 2.34, 2.34, 2.34, 2.33, 2.33, 2.32, 2.32, 2.32, 2.31, 2.31, 2.3, 2.3, 2.3, 2.29, 2.29, 2.28, 2.28, 2.28, 2.27, 2.27, 2.26, 2.26, 2.26, 2.25, 2.25, 2.25, 2.24, 2.24, 2.23, 2.23, 2.23, 2.22, 2.22, 1.12, 1.12, 1.12, 1.11, 1.11, 1.11, 1.11, 1.11, 1.11, 1.1, 1.1, 1.1, 1.1, 1.1, 1.09, 1.09, 1.09, 1.09, 1.09, 1.09, 2.14, 2.14, 2.14, 2.13, 2.13, 2.13, 2.12, 2.12, 2.12, 2.11, 2.11, 2.1, 2.1, 2.1, 2.09, 2.09, 2.09, 2.08, 2.08, 2.07, 2.07, 2.07, 2.06, 2.06, 2.05, 2.05, 2.05, 2.04, 2.04, 2.04, 2.03, 2.03, 2.02, 2.02, 2.01, 2.01, 2.01, 2.0, 2.0, 1.99, 1.99, 1.98, 1.98, 1.98, 1.97, 1.97, 1.96, 1.96, 1.95, 1.95, 1.94, 1.94, 1.93, 1.93, 1.92, 1.92, 1.91, 1.91, 1.9, 1.9, 1.89]
15 [1.49, 1.51, 1.53, 1.55, 1.57, 1.6, 1.62, 1.64, 1.66, 1.69, 1.71, 1.74, 1.76, 1.79, 1.81, 1.84, 1.86, 1.89, 1.91, 1.94, 1.97, 2.0, 2.02, 2.05, 2.08, 2.11, 2.14, 2.17, 2.2, 2.24, 2.27, 2.3, 2.34, 2.37, 2.4, 2.44, 2.48, 2.51, 2.55, 2.55, 2.54, 2.54, 2.53, 2.52, 2.52, 2.51, 1.75, 1.74, 1.74, 1.73, 1.73, 1.72, 1.72, 1.72, 1.71, 1.71, 1.7, 1.72, 1.75, 1.78, 1.81, 1.85, 1.88, 2.41, 2.4, 2.39, 2.39, 2.38, 2.38, 2.37, 2.37, 2.36, 2.36, 2.35, 2.35, 2.34, 2.34, 2.33, 2.33, 2.33, 2.32, 2.32, 2.31, 2.31, 2.3, 2.3, 2.29, 2.29, 2.28, 2.28, 2.27, 2.27, 2.27, 2.26, 2.26, 2.25, 2.25, 2.24, 2.24, 2.23, 2.23, 2.23, 2.22, 2.22, 2.21, 1.12, 1.11, 1.11, 1.11, 1.11, 1.1, 1.1, 1.1, 1.1, 1.1, 1.09, 1.09, 1.09, 1.09, 1.09, 1.08, 1.08, 1.08, 1.08, 1.07, 1.07, 2.12, 2.11, 2.11, 2.11, 2.1, 2.1, 2.09, 2.09, 2.08, 2.08, 2.08, 2.07, 2.07, 2.06, 2.06, 2.05, 2.05, 2.04, 2.04, 2.04, 2.03, 2.03, 2.02, 2.02, 2.01, 2.01, 2.0, 2.0, 1.99, 1.99, 1.98, 1.98, 1.97, 1.97, 1.96, 1.96, 1.95, 1.95, 1.94, 1.94, 1.93, 1.93, 1.92, 1.92, 1.91, 1.91, 1.9, 1.9, 1.89, 1.89, 1.88, 1.87, 1.87, 1.86, 1.86, 1.85]
16 [1.46, 1.48, 1.5, 1.52, 1.54, 1.56, 1.58, 1.6, 1.63, 1.65, 1.67, 1.69, 1.72, 1.74, 1.76, 1.79, 1.81, 1.84, 1.86, 1.89, 1.91, 1.94, 1.97, 1.99, 2.02, 2.05, 2.07, 2.1, 2.13, 2.16, 2.19, 2.22, 2.25, 2.29, 2.32, 2.35, 2.38, 2.42, 2.45, 2.49, 2.53, 2.56, 2.59, 2.58, 2.58, 2.57, 2.56, 2.55, 2.55, 2.54, 1.76, 1.76, 1.75, 1.75, 1.74, 1.74, 1.73, 1.73, 1.72, 1.72, 1.71, 1.74, 1.77, 1.8, 1.84, 1.87, 1.91, 2.42, 2.41, 2.41, 2.4, 2.39, 2.39, 2.38, 2.38, 2.37, 2.37, 2.36, 2.35, 2.35, 2.34, 2.34, 2.33, 2.33, 2.32, 2.32, 2.31, 2.31, 2.3, 2.3, 2.29, 2.28, 2.28, 2.27, 2.27, 2.26, 2.26, 2.25, 2.25, 2.24, 2.24, 2.23, 2.23, 2.22, 2.22, 2.21, 2.21, 2.2, 2.2, 1.11, 1.1, 1.1, 1.1, 1.1, 1.09, 1.09, 1.09, 1.09, 1.08, 1.08, 1.08, 1.08, 1.08, 1.07, 1.07, 1.07, 1.07, 1.06, 1.06, 1.06, 2.09, 2.09, 2.08, 2.08, 2.07, 2.07, 2.06, 2.06, 2.05, 2.05, 2.04, 2.04, 2.03, 2.03, 2.02, 2.02, 2.01, 2.01, 2.0, 2.0, 1.99, 1.99, 1.98, 1.98, 1.97, 1.97, 1.96, 1.95, 1.95, 1.94, 1.94, 1.93, 1.93, 1.92, 1.92, 1.91, 1.9, 1.9, 1.89, 1.89, 1.88, 1.88, 1.87, 1.86, 1.86, 1.85, 1.84, 1.84, 1.83, 1.83, 1.82, 1.81]
17 [1.43, 1.45, 1.47, 1.49, 1.51, 1.53, 1.55, 1.57, 1.59, 1.61, 1.64, 1.66, 1.68, 1.7, 1.72, 1.75, 1.77, 1.79, 1.82, 1.84, 1.86, 1.89, 1.91, 1.94, 1.97, 1.99, 2.02, 2.04, 2.07, 2.1, 2.13, 2.16, 2.19, 2.22, 2.25, 2.28, 2.31, 2.34, 2.37, 2.4, 2.44, 2.47, 2.51, 2.54, 2.58, 2.62, 2.61, 2.6, 2.6, 2.59, 2.58, 2.57, 2.56, 1.78, 1.77, 1.77, 1.76, 1.75, 1.75, 1.74, 1.74, 1.73, 1.73, 1.72, 1.74, 1.77, 1.8, 1.83, 1.86, 1.9, 2.43, 2.42, 2.42, 2.41, 2.4, 2.4, 2.39, 2.38, 2.38, 2.37, 2.36, 2.36, 2.35, 2.35, 2.34, 2.33, 2.33, 2.32, 2.32, 2.31, 2.3, 2.3, 2.29, 2.29, 2.28, 2.27, 2.27, 2.26, 2.26, 2.25, 2.25, 2.24, 2.23, 2.23, 2.22, 2.22, 2.21, 2.21, 2.2, 2.2, 2.19, 2.19, 2.18, 1.09, 1.09, 1.09, 1.09, 1.08, 1.08, 1.08, 1.08, 1.07, 1.07, 1.07, 1.06, 1.06, 1.06, 1.06, 1.05, 1.05, 1.05, 1.05, 1.04, 2.07, 2.06, 2.06, 2.05, 2.04, 2.04, 2.03, 2.03, 2.02, 2.02, 2.01, 2.01, 2.0, 1.99, 1.99, 1.98, 1.98, 1.97, 1.97, 1.96, 1.96, 1.95, 1.94, 1.94, 1.93, 1.93, 1.92, 1.91, 1.91, 1.9, 1.9, 1.89, 1.88, 1.88, 1.87, 1.87, 1.86, 1.85, 1.85, 1.84, 1.83, 1.83, 1.82, 1.81, 1.81, 1.8, 1.79, 1.79, 1.78]
18 [1.41, 1.43, 1.45, 1.47, 1.48, 1.5, 1.52, 1.54, 1.56, 1.58, 1.6, 1.63, 1.65, 1.67, 1.69, 1.71, 1.73, 1.76, 1.78, 1.8, 1.82, 1.85, 1.87, 1.89, 1.92, 1.94, 1.97, 1.99, 2.02, 2.05, 2.07, 2.1, 2.13, 2.16, 2.18, 2.21, 2.24, 2.27, 2.3, 2.33, 2.36, 2.4, 2.43, 2.46, 2.5, 2.53, 2.57, 2.6, 2.64, 2.63, 2.62, 2.61, 2.6, 2.59, 2.58, 2.58, 1.78, 1.78, 1.77, 1.77, 1.76, 1.75, 1.75, 1.74, 1.74, 1.73, 1.73, 1.74, 1.77, 1.8, 1.83, 1.86, 1.9, 2.43, 2.42, 2.42, 2.41, 2.4, 2.4, 2.39, 2.38, 2.37, 2.37, 2.36, 2.35, 2.35, 2.34, 2.33, 2.33, 2.32, 2.31, 2.31, 2.3, 2.29, 2.29, 2.28, 2.28, 2.27, 2.26, 2.26, 2.25, 2.24, 2.24, 2.23, 2.23, 2.22, 2.21, 2.21, 2.2, 2.2, 2.19, 2.18, 2.18, 2.17, 2.17, 2.16, 1.08, 1.08, 1.07, 1.07, 1.07, 1.07, 1.06, 1.06, 1.06, 1.05, 1.05, 1.05, 1.05, 1.04, 1.04, 1.04, 1.03, 1.03, 1.03, 1.03, 1.02, 2.03, 2.03, 2.02, 2.01, 2.01, 2.0, 2.0, 1.99, 1.98, 1.98, 1.97, 1.97, 1.96, 1.95, 1.95, 1.94, 1.94, 1.93, 1.92, 1.92, 1.91, 1.9, 1.9, 1.89, 1.89, 1.88, 1.87, 1.87, 1.86, 1.85, 1.85, 1.84, 1.83, 1.83, 1.82, 1.81, 1.81, 1.8, 1.79, 1.78, 1.78, 1.77, 1.76, 1.76, 1.75]
19 [1.41, 1.43, 1.45, 1.47, 1.48, 1.5, 1.52, 1.54, 1.56, 1.58, 1.6, 1.63, 1.65, 1.67, 1.69, 1.71, 1.73, 1.76, 1.78, 1.8, 1.82, 1.85, 1.87, 1.89, 1.92, 1.94, 1.97, 1.99, 2.02, 2.05, 2.07, 2.1, 2.13, 2.16, 2.18, 2.21, 2.24, 2.27, 2.3, 2.33, 2.36, 2.4, 2.43, 2.46, 2.5, 2.53, 2.57, 2.6, 2.64, 2.63, 2.62, 2.61, 2.6, 2.59, 2.58, 2.58, 1.78, 1.78, 1.77, 1.77, 1.76, 1.75, 1.75, 1.74, 1.74, 1.73, 1.73, 1.74, 1.77, 1.8, 1.83, 1.86, 1.9, 2.43, 2.42, 2.42, 2.41, 2.4, 2.4, 2.39, 2.38, 2.37, 2.37, 2.36, 2.35, 2.35, 2.34, 2.33, 2.33, 2.32, 2.31, 2.31, 2.3, 2.29, 2.29, 2.28, 2.28, 2.27, 2.26, 2.26, 2.25, 2.24, 2.24, 2.23, 2.23, 2.22, 2.21, 2.21, 2.2, 2.2, 2.19, 2.18, 2.18, 2.17, 2.17, 2.16, 1.08, 1.08, 1.07, 1.07, 1.07, 1.07, 1.06, 1.06, 1.06, 1.05, 1.05, 1.05, 1.05, 1.04, 1.04, 1.04, 1.03, 1.03, 1.03, 1.03, 1.02, 2.03, 2.03, 2.02, 2.01, 2.01, 2.0, 2.0, 1.99, 1.98, 1.98, 1.97, 1.97, 1.96, 1.95, 1.95, 1.94, 1.94, 1.93, 1.92, 1.92, 1.91, 1.9, 1.9, 1.89, 1.89, 1.88, 1.87, 1.87, 1.86, 1.85, 1.85, 1.84, 1.83, 1.83, 1.82, 1.81, 1.81, 1.8, 1.79, 1.78, 1.78, 1.77, 1.76, 1.76, 1.75]
20 [1.39, 1.41, 1.43, 1.44, 1.46, 1.48, 1.5, 1.52, 1.54, 1.56, 1.58, 1.6, 1.62, 1.64, 1.66, 1.68, 1.7, 1.72, 1.74, 1.77, 1.79, 1.81, 1.83, 1.86, 1.88, 1.9, 1.93, 1.95, 1.97, 2.0, 2.03, 2.05, 2.08, 2.1, 2.13, 2.16, 2.18, 2.21, 2.24, 2.27, 2.3, 2.33, 2.36, 2.39, 2.42, 2.46, 2.49, 2.52, 2.56, 2.59, 2.63, 2.65, 2.64, 2.63, 2.62, 2.61, 2.6, 2.59, 2.58, 1.78, 1.77, 1.77, 1.76, 1.76, 1.75, 1.74, 1.74, 1.73, 1.73, 1.72, 1.74, 1.77, 1.81, 1.84, 1.87, 1.91, 2.43, 2.42, 2.41, 2.4, 2.39, 2.39, 2.38, 2.37, 2.36, 2.36, 2.35, 2.34, 2.34, 2.33, 2.32, 2.31, 2.31, 2.3, 2.29, 2.29, 2.28, 2.27, 2.27, 2.26, 2.25, 2.25, 2.24, 2.23, 2.23, 2.22, 2.21, 2.21, 2.2, 2.19, 2.19, 2.18, 2.17, 2.17, 2.16, 2.16, 2.15, 2.14, 2.14, 1.06, 1.06, 1.06, 1.05, 1.05, 1.05, 1.04, 1.04, 1.04, 1.04, 1.03, 1.03, 1.03, 1.02, 1.02, 1.02, 1.01, 1.01, 1.01, 1.0, 1.0, 2.0, 1.99, 1.99, 1.98, 1.97, 1.97, 1.96, 1.95, 1.95, 1.94, 1.94, 1.93, 1.92, 1.92, 1.91, 1.9, 1.9, 1.89, 1.88, 1.88, 1.87, 1.86, 1.86, 1.85, 1.84, 1.84, 1.83, 1.82, 1.81, 1.81, 1.8, 1.79, 1.79, 1.78, 1.77, 1.76, 1.76, 1.75, 1.74, 1.73, 1.73, 1.72]
21 [1.37, 1.39, 1.41, 1.42, 1.44, 1.46, 1.48, 1.5, 1.52, 1.54, 1.55, 1.57, 1.59, 1.61, 1.63, 1.65, 1.67, 1.69, 1.71, 1.74, 1.76, 1.78, 1.8, 1.82, 1.84, 1.87, 1.89, 1.91, 1.94, 1.96, 1.99, 2.01, 2.03, 2.06, 2.09, 2.11, 2.14, 2.16, 2.19, 2.22, 2.25, 2.28, 2.31, 2.34, 2.37, 2.4, 2.43, 2.46, 2.49, 2.53, 2.56, 2.59, 2.63, 2.65, 2.64, 2.63, 2.62, 2.61, 2.6, 2.59, 2.58, 1.77, 1.77, 1.76, 1.75, 1.75, 1.74, 1.74, 1.73, 1.72, 1.72, 1.71, 1.73, 1.76, 1.79, 1.82, 1.85, 1.89, 2.42, 2.41, 2.4, 2.39, 2.38, 2.38, 2.37, 2.36, 2.35, 2.35, 2.34, 2.33, 2.32, 2.32, 2.31, 2.3, 2.29, 2.29, 2.28, 2.27, 2.26, 2.26, 2.25, 2.24, 2.24, 2.23, 2.22, 2.21, 2.21, 2.2, 2.19, 2.19, 2.18, 2.17, 2.17, 2.16, 2.15, 2.15, 2.14, 2.13, 2.13, 2.12, 2.11, 2.11, 1.04, 1.04, 1.03, 1.03, 1.03, 1.02, 1.02, 1.02, 1.02, 1.01, 1.01, 1.01, 1.0, 1.0, 1.0, 0.99, 0.99, 0.99, 0.98, 0.98, 0.98, 1.96, 1.96, 1.95, 1.94, 1.94, 1.93, 1.92, 1.92, 1.91, 1.9, 1.9, 1.89, 1.88, 1.87, 1.87, 1.86, 1.85, 1.85, 1.84, 1.83, 1.83, 1.82, 1.81, 1.8, 1.8, 1.79, 1.78, 1.78, 1.77, 1.76, 1.75, 1.75, 1.74, 1.73, 1.72, 1.72, 1.71, 1.7, 1.69]
22 [1.35, 1.37, 1.39, 1.41, 1.42, 1.44, 1.46, 1.48, 1.5, 1.52, 1.53, 1.55, 1.57, 1.59, 1.61, 1.63, 1.65, 1.67, 1.69, 1.71, 1.73, 1.75, 1.77, 1.8, 1.82, 1.84, 1.86, 1.88, 1.91, 1.93, 1.95, 1.98, 2.0, 2.03, 2.05, 2.08, 2.1, 2.13, 2.15, 2.18, 2.21, 2.24, 2.27, 2.29, 2.32, 2.35, 2.38, 2.41, 2.45, 2.48, 2.51, 2.55, 2.58, 2.61, 2.62, 2.61, 2.6, 2.58, 2.57, 2.56, 2.55, 2.54, 1.74, 1.73, 1.72, 1.72, 1.71, 1.7, 1.7, 1.69, 1.69, 1.68, 1.67, 1.7, 1.73, 1.76, 1.79, 1.82, 1.86, 2.38, 2.37, 2.36, 2.36, 2.35, 2.34, 2.33, 2.32, 2.32, 2.31, 2.3, 2.29, 2.28, 2.28, 2.27, 2.26, 2.26, 2.25, 2.24, 2.23, 2.23, 2.22, 2.21, 2.2, 2.2, 2.19, 2.18, 2.18, 2.17, 2.16, 2.16, 2.15, 2.14, 2.13, 2.13, 2.12, 2.11, 2.11, 2.1, 2.09, 2.09, 2.08, 2.07, 2.07, 2.06, 1.0, 1.0, 0.99, 0.99, 0.99, 0.98, 0.98, 0.98, 0.97, 0.97, 0.97, 0.97, 0.96, 0.96, 0.96, 0.95, 0.95, 0.95, 0.94, 0.94, 0.94, 0.93, 1.91, 1.9, 1.89, 1.89, 1.88, 1.87, 1.87, 1.86, 1.85, 1.85, 1.84, 1.83, 1.83, 1.82, 1.81, 1.81, 1.8, 1.79, 1.78, 1.78, 1.77, 1.76, 1.76, 1.75, 1.74, 1.73, 1.73, 1.72, 1.71, 1.7, 1.7, 1.69, 1.68, 1.67, 1.66, 1.66]
23 [1.35, 1.37, 1.38, 1.4, 1.42, 1.44, 1.46, 1.47, 1.49, 1.51, 1.53, 1.55, 1.57, 1.59, 1.61, 1.62, 1.64, 1.66, 1.68, 1.71, 1.73, 1.75, 1.77, 1.79, 1.81, 1.83, 1.86, 1.88, 1.9, 1.92, 1.95, 1.97, 2.0, 2.02, 2.04, 2.07, 2.1, 2.12, 2.15, 2.18, 2.2, 2.23, 2.26, 2.29, 2.32, 2.35, 2.38, 2.41, 2.44, 2.47, 2.5, 2.54, 2.57, 2.6, 2.59, 2.58, 2.57, 2.56, 2.55, 2.54, 2.53, 1.72, 1.72, 1.71, 1.7, 1.7, 1.69, 1.68, 1.68, 1.67, 1.66, 1.66, 1.66, 1.69, 1.72, 1.75, 1.78, 1.81, 2.37, 2.36, 2.35, 2.34, 2.33, 2.33, 2.32, 2.31, 2.3, 2.3, 2.29, 2.28, 2.27, 2.26, 2.26, 2.25, 2.24, 2.24, 2.23, 2.22, 2.21, 2.21, 2.2, 2.19, 2.19, 2.18, 2.17, 2.16, 2.16, 2.15, 2.14, 2.14, 2.13, 2.12, 2.12, 2.11, 2.1, 2.1, 2.09, 2.08, 2.08, 2.07, 2.06, 2.06, 2.05, 2.04, 2.04, 0.98, 0.98, 0.97, 0.97, 0.97, 0.96, 0.96, 0.96, 0.95, 0.95, 0.95, 0.95, 0.94, 0.94, 0.94, 0.93, 0.93, 0.93, 0.92, 0.92, 0.92, 0.91, 1.89, 1.88, 1.87, 1.87, 1.86, 1.85, 1.85, 1.84, 1.83, 1.82, 1.82, 1.81, 1.8, 1.8, 1.79, 1.78, 1.78, 1.77, 1.76, 1.76, 1.75, 1.74, 1.73, 1.73, 1.72, 1.71, 1.7, 1.7, 1.69, 1.68, 1.67, 1.67, 1.66, 1.65, 1.64]
24 [1.35, 1.36, 1.38, 1.4, 1.42, 1.43, 1.45, 1.47, 1.49, 1.51, 1.52, 1.54, 1.56, 1.58, 1.6, 1.62, 1.64, 1.66, 1.68, 1.7, 1.72, 1.74, 1.76, 1.78, 1.81, 1.83, 1.85, 1.87, 1.9, 1.92, 1.94, 1.97, 1.99, 2.01, 2.04, 2.06, 2.09, 2.12, 2.14, 2.17, 2.2, 2.23, 2.25, 2.28, 2.31, 2.34, 2.37, 2.4, 2.43, 2.47, 2.5, 2.53, 2.57, 2.58, 2.57, 2.56, 2.55, 2.54, 2.53, 2.52, 2.51, 1.7, 1.69, 1.69, 1.68, 1.67, 1.67, 1.66, 1.65, 1.65, 1.64, 1.64, 1.65, 1.68, 1.71, 1.74, 1.77, 1.8, 2.35, 2.34, 2.33, 2.32, 2.31, 2.31, 2.3, 2.29, 2.28, 2.28, 2.27, 2.26, 2.25, 2.25, 2.24, 2.23, 2.22, 2.22, 2.21, 2.2, 2.19, 2.19, 2.18, 2.17, 2.17, 2.16, 2.15, 2.15, 2.14, 2.13, 2.13, 2.12, 2.11, 2.11, 2.1, 2.09, 2.09, 2.08, 2.07, 2.07, 2.06, 2.05, 2.05, 2.04, 2.03, 2.03, 2.02, 0.96, 0.96, 0.96, 0.95, 0.95, 0.95, 0.94, 0.94, 0.94, 0.94, 0.93, 0.93, 0.93, 0.92, 0.92, 0.92, 0.91, 0.91, 0.91, 0.9, 0.9, 0.9, 0.9, 1.86, 1.86, 1.85, 1.84, 1.84, 1.83, 1.82, 1.82, 1.81, 1.8, 1.8, 1.79, 1.78, 1.78, 1.77, 1.76, 1.76, 1.75, 1.74, 1.73, 1.73, 1.72, 1.71, 1.71, 1.7, 1.69, 1.68, 1.68, 1.67, 1.66, 1.65, 1.65, 1.64, 1.63]
25 [1.34, 1.36, 1.38, 1.39, 1.41, 1.43, 1.45, 1.46, 1.48, 1.5, 1.52, 1.54, 1.56, 1.58, 1.6, 1.62, 1.64, 1.66, 1.68, 1.7, 1.72, 1.74, 1.76, 1.78, 1.8, 1.82, 1.85, 1.87, 1.89, 1.91, 1.94, 1.96, 1.99, 2.01, 2.04, 2.06, 2.09, 2.11, 2.14, 2.17, 2.19, 2.22, 2.25, 2.28, 2.31, 2.34, 2.37, 2.4, 2.43, 2.46, 2.5, 2.53, 2.56, 2.55, 2.54, 2.53, 2.52, 2.51, 2.5, 2.49, 1.68, 1.68, 1.67, 1.66, 1.66, 1.65, 1.64, 1.64, 1.63, 1.63, 1.62, 1.62, 1.65, 1.67, 1.7, 1.73, 1.76, 1.79, 2.32, 2.32, 2.31, 2.3, 2.29, 2.28, 2.28, 2.27, 2.26, 2.25, 2.25, 2.24, 2.23, 2.23, 2.22, 2.21, 2.2, 2.2, 2.19, 2.18, 2.18, 2.17, 2.16, 2.15, 2.15, 2.14, 2.13, 2.13, 2.12, 2.11, 2.11, 2.1, 2.09, 2.09, 2.08, 2.07, 2.07, 2.06, 2.05, 2.05, 2.04, 2.04, 2.03, 2.02, 2.02, 2.01, 2.0, 2.0, 0.94, 0.94, 0.94, 0.93, 0.93, 0.93, 0.93, 0.92, 0.92, 0.92, 0.91, 0.91, 0.91, 0.9, 0.9, 0.9, 0.9, 0.89, 0.89, 0.89, 0.88, 0.88, 0.88, 1.84, 1.84, 1.83, 1.82, 1.82, 1.81, 1.8, 1.8, 1.79, 1.78, 1.78, 1.77, 1.76, 1.76, 1.75, 1.74, 1.74, 1.73, 1.72, 1.71, 1.71, 1.7, 1.69, 1.69, 1.68, 1.67, 1.66, 1.66, 1.65, 1.64, 1.63, 1.63, 1.62]
26 [1.33, 1.35, 1.37, 1.38, 1.4, 1.42, 1.44, 1.45, 1.47, 1.49, 1.51, 1.53, 1.55, 1.56, 1.58, 1.6, 1.62, 1.64, 1.66, 1.68, 1.7, 1.72, 1.75, 1.77, 1.79, 1.81, 1.83, 1.85, 1.88, 1.9, 1.92, 1.95, 1.97, 1.99, 2.02, 2.04, 2.07, 2.1, 2.12, 2.15, 2.18, 2.2, 2.23, 2.26, 2.29, 2.32, 2.35, 2.38, 2.41, 2.44, 2.48, 2.51, 2.52, 2.51, 2.5, 2.49, 2.48, 2.47, 2.46, 1.65, 1.64, 1.63, 1.63, 1.62, 1.62, 1.61, 1.6, 1.6, 1.59, 1.59, 1.58, 1.59, 1.62, 1.65, 1.68, 1.7, 1.73, 1.76, 2.29, 2.28, 2.27, 2.26, 2.25, 2.25, 2.24, 2.23, 2.22, 2.22, 2.21, 2.2, 2.19, 2.19, 2.18, 2.17, 2.17, 2.16, 2.15, 2.15, 2.14, 2.13, 2.12, 2.12, 2.11, 2.1, 2.1, 2.09, 2.08, 2.08, 2.07, 2.06, 2.06, 2.05, 2.05, 2.04, 2.03, 2.03, 2.02, 2.01, 2.01, 2.0, 1.99, 1.99, 1.98, 1.98, 1.97, 1.96, 1.96, 0.91, 0.9, 0.9, 0.9, 0.9, 0.89, 0.89, 0.89, 0.88, 0.88, 0.88, 0.87, 0.87, 0.87, 0.87, 0.86, 0.86, 0.86, 0.85, 0.85, 0.85, 0.85, 0.84, 0.84, 1.8, 1.79, 1.79, 1.78, 1.77, 1.77, 1.76, 1.75, 1.75, 1.74, 1.73, 1.73, 1.72, 1.71, 1.71, 1.7, 1.69, 1.69, 1.68, 1.67, 1.66, 1.66, 1.65, 1.64, 1.64, 1.63, 1.62, 1.61, 1.61, 1.6, 1.59]
27 [1.33, 1.35, 1.37, 1.38, 1.4, 1.42, 1.44, 1.45, 1.47, 1.49, 1.51, 1.53, 1.55, 1.56, 1.58, 1.6, 1.62, 1.64, 1.66, 1.68, 1.7, 1.72, 1.75, 1.77, 1.79, 1.81, 1.83, 1.85, 1.88, 1.9, 1.92, 1.95, 1.97, 1.99, 2.02, 2.04, 2.07, 2.1, 2.12, 2.15, 2.18, 2.2, 2.23, 2.26, 2.29, 2.32, 2.35, 2.38, 2.41, 2.44, 2.48, 2.51, 2.52, 2.51, 2.5, 2.49, 2.48, 2.47, 2.46, 1.65, 1.64, 1.63, 1.63, 1.62, 1.62, 1.61, 1.6, 1.6, 1.59, 1.59, 1.58, 1.59, 1.62, 1.65, 1.68, 1.7, 1.73, 1.76, 2.29, 2.28, 2.27, 2.26, 2.25, 2.25, 2.24, 2.23, 2.22, 2.22, 2.21, 2.2, 2.19, 2.19, 2.18, 2.17, 2.17, 2.16, 2.15, 2.15, 2.14, 2.13, 2.12, 2.12, 2.11, 2.1, 2.1, 2.09, 2.08, 2.08, 2.07, 2.06, 2.06, 2.05, 2.05, 2.04, 2.03, 2.03, 2.02, 2.01, 2.01, 2.0, 1.99, 1.99, 1.98, 1.98, 1.97, 1.96, 1.96, 0.91, 0.9, 0.9, 0.9, 0.9, 0.89, 0.89, 0.89, 0.88, 0.88, 0.88, 0.87, 0.87, 0.87, 0.87, 0.86, 0.86, 0.86, 0.85, 0.85, 0.85, 0.85, 0.84, 0.84, 1.8, 1.79, 1.79, 1.78, 1.77, 1.77, 1.76, 1.75, 1.75, 1.74, 1.73, 1.73, 1.72, 1.71, 1.71, 1.7, 1.69, 1.69, 1.68, 1.67, 1.66, 1.66, 1.65, 1.64, 1.64, 1.63, 1.62, 1.61, 1.61, 1.6, 1.59]
28 [1.32, 1.34, 1.35, 1.37, 1.39, 1.41, 1.42, 1.44, 1.46, 1.48, 1.5, 1.51, 1.53, 1.55, 1.57, 1.59, 1.61, 1.63, 1.65, 1.67, 1.69, 1.71, 1.73, 1.75, 1.77, 1.79, 1.82, 1.84, 1.86, 1.88, 1.91, 1.93, 1.95, 1.98, 2.0, 2.03, 2.05, 2.08, 2.1, 2.13, 2.16, 2.18, 2.21, 2.24, 2.27, 2.3, 2.33, 2.36, 2.39, 2.42, 2.45, 2.49, 2.48, 2.47, 2.46, 2.45, 2.44, 2.43, 2.42, 1.6, 1.6, 1.59, 1.58, 1.58, 1.57, 1.57, 1.56, 1.55, 1.55, 1.54, 1.54, 1.56, 1.59, 1.62, 1.64, 1.67, 1.7, 2.25, 2.24, 2.24, 2.23, 2.22, 2.21, 2.2, 2.2, 2.19, 2.18, 2.18, 2.17, 2.16, 2.15, 2.15, 2.14, 2.13, 2.13, 2.12, 2.11, 2.11, 2.1, 2.09, 2.09, 2.08, 2.07, 2.07, 2.06, 2.05, 2.05, 2.04, 2.03, 2.03, 2.02, 2.01, 2.01, 2.0, 1.99, 1.99, 1.98, 1.98, 1.97, 1.96, 1.96, 1.95, 1.94, 1.94, 1.93, 1.93, 1.92, 1.91, 1.91, 0.86, 0.86, 0.86, 0.86, 0.85, 0.85, 0.85, 0.85, 0.84, 0.84, 0.84, 0.83, 0.83, 0.83, 0.83, 0.82, 0.82, 0.82, 0.81, 0.81, 0.81, 0.81, 0.8, 0.8, 1.75, 1.75, 1.74, 1.73, 1.73, 1.72, 1.71, 1.71, 1.7, 1.69, 1.69, 1.68, 1.67, 1.67, 1.66, 1.65, 1.65, 1.64, 1.63, 1.63, 1.62, 1.61, 1.6, 1.6, 1.59, 1.58, 1.58, 1.57, 1.56]
29 [1.31, 1.33, 1.35, 1.37, 1.38, 1.4, 1.42, 1.44, 1.45, 1.47, 1.49, 1.51, 1.53, 1.54, 1.56, 1.58, 1.6, 1.62, 1.64, 1.66, 1.68, 1.7, 1.72, 1.74, 1.77, 1.79, 1.81, 1.83, 1.85, 1.88, 1.9, 1.92, 1.95, 1.97, 1.99, 2.02, 2.04, 2.07, 2.09, 2.12, 2.15, 2.18, 2.2, 2.23, 2.26, 2.29, 2.32, 2.35, 2.38, 2.41, 2.44, 2.46, 2.45, 2.44, 2.43, 2.42, 2.41, 2.4, 1.59, 1.58, 1.57, 1.57, 1.56, 1.56, 1.55, 1.54, 1.54, 1.53, 1.53, 1.52, 1.53, 1.55, 1.58, 1.6, 1.63, 1.66, 1.69, 2.23, 2.22, 2.21, 2.21, 2.2, 2.19, 2.18, 2.18, 2.17, 2.16, 2.15, 2.15, 2.14, 2.13, 2.13, 2.12, 2.11, 2.11, 2.1, 2.09, 2.09, 2.08, 2.07, 2.07, 2.06, 2.05, 2.05, 2.04, 2.03, 2.03, 2.02, 2.01, 2.01, 2.0, 1.99, 1.99, 1.98, 1.98, 1.97, 1.96, 1.96, 1.95, 1.94, 1.94, 1.93, 1.93, 1.92, 1.91, 1.91, 1.9, 1.9, 1.89, 0.85, 0.84, 0.84, 0.84, 0.84, 0.83, 0.83, 0.83, 0.82, 0.82, 0.82, 0.82, 0.81, 0.81, 0.81, 0.81, 0.8, 0.8, 0.8, 0.79, 0.79, 0.79, 0.79, 0.78, 0.78, 0.78, 1.72, 1.72, 1.71, 1.7, 1.7, 1.69, 1.68, 1.68, 1.67, 1.66, 1.66, 1.65, 1.64, 1.64, 1.63, 1.62, 1.62, 1.61, 1.6, 1.6, 1.59, 1.58, 1.57, 1.57, 1.56, 1.55, 1.55]
30 [1.31, 1.33, 1.34, 1.36, 1.38, 1.39, 1.41, 1.43, 1.45, 1.46, 1.48, 1.5, 1.52, 1.54, 1.56, 1.58, 1.6, 1.62, 1.63, 1.65, 1.67, 1.7, 1.72, 1.74, 1.76, 1.78, 1.8, 1.82, 1.85, 1.87, 1.89, 1.91, 1.94, 1.96, 1.99, 2.01, 2.04, 2.06, 2.09, 2.11, 2.14, 2.17, 2.19, 2.22, 2.25, 2.28, 2.31, 2.34, 2.37, 2.4, 2.43, 2.44, 2.43, 2.42, 2.41, 2.4, 2.39, 2.38, 1.56, 1.56, 1.55, 1.54, 1.54, 1.53, 1.53, 1.52, 1.52, 1.51, 1.5, 1.5, 1.51, 1.54, 1.56, 1.59, 1.62, 1.64, 1.67, 2.21, 2.2, 2.19, 2.19, 2.18, 2.17, 2.16, 2.16, 2.15, 2.14, 2.13, 2.13, 2.12, 2.11, 2.11, 2.1, 2.09, 2.09, 2.08, 2.07, 2.07, 2.06, 2.05, 2.05, 2.04, 2.03, 2.03, 2.02, 2.01, 2.01, 2.0, 1.99, 1.99, 1.98, 1.98, 1.97, 1.96, 1.96, 1.95, 1.94, 1.94, 1.93, 1.93, 1.92, 1.91, 1.91, 1.9, 1.9, 1.89, 1.88, 1.88, 1.87, 1.87, 0.83, 0.82, 0.82, 0.82, 0.82, 0.81, 0.81, 0.81, 0.8, 0.8, 0.8, 0.8, 0.79, 0.79, 0.79, 0.79, 0.78, 0.78, 0.78, 0.77, 0.77, 0.77, 0.77, 0.76, 0.76, 0.76, 1.7, 1.69, 1.69, 1.68, 1.67, 1.67, 1.66, 1.65, 1.65, 1.64, 1.64, 1.63, 1.62, 1.62, 1.61, 1.6, 1.59, 1.59, 1.58, 1.57, 1.57, 1.56, 1.55, 1.55, 1.54, 1.53]
31 [1.3, 1.32, 1.34, 1.35, 1.37, 1.39, 1.41, 1.42, 1.44, 1.46, 1.48, 1.5, 1.51, 1.53, 1.55, 1.57, 1.59, 1.61, 1.63, 1.65, 1.67, 1.69, 1.71, 1.73, 1.75, 1.77, 1.79, 1.82, 1.84, 1.86, 1.88, 1.91, 1.93, 1.95, 1.98, 2.0, 2.03, 2.05, 2.08, 2.1, 2.13, 2.16, 2.19, 2.21, 2.24, 2.27, 2.3, 2.33, 2.36, 2.39, 2.42, 2.42, 2.41, 2.4, 2.39, 2.38, 2.37, 1.55, 1.54, 1.54, 1.53, 1.52, 1.52, 1.51, 1.51, 1.5, 1.49, 1.49, 1.48, 1.48, 1.5, 1.52, 1.55, 1.57, 1.6, 1.63, 1.66, 2.19, 2.18, 2.17, 2.17, 2.16, 2.15, 2.14, 2.14, 2.13, 2.12, 2.11, 2.11, 2.1, 2.09, 2.09, 2.08, 2.07, 2.07, 2.06, 2.05, 2.05, 2.04, 2.03, 2.03, 2.02, 2.01, 2.01, 2.0, 1.99, 1.99, 1.98, 1.98, 1.97, 1.96, 1.96, 1.95, 1.94, 1.94, 1.93, 1.93, 1.92, 1.91, 1.91, 1.9, 1.9, 1.89, 1.88, 1.88, 1.87, 1.87, 1.86, 1.85, 1.85, 1.84, 0.81, 0.8, 0.8, 0.8, 0.8, 0.79, 0.79, 0.79, 0.79, 0.78, 0.78, 0.78, 0.77, 0.77, 0.77, 0.77, 0.76, 0.76, 0.76, 0.76, 0.75, 0.75, 0.75, 0.75, 0.74, 0.74, 1.68, 1.67, 1.67, 1.66, 1.65, 1.65, 1.64, 1.63, 1.63, 1.62, 1.61, 1.61, 1.6, 1.59, 1.59, 1.58, 1.57, 1.57, 1.56, 1.55, 1.55, 1.54, 1.53, 1.52, 1.52]
32 [1.3, 1.32, 1.33, 1.35, 1.37, 1.38, 1.4, 1.42, 1.44, 1.45, 1.47, 1.49, 1.51, 1.53, 1.55, 1.56, 1.58, 1.6, 1.62, 1.64, 1.66, 1.68, 1.7, 1.72, 1.74, 1.77, 1.79, 1.81, 1.83, 1.85, 1.88, 1.9, 1.92, 1.95, 1.97, 1.99, 2.02, 2.04, 2.07, 2.1, 2.12, 2.15, 2.18, 2.2, 2.23, 2.26, 2.29, 2.32, 2.35, 2.38, 2.41, 2.39, 2.38, 2.37, 2.36, 2.35, 2.35, 1.53, 1.52, 1.51, 1.51, 1.5, 1.5, 1.49, 1.48, 1.48, 1.47, 1.47, 1.46, 1.46, 1.49, 1.51, 1.54, 1.56, 1.59, 1.62, 1.64, 2.17, 2.16, 2.15, 2.15, 2.14, 2.13, 2.12, 2.12, 2.11, 2.1, 2.1, 2.09, 2.08, 2.07, 2.07, 2.06, 2.05, 2.05, 2.04, 2.03, 2.03, 2.02, 2.02, 2.01, 2.0, 2.0, 1.99, 1.98, 1.98, 1.97, 1.96, 1.96, 1.95, 1.95, 1.94, 1.93, 1.93, 1.92, 1.92, 1.91, 1.9, 1.9, 1.89, 1.88, 1.88, 1.87, 1.87, 1.86, 1.86, 1.85, 1.84, 1.84, 1.83, 1.83, 1.82, 0.79, 0.78, 0.78, 0.78, 0.78, 0.77, 0.77, 0.77, 0.77, 0.76, 0.76, 0.76, 0.76, 0.75, 0.75, 0.75, 0.75, 0.74, 0.74, 0.74, 0.74, 0.73, 0.73, 0.73, 0.72, 0.72, 0.72, 1.65, 1.64, 1.64, 1.63, 1.62, 1.62, 1.61, 1.61, 1.6, 1.59, 1.59, 1.58, 1.57, 1.57, 1.56, 1.55, 1.55, 1.54, 1.53, 1.52, 1.52, 10.0, -1.10067673E12]
33 [1.29, 1.31, 1.33, 1.34, 1.36, 1.38, 1.4, 1.41, 1.43, 1.45, 1.47, 1.48, 1.5, 1.52, 1.54, 1.56, 1.58, 1.6, 1.62, 1.64, 1.66, 1.68, 1.7, 1.72, 1.74, 1.76, 1.78, 1.8, 1.82, 1.85, 1.87, 1.89, 1.92, 1.94, 1.96, 1.99, 2.01, 2.04, 2.06, 2.09, 2.11, 2.14, 2.17, 2.2, 2.22, 2.25, 2.28, 2.31, 2.34, 2.37, 2.38, 2.37, 2.36, 2.35, 2.34, 2.33, 2.32, 1.51, 1.5, 1.49, 1.49, 1.48, 1.48, 1.47, 1.46, 1.46, 1.45, 1.45, 1.44, 1.45, 1.47, 1.5, 1.52, 1.55, 1.58, 1.6, 2.16, 2.15, 2.14, 2.13, 2.13, 2.12, 2.11, 2.1, 2.1, 2.09, 2.08, 2.08, 2.07, 2.06, 2.06, 2.05, 2.04, 2.04, 2.03, 2.02, 2.02, 2.01, 2.0, 2.0, 1.99, 1.98, 1.98, 1.97, 1.97, 1.96, 1.95, 1.95, 1.94, 1.93, 1.93, 1.92, 1.92, 1.91, 1.9, 1.9, 1.89, 1.89, 1.88, 1.87, 1.87, 1.86, 1.86, 1.85, 1.84, 1.84, 1.83, 1.83, 1.82, 1.81, 1.81, 1.8, 1.8, 0.77, 0.77, 0.76, 0.76, 0.76, 0.76, 0.75, 0.75, 0.75, 0.75, 0.74, 0.74, 0.74, 0.74, 0.73, 0.73, 0.73, 0.73, 0.72, 0.72, 0.72, 0.72, 0.71, 0.71, 0.71, 0.7, 0.7, 1.63, 1.62, 1.62, 1.61, 1.6, 1.6, 1.59, 1.58, 1.58, 1.57, 1.57, 1.56, 1.55, 1.55, 1.54, 1.53, 1.53, 1.52, 1.51, 1.5, 10.0, 0.0]
34 [1.29, 1.31, 1.33, 1.34, 1.36, 1.38, 1.4, 1.41, 1.43, 1.45, 1.47, 1.48, 1.5, 1.52, 1.54, 1.56, 1.58, 1.6, 1.62, 1.64, 1.66, 1.68, 1.7, 1.72, 1.74, 1.76, 1.78, 1.8, 1.82, 1.85, 1.87, 1.89, 1.92, 1.94, 1.96, 1.99, 2.01, 2.04, 2.06, 2.09, 2.11, 2.14, 2.17, 2.2, 2.22, 2.25, 2.28, 2.31, 2.34, 2.37, 2.38, 2.37, 2.36, 2.35, 2.34, 2.33, 2.32, 1.51, 1.5, 1.49, 1.49, 1.48, 1.48, 1.47, 1.46, 1.46, 1.45, 1.45, 1.44, 1.45, 1.47, 1.5, 1.52, 1.55, 1.58, 1.6, 2.16, 2.15, 2.14, 2.13, 2.13, 2.12, 2.11, 2.1, 2.1, 2.09, 2.08, 2.08, 2.07, 2.06, 2.06, 2.05, 2.04, 2.04, 2.03, 2.02, 2.02, 2.01, 2.0, 2.0, 1.99, 1.98, 1.98, 1.97, 1.97, 1.96, 1.95, 1.95, 1.94, 1.93, 1.93, 1.92, 1.92, 1.91, 1.9, 1.9, 1.89, 1.89, 1.88, 1.87, 1.87, 1.86, 1.86, 1.85, 1.84, 1.84, 1.83, 1.83, 1.82, 1.81, 1.81, 1.8, 1.8, 0.77, 0.77, 0.76, 0.76, 0.76, 0.76, 0.75, 0.75, 0.75, 0.75, 0.74, 0.74, 0.74, 0.74, 0.73, 0.73, 0.73, 0.73, 0.72, 0.72, 0.72, 0.72, 0.71, 0.71, 0.71, 0.7, 0.7, 1.63, 1.62, 1.62, 1.61, 1.6, 1.6, 1.59, 1.58, 1.58, 1.57, 1.57, 1.56, 1.55, 1.55, 1.54, 1.53, 1.53, 1.52, 1.51, 1.5, 1.5, 1.49]
35 [1.29, 1.31, 1.32, 1.34, 1.36, 1.37, 1.39, 1.41, 1.43, 1.44, 1.46, 1.48, 1.5, 1.52, 1.54, 1.56, 1.57, 1.59, 1.61, 1.63, 1.65, 1.67, 1.69, 1.71, 1.74, 1.76, 1.78, 1.8, 1.82, 1.85, 1.87, 1.89, 1.91, 1.94, 1.96, 1.99, 2.01, 2.04, 2.06, 2.09, 2.12, 2.14, 2.17, 2.2, 2.23, 2.26, 2.29, 2.32, 2.35, 2.34, 2.33, 2.32, 2.31, 2.3, 2.29, 1.47, 1.46, 1.46, 1.45, 1.45, 1.44, 1.44, 1.43, 1.43, 1.42, 1.41, 1.41, 1.4, 1.43, 1.45, 1.47, 1.5, 1.52, 1.55, 1.57, 2.12, 2.11, 2.1, 2.1, 2.09, 2.08, 2.08, 2.07, 2.06, 2.06, 2.05, 2.04, 2.04, 2.03, 2.02, 2.02, 2.01, 2.0, 2.0, 1.99, 1.98, 1.98, 1.97, 1.97, 1.96, 1.95, 1.95, 1.94, 1.94, 1.93, 1.92, 1.92, 1.91, 1.91, 1.9, 1.89, 1.89, 1.88, 1.88, 1.87, 1.86, 1.86, 1.85, 1.85, 1.84, 1.84, 1.83, 1.82, 1.82, 1.81, 1.81, 1.8, 1.8, 1.79, 1.78, 1.78, 1.77, 1.77, 0.78, 0.74, 0.73, 0.73, 0.73, 0.73, 0.72, 0.72, 0.72, 0.72, 0.72, 0.71, 0.71, 0.71, 0.71, 0.7, 0.7, 0.7, 0.7, 0.69, 0.69, 0.69, 0.69, 0.68, 0.68, 0.68, 0.68, 0.67, 0.67, 1.59, 1.59, 1.58, 1.58, 1.57, 1.56, 1.56, 1.55, 1.54, 1.54, 1.53, 1.52, 1.52, 1.51, 1.5, 1.5, 1.49, 1.48, 1.48, 1.47]
36 [1.29, 1.31, 1.32, 1.34, 1.36, 1.37, 1.39, 1.41, 1.43, 1.44, 1.46, 1.48, 1.5, 1.52, 1.54, 1.56, 1.57, 1.59, 1.61, 1.63, 1.65, 1.67, 1.69, 1.71, 1.74, 1.76, 1.78, 1.8, 1.82, 1.85, 1.87, 1.89, 1.91, 1.94, 1.96, 1.99, 2.01, 2.04, 2.06, 2.09, 2.12, 2.14, 2.17, 2.2, 2.23, 2.26, 2.29, 2.32, 2.35, 2.34, 2.33, 2.32, 2.31, 2.3, 2.29, 1.47, 1.46, 1.46, 1.45, 1.45, 1.44, 1.44, 1.43, 1.43, 1.42, 1.41, 1.41, 1.4, 1.43, 1.45, 1.47, 1.5, 1.52, 1.55, 1.57, 2.12, 2.11, 2.1, 2.1, 2.09, 2.08, 2.08, 2.07, 2.06, 2.06, 2.05, 2.04, 2.04, 2.03, 2.02, 2.02, 2.01, 2.0, 2.0, 1.99, 1.98, 1.98, 1.97, 1.97, 1.96, 1.95, 1.95, 1.94, 1.94, 1.93, 1.92, 1.92, 1.91, 1.91, 1.9, 1.89, 1.89, 1.88, 1.88, 1.87, 1.86, 1.86, 1.85, 1.85, 1.84, 1.84, 1.83, 1.82, 1.82, 1.81, 1.81, 1.8, 1.8, 1.79, 1.78, 1.78, 1.77, 1.77, 0.78, 0.74, 0.73, 0.73, 0.73, 0.73, 0.72, 0.72, 0.72, 0.72, 0.72, 0.71, 0.71, 0.71, 0.71, 0.7, 0.7, 0.7, 0.7, 0.69, 0.69, 0.69, 0.69, 0.68, 0.68, 0.68, 0.68, 0.67, 0.67, 1.59, 1.59, 1.58, 1.58, 1.57, 1.56, 1.56, 1.55, 1.54, 1.54, 1.53, 1.52, 1.52, 1.51, 1.5, 1.5, 1.49, 1.48, 1.48, 1.47]
37 [1.29, 1.31, 1.32, 1.34, 1.36, 1.37, 1.39, 1.41, 1.43, 1.44, 1.46, 1.48, 1.5, 1.52, 1.54, 1.56, 1.58, 1.59, 1.61, 1.63, 1.65, 1.68, 1.7, 1.72, 1.74, 1.76, 1.78, 1.8, 1.83, 1.85, 1.87, 1.89, 1.92, 1.94, 1.97, 1.99, 2.02, 2.04, 2.07, 2.1, 2.12, 2.15, 2.18, 2.21, 2.23, 2.26, 2.29, 2.32, 2.32, 2.31, 2.3, 2.29, 2.28, 2.27, 1.45, 1.44, 1.44, 1.43, 1.43, 1.42, 1.42, 1.41, 1.41, 1.4, 1.4, 1.39, 1.39, 1.41, 1.43, 1.45, 1.48, 1.5, 1.53, 1.55, 2.1, 2.1, 2.09, 2.08, 2.07, 2.07, 2.06, 2.05, 2.05, 2.04, 2.03, 2.03, 2.02, 2.01, 2.01, 2.0, 2.0, 1.99, 1.98, 1.98, 1.97, 1.96, 1.96, 1.95, 1.95, 1.94, 1.93, 1.93, 1.92, 1.92, 1.91, 1.91, 1.9, 1.89, 1.89, 1.88, 1.88, 1.87, 1.87, 1.86, 1.85, 1.85, 1.84, 1.84, 1.83, 1.83, 1.82, 1.81, 1.81, 1.8, 1.8, 1.79, 1.79, 1.78, 1.78, 1.77, 1.76, 1.76, 1.75, 0.8, 0.72, 0.72, 0.72, 0.72, 0.71, 0.71, 0.71, 0.71, 0.7, 0.7, 0.7, 0.7, 0.7, 0.69, 0.69, 0.69, 0.69, 0.68, 0.68, 0.68, 0.68, 0.67, 0.67, 0.67, 0.67, 0.66, 0.66, 0.66, 1.58, 1.58, 1.57, 1.57, 1.56, 1.55, 1.55, 1.54, 1.53, 1.53, 1.52, 1.52, 1.51, 1.5, 1.5, 1.49, 1.48, 1.48, 1.47, 1.46]
38 [1.29, 1.31, 1.32, 1.34, 1.36, 1.37, 1.39, 1.41, 1.43, 1.44, 1.46, 1.48, 1.5, 1.52, 1.54, 1.56, 1.58, 1.59, 1.61, 1.63, 1.65, 1.68, 1.7, 1.72, 1.74, 1.76, 1.78, 1.8, 1.83, 1.85, 1.87, 1.89, 1.92, 1.94, 1.97, 1.99, 2.02, 2.04, 2.07, 2.1, 2.12, 2.15, 2.18, 2.21, 2.23, 2.26, 2.29, 2.32, 2.32, 2.31, 2.3, 2.29, 2.28, 2.27, 1.45, 1.44, 1.44, 1.43, 1.43, 1.42, 1.42, 1.41, 1.41, 1.4, 1.4, 1.39, 1.39, 1.41, 1.43, 1.45, 1.48, 1.5, 1.53, 1.55, 2.1, 2.1, 2.09, 2.08, 2.07, 2.07, 2.06, 2.05, 2.05, 2.04, 2.03, 2.03, 2.02, 2.01, 2.01, 2.0, 2.0, 1.99, 1.98, 1.98, 1.97, 1.96, 1.96, 1.95, 1.95, 1.94, 1.93, 1.93, 1.92, 1.92, 1.91, 1.91, 1.9, 1.89, 1.89, 1.88, 1.88, 1.87, 1.87, 1.86, 1.85, 1.85, 1.84, 1.84, 1.83, 1.83, 1.82, 1.81, 1.81, 1.8, 1.8, 1.79, 1.79, 1.78, 1.78, 1.77, 1.76, 1.76, 1.75, 0.8, 0.72, 0.72, 0.72, 0.72, 0.71, 0.71, 0.71, 0.71, 0.7, 0.7, 0.7, 0.7, 0.7, 0.69, 0.69, 0.69, 0.69, 0.68, 0.68, 0.68, 0.68, 0.67, 0.67, 0.67, 0.67, 0.66, 0.66, 0.66, 1.58, 1.58, 1.57, 1.57, 1.56, 1.55, 1.55, 1.54, 1.53, 1.53, 1.52, 1.52, 1.51, 1.5, 1.5, 1.49, 1.48, 1.48, 1.47, 1.46]
39 [1.28, 1.29, 1.31, 1.33, 1.34, 1.36, 1.38, 1.4, 1.41, 1.43, 1.45, 1.47, 1.49, 1.5, 1.52, 1.54, 1.56, 1.58, 1.6, 1.62, 1.64, 1.66, 1.68, 1.7, 1.72, 1.75, 1.77, 1.79, 1.81, 1.83, 1.86, 1.88, 1.9, 1.93, 1.95, 1.98, 2.0, 2.03, 2.05, 2.08, 2.11, 2.14, 2.16, 2.19, 2.22, 2.25, 2.25, 2.25, 2.24, 2.23, 2.22, 2.21, 1.39, 1.38, 1.38, 1.37, 1.37, 1.36, 1.35, 1.35, 1.34, 1.34, 1.34, 1.33, 1.33, 1.34, 1.36, 1.38, 1.4, 1.43, 1.45, 1.48, 1.5, 2.04, 2.03, 2.03, 2.02, 2.01, 2.01, 2.0, 1.99, 1.99, 1.98, 1.97, 1.97, 1.96, 1.96, 1.95, 1.94, 1.94, 1.93, 1.92, 1.92, 1.91, 1.91, 1.9, 1.9, 1.89, 1.88, 1.88, 1.87, 1.87, 1.86, 1.86, 1.85, 1.84, 1.84, 1.83, 1.83, 1.82, 1.82, 1.81, 1.81, 1.8, 1.8, 1.79, 1.79, 1.78, 1.77, 1.77, 1.76, 1.76, 1.75, 1.75, 1.74, 1.74, 1.73, 1.73, 1.72, 1.72, 1.71, 1.71, 1.7, 1.7, 1.69, 0.8, 0.67, 0.66, 0.66, 0.66, 0.66, 0.66, 0.65, 0.65, 0.65, 0.65, 0.64, 0.64, 0.64, 0.64, 0.64, 0.63, 0.63, 0.63, 0.63, 0.63, 0.62, 0.62, 0.62, 0.62, 0.61, 0.61, 0.61, 0.61, 0.61, 0.6, 0.6, 1.51, 1.5, 1.5, 1.49, 1.48, 1.48, 1.47, 1.47, 1.46, 1.45, 1.45, 1.44, 1.44, 1.43, 1.42]
40 [1.27, 1.29, 1.3, 1.32, 1.34, 1.36, 1.37, 1.39, 1.41, 1.43, 1.44, 1.46, 1.48, 1.5, 1.52, 1.54, 1.56, 1.57, 1.59, 1.61, 1.63, 1.65, 1.68, 1.7, 1.72, 1.74, 1.76, 1.78, 1.8, 1.83, 1.85, 1.87, 1.9, 1.92, 1.94, 1.97, 1.99, 2.02, 2.05, 2.07, 2.1, 2.13, 2.15, 2.18, 2.21, 2.24, 2.23, 2.22, 2.21, 2.2, 2.2, 1.37, 1.36, 1.36, 1.35, 1.35, 1.34, 1.34, 1.33, 1.33, 1.32, 1.32, 1.31, 1.31, 1.3, 1.33, 1.35, 1.37, 1.39, 1.41, 1.44, 1.46, 1.49, 2.02, 2.01, 2.0, 2.0, 1.99, 1.99, 1.98, 1.97, 1.97, 1.96, 1.95, 1.95, 1.94, 1.93, 1.93, 1.92, 1.92, 1.91, 1.91, 1.9, 1.89, 1.89, 1.88, 1.88, 1.87, 1.86, 1.86, 1.85, 1.85, 1.84, 1.84, 1.83, 1.83, 1.82, 1.81, 1.81, 1.8, 1.8, 1.79, 1.79, 1.78, 1.78, 1.77, 1.77, 1.76, 1.76, 1.75, 1.75, 1.74, 1.73, 1.73, 1.72, 1.72, 1.71, 1.71, 1.7, 1.7, 1.69, 1.69, 1.68, 1.68, 1.67, 1.67, 0.78, 0.67, 0.64, 0.64, 0.64, 0.64, 0.64, 0.63, 0.63, 0.63, 0.63, 0.63, 0.62, 0.62, 0.62, 0.62, 0.62, 0.61, 0.61, 0.61, 0.61, 0.6, 0.6, 0.6, 0.6, 0.6, 0.59, 0.59, 0.59, 0.59, 0.58, 0.58, 0.58, 1.48, 1.48, 1.47, 1.46, 1.46, 1.45, 1.45, 1.44, 1.43, 1.43, 1.42, 1.41, 1.41]
41 [1.26, 1.28, 1.29, 1.31, 1.33, 1.35, 1.36, 1.38, 1.4, 1.41, 1.43, 1.45, 1.47, 1.49, 1.51, 1.52, 1.54, 1.56, 1.58, 1.6, 1.62, 1.64, 1.66, 1.68, 1.7, 1.72, 1.75, 1.77, 1.79, 1.81, 1.84, 1.86, 1.88, 1.91, 1.93, 1.95, 1.98, 2.0, 2.03, 2.06, 2.08, 2.11, 2.14, 2.17, 2.19, 2.2, 2.19, 2.18, 2.17, 2.16, 1.33, 1.33, 1.32, 1.31, 1.31, 1.3, 1.3, 1.29, 1.29, 1.29, 1.28, 1.28, 1.27, 1.27, 1.28, 1.3, 1.32, 1.34, 1.37, 1.39, 1.41, 1.44, 1.98, 1.98, 1.97, 1.96, 1.96, 1.95, 1.95, 1.94, 1.93, 1.93, 1.92, 1.91, 1.91, 1.9, 1.9, 1.89, 1.88, 1.88, 1.87, 1.87, 1.86, 1.86, 1.85, 1.84, 1.84, 1.83, 1.83, 1.82, 1.82, 1.81, 1.81, 1.8, 1.79, 1.79, 1.78, 1.78, 1.77, 1.77, 1.76, 1.76, 1.75, 1.75, 1.74, 1.74, 1.73, 1.73, 1.72, 1.72, 1.71, 1.71, 1.7, 1.69, 1.69, 1.68, 1.68, 1.67, 1.67, 1.66, 1.66, 1.65, 1.65, 1.64, 1.64, 1.63, 1.63, 1.62, 0.75, 0.67, 0.61, 0.61, 0.6, 0.6, 0.6, 0.6, 0.6, 0.59, 0.59, 0.59, 0.59, 0.59, 0.58, 0.58, 0.58, 0.58, 0.58, 0.57, 0.57, 0.57, 0.57, 0.57, 0.56, 0.56, 0.56, 0.56, 0.55, 0.55, 0.55, 0.55, 0.55, 0.54, 0.54, 1.43, 1.42, 1.42, 1.41, 1.4, 1.4, 1.39, 1.39, 1.38]
42 [1.25, 1.26, 1.28, 1.3, 1.31, 1.33, 1.35, 1.36, 1.38, 1.4, 1.42, 1.43, 1.45, 1.47, 1.49, 1.51, 1.53, 1.54, 1.56, 1.58, 1.6, 1.62, 1.64, 1.66, 1.68, 1.7, 1.73, 1.75, 1.77, 1.79, 1.81, 1.84, 1.86, 1.88, 1.91, 1.93, 1.96, 1.98, 2.01, 2.03, 2.06, 2.09, 2.11, 2.14, 2.14, 2.13, 2.12, 2.11, 2.1, 1.27, 1.27, 1.26, 1.26, 1.25, 1.25, 1.24, 1.24, 1.23, 1.23, 1.22, 1.22, 1.21, 1.21, 1.23, 1.25, 1.27, 1.29, 1.31, 1.33, 1.35, 1.37, 1.4, 1.93, 1.92, 1.91, 1.91, 1.9, 1.89, 1.89, 1.88, 1.88, 1.87, 1.86, 1.86, 1.85, 1.85, 1.84, 1.83, 1.83, 1.82, 1.82, 1.81, 1.81, 1.8, 1.79, 1.79, 1.78, 1.78, 1.77, 1.77, 1.76, 1.76, 1.75, 1.75, 1.74, 1.74, 1.73, 1.73, 1.72, 1.72, 1.71, 1.7, 1.7, 1.69, 1.69, 1.68, 1.68, 1.67, 1.67, 1.66, 1.66, 1.65, 1.65, 1.64, 1.64, 1.63, 1.63, 1.62, 1.62, 1.61, 1.61, 1.6, 1.6, 1.59, 1.59, 1.58, 1.58, 1.57, 1.57, 1.56, 1.56, 0.72, 0.66, 0.61, 0.56, 0.55, 0.55, 0.55, 0.54, 0.54, 0.54, 0.54, 0.54, 0.54, 0.53, 0.53, 0.53, 0.53, 0.53, 0.52, 0.52, 0.52, 0.52, 0.52, 0.51, 0.51, 0.51, 0.51, 0.51, 0.5, 0.5, 0.5, 0.5, 0.5, 0.49, 0.49, 0.49, 0.49, 0.49, 1.35, 1.34, 1.34]
43 [1.24, 1.25, 1.27, 1.29, 1.3, 1.32, 1.34, 1.35, 1.37, 1.39, 1.4, 1.42, 1.44, 1.46, 1.48, 1.49, 1.51, 1.53, 1.55, 1.57, 1.59, 1.61, 1.63, 1.65, 1.67, 1.69, 1.71, 1.73, 1.75, 1.78, 1.8, 1.82, 1.84, 1.87, 1.89, 1.91, 1.94, 1.96, 1.99, 2.02, 2.04, 2.07, 2.09, 2.1, 2.09, 2.08, 2.08, 1.24, 1.23, 1.23, 1.22, 1.22, 1.21, 1.21, 1.2, 1.2, 1.19, 1.19, 1.18, 1.18, 1.17, 1.17, 1.19, 1.21, 1.22, 1.24, 1.26, 1.28, 1.3, 1.33, 1.35, 1.89, 1.88, 1.88, 1.87, 1.86, 1.86, 1.85, 1.85, 1.84, 1.83, 1.83, 1.82, 1.82, 1.81, 1.8, 1.8, 1.79, 1.79, 1.78, 1.78, 1.77, 1.77, 1.76, 1.75, 1.75, 1.74, 1.74, 1.73, 1.73, 1.72, 1.72, 1.71, 1.71, 1.7, 1.7, 1.69, 1.69, 1.68, 1.68, 1.67, 1.67, 1.66, 1.66, 1.65, 1.65, 1.64, 1.64, 1.63, 1.63, 1.62, 1.62, 1.61, 1.61, 1.6, 1.6, 1.59, 1.59, 1.58, 1.58, 1.57, 1.57, 1.56, 1.56, 1.55, 1.55, 1.54, 1.54, 1.53, 1.53, 1.53, 1.52, 1.52, 1.51, 0.66, 0.61, 0.57, 0.54, 0.51, 0.51, 0.51, 0.51, 0.5, 0.5, 0.5, 0.5, 0.5, 0.5, 0.49, 0.49, 0.49, 0.49, 0.49, 0.48, 0.48, 0.48, 0.48, 0.48, 0.48, 0.47, 0.47, 0.47, 0.47, 0.47, 0.46, 0.46, 0.46, 0.46, 0.46, 0.45, 0.45, 0.45]
44 [1.23, 1.24, 1.26, 1.27, 1.29, 1.31, 1.32, 1.34, 1.36, 1.37, 1.39, 1.41, 1.43, 1.44, 1.46, 1.48, 1.5, 1.52, 1.54, 1.56, 1.58, 1.6, 1.61, 1.63, 1.66, 1.68, 1.7, 1.72, 1.74, 1.76, 1.78, 1.81, 1.83, 1.85, 1.87, 1.9, 1.92, 1.95, 1.97, 2.0, 2.02, 2.05, 2.06, 2.05, 2.05, 2.04, 1.19, 1.19, 1.18, 1.18, 1.17, 1.17, 1.16, 1.16, 1.16, 1.15, 1.15, 1.14, 1.14, 1.13, 1.13, 1.15, 1.16, 1.18, 1.2, 1.22, 1.24, 1.26, 1.28, 1.3, 1.85, 1.85, 1.84, 1.83, 1.83, 1.82, 1.81, 1.81, 1.8, 1.8, 1.79, 1.79, 1.78, 1.77, 1.77, 1.76, 1.76, 1.75, 1.75, 1.74, 1.74, 1.73, 1.72, 1.72, 1.71, 1.71, 1.7, 1.7, 1.69, 1.69, 1.68, 1.68, 1.67, 1.67, 1.66, 1.66, 1.65, 1.65, 1.64, 1.64, 1.63, 1.63, 1.62, 1.62, 1.61, 1.61, 1.6, 1.6, 1.59, 1.59, 1.59, 1.58, 1.58, 1.57, 1.57, 1.56, 1.56, 1.55, 1.55, 1.54, 1.54, 1.53, 1.53, 1.52, 1.52, 1.51, 1.51, 1.5, 1.5, 1.49, 1.49, 1.48, 1.48, 1.48, 1.47, 1.47, 0.66, 0.62, 0.58, 0.55, 0.52, 0.49, 0.47, 0.47, 0.47, 0.47, 0.46, 0.46, 0.46, 0.46, 0.46, 0.46, 0.45, 0.45, 0.45, 0.45, 0.45, 0.44, 0.44, 0.44, 0.44, 0.44, 0.44, 0.43, 0.43, 0.43, 0.43, 0.43, 0.43, 0.42, 0.42, 0.42]
45 [1.22, 1.24, 1.25, 1.27, 1.29, 1.3, 1.32, 1.33, 1.35, 1.37, 1.39, 1.4, 1.42, 1.44, 1.46, 1.47, 1.49, 1.51, 1.53, 1.55, 1.57, 1.59, 1.61, 1.63, 1.65, 1.67, 1.69, 1.71, 1.73, 1.75, 1.78, 1.8, 1.82, 1.84, 1.87, 1.89, 1.91, 1.94, 1.96, 1.99, 2.01, 2.04, 2.04, 2.03, 2.02, 1.17, 1.17, 1.17, 1.16, 1.16, 1.15, 1.15, 1.14, 1.14, 1.13, 1.13, 1.12, 1.12, 1.12, 1.11, 1.12, 1.13, 1.15, 1.17, 1.19, 1.21, 1.23, 1.25, 1.27, 1.29, 1.83, 1.82, 1.82, 1.81, 1.81, 1.8, 1.79, 1.79, 1.78, 1.78, 1.77, 1.77, 1.76, 1.75, 1.75, 1.74, 1.74, 1.73, 1.73, 1.72, 1.72, 1.71, 1.71, 1.7, 1.69, 1.69, 1.68, 1.68, 1.67, 1.67, 1.66, 1.66, 1.65, 1.65, 1.64, 1.64, 1.63, 1.63, 1.62, 1.62, 1.61, 1.61, 1.61, 1.6, 1.6, 1.59, 1.59, 1.58, 1.58, 1.57, 1.57, 1.56, 1.56, 1.55, 1.55, 1.54, 1.54, 1.53, 1.53, 1.52, 1.52, 1.52, 1.51, 1.51, 1.5, 1.5, 1.49, 1.49, 1.48, 1.48, 1.47, 1.47, 1.46, 1.46, 1.45, 1.45, 1.44, 1.44, 0.62, 0.58, 0.55, 0.52, 0.5, 0.47, 0.45, 0.45, 0.45, 0.45, 0.44, 0.44, 0.44, 0.44, 0.44, 0.44, 0.43, 0.43, 0.43, 0.43, 0.43, 0.43, 0.42, 0.42, 0.42, 0.42, 0.42, 0.42, 0.41, 0.41, 0.41, 0.41, 0.41, 0.4]
46 [1.22, 1.23, 1.25, 1.26, 1.28, 1.3, 1.31, 1.33, 1.35, 1.36, 1.38, 1.4, 1.42, 1.43, 1.45, 1.47, 1.49, 1.51, 1.52, 1.54, 1.56, 1.58, 1.6, 1.62, 1.64, 1.66, 1.68, 1.7, 1.72, 1.75, 1.77, 1.79, 1.81, 1.84, 1.86, 1.88, 1.91, 1.93, 1.96, 1.98, 2.01, 2.03, 2.02, 2.01, 2.0, 1.15, 1.15, 1.14, 1.14, 1.13, 1.13, 1.12, 1.12, 1.12, 1.11, 1.11, 1.1, 1.1, 1.09, 1.09, 1.11, 1.12, 1.14, 1.16, 1.18, 1.19, 1.21, 1.23, 1.25, 1.27, 1.81, 1.8, 1.8, 1.79, 1.79, 1.78, 1.77, 1.77, 1.76, 1.76, 1.75, 1.75, 1.74, 1.73, 1.73, 1.72, 1.72, 1.71, 1.71, 1.7, 1.7, 1.69, 1.69, 1.68, 1.68, 1.67, 1.67, 1.66, 1.66, 1.65, 1.65, 1.64, 1.64, 1.63, 1.63, 1.62, 1.62, 1.61, 1.61, 1.6, 1.6, 1.59, 1.59, 1.58, 1.58, 1.57, 1.57, 1.56, 1.56, 1.55, 1.55, 1.54, 1.54, 1.54, 1.53, 1.53, 1.52, 1.52, 1.51, 1.51, 1.5, 1.5, 1.49, 1.49, 1.48, 1.48, 1.47, 1.47, 1.47, 1.46, 1.46, 1.45, 1.45, 1.44, 1.44, 1.43, 1.43, 1.42, 1.42, 0.62, 0.58, 0.55, 0.53, 0.5, 0.48, 0.46, 0.44, 0.43, 0.43, 0.43, 0.43, 0.42, 0.42, 0.42, 0.42, 0.42, 0.42, 0.41, 0.41, 0.41, 0.41, 0.41, 0.41, 0.4, 0.4, 0.4, 0.4, 0.4, 0.4, 0.39, 0.39, 0.39]
47 [1.21, 1.23, 1.24, 1.26, 1.27, 1.29, 1.31, 1.32, 1.34, 1.36, 1.38, 1.39, 1.41, 1.43, 1.45, 1.46, 1.48, 1.5, 1.52, 1.54, 1.56, 1.58, 1.6, 1.62, 1.64, 1.66, 1.68, 1.7, 1.72, 1.74, 1.76, 1.78, 1.81, 1.83, 1.85, 1.88, 1.9, 1.92, 1.95, 1.97, 2.0, 2.0, 1.99, 1.99, 1.14, 1.13, 1.13, 1.12, 1.12, 1.11, 1.11, 1.1, 1.1, 1.09, 1.09, 1.09, 1.08, 1.08, 1.07, 1.08, 1.1, 1.11, 1.13, 1.15, 1.17, 1.18, 1.2, 1.22, 1.24, 1.8, 1.79, 1.78, 1.78, 1.77, 1.77, 1.76, 1.75, 1.75, 1.74, 1.74, 1.73, 1.73, 1.72, 1.72, 1.71, 1.7, 1.7, 1.69, 1.69, 1.68, 1.68, 1.67, 1.67, 1.66, 1.66, 1.65, 1.65, 1.64, 1.64, 1.63, 1.63, 1.62, 1.62, 1.61, 1.61, 1.6, 1.6, 1.59, 1.59, 1.58, 1.58, 1.57, 1.57, 1.56, 1.56, 1.56, 1.55, 1.55, 1.54, 1.54, 1.53, 1.53, 1.52, 1.52, 1.51, 1.51, 1.5, 1.5, 1.5, 1.49, 1.49, 1.48, 1.48, 1.47, 1.47, 1.46, 1.46, 1.45, 1.45, 1.44, 1.44, 1.44, 1.43, 1.43, 1.42, 1.42, 1.41, 1.41, 1.4, 1.4, 1.39, 0.58, 0.55, 0.53, 0.5, 0.48, 0.46, 0.44, 0.42, 0.41, 0.41, 0.41, 0.41, 0.41, 0.4, 0.4, 0.4, 0.4, 0.4, 0.4, 0.4, 0.39, 0.39, 0.39, 0.39, 0.39, 0.39, 0.38, 0.38, 0.38, 0.38, 0.38]
48 [1.21, 1.22, 1.24, 1.25, 1.27, 1.29, 1.3, 1.32, 1.34, 1.35, 1.37, 1.39, 1.4, 1.42, 1.44, 1.46, 1.48, 1.49, 1.51, 1.53, 1.55, 1.57, 1.59, 1.61, 1.63, 1.65, 1.67, 1.69, 1.71, 1.73, 1.75, 1.78, 1.8, 1.82, 1.84, 1.87, 1.89, 1.92, 1.94, 1.97, 1.99, 1.98, 1.97, 1.12, 1.11, 1.11, 1.1, 1.1, 1.1, 1.09, 1.09, 1.08, 1.08, 1.07, 1.07, 1.06, 1.06, 1.06, 1.05, 1.07, 1.09, 1.1, 1.12, 1.14, 1.15, 1.17, 1.19, 1.21, 1.23, 1.78, 1.77, 1.76, 1.76, 1.75, 1.75, 1.74, 1.74, 1.73, 1.72, 1.72, 1.71, 1.71, 1.7, 1.7, 1.69, 1.69, 1.68, 1.68, 1.67, 1.66, 1.66, 1.65, 1.65, 1.64, 1.64, 1.63, 1.63, 1.62, 1.62, 1.61, 1.61, 1.6, 1.6, 1.59, 1.59, 1.59, 1.58, 1.58, 1.57, 1.57, 1.56, 1.56, 1.55, 1.55, 1.54, 1.54, 1.53, 1.53, 1.52, 1.52, 1.52, 1.51, 1.51, 1.5, 1.5, 1.49, 1.49, 1.48, 1.48, 1.47, 1.47, 1.47, 1.46, 1.46, 1.45, 1.45, 1.44, 1.44, 1.43, 1.43, 1.42, 1.42, 1.42, 1.41, 1.41, 1.4, 1.4, 1.39, 1.39, 1.38, 1.38, 1.37, 0.58, 0.55, 0.53, 0.5, 0.48, 0.46, 0.44, 0.43, 0.41, 0.39, 0.39, 0.39, 0.39, 0.39, 0.39, 0.39, 0.38, 0.38, 0.38, 0.38, 0.38, 0.38, 0.37, 0.37, 0.37, 0.37, 0.37, 0.37, 0.37, 0.36]
49 [1.2, 1.22, 1.23, 1.25, 1.26, 1.28, 1.3, 1.31, 1.33, 1.35, 1.36, 1.38, 1.4, 1.42, 1.43, 1.45, 1.47, 1.49, 1.51, 1.53, 1.54, 1.56, 1.58, 1.6, 1.62, 1.64, 1.66, 1.68, 1.7, 1.73, 1.75, 1.77, 1.79, 1.81, 1.84, 1.86, 1.88, 1.91, 1.93, 1.96, 1.97, 1.96, 1.95, 1.1, 1.09, 1.09, 1.08, 1.08, 1.07, 1.07, 1.06, 1.06, 1.06, 1.05, 1.05, 1.04, 1.04, 1.04, 1.04, 1.06, 1.08, 1.09, 1.11, 1.13, 1.14, 1.16, 1.18, 1.2, 1.22, 1.76, 1.75, 1.74, 1.74, 1.73, 1.73, 1.72, 1.72, 1.71, 1.7, 1.7, 1.69, 1.69, 1.68, 1.68, 1.67, 1.67, 1.66, 1.66, 1.65, 1.65, 1.64, 1.64, 1.63, 1.63, 1.62, 1.62, 1.61, 1.61, 1.6, 1.6, 1.59, 1.59, 1.58, 1.58, 1.57, 1.57, 1.56, 1.56, 1.55, 1.55, 1.54, 1.54, 1.53, 1.53, 1.53, 1.52, 1.52, 1.51, 1.51, 1.5, 1.5, 1.49, 1.49, 1.48, 1.48, 1.48, 1.47, 1.47, 1.46, 1.46, 1.45, 1.45, 1.44, 1.44, 1.44, 1.43, 1.43, 1.42, 1.42, 1.41, 1.41, 1.4, 1.4, 1.39, 1.39, 1.39, 1.38, 1.38, 1.37, 1.37, 1.36, 1.36, 1.35, 1.35, 0.55, 0.53, 0.51, 0.48, 0.46, 0.45, 0.43, 0.41, 0.4, 0.38, 0.38, 0.37, 0.37, 0.37, 0.37, 0.37, 0.37, 0.36, 0.36, 0.36, 0.36, 0.36, 0.36, 0.36, 0.35, 0.35, 0.35, 0.35]
