0 -1
1 -1
2 -1
3 -1
4 -1
5 -1
6 -1
7 -1
8 -1
9 -1
10 -1
11 -1
12 -1
13 -1
14 -1
15 237375
16 237375
17 237375
18 237375
19 236875
20 236875
21 236875
22 236875
23 236875
24 236875
25 15000
26 15000
27 15000
28 15000
29 15000
30 15000
31 15000
32 15000
33 15000
34 15000
35 15000
36 15000
37 15000
38 15000
39 15000
40 15000
41 11250
42 11250
43 11250
44 -1
45 11250
46 11250
47 11250
48 11250
49 11250
50 11250
51 11250
52 11250
53 11250
54 11250
55 11250
56 8125
57 6250
58 6250
59 6250
60 37500
61 37500
62 37500
63 37500
64 37500
65 37500
66 37500
67 19250
68 19250
69 19250
70 19250
71 19350
72 19350
73 19350
74 19350
75 22475
76 -1
77 22475
78 22475
79 22475
80 22475
81 22475
82 19200
83 19200
84 450
85 450
86 78575
87 78575
88 94200
89 94325
90 94325
91 94325
92 94325
93 16200
94 16200
95 16075
96 16075
97 16075
98 16050
99 425
100 425
101 425
102 15425
103 15425
104 15425
105 -1
106 15425
107 15425
108 15425
109 77810
110 77810
111 77810
112 78035
113 78035
114 74285
115 58530
116 58530
117 58530
118 58530
119 58530
120 58530
121 58530
122 58530
123 58530
124 54775
125 39025
126 39075
127 39075
128 39075
129 39050
130 35300
131 -1
132 19550
133 19550
134 19550
135 19550
136 19526
137 19546
138 19546
139 15796
140 46
141 49
142 49
143 49
144 24
145 24
146 24
147 24
148 62500
149 62500
150 62500
151 62500
152 62500
153 62500
154 62500
155 62500
156 -1
157 62500
158 62500
159 62500
160 62500
161 62500
162 62500
163 62500
164 62500
165 62500
166 62500
167 62500
168 46875
169 46875
170 62500
171 62500
172 62500
173 62500
174 62500
175 375000
176 375000
177 312500
178 312500
179 312500
180 312500
181 312500
182 312500
183 375000
184 62500
185 -1
186 46875
187 46875
188 46875
189 46875
190 46875
191 46875
192 46875
193 46875
194 46875
195 46875
196 46875
197 46875
198 46875
199 46875
200 46875
201 46875
202 59375
203 59375
204 59375
205 59875
206 59875
207 56750
208 56750
209 56750
210 56750
211 56850
212 56850
213 56850
214 -1
215 11975
216 11975
217 11350
218 11350
219 11350
220 8245
221 8245
222 8245
223 8245
224 8245
225 8245
226 8245
227 8215
228 8215
229 8215
230 8215
231 8215
232 38840
233 38840
234 35715
235 35715
236 34490
237 34490
238 34490
239 34490
240 34490
241 34490
242 34490
243 18840
244 18840
245 18840
246 18760
247 18760
248 18760
249 -1
250 3135
251 3135
252 3135
253 3135
254 3135
255 3735
256 3110
257 3110
258 3113
259 3113
260 3113
261 3113
262 3113
263 3113
264 3110
265 3110
266 3110
267 3110
268 3110
269 3110
270 15610
271 15610
272 15610
273 15610
274 15610
275 15610
276 15560
277 77935
278 -1
279 74180
280 74180
281 74205
282 74205
283 74205
284 58580
285 58580
286 58580
287 58457
288 58457
289 54706
290 54706
291 54706
292 54681
293 39066
294 39066
295 39066
296 39066
297 39066
298 39066
299 35191
300 35191
301 35186
302 35186
303 35186
304 35161
305 19536
306 19536
307 -1
308 19536
309 19536
310 19536
311 19536
312 19537
313 19537
314 19532
315 15657
316 15657
317 15657
318 15657
319 5
320 5
321 5
322 5
323 0
324 0
325 0
326 11250
327 11250
328 11250
329 11250
330 11250
331 11250
332 11250
333 11250
334 -1
335 11250
336 11250
337 11875
338 11875
339 11875
340 11875
341 11875
342 11250
343 8125
344 8125
345 8225
346 8225
347 8225
348 8225
349 8225
350 8225
351 8225
352 55100
353 39475
354 37600
355 37600
356 37600
357 37600
358 37600
359 37620
360 37620
361 18845
362 18845
363 -1
364 18845
365 18845
366 18840
367 18840
368 18840
369 18840
370 18840
371 18840
372 18810
373 15710
374 15710
375 15710
376 93835
377 585
378 585
379 3085
380 3060
381 15610
382 15610
383 15610
384 15610
385 15610
386 15610
387 15610
388 15610
389 15610
390 15610
391 15560
392 -1
393 15560
394 78060
395 78055
396 78055
397 74905
398 74905
399 74285
400 74285
401 74285
402 74285
403 58410
404 58410
405 58410
406 58410
407 58410
408 58285
409 58285
410 58285
411 58285
412 58285
413 58285
414 58285
415 58285
416 58285
417 58285
418 58285
419 58285
420 58285
421 58535
422 58535
423 58535
424 58535
425 58285
426 370785
427 370785
428 370775
429 370775
430 292650
431 292650
432 292650
433 273750
434 273750
435 272500
436 271875
437 193770
438 193770
439 62590
440 62590
441 62590
442 62590
443 62515
444 62515
445 62515
446 62515
447 46890
448 46890
449 46890
450 46890
451 46890
452 46890
453 46890
454 46885
455 -1
456 46885
457 62512
458 62512
459 62512
460 62517
461 296877
462 234377
463 234377
464 234377
465 234377
466 234377
467 234377
468 234377
469 234377
470 156752
471 156752
472 156752
473 156752
474 156752
475 156752
476 156752
477 156752
478 156752
479 156752
480 156752
481 156752
482 159252
483 159252
484 -1
485 159127
486 159127
487 159127
488 159127
489 159127
490 159127
491 159127
492 159127
493 159127
494 159127
495 159127
496 159127
497 159127
498 159127
499 159127
500 159127
501 159127
502 159127
503 159127
504 159127
505 159127
506 159127
507 159127
508 159127
509 237252
510 237252
511 237252
512 237253
513 -1
514 236628
515 236625
516 236625
517 236625
518 236625
519 236500
520 236500
521 236500
522 2125
523 2200
524 2200
525 2200
526 2200
527 2200
528 2200
529 2200
530 2200
531 1550
532 1550
533 1425
534 1425
535 1425
536 1425
537 1425
538 1425
539 1425
540 175
541 150
542 -1
543 150
544 75045
545 75045
546 75045
547 75045
548 77520
549 77520
550 77520
551 77520
552 77520
553 77520
554 77520
555 314754
556 314754
557 314754
558 314754
559 314754
560 314754
561 314754
562 314754
563 314754
564 314754
565 314754
566 314754
567 314754
568 314754
569 314754
570 314754
571 314750
572 314000
573 314000
574 314000
575 314000
576 314000
577 314000
578 1500
579 1500
580 1500
581 1500
582 1500
583 1500
584 1500
585 1500
586 750
587 750
588 750
589 750
590 750
591 750
592 750
593 750
594 750
595 750
596 750
597 750
598 750
599 750
600 750
601 750
602 0
603 0
604 0
605 0
606 0
607 0
608 0
609 0
610 312500
611 312500
612 312500
613 312500
614 312500
615 312500
616 312500
617 312500
618 312500
619 312500
620 312500
621 -1
622 312500
623 312500
624 312500
625 312500
626 312500
627 312500
628 312500
629 312500
630 312500
631 312500
632 312500
633 312500
634 312500
635 312500
636 312500
637 312500
638 312500
639 600
640 600
641 3100
642 3120
643 3120
644 3120
645 3120
646 3120
647 3120
648 3120
649 3120
650 -1
651 3095
652 2970
653 2345
654 14840
655 14840
656 14840
657 14840
658 14840
659 14840
660 14840
661 14840
662 14840
663 14840
664 14840
665 11690
666 11565
667 11565
668 10940
669 10935
670 10935
671 10935
672 10935
673 10935
674 10935
675 10935
676 10935
677 10935
678 10935
679 -1
680 7810
681 7660
682 7660
683 7030
684 7030
685 7030
686 7030
687 7030
688 7030
689 7030
690 7030
691 3905
692 3905
693 3905
694 3905
695 3905
696 3905
697 3905
698 3755
699 3125
700 3125
701 3125
702 3125
703 3125
704 3125
705 0
706 15003
707 15003
708 15003
709 15003
710 15003
711 15003
712 15003
713 15003
714 2503
715 2503
716 2503
717 2503
718 3003
719 3003
720 3003
721 3000
722 3000
723 500
724 500
725 500
726 600
727 600
728 600
729 600
730 600
731 75
732 75
733 95
734 -1
735 90
736 90
737 90
738 90
739 90
740 62590
741 62560
742 62560
743 62560
744 62560
745 62510
746 62510
747 75010
748 75010
749 75010
750 75010
751 75010
752 75002
753 75002
754 12502
755 12502
756 12502
757 12502
758 9377
759 9377
760 9377
761 56252
762 56252
763 -1
764 56252
765 56252
766 53627
767 38103
768 38103
769 38103
770 38100
771 38100
772 41225
773 41075
774 37950
775 37950
776 22325
777 16075
778 16075
779 16200
780 16075
781 172300
782 172300
783 172300
784 172300
785 94190
786 94190
787 78435
788 78160
789 78160
790 78160
791 78160
792 -1
793 78160
794 78155
795 78155
796 78155
797 78155
798 30
799 30
800 30
801 35
802 160
803 155
804 155
805 155
806 125
807 125
808 125
809 0
810 0
811 0
812 0
813 0
814 600
815 600
816 600
817 600
818 -1
819 450
820 450
821 450
822 450
823 450
824 450
825 450
826 450
827 450
828 450
829 450
830 450
831 450
832 450
833 450
834 450
835 450
836 450
837 450
838 450
839 325
840 325
841 50
842 50
843 12560
844 12560
845 75060
846 75060
847 75060
848 75060
849 75030
850 75030
851 75030
852 75030
853 56805
854 59305
855 59305
856 59280
857 59250
858 49876
859 49876
860 49756
861 49131
862 49131
863 49130
864 49130
865 47250
866 47250
867 47350
868 41075
869 41075
870 -1
871 37951
872 37926
873 37926
874 37800
875 31550
876 31550
877 31550
878 31315
879 31310
880 31310
881 15655
882 171905
883 121905
884 121905
885 121905
886 153155
887 153155
888 153155
889 153155
890 155725
891 155725
892 155726
893 136975
894 137480
895 137480
896 137480
897 215620
898 214995
899 -1
900 293090
901 292965
902 292965
903 292965
904 274216
905 274219
906 274219
907 274219
908 195468
909 195468
910 195438
911 195313
912 195313
913 195313
914 195313
915 176562
916 176562
917 176562
918 98437
919 97782
920 97782
921 97657
922 97657
923 97656
924 97656
925 97656
926 78906
927 78876
928 78876
929 1
930 1
931 1
932 0
933 62560
934 62560
935 62560
936 62560
937 62560
938 62510
939 62510
940 62510
941 62510
942 62510
943 62512
944 62512
945 75002
946 75002
947 75002
948 75002
949 75002
950 71877
951 11877
952 11877
953 11877
954 11877
955 11877
956 11875
957 11875
958 11250
959 11250
960 11250
961 11250
962 11250
963 11250
964 11250
965 11250
966 11250
967 -1
968 7500
969 8125
970 8125
971 53125
972 53125
973 37503
974 37503
975 37503
976 40627
977 40628
978 31253
979 31253
980 31252
981 31252
982 31252
983 281252
984 281252
985 234977
986 234977
987 234977
988 156853
989 156853
990 156853
991 156853
992 156825
993 156825
994 156700
995 156700
996 -1
997 156700
998 156700
999 156700
