1.9805263280869 -0.4999991953373
1.9787250757217 -0.50004976987839
1.9729343652725 -0.50007331371307
1.9636299610138 -0.50000125169754
1.9538042545319 -0.5000119805336
1.9440352916718 -0.50001758337021
1.9344066381454 -0.50000995397568
1.9248199462891 -0.4999812245369
1.915384888649 -0.49995049834251
1.9060386419296 -0.49991497397423
1.8967968225479 -0.49987035989761
1.8876326084137 -0.49982541799545
1.8785728216171 -0.49979248642921
1.8696123361588 -0.49974665045738
1.8607256412506 -0.49969640374184
1.8519859313965 -0.4996509552002
1.8432981967926 -0.49958473443985
1.8347107172012 -0.49947077035904
1.8262920379639 -0.49940830469131
1.8179180622101 -0.49939092993736
1.8095314502716 -0.49937170743942
1.8012793064117 -0.49949550628662
1.7930787801743 -0.49962702393532
1.7848001718521 -0.49966478347778
1.7766408920288 -0.49970310926437
1.7685731649399 -0.49972796440125
1.760594367981 -0.49989181756973
1.7525701522827 -0.5001026391983
1.7446666955948 -0.50041723251343
1.7367222309113 -0.5008202791214
1.7287728786469 -0.50129133462906
1.7207851409912 -0.50183600187302
1.7127380371094 -0.50244510173798
1.7046864032745 -0.50314956903458
1.6966173648834 -0.50392305850983
1.6884486675262 -0.50474387407303
1.680261015892 -0.50561451911926
1.6719897985458 -0.50653398036957
1.6636539697647 -0.50751769542694
1.6553052663803 -0.50854986906052
1.6469135284424 -0.50963795185089
1.6394020318985 -0.5105847120285
1.6326930522919 -0.51125484704971
1.6264667510986 -0.51179122924805
1.6194250583649 -0.51244306564331
1.6121021509171 -0.51332384347916
1.604816198349 -0.5143831372261
1.5975868701935 -0.51557940244675
1.5902879238129 -0.51679760217667
1.5830775499344 -0.51807367801666
1.5758358240128 -0.51952946186066
1.5685060024261 -0.52108478546143
1.5612089633942 -0.52272289991379
1.5539374351501 -0.52443474531174
1.5466020107269 -0.52625650167465
1.5392546653748 -0.52818119525909
1.5318013429642 -0.53023391962051
1.5243451595306 -0.53239208459854
1.5169813632965 -0.53460347652435
1.5095880031586 -0.53688454627991
1.5021321773529 -0.53926032781601
1.494611620903 -0.54179465770721
1.4871400594711 -0.54433709383011
1.4796597957611 -0.5469965338707
1.4721537828445 -0.54976254701614
1.464676618576 -0.5526202917099
1.4572018384933 -0.55556547641754
1.4497220516205 -0.55856150388718
1.4422500133514 -0.56164491176605
1.4347800016403 -0.5647674202919
1.4273190498352 -0.56795871257782
1.4193140268326 -0.57154166698456
1.410920381546 -0.57547414302826
1.4025965929031 -0.57940101623535
1.394332408905 -0.58328759670258
1.386118888855 -0.58713042736053
1.3779447078705 -0.59093195199966
1.3697828054428 -0.59470367431641
1.3616214990616 -0.59845662117004
1.3534697294235 -0.6021603345871
1.3453252315521 -0.60578048229218
1.3371735811234 -0.60941636562347
1.329030752182 -0.61299920082092
1.320907831192 -0.61655795574188
1.3127552270889 -0.62008303403854
1.304589509964 -0.62356388568878
1.2964007854462 -0.62698400020599
1.288186788559 -0.63040465116501
1.2799279689789 -0.63379657268524
1.2716666460037 -0.63716727495193
1.2633857727051 -0.64050257205963
1.2550647258759 -0.64381557703018
1.2466893196106 -0.64707905054092
1.2382836341858 -0.65031987428665
1.2298448085785 -0.6535530090332
1.2213788032532 -0.65677762031555
1.2123906612396 -0.66014075279236
1.2032016515732 -0.66345793008804
1.1940168142319 -0.66671794652939
1.1848344802856 -0.66999095678329
1.1756578683853 -0.67325621843338
1.1664712429047 -0.67653369903564
1.1573060750961 -0.67979973554611
1.1481130123138 -0.68308544158936
1.1389397382736 -0.6863626241684
1.1297522783279 -0.68964916467667
1.1205818653107 -0.69292628765106
1.1114017963409 -0.69620823860168
1.1022288799286 -0.69948184490204
1.0930479764938 -0.7027673125267
1.0838665962219 -0.70604836940765
1.0746927261353 -0.7093271613121
1.0655099153519 -0.7126060128212
1.0563209056854 -0.71588724851608
1.0471467971802 -0.7191703915596
1.0379811525345 -0.7224548459053
1.0287908315659 -0.72573411464691
1.0196278095245 -0.72900569438934
1.0104407072067 -0.73229068517685
1.001260638237 -0.73555988073349
0.99208116531372 -0.73884373903275
0.98290854692459 -0.74211657047272
0.97372591495514 -0.745401263237
0.96455585956573 -0.74868142604828
0.95537263154984 -0.75195205211639
0.94620501995087 -0.75523161888123
0.93700057268143 -0.75851142406464
0.92784130573273 -0.76178199052811
0.91866111755371 -0.76506125926971
0.90946453809738 -0.76834237575531
0.90028893947601 -0.77161586284637
0.89112269878387 -0.77489668130875
0.88193720579147 -0.77818012237549
0.87275379896164 -0.78146076202393
0.86358594894409 -0.78473961353302
0.85439699888229 -0.78802049160004
0.84523993730545 -0.79128921031952
0.83606815338135 -0.79457193613052
0.82705700397491 -0.79778891801834
0.81818264722824 -0.80094891786575
0.80943363904953 -0.80406838655472
0.80093514919281 -0.80709725618362
0.79269218444824 -0.81003570556641
0.78466582298279 -0.81289184093475
0.77686905860901 -0.81566298007965
0.76931494474411 -0.81836688518524
0.76197361946106 -0.82099610567093
0.75492608547211 -0.8234977722168
0.74822533130646 -0.82586699724197
0.74183821678162 -0.82808220386505
0.73570048809052 -0.830187022686
0.72978889942169 -0.83223068714142
0.72415459156036 -0.83417356014252
0.71878147125244 -0.83602750301361
0.71360409259796 -0.83777362108231
0.70860910415649 -0.83945739269257
0.70380359888077 -0.84111005067825
0.69904267787933 -0.84275883436203
0.69420075416565 -0.84451758861542
0.68928635120392 -0.84639579057693
0.68436628580093 -0.84834307432175
0.67955958843231 -0.85026562213898
0.674959897995 -0.85210484266281
0.67043936252594 -0.85390394926071
0.66592252254486 -0.85575389862061
0.66140687465668 -0.85761821269989
0.65707677602768 -0.8594161272049
0.65281069278717 -0.861183822155
0.64869821071625 -0.86288869380951
0.64472460746765 -0.86453783512115
0.64081686735153 -0.86616325378418
0.63705933094025 -0.86772525310516
0.6335414648056 -0.86917150020599
0.63020765781403 -0.87053334712982
0.62700605392456 -0.87183916568756
0.62393337488174 -0.87307471036911
0.62096065282822 -0.87428224086761
0.61813539266586 -0.87542247772217
0.61541163921356 -0.87652111053467
0.61280447244644 -0.87757331132889
0.61028450727463 -0.87859880924225
0.60787063837051 -0.8795725107193
0.60556042194366 -0.88049423694611
0.60331970453262 -0.88139772415161
0.60118234157562 -0.88226699829102
0.59910690784454 -0.88308399915695
0.59711843729019 -0.88387167453766
0.59521627426147 -0.88463085889816
0.59478223323822 -0.88473814725876
0.59537273645401 -0.88419276475906
0.59652721881866 -0.88324290513992
0.5977823138237 -0.88203954696655
0.59890997409821 -0.88081806898117
0.60000944137573 -0.87960016727448
0.60074800252914 -0.8785492181778
0.60002863407135 -0.87829560041428
0.59782600402832 -0.87878227233887
0.5955845117569 -0.87947463989258
0.59338796138763 -0.88024246692657
0.591148853302 -0.88108175992966
0.58896547555923 -0.88194769620895
0.58676993846893 -0.88276940584183
0.58461743593216 -0.88365793228149
0.58252060413361 -0.88447493314743
0.58043521642685 -0.88531148433685
0.5783988237381 -0.88611996173859
0.5763828754425 -0.88696658611298
0.57438069581985 -0.88786232471466
0.57238155603409 -0.88870704174042
0.57043355703354 -0.88952654600143
0.56861490011215 -0.89034968614578
0.56675225496292 -0.8911994099617
0.56497657299042 -0.89201813936234
0.56326669454575 -0.89285123348236
0.56142890453339 -0.8937429189682
0.56020593643188 -0.89409190416336
0.55929738283157 -0.8940127491951
0.55934536457062 -0.89316427707672
0.55986553430557 -0.89162886142731
0.56045752763748 -0.88962733745575
0.56099015474319 -0.88757961988449
0.56134188175201 -0.8855841755867
0.56096166372299 -0.8844541311264
0.55931681394577 -0.88471984863281
0.55756098031998 -0.8854022026062
0.55592626333237 -0.88607424497604
0.55436289310455 -0.88662922382355
0.55278795957565 -0.88725501298904
0.55119621753693 -0.88797491788864
0.54965108633041 -0.88864356279373
0.54805159568787 -0.88946640491486
0.546446621418 -0.89032918214798
0.54486262798309 -0.89128839969635
0.5433241724968 -0.89223337173462
0.541752576828 -0.89328080415726
0.5401097536087 -0.89444673061371
0.53855299949646 -0.89565765857697
0.53639560937881 -0.89822351932526
0.53382223844528 -0.90214043855667
0.53120625019073 -0.90698873996735
0.52897965908051 -0.91106432676315
0.52703243494034 -0.91459035873413
0.52534914016724 -0.917360663414
0.52376401424408 -0.91939800977707
0.52222692966461 -0.92055493593216
0.5206538438797 -0.92104512453079
0.51900219917297 -0.92151832580566
0.5173978805542 -0.92220604419708
0.51572734117508 -0.92336320877075
0.51404583454132 -0.92591971158981
0.51236659288406 -0.92975461483002
0.51099288463593 -0.93450534343719
0.50984752178192 -0.93993532657623
0.50890988111496 -0.94533616304398
0.50808608531952 -0.95077455043793
0.50732696056366 -0.95629346370697
0.5066773891449 -0.96190053224564
0.50614303350449 -0.96759712696075
0.50571262836456 -0.97317427396774
0.50542914867401 -0.97888219356537
0.50527077913284 -0.98462283611298
0.50511991977692 -0.99022424221039
0.50507897138596 -0.9958643913269
0.50521332025528 -1.0015833377838
0.50544583797455 -1.007373213768
0.50604903697968 -1.0140204429626
0.50706332921982 -1.0216960906982
0.50855904817581 -1.0301184654236
0.51059591770172 -1.0395117998123
0.51282739639282 -1.0490076541901
0.5150910615921 -1.0585041046143
0.5173516869545 -1.0680248737335
0.51957261562347 -1.0775573253632
0.52178108692169 -1.0870411396027
0.52398031949997 -1.0965245962143
0.52617472410202 -1.1060140132904
0.5283699631691 -1.1155244112015
0.53057307004929 -1.1250483989716
0.53274673223495 -1.1345282793045
0.53494244813919 -1.1440393924713
0.53714573383331 -1.1535302400589
0.53931379318237 -1.1630283594131
0.54149883985519 -1.1725078821182
0.54368621110916 -1.1820175647736
0.54587018489838 -1.1915072202682
0.54808163642883 -1.2010338306427
0.55027967691422 -1.2105199098587
0.55247008800507 -1.2200318574905
0.55465883016586 -1.229514837265
0.55684691667557 -1.239004611969
0.55904185771942 -1.2484961748123
0.56124520301819 -1.2580029964447
0.56343257427216 -1.2674984931946
0.56562530994415 -1.2770019769669
0.56781071424484 -1.2864973545074
0.5699976682663 -1.2959963083267
0.57218658924103 -1.3054904937744
0.57438313961029 -1.3149756193161
0.57658380270004 -1.3244726657867
0.57876771688461 -1.3339717388153
0.5809760093689 -1.3434655666351
0.58318483829498 -1.3529715538025
0.58537030220032 -1.3624601364136
0.58756518363953 -1.3719586133957
0.58976715803146 -1.3814568519592
0.59196215867996 -1.3909618854523
0.59415280818939 -1.4004557132721
0.59635001420975 -1.4099433422089
0.59855020046234 -1.4194514751434
0.60075008869171 -1.4289411306381
0.60294252634048 -1.4384423494339
0.60513556003571 -1.4479293823242
0.60732865333557 -1.4574376344681
0.60953104496002 -1.4669206142426
0.61166143417358 -1.4762109518051
0.61374485492706 -1.4852459430695
0.61570411920547 -1.4938762187958
0.61760079860687 -1.5021789073944
0.61938005685806 -1.510093331337
0.62111192941666 -1.5176813602448
0.62275093793869 -1.5249071121216
0.62431073188782 -1.5318620204926
0.6258003115654 -1.5384002923965
0.62718212604523 -1.5445806980133
0.62847834825516 -1.5504013299942
0.62967503070831 -1.5558620691299
0.63078373670578 -1.5609955787659
0.63182353973389 -1.5658807754517
0.63280099630356 -1.5703910589218
0.6336624622345 -1.5746562480927
0.63447278738022 -1.5786859989166
0.63527125120163 -1.582533955574
0.63599532842636 -1.5860911607742
0.63668119907379 -1.5894949436188
0.63731932640076 -1.5927255153656
0.6378585100174 -1.5956147909164
0.63836020231247 -1.5984445810318
0.63880014419556 -1.6010576486588
0.63925993442535 -1.6035740375519
0.63962405920029 -1.605931520462
0.63999074697495 -1.6082099676132
0.64031904935837 -1.6102476119995
0.64057868719101 -1.6121641397476
0.64078438282013 -1.6139796972275
0.64099735021591 -1.6157764196396
0.64118337631226 -1.6175196170807
0.64132797718048 -1.6191425323486
0.64143168926239 -1.6206957101822
0.64155352115631 -1.622177362442
0.64164686203003 -1.6236040592194
0.64177310466766 -1.6250196695328
0.64188259840012 -1.6264683008194
0.64208877086639 -1.6279175281525
0.64221686124802 -1.6293596029282
0.64235925674438 -1.6307405233383
0.64255321025848 -1.6321405172348
0.64267319440842 -1.6335108280182
0.64286321401596 -1.6349474191666
0.64303153753281 -1.6363179683685
0.64321768283844 -1.6376903057098
0.64332967996597 -1.6389869451523
0.64336812496185 -1.6402416229248
0.64335680007935 -1.6414524316788
0.64335858821869 -1.6427316665649
0.64340102672577 -1.6439130306244
0.64342480897903 -1.6450865268707
0.64330804347992 -1.6462736129761
0.6432666182518 -1.6475667953491
0.64327138662338 -1.6488987207413
0.6434577703476 -1.6503620147705
0.64371693134308 -1.6519155502319
0.64404499530792 -1.6535412073135
0.64433515071869 -1.6551078557968
0.64470851421356 -1.6567165851593
0.64519077539444 -1.6584504842758
0.64564442634583 -1.6601965427399
0.6460023522377 -1.6618484258652
0.64653253555298 -1.6635658740997
0.64705914258957 -1.6651865243912
0.64777475595474 -1.6668751239777
0.64861702919006 -1.6685905456543
0.64970254898071 -1.6705207824707
0.65066891908646 -1.6723190546036
0.65178203582764 -1.6741806268692
0.65316188335419 -1.6761192083359
0.65489828586578 -1.6781730651855
0.65682697296143 -1.6801674365997
0.65889656543732 -1.6822204589844
0.66097342967987 -1.6841548681259
0.66335874795914 -1.6861089468002
0.6658992767334 -1.6880050897598
0.66854518651962 -1.6899569034576
0.6713787317276 -1.6918179988861
0.67451131343842 -1.693675994873
0.67774760723114 -1.695486664772
0.68093883991241 -1.6971492767334
0.68454372882843 -1.6988441944122
0.6882551908493 -1.7004209756851
0.69235920906067 -1.7019720077515
0.6965628862381 -1.7033870220184
0.70122015476227 -1.7047916650772
0.70619690418243 -1.7061040401459
0.71126806735992 -1.7071793079376
0.71640568971634 -1.708217382431
0.72129392623901 -1.7091413736343
0.72640192508698 -1.7100276947021
0.73173326253891 -1.7107305526733
0.73706638813019 -1.7113711833954
0.74254810810089 -1.7118505239487
0.74812722206116 -1.7121769189835
0.75384849309921 -1.7124965190887
0.75967687368393 -1.712607383728
0.76571667194366 -1.7125873565674
0.77190768718719 -1.7124326229095
0.77824938297272 -1.712153673172
0.78483462333679 -1.7116920948029
0.79149043560028 -1.7110016345978
0.79839909076691 -1.7102043628693
0.80539208650589 -1.7092363834381
0.81232643127441 -1.7082048654556
0.81932324171066 -1.7069978713989
0.82645320892334 -1.7056601047516
0.8335794210434 -1.7042306661606
0.8406172990799 -1.7027457952499
0.84753024578094 -1.7012084722519
0.85431212186813 -1.6996301412582
0.86094284057617 -1.6980177164078
0.86747628450394 -1.6963596343994
0.87386381626129 -1.6946805715561
0.88013553619385 -1.6929728984833
0.88625508546829 -1.6912397146225
0.89225977659225 -1.6895101070404
0.8981055021286 -1.6877682209015
0.9038445353508 -1.6860033273697
0.90945929288864 -1.6842216253281
0.91495835781097 -1.6824295520782
0.92032992839813 -1.6806290149689
0.92558097839355 -1.6788349151611
0.93072271347046 -1.6770521402359
0.93574458360672 -1.6752656698227
0.94065225124359 -1.6734972000122
0.94542932510376 -1.6717389822006
0.95009171962738 -1.6699939966202
0.95463877916336 -1.6682662963867
0.95908898115158 -1.6665672063828
0.96341097354889 -1.664891242981
0.96762162446976 -1.6632388830185
0.97171765565872 -1.6616122722626
0.97564589977264 -1.6600338220596
0.97941493988037 -1.6585080623627
0.98301315307617 -1.6570411920547
0.98647546768188 -1.6556251049042
0.98973083496094 -1.6542717218399
0.99287480115891 -1.6529586315155
0.99587821960449 -1.6516954898834
0.99874794483185 -1.650484085083
1.0014908313751 -1.6493120193481
1.0041042566299 -1.6481878757477
1.00659096241 -1.6471118927002
1.0089567899704 -1.6460775136948
1.0112088918686 -1.6450984477997
1.0133494138718 -1.6441581249237
1.0159924030304 -1.6429951190948
1.0186017751694 -1.6418491601944
1.0210983753204 -1.6407444477081
1.0235028266907 -1.6396757364273
1.0258164405823 -1.6386419534683
1.0280387401581 -1.6376349925995
1.0301749706268 -1.6366698741913
1.0322136878967 -1.6357408761978
1.0341675281525 -1.6348444223404
1.0360419750214 -1.6339762210846
1.0378391742706 -1.6331427097321
1.039555311203 -1.6323429346085
1.0411871671677 -1.6315710544586
1.04274725914 -1.6308227777481
1.0442311763763 -1.6301076412201
1.0456411838531 -1.6294170618057
1.046982884407 -1.6287540197372
1.0482558012009 -1.6281169652939
1.0494655370712 -1.6275062561035
1.0506135225296 -1.6269105672836
1.0516963005066 -1.6263380050659
1.0527189970016 -1.625786781311
1.0536860227585 -1.6252504587173
1.0545941591263 -1.6247371435165
1.0569672584534 -1.6237306594849
1.0602504014969 -1.6226164102554
1.0634244680405 -1.6215966939926
1.0664882659912 -1.6206277608871
1.0694473981857 -1.6196727752686
1.0722932815552 -1.6187528371811
1.0750330686569 -1.6178646087646
1.077667593956 -1.6170060634613
1.0791628360748 -1.6163527965546
1.0796267986298 -1.6158794164658
1.0796186923981 -1.6153614521027
1.0795104503632 -1.6148010492325
1.0793759822845 -1.6142154932022
1.079229593277 -1.6136366128922
1.0790750980377 -1.6130565404892
1.0784070491791 -1.6124948263168
1.0774483680725 -1.6119321584702
1.0763911008835 -1.6113430261612
1.0752521753311 -1.6107518672943
1.074067234993 -1.6101500988007
1.0728322267532 -1.6095269918442
1.0715471506119 -1.6088730096817
1.0713620185852 -1.6081861257553
1.071604013443 -1.6075356006622
1.0717169046402 -1.606889128685
1.0716836452484 -1.6062330007553
1.071515917778 -1.60555768013
1.0712066888809 -1.6048619747162
1.070787191391 -1.604168176651
1.0714962482452 -1.603617310524
1.0732342004776 -1.6032698154449
1.075070142746 -1.6030361652374
1.0767357349396 -1.6027826070786
1.0782653093338 -1.6025320291519
1.0797140598297 -1.6022880077362
1.0810697078705 -1.602063536644
1.0823471546173 -1.6018413305283
1.0835670232773 -1.6016210317612
1.0847331285477 -1.6014114618301
1.0858461856842 -1.6012033224106
1.0869085788727 -1.6009967327118
1.0879180431366 -1.600795507431
1.0888826847076 -1.6005952358246
1.0898073911667 -1.6004009246826
1.090695142746 -1.6002113819122
1.0915478467941 -1.6000249385834
1.0923655033112 -1.5998432636261
1.0931503772736 -1.5996654033661
1.0939145088196 -1.5994896888733
1.0946564674377 -1.5993230342865
1.0953887701035 -1.5991517305374
1.0961067676544 -1.5989992618561
1.0979151725769 -1.5992479324341
1.1003638505936 -1.5998131036758
1.102862238884 -1.6004215478897
1.1045911312103 -1.6009204387665
1.105584859848 -1.6011037826538
1.1059365272522 -1.6008863449097
1.1060101985931 -1.600390791893
1.1070590019226 -1.5999652147293
1.1087704896927 -1.5999637842178
1.1107320785522 -1.6003021001816
1.1126430034637 -1.6007550954819
1.114488363266 -1.6012547016144
1.116260766983 -1.6017429828644
1.1179463863373 -1.602214217186
1.1195607185364 -1.6026595830917
1.1211076974869 -1.6030918359756
1.1225955486298 -1.6035139560699
1.124027132988 -1.6039190292358
1.1254031658173 -1.6043119430542
1.126725435257 -1.604692697525
1.1280057430267 -1.6050605773926
1.1292293071747 -1.6054159402847
1.1304070949554 -1.6057608127594
1.1315433979034 -1.6060953140259
1.1326392889023 -1.6064202785492
1.1336953639984 -1.606736779213
1.1347138881683 -1.6070444583893
1.1356991529465 -1.6073424816132
1.1366527080536 -1.6076326370239
1.1375747919083 -1.6079126596451
1.1384694576263 -1.6081873178482
1.1393353939056 -1.6084550619125
1.1401700973511 -1.6087137460709
1.1409819126129 -1.608966588974
1.1417685747147 -1.609214425087
1.1425278186798 -1.609455704689
1.1432675123215 -1.6096894741058
1.1439821720123 -1.6099188327789
1.1446769237518 -1.6101421117783
1.14535176754 -1.610358953476
1.1460072994232 -1.6105682849884
1.1466438770294 -1.6107740402222
1.1465749740601 -1.6104933023453
1.1459194421768 -1.6097247600555
1.1447522640228 -1.6084890365601
1.1433979272842 -1.6070642471313
1.1420738697052 -1.6056215763092
1.1407865285873 -1.6041679382324
1.1395852565765 -1.60273873806
1.1384166479111 -1.6013107299805
1.1380813121796 -1.6004025936127
1.1384943723679 -1.6001117229462
1.1392883062363 -1.6003230810165
1.1401288509369 -1.6005769968033
1.1409420967102 -1.6008116006851
1.141703248024 -1.6010185480118
1.1424115896225 -1.6011956930161
1.1430677175522 -1.6013448238373
1.143664598465 -1.6014585494995
1.1442151069641 -1.6015466451645
1.1447231769562 -1.6016073226929
1.1451953649521 -1.6016428470612
1.1456434726715 -1.6016546487808
1.1460425853729 -1.6016384363174
1.1464215517044 -1.6016080379486
1.1467735767365 -1.6015555858612
1.1471021175385 -1.6014814376831
1.1474031209946 -1.6013873815536
1.147688627243 -1.6012790203094
1.1479531526566 -1.6011526584625
1.1482043266296 -1.6010131835938
1.1484397649765 -1.6008573770523
1.1486634016037 -1.6006851196289
1.1488764286041 -1.6005027294159
1.1490806341171 -1.6003091335297
1.1492755413055 -1.6001024246216
1.1494648456573 -1.5998876094818
1.1496542692184 -1.5996590852737
1.1498404741287 -1.599426150322
1.1500287055969 -1.599193572998
1.1502270698547 -1.5989606380463
1.1504408121109 -1.5987380743027
1.1506828069687 -1.598534822464
1.1509630680084 -1.5983706712723
1.1512594223022 -1.59820997715
1.1515697240829 -1.5980806350708
1.1519191265106 -1.597977399826
1.1522773504257 -1.5979111194611
1.1526560783386 -1.5978848934174
1.1530644893646 -1.5978754758835
1.1535111665726 -1.597907781601
1.1539707183838 -1.5979691743851
1.1544649600983 -1.5980833768845
1.1549654006958 -1.5981978178024
1.1555079221725 -1.5983508825302
1.1560580730438 -1.5985788106918
1.1566562652588 -1.5988136529922
1.1572668552399 -1.599081158638
1.157897233963 -1.5993928909302
1.1585199832916 -1.5997197628021
1.1591491699219 -1.6000692844391
1.1597516536713 -1.6004583835602
1.1603595018387 -1.600855588913
1.1610103845596 -1.6012893915176
1.1615891456604 -1.6016702651978
1.1621416807175 -1.602042555809
1.1626532077789 -1.6023843288422
1.1631492376328 -1.6027262210846
1.1636062860489 -1.6030476093292
1.1640589237213 -1.6033661365509
1.164479136467 -1.6036770343781
1.164864897728 -1.6039650440216
1.1652519702911 -1.6042162179947
1.165630698204 -1.6044628620148
1.1659760475159 -1.6047010421753
1.1662985086441 -1.6049575805664
1.1666268110275 -1.6051946878433
1.166940331459 -1.6054292917252
1.167252779007 -1.6056592464447
1.1675161123276 -1.6058819293976
1.1677795648575 -1.6060969829559
1.168044090271 -1.6063063144684
1.168283700943 -1.6065073013306
1.1685163974762 -1.6067205667496
1.1687473058701 -1.6069082021713
1.1689674854279 -1.6070982217789
1.1691919565201 -1.6072883605957
1.1694170236588 -1.6074552536011
1.1696132421494 -1.6076362133026
1.1698024272919 -1.6078115701675
1.1699949502945 -1.6079778671265
1.1701757907867 -1.6081283092499
1.170347571373 -1.6082942485809
1.1705139875412 -1.6084547042847
1.1706740856171 -1.6086113452911
1.1708340644836 -1.6087703704834
1.1709824800491 -1.6089239120483
1.1711262464523 -1.60906291008
1.1712720394135 -1.6092113256454
1.1714034080505 -1.6093505620956
1.1715348958969 -1.6094913482666
1.1716626882553 -1.609632730484
1.1717834472656 -1.6097662448883
1.171902179718 -1.609894156456
1.172016620636 -1.6100203990936
1.1721274852753 -1.6101496219635
1.1722304821014 -1.6102674007416
1.1723337173462 -1.6103950738907
1.1724325418472 -1.6105124950409
1.1725302934647 -1.6106315851212
1.172617316246 -1.6107413768768
1.1727052927017 -1.6108509302139
1.172792673111 -1.6109597682953
1.1728737354279 -1.611058473587
1.1729546785355 -1.6111650466919
1.173033952713 -1.6112744808197
1.1731048822403 -1.6113678216934
1.1731743812561 -1.6114661693573
1.1732399463654 -1.6115601062775
1.1733075380325 -1.6116485595703
1.17336332798 -1.6117403507233
1.1734235286713 -1.6118295192719
1.1734801530838 -1.6119129657745
1.173532128334 -1.6119906902313
1.17358314991 -1.6120660305023
1.1736340522766 -1.6121339797974
1.1736834049225 -1.6122100353241
1.1737323999405 -1.6122792959213
1.1737819910049 -1.6123527288437
1.173824429512 -1.6124225854874
1.1738604307175 -1.6124885082245
1.1739010810852 -1.6125530004501
1.1739355325699 -1.612614274025
1.1739717721939 -1.6126718521118
1.1740067005157 -1.6127328872681
1.1740415096283 -1.6127914190292
1.1740698814392 -1.6128517389297
1.1740987300873 -1.6129004955292
1.1741291284561 -1.6129579544067
1.174156665802 -1.6130081415176
1.174184679985 -1.613055229187
1.1742123365402 -1.6131064891815
1.1742336750031 -1.6131556034088
1.1742564439774 -1.6132007837296
1.1742762327194 -1.6132442951202
1.1742962598801 -1.6132831573486
1.1743179559708 -1.6133276224136
1.1743351221085 -1.6133692264557
1.1743527650833 -1.6134040355682
1.1743698120117 -1.6134430170059
1.1743828058243 -1.6134773492813
1.1743986606598 -1.6135145425797
1.1744108200073 -1.6135431528091
1.1744220256805 -1.6135784387589
1.1744349002838 -1.6136100292206
1.1744472980499 -1.613639831543
1.1744544506073 -1.6136672496796
1.1744629144669 -1.613697052002
1.1744663715363 -1.613722205162
1.1744781732559 -1.6137510538101
1.1744871139526 -1.6137775182724
1.1744940280914 -1.6138000488281
1.174499630928 -1.6138207912445
1.1745048761368 -1.6138422489166
1.1745090484619 -1.6138622760773
1.1745154857635 -1.6138833761215
1.1745175123215 -1.6139034032822
1.1745220422745 -1.6139280796051
1.1745208501816 -1.613938331604
1.1745235919952 -1.6139576435089
1.1745235919952 -1.6139761209488
1.1745244264603 -1.6139857769012
1.1745265722275 -1.6140067577362
1.1745283603668 -1.6140155792236
1.1745315790176 -1.61403465271
1.1745327711105 -1.6140425205231
1.1745352745056 -1.6140508651733
1.1745336055756 -1.6140658855438
1.1745371818542 -1.6140758991241
1.1745375394821 -1.6140871047974
1.1745347976685 -1.6140956878662
1.1745356321335 -1.6141049861908
1.1745367050171 -1.6141166687012
1.1745346784592 -1.6141223907471
1.1745346784592 -1.6141359806061
1.1745369434357 -1.6141370534897
1.1745347976685 -1.6141443252563
1.174529671669 -1.6141483783722
1.1745269298553 -1.6141588687897
1.1745221614838 -1.6141583919525
1.1745145320892 -1.6141669750214
1.17451608181 -1.6141746044159
1.174516916275 -1.6141798496246
1.1745102405548 -1.6141827106476
1.1745060682297 -1.61419069767
1.1745052337646 -1.6141941547394
1.174501657486 -1.6141974925995
1.1744978427887 -1.6141986846924
1.174498796463 -1.6142082214355
1.1744912862778 -1.614207983017
1.1744898557663 -1.6142141819
1.1744863986969 -1.6142160892487
1.1744797229767 -1.6142151355743
1.1744779348373 -1.6142208576202
1.1744763851166 -1.6142292022705
1.1744743585587 -1.6142374277115
1.1744751930237 -1.6142303943634
1.1744740009308 -1.6142336130142
1.1744697093964 -1.6142333745956
1.1744661331177 -1.6142352819443
1.174462556839 -1.614236831665
1.1744621992111 -1.6142387390137
1.1744565963745 -1.6142355203629
1.1744549274445 -1.6142380237579
1.1744527816772 -1.6142339706421
1.1744495630264 -1.6142404079437
1.1744470596313 -1.6142456531525
1.1744451522827 -1.6142416000366
1.1744409799576 -1.6142400503159
1.1744366884232 -1.6142423152924
1.1744335889816 -1.6142429113388
1.1744298934937 -1.6142441034317
1.1744287014008 -1.614244222641
1.1744294166565 -1.6142425537109
1.1744250059128 -1.6142460107803
1.1744194030762 -1.6142427921295
1.1744191646576 -1.6142444610596
1.1744149923325 -1.6142421960831
1.1744149923325 -1.6142421960831
1.1744149923325 -1.6142421960831
1.1744149923325 -1.6142421960831
1.1744149923325 -1.6142421960831
1.1744149923325 -1.6142421960831
1.1744149923325 -1.6142421960831
1.1744149923325 -1.6142421960831
1.1744149923325 -1.6142421960831
1.1744149923325 -1.6142421960831
1.1744149923325 -1.6142421960831
1.1744149923325 -1.6142421960831
1.1745718717575 -1.6142313480377
1.175067782402 -1.6134042739868
1.1757568120956 -1.6119349002838
1.1765825748444 -1.6104419231415
1.1775794029236 -1.609494805336
1.1787964105606 -1.6083303689957
1.1800625324249 -1.607049703598
1.1813415288925 -1.605764746666
1.1825726032257 -1.6044677495956
1.1837823390961 -1.6031700372696
1.1849343776703 -1.601752281189
1.1860135793686 -1.6002216339111
1.1870293617249 -1.5981259346008
1.1879352331161 -1.5958592891693
1.1888922452927 -1.594463467598
1.1899024248123 -1.5919525623322
1.1908332109451 -1.5887162685394
1.1916463375092 -1.585436463356
1.1923621892929 -1.5821293592453
1.1929267644882 -1.5788290500641
1.193587064743 -1.5762425661087
1.1946694850922 -1.5742132663727
1.1957956552505 -1.5723515748978
1.1968171596527 -1.5702340602875
1.1974805593491 -1.567724943161
1.1976363658905 -1.563992857933
1.1970951557159 -1.5592610836029
1.1958303451538 -1.5538914203644
1.1941901445389 -1.5483901500702
1.1923520565033 -1.5428717136383
1.1903846263885 -1.5374172925949
1.1884002685547 -1.5322821140289
1.1863867044449 -1.5272200107574
1.1843066215515 -1.5221675634384
1.1821484565735 -1.5171045064926
1.1798169612885 -1.5121915340424
1.1773087978363 -1.5072524547577
1.174587726593 -1.5022368431091
1.1717408895493 -1.4972155094147
1.1687673330307 -1.4921103715897
1.1655510663986 -1.4870421886444
1.1621471643448 -1.4820697307587
1.1578588485718 -1.4762578010559
1.1527376174927 -1.4699867963791
1.1467666625977 -1.463245511055
1.1401216983795 -1.456197977066
1.133295416832 -1.4491536617279
1.1264637708664 -1.4421265125275
1.119707942009 -1.4350610971451
1.1129775047302 -1.4280247688293
1.1062333583832 -1.4209854602814
1.0995279550552 -1.4139497280121
1.0928227901459 -1.4069066047668
1.0861270427704 -1.3998720645905
1.0794336795807 -1.3928253650665
1.0727425813675 -1.3857916593552
1.066047668457 -1.378749370575
1.0593357086182 -1.3716769218445
1.0526522397995 -1.3646459579468
1.0459291934967 -1.3575809001923
1.0392119884491 -1.3505107164383
1.0324745178223 -1.3434302806854
1.0257414579391 -1.3363460302353
1.0190197229385 -1.3292713165283
1.0122895240784 -1.3221954107285
1.0055605173111 -1.3151191473007
0.99882477521896 -1.3080310821533
0.99210321903229 -1.3009541034698
0.98538428544998 -1.2938902378082
0.97868871688843 -1.2868347167969
0.97198963165283 -1.2797830104828
0.96528166532516 -1.2727239131927
0.95858418941498 -1.2656815052032
0.95188176631927 -1.2586214542389
0.94519984722137 -1.2515916824341
0.93850529193878 -1.2445554733276
0.93180310726166 -1.2374932765961
0.92510950565338 -1.2304390668869
0.91840791702271 -1.2233872413635
0.91167747974396 -1.2162945270538
0.90493929386139 -1.209214925766
0.89819753170013 -1.2021181583405
0.89147341251373 -1.1950389146805
0.88473427295685 -1.1879425048828
0.87799900770187 -1.1808469295502
0.87126243114471 -1.1737542152405
0.86454802751541 -1.1666834354401
0.85782051086426 -1.1595985889435
0.85112655162811 -1.1525509357452
0.84441268444061 -1.1454790830612
0.83774793148041 -1.1384563446045
0.83117783069611 -1.1315536499023
0.82474547624588 -1.1248049736023
0.81842410564423 -1.1182126998901
0.81223249435425 -1.1117737293243
0.8061620593071 -1.1054673194885
0.80021315813065 -1.0992826223373
0.79438841342926 -1.0932286977768
0.78866708278656 -1.0872666835785
0.78307074308395 -1.081426858902
0.77759009599686 -1.0756845474243
0.77221721410751 -1.070046544075
0.76698195934296 -1.0644937753677
0.76186257600784 -1.059049487114
0.75684320926666 -1.0536655187607
0.75135052204132 -1.0475876331329
0.74583786725998 -1.0413776636124
0.74039256572723 -1.0352076292038
0.73500919342041 -1.029071688652
0.72971075773239 -1.0229907035828
0.7244553565979 -1.0169180631638
0.71926760673523 -1.0108497142792
0.71420496702194 -1.0048367977142
0.70920550823212 -0.99888622760773
0.70427048206329 -0.99298459291458
0.69941675662994 -0.98714333772659
0.69465583562851 -0.98124945163727
0.68994146585464 -0.97537058591843
0.68572854995728 -0.97013008594513
0.6819913983345 -0.96577632427216
0.67830646038055 -0.96162259578705
0.6747077703476 -0.95753175020218
0.67126905918121 -0.95353621244431
0.66727149486542 -0.9485610127449
0.66304832696915 -0.94273126125336
0.65889632701874 -0.9365611076355
0.65486347675323 -0.93035471439362
0.65096127986908 -0.92417365312576
0.6471346616745 -0.91800671815872
0.64335119724274 -0.91186559200287
0.63964903354645 -0.90573090314865
0.63601905107498 -0.89957988262177
0.6325010061264 -0.89350527524948
0.6290899515152 -0.88735115528107
0.62568211555481 -0.88112896680832
0.62238442897797 -0.87485504150391
0.61914813518524 -0.8685849905014
0.615946829319 -0.86225718259811
0.61285430192947 -0.85592448711395
0.60987174510956 -0.84953033924103
0.60694193840027 -0.84316509962082
0.60408854484558 -0.83671885728836
0.60131400823593 -0.83022099733353
0.59862715005875 -0.82368195056915
0.59604799747467 -0.81704699993134
0.59348440170288 -0.81028354167938
0.59077942371368 -0.80258178710938
0.58800822496414 -0.79390448331833
0.58535015583038 -0.78450781106949
0.58279478549957 -0.77508252859116
0.58024275302887 -0.7656472325325
0.57766610383987 -0.75621372461319
0.5750378370285 -0.74680292606354
0.5724048614502 -0.73739260435104
0.56976222991943 -0.72798013687134
0.56711882352829 -0.71857208013535
0.56447756290436 -0.70919156074524
0.56185257434845 -0.69980871677399
0.55923271179199 -0.69043445587158
0.55661189556122 -0.681096971035
0.5539847612381 -0.67172157764435
0.55136388540268 -0.66238284111023
0.5487442612648 -0.65303391218185
0.546107172966 -0.64367574453354
0.54348307847977 -0.63430267572403
0.54084062576294 -0.62492620944977
0.53820413351059 -0.61553204059601
0.53557342290878 -0.60615020990372
0.5329322218895 -0.59673899412155
0.53029501438141 -0.58732378482819
0.52766817808151 -0.57792413234711
0.52502119541168 -0.56850236654282
0.52236968278885 -0.55909991264343
0.51973283290863 -0.54968273639679
0.51708513498306 -0.54028207063675
0.51445305347443 -0.53088384866714
0.51181161403656 -0.52149832248688
0.50917565822601 -0.51211988925934
0.50654804706573 -0.50276178121567
0.50390899181366 -0.49339574575424
0.50128924846649 -0.48405709862709
0.49865326285362 -0.47469401359558
0.49602079391479 -0.46531987190247
0.49338832497597 -0.45595598220825
0.49076142907143 -0.44658818840981
0.4881292283535 -0.43722733855247
0.48549228906631 -0.42781776189804
0.48285713791847 -0.41841831803322
0.48021155595779 -0.40899610519409
0.47757187485695 -0.39960259199142
0.4749328494072 -0.39018136262894
0.47229751944542 -0.3807784318924
0.46964579820633 -0.37137252092361
0.46700215339661 -0.36195787787437
0.46436634659767 -0.35256835818291
0.46173340082169 -0.34319290518761
0.45910310745239 -0.33381778001785
0.4564750790596 -0.3244654238224
0.4538497030735 -0.31509727239609
0.45123267173767 -0.30575329065323
0.44861477613449 -0.2964134812355
0.44594794511795 -0.28702259063721
0.44335317611694 -0.2776774764061
0.44072207808495 -0.26832553744316
0.43808889389038 -0.25893503427505
0.43544211983681 -0.24954743683338
0.43279924988747 -0.24015828967094
0.43015390634537 -0.23075971007347
0.4275124669075 -0.22133907675743
0.42487472295761 -0.21191504597664
0.42222937941551 -0.20250105857849
0.41958445310593 -0.19309011101723
0.41694101691246 -0.18369325995445
0.41430965065956 -0.1742996275425
0.41167515516281 -0.16490957140923
0.40905165672302 -0.15556035935879
0.40642586350441 -0.14624473452568
0.40384393930435 -0.13704957067966
0.40142542123795 -0.12838169932365
0.39920517802238 -0.12048344314098
0.39725717902184 -0.11361906677485
0.39554792642593 -0.10757397115231
0.3939788043499 -0.10203629732132
0.39253216981888 -0.09690984338522
0.39117306470871 -0.092125967144966
0.38991126418114 -0.087674975395203
0.38872021436691 -0.083507880568504
0.38762536644936 -0.079601407051086
0.38683915138245 -0.077001541852951
0.38634210824966 -0.075769260525703
0.38558456301689 -0.073776014149189
0.3848739862442 -0.072082564234734
0.38420158624649 -0.070601537823677
0.38344937562943 -0.068880990147591
0.38261321187019 -0.066637955605984
0.38170316815376 -0.064100213348866
0.38081854581833 -0.061295531690121
0.37985128164291 -0.058141149580479
0.37900525331497 -0.055371224880219
0.37810030579567 -0.052551604807377
0.37715667486191 -0.049379948526621
0.37619495391846 -0.046040695160627
0.37525227665901 -0.042815927416086
0.37433883547783 -0.039406817406416
0.3734045624733 -0.03586507961154
0.37244755029678 -0.032201323658228
0.37153917551041 -0.02868389710784
0.37050431966782 -0.024546278640628
0.36948549747467 -0.020421538501978
0.36852377653122 -0.01635224185884
0.36763000488281 -0.012429152615368
0.36682251095772 -0.0086684776470065
0.36606755852699 -0.005290640052408
0.36537539958954 -0.0023214987013489
0.36465358734131 0.00076569302473217
0.363953769207 0.0035418092738837
0.36328223347664 0.006192107219249
0.36262145638466 0.0086193606257439
0.36206790804863 0.0099714305251837
0.3614903986454 0.010357977822423
0.36081236600876 0.010492970235646
0.36005371809006 0.010360760614276
0.35924750566483 0.010032463818789
0.35840064287186 0.0093391705304384
0.35742017626762 0.0078906258568168
0.35632961988449 0.0062126610428095
0.35513892769814 0.004405771382153
0.35397133231163 0.0025288905017078
0.35273814201355 0.00056377745931968
0.35147979855537 -0.0013672851491719
0.35015738010406 -0.0032418952323496
0.34881994128227 -0.0049212351441383
0.34758004546165 -0.0062203584238887
0.34633553028107 -0.0070034479722381
0.34508526325226 -0.0075404033996165
0.34414067864418 -0.00676000257954
0.34339344501495 -0.0056316456757486
0.34264919161797 -0.0046245250850916
0.34190791845322 -0.0035132218617946
0.34118908643723 -0.0023293197154999
0.34060108661652 -0.0010387436486781
0.34008091688156 0.00025002111215144
0.33912959694862 0.0008358436753042
0.33751532435417 0.00070940842851996
0.33526998758316 -0.00018381047993898
0.33242326974869 -0.0015816811937839
0.32965272665024 -0.0025471483822912
0.32781574130058 -0.0024716916959733
0.32670491933823 -0.0013281824067235
0.32589569687843 0.00010107486741617
0.32499498128891 0.0014880709350109
0.32469218969345 0.0033272684086114
0.32486295700073 0.0055691134184599
0.32613736391068 0.008533432148397
0.3284692466259 0.012075865641236
0.33173909783363 0.015982020646334
0.33529940247536 0.019889334216714
0.33902901411057 0.023825291544199
0.34295848011971 0.027779918164015
0.34714710712433 0.031744994223118
0.3516438305378 0.035775851458311
0.35638990998268 0.039791818708181
0.36141830682755 0.043768726289272
0.36675807833672 0.047829519957304
0.37257441878319 0.051925927400589
0.37915471196175 0.056317269802094
0.38647520542145 0.060768030583858
0.39415994286537 0.065296664834023
0.40246859192848 0.07004950940609
0.41103991866112 0.07480450719595
0.41958570480347 0.079549700021744
0.42810958623886 0.084309294819832
0.43663701415062 0.089087270200253
0.44517627358437 0.093899175524712
0.45367136597633 0.098674274981022
0.462188154459 0.10348419100046
0.47068685293198 0.10826138406992
0.47920235991478 0.11306071281433
0.48767986893654 0.11784003674984
0.49616765975952 0.12263574451208
0.5046404004097 0.12740761041641
0.51300275325775 0.1320980489254
0.52124154567719 0.13671804964542
0.52926778793335 0.14119532704353
0.5370934009552 0.14555144309998
0.54475277662277 0.14979903399944
0.55226218700409 0.15394689142704
0.55955815315247 0.15798370540142
0.56671249866486 0.16193607449532
0.57368528842926 0.16581016778946
0.58048379421234 0.16959336400032
0.58712941408157 0.17332908511162
0.59357815980911 0.17696389555931
0.59988605976105 0.18056046962738
0.60702794790268 0.18476586043835
0.61423981189728 0.18905241787434
0.62127315998077 0.19332930445671
0.62821447849274 0.19760552048683
0.63510185480118 0.20185975730419
0.6417989730835 0.2060424387455
0.64836311340332 0.21016459167004
0.65489113330841 0.21433010697365
0.6613667011261 0.21848013997078
0.66771686077118 0.22260467708111
0.67396724224091 0.22673204541206
0.68011748790741 0.23082301020622
0.68620270490646 0.23489944636822
0.69215250015259 0.23898871243
0.69803386926651 0.24305269122124
0.70335406064987 0.24669976532459
0.70806550979614 0.24976472556591
0.71240025758743 0.25257375836372
0.71727275848389 0.25610142946243
0.72256004810333 0.26006323099136
0.7278915643692 0.26438182592392
0.73297774791718 0.26870459318161
0.73781543970108 0.27280122041702
0.74245691299438 0.27678424119949
0.74693763256073 0.2805860042572
0.75185537338257 0.28471547365189
0.75702261924744 0.28899210691452
0.76212430000305 0.29329365491867
0.76726067066193 0.29755640029907
0.77207523584366 0.30163529515266
0.77721875905991 0.3060285449028
0.78228497505188 0.31040820479393
0.78746277093887 0.31495293974876
0.79248386621475 0.31956350803375
0.79739755392075 0.32420340180397
0.80220240354538 0.32891339063644
0.80698221921921 0.33369681239128
0.81180560588837 0.33870840072632
0.81658726930618 0.3438196182251
0.82130777835846 0.34897643327713
0.82599276304245 0.35428413748741
0.83056223392487 0.35961049795151
0.83519679307938 0.36516660451889
0.83959186077118 0.3707292675972
0.84380406141281 0.37629783153534
0.84788429737091 0.38191276788712
0.85187673568726 0.38759127259254
0.85578453540802 0.393350481987
0.8596618771553 0.39919653534889
0.86350107192993 0.40510067343712
0.86734515428543 0.41109508275986
0.87119323015213 0.41711845993996
0.87499934434891 0.42320328950882
0.87881153821945 0.42928147315979
0.88271391391754 0.43556150794029
0.88676196336746 0.44199147820473
0.89120036363602 0.44893139600754
0.89596110582352 0.45621329545975
0.90103256702423 0.46393078565598
0.90641343593597 0.4720573425293
0.91173475980759 0.48022279143333
0.91705119609833 0.48837381601334
0.9223330616951 0.49649986624718
0.92763215303421 0.50465589761734
0.93291854858398 0.51281923055649
0.93821287155151 0.5209504365921
0.94352513551712 0.52912181615829
0.94884347915649 0.53730022907257
0.95415151119232 0.54545247554779
0.95947730541229 0.55364054441452
0.96482074260712 0.56184017658234
0.9701429605484 0.5700381398201
0.97548043727875 0.57825475931168
0.9808138012886 0.58644133806229
0.98612928390503 0.59462803602219
0.99144423007965 0.60280156135559
0.99674737453461 0.61094319820404
1.0019962787628 0.61901319026947
1.0071741342545 0.62695556879044
1.0122907161713 0.63480496406555
1.0173522233963 0.6425604224205
1.0223753452301 0.6502440571785
1.0273262262344 0.65779882669449
1.0322290658951 0.66527843475342
1.037052154541 0.67269098758698
1.0418572425842 0.68005859851837
1.046214222908 0.68667894601822
1.0503891706467 0.69284403324127
1.0545520782471 0.69903433322906
1.0585751533508 0.70505845546722
1.062549829483 0.71108031272888
1.0664641857147 0.71702367067337
1.0701439380646 0.72275573015213
1.0738332271576 0.72850173711777
1.0774953365326 0.73425757884979
1.0810569524765 0.73991501331329
1.0844823122025 0.74549901485443
1.0879213809967 0.75114560127258
1.091197013855 0.75664150714874
1.0944303274155 0.76212728023529
1.0975968837738 0.76762723922729
1.1007251739502 0.77311629056931
1.1036927700043 0.77847927808762
1.1066011190414 0.78388720750809
1.1095281839371 0.78942048549652
1.1123421192169 0.79494482278824
1.1154952049255 0.80143946409225
1.1186461448669 0.80833500623703
1.1216840744019 0.81519156694412
1.1246783733368 0.82206279039383
1.1276053190231 0.82895123958588
1.130520939827 0.83580750226974
1.1333472728729 0.84270143508911
1.1361021995544 0.84955632686615
1.1388012170792 0.85645645856857
1.1414276361465 0.86336672306061
1.1437466144562 0.86930912733078
1.1458814144135 0.87447655200958
1.1479297876358 0.87887698411942
1.1499218940735 0.88310611248016
1.1520088911057 0.88742673397064
1.1539192199707 0.89159822463989
1.1559728384018 0.8968745470047
1.1579978466034 0.9031890630722
1.1597629785538 0.91017800569534
1.1613495349884 0.91723883152008
1.1628309488297 0.92439430952072
1.1641725301743 0.93151557445526
1.1654415130615 0.93853414058685
1.1666933298111 0.94546860456467
1.1678296327591 0.95263546705246
1.168817281723 0.95974826812744
1.1696932315826 0.96679830551147
1.1705214977264 0.97396409511566
1.1712633371353 0.98101824522018
1.1719663143158 0.98799002170563
1.172562122345 0.99518233537674
1.1731001138687 1.0022118091583
1.1735039949417 1.0091754198074
1.173787355423 1.0163152217865
1.1739497184753 1.0235484838486
1.1740411520004 1.0305802822113
1.1740400791168 1.0376927852631
1.1738563776016 1.0456331968307
1.1733915805817 1.0545852184296
1.1725385189056 1.0641963481903
1.1714895963669 1.0739401578903
1.1704148054123 1.0836927890778
1.1693494319916 1.0933910608292
1.1683211326599 1.1031067371368
1.1673233509064 1.1128070354462
1.1663895845413 1.1222873926163
1.1654814481735 1.1315001249313
1.1646250486374 1.1403344869614
1.1638017892838 1.1487990617752
1.16304063797 1.1568796634674
1.162312746048 1.1646106243134
1.1616176366806 1.1720114946365
1.1609505414963 1.1790215969086
1.1603220701218 1.1856777667999
1.1597166061401 1.19189453125
1.1591602563858 1.1977497339249
1.1586329936981 1.203298330307
1.1581289768219 1.2085530757904
1.1576353311539 1.2134728431702
1.1571854352951 1.2180534601212
1.156795501709 1.2222793102264
1.1564263105392 1.2262493371964
1.1561034917831 1.2298631668091
1.1558091640472 1.2332035303116
1.155552148819 1.2362835407257
1.1553313732147 1.2391550540924
1.155149936676 1.241800904274
1.1549851894379 1.2442452907562
1.1548508405685 1.2464711666107
1.1547445058823 1.2485057115555
1.1546647548676 1.2504082918167
1.1545981168747 1.2521818876266
1.154566526413 1.2538366317749
1.1545444726944 1.2553765773773
1.154558300972 1.2567942142487
1.1545741558075 1.258115530014
1.1546078920364 1.2593368291855
1.1546728610992 1.2604863643646
1.154750585556 1.2615485191345
1.1548587083817 1.2625730037689
1.1549781560898 1.2634980678558
1.1551024913788 1.2643777132034
1.1552473306656 1.2652232646942
1.1554036140442 1.2660557031631
1.1555621623993 1.2668315172195
1.1557619571686 1.2676049470901
1.1559399366379 1.2683401107788
1.1561251878738 1.2690651416779
1.1563185453415 1.2697737216949
1.1565314531326 1.2704846858978
1.1567333936691 1.2712265253067
1.1569485664368 1.271924495697
1.1571726799011 1.2726385593414
1.1573965549469 1.2734262943268
1.1576178073883 1.274235367775
1.1578276157379 1.2750334739685
1.1580712795258 1.2758496999741
1.1583335399628 1.2767176628113
1.1585991382599 1.2775861024857
1.1588068008423 1.2785186767578
1.159000992775 1.2795504331589
1.1591626405716 1.2806504964828
1.1593145132065 1.2817095518112
1.1594564914703 1.2827553749084
1.1596276760101 1.2837624549866
1.1598161458969 1.2847236394882
1.1599632501602 1.2857692241669
1.16008913517 1.2868330478668
1.1602244377136 1.2878464460373
1.1603810787201 1.2888706922531
1.1604564189911 1.2898997068405
1.1605384349823 1.2910048961639
1.1606413125992 1.2921483516693
1.1607164144516 1.29332447052
1.1608504056931 1.2944892644882
1.1610394716263 1.2955453395844
1.1612393856049 1.2966105937958
1.1614809036255 1.2976113557816
1.1617171764374 1.2986235618591
1.1619447469711 1.2996714115143
1.1621392965317 1.3008019924164
1.1623663902283 1.3019295930862
1.1626088619232 1.3030400276184
1.1627982854843 1.3042939901352
1.1628406047821 1.30570936203
1.1628490686417 1.3071790933609
1.1627485752106 1.3086948394775
1.1626508235931 1.3102329969406
1.1625381708145 1.3118216991425
1.1623495817184 1.3133502006531
1.1621119976044 1.3149671554565
1.1617984771729 1.3166006803513
1.1613776683807 1.3183243274689
1.1608630418777 1.3200861215591
1.1601891517639 1.3218713998795
1.1593905687332 1.3237245082855
1.1583052873611 1.3256931304932
1.1570085287094 1.3276269435883
1.1554750204086 1.3297213315964
1.1536995172501 1.3318030834198
1.151767373085 1.3339432477951
1.1496903896332 1.336008310318
1.1475307941437 1.3380880355835
1.1452480554581 1.3400374650955
1.1427516937256 1.3419663906097
1.1400725841522 1.3438767194748
1.1372475624084 1.3457505702972
1.1342389583588 1.3475968837738
1.1310712099075 1.349351644516
1.1276816129684 1.3510611057281
1.1239800453186 1.3526835441589
1.1201102733612 1.3541810512543
1.1159112453461 1.3556263446808
1.1115263700485 1.3569872379303
1.1068667173386 1.3582552671432
1.1018182039261 1.3594467639923
1.0966292619705 1.3605058193207
1.0913145542145 1.3614509105682
1.0859582424164 1.3622238636017
1.0804946422577 1.3629231452942
1.0748380422592 1.363538146019
1.0690052509308 1.3640328645706
1.063060760498 1.3644028902054
1.0569665431976 1.3646064996719
1.050912976265 1.3646214008331
1.0447096824646 1.364507317543
1.0383299589157 1.3642367124557
1.0318772792816 1.3638241291046
1.025107383728 1.363331079483
1.0182753801346 1.3626927137375
1.01127409935 1.3618713617325
1.0041323900223 1.3608969449997
0.99700105190277 1.3597824573517
0.98960959911346 1.3584996461868
0.98209202289581 1.3570524454117
0.97450017929077 1.3554826974869
0.96688640117645 1.3538086414337
0.95923602581024 1.352040886879
0.95159375667572 1.3501739501953
0.94391715526581 1.3482232093811
0.9362119436264 1.3461796045303
0.92848587036133 1.3440282344818
0.92073804140091 1.341801404953
0.91295480728149 1.3394578695297
0.90511626005173 1.337020277977
0.8972527384758 1.3344933986664
0.88937836885452 1.3318730592728
0.88143712282181 1.3291561603546
0.87349492311478 1.3263559341431
0.86550778150558 1.3234651088715
0.85746365785599 1.3204655647278
0.8494348526001 1.3173913955688
0.84136265516281 1.3142374753952
0.83329695463181 1.3110202550888
0.82517832517624 1.3077068328857
0.8170291185379 1.3043292760849
0.80887633562088 1.3008750677109
0.80069005489349 1.2973487377167
0.79246956110001 1.2937430143356
0.78421396017075 1.2900803089142
0.77593040466309 1.2863490581512
0.76758682727814 1.2825403213501
0.75922328233719 1.2786794900894
0.75081074237823 1.2747528553009
0.74233812093735 1.2707649469376
0.73382085561752 1.2667129039764
0.72525185346603 1.2625948190689
0.71664255857468 1.258441567421
0.70798081159592 1.2542378902435
0.69925934076309 1.2499769926071
0.69050592184067 1.2456769943237
0.68172943592072 1.2413631677628
0.67297327518463 1.2370505332947
0.66421711444855 1.2327454090118
0.65546071529388 1.2284368276596
0.64671647548676 1.2241414785385
0.63798159360886 1.2198475599289
0.62924158573151 1.2155522108078
0.62052774429321 1.2112768888474
0.61180078983307 1.2069836854935
0.60308015346527 1.2027033567429
0.5943723320961 1.1984250545502
0.5856260061264 1.1941268444061
0.57689678668976 1.1898398399353
0.56815141439438 1.1855449676514
0.55938589572906 1.1812355518341
0.55062019824982 1.1769267320633
0.54184764623642 1.1726200580597
0.5330548286438 1.1682976484299
0.52429455518723 1.1639902591705
0.51552450656891 1.1596747636795
0.50674909353256 1.1553616523743
0.49797606468201 1.1510568857193
0.48924589157104 1.1467648744583
0.48049736022949 1.1424709558487
0.47176510095596 1.1381722688675
0.46303826570511 1.1338881254196
0.45431619882584 1.1295982599258
0.44559663534164 1.1253132820129
0.43687829375267 1.121025800705
0.42816799879074 1.1167496442795
0.41944321990013 1.1124594211578
0.41069158911705 1.1081619262695
0.40195482969284 1.1038663387299
0.39318573474884 1.0995590686798
0.38443380594254 1.0952613353729
0.37565439939499 1.0909423828125
0.36698788404465 1.0866698026657
0.35855752229691 1.0824708938599
0.35033339262009 1.0783387422562
0.34231477975845 1.074295759201
0.33445379137993 1.0703246593475
0.32674795389175 1.0664498806
0.3192166686058 1.0626633167267
0.31180974841118 1.0589499473572
0.30448520183563 1.0553098917007
0.29726213216782 1.0517548322678
0.29014712572098 1.0482711791992
0.28306859731674 1.0448590517044
0.27610296010971 1.0415498018265
0.26913672685623 1.0382931232452
0.26220679283142 1.0351129770279
0.25525444746017 1.0319945812225
0.24829490482807 1.0289422273636
0.24129764735699 1.0259580612183
0.2342199832201 1.0230238437653
0.22702634334564 1.020127415657
0.21976864337921 1.017303109169
0.21239893138409 1.0145193338394
0.20496639609337 1.0117886066437
0.1974685639143 1.009113073349
0.18990494310856 1.0064903497696
0.18226709961891 1.0039184093475
0.17456302046776 1.0014001131058
0.16679216921329 0.99892473220825
0.15894289314747 0.99650877714157
0.15105900168419 0.99414110183716
0.14308980107307 0.99181669950485
0.13507500290871 0.98954612016678
0.12700662016869 0.98732316493988
0.11891943216324 0.98515301942825
0.11076490581036 0.98302161693573
0.10249118506908 0.9809376001358
0.094073779881001 0.97887915372849
0.085559591650963 0.9768568277359
0.076959051191807 0.97486865520477
0.068279825150967 0.9729095697403
0.059532415121794 0.97098129987717
0.050697326660156 0.96906673908234
0.041810419410467 0.96718835830688
0.03287897631526 0.96533143520355
0.023920150473714 0.96350765228271
0.014910695143044 0.96169602870941
0.0059377634897828 0.95991551876068
-0.0029872893355787 0.95815724134445
-0.011937231756747 0.95642244815826
-0.02086628973484 0.95472067594528
-0.029804076999426 0.95304280519485
-0.038747947663069 0.95138835906982
-0.047708682715893 0.94975888729095
-0.056602597236633 0.94815140962601
-0.065745860338211 0.94657766819
-0.075080692768097 0.9450176358223
-0.084445908665657 0.94348067045212
-0.094016388058662 0.9419566988945
-0.1036337390542 0.94043207168579
-0.1132053360343 0.9389044046402
-0.12258414924145 0.93740952014923
-0.13170999288559 0.9358731508255
-0.14127966761589 0.9343695640564
-0.15091624855995 0.93286120891571
-0.16058899462223 0.93136036396027
-0.17025437951088 0.92986917495728
-0.17991052567959 0.92837303876877
-0.18956454098225 0.92688179016113
-0.19921883940697 0.92538756132126
-0.20877969264984 0.92390716075897
-0.2182205915451 0.92244356870651
-0.22754287719727 0.92101889848709
-0.23673593997955 0.91960191726685
-0.24576807022095 0.91821372509003
-0.25456127524376 0.91689872741699
-0.26310762763023 0.91562777757645
-0.27144926786423 0.91440868377686
-0.27953594923019 0.91323804855347
-0.28741186857224 0.9121036529541
-0.29508990049362 0.9109867811203
-0.30254504084587 0.90988367795944
-0.3097916841507 0.90882128477097
-0.31795382499695 0.9075630903244
-0.32618007063866 0.90612041950226
-0.33437126874924 0.90463817119598
-0.34244975447655 0.90315580368042
-0.35045126080513 0.90165883302689
-0.35837182402611 0.9001373052597
-0.36619716882706 0.89860218763351
-0.37393635511398 0.89704501628876
-0.38161313533783 0.89547222852707
-0.38917657732964 0.89388543367386
-0.39666616916656 0.8922621011734
-0.40408402681351 0.89060878753662
-0.41142416000366 0.88892662525177
-0.41868835687637 0.88721686601639
-0.4258873462677 0.88546133041382
-0.43303999304771 0.88367140293121
-0.44012942910194 0.8818433880806
-0.44716659188271 0.87997102737427
-0.45420828461647 0.87802857160568
-0.46095246076584 0.87614268064499
-0.46874657273293 0.8737850189209
-0.47711092233658 0.87099075317383
-0.4853712618351 0.86812245845795
-0.49354767799377 0.86527472734451
-0.50167369842529 0.86243486404419
-0.50972247123718 0.85958498716354
-0.51770395040512 0.85673868656158
-0.52556622028351 0.8538818359375
-0.53332650661469 0.85103005170822
-0.54025191068649 0.84856045246124
-0.54648643732071 0.84648656845093
-0.55294901132584 0.84444779157639
-0.55927038192749 0.8423598408699
-0.56553757190704 0.8401625752449
-0.57167518138885 0.83783292770386
-0.57779306173325 0.83538901805878
-0.58390915393829 0.83291637897491
-0.59002411365509 0.83030891418457
-0.59608340263367 0.82754039764404
-0.60215765237808 0.82465887069702
-0.60827296972275 0.82168006896973
-0.6143838763237 0.81861656904221
-0.62060743570328 0.8153470158577
-0.6268185377121 0.81190693378448
-0.63307362794876 0.80822592973709
-0.63944804668427 0.8043640255928
-0.64587116241455 0.8003733754158
-0.65230023860931 0.79627883434296
-0.65862137079239 0.79207706451416
-0.665019094944 0.78774058818817
-0.67131316661835 0.78331220149994
-0.67760330438614 0.77876365184784
-0.68384444713593 0.77418434619904
-0.68995505571365 0.7695404291153
-0.69601160287857 0.76492238044739
-0.70194602012634 0.76028168201447
-0.70832872390747 0.75524365901947
-0.71477848291397 0.74990755319595
-0.72098970413208 0.74460363388062
-0.72703695297241 0.73946177959442
-0.73298865556717 0.73442685604095
-0.73878312110901 0.72953730821609
-0.74447858333588 0.72475433349609
-0.7500473856926 0.72009456157684
-0.75553905963898 0.71551692485809
-0.76088666915894 0.71109294891357
-0.76618242263794 0.70673334598541
-0.77135235071182 0.70247942209244
-0.77647370100021 0.69830739498138
-0.78149580955505 0.69422966241837
-0.78644609451294 0.69024163484573
-0.79135537147522 0.68631374835968
-0.79619711637497 0.68247258663177
-0.80093020200729 0.678735435009
-0.80564051866531 0.67506086826324
-0.81029665470123 0.6714591383934
-0.81575000286102 0.66729056835175
-0.82045727968216 0.6638058423996
-0.82411253452301 0.66089868545532
-0.82720595598221 0.65819084644318
-0.83014309406281 0.65552747249603
-0.83312427997589 0.65287500619888
-0.8360823392868 0.6502970457077
-0.83899211883545 0.64781922101974
-0.84196293354034 0.64537292718887
-0.8449495434761 0.64298468828201
-0.84795361757278 0.64064973592758
-0.85097920894623 0.63837093114853
-0.85403478145599 0.63613349199295
-0.8571212887764 0.63394486904144
-0.86024248600006 0.63180464506149
-0.86341083049774 0.62971562147141
-0.86664247512817 0.62767088413239
-0.86993300914764 0.62565970420837
-0.87329494953156 0.62369346618652
-0.87793207168579 0.62129485607147
-0.88353931903839 0.61864525079727
-0.88937300443649 0.61624699831009
-0.89524614810944 0.61394941806793
-0.90113627910614 0.61171466112137
-0.9069989323616 0.60958051681519
-0.91289842128754 0.60749852657318
-0.91880053281784 0.60547816753387
-0.92388451099396 0.60362929105759
-0.9281359910965 0.60186779499054
-0.9314934015274 0.60010504722595
-0.9334505200386 0.59862178564072
-0.93530690670013 0.59723484516144
-0.93729048967361 0.595907330513
-0.93947219848633 0.59457492828369
-0.94271022081375 0.59318864345551
-0.94679343700409 0.59184682369232
-0.95162934064865 0.59085500240326
-0.95696240663528 0.59007406234741
-0.96230554580688 0.58943217992783
-0.96756732463837 0.58879166841507
-0.97277277708054 0.58823847770691
-0.97792708873749 0.58778715133667
-0.98249930143356 0.58737629652023
-0.98690950870514 0.58701360225677
-0.99120265245438 0.58663898706436
-0.99540108442307 0.58633100986481
-0.99947375059128 0.5860943198204
-1.0034512281418 0.58589661121368
-1.0072963237762 0.58577090501785
-1.0110377073288 0.58566731214523
-1.0147006511688 0.58561474084854
-1.0182659626007 0.58554619550705
-1.0217279195786 0.58557403087616
-1.0251032114029 0.58560168743134
-1.0284249782562 0.58563381433487
-1.031690955162 0.58564954996109
-1.0348297357559 0.58573985099792
-1.0379756689072 0.5858381986618
-1.041023015976 0.58601105213165
-1.0440239906311 0.58621895313263
-1.0469570159912 0.58639967441559
-1.0498583316803 0.58663308620453
-1.0536167621613 0.58714818954468
-1.0581082105637 0.58803200721741
-1.0631324052811 0.58924806118011
-1.0684630870819 0.59073388576508
-1.0736274719238 0.59217584133148
-1.0786144733429 0.59358012676239
-1.0835011005402 0.59492695331573
-1.0882613658905 0.59618604183197
-1.0928775072098 0.59739816188812
-1.0973609685898 0.59858417510986
-1.1017318964005 0.5997451543808
-1.1059296131134 0.6008358001709
-1.1100525856018 0.60187828540802
-1.1140466928482 0.60287034511566
-1.1179654598236 0.60381901264191
-1.1217716932297 0.60472542047501
-1.1254794597626 0.60557526350021
-1.1290843486786 0.60639923810959
-1.1326073408127 0.60719740390778
-1.1360282897949 0.60796642303467
-1.1393843889236 0.60871511697769
-1.142630815506 0.6094229221344
-1.1457966566086 0.61010301113129
-1.1494989395142 0.61074525117874
-1.1532380580902 0.61134046316147
-1.1567939519882 0.61191290616989
-1.1602809429169 0.61246067285538
-1.1637060642242 0.61299192905426
-1.1669529676437 0.61351102590561
-1.170140504837 0.61402237415314
-1.1732583045959 0.61451333761215
-1.1762850284576 0.61499899625778
-1.1791828870773 0.61545300483704
-1.1820024251938 0.61590945720673
-1.1847656965256 0.61635339260101
-1.1874504089355 0.61678457260132
-1.1900486946106 0.61720371246338
-1.1925940513611 0.61761182546616
-1.1950142383575 0.61799079179764
-1.1974065303802 0.61837768554688
-1.1996786594391 0.61874008178711
-1.201965212822 0.61911034584045
-1.204124212265 0.61944901943207
-1.2062385082245 0.61979061365128
-1.2083032131195 0.62012630701065
-1.2102806568146 0.62044185400009
-1.2122386693954 0.62076032161713
-1.2141206264496 0.62105619907379
-1.2159386873245 0.62134605646133
-1.2177045345306 0.62163507938385
-1.2194104194641 0.62190729379654
-1.2210924625397 0.62217509746552
-1.2227208614349 0.62244325876236
-1.2242742776871 0.62268650531769
-1.2258154153824 0.62293946743011
-1.2272906303406 0.62317508459091
-1.2287405729294 0.62341153621674
-1.2301075458527 0.62363529205322
-1.2314479351044 0.62385588884354
-1.2328252792358 0.62408220767975
-1.2340643405914 0.62427735328674
-1.2352892160416 0.62447553873062
-1.2365038394928 0.6246737241745
-1.2376741170883 0.62486577033997
-1.2388151884079 0.62505155801773
-1.2399301528931 0.62523847818375
-1.24101126194 0.62540721893311
-1.2420793771744 0.62558019161224
-1.2431322336197 0.62575030326843
-1.2441623210907 0.62591779232025
-1.2451860904694 0.62608915567398
-1.2461996078491 0.62625133991241
-1.2471902370453 0.62641781568527
-1.2481672763824 0.62658470869064
-1.2491397857666 0.62674176692963
-1.2491397857666 0.62674176692963
-1.2491397857666 0.62674176692963
-1.2491397857666 0.62674176692963
-1.2491397857666 0.62674176692963
-1.2491397857666 0.62674176692963
-1.2483142614365 0.62604606151581
-1.2468979358673 0.62479817867279
-1.2452087402344 0.62300711870193
-1.2428516149521 0.62082827091217
-1.2400079965591 0.61813294887543
-1.2372227907181 0.61504518985748
-1.2346875667572 0.61191177368164
-1.232453584671 0.60886561870575
-1.2304625511169 0.60589897632599
-1.2294642925262 0.60365408658981
-1.229961514473 0.60271179676056
-1.2311474084854 0.60264366865158
-1.2324756383896 0.60278743505478
-1.2339111566544 0.60298961400986
-1.2354346513748 0.60327303409576
-1.2369204759598 0.6035652756691
-1.2385448217392 0.60401558876038
-1.24027967453 0.60458773374557
-1.24201130867 0.60527461767197
-1.2430930137634 0.60540902614594
-1.2439222335815 0.6052194237709
-1.2447395324707 0.60502421855927
-1.2455399036407 0.60493493080139
-1.2464658021927 0.60497736930847
-1.2473744153976 0.60506278276443
-1.2482225894928 0.60498535633087
-1.2497564554214 0.60618567466736
-1.2519047260284 0.60862582921982
-1.2542102336884 0.61192888021469
-1.2564247846603 0.61542290449142
-1.2581517696381 0.61810439825058
-1.2595769166946 0.61997222900391
-1.260909318924 0.62134373188019
-1.2622002363205 0.62200248241425
-1.2633516788483 0.62191361188889
-1.2644052505493 0.62122774124146
-1.2654197216034 0.62070924043655
-1.2665827274323 0.620285987854
-1.2677366733551 0.61975133419037
-1.2685708999634 0.61845684051514
-1.2693582773209 0.61691462993622
-1.2701869010925 0.61559510231018
-1.2712805271149 0.61548030376434
-1.2724612951279 0.61673259735107
-1.2735811471939 0.61907827854156
-1.274528503418 0.62212604284286
-1.2753932476044 0.62528967857361
-1.2762112617493 0.62836307287216
-1.2770236730576 0.63146412372589
-1.27781021595 0.63451135158539
-1.2785251140594 0.63761270046234
-1.2791992425919 0.64072567224503
-1.2798149585724 0.64383405447006
-1.2803809642792 0.64693826436996
-1.2809108495712 0.6501150727272
-1.2814514636993 0.65321528911591
-1.2819396257401 0.65632396936417
-1.282381772995 0.65953195095062
-1.2827658653259 0.66275757551193
-1.2831076383591 0.66592764854431
-1.283429145813 0.66956663131714
-1.2837021350861 0.67321407794952
-1.2839367389679 0.6768547296524
-1.2841150760651 0.68042409420013
-1.2842342853546 0.68413734436035
-1.2845818996429 0.68616861104965
-1.2848439216614 0.68740713596344
-1.2851560115814 0.68868744373322
-1.28529047966 0.69092190265656
-1.2850680351257 0.69387316703796
-1.2844439744949 0.69749748706818
-1.2835307121277 0.70180147886276
-1.2823910713196 0.70646047592163
-1.2812286615372 0.71096068620682
-1.2801266908646 0.71530783176422
-1.2790720462799 0.71950161457062
-1.2777626514435 0.72539454698563
-1.2764655351639 0.73190820217133
-1.2752290964127 0.73810207843781
-1.2740957736969 0.7441138625145
-1.2731400728226 0.74908971786499
-1.2721512317657 0.75319910049438
-1.2711310386658 0.75712484121323
-1.2701623439789 0.76073288917542
-1.2693240642548 0.76394879817963
-1.2685101032257 0.76695567369461
-1.2678730487823 0.76913625001907
-1.2672526836395 0.77101403474808
-1.2666026353836 0.77277481555939
-1.2659661769867 0.77520680427551
-1.2654268741608 0.77773535251617
-1.2648284435272 0.78004759550095
-1.2642542123795 0.78213155269623
-1.2636048793793 0.78406810760498
-1.2630475759506 0.7859822511673
-1.2624691724777 0.78759968280792
-1.2618622779846 0.7891862988472
-1.2614877223969 0.79060143232346
-1.2614223957062 0.79170167446136
-1.2615468502045 0.79284274578094
-1.2617576122284 0.79398137331009
-1.2619608640671 0.79510360956192
-1.2621594667435 0.79620468616486
-1.2623515129089 0.79729652404785
-1.2627321481705 0.79939961433411
-1.262824177742 0.80262917280197
-1.2627923488617 0.80625760555267
-1.2627322673798 0.80986547470093
-1.262625336647 0.81322240829468
-1.2625482082367 0.81644916534424
-1.2624632120132 0.81869733333588
-1.2623547315598 0.81978893280029
-1.2624136209488 0.82020378112793
-1.2624808549881 0.8206205368042
-1.2625473737717 0.82103079557419
-1.2626125812531 0.8214362859726
-1.2626764774323 0.82184314727783
-1.2627341747284 0.82223778963089
-1.2627906799316 0.82262134552002
-1.2628483772278 0.82300442457199
-1.2629044055939 0.82337582111359
-1.262955904007 0.82373702526093
-1.2630056142807 0.82409727573395
-1.2630536556244 0.8244531750679
-1.2630981206894 0.82479906082153
-1.2631373405457 0.82513892650604
-1.2632756233215 0.8264701962471
-1.2633798122406 0.82890957593918
-1.2633488178253 0.83063697814941
-1.2633428573608 0.83111590147018
-1.263352394104 0.8313056230545
-1.2633579969406 0.83151638507843
-1.2633664608002 0.83172452449799
-1.263377904892 0.83193063735962
-1.2633831501007 0.83213222026825
-1.263392329216 0.83232641220093
-1.263402223587 0.83251315355301
-1.263409614563 0.8327020406723
-1.2634165287018 0.83288639783859
-1.2634190320969 0.83306396007538
-1.2634208202362 0.83324319124222
-1.2634159326553 0.83341914415359
-1.2634177207947 0.83358561992645
-1.2634167671204 0.83374643325806
-1.2634174823761 0.83391314744949
-1.2634069919586 0.83408051729202
-1.2634004354477 0.83423006534576
-1.2633988857269 0.83438605070114
-1.2633936405182 0.83453530073166
-1.2633856534958 0.83468610048294
-1.263379573822 0.83483439683914
-1.2633748054504 0.83497393131256
-1.2633693218231 0.83511173725128
-1.2633616924286 0.83524453639984
-1.2633531093597 0.83537876605988
-1.2633469104767 0.83551472425461
-1.2633306980133 0.83565157651901
-1.2633152008057 0.83577316999435
-1.2632972002029 0.83589494228363
-1.2632813453674 0.83601438999176
-1.2632689476013 0.83612835407257
-1.263258934021 0.8362478017807
-1.2632434368134 0.8363653421402
-1.2632262706757 0.8364771604538
-1.2632095813751 0.83658349514008
-1.2631868124008 0.83669155836105
-1.2631741762161 0.83679628372192
-1.2631566524506 0.83689594268799
-1.2631351947784 0.83699405193329
-1.2631227970123 0.83710050582886
-1.2631013393402 0.83719712495804
-1.2630832195282 0.83729428052902
-1.2630636692047 0.83739167451859
-1.2630450725555 0.83748042583466
-1.2630304098129 0.83756810426712
-1.2630132436752 0.83765572309494
-1.262989282608 0.8377400636673
-1.262974023819 0.83782875537872
-1.2629601955414 0.83790481090546
-1.2629414796829 0.83799058198929
-1.2629225254059 0.83807647228241
-1.2629059553146 0.83815956115723
-1.2628834247589 0.83823710680008
-1.262860417366 0.83831816911697
-1.2628395557404 0.83839321136475
-1.2628215551376 0.83847063779831
-1.262793302536 0.83854198455811
-1.2627679109573 0.83861148357391
-1.2627507448196 0.83868008852005
-1.2627290487289 0.83874750137329
-1.2627079486847 0.8388187289238
-1.2627079486847 0.8388187289238
-1.2627079486847 0.8388187289238
-1.2627079486847 0.8388187289238
-1.2627079486847 0.8388187289238
-1.2627079486847 0.8388187289238
-1.2628877162933 0.83908522129059
-1.2629203796387 0.8392014503479
-1.26251912117 0.83984261751175
-1.2619152069092 0.84089154005051
-1.2611374855042 0.84197616577148
-1.2586901187897 0.84367847442627
-1.2568333148956 0.84508001804352
-1.2559012174606 0.84634655714035
-1.2547236680984 0.84777468442917
-1.2535133361816 0.84915751218796
-1.2524546384811 0.85048520565033
-1.2514728307724 0.85182106494904
-1.2503116130829 0.85315972566605
-1.2490239143372 0.85447323322296
-1.2475918531418 0.85575711727142
-1.2459179162979 0.85696017742157
-1.2442418336868 0.85819405317307
-1.2424385547638 0.85943901538849
-1.24032330513 0.86060631275177
-1.2381539344788 0.86176139116287
-1.234544634819 0.86301040649414
-1.230881690979 0.86402022838593
-1.2271630764008 0.86496722698212
-1.2233521938324 0.86586552858353
-1.2195227146149 0.86668634414673
-1.2165769338608 0.86752140522003
-1.2142534255981 0.86850321292877
-1.2124735116959 0.86972665786743
-1.2106565237045 0.87095749378204
-1.2087457180023 0.87204885482788
-1.2069246768951 0.873155772686
-1.2038588523865 0.87390440702438
-1.199701666832 0.8741774559021
-1.1948454380035 0.87379187345505
-1.1896023750305 0.87287920713425
-1.1843004226685 0.87178933620453
-1.1789940595627 0.87055575847626
-1.1735637187958 0.8692239522934
-1.1681501865387 0.86777222156525
-1.162716627121 0.86614447832108
-1.1571754217148 0.86433571577072
-1.1515307426453 0.86233395338058
-1.1458457708359 0.86017960309982
-1.1401401758194 0.85787761211395
-1.1343886852264 0.85535508394241
-1.1287002563477 0.85268002748489
-1.1230810880661 0.84996140003204
-1.1174299716949 0.84704840183258
-1.1118221282959 0.84402400255203
-1.105503320694 0.84036004543304
-1.098614692688 0.83594447374344
-1.0911689996719 0.83088654279709
-1.083624958992 0.82542258501053
-1.0762181282043 0.81993931531906
-1.0689007043839 0.81457054615021
-1.0616309642792 0.80928927659988
-1.0543732643127 0.80403661727905
-1.0472091436386 0.79889738559723
-1.0400607585907 0.79379284381866
-1.0329616069794 0.78874862194061
-1.0259141921997 0.78376519680023
-1.0192837715149 0.77898168563843
-1.0128954648972 0.77438914775848
-1.0065443515778 0.76984298229218
-1.0003209114075 0.76538503170013
-0.99416732788086 0.76103842258453
-0.98719614744186 0.75627791881561
-0.97983539104462 0.75148904323578
-0.97251397371292 0.74679625034332
-0.96524429321289 0.74219608306885
-0.9579826593399 0.73767787218094
-0.95079517364502 0.73324400186539
-0.94373625516891 0.72888481616974
-0.93661892414093 0.72454237937927
-0.92966729402542 0.72035628557205
-0.9227557182312 0.71623146533966
-0.91596013307571 0.71221423149109
-0.90913850069046 0.70828318595886
-0.90233308076859 0.70440453290939
-0.89547300338745 0.70056873559952
-0.88857954740524 0.69678908586502
-0.88167732954025 0.69313585758209
-0.87470591068268 0.68948179483414
-0.86772286891937 0.68584483861923
-0.86071813106537 0.6823183298111
-0.85364663600922 0.67884337902069
-0.84650105237961 0.67538887262344
-0.83933228254318 0.67194825410843
-0.83206427097321 0.66855835914612
-0.82466870546341 0.66522538661957
-0.81726044416428 0.66199004650116
-0.80978143215179 0.65878844261169
-0.80222749710083 0.65563309192657
-0.79388791322708 0.6523050069809
-0.78478562831879 0.6489982008934
-0.77555406093597 0.64573603868484
-0.76631367206573 0.64245182275772
-0.75716358423233 0.63919168710709
-0.74801236391068 0.63591235876083
-0.73888695240021 0.63263934850693
-0.72977864742279 0.6293693780899
-0.72071218490601 0.62612015008926
-0.7116077542305 0.62284600734711
-0.70248258113861 0.61957877874374
-0.69338405132294 0.61630880832672
-0.68424636125565 0.61302667856216
-0.6750727891922 0.6097275018692
-0.66587418317795 0.60642766952515
-0.65666610002518 0.6031219959259
-0.64745205640793 0.59981685876846
-0.63817828893661 0.59649264812469
-0.62892353534698 0.59317135810852
-0.61966556310654 0.58985078334808
-0.61041593551636 0.58652406930923
-0.60120558738708 0.58321851491928
-0.59200751781464 0.57991302013397
-0.58282434940338 0.576615691185
-0.57367312908173 0.57332968711853
-0.56456083059311 0.57006096839905
-0.55545479059219 0.56679606437683
-0.5463639497757 0.56353032588959
-0.53726756572723 0.56026417016983
-0.52817893028259 0.55700576305389
-0.51908218860626 0.55373585224152
-0.50994575023651 0.55045109987259
-0.50078409910202 0.54715704917908
-0.49159345030785 0.54385954141617
-0.48237833380699 0.5405541062355
-0.47314238548279 0.53723913431168
-0.46390038728714 0.53392082452774
-0.45464462041855 0.53059464693069
-0.44539642333984 0.52728289365768
-0.43613657355309 0.52395886182785
-0.42692536115646 0.52064341306686
-0.41772904992104 0.51734429597855
-0.40854749083519 0.51404917240143
-0.39941042661667 0.51075679063797
-0.3902832865715 0.50748401880264
-0.38118144869804 0.50421178340912
-0.372080296278 0.50095170736313
-0.36298975348473 0.4976921081543
-0.35390108823776 0.4944269657135
-0.34479910135269 0.49115514755249
-0.33566254377365 0.48787865042686
-0.32649177312851 0.48458448052406
-0.31730967760086 0.48128366470337
-0.30830124020576 0.47805538773537
-0.29963541030884 0.47495684027672
-0.29156118631363 0.47204032540321
-0.28425085544586 0.46944433450699
-0.27772253751755 0.46715044975281
-0.27193301916122 0.46511515974998
-0.26715910434723 0.46347165107727
-0.26295834779739 0.46202573180199
-0.25944763422012 0.46083879470825
-0.25655534863472 0.45987462997437
-0.25489944219589 0.45940071344376
-0.25370261073112 0.4591429233551
-0.25306841731071 0.4591044485569
-0.25358846783638 0.4595373570919
-0.25486567616463 0.46033143997192
-0.25668048858643 0.46143627166748
-0.25900268554688 0.4627890586853
-0.26142412424088 0.46413698792458
-0.26398873329163 0.46565747261047
-0.26690408587456 0.46733230352402
-0.26981270313263 0.46909508109093
-0.27272233366966 0.47087725996971
-0.27563387155533 0.47275170683861
-0.27849581837654 0.47461730241776
-0.28129050135612 0.47643941640854
-0.28410214185715 0.47830691933632
-0.28697377443314 0.4802483022213
-0.28983584046364 0.48224639892578
-0.29263752698898 0.48424491286278
-0.29646438360214 0.4858705997467
-0.30141746997833 0.48842865228653
-0.30493748188019 0.4912134706974
-0.3076063990593 0.49342069029808
-0.31013613939285 0.49551287293434
-0.31265246868134 0.49759402871132
-0.31523081660271 0.49983429908752
-0.31789880990982 0.50211811065674
-0.32050424814224 0.50440937280655
-0.32313230633736 0.50671458244324
-0.32567688822746 0.50905388593674
-0.32830488681793 0.51143974065781
-0.33091586828232 0.51382482051849
-0.33347210288048 0.51619845628738
-0.33682924509048 0.51944106817245
-0.34110009670258 0.52360516786575
-0.34536594152451 0.52798897027969
-0.34960621595383 0.53262275457382
-0.35380429029465 0.53742736577988
-0.35826355218887 0.54278981685638
-0.36273318529129 0.5484544634819
-0.36719107627869 0.55438578128815
-0.37154731154442 0.56040990352631
-0.37581261992455 0.56652241945267
-0.3798648416996 0.57265663146973
-0.38381117582321 0.5789538025856
-0.38752394914627 0.58526706695557
-0.39099246263504 0.59158152341843
-0.39412149786949 0.59751188755035
-0.39707857370377 0.60331863164902
-0.39984124898911 0.60886836051941
-0.40224033594131 0.61410796642303
-0.40448945760727 0.61921298503876
-0.4066558778286 0.62434434890747
-0.40854677557945 0.6293865442276
-0.41030159592628 0.63434851169586
-0.41191735863686 0.63931715488434
-0.4129895567894 0.64344000816345
-0.41370233893394 0.64721602201462
-0.41391897201538 0.64993691444397
-0.41366896033287 0.6520482301712
-0.41334509849548 0.65409362316132
-0.41304597258568 0.65610307455063
-0.41268134117126 0.65821021795273
-0.41217231750488 0.66031414270401
-0.41148906946182 0.66215193271637
-0.41090577840805 0.66418302059174
-0.41027221083641 0.66602790355682
-0.40958300232887 0.6678501367569
-0.40886458754539 0.66953986883163
-0.40825167298317 0.67232877016068
-0.40751561522484 0.67484533786774
-0.40659102797508 0.67703378200531
-0.4056915640831 0.67889469861984
-0.40466865897179 0.67931532859802
-0.40370255708694 0.67810094356537
-0.40278521180153 0.67609125375748
-0.40194338560104 0.67350614070892
-0.40116301178932 0.67059397697449
-0.40049061179161 0.66745984554291
-0.39998120069504 0.66393238306046
-0.39954566955566 0.65997928380966
-0.39925715327263 0.65576863288879
-0.39909389615059 0.65111368894577
-0.39909788966179 0.64618664979935
-0.39917674660683 0.64111185073853
-0.39938127994537 0.6358391046524
-0.39977124333382 0.63020265102386
-0.40021738409996 0.62438052892685
-0.40082421898842 0.61824762821198
-0.40163397789001 0.61150479316711
-0.40266713500023 0.60434806346893
-0.40388971567154 0.59672075510025
-0.40524762868881 0.58905243873596
-0.40669274330139 0.58129489421844
-0.40819805860519 0.57348811626434
-0.40976491570473 0.56560957431793
-0.4114100933075 0.55769741535187
-0.41309434175491 0.54982483386993
-0.41482400894165 0.54198157787323
-0.41658872365952 0.53415477275848
-0.41840347647667 0.52630430459976
-0.42027306556702 0.51842939853668
-0.42222389578819 0.51044619083405
-0.42425408959389 0.50236636400223
-0.42634972929955 0.49411290884018
-0.42852744460106 0.48576363921165
-0.43071168661118 0.47749376296997
-0.43288141489029 0.46930202841759
-0.43503284454346 0.46114999055862
-0.43716344237328 0.45301708579063
-0.43929505348206 0.44493469595909
-0.44137769937515 0.43694615364075
-0.44340229034424 0.42905512452126
-0.44539228081703 0.42128720879555
-0.44729262590408 0.41364988684654
-0.44914755225182 0.40603169798851
-0.4509511590004 0.39848527312279
-0.45269244909286 0.39105853438377
-0.45439618825912 0.38366943597794
-0.45603361725807 0.37639319896698
-0.45762056112289 0.36917808651924
-0.4591765999794 0.36203613877296
-0.46069186925888 0.35493111610413
-0.46215668320656 0.34790998697281
-0.46358913183212 0.34092319011688
-0.46498021483421 0.33403700590134
-0.46633046865463 0.32722252607346
-0.46767362952232 0.32042104005814
-0.46898025274277 0.31368348002434
-0.47027033567429 0.30698505043983
-0.47155278921127 0.30029991269112
-0.47282776236534 0.29365056753159
-0.47411689162254 0.28691771626472
-0.47542309761047 0.28015232086182
-0.47674995660782 0.27334940433502
-0.47791767120361 0.26730042695999
-0.47901892662048 0.26219761371613
-0.48030322790146 0.25739374756813
-0.48162975907326 0.25256913900375
-0.48290076851845 0.247853115201
-0.48408991098404 0.24304108321667
-0.48522931337357 0.23733977973461
-0.48621788620949 0.23104195296764
-0.48708599805832 0.22456875443459
-0.48790723085403 0.21801419556141
-0.48869022727013 0.21145983040333
-0.48947510123253 0.20487001538277
-0.49020457267761 0.19824394583702
-0.49091202020645 0.1915594637394
-0.49155601859093 0.18483850359917
-0.49216192960739 0.17805889248848
-0.49273043870926 0.17119029164314
-0.4932513833046 0.16429269313812
-0.49371343851089 0.15731105208397
-0.49420419335365 0.15015730261803
-0.49459236860275 0.14292986690998
-0.49489921331406 0.13571234047413
-0.49516090750694 0.1285485625267
-0.49538785219193 0.12128621339798
-0.49554219841957 0.11392392963171
-0.49561801552773 0.10636930167675
-0.49561887979507 0.098839111626148
-0.49558573961258 0.09120912104845
-0.49549236893654 0.083607815206051
-0.49534076452255 0.075982302427292
-0.49503549933434 0.068459793925285
-0.49462729692459 0.060880720615387
-0.49415239691734 0.053171135485172
-0.49340668320656 0.044916711747646
-0.49237075448036 0.035623755306005
-0.49104365706444 0.026022735983133
-0.48966574668884 0.016455661505461
-0.48830771446228 0.0068918317556381
-0.48694545030594 -0.0027093307580799
-0.48559847474098 -0.012348785996437
-0.48426261544228 -0.022005135193467
-0.48291912674904 -0.031705029308796
-0.48159402608871 -0.041413500905037
-0.4802705347538 -0.051154561340809
-0.47895342111588 -0.060900181531906
-0.47763222455978 -0.070645704865456
-0.4762966632843 -0.080386817455292
-0.47497624158859 -0.090120688080788
-0.47366100549698 -0.099803328514099
-0.47233462333679 -0.10949540138245
-0.47102752327919 -0.11912499368191
-0.46972259879112 -0.12875117361546
-0.46842497587204 -0.1383488625288
-0.46713170409203 -0.14791245758533
-0.46582394838333 -0.15748335421085
-0.46452230215073 -0.1670576184988
-0.46320924162865 -0.1766451895237
-0.46189600229263 -0.18624134361744
-0.46057814359665 -0.19587489962578
-0.45926776528358 -0.20553955435753
-0.45795026421547 -0.21521039307117
-0.45662003755569 -0.22493059933186
-0.45531526207924 -0.23467135429382
-0.45399236679077 -0.24439696967602
-0.45265865325928 -0.25415310263634
-0.45134550333023 -0.26386779546738
-0.4500253200531 -0.27360406517982
-0.44871377944946 -0.28330188989639
-0.44739705324173 -0.29298695921898
-0.44608989357948 -0.30262944102287
-0.44478359818459 -0.31224662065506
-0.44348573684692 -0.32183831930161
-0.44218093156815 -0.33140620589256
-0.44087266921997 -0.3409948348999
-0.439578384161 -0.35048758983612
-0.43829289078712 -0.35987496376038
-0.43701878190041 -0.36915642023087
-0.43574261665344 -0.3783463537693
-0.43448334932327 -0.38744527101517
-0.43321800231934 -0.39643037319183
-0.43197378516197 -0.40534108877182
-0.4307516515255 -0.41413402557373
-0.42955747246742 -0.42282336950302
-0.42837968468666 -0.43142580986023
-0.42722001671791 -0.439697265625
-0.42608326673508 -0.44768032431602
-0.42499667406082 -0.45532789826393
-0.42395749688148 -0.46270745992661
-0.42293900251389 -0.46977519989014
-0.42197388410568 -0.47650814056396
-0.42105111479759 -0.48300766944885
-0.42019289731979 -0.48922830820084
-0.41935381293297 -0.49520382285118
-0.41849532723427 -0.50092881917953
-0.41773694753647 -0.50659251213074
-0.41702103614807 -0.51233398914337
-0.41634613275528 -0.51805877685547
-0.41577881574631 -0.52383559942245
-0.41527518630028 -0.53078317642212
-0.41491723060608 -0.53796136379242
-0.41463881731033 -0.5449492931366
-0.41439217329025 -0.55177813768387
-0.41419130563736 -0.55847239494324
-0.41400676965714 -0.56503981351852
-0.41386571526527 -0.57155674695969
-0.41379517316818 -0.57792264223099
-0.41379332542419 -0.58421170711517
-0.41392856836319 -0.59105217456818
-0.41412678360939 -0.59785825014114
-0.41434755921364 -0.60464811325073
-0.41464987397194 -0.61143225431442
-0.4150365293026 -0.61830639839172
-0.41548413038254 -0.62523424625397
-0.41599893569946 -0.63221800327301
-0.41652101278305 -0.63893818855286
-0.41710034012794 -0.64564311504364
-0.41774359345436 -0.65235984325409
-0.41850471496582 -0.65912628173828
-0.41933917999268 -0.6659654378891
-0.42023831605911 -0.6728532910347
-0.42105713486671 -0.67893105745316
-0.42157649993896 -0.68402922153473
-0.42187339067459 -0.68852823972702
-0.42205500602722 -0.69304043054581
-0.42253440618515 -0.69844561815262
-0.42349880933762 -0.70452415943146
-0.42484396696091 -0.71078413724899
-0.42633038759232 -0.71703654527664
-0.42790040373802 -0.72326481342316
-0.42956909537315 -0.72954362630844
-0.4313408434391 -0.73584276437759
-0.43325001001358 -0.74221104383469
-0.43528467416763 -0.74854558706284
-0.43745556473732 -0.75496280193329
-0.43973302841187 -0.76144397258759
-0.44214472174644 -0.76802384853363
-0.44470819830894 -0.7745708823204
-0.44742983579636 -0.78118360042572
-0.45028486847878 -0.78784829378128
-0.45326280593872 -0.7945368885994
-0.45637327432632 -0.8012188076973
-0.45960980653763 -0.80796766281128
-0.46299186348915 -0.81474077701569
-0.4664606153965 -0.82153862714767
-0.47009342908859 -0.82836294174194
-0.47385454177856 -0.83516418933868
-0.47769218683243 -0.84198838472366
-0.48209795355797 -0.84945905208588
-0.48711460828781 -0.85753953456879
-0.49236744642258 -0.8656662106514
-0.49764913320541 -0.87378168106079
-0.50290340185165 -0.88189524412155
-0.50814163684845 -0.89003449678421
-0.51341235637665 -0.89818984270096
-0.51869189739227 -0.90640497207642
-0.52398431301117 -0.9146294593811
-0.52926576137543 -0.92287456989288
-0.53456997871399 -0.93115121126175
-0.53989678621292 -0.93944042921066
-0.54518473148346 -0.94770765304565
-0.5504909157753 -0.95597660541534
-0.55579298734665 -0.96424448490143
-0.56105601787567 -0.97245490550995
-0.56631815433502 -0.98067170381546
-0.57156091928482 -0.98886996507645
-0.57680130004883 -0.99702340364456
-0.58202111721039 -1.005163192749
-0.58724391460419 -1.0133011341095
-0.5924414396286 -1.0214152336121
-0.59765470027924 -1.0295380353928
-0.60287564992905 -1.0376973152161
-0.60810190439224 -1.0458668470383
-0.61333972215652 -1.0540540218353
-0.61859875917435 -1.062267780304
-0.62389385700226 -1.0705096721649
-0.62917637825012 -1.078765630722
-0.63447505235672 -1.0870339870453
-0.63972079753876 -1.0952174663544
-0.64496451616287 -1.1033395528793
-0.6501402258873 -1.1113638877869
-0.65530133247375 -1.1193368434906
-0.66039204597473 -1.1271809339523
-0.66541212797165 -1.134935259819
-0.67036545276642 -1.1425923109055
-0.67526614665985 -1.1501905918121
-0.68007630109787 -1.1577109098434
-0.6848778128624 -1.165247797966
-0.68963515758514 -1.1727713346481
-0.6943451166153 -1.1803085803986
-0.69905585050583 -1.1878623962402
-0.70373201370239 -1.1954215764999
-0.70840466022491 -1.2030140161514
-0.71304041147232 -1.21062541008
-0.71765786409378 -1.2182729244232
-0.72223913669586 -1.2259442806244
-0.72681266069412 -1.2336784601212
-0.73139184713364 -1.2414772510529
-0.73594051599503 -1.2492933273315
-0.74044597148895 -1.2571365833282
-0.74493557214737 -1.2650184631348
-0.74939674139023 -1.2729475498199
-0.75381654500961 -1.2808731794357
-0.75822073221207 -1.288850903511
-0.76258891820908 -1.2968244552612
-0.76693999767303 -1.3048228025436
-0.77131885290146 -1.3132967948914
-0.77576172351837 -1.3218910694122
-0.78018587827682 -1.3304778337479
-0.78465592861176 -1.3390519618988
-0.78911411762238 -1.3476390838623
-0.79356610774994 -1.3562059402466
-0.79802262783051 -1.3648144006729
-0.80252325534821 -1.3734428882599
-0.80700969696045 -1.3820970058441
-0.81151878833771 -1.3907829523087
-0.81604880094528 -1.3994687795639
-0.82056123018265 -1.4081732034683
-0.82510888576508 -1.4169018268585
-0.82963311672211 -1.4256249666214
-0.83416432142258 -1.4343341588974
-0.83868074417114 -1.4430230855942
-0.84318697452545 -1.451730132103
-0.84767138957977 -1.4603573083878
-0.85213148593903 -1.4689500331879
-0.85652667284012 -1.4773910045624
-0.86074781417847 -1.4856064319611
-0.86478680372238 -1.4934660196304
-0.86865127086639 -1.5010154247284
-0.87235009670258 -1.5082629919052
-0.87588691711426 -1.5152387619019
-0.87927657365799 -1.5219810009003
-0.88253957033157 -1.5284526348114
-0.88567447662354 -1.5346425771713
-0.88870561122894 -1.540663599968
-0.89160978794098 -1.5463681221008
-0.89441698789597 -1.5518976449966
-0.89710772037506 -1.5571812391281
-0.89967441558838 -1.5621784925461
-0.90213507413864 -1.5670065879822
-0.90451860427856 -1.5716571807861
-0.90679371356964 -1.5760781764984
-0.90898752212524 -1.5802899599075
-0.91109961271286 -1.5843284130096
-0.91318207979202 -1.5882180929184
-0.91523206233978 -1.5919867753983
-0.91714876890182 -1.5956988334656
-0.91907179355621 -1.5992307662964
-0.92097026109695 -1.6026998758316
-0.92277586460114 -1.6060352325439
-0.92458248138428 -1.6092216968536
-0.92628061771393 -1.6122634410858
-0.9278529882431 -1.6151453256607
-0.92932260036469 -1.6178992986679
