0 -1
1 -1
2 -1
3 -1
4 -1
5 -1
6 -1
7 -1
8 509
9 509
10 66874
11 509
12 64999
13 3000
14 24
15 18625
16 315000
17 19509
18 194314
19 113
20 20384
21 281329
22 4634
23 325125
24 6025
25 2644
26 18300
27 136956
28 2629
29 62500
30 327875
31 4
32 37871
33 1771
34 2379
35 312530
36 1629
37 74
38 62600
39 3004
40 64352
41 64352
42 3028
43 312500
44 190502
45 -1
46 237377
47 315125
48 159000
49 328012
50 328012
51 124889
52 249762
53 102259
54 170014
55 118259
56 233144
57 124383
58 124383
59 387500
60 18754
61 232505
62 334250
63 62500
64 231882
65 306256
66 314375
67 306256
68 315000
69 327500
70 312500
71 303162
72 312520
73 320625
74 381287
75 381287
76 312500
77 312500
78 334375
79 381412
80 312500
81 312520
82 381287
83 75004
84 381287
85 4
86 315627
87 315627
88 378157
89 378157
90 326879
91 600
92 147037
93 4
94 231287
95 166995
96 273649
97 153162
98 153162
99 248749
100 312393
101 138163
102 312500
103 312500
104 -1
105 218163
106 8000
107 32874
108 15600
109 218168
110 218169
111 12475
112 218194
113 78120
114 165531
115 374444
116 70250
117 62500
118 296319
119 49124
120 46324
121 46319
122 218874
123 46319
124 198868
125 27544
126 296879
127 312500
128 312500
129 312500
130 312500
131 312500
132 4019
133 15500
134 12500
135 312500
136 19
137 312512
138 312512
139 312506
140 3000
141 600
142 375019
143 312575
144 187504
145 31254
146 31254
147 124
148 109379
149 120
150 62504
151 62504
152 3149
153 335024
154 331899
155 37504
156 331879
157 37504
158 -1
159 4
160 4
161 2504
