0 [1.0, 1.0, 1.0, 1.0, 1.0, 1.0, 1.0, 1.0]
1 [1.0, 1.0, 1.0, 1.0, 1.0, 1.0, 1.0, 1.0]
2 [1.0, 1.0, 1.0, 1.0, 1.0, 1.0, 1.0, 1.0]
3 [1.0, 1.0, 1.0, 1.0, 1.0, 1.0, 1.0, 1.0]
4 [1.0, 1.0, 1.0, 1.0, 1.0, 1.0, 1.0, 1.0]
5 [1.0, 1.0, 1.0, 1.0, 1.0, 1.0, 1.0, 1.0]
6 [1.0, 1.0, 1.0, 1.0, 1.0, 1.0, 1.0, 1.0]
7 [1.0, 1.0, 1.0, 1.0, 1.0, 1.0, 1.0, 1.0]
8 [1.0, 1.0, 1.0, 1.0, 1.0, 1.0, 1.0, 1.0]
9 [1.0, 1.0, 1.0, 1.0, 1.0, 1.0, 1.0, 1.0]
10 [1.0, 1.0, 1.0, 1.0, 1.0, 1.0, 1.0, 1.0]
11 [1.0, 1.0, 1.0, 1.0, 1.0, 1.0, 1.0, 1.0]
12 [1.0, 1.0, 1.0, 1.0, 1.0, 1.0, 1.0, 1.0]
13 [1.0, 1.0, 1.0, 1.0, 1.0, 1.0, 1.0, 1.0]
14 [1.0, 1.0, 1.0, 1.0, 1.0, 1.0, 1.0, 1.0]
15 [1.0, 1.0, 1.0, 1.0, 1.0, 1.0, 1.0, 1.0]
16 [1.0, 1.0, 1.0, 1.0, 1.0, 1.0, 1.0, 1.0]
17 [1.0, 1.0, 1.0, 1.0, 1.0, 1.0, 1.0, 1.0]
18 [1.0, 1.0, 1.0, 1.0, 1.0, 1.0, 1.0, 1.0]
19 [1.0, 1.0, 1.0, 1.0, 1.0, 1.0, 1.0, 1.0]
20 [1.0, 1.0, 1.0, 1.0, 1.0, 1.0, 1.0, 1.0]
21 [1.0, 1.0, 1.0, 1.0, 1.0, 1.0, 1.0, 1.0]
22 [1.0, 1.0, 1.0, 1.0, 1.0, 1.0, 1.0, 1.0]
23 [1.0, 1.0, 1.0, 1.0, 1.0, 1.0, 1.0, 1.0]
24 [1.0, 1.0, 1.0, 1.0, 1.0, 1.0, 1.0, 1.0]
25 [1.0, 1.0, 1.0, 1.0, 1.0, 1.0, 1.0, 1.0]
26 [1.0, 1.0, 1.0, 1.0, 1.0, 1.0, 1.0, 1.0]
27 [1.0, 1.0, 1.0, 1.0, 1.0, 1.0, 1.0, 1.0]
28 [1.0, 1.000167, 1.0673598, 1.4977255, 1.0673598, 1.000167, 1.0, 1.0]
29 [1.0, 1.0002239, 1.0903137, 1.6673331, 1.0903137, 1.0002239, 1.0, 1.0]
30 [1.0, 1.000175, 1.0705851, 1.5215571, 1.0705851, 1.000175, 1.0, 1.0]
31 [1.0, 1.0001326, 1.0534914, 1.3952503, 1.0534914, 1.0001326, 1.0, 1.0]
32 [1.0, 1.0001003, 1.0404366, 1.2987885, 1.0404366, 1.0001003, 1.0, 1.0]
33 [1.0, 1.0000757, 1.0305313, 1.2255979, 1.0305313, 1.0000757, 1.0, 1.0]
34 [1.0, 1.0000504, 1.0203637, 1.1504687, 1.0203637, 1.0000504, 1.0, 1.0]
35 [1.0, 0.999777, 0.9100323, 0.3352235, 0.9100323, 0.999777, 1.0, 1.0]
36 [1.0, 0.99979055, 0.9154954, 0.37559068, 0.9154954, 0.99979055, 1.0, 1.0]
37 [1.0, 0.9998392, 0.9351289, 0.52066386, 0.9351289, 0.9998392, 1.0, 1.0]
38 [1.0, 0.9998902, 0.9557121, 0.672754, 0.9557121, 0.9998902, 1.0, 1.0]
39 [1.0, 0.9999171, 0.96656, 0.7529102, 0.96656, 0.9999171, 1.0, 1.0]
40 [1.0, 0.99993736, 0.97472656, 0.8132529, 0.97472656, 0.99993736, 1.0, 1.0]
41 [1.0, 0.9999527, 0.98089874, 0.8588596, 0.98089874, 0.9999527, 1.0, 1.0]
42 [1.0, 0.999968, 0.9870932, 0.90463084, 0.9870932, 0.999968, 1.0, 1.0]
43 [1.0, 0.9999758, 0.9902452, 0.92792153, 0.9902452, 0.9999758, 1.0, 1.0]
44 [1.0, 0.99998176, 0.9926349, 0.9455787, 0.9926349, 0.99998176, 1.0, 1.0]
45 [1.0, 0.99998623, 0.9944336, 0.9588693, 0.9944336, 0.99998623, 1.0, 1.0]
46 [1.0, 0.99998957, 0.99579716, 0.96894515, 0.99579716, 0.99998957, 1.0, 1.0]
47 [1.0, 0.99999213, 0.99682355, 0.97652924, 0.99682355, 0.99999213, 1.0, 1.0]
48 [1.0, 1.0, 1.0, 1.0, 1.0, 1.0, 1.0, 1.0]
49 [1.0, 1.0, 1.0, 1.0, 1.0, 1.0, 1.0, 1.0]
