0 -3.1415925
0 -3.1415925
0 -3.1415925
0 3.1415925
0 -0.0
0 -0.0
0 -0.0
0 -0.0
0 -0.0
1 -3.1415925
1 -3.1415925
1 -3.1415925
1 3.1415925
1 -0.0
1 -0.0
1 -0.0
1 -0.0
1 -0.0
2 -3.1415925
2 -3.1415925
2 -3.1415925
2 3.1415925
2 -0.0
2 -0.0
2 -0.0
2 -0.0
2 -0.0
3 -3.1415925
3 -3.1415925
3 -3.1415925
3 3.1415925
3 -0.0
3 -0.0
3 -0.0
3 -0.0
3 -0.0
4 -3.1415925
4 -3.1415925
4 -3.1415925
4 3.1415925
4 -0.0
4 -0.0
4 -0.0
4 -0.0
4 -0.0
5 -3.1415925
5 -3.1415925
5 -3.1415925
5 3.1415925
5 -0.0
5 -0.0
5 -0.0
5 -0.0
5 -0.0
6 -3.1415925
6 -3.1415925
6 -3.1415925
6 3.1415925
6 -0.0
6 -0.0
6 -0.0
6 -0.0
6 -0.0
7 -3.1415925
7 -3.1415925
7 -3.1415925
7 3.1415925
7 -0.0
7 -0.0
7 -0.0
7 -0.0
7 -0.0
8 -3.1415925
8 -3.1415925
8 -3.1415925
8 3.1415925
8 -0.0
8 -0.0
8 -0.0
8 -0.0
8 -0.0
9 -3.1415925
9 -3.1415925
9 -3.1415925
9 3.1415925
9 -0.0
9 -0.0
9 -0.0
9 -0.0
9 -0.0
10 -3.1415925
10 -3.1415925
10 -3.1415925
10 3.1415925
10 -0.0
10 -0.0
10 -0.0
10 -0.0
10 -0.0
11 -3.1415925
11 -3.1415925
11 -3.1415925
11 3.1415925
11 -0.0
11 -0.0
11 -0.0
11 -0.0
11 -0.0
12 -3.1415925
12 -3.1415925
12 -3.1415925
12 3.1415925
12 -0.0
12 -0.0
12 -0.0
12 -0.0
12 -0.0
13 -3.1415925
13 -3.1415925
13 -3.1415925
13 3.1415925
13 -0.0
13 -0.0
13 -0.0
13 -0.0
13 -0.0
14 -3.1415925
14 -3.1415925
14 -3.1415925
14 3.1415925
14 -0.0
14 -0.0
14 -0.0
14 -0.0
14 -0.0
15 -3.1415925
15 -3.1415925
15 -3.1415925
15 3.1415925
15 -0.0
15 -0.0
15 -0.0
15 -0.0
15 -0.0
16 -3.1415925
16 -3.1415925
16 -3.1415925
16 3.1415925
16 -0.0
16 -0.0
16 -0.0
16 -0.0
16 -0.0
17 -3.1415925
17 -3.1415925
17 -3.1415925
17 3.1415925
17 -0.0
17 -0.0
17 -0.0
17 -0.0
17 -0.0
18 -3.1415925
18 -3.1415925
18 -3.1415925
18 3.1415925
18 -0.0
18 -0.0
18 -0.0
18 -0.0
18 -0.0
19 -3.1415925
19 -3.1415925
19 -3.1415925
19 3.1415925
19 -0.0
19 -0.0
19 -0.0
19 -0.0
19 -0.0
20 -3.1415925
20 -3.1415925
20 -3.1415925
20 3.1415925
20 -0.0
20 -0.0
20 -0.0
20 -0.0
20 -0.0
21 -3.1415925
21 -3.1415925
21 -3.1415925
21 3.1415925
21 -0.0
21 -0.0
21 -0.0
21 -0.0
21 -0.0
22 -3.1415925
22 -3.1415925
22 -3.1415925
22 3.1415925
22 -0.0
22 -0.0
22 -0.0
22 -0.0
22 -0.0
23 -3.1415925
23 -3.1415925
23 -3.1415925
23 3.1415925
23 -0.0
23 -0.0
23 -0.0
23 -0.0
23 -0.0
24 -3.1415925
24 -3.1415925
24 -3.1415925
24 3.1415925
24 -0.0
24 -0.0
24 -0.0
24 -0.0
24 -0.0
25 -3.1415925
25 -3.1415925
25 -3.1415925
25 3.1415925
25 -0.0
25 -0.0
25 -0.0
25 -0.0
25 -0.0
26 3.1360815
26 3.1343982
26 3.1305704
26 3.1098645
26 0.031728532
26 0.011022424
26 0.0071945
26 0.005511335
26 9.502993E-7
27 3.1360815
27 3.1343982
27 3.1305704
27 3.1098645
27 0.031728532
27 0.011022424
27 0.0071945
27 0.005511335
27 9.502993E-7
28 3.128872
28 3.1249876
28 3.116156
28 3.0684688
28 0.073134206
28 0.025438031
28 0.016605355
28 0.0127207935
28 1.3495894E-5
29 3.128872
29 3.1249876
29 3.116156
29 3.0684688
29 0.073134206
29 0.025438031
29 0.016605355
29 0.0127207935
29 1.3495894E-5
30 3.128872
30 3.1249876
30 3.116156
30 3.0684688
30 0.073134206
30 0.025438031
30 0.016605355
30 0.0127207935
30 1.3495894E-5
31 3.128872
31 3.1249876
31 3.116156
31 3.0684688
31 0.073134206
31 0.025438031
31 0.016605355
31 0.0127207935
31 1.3495894E-5
32 3.1295955
32 3.1259322
32 3.117602
32 3.0726123
32 0.06898396
32 0.023990842
32 0.015660621
32 0.011997108
32 4.230777E-6
33 3.1295955
33 3.1259322
33 3.117602
33 3.0726123
33 0.06898396
33 0.023990842
33 0.015660621
33 0.011997108
33 4.230777E-6
34 3.1293964
34 3.125672
34 3.1172032
34 3.0714643
34 0.07012002
34 0.0243885
34 0.015920456
34 0.012196292
34 -1.004045E-5
35 3.1293964
35 3.125672
35 3.1172032
35 3.0714643
35 0.07012002
35 0.0243885
35 0.015920456
35 0.012196292
35 -1.004045E-5
36 3.1294582
36 3.1257012
36 3.1171634
36 3.0702622
36 0.068276286
36 0.024103861
36 0.015788632
36 0.012134652
36 -0.0038710546
37 3.1294582
37 3.1257012
37 3.1171634
37 3.0702622
37 0.068276286
37 0.024103861
37 0.015788632
37 0.012134652
37 -0.0038710546
38 3.1290128
38 3.1250064
38 3.1159089
38 3.0640604
38 0.06776232
38 0.024647309
38 0.016258359
38 0.0125798825
38 -0.011897261
39 3.1290128
39 3.1250064
39 3.1159089
39 3.0640604
39 0.06776232
39 0.024647309
39 0.016258359
39 0.0125798825
39 -0.011897261
40 3.1284337
40 3.1240995
40 3.1142592
40 3.0554545
40 0.06741212
40 0.025364164
40 0.01687068
40 0.013159085
40 -0.021584136
41 3.1284337
41 3.1240995
41 3.1142592
41 3.0554545
41 0.06741212
41 0.025364164
41 0.01687068
41 0.013159085
41 -0.021584136
42 3.1306636
42 3.1269548
42 3.1185272
42 3.0657191
42 0.053640164
42 0.020762155
42 0.013910734
42 0.01092906
42 -0.030343737
43 3.1306636
43 3.1269548
43 3.1185272
43 3.0657191
43 0.053640164
43 0.020762155
43 0.013910734
43 0.01092906
43 -0.030343737
44 3.1304138
44 3.1265414
44 3.1177342
44 3.0606189
44 0.053292703
44 0.021025326
44 0.014157948
44 0.011179028
44 -0.036441356
45 3.1304138
45 3.1265414
45 3.1177342
45 3.0606189
45 0.053292703
45 0.021025326
45 0.014157948
45 0.011179028
45 -0.036441356
46 3.1298082
46 3.1256645
46 3.116233
46 3.0534573
46 0.055022847
46 0.022004105
46 0.014870805
46 0.011784655
46 -0.040894896
47 3.1302087
47 3.1261616
47 3.116942
47 3.0542939
47 0.05234992
47 0.021141384
47 0.0143260285
47 0.011383943
47 -0.04423564
48 3.131875
48 3.1283576
48 3.120332
48 3.0638182
48 0.04361745
48 0.017889554
48 0.012174997
48 0.009717725
48 -0.04968663
49 3.133556
49 3.1305823
49 3.1237826
49 3.0736256
49 0.03503331
49 0.014637268
49 0.0100141615
49 0.008036934
49 -0.056408715
