1.9805263280869 -0.4999991953373
1.9787250757217 -0.50004976987839
1.9729343652725 -0.50007331371307
1.9636299610138 -0.50000125169754
1.9538042545319 -0.5000119805336
1.9440352916718 -0.50001758337021
1.9344066381454 -0.50000995397568
1.9248199462891 -0.4999812245369
1.9153864383698 -0.49995285272598
1.9060122966766 -0.499915599823
1.8967882394791 -0.49988144636154
1.8876527547836 -0.49984565377235
1.8785743713379 -0.49980568885803
1.869616150856 -0.49976524710655
1.8607547283173 -0.49972930550575
1.8519413471222 -0.49966445565224
1.8432910442352 -0.4996562898159
1.8346821069717 -0.49964699149132
1.826210975647 -0.49959850311279
1.8177570104599 -0.49958592653275
1.8094384670258 -0.49956980347633
1.8011432886124 -0.49965244531631
1.792862534523 -0.49977788329124
1.784620642662 -0.49988064169884
1.7764663696289 -0.5000536441803
1.7683715820312 -0.50024926662445
1.7603670358658 -0.50041478872299
1.7523809671402 -0.50063860416412
1.7444766759872 -0.50098955631256
1.7365192174911 -0.50141203403473
1.7285108566284 -0.50192224979401
1.7204968929291 -0.50247138738632
1.7124898433685 -0.50311529636383
1.704398393631 -0.50379914045334
1.6962772607803 -0.50455641746521
1.6880943775177 -0.50538438558578
1.6798610687256 -0.50624257326126
1.6716258525848 -0.50717312097549
1.6633189916611 -0.50817543268204
1.6549714803696 -0.509192943573
1.6474885940552 -0.51018607616425
1.640928030014 -0.51079845428467
1.6347049474716 -0.51124274730682
1.6283572912216 -0.51171946525574
1.6212154626846 -0.51248794794083
1.6140069961548 -0.51348602771759
1.6067640781403 -0.51463544368744
1.5994801521301 -0.51587361097336
1.592168211937 -0.51723235845566
1.5848435163498 -0.51868790388107
1.5775420665741 -0.5202117562294
1.5701987743378 -0.52179425954819
1.562858581543 -0.52354037761688
1.5555737018585 -0.52537256479263
1.5483144521713 -0.52726465463638
1.5409752130508 -0.52929151058197
1.5335186719894 -0.53140360116959
1.5261151790619 -0.53362905979156
1.518670797348 -0.53592479228973
1.5111975669861 -0.53831136226654
1.5037187337875 -0.54077941179276
1.4962327480316 -0.54335767030716
1.4887292385101 -0.54602009057999
1.4812431335449 -0.54882144927979
1.4736951589584 -0.55169159173965
1.466250538826 -0.55462491512299
1.4587800502777 -0.55762350559235
1.4513133764267 -0.56069105863571
1.4438545703888 -0.56384885311127
1.4363635778427 -0.56704550981522
1.4289138317108 -0.57030826807022
1.420797586441 -0.57405626773834
1.412458896637 -0.57801592350006
1.4042009115219 -0.58200347423553
1.3959896564484 -0.58593744039536
1.3878376483917 -0.58982121944427
1.3797154426575 -0.59367024898529
1.3716201782227 -0.59747040271759
1.3635575771332 -0.6012299656868
1.3554871082306 -0.60497772693634
1.3474276065826 -0.60866862535477
1.3393548727036 -0.61231744289398
1.3313028812408 -0.61593061685562
1.323224902153 -0.61950588226318
1.3151630163193 -0.62303298711777
1.3070369958878 -0.62653172016144
1.2989068031311 -0.63002341985703
1.2907794713974 -0.63346189260483
1.2826228141785 -0.63689184188843
1.2744345664978 -0.64025866985321
1.2662088871002 -0.64360070228577
1.257972240448 -0.64690864086151
1.2496799230576 -0.65019226074219
1.2413494586945 -0.65344655513763
1.2329933643341 -0.65669202804565
1.2246012687683 -0.65989726781845
1.2155665159225 -0.66316515207291
1.2064192295074 -0.66644513607025
1.197216629982 -0.66971963644028
1.1880539655685 -0.67298114299774
1.1788756847382 -0.67624485492706
1.1696910858154 -0.67951864004135
1.1605063676834 -0.68279933929443
1.1513489484787 -0.68607842922211
1.1421687602997 -0.68936657905579
1.1329941749573 -0.69264560937881
1.1238129138947 -0.69593346118927
1.1146352291107 -0.69922745227814
1.1054546833038 -0.70250564813614
1.0962929725647 -0.70578575134277
1.0871160030365 -0.70908057689667
1.0779390335083 -0.71236252784729
1.0687661170959 -0.71565043926239
1.0595833063126 -0.71894198656082
1.050411939621 -0.72222793102264
1.0412409305573 -0.72551286220551
1.0320609807968 -0.72880285978317
1.0228902101517 -0.73209321498871
1.0137131214142 -0.73537397384644
1.0045348405838 -0.73867231607437
0.99535542726517 -0.74195235967636
0.98619776964188 -0.7452420592308
0.97700262069702 -0.74853318929672
0.96782559156418 -0.75182086229324
0.95865190029144 -0.75510627031326
0.94947707653046 -0.75839310884476
0.94031351804733 -0.76167875528336
0.93112361431122 -0.76497137546539
0.92195397615433 -0.76825964450836
0.91278094053268 -0.77153998613358
0.90360963344574 -0.7748367190361
0.89443838596344 -0.7781178355217
0.88525402545929 -0.78141045570374
0.87607401609421 -0.7847044467926
0.86689788103104 -0.7880003452301
0.85772532224655 -0.79127889871597
0.84855449199677 -0.79457092285156
0.83936357498169 -0.79786288738251
0.83032590150833 -0.80109119415283
0.82139950990677 -0.80429315567017
0.812635242939 -0.80743360519409
0.804030418396 -0.81049996614456
0.79569464921951 -0.81348693370819
0.78759491443634 -0.81639271974564
0.7797327041626 -0.8192041516304
0.77208912372589 -0.82193821668625
0.76467829942703 -0.82460391521454
0.75747621059418 -0.82719784975052
0.75048625469208 -0.82970637083054
0.74369370937347 -0.83214938640594
0.73706704378128 -0.83453464508057
0.73065739870071 -0.83684426546097
0.72444128990173 -0.83908861875534
0.71835434436798 -0.84128177165985
0.71246486902237 -0.843406021595
0.70676863193512 -0.84547245502472
0.70121443271637 -0.84748649597168
0.69579756259918 -0.84944915771484
0.69053763151169 -0.85134851932526
0.68545436859131 -0.85319405794144
0.68049192428589 -0.8549919128418
0.67569071054459 -0.85674142837524
0.67100656032562 -0.8584543466568
0.66646200418472 -0.86010426282883
0.66205072402954 -0.86171609163284
0.65774196386337 -0.86328566074371
0.65356910228729 -0.86480224132538
0.64952790737152 -0.86627948284149
0.64556396007538 -0.86772936582565
0.64175570011139 -0.86912059783936
0.638043820858 -0.8704776763916
0.63441079854965 -0.87180507183075
0.63091850280762 -0.87308633327484
0.62749046087265 -0.8743394613266
0.6241489648819 -0.8755646944046
0.62092596292496 -0.87674778699875
0.61777877807617 -0.87790030241013
0.6147176027298 -0.8790248632431
0.61175471544266 -0.88011085987091
0.60886108875275 -0.88117808103561
0.60610091686249 -0.88219374418259
0.60334086418152 -0.88321161270142
0.60071241855621 -0.88418138027191
0.59812843799591 -0.88513070344925
0.59559005498886 -0.88607120513916
0.59314495325089 -0.88696974515915
0.59079968929291 -0.88783550262451
0.58848601579666 -0.8886866569519
0.58624905347824 -0.88951748609543
0.58407431840897 -0.89032107591629
0.58196967840195 -0.89110040664673
0.57988035678864 -0.89187180995941
0.5778631567955 -0.89262026548386
0.57592904567719 -0.89333802461624
0.57403033971786 -0.89403998851776
0.57222551107407 -0.89470541477203
0.57039535045624 -0.89538460969925
0.56868296861649 -0.89602088928223
0.56696969270706 -0.89665949344635
0.56531077623367 -0.89727610349655
0.56468254327774 -0.89742535352707
0.56426560878754 -0.89744818210602
0.5638313293457 -0.89747112989426
0.56339359283447 -0.89751023054123
0.56299579143524 -0.89752399921417
0.56260168552399 -0.89753639698029
0.56219112873077 -0.89755690097809
0.56180340051651 -0.89756935834885
0.56145370006561 -0.8975722193718
0.56111830472946 -0.89756458997726
0.56076610088348 -0.89755952358246
0.56038922071457 -0.89757013320923
0.56001996994019 -0.89757585525513
0.55966365337372 -0.89756792783737
0.5608212351799 -0.89694625139236
0.56285589933395 -0.89582443237305
0.56483602523804 -0.894575715065
0.56669491529465 -0.8933070898056
0.56843912601471 -0.8920601606369
0.57007586956024 -0.8908206820488
0.57158064842224 -0.88958311080933
0.57305151224136 -0.88836592435837
0.57432579994202 -0.88722908496857
0.57553064823151 -0.88616144657135
0.57665139436722 -0.88515120744705
0.57768356800079 -0.88413274288177
0.57747679948807 -0.88383233547211
0.57581305503845 -0.88423413038254
0.57391566038132 -0.88471460342407
0.57209318876266 -0.88528174161911
0.57031458616257 -0.88587111234665
0.56858533620834 -0.88637399673462
0.56687653064728 -0.88689851760864
0.5652152299881 -0.88741856813431
0.56372946500778 -0.88784378767014
0.56216275691986 -0.88832473754883
0.56052005290985 -0.88887900114059
0.55892181396484 -0.88943463563919
0.55730444192886 -0.88998240232468
0.55577266216278 -0.89052790403366
0.5542938709259 -0.89107751846313
0.55292028188705 -0.89158552885056
0.55149185657501 -0.89212197065353
0.55002927780151 -0.89271658658981
0.54902112483978 -0.8927811384201
0.54838174581528 -0.89236944913864
0.54773759841919 -0.89205247163773
0.54789340496063 -0.8908783197403
0.54864370822906 -0.88902676105499
0.54955261945724 -0.88663768768311
0.55022877454758 -0.88428938388824
0.55069243907928 -0.88199836015701
0.55041563510895 -0.8805850148201
0.54887020587921 -0.88070410490036
0.54722982645035 -0.88120287656784
0.5457261800766 -0.88168895244598
0.54430019855499 -0.88212251663208
0.54279237985611 -0.88258731365204
0.5413533449173 -0.88312149047852
0.53976035118103 -0.88384532928467
0.53811341524124 -0.88469332456589
0.53663003444672 -0.88553684949875
0.53517752885818 -0.8862909078598
0.53369605541229 -0.88716477155685
0.53226798772812 -0.88801968097687
0.53084170818329 -0.88895702362061
0.52879393100739 -0.89125621318817
0.5264288187027 -0.89509326219559
0.52389353513718 -0.89981573820114
0.52152025699615 -0.90455704927444
0.51946437358856 -0.90866768360138
0.51755326986313 -0.9121640920639
0.51574832201004 -0.91498410701752
0.51422148942947 -0.91699677705765
0.51276361942291 -0.91814213991165
0.51129788160324 -0.91854095458984
0.50974547863007 -0.91896760463715
0.50813126564026 -0.91969001293182
0.50651597976685 -0.92042505741119
0.50477969646454 -0.92239606380463
0.50316631793976 -0.9256329536438
0.50183433294296 -0.92978078126907
0.50080180168152 -0.93485724925995
0.49998885393143 -0.94025433063507
0.49927887320518 -0.94562387466431
0.49871975183487 -0.95108097791672
0.49823147058487 -0.95682871341705
0.49788570404053 -0.96252357959747
0.49765521287918 -0.96820628643036
0.4975238442421 -0.97403430938721
0.49748611450195 -0.97960674762726
0.49753397703171 -0.98523396253586
0.49769434332848 -0.9909919500351
0.49801144003868 -0.99667578935623
0.49844431877136 -1.0024591684341
0.49934616684914 -1.0091879367828
0.50064039230347 -1.0169175863266
0.50247246026993 -1.0254296064377
0.50477969646454 -1.034760594368
0.50736802816391 -1.0441602468491
0.50999230146408 -1.053555727005
0.51251477003098 -1.0630006790161
0.51499408483505 -1.0724358558655
0.51748144626617 -1.0818802118301
0.51995432376862 -1.0913006067276
0.52243059873581 -1.1007082462311
0.52491438388824 -1.1101489067078
0.52739149332047 -1.1195828914642
0.52987438440323 -1.1290018558502
0.53235292434692 -1.1384332180023
0.53484654426575 -1.147855758667
0.53729641437531 -1.1572790145874
0.5397686958313 -1.1667141914368
0.54224675893784 -1.1761252880096
0.54471796751022 -1.185565829277
0.54719436168671 -1.1949836015701
0.54967218637466 -1.2044160366058
0.55215090513229 -1.2138606309891
0.55461537837982 -1.2232741117477
0.55709958076477 -1.2327177524567
0.55956637859344 -1.242126584053
0.56203061342239 -1.2515604496002
0.56451231241226 -1.2609860897064
0.56700503826141 -1.270406961441
0.56947147846222 -1.2798173427582
0.57194137573242 -1.2892553806305
0.57440888881683 -1.2986862659454
0.57688009738922 -1.3081164360046
0.57936310768127 -1.3175592422485
0.58183109760284 -1.3269765377045
0.5843101143837 -1.3364124298096
0.58678060770035 -1.3458195924759
0.58926898241043 -1.3552672863007
0.59175390005112 -1.3646800518036
0.59421825408936 -1.3741060495377
0.59667837619781 -1.3835247755051
0.5991570353508 -1.3929594755173
0.60163885354996 -1.4024078845978
0.60411107540131 -1.4118152856827
0.60658848285675 -1.4212503433228
0.60905921459198 -1.4306684732437
0.61153447628021 -1.4401007890701
0.61401009559631 -1.4495010375977
0.61646908521652 -1.4589524269104
0.6189432144165 -1.46834897995
0.62136501073837 -1.4775158166885
0.62370252609253 -1.4864262342453
0.62592148780823 -1.4949996471405
0.62804508209229 -1.5032404661179
0.63007301092148 -1.5110867023468
0.63202631473541 -1.5186129808426
0.63389426469803 -1.5258158445358
0.63567280769348 -1.53262591362
0.63730818033218 -1.5390293598175
0.63882231712341 -1.5450872182846
0.64026749134064 -1.550777554512
0.64158809185028 -1.5561553239822
0.64283311367035 -1.5611974000931
0.64400613307953 -1.5659753084183
0.64504504203796 -1.5704758167267
0.64602363109589 -1.5746141672134
0.64694690704346 -1.5786092281342
0.64782381057739 -1.5823690891266
0.64868348836899 -1.5859926939011
0.64944940805435 -1.5892417430878
