0 [0.0, 0.0, 0.0, 0.0, 0.0, 0.0, 0.0, 0.0]
1 [0.0, 0.0, 0.0, 0.0, 0.0, 0.0, 0.0, 0.0]
2 [0.0, 0.0, 0.0, 0.0, 0.0, 0.0, 0.0, 0.0]
3 [0.0, 0.0, 0.0, 0.0, 0.0, 0.0, 0.0, 0.0]
4 [0.0, 0.0, 0.0, 0.0, 0.0, 0.0, 0.0, 0.0]
5 [0.0, 0.0, 0.0, 0.0, 0.0, 0.0, 0.0, 0.0]
6 [0.0, 0.0, 0.0, 0.0, 0.0, 0.0, 0.0, 0.0]
7 [0.0, 0.0, 0.0, 0.0, 0.0, 0.0, 0.0, 0.0]
8 [0.0, 0.0, 0.0, 0.0, 0.0, 0.0, 0.0, 0.0]
9 [0.07065384, 0.047346152, 0.047346152, 0.10165385, 0.10165385, 0.046346154, 0.046346154, 0.046346154]
10 [0.07065384, 0.047346152, 0.047346152, 0.10165385, 0.10165385, 0.046346154, 0.046346154, 0.046346154]
11 [0.44436812, 0.05536813, 0.049631864, 0.9773681, 0.9023681, 0.04463187, 0.042631872, 0.041631874]
12 [0.06936813, 0.05536813, 0.049631864, 0.10236813, 0.10236813, 0.04463187, 0.042631872, 0.041631874]
13 [0.06936813, 0.05536813, 0.049631864, 0.10236813, 0.10236813, 0.04463187, 0.042631872, 0.041631874]
14 [0.94285166, 0.06085164, 0.052148346, 0.9917405, 0.9927405, 0.043148354, 0.04085165, 0.03614836]
15 [0.06785165, 0.06085164, 0.052148346, 0.10285165, 0.103851646, 0.043148354, 0.04085165, 0.03614836]
16 [0.14820147, 0.14720148, 0.9727985, 1.0185348, 1.0195348, 0.18720147, 0.12520146, 0.9507986]
17 [0.06486813, 0.063868135, 0.056131862, 0.10186813, 0.10286813, 0.10386813, 0.041868128, 0.03413188]
18 [0.93986815, 0.063868135, 0.056131862, 0.47686812, 0.47786814, 0.10386813, 0.041868128, 0.03413188]
19 [0.11214287, 1.01538, 0.121616706, 1.7033544, 1.1520759, 1.0541034, 0.09485714, 0.09485714]
20 [0.56378025, 0.064792514, 0.06650736, 0.86843956, 0.65045184, 0.104239546, 0.045219775, 0.046219774]
21 [0.063780226, 0.064789556, 0.06536999, 0.07829974, 0.11027551, 0.104234785, 0.045219775, 0.046219774]
22 [0.8200165, 0.23570883, 0.24290822, 1.2932789, 0.9131139, 0.10537231, 0.2136521, 0.04798352]
23 [0.07351649, 0.07752286, 0.07597485, 0.08239254, 0.17878988, 0.1165008, 0.04949504, 0.053483512]
24 [0.07351649, 0.077521294, 0.07537364, 0.0776199, 0.16458516, 0.114637755, 0.0494929, 0.053483512]
25 [0.5692033, 0.15163898, 0.15146972, 1.19072, 1.4941638, 0.6410602, 0.17725082, 0.1262253]
26 [0.0692033, 0.08018456, 0.06993386, 0.022650281, 0.12647808, 0.11042018, 0.10580823, 0.05479671]
27 [0.5645, 0.18446377, 0.16529797, 0.43341762, 1.1702456, 1.039725, 0.20751707, 0.95849997]
28 [0.5602363, 0.16958386, 0.17223564, 0.19722462, 1.2416837, 0.6210025, 0.10777043, 0.14409707]
29 [0.060236257, 0.08624348, 0.086056106, 0.09039349, 0.11945501, 0.107776724, 0.1077688, 0.060763735]
30 [0.5545, 0.9885639, 0.18824011, 1.0681347, 0.31524146, 0.5511825, 0.110474184, 0.96349996]
31 [0.04938462, 0.09138909, 0.08603129, 0.08039303, 0.024932493, 0.10093896, 0.11359308, 0.06661539]
32 [0.04938462, 0.091388, 0.085629195, 0.079134434, 0.032652803, 0.10300485, 0.1135984, 0.06661539]
33 [0.5329066, 0.092909195, 0.09697461, 0.08913052, 0.3789375, 0.5861137, 0.11907995, 0.12209341]
34 [0.7829066, 0.09290845, 0.096666776, 0.08820114, 0.04755783, 0.8360693, 0.11908382, 0.12209341]
35 [0.021780225, 0.072761774, 0.98504484, 0.020311814, 0.055384684, 0.050005406, 0.1267066, 0.12721978]
36 [0.89678025, 0.072765104, 0.09416495, 0.031453785, 0.055944897, 0.41290078, 0.49619702, 0.12721978]
37 [0.031956047, 0.043037158, 0.55617505, 0.30915824, 0.4789377, 0.53732955, 0.5160261, 0.63995606]
38 [0.04328022, 0.01971744, 0.056843955, 0.37693575, 0.5000523, 0.54384524, 0.5172667, 0.65028024]
39 [0.04328022, 0.019718017, 0.057548363, 0.06852985, 0.06539233, 0.04931862, 0.8922626, 0.15028022]
40 [0.04467033, 0.01766933, 0.041362617, 0.06926305, 0.09022034, 0.06866644, 0.02032968, 0.045670327]
41 [0.9965729, 0.019026656, 0.032403447, 0.057294983, 0.1290097, 0.12297311, 0.0764263, 0.08848202]
42 [0.9965729, 0.019026855, 0.032542426, 0.059414178, 0.13057692, 0.12309739, 0.07642649, 0.08848202]
43 [0.9569799, 0.93497986, 0.024686823, 0.05068682, 0.16702014, 1.0033535, 0.94931316, 0.12364653]
44 [0.040313188, 0.018312847, 0.024503173, 0.047900654, 0.08306426, 0.08668522, 0.07431319, 0.040313188]
45 [1.0818791, 0.9758663, 0.019555759, 0.038115416, 0.062329214, 1.0421842, 0.1228022, 0.78134066]
46 [0.11303297, 0.011966913, 0.023871694, 0.034909867, 0.04976827, 0.067966364, 0.08403297, 0.08403297]
47 [1.0463663, 0.38696414, 0.9544223, 0.035168048, 0.04981681, 0.06796653, 0.21736631, 1.0173663]
48 [0.10613736, 0.09613737, 0.026862638, 0.036862627, 0.046862643, 0.05886263, 0.073137365, 0.084137365]
49 [0.10613736, 0.09613737, 0.026862638, 0.036862627, 0.046862643, 0.05886263, 0.073137365, 0.084137365]
