1.1055272817612 1.475000500679
1.1039761304855 1.4740040302277
1.1000244617462 1.4717342853546
1.0951707363129 1.4691959619522
1.0894693136215 1.4662103652954
1.0832747220993 1.4630386829376
1.0769917964935 1.4598064422607
1.0706743001938 1.4563004970551
1.0643621683121 1.4526665210724
1.0579640865326 1.4488304853439
1.0514231920242 1.4448661804199
1.0449845790863 1.4407836198807
1.0385582447052 1.4366194009781
1.0320563316345 1.4321299791336
1.0254684686661 1.4275563955307
1.0189006328583 1.4228372573853
1.0123196840286 1.4180051088333
1.0056934356689 1.4130351543427
0.9990217089653 1.4079620838165
0.99230700731277 1.4027582406998
0.98556363582611 1.3974406719208
0.97875559329987 1.3919895887375
0.97192716598511 1.3864433765411
0.96503353118896 1.3807390928268
0.95811587572098 1.3749430179596
0.95115506649017 1.3690369129181
0.94414222240448 1.363020658493
0.93706685304642 1.3568829298019
0.92994630336761 1.3506652116776
0.92277383804321 1.3443515300751
0.91552889347076 1.3379460573196
0.90825641155243 1.3314619064331
0.90098792314529 1.3249804973602
0.89370203018188 1.318491101265
0.88642728328705 1.3120119571686
0.87915754318237 1.3055341243744
0.87187212705612 1.2990367412567
0.86461114883423 1.2925727367401
0.85731983184814 1.2860802412033
0.85004961490631 1.2796001434326
0.84277248382568 1.2731287479401
0.83548384904861 1.2666339874268
0.82819950580597 1.2601518630981
0.82092082500458 1.2536689043045
0.81363278627396 1.2471792697906
0.80636513233185 1.2407034635544
0.79909193515778 1.2342307567596
0.79180312156677 1.2277435064316
0.78451764583588 1.221257686615
0.77723544836044 1.2147707939148
0.76997238397598 1.2082988023758
0.76268684864044 1.2018152475357
0.75541192293167 1.1953321695328
0.74812060594559 1.188854932785
0.74085652828217 1.1823728084564
0.73356378078461 1.1758818626404
0.72628182172775 1.1693984270096
0.71901911497116 1.1629321575165
0.71174454689026 1.1564509868622
0.70447051525116 1.149970293045
0.6971909403801 1.1434851884842
0.68991124629974 1.1370069980621
0.68262737989426 1.1305264234543
0.67535012960434 1.124051451683
0.66806769371033 1.1175562143326
0.66080498695374 1.1110962629318
0.65351134538651 1.1045969724655
0.646235704422 1.0981217622757
0.63896012306213 1.0916419029236
0.63166850805283 1.0851492881775
0.62439686059952 1.0786725282669
0.61711776256561 1.0721881389618
0.60983246564865 1.0657054185867
0.6025630235672 1.0592383146286
0.5952832698822 1.0527497529984
0.58800655603409 1.0462709665298
0.58072447776794 1.0397822856903
