0 [0.0, 0.0, 0.0, 0.0, 0.0, 0.0, 0.0, 0.0]
1 [0.0, 0.0, 0.0, 0.0, 0.0, 0.0, 0.0, 0.0]
2 [0.0, 0.0, 0.0, 0.0, 0.0, 0.0, 0.0, 0.0]
3 [0.0, 0.0, 0.0, 0.0, 0.0, 0.0, 0.0, 0.0]
4 [0.0, 0.0, 0.0, 0.0, 0.0, 0.0, 0.0, 0.0]
5 [0.0, 0.0, 0.0, 0.0, 0.0, 0.0, 0.0, 0.0]
6 [0.0, 0.0, 0.0, 0.0, 0.0, 0.0, 0.0, 0.0]
7 [0.0, 0.0, 0.0, 0.0, 0.0, 0.0, 0.0, 0.0]
8 [0.0, 0.0, 0.0, 0.0, 0.0, 0.0, 0.0, 0.0]
9 [0.0, 0.0, 0.0, 0.0, 0.0, 0.0, 0.0, 0.0]
10 [0.0, 0.0, 0.0, 0.0, 0.0, 0.0, 0.0, 0.0]
11 [0.08637912, 0.15037912, 0.15137912, 0.15137912, 0.108620875, 0.105620876, 0.10162088, 0.09662089]
12 [0.084835164, 0.3660574, 1.034724, 1.034724, 1.0020537, 0.110164836, 0.32638708, 0.98405373]
13 [0.084835164, 0.14383517, 1.0208352, 1.0208352, 0.113164835, 0.110164836, 0.104164846, 0.09516483]
14 [0.083653845, 0.069987185, 0.16898717, 0.16998717, 1.1096795, 0.11634616, 1.0886796, 0.11767951]
15 [0.083653845, 0.03665385, 0.13565384, 1.0116539, 0.12634616, 0.11634616, 0.10534614, 0.08434617]
16 [0.081401095, 0.042401098, 0.1204011, 0.1244011, 0.1375989, 0.12359891, 0.1105989, 0.09259889]
17 [0.08195605, 0.049956042, 0.71971065, 0.78262275, 0.78762275, 0.80371064, 0.11304396, 0.75571066]
18 [0.08195605, 0.049956042, 0.053043965, 0.99095607, 0.99595606, 0.13704395, 0.11304396, 0.08904395]
19 [0.074472524, 0.04747253, 0.032527465, 0.1404945, 1.1055385, 1.1245384, 0.11252746, 0.12849452]
20 [0.06531318, 0.041313183, 0.024686813, 0.08068682, 1.0046868, 1.0648516, 1.0942253, 0.10568682]
21 [0.06531318, 0.041313183, 0.024686813, 0.08068682, 0.87968683, 0.8533132, 0.13268682, 0.10568682]
22 [0.05720879, 0.035208795, 0.02079121, 0.06479122, 1.0691246, 0.6942088, 1.0611246, 0.1017912]
23 [0.05720879, 0.035208795, 0.02079121, 0.06479122, 0.88579124, 0.8442088, 0.12779121, 0.1017912]
24 [0.052285712, 0.032285716, 0.018714285, 0.057714283, 0.12071429, 1.1224921, 0.09428571, 0.1197143]
25 [0.048241757, 0.029241757, 0.018758245, 0.054758247, 0.8627582, 0.90175825, 0.09324176, 0.09375823]
26 [0.047225278, 0.028225271, 0.01877472, 0.053774722, 0.10977473, 1.1447858, 0.092225276, 0.09322528]
27 [0.047225278, 0.028225271, 0.01877472, 0.053774722, 0.8597747, 0.9057747, 0.092225276, 0.09322528]
28 [0.04458242, 0.026582412, 0.01841758, 0.052417584, 0.8534176, 0.91041756, 0.08958242, 0.09258242]
29 [0.42263493, 0.026857149, 0.016142858, 0.04814285, 0.09614285, 1.1439207, 0.46763492, 0.47163492]
30 [0.044857144, 0.026857149, 0.016142858, 0.04814285, 0.09614285, 0.9161428, 0.83985716, 0.09385715]
31 [0.0435989, 0.026598904, 0.013401104, 0.0424011, 0.08440111, 0.9401789, 1.1451789, 0.0955989]
32 [0.047675822, 0.032675825, 0.014675818, 0.030324174, 0.06832417, 0.13432418, 1.1258626, 0.09967583]
33 [0.047675822, 0.032675825, 0.014675818, 0.030324174, 0.06832417, 0.8843242, 0.91432416, 0.09967583]
34 [0.0521044, 0.037104394, 0.020104399, 0.022895608, 0.05889561, 0.120895594, 1.1291178, 0.1041044]
35 [0.0521044, 0.037104394, 0.020104399, 0.022895608, 0.05889561, 0.8708956, 0.90689564, 0.1041044]
36 [0.057175826, 0.042175822, 0.026175825, 0.016824171, 0.050824173, 0.86182415, 0.9008242, 0.10917582]
37 [0.064005494, 0.049005494, 0.03300549, 0.014005498, 0.04199451, 0.10099451, 1.1086612, 1.0816722]
38 [0.064005494, 0.049005494, 0.03300549, 0.014005498, 0.04199451, 0.8509945, 0.8919945, 0.11500549]
39 [0.07074726, 0.055747252, 0.040747248, 0.021747254, 0.032252744, 0.09025276, 0.13325274, 1.0832857]
40 [0.0783022, 0.0643022, 0.048302203, 0.031302195, 0.0226978, 0.07869779, 0.1246978, 1.0828476]
41 [0.0783022, 0.5643022, 0.5483022, 0.031302195, 0.0226978, 0.07869779, 0.6246978, 0.1283022]
42 [0.08217582, 0.069175825, 0.054175828, 0.03717582, 0.015175828, 0.069824174, 0.11682418, 1.0614908]
43 [0.08217582, 0.56917584, 0.55417585, 0.03717582, 0.015175828, 0.069824174, 0.61682415, 0.09482417]
44 [0.581544, 0.06754395, 0.053543955, 0.036543958, 0.51554394, 0.5664561, 0.11645605, 0.09545605]
45 [0.07987912, 0.06687912, 0.05287912, 0.03687912, 0.015879117, 0.06412089, 0.117120884, 0.09712088]
46 [0.5798791, 0.06687912, 0.05287912, 0.03687912, 0.5158791, 0.5641209, 0.117120884, 0.09712088]
47 [0.079516485, 0.06651648, 0.052516483, 0.03651648, 0.016516488, 0.06348351, 0.116483524, 0.09648352]
48 [0.07764835, 0.065648355, 0.05164835, 0.036648348, 0.016648354, 0.061351642, 0.11635164, 0.09835166]
49 [0.57764834, 0.065648355, 0.05164835, 0.036648348, 0.51664835, 0.56135166, 0.11635164, 0.09835166]
