0 [1.0, 1.0, 1.0, 1.0, 1.0, 1.0, 1.0, 1.0]
1 [1.0, 1.0, 1.0, 1.0, 1.0, 1.0, 1.0, 1.0]
2 [1.0, 1.0, 1.0, 1.0, 1.0, 1.0, 1.0, 1.0]
3 [1.0, 1.0, 1.0, 1.0, 1.0, 1.0, 1.0, 1.0]
4 [1.0, 1.0, 1.0, 1.0, 1.0, 1.0, 1.0, 1.0]
5 [1.0, 1.0, 1.0, 1.0, 1.0, 1.0, 1.0, 1.0]
6 [1.0, 1.0, 1.0, 1.0, 1.0, 1.0, 1.0, 1.0]
7 [1.0, 1.0, 1.0, 1.0, 1.0, 1.0, 1.0, 1.0]
8 [1.0, 1.0, 1.0, 1.0, 1.0, 1.0, 1.0, 1.0]
9 [1.0, 1.0, 1.0, 1.0, 1.0, 1.0, 1.0, 1.0]
10 [1.0, 1.0, 1.0, 1.0, 1.0, 1.0, 1.0, 1.0]
11 [1.0, 1.0, 1.0, 1.0, 1.0, 1.0, 1.0, 1.0]
12 [1.0, 1.0, 1.0, 1.0, 1.0, 1.0, 1.0, 1.0]
13 [1.0, 1.0, 1.0, 1.0, 1.0, 1.0, 1.0, 1.0]
14 [1.0, 1.0, 1.0, 1.0, 1.0, 1.0, 1.0, 1.0]
15 [1.0, 1.0, 1.0, 1.0, 1.0, 1.0, 1.0, 1.0]
16 [1.0, 1.0, 1.0, 1.0, 1.0, 1.0, 1.0, 1.0]
17 [1.0, 1.0, 1.0, 1.0, 1.0, 1.0002337, 1.0942376, 1.6963267]
18 [1.0, 1.0, 1.0, 1.0, 1.0, 1.0001967, 1.0793481, 1.5863078]
19 [1.6962347, 1.0942252, 1.0002335, 1.0, 1.0, 1.0001498, 1.0604635, 1.4467688]
20 [1.5873861, 1.0794941, 1.000197, 1.0, 1.0, 1.0001134, 1.0457274, 1.3378824]
21 [1.4472129, 1.0605237, 1.00015, 1.0, 1.0, 1.0000856, 1.0345273, 1.2551242]
22 [1.4324454, 1.7420079, 1.0943387, 1.0002335, 1.0, 1.0000647, 1.0260953, 1.1928196]
23 [1.3351291, 1.6219826, 1.0795798, 1.000197, 1.0, 1.0000489, 1.0197225, 1.1457299]
24 [1.2535362, 1.4733343, 1.0605884, 1.00015, 1.0, 0.99976957, 0.90704715, 0.31316614]
25 [1.1916488, 1.3579624, 1.0458221, 1.0001135, 1.0, 0.99979645, 0.9178794, 0.39320636]
26 [0.34818274, 1.1624882, 1.0343316, 1.0000857, 1.0, 0.9998445, 0.93727505, 0.5365219]
27 [0.41879007, 1.1108191, 1.0259176, 1.0000647, 1.0, 0.9998824, 0.95255005, 0.64938974]
28 [1.2515793, 1.1772516, 1.0198199, 1.000049, 1.0, 0.9999111, 0.96413547, 0.734995]
29 [1.1429949, 0.34554458, 0.9071878, 0.99976975, 1.0, 0.9999329, 0.9729211, 0.7999125]
30 [1.0997493, 0.41729194, 0.91786766, 0.9997963, 1.0, 0.9999493, 0.9795342, 0.84877706]
31 [1.0748827, 0.5542425, 0.93719685, 0.9998442, 1.0, 0.9999617, 0.9845323, 0.88570815]
32 [1.0565078, 0.6631148, 0.9525375, 0.9998823, 1.0, 0.99997103, 0.9883214, 0.9137064]
33 [1.0427059, 0.745368, 0.96412593, 0.999911, 1.0, 0.9999781, 0.9911735, 0.9347807]
34 [1.032244, 0.80774444, 0.9729139, 0.9999328, 1.0, 0.9999835, 0.9933358, 0.95075756]
35 [0.22785002, 0.7468991, 0.9792616, 0.9999492, 1.0, 0.99998754, 0.9949633, 0.9627834]
36 [0.32784444, 0.7967229, 0.9842965, 0.9999616, 1.0, 0.9999906, 0.99619335, 0.97187227]
37 [0.4871183, 0.84579116, 0.9881416, 0.99997103, 1.0, 0.99999285, 0.99712586, 0.9787628]
38 [0.64020395, 0.88721806, 0.99104697, 0.9999781, 1.0, 1.0, 1.0, 1.0]
39 [0.7070656, 0.9119668, 0.9932331, 0.9999835, 1.0, 1.0, 1.0, 1.0]
40 [0.7997123, 0.972894, 0.9999328, 1.0, 1.0, 1.0, 1.0, 1.0]
41 [0.84481525, 0.95135784, 0.99613875, 0.9999906, 1.0, 1.0, 1.0, 1.0]
42 [0.88283116, 0.9632738, 0.9970847, 0.99999285, 1.0, 1.0, 1.0, 1.0]
43 [1.0, 1.0, 1.0, 1.0, 1.0, 1.0, 1.0, 1.0]
44 [0.93471545, 0.9911647, 0.9999781, 1.0, 1.0, 1.0, 1.0, 1.0]
45 [0.9507083, 0.9933291, 0.9999835, 1.0, 1.0, 1.0, 1.0, 1.0]
46 [0.96274614, 0.9949582, 0.9999875, 1.0, 1.0, 1.0, 1.0, 1.0]
47 [0.97184414, 0.99618953, 0.9999906, 1.0, 1.0, 1.0, 1.0, 1.0]
48 [0.9787415, 0.997123, 0.99999285, 1.0, 1.0, 1.0, 1.0, 1.0]
49 [1.0, 1.0, 1.0, 1.0, 1.0, 1.0, 1.0, 1.0]
