0 [1.0, 1.0, 1.0, 1.0, 1.0, 1.0, 1.0, 1.0]
1 [1.0, 1.0, 1.0, 1.0, 1.0, 1.0, 1.0, 1.0]
2 [1.0, 1.0, 1.0, 1.0, 1.0, 1.0, 1.0, 1.0]
3 [1.0, 1.0, 1.0, 1.0, 1.0, 1.0, 1.0, 1.0]
4 [1.0, 1.0, 1.0, 1.0, 1.0, 1.0, 1.0, 1.0]
5 [1.0, 1.0, 1.0, 1.0, 1.0, 1.0, 1.0, 1.0]
6 [1.0, 1.0, 1.0, 1.0, 1.0, 1.0, 1.0, 1.0]
7 [1.0, 1.0, 1.0, 1.0, 1.0, 1.0, 1.0, 1.0]
8 [1.0, 1.0, 1.0, 1.0, 1.0, 1.0, 1.0, 1.0]
9 [1.0, 1.0, 1.0, 1.0, 1.0, 1.0, 1.0, 1.0]
10 [1.0, 1.0, 1.0, 1.0, 1.0, 1.0, 1.0, 1.0]
11 [1.0, 1.0, 1.0, 1.0, 1.0, 1.0, 1.0, 1.0]
12 [1.0, 1.0, 1.0, 1.0, 1.0, 1.0, 1.0, 1.0]
13 [1.0, 1.0, 1.0, 1.0, 1.0, 1.0, 1.0, 1.0]
14 [1.0, 1.0, 1.0, 1.0, 1.0, 1.0, 1.0, 1.0]
15 [1.0, 1.0, 1.0, 1.0, 1.0, 1.0, 1.0, 1.0]
16 [1.0, 1.0, 1.0, 1.0, 1.0, 1.0, 1.0, 1.0]
17 [1.0, 1.0, 1.0, 1.0, 1.0, 1.0, 1.0, 1.0]
18 [1.0, 1.0002332, 1.0940545, 1.6949737, 1.0940545, 1.0002332, 1.0, 1.0]
19 [1.0, 1.0001904, 1.0768043, 1.5675112, 1.0768043, 1.0001904, 1.0, 1.0]
20 [1.0, 1.0001446, 1.0585703, 1.5251108, 1.7533108, 1.0941991, 1.0002332, 1.0]
21 [1.0, 1.0001009, 1.0408561, 1.3716538, 1.5658003, 1.0711682, 1.0001762, 1.0]
22 [1.0, 1.0000762, 1.0308794, 1.2810488, 1.4287665, 1.0539424, 1.0001335, 1.0]
23 [1.0, 1.0000576, 1.0233382, 1.2124217, 1.3241243, 1.0407782, 1.000101, 1.0]
24 [1.0001577, 1.0635309, 1.428669, 0.7869775, 1.1857378, 1.0306427, 1.0000762, 1.0]
25 [1.000204, 1.0820558, 1.5230582, 0.4757069, 1.0667168, 1.020276, 1.0000508, 1.0]
26 [1.0001559, 1.0627501, 1.3994446, 0.49201965, 0.2759839, 0.9106552, 0.9997789, 1.0]
27 [1.0001179, 1.0474226, 1.3018152, 0.5985055, 0.32378626, 0.9150164, 0.99978966, 1.0]
28 [1.000089, 1.035844, 1.2281204, 0.6954758, 0.48112676, 0.93471545, 0.9998384, 1.0]
29 [1.0000592, 1.0238357, 1.1516961, 0.7974366, 0.6545179, 0.95652735, 0.9998924, 1.0]
30 [0.9999583, 0.9831174, 0.85681045, 0.81217855, 0.7390567, 0.9671758, 0.99991876, 1.0]
31 [0.9997678, 0.90628695, 0.29361027, 0.7770941, 0.80258214, 0.97519195, 0.9999386, 1.0]
32 [0.9998209, 0.92772645, 0.45593554, 0.8347537, 0.85791755, 0.98214704, 0.99995583, 1.0]
33 [0.99986434, 0.94524807, 0.58786106, 0.87505096, 0.8927233, 0.9865205, 0.9999666, 1.0]
34 [0.9998974, 0.9586083, 0.68843055, 0.9055545, 0.918922, 0.98981243, 0.9999748, 1.0]
35 [0.9999226, 0.96874744, 0.7647513, 0.92869025, 0.9387838, 0.9923081, 0.999981, 1.0]
36 [0.99994147, 0.97637975, 0.82220256, 0.94610524, 0.9537338, 0.9941866, 0.99998564, 1.0]
37 [0.9999558, 0.98214823, 0.86562353, 0.9592672, 0.96503276, 0.9956063, 0.99998915, 1.0]
38 [0.99996775, 0.98700255, 0.90396094, 0.98700255, 0.99996775, 1.0, 1.0, 1.0]
39 [1.0, 1.0, 1.0, 1.0, 1.0, 1.0, 1.0, 1.0]
40 [0.9999832, 0.99322826, 0.9499634, 0.99322826, 0.9999832, 1.0, 1.0, 1.0]
41 [0.9999873, 0.9948872, 0.9622209, 0.9948872, 0.9999873, 1.0, 1.0, 1.0]
42 [0.9999904, 0.9961358, 0.97144717, 0.9961358, 0.9999904, 1.0, 1.0, 1.0]
43 [0.9999928, 0.9970795, 0.97842026, 0.9970795, 0.9999928, 1.0, 1.0, 1.0]
44 [1.0, 1.0, 1.0, 1.0, 1.0, 1.0, 1.0, 1.0]
45 [1.0, 1.0, 1.0, 1.0, 1.0, 1.0, 1.0, 1.0]
46 [1.0, 1.0, 1.0, 1.0, 1.0, 1.0, 1.0, 1.0]
47 [1.0, 1.0, 1.0, 1.0, 1.0, 1.0, 1.0, 1.0]
48 [1.0, 1.0, 1.0, 1.0, 1.0, 1.0, 1.0, 1.0]
49 [1.0, 1.0, 1.0, 1.0, 1.0, 1.0, 1.0, 1.0]
