0 [0.0, 0.0, 0.0, 0.0, 0.0, 0.0, 0.0, 0.0]
1 [0.0, 0.0, 0.0, 0.0, 0.0, 0.0, 0.0, 0.0]
2 [0.0, 0.0, 0.0, 0.0, 0.0, 0.0, 0.0, 0.0]
3 [0.0, 0.0, 0.0, 0.0, 0.0, 0.0, 0.0, 0.0]
4 [0.0, 0.0, 0.0, 0.0, 0.0, 0.0, 0.0, 0.0]
5 [0.0, 0.0, 0.0, 0.0, 0.0, 0.0, 0.0, 0.0]
6 [0.0, 0.0, 0.0, 0.0, 0.0, 0.0, 0.0, 0.0]
7 [0.0, 0.0, 0.0, 0.0, 0.0, 0.0, 0.0, 0.0]
8 [0.0, 0.0, 0.0, 0.0, 0.0, 0.0, 0.0, 0.0]
9 [0.375, 0.0, 0.0, 0.875, 0.375, 0.0, 0.0, 0.0]
10 [0.875, 0.125, 0.0, 0.875, 0.875, 0.125, 0.125, 0.125]
11 [0.9230769, 0.07692308, 0.0, 0.0, 0.9230769, 0.07692308, 0.07692308, 0.9230769]
12 [0.875, 0.0, 0.0, 0.0, 0.875, 0.0, 0.0, 0.0]
13 [0.0, 0.90909094, 0.0, 0.0, 0.90909094, 0.90909094, 0.90909094, 0.0]
14 [0.75, 0.0, 0.0, 0.0, 0.75, 0.0, 0.0, 0.0]
15 [0.375, 0.0, 0.0, 0.0, 0.375, 0.875, 0.0, 0.0]
16 [0.0, 0.0, 0.9944751, 0.0, 0.0, 0.0, 0.0, 0.0]
17 [0.875, 0.0, 0.0, 0.0, 0.0, 0.875, 0.0, 0.0]
18 [0.0, 0.0, 0.99450547, 0.0054945056, 0.0054945056, 0.0054945056, 0.0054945056, 0.0054945056]
19 [0.0, 0.0, 0.5, 0.5, 0.5, 0.5, 0.5, 0.0]
20 [0.0, 0.0, 0.0, 0.0, 0.0, 0.75, 0.75, 0.0]
21 [0.0, 0.0, 0.0, 0.027777778, 0.027777778, 0.027777778, 0.9722222, 0.027777778]
22 [0.0, 0.0, 0.0, 0.0, 0.0, 0.75, 0.75, 0.0]
23 [0.0, 0.0, 0.0, 0.055555556, 0.055555556, 0.055555556, 0.9444444, 0.9444444]
24 [0.0, 0.5, 0.0, 0.0, 0.0, 0.5, 0.5, 0.0]
25 [0.0, 0.75, 0.0, 0.0, 0.0, 0.0, 0.75, 0.0]
26 [0.9166667, 0.0, 0.0, 0.083333336, 0.083333336, 0.083333336, 0.083333336, 0.9166667]
27 [0.0, 0.75, 0.0, 0.0, 0.0, 0.0, 0.75, 0.0]
28 [0.8888889, 0.0, 0.0, 0.0, 0.8888889, 0.22222222, 0.22222222, 0.8888889]
29 [0.0, 0.75, 0.0, 0.0, 0.0, 0.0, 0.75, 0.0]
30 [0.0, 0.75, 0.0, 0.0, 0.0, 0.0, 0.75, 0.0]
31 [0.9444444, 0.0, 0.0, 0.0, 0.055555556, 0.055555556, 0.055555556, 0.055555556]
32 [0.0, 0.75, 0.0, 0.0, 0.0, 0.0, 0.75, 0.0]
33 [0.9166667, 0.0, 0.0, 0.0, 0.083333336, 0.9166667, 0.083333336, 0.083333336]
34 [0.0, 0.0, 0.0, 0.0, 0.0, 0.0, 0.0, 0.0]
35 [0.0, 0.0, 0.0, 0.0, 0.0, 0.0, 0.0, 0.0]
36 [0.09090909, 0.95454544, 0.5, 0.0, 0.0, 0.09090909, 0.95454544, 0.5]
37 [0.0, 0.0, 0.0, 0.0, 0.0, 0.0, 0.0, 0.0]
38 [0.0, 0.0, 0.0, 0.0, 0.0, 0.0, 0.0, 0.0]
39 [0.9375, 0.9375, 0.9375, 0.0, 0.0, 0.0, 0.125, 0.375]
40 [0.0, 0.375, 0.875, 0.0, 0.0, 0.0, 0.0, 0.375]
41 [0.8, 0.8, 0.6, 0.6, 0.0, 0.0, 0.8, 0.8]
42 [0.8333333, 0.8333333, 0.5, 0.5, 0.0, 0.0, 0.8333333, 0.8333333]
43 [0.0, 0.375, 0.875, 0.0, 0.0, 0.0, 0.0, 0.375]
44 [0.0, 0.0, 0.0, 0.0, 0.0, 0.0, 0.0, 0.0]
45 [0.0, 0.0, 0.0, 0.0, 0.0, 0.0, 0.0, 0.0]
46 [0.0, 0.0, 0.0, 0.0, 0.0, 0.0, 0.0, 0.0]
47 [0.85714287, 0.85714287, 0.875, 0.0, 0.0, 0.0, 0.85714287, 0.85714287]
48 [0.0, 0.0, 0.0, 0.0, 0.0, 0.0, 0.0, 0.0]
49 [0.0, 0.375, 0.875, 0.0, 0.0, 0.0, 0.0, 0.375]
