0 -1.5707963
0 -3.1415923
0 -3.1415923
0 -3.1415925
0 -3.1415927
0 3.1415925
0 3.1415925
0 1.5707964
0 1.5707976
1 -1.5707963
1 -3.1415923
1 -3.1415923
1 -3.1415925
1 -3.1415927
1 3.1415925
1 3.1415925
1 1.5707964
1 1.5707976
2 -1.5707963
2 -3.1415923
2 -3.1415923
2 -3.1415925
2 -3.1415927
2 3.1415925
2 3.1415925
2 1.5707964
2 1.5707976
3 0.005212843
3 3.1414952
3 3.1415205
3 3.1415293
3 3.1415293
3 3.1415205
3 3.141496
3 3.1364162
3 1.5757016
4 -0.008517353
4 -3.141442
4 -3.1414819
4 -3.141496
4 -3.1414967
4 -3.1414845
4 -3.141448
4 -3.1330676
4 1.5862622
5 -0.009671621
5 -3.14112
5 -3.1412492
5 -3.141295
5 -3.1412985
5 -3.1412628
5 -3.1411572
5 -3.1319175
5 1.6047314
6 -0.010856738
6 -3.1406264
6 -3.140901
6 -3.1409986
6 -3.1410105
6 -3.1409454
6 -3.140749
6 -3.1307337
6 1.6274631
7 -0.010856762
7 -3.140053
7 -3.140513
7 -3.1406763
7 -3.1407034
7 -3.1406147
7 -3.1403377
7 -3.1307342
7 1.6558551
8 -0.010637575
8 -3.139319
8 -3.14004
8 -3.140295
8 -3.1403494
8 -3.140243
8 -3.1398926
8 -3.130954
8 1.691241
9 -0.010421012
9 -3.1385567
9 -3.1395767
9 -3.1399338
9 -3.140023
9 -3.1399102
9 -3.1395087
9 -3.1311698
9 1.7255095
10 -0.010201867
10 -3.13794
10 -3.139223
10 -3.1396673
10 -3.1397882
10 -3.1396773
10 -3.1392505
10 -3.1313896
10 1.7522247
11 -0.010441044
11 -3.1372044
11 -3.138806
11 -3.1393535
11 -3.1395113
11 -3.1394014
11 -3.1389415
11 -3.1311505
11 1.7749224
12 -0.00949912
12 -3.1370423
12 -3.1387603
12 -3.1393394
12 -3.1395137
12 -3.1394198
12 -3.1389878
12 -3.132093
12 1.7950325
13 -0.008881396
13 -3.1368442
13 -3.1386912
13 -3.139305
13 -3.139496
13 -3.1394153
13 -3.1390023
13 -3.1327105
13 1.812702
14 -0.007500009
14 -3.1371982
14 -3.1389532
14 -3.1395288
14 -3.139712
14 -3.1396503
14 -3.139298
14 -3.1340919
14 1.8282659
15 -0.005352939
15 -3.1382375
15 -3.1396062
15 -3.14005
15 -3.1401937
15 -3.1401544
15 -3.1399024
15 -3.136239
15 1.8408695
16 -0.0014387806
16 -3.1407044
16 -3.1410725
16 -3.141191
16 -3.1412296
16 -3.1412206
16 -3.1411572
16 -3.1401532
16 1.8500042
17 4.0662894E-4
17 3.141215
17 3.1413739
17 3.1414242
17 3.1414409
17 3.1414375
17 3.1414118
17 3.1411867
17 1.8585339
18 0.0017617528
18 3.1402018
18 3.1407936
18 3.14098
18 3.1410422
18 3.1410313
18 3.14094
18 3.1398315
18 1.8652133
19 0.0019820759
19 3.140005
19 3.1406853
19 3.1408985
19 3.14097
19 3.1409585
19 3.1408565
19 3.1396112
19 1.8691866
20 0.0014135388
20 3.1404326
20 3.14093
20 3.1410859
20 3.1411378
20 3.1411295
20 3.141055
20 3.14018
20 1.8695459
21 0.0013776851
21 3.1404576
21 3.1409445
21 3.141097
21 3.141148
21 3.14114
21 3.1410673
21 3.1402159
21 1.8698875
22 0.0013776851
22 3.1404576
22 3.1409445
22 3.141097
22 3.141148
22 3.14114
22 3.1410673
22 3.1402159
22 1.8698875
23 0.0014540283
23 3.1404293
23 3.1409242
23 3.1410801
23 3.141132
23 3.1411228
23 3.1410465
23 3.140139
23 1.8651978
24 0.0012459081
24 3.140655
24 3.1410446
24 3.1411693
24 3.14121
24 3.1412005
24 3.141134
24 3.1403475
24 1.8513376
25 0.0012459081
25 3.140655
25 3.1410446
25 3.1411693
25 3.14121
25 3.1412005
25 3.141134
25 3.1403475
25 1.8513376
26 0.0010828199
26 3.1408417
26 3.1411445
26 3.141243
26 3.1412745
26 3.1412644
26 3.141206
26 3.1405103
26 1.8335426
27 0.0010828199
27 3.1408417
27 3.1411445
27 3.141243
27 3.1412745
27 3.1412644
27 3.141206
27 3.1405103
27 1.8335426
28 0.0015506354
28 3.1406577
28 3.1410227
28 3.1411438
28 3.1411815
28 3.1411655
28 3.1410851
28 3.1400425
28 1.8147191
29 0.0015506354
29 3.1406577
29 3.1410227
29 3.1411438
29 3.1411815
29 3.1411655
29 3.1410851
29 3.1400425
29 1.8147191
30 8.344508E-4
30 3.1410604
30 3.1412673
30 3.1413357
30 3.1413572
30 3.1413476
30 3.1413014
30 3.1407585
30 1.8117687
31 8.344508E-4
31 3.1410604
31 3.1412673
31 3.1413357
31 3.1413572
31 3.1413476
31 3.1413014
31 3.1407585
31 1.8117687
32 0.0013486311
32 3.1408195
32 3.141116
32 3.1412148
32 3.1412451
32 3.1412303
32 3.14116
32 3.1402445
32 1.8035305
33 7.7320944E-4
33 3.1411586
33 3.1413202
33 3.1413748
33 3.141391
33 3.141381
33 3.141338
33 3.1408207
33 1.7865375
34 5.728234E-4
34 3.1412828
34 3.1413949
34 3.141433
34 3.141444
34 3.1414354
34 3.1414022
34 3.141021
34 1.768749
35 7.5418466E-5
35 3.1414905
35 3.1415267
35 3.141539
35 3.1415424
35 3.141539
35 3.1415274
35 3.141518
35 1.7572038
36 -1.3132316E-4
36 3.141568
36 3.1415768
36 3.1415796
36 3.1415803
36 3.1415794
36 3.1415765
36 -3.14146
36 1.7538215
37 -5.8405835E-4
37 -3.1414511
37 -3.141501
37 -3.1415184
37 -3.1415231
37 -3.141519
37 -3.1415024
37 -3.141008
37 1.7532046
38 -0.0011453473
38 -3.141252
38 -3.1413713
38 -3.1414127
38 -3.141424
38 -3.1414137
38 -3.1413736
38 -3.140446
38 1.7506545
39 -0.002665947
39 -3.1407285
39 -3.1410294
39 -3.141134
39 -3.141162
39 -3.1411347
39 -3.1410313
39 -3.1389258
39 1.7469116
40 -0.0038276261
40 -3.140395
40 -3.1408067
40 -3.1409502
40 -3.1409876
40 -3.1409476
40 -3.140799
40 -3.1377642
40 1.7391704
41 -0.00620858
41 -3.1398003
41 -3.1404033
41 -3.1406145
41 -3.1406672
41 -3.140601
41 -3.140365
41 -3.1353831
41 1.7263275
42 -0.008468334
42 -3.139395
42 -3.1401174
42 -3.1403716
42 -3.1404316
42 -3.1403425
42 -3.1400342
42 -3.1331227
42 1.7126015
43 -0.009880682
43 -3.1392848
43 -3.1400282
43 -3.1402907
43 -3.1403494
43 -3.1402478
43 -3.1399066
43 -3.1317098
43 1.700552
44 -0.009236701
44 -3.1395774
44 -3.140219
44 -3.1404462
44 -3.140495
44 -3.1404026
44 -3.140095
44 -3.1323538
44 1.6937356
45 -0.006356214
45 -3.1402452
45 -3.1406732
45 -3.1408248
45 -3.1408572
45 -3.140795
45 -3.140588
45 -3.135235
45 1.6923907
46 -0.0021349366
46 -3.1411839
46 -3.1413138
46 -3.1413598
46 -3.1413698
46 -3.141351
46 -3.1412883
46 -3.1394567
46 1.692529
47 5.778593E-4
47 3.1413963
47 3.141459
47 3.141481
47 3.1414855
47 3.1414762
47 3.141446
47 3.1410158
47 1.6929168
48 0.0025794732
48 3.1409485
48 3.1411533
48 3.1412258
48 3.141241
48 3.141211
48 3.1411126
48 3.1390142
48 1.6929678
49 0.0016771416
49 3.1411507
49 3.1412911
49 3.1413407
49 3.1413515
49 3.1413307
49 3.141263
49 3.139917
49 1.6929467
