0 -1.5707963
0 -3.1415923
0 -3.1415923
0 -3.1415925
0 -3.1415927
0 3.1415925
0 3.1415925
0 1.5707964
0 1.5707976
1 -1.5707963
1 -3.1415923
1 -3.1415923
1 -3.1415925
1 -3.1415927
1 3.1415925
1 3.1415925
1 1.5707964
1 1.5707976
2 -1.5707963
2 -3.1415923
2 -3.1415923
2 -3.1415925
2 -3.1415927
2 3.1415925
2 3.1415925
2 1.5707964
2 1.5707976
3 -1.5707963
3 -3.1415923
3 -3.1415923
3 -3.1415925
3 -3.1415927
3 3.1415925
3 3.1415925
3 1.5707964
3 1.5707976
4 -1.5707963
4 -3.1415923
4 -3.1415923
4 -3.1415925
4 -3.1415927
4 3.1415925
4 3.1415925
4 1.5707964
4 1.5707976
5 -1.5707963
5 -3.1415923
5 -3.1415923
5 -3.1415925
5 -3.1415927
5 3.1415925
5 3.1415925
5 1.5707964
5 1.5707976
6 -1.5707963
6 -3.1415923
6 -3.1415923
6 -3.1415925
6 -3.1415927
6 3.1415925
6 3.1415925
6 1.5707964
6 1.5707976
7 -1.5707963
7 -3.1415923
7 -3.1415923
7 -3.1415925
7 -3.1415927
7 3.1415925
7 3.1415925
7 1.5707964
7 1.5707976
8 -1.5707963
8 -3.1415923
8 -3.1415923
8 -3.1415925
8 -3.1415927
8 3.1415925
8 3.1415925
8 1.5707964
8 1.5707976
9 0.010348148
9 3.1414566
9 3.1414921
9 3.1415043
9 3.1415043
9 3.1414921
9 3.1414578
9 3.131294
9 1.5756432
10 -0.01326212
10 -3.1413162
10 -3.1413894
10 -3.141415
10 -3.1414163
10 -3.1413937
10 -3.141327
10 -3.1283138
10 1.5867063
11 -0.01326212
11 -3.1413162
11 -3.1413894
11 -3.141415
11 -3.1414163
11 -3.1413937
11 -3.141327
11 -3.1283138
11 1.5867063
12 -0.009242784
12 -3.1411607
12 -3.1412787
12 -3.1413205
12 -3.1413236
12 -3.141291
12 -3.1411936
12 -3.132348
12 1.6036191
13 -0.009242784
13 -3.1411607
13 -3.1412787
13 -3.1413205
13 -3.1413236
13 -3.141291
13 -3.1411936
13 -3.132348
13 1.6036191
14 -0.009767645
14 -3.1407528
14 -3.1409912
14 -3.1410756
14 -3.1410859
14 -3.141029
14 -3.140857
14 -3.1318202
14 1.6261154
15 -0.010151055
15 -3.1401765
15 -3.1405988
15 -3.1407487
15 -3.1407735
15 -3.1406915
15 -3.1404355
15 -3.1314406
15 1.6548795
16 -0.009617414
16 -3.1395524
16 -3.1401987
16 -3.1404276
16 -3.1404762
16 -3.1403806
16 -3.1400654
16 -3.1319733
16 1.6908056
17 -0.00943542
17 -3.1386418
17 -3.1396484
17 -3.1399996
17 -3.14009
17 -3.1399875
17 -3.1396134
17 -3.1321561
17 1.7346284
18 -0.009641163
18 -3.137371
18 -3.1389282
18 -3.1394582
18 -3.1396134
18 -3.1395137
18 -3.1390846
18 -3.1319504
18 1.7812438
19 -0.007956997
19 -3.1371121
19 -3.138881
19 -3.1394646
19 -3.1396487
19 -3.13958
19 -3.1392078
19 -3.1336348
19 1.8215029
20 -0.00676241
20 -3.1370313
20 -3.1389298
20 -3.1395376
20 -3.1397374
20 -3.1396928
20 -3.1393714
20 -3.1348295
20 1.8525375
21 -0.005586542
21 -3.137316
21 -3.139167
21 -3.1397443
21 -3.1399386
21 -3.1399126
21 -3.139647
21 -3.1360054
21 1.8753465
22 -0.0047261077
22 -3.137604
22 -3.1393855
22 -3.1399283
22 -3.1401136
22 -3.1400998
22 -3.1398766
22 -3.1368659
22 1.8933028
23 -0.0043382533
23 -3.1375363
23 -3.139408
23 -3.1399636
23 -3.1401556
23 -3.140152
23 -3.139949
23 -3.1372535
23 1.9120123
24 -0.0029695872
24 -3.1384213
24 -3.1399534
24 -3.1403894
24 -3.1405423
24 -3.140549
24 -3.1404142
24 -3.1386223
24 1.9377469
25 -0.0019390822
25 -3.1391857
25 -3.140412
25 -3.140743
25 -3.1408598
25 -3.140872
25 -3.1407886
25 -3.139653
25 1.9673039
26 -1.3808177E-4
26 -3.141504
26 -3.1415517
26 -3.141564
26 -3.1415682
26 -3.1415691
26 -3.1415665
26 -3.141454
26 1.9978377
27 9.0688426E-4
27 3.139761
27 3.14081
27 3.1410537
27 3.1411397
27 3.141157
27 3.1411178
27 3.140686
27 2.029501
28 0.0015493522
28 3.137958
28 3.140163
28 3.1406305
28 3.140795
28 3.1408331
28 3.1407738
28 3.1400437
28 2.0586667
29 4.8621363E-4
29 3.140169
29 3.1410692
29 3.1412463
29 3.141308
29 3.1413236
29 3.141305
29 3.1411068
29 2.0790114
30 -0.0018855374
30 -3.1364772
30 -3.1397924
30 -3.1404142
30 -3.1406305
30 -3.1406875
30 -3.1406283
30 -3.1397066
30 2.0909839
31 -0.004980211
31 -3.1274133
31 -3.1366723
31 -3.1383817
31 -3.1389756
31 -3.1391337
31 -3.1373854
31 -3.1336188
31 2.0941803
32 -0.007973552
32 -3.1188571
32 -3.1336887
32 -3.1364326
32 -3.1373858
32 -3.1376395
32 -3.1373854
32 -3.1336188
32 2.0941803
33 -0.00943756
33 -3.1147275
33 -3.1322386
33 -3.1354837
33 -3.1366115
33 -3.136911
33 -3.136609
33 -3.1321547
33 2.09379
34 -0.008378702
34 -3.1185648
34 -3.133429
34 -3.1362393
34 -3.1372178
34 -3.1374738
34 -3.1372008
34 -3.1332138
34 2.0891159
35 -0.0047706766
35 -3.1293051
35 -3.1371026
35 -3.1386273
35 -3.13916
35 -3.1392956
35 -3.1391358
35 -3.1368215
35 2.0808785
36 -0.0019363223
36 -3.1370063
36 -3.1398637
36 -3.140442
36 -3.1406448
36 -3.1406946
36 -3.140629
36 -3.139656
36 2.0718603
37 -5.055231E-7
37 3.1414363
37 3.1415317
37 3.1415517
37 3.1415586
37 3.14156
37 3.1415577
37 -3.141592
37 2.0619318
38 8.945568E-4
38 3.1395288
38 3.1407623
38 3.1410303
38 3.141125
38 3.141146
38 3.1411097
38 3.1406984
38 2.0511372
39 9.3876844E-4
39 3.139564
39 3.1407528
39 3.1410193
39 3.1411135
39 3.1411335
39 3.1410947
39 3.1406543
39 2.0411224
40 6.517479E-4
40 3.1401806
40 3.1410003
40 3.1411867
40 3.1412528
40 3.141266
40 3.141238
40 3.1409411
40 2.0363812
41 1.1927067E-4
41 3.1412237
41 3.1414363
41 3.1414852
41 3.1415026
41 3.141506
41 3.1414986
41 3.1414735
41 2.0333898
42 4.7269213E-4
42 3.1405737
42 3.1411567
42 3.1412923
42 3.1413403
42 3.1413498
42 3.1413279
42 3.1411204
42 2.0291488
43 0.0022549345
43 3.137383
43 3.1397693
43 3.1403317
43 3.140531
43 3.1405694
43 3.1404753
43 3.1393383
43 2.0240595
44 0.0020373403
44 3.1378753
44 3.1399643
44 3.1404629
44 3.1406398
44 3.1406727
44 3.1405861
44 3.1395557
44 2.0196424
45 0.001551968
45 3.138689
45 3.1403282
45 3.1407168
45 3.1408546
45 3.1408806
45 3.1408145
45 3.140041
45 2.0219905
46 9.5444825E-4
46 3.139708
46 3.140781
46 3.1410322
46 3.1411211
46 3.1411386
46 3.141097
46 3.1406386
46 2.0262408
47 0.0015314005
47 3.1386473
47 3.1403246
47 3.1407175
47 3.1408565
47 3.1408837
47 3.140819
47 3.1400616
47 2.0265355
48 0.0015314005
48 3.1386473
48 3.1403246
48 3.1407175
48 3.1408565
48 3.1408837
48 3.140819
48 3.1400616
48 2.0265355
49 1.4963649E-4
49 3.1411886
49 3.1414173
49 3.1414711
49 3.1414902
49 3.1414936
49 3.1414847
49 3.1414435
49 2.023021
