-4.914743E23 4.5738E-41
-0.72499996 -1.8499997
-0.72499996 -1.8499997
-0.72499996 -1.8499997
-0.72499996 -1.8499997
-0.72499996 -1.8499997
-0.72499996 -1.8499997
-0.72507626 -1.8504629
-0.72507626 -1.8504629
-0.72459465 -1.850578
-0.7236787 -1.8509398
-0.7236787 -1.8509398
-0.7187994 -1.8522896
-0.7170012 -1.8504419
-0.715599 -1.8422701
-0.715804 -1.8378582
-0.716395 -1.8307717
-0.71684504 -1.8264048
-0.7202097 -1.8116591
-0.72393566 -1.8003747
-0.72940767 -1.7868761
-0.74412394 -1.7573408
-0.7532424 -1.7412443
-0.76282835 -1.7247508
-0.7825197 -1.6913183
-0.79144543 -1.6762108
-0.8033885 -1.6563854
-0.8033885 -1.6563854
-0.8084003 -1.649193
-0.8095416 -1.6474009
-0.814641 -1.6380869
-0.8152919 -1.6371149
-0.81553346 -1.6365349
-0.81553346 -1.6365349
-0.8185388 -1.6297153
-0.82153386 -1.6237799
-0.83171576 -1.6034371
-0.83632374 -1.5943902
-0.83938026 -1.5886996
-0.84172183 -1.584596
-0.84436786 -1.5803907
-0.84436786 -1.5803907
-0.84436786 -1.5803907
-0.84805393 -1.5743618
-0.84805393 -1.5743618
-0.8588154 -1.5532706
-0.8588154 -1.5532706
-0.87025577 -1.5256234
-0.87571204 -1.5114253
-0.8843954 -1.4839779
-0.8872975 -1.4717529
-0.8872975 -1.4717529
-0.89140165 -1.4559704
-0.89300996 -1.4507387
-0.89474165 -1.4453975
-0.89474165 -1.4453975
-0.89766824 -1.4297996
-0.89766824 -1.4297996
-0.8980581 -1.4198463
-0.8978779 -1.4099802
-0.89672136 -1.3984964
-0.89672136 -1.3984964
-0.8942315 -1.3864946
-0.89088047 -1.3748786
-0.89088047 -1.3748786
-0.8866633 -1.363293
-0.88196594 -1.3523834
-0.87573683 -1.3408432
-0.87573683 -1.3408432
-0.86910456 -1.3302563
-0.86217654 -1.3207841
-0.86217654 -1.3207841
-0.8461323 -1.3042136
-0.83617413 -1.2960858
-0.81205827 -1.279869
-0.81205827 -1.279869
-0.7851336 -1.2653506
-0.7682707 -1.2570784
-0.75145924 -1.2493892
-0.75145924 -1.2493892
-0.7431708 -1.2453778
-0.7370991 -1.242259
-0.73089105 -1.2393377
-0.73089105 -1.2393377
-0.7232566 -1.2357435
-0.71734405 -1.2328014
-0.71360075 -1.2305583
-0.71360075 -1.2305583
-0.7087079 -1.2273619
-0.7070941 -1.2263567
-0.703662 -1.2236785
-0.70245594 -1.2226733
-0.7000524 -1.2215853
-0.6878371 -1.2193335
-0.6774853 -1.2182645
-0.6463901 -1.2174852
-0.62777656 -1.217997
-0.5915185 -1.2198124
-0.5786784 -1.2205783
-0.55567557 -1.2217906
-0.5421301 -1.2221119
-0.5421301 -1.2221119
-0.5249156 -1.2225279
-0.5072262 -1.2230977
-0.49001712 -1.2237929
-0.49001712 -1.2237929
-0.47497225 -1.2242239
-0.4528405 -1.2249854
-0.43849117 -1.2260554
-0.40717563 -1.2305962
-0.3902511 -1.2341039
-0.35335082 -1.2430491
-0.33414102 -1.2479205
-0.3034001 -1.2556001
-0.3034001 -1.2556001
-0.27359626 -1.2630824
-0.27359626 -1.2630824
