0 [0.0, 0.0, 0.0, 0.0, 0.0, 0.0, 0.0, 0.0]
1 [0.0, 0.0, 0.0, 0.0, 0.0, 0.0, 0.0, 0.0]
2 [0.0, 0.0, 0.0, 0.0, 0.0, 0.0, 0.0, 0.0]
3 [0.0, 0.0, 0.0, 0.0, 0.0, 0.0, 0.0, 0.0]
4 [0.0, 0.0, 0.0, 0.0, 0.0, 0.0, 0.0, 0.0]
5 [0.0, 0.0, 0.0, 0.0, 0.0, 0.0, 0.0, 0.0]
6 [0.0, 0.0, 0.0, 0.0, 0.0, 0.0, 0.0, 0.0]
7 [0.0, 0.0, 0.0, 0.0, 0.0, 0.0, 0.0, 0.0]
8 [0.0, 0.0, 0.0, 0.0, 0.0, 0.0, 0.0, 0.0]
9 [0.19017033, 0.18617032, 0.09482966, 0.09382967, 0.09282967, 0.091829665, 0.09082967, 0.19517033]
10 [0.19017033, 0.18617032, 0.09482966, 0.09382967, 0.09282967, 0.9489725, 0.09082967, 0.19517033]
11 [1.0483847, 0.47595605, 0.38047254, 0.9499011, 0.9489011, 0.08875824, 0.08675824, 0.48195606]
12 [0.19124176, 0.19024175, 0.094758235, 0.09275823, 0.09175824, 0.08875824, 0.08675824, 0.19624175]
13 [0.19132417, 0.6913242, 0.59867585, 0.09467581, 0.090675816, 0.08667582, 0.5826758, 0.19532417]
14 [0.22972466, 1.164058, 0.15316422, 0.14716423, 1.0714976, 0.08471978, 0.07671978, 0.11116421]
15 [0.18528022, 0.18628022, 0.85871977, 0.102719784, 0.09371977, 0.08471978, 0.82671976, 0.06671977]
16 [0.14149451, 1.1575384, 0.19849451, 0.15743956, 1.0954835, 0.09847253, 0.08347252, 0.06747253]
17 [0.105016485, 0.1769945, 1.1460274, 0.16996154, 0.15196154, 1.0929945, 0.08898351, 0.0689835]
18 [0.105016485, 0.15501648, 0.5320165, 0.52298355, 0.12998351, 0.10400782, 1.054827, 0.11701856]
19 [0.10172527, 0.2578364, 1.0951697, 0.26744828, 1.1869271, 1.7977408, 0.10947152, 0.11153163]
20 [0.17254993, 0.16055049, 0.52584803, 1.031478, 0.15142573, 0.18300278, 0.53384155, 0.10171633]
21 [0.15706298, 0.14893638, 1.0191785, 0.5381027, 0.15485978, 0.16792166, 0.5221748, 0.09636773]
22 [0.13575971, 0.14862289, 1.108196, 0.25455454, 0.24630639, 1.4593083, 0.11364293, 0.096914396]
23 [0.13434388, 0.09896208, 0.5590029, 1.0465264, 0.15745236, 0.14838387, 0.111572966, 0.53942263]
24 [0.11660634, 0.08660217, 0.13347635, 0.8933992, 0.18272312, 0.1773427, 0.10779715, 0.9508564]
25 [0.10268107, 0.07355652, 0.12528577, 0.12229853, 0.18523483, 0.17905374, 0.107093506, 0.026555963]
26 [0.097874105, 0.06938429, 0.12544292, 0.12244691, 1.1942142, 1.3110834, 0.09492587, 0.027122945]
27 [0.09312576, 0.06402953, 0.12373146, 0.6223473, 0.61850363, 0.048554935, 0.08468147, 0.23795544]
28 [0.1204998, 0.37387437, 0.40872043, 0.12165073, 1.0368928, 0.06402596, 0.08865938, 0.04931178]
29 [0.37648827, 0.9357851, 0.94476163, 0.93773454, 1.0137712, 0.19326387, 0.8912295, 0.05884428]
30 [0.042596906, 0.048006848, 0.12372716, 0.8877104, 0.1872976, 0.19166459, 0.10321158, 0.62178975]
31 [0.49347818, 0.011653477, 0.114039466, 0.94696254, 1.0016944, 0.17684503, 0.90193737, 0.7133652]
32 [0.050729875, 0.016576445, 0.5753805, 0.64702636, 0.18137449, 0.17034675, 0.103938356, 0.500211]
33 [0.057880916, 0.023348771, 0.5893227, 0.655983, 0.17949843, 0.1620172, 0.10491736, 0.520556]
34 [0.598645, 0.45215926, 0.123544514, 0.82702136, 0.8528795, 0.87559587, 0.77229965, 0.07912756]
35 [0.5008503, 0.46857572, 0.12598383, 0.66675586, 0.16541547, 0.3601339, 0.56599724, 0.55219865]
36 [0.06939555, 0.09932181, 0.61505, 0.66670203, 0.15833613, 0.037693147, 0.095600724, 0.560351]
37 [0.0712813, 0.10490021, 0.12774833, 0.16686657, 0.16205423, 0.060169104, 0.098014094, 0.08307679]
38 [0.09287723, 0.12732399, 0.4976376, 0.5373913, 1.0958993, 0.633886, 0.12036504, 0.93755156]
39 [0.24675767, 0.28033975, 0.6245463, 1.1183478, 1.0794642, 0.0959337, 0.09995205, 0.57493055]
40 [0.846449, 0.8696635, 0.62698305, 0.9730096, 0.94336593, 0.72243714, 0.8775117, 0.58605856]
41 [0.07447156, 0.12062865, 0.13114882, 0.17309211, 0.17009896, 0.11794769, 0.103663355, 0.08609948]
42 [0.5748022, 0.6268022, 0.6328022, 0.67416877, 0.6428229, 0.55881816, 0.5966401, 0.5861725]
43 [0.07456053, 0.12377502, 0.13237312, 0.17419074, 0.15217349, 0.12750101, 0.105790496, 0.08619499]
44 [0.07636263, 0.13336264, 0.13636264, 0.17063737, 0.15263736, 0.05636264, 0.108637355, 1.0791428]
45 [0.07636263, 0.13336264, 0.13636264, 0.1706343, 0.15152769, 0.05333493, 0.107847564, 0.08463584]
46 [0.078472525, 0.24958363, 1.0303614, 0.66651845, 1.0327165, 0.9550434, 0.98895794, 0.9714032]
47 [0.078472525, 0.13847253, 0.14147253, 0.16652577, 0.14890715, 0.103262, 0.10508968, 0.08252662]
48 [0.078472525, 0.13847253, 0.14147253, 0.16652618, 0.14905912, 0.104061946, 0.10519692, 0.082526825]
49 [0.078384615, 0.18071795, 1.1140512, 0.19194871, 0.17794871, 0.14094871, 1.068282, 0.08061538]
