0 [0.0, 0.0, 0.0, 0.0, 0.0, 0.0, 0.0, 0.0]
1 [0.0, 0.0, 0.0, 0.0, 0.0, 0.0, 0.0, 0.0]
2 [0.0, 0.0, 0.0, 0.0, 0.0, 0.0, 0.0, 0.0]
3 [0.040120885, 0.040120885, 0.026879122, 0.08312088, 0.08312088, 0.025879122, 0.025879122, 0.062120877]
4 [0.14160562, 0.15061662, 0.13960561, 0.9733944, 0.9743944, 0.023494508, 0.02149451, 0.17761661]
5 [0.030494502, 0.039505504, 0.028494503, 0.9595055, 0.4605055, 0.023494508, 0.02149451, 0.4415055]
6 [0.10082051, 0.104820505, 0.09882051, 1.0191795, 1.0201795, 0.020153854, 0.017153857, 0.13151282]
7 [0.03415384, 0.03815384, 0.03215384, 0.5858462, 0.5868462, 0.020153854, 0.017153857, 0.56484616]
8 [0.041071434, 0.047928575, 0.037928563, 0.032928567, 0.9630714, 0.08907142, 0.011928564, 0.8799286]
9 [0.04479121, 0.1663199, 0.15331991, 0.14931989, 1.0312356, 1.0332357, 0.011208786, 0.008791207]
10 [0.04479121, 0.05520879, 0.042208802, 0.038208783, 0.8367912, 0.0887912, 0.011208786, 0.7587912]
11 [0.046313185, 0.99502015, 0.19102016, 0.17702015, 1.0196465, 0.08931319, 0.01068681, 0.012313192]
12 [0.04620329, 0.8657967, 0.9637967, 0.9477967, 0.8852033, 0.09020329, 0.0107967025, 0.014203297]
13 [0.04620329, 0.065796696, 0.0637967, 0.047796715, 0.8352033, 0.8402033, 0.0107967025, 0.014203297]
14 [0.044642862, 0.06635714, 0.06435714, 0.047357135, 1.0736538, 0.09064286, 0.010357146, 0.014642854]
15 [0.044642862, 0.06635714, 0.06435714, 0.047357135, 0.8346429, 0.84064287, 0.010357146, 0.014642854]
16 [0.04198352, 0.06601649, 0.06301649, 0.04701648, 0.7840165, 0.8409835, 0.011016489, 0.01398351]
17 [0.076560445, 0.10436264, 1.0574065, 0.046901096, 0.03390111, 0.0900989, 0.0900989, 0.012098906]
18 [0.035104398, 0.06589562, 0.061895594, 0.04689561, 0.7838956, 1.0836098, 0.09010439, 0.011104397]
19 [0.035104398, 0.06589562, 0.061895594, 0.04689561, 0.033895597, 0.08910439, 0.09010439, 0.011104397]
20 [0.032252748, 0.06574724, 1.0507582, 0.04674726, 0.03374725, 1.0782638, 0.09025275, 0.010252745]
21 [0.029098902, 0.06590109, 0.04790111, 0.045901112, 0.7839011, 1.0826044, 0.0900989, 0.010098896]
22 [0.029098902, 0.06590109, 0.04790111, 0.045901112, 0.0339011, 0.0880989, 0.0900989, 0.010098896]
23 [0.10248352, 0.14136264, 1.0364505, 0.045439553, 0.7834396, 1.0775714, 0.090560436, 0.008560443]
24 [0.022785714, 0.06421429, 0.047214277, 0.044214282, 0.033214293, 0.08778571, 0.08978572, 0.006785718]
25 [0.27847803, 0.31047803, 0.29647803, 0.041478023, 0.78247803, 0.837522, 0.96352196, 0.881478]
26 [0.028478023, 0.060478028, 0.04647802, 0.041478023, 0.03247802, 0.08752198, 0.08852198, 0.006478019]
27 [0.54154396, 0.5535439, 0.54254395, 0.03654395, 0.08445604, 0.086456046, 0.58645606, 0.51054394]
28 [0.04515385, 1.0291648, 0.039153844, 0.030659342, 0.83334064, 0.8343407, 0.027153844, 0.024153847]
29 [0.039659344, 0.034659337, 0.03365934, 0.030659342, 0.08334066, 0.08434066, 0.021659339, 0.018659342]
30 [1.0171539, 0.026725277, 0.025274722, 0.08272528, 1.0541538, 0.03127473, 0.033274725, 0.037274722]
31 [0.04978572, 0.011214282, 0.08878571, 0.8377857, 0.8347857, 0.046214286, 0.060214296, 0.06421429]
32 [0.04978572, 0.011214282, 0.08878571, 0.08778571, 0.084785715, 0.046214286, 0.060214296, 0.06421429]
33 [0.038390107, 0.11139011, 1.0864121, 0.9085989, 0.05359891, 0.08059891, 0.09558792, 0.06858792]
34 [0.027401095, 0.100401096, 0.0974011, 0.033598907, 0.05359891, 0.08059891, 0.08459891, 0.057598908]
35 [0.6201813, 0.61418134, 0.023818687, 0.054818682, 0.5948187, 0.5748187, 0.5648187, 0.5238187]
36 [0.6405275, 0.034527477, 0.9144725, 0.57547253, 0.5714725, 0.5534725, 0.5214725, 0.53152746]
37 [0.14052747, 0.034527477, 0.039472524, 0.07547253, 0.07147252, 0.053472534, 0.021472517, 0.031527467]
38 [0.058818683, 0.92717034, 0.076159336, 0.070159346, 0.054159332, 0.029170336, 1.0768406, 0.11082967]
39 [0.03958791, 0.9235879, 0.056412093, 0.046412077, 0.036412086, 0.027412096, 0.97758794, 0.105587915]
40 [0.03958791, 0.048587915, 0.056412093, 0.046412077, 0.036412086, 0.027412096, 0.10258791, 0.105587915]
41 [0.81525826, 0.070247255, 0.042730767, 0.029741758, 1.0177528, 0.8462582, 0.107247256, 0.036730774]
42 [0.06525825, 0.05925824, 0.031741757, 0.029741758, 0.02874176, 0.096258245, 0.096258245, 0.025741763]
43 [1.0689865, 0.028431013, 0.03201344, 0.995569, 0.12743102, 0.12643102, 0.048791204, 0.06279121]
44 [0.9128846, 0.020884616, 0.99344873, 0.12355128, 1.088218, 0.086782046, 0.11678204, 0.105782054]
45 [0.03788461, 0.020884616, 0.010115391, 0.10688461, 0.10488462, 0.07011538, 0.100115374, 0.08911539]
46 [0.07234249, 1.0170091, 0.13434249, 0.13234249, 0.9493242, 0.12132419, 0.13299084, 0.064342484]
47 [0.070197806, 0.1331978, 0.13019781, 0.9478022, 0.13380219, 0.12580219, 0.067802206, 0.1251978]
48 [0.070197806, 0.1331978, 0.13019781, 0.0728022, 0.13380219, 0.12580219, 0.067802206, 0.1251978]
49 [0.14976373, 0.14076373, 0.07723626, 0.13623628, 0.11923627, 0.07823626, 0.11076374, 0.11576374]
