0 [0.0, 0.0, 0.0, 0.0, 0.0, 0.0, 0.0, 0.0]
1 [0.0, 0.0, 0.0, 0.0, 0.0, 0.0, 0.0, 0.0]
2 [0.0, 0.0, 0.0, 0.0, 0.0, 0.0, 0.0, 0.0]
3 [0.040120885, 0.040120885, 0.026879122, 0.08312088, 0.08312088, 0.025879122, 0.025879122, 0.062120877]
4 [0.14160562, 0.15061662, 0.13960561, 0.9733944, 0.9743944, 0.023494508, 0.02149451, 0.17761661]
5 [0.030494502, 0.039505504, 0.028494503, 0.9595055, 0.4605055, 0.023494508, 0.02149451, 0.4415055]
6 [0.10082051, 0.104820505, 0.09882051, 1.0191795, 1.0201795, 0.020153854, 0.017153857, 0.13151282]
7 [0.03415384, 0.03815384, 0.03215384, 0.5858462, 0.5868462, 0.020153854, 0.017153857, 0.56484616]
8 [0.041071434, 0.047928575, 0.037928563, 0.032928567, 0.9630714, 0.08907142, 0.011928564, 0.8799286]
9 [0.04479121, 0.1663199, 0.15331991, 0.14931989, 1.0312356, 1.0332357, 0.011208786, 0.008791207]
10 [0.04479121, 0.05520879, 0.042208802, 0.038208783, 0.8367912, 0.0887912, 0.011208786, 0.7587912]
11 [0.046313185, 0.99502015, 0.19102016, 0.17702015, 1.0196465, 0.08931319, 0.01068681, 0.012313192]
12 [0.04620329, 0.865999, 1.0546335, 1.6078527, 0.9686328, 0.09022437, 0.0107967025, 0.014203297]
13 [0.04620329, 0.06580962, 0.0688691, 0.08029879, 1.4829885, 0.9195471, 0.010799225, 0.014203297]
14 [0.044642862, 0.06636708, 0.068257205, 0.07225496, 1.7685769, 0.09785538, 0.010359185, 0.014642854]
15 [0.044642862, 0.06636465, 0.06730379, 0.06618971, 1.2456251, 0.8915662, 0.010358698, 0.014642854]
16 [0.04198352, 0.06602213, 0.06519725, 0.061149474, 1.0759648, 0.87951136, 0.011017738, 0.01398351]
17 [0.076560445, 0.10436938, 1.0850353, 0.057545844, 0.043432996, 0.0932156, 0.090106614, 0.012098906]
18 [0.035104398, 0.06589883, 0.06311789, 0.054950755, 1.0243381, 1.8663865, 0.09860033, 0.011106989]
19 [0.035104398, 0.065880425, 0.056141537, 0.015599478, 0.038376976, 0.1431799, 0.09727157, 0.011106585]
20 [0.032252748, 0.06573388, 0.9643802, 0.01409333, 0.009844573, 1.4600304, 0.09569438, 0.0102542825]
21 [0.029098902, 0.06590625, 0.04940323, 0.052841756, 0.36885825, 1.3599437, 0.09420467, 0.010100042]
22 [0.029098902, 0.06590633, 0.049430877, 0.0539074, 0.020433899, 0.105095595, 0.09320198, 0.010099761]
23 [0.10248352, 0.1413713, 1.0622028, 0.055871442, 1.0940552, 1.3360258, 0.0929365, 0.008560997]
24 [0.022785714, 0.06421727, 0.048103295, 0.052261777, 0.04519949, 0.10442565, 0.091568, 0.0067860503]
25 [0.27847803, 0.3104889, 0.30069387, 0.04718843, 0.9142247, 0.29070446, 0.874099, 0.88127506]
26 [0.54154396, 0.5535586, 0.54837483, 0.040346447, 0.094209746, 0.036138844, 0.5382901, 0.51043993]
27 [0.04515385, 1.029192, 0.03957464, 0.03384953, 0.92958194, 0.3487565, 0.024923682, 0.024148926]
28 [0.039659344, 0.03466003, 0.03393274, 0.033077598, 0.09840817, 0.105508976, 0.022339946, 0.018660793]
29 [1.0171539, 0.02671854, 0.022705182, 0.021761205, 1.0930969, 0.03909582, 0.03433817, 0.037277672]
30 [0.04978572, 0.0112118125, 0.08089942, 0.29695493, 0.84850013, 0.05511692, 0.061698597, 0.06421821]
31 [0.04978572, 0.0112123955, 0.08273695, 0.035023887, 0.018275974, 0.047973424, 0.06132184, 0.06421726]
32 [0.038390107, 0.11137594, 1.0304481, 0.48498514, 0.017056843, 0.081940725, 0.096912704, 0.06859032]
33 [0.027401095, 0.10039145, 0.0936086, 0.021734603, 0.02569217, 0.081554346, 0.085484914, 0.057600424]
34 [0.6201813, 0.61414003, 0.023169605, 0.041222934, 0.37449512, 0.5816, 0.5692934, 0.5238291]
35 [0.6405275, 0.034525722, 0.895657, 0.4675686, 0.3550857, 0.15368253, 0.47298583, 0.5314051]
36 [0.14052747, 0.03452615, 0.038858708, 0.064773574, 0.049684677, 0.016905671, 0.01956279, 0.031520523]
37 [0.058818683, 0.9271434, 0.07526425, 0.062642366, 0.04164182, 0.0139368735, 1.0036725, 0.11081102]
38 [0.03958791, 0.9235677, 0.055911507, 0.042657577, 0.03005638, 0.016594687, 0.9273925, 0.10557449]
39 [0.03958791, 0.04858711, 0.05603376, 0.043574482, 0.031608447, 0.019235933, 0.098606534, 0.10557776]
40 [0.81525826, 0.070247255, 0.042729832, 0.029476983, 0.923722, 0.66928613, 0.10433786, 0.036728308]
41 [0.06525825, 0.059257682, 0.03162028, 0.02870424, 0.026625281, 0.08104355, 0.094284676, 0.025740456]
42 [1.0689865, 0.02843081, 0.031920843, 0.9693209, 0.12033895, 0.11132756, 0.04803515, 0.0627888]
43 [0.9128846, 0.020884616, 0.99344873, 0.1235477, 1.0754964, 0.079285815, 0.115416825, 0.10577899]
44 [0.03788461, 0.020884616, 0.010115318, 0.10657445, 0.10172601, 0.065336004, 0.0992301, 0.08911344]
45 [0.07234249, 1.0170091, 0.13434249, 0.13234249, 0.9493242, 0.12132419, 0.13299084, 0.064342484]
46 [0.070197806, 0.1331978, 0.13019781, 0.9477903, 0.13312759, 0.12111557, 0.067460366, 0.12519623]
47 [0.070197806, 0.1331978, 0.13019781, 0.072801515, 0.13329235, 0.12226012, 0.06754385, 0.12519662]
48 [0.14976373, 0.14076373, 0.07723626, 0.13623531, 0.11889288, 0.07657141, 0.110444754, 0.11576291]
49 [0.6497637, 0.14076373, 0.57723624, 0.6362363, 0.6192363, 0.0, 0.0, 0.0]
