0 [0.0, 0.0, 0.0, 0.0, 0.0, 0.0, 0.0, 0.0]
1 [0.0, 0.0, 0.0, 0.0, 0.0, 0.0, 0.0, 0.0]
2 [0.0, 0.0, 0.0, 0.0, 0.0, 0.0, 0.0, 0.0]
3 [0.0, 0.0, 0.0, 0.0, 0.0, 0.0, 0.0, 0.0]
4 [0.0, 0.0054945056, 0.0054945056, 0.0054945056, 0.0054945056, 0.0, 0.0, 0.99450547]
5 [0.0, 0.0, 0.0, 0.0, 0.0, 0.0, 0.0, 0.0]
6 [0.9285714, 0.9285714, 0.071428575, 0.071428575, 0.9285714, 0.0, 0.0, 0.071428575]
7 [0.045454547, 0.045454547, 0.045454547, 0.045454547, 0.95454544, 0.0, 0.0, 0.045454547]
8 [0.0, 0.0, 0.0, 0.0, 0.0, 0.0, 0.0, 0.0]
9 [0.95454544, 0.045454547, 0.045454547, 0.045454547, 0.95454544, 0.045454547, 0.0, 0.0]
10 [0.0, 0.0, 0.0, 0.0, 0.0, 0.0, 0.0, 0.0]
11 [0.0, 0.0, 0.0, 0.0, 0.0, 0.0, 0.0, 0.0]
12 [0.0625, 0.0, 0.0625, 0.0625, 0.9375, 0.9375, 0.0, 0.0]
13 [0.027777778, 0.027777778, 0.9722222, 0.027777778, 0.027777778, 0.9722222, 0.0, 0.0]
14 [0.0, 0.0, 0.0, 0.0, 0.0, 0.0, 0.0, 0.0]
15 [0.0, 0.0, 0.0, 0.0, 0.0, 0.0, 0.0, 0.0]
16 [0.5, 0.5, 0.5, 0.5, 0.5, 0.5, 0.5, 0.0]
17 [0.0, 0.0, 0.0, 0.0, 0.0, 0.0, 0.0, 0.0]
18 [0.0, 0.027777778, 0.0, 0.027777778, 0.027777778, 0.9722222, 0.9722222, 0.0]
19 [0.0, 0.045454547, 0.045454547, 0.045454547, 0.045454547, 0.045454547, 0.95454544, 0.0]
20 [0.0, 0.0, 0.0, 0.0, 0.0, 0.0, 0.0, 0.0]
21 [0.0, 0.027777778, 0.027777778, 0.027777778, 0.027777778, 0.027777778, 0.9722222, 0.027777778]
22 [0.0, 0.0, 0.0, 0.0, 0.0, 0.0, 0.0, 0.0]
23 [0.0, 0.0, 0.0625, 0.0, 0.0625, 0.0625, 0.9375, 0.9375]
24 [0.0, 0.0, 0.95454544, 0.0, 0.045454547, 0.045454547, 0.045454547, 0.95454544]
25 [0.0, 0.0, 0.0, 0.0, 0.0, 0.0, 0.0, 0.0]
26 [0.0, 0.0, 0.2, 0.9, 0.2, 0.2, 0.9, 0.9]
27 [0.0, 0.0, 0.0, 0.0, 0.0, 0.0, 0.0, 0.0]
28 [0.0, 0.0, 0.03846154, 0.03846154, 0.0, 0.96153843, 0.03846154, 0.96153843]
29 [0.93333334, 0.0, 0.0, 0.93333334, 0.0, 0.13333334, 0.13333334, 0.93333334]
30 [0.0, 0.0, 0.0, 0.0, 0.0, 0.0, 0.0, 0.0]
31 [0.0, 0.0, 0.0, 0.0, 0.0, 0.0, 0.0, 0.0]
32 [0.0, 0.0, 0.0, 0.0, 0.0, 0.0, 0.0, 0.0]
33 [0.9285714, 0.9285714, 0.0, 0.14285715, 0.75, 0.0, 0.14285715, 0.14285715]
34 [0.75, 0.0, 0.0, 0.0, 0.75, 0.0, 0.0, 0.0]
35 [0.0, 0.0, 0.0, 0.0, 0.0, 0.0, 0.0, 0.0]
36 [0.0, 0.0, 0.0, 0.0, 0.0, 0.0, 0.0, 0.99450547]
37 [0.0, 0.0, 0.0, 0.0, 0.0, 0.0, 0.0, 0.0]
38 [0.010989011, 0.989011, 0.0, 0.0, 0.010989011, 0.989011, 0.010989011, 0.010989011]
39 [0.0, 0.0, 0.0, 0.0, 0.0, 0.0, 0.0, 0.0]
40 [0.0, 0.0, 0.0, 0.0, 0.0, 0.0, 0.0, 0.0]
41 [0.875, 0.022222223, 0.9777778, 0.0, 0.0, 0.875, 0.0, 0.022222223]
42 [0.0, 0.0, 0.0, 0.0, 0.0, 0.0, 0.0, 0.0]
43 [0.0, 0.0, 0.0, 0.0, 0.0, 0.0, 0.0, 0.0]
44 [0.9444444, 0.11111111, 0.9444444, 0.9444444, 0.0, 0.75, 0.9444444, 0.11111111]
45 [0.0, 0.0, 0.0, 0.0, 0.0, 0.0, 0.0, 0.0]
46 [0.875, 0.375, 0.875, 0.875, 0.0, 0.875, 0.375, 0.0]
47 [0.875, 0.8, 0.8, 0.8, 0.0, 0.875, 0.8, 0.0]
48 [0.0, 0.0, 0.0, 0.0, 0.0, 0.0, 0.0, 0.0]
49 [0.875, 0.9230769, 0.9230769, 0.0, 0.0, 0.875, 0.9230769, 0.0]
