0 [0.0, 0.0, 0.0, 0.0, 0.0, 0.0, 0.0, 0.0]
1 [0.0, 0.0, 0.0, 0.0, 0.0, 0.0, 0.0, 0.0]
2 [0.0, 0.0, 0.0, 0.0, 0.0, 0.0, 0.0, 0.0]
3 [0.0, 0.0, 0.0, 0.0, 0.0, 0.0, 0.0, 0.0]
4 [0.16730769, 0.117307685, 0.0616923, 0.0616923, 0.060692303, 0.060692303, 0.059692305, 0.059692305]
5 [0.16730769, 0.117307685, 0.0616923, 0.0616923, 0.060692303, 0.060692303, 0.059692305, 0.059692305]
6 [0.16730769, 0.117307685, 0.0616923, 0.0616923, 0.060692303, 0.060692303, 0.059692305, 0.059692305]
7 [0.16730769, 0.117307685, 0.0616923, 0.0616923, 0.060692303, 0.060692303, 0.059692305, 0.059692305]
8 [1.025434, 0.11829121, 0.6637088, 0.8637088, 0.8617088, 0.8607088, 0.05970879, 0.8587088]
9 [0.16804396, 0.120043956, 0.44295606, 0.94195604, 0.939956, 0.43695605, 0.05995604, 0.43195605]
10 [1.0251868, 0.120043956, 0.29872528, 0.990033, 0.98803294, 0.29272527, 0.05995604, 0.980033]
11 [0.1657967, 0.1207967, 0.074203305, 0.0732033, 0.06920329, 0.06520329, 0.061203294, 0.057203297]
12 [0.16239011, 0.1173901, 0.0776099, 0.0766099, 0.07260988, 0.068609886, 0.064609885, 1.2524011]
13 [0.16239011, 0.1173901, 0.0776099, 0.0766099, 0.07260988, 0.068609886, 0.064609885, 0.26339012]
14 [0.16164286, 0.124642864, 0.06364286, 0.12432419, 1.0713681, 0.10632418, 0.058357153, 0.08532417]
15 [0.16035165, 0.12435165, 0.06735165, 1.0321484, 1.0241483, 0.45064834, 0.43864834, 0.42664835]
16 [0.8270183, 0.79101837, 0.06735165, 0.094648354, 0.08664836, 0.075648345, 0.06364836, 0.05164835]
17 [0.15692857, 0.122928575, 0.06992858, 0.09907143, 0.091071434, 0.079071425, 0.066071436, 0.053071428]
18 [0.15692857, 0.122928575, 0.06992858, 0.7657381, 0.091071434, 0.079071425, 0.066071436, 0.7197381]
19 [0.15446155, 0.12146153, 0.07246154, 1.0410385, 1.0340384, 0.08153846, 0.63003844, 0.053538464]
20 [0.15446155, 0.12146153, 0.07246154, 0.10353846, 0.09653847, 0.08153846, 0.06753845, 0.9106813]
21 [0.15218681, 0.120186806, 0.073186815, 0.10681319, 0.100813195, 0.08581319, 0.06981318, 0.053813193]
22 [0.14964835, 0.11964835, 0.07364835, 0.108351655, 1.0700183, 0.08735165, 1.0370183, 0.05235166]
23 [0.14964835, 0.11964835, 0.07364835, 0.108351655, 0.10335166, 0.08735165, 0.070351645, 0.05235166]
24 [0.14957692, 0.11857693, 0.072576925, 0.10742308, 0.10142307, 0.9425659, 0.06942307, 0.051423065]
25 [0.15247802, 0.11947802, 0.067478016, 1.035022, 0.21552198, 1.015022, 1.002022, 0.051521987]
26 [0.15247802, 0.11947802, 0.067478016, 0.09752199, 0.09052198, 0.07752199, 0.064521976, 0.051521987]
27 [0.82622164, 0.7872216, 0.074445054, 0.7441117, 0.7351117, 1.0412228, 0.11911172, 0.8131117]
28 [0.15955494, 0.12055494, 0.074445054, 0.07744505, 0.06844506, 0.06344506, 0.05244505, 0.74644506]
29 [0.15598351, 0.11298352, 0.07301648, 0.072016485, 0.06701649, 0.06301649, 0.05801647, 0.05401648]
30 [0.82399637, 0.10932967, 0.16067034, 0.726337, 1.0096704, 0.15867034, 0.057670336, 1.0066704]
31 [0.15732968, 0.10932967, 0.06067033, 0.059670333, 0.059670333, 0.058670335, 0.057670336, 0.056670334]
32 [0.1576044, 0.1006044, 1.0150622, 0.11806228, 1.0210623, 0.12506227, 0.0623956, 0.12906227]
33 [0.52775276, 0.07175276, 0.061730765, 1.0292583, 0.08773076, 0.08722527, 0.09622527, 0.94424725]
34 [0.15275276, 0.07175276, 0.03975274, 0.040247254, 0.06575274, 0.06524725, 0.07424725, 0.06924725]
35 [0.8032326, 0.0473437, 0.72123265, 1.0126563, 0.0983437, 0.08243407, 0.112211846, 0.8162326]
36 [0.13656594, 0.019565925, 0.05456594, 0.040434066, 0.070565924, 0.08243407, 0.08443407, 0.14956594]
37 [0.10583517, 0.06383516, 0.027164824, 0.07083518, 0.07616483, 0.09416483, 0.10216483, 0.15183517]
38 [0.10583517, 0.06383516, 0.027164824, 0.07083518, 0.07616483, 0.09416483, 0.10216483, 0.15183517]
39 [0.062467027, 0.07446704, 0.99705017, 0.07246704, 0.09653296, 0.113532975, 0.07753296, 0.9986099]
40 [0.0862033, 0.0782033, 0.0752033, 0.0757967, 0.10979671, 0.124796696, 0.1282033, 0.1332033]
41 [0.0862033, 0.0782033, 0.0752033, 0.0757967, 0.10979671, 0.124796696, 0.1282033, 0.1332033]
42 [0.09231868, 0.955652, 0.45231867, 0.08468133, 1.0450146, 0.13068134, 0.12731868, 0.5003187]
43 [0.09231868, 0.022318687, 0.07731868, 0.08468133, 0.11168133, 0.13068134, 0.12731868, 0.12531869]
44 [0.16600734, 0.954674, 0.45434067, 0.16332601, 1.0669926, 0.11365935, 0.18900734, 0.94534063]
45 [1.0499829, 0.9659829, 0.45853847, 0.16601709, 0.19101708, 0.104538456, 0.174094, 0.44853848]
46 [0.10553846, 0.021538466, 0.083538465, 0.110461526, 0.13546152, 0.104538456, 0.118538454, 0.07353847]
47 [1.0010996, 0.5899231, 1.0250995, 0.111076936, 1.0772533, 0.11092308, 1.0560995, 0.5749231]
48 [0.05973076, 0.095730774, 0.08326922, 0.13826922, 0.12726925, 0.110730775, 0.03573076, 0.07473077]
49 [0.05973076, 0.095730774, 0.08326922, 0.13826922, 0.12726925, 0.110730775, 0.03573076, 0.07473077]
