0 [0.0, 0.0, 0.0, 0.0, 0.0, 0.0, 0.0, 0.0]
1 [0.0, 0.0, 0.0, 0.0, 0.0, 0.0, 0.0, 0.0]
2 [0.0, 0.0, 0.0, 0.0, 0.0, 0.0, 0.0, 0.0]
3 [0.0, 0.0, 0.0, 0.0, 0.0, 0.0, 0.0, 0.0]
4 [0.0, 0.0, 0.0, 0.0, 0.0, 0.0, 0.0, 0.0]
5 [0.0, 0.0, 0.0, 0.0, 0.0, 0.0, 0.0, 0.0]
6 [0.85714287, 0.0, 0.6, 0.8, 0.8, 0.8, 0.0, 0.8]
7 [0.0, 0.0, 0.375, 0.875, 0.875, 0.375, 0.0, 0.375]
8 [0.85714287, 0.0, 0.23076923, 0.9230769, 0.9230769, 0.23076923, 0.0, 0.9230769]
9 [0.0, 0.0, 0.0, 0.0, 0.0, 0.0, 0.0, 0.0]
10 [0.0, 0.0, 0.0, 0.0, 0.0, 0.0, 0.0, 0.989011]
11 [0.0, 0.0, 0.0, 0.0, 0.0, 0.0, 0.0, 0.0]
12 [0.0, 0.0, 0.0, 0.032967035, 0.989011, 0.032967035, 0.0, 0.032967035]
13 [0.0, 0.0, 0.0, 0.9375, 0.9375, 0.375, 0.375, 0.375]
14 [0.6666667, 0.6666667, 0.0, 0.0, 0.0, 0.0, 0.0, 0.0]
15 [0.0, 0.0, 0.0, 0.0, 0.0, 0.0, 0.0, 0.0]
16 [0.0, 0.0, 0.0, 0.6666667, 0.0, 0.0, 0.0, 0.6666667]
17 [0.0, 0.0, 0.0, 0.9375, 0.9375, 0.0, 0.5625, 0.0]
18 [0.0, 0.0, 0.0, 0.0, 0.0, 0.0, 0.0, 0.85714287]
19 [0.0, 0.0, 0.0, 0.0, 0.0, 0.0, 0.0, 0.0]
20 [0.0, 0.0, 0.0, 0.0, 0.96666664, 0.0, 0.96666664, 0.0]
21 [0.0, 0.0, 0.0, 0.0, 0.0, 0.0, 0.0, 0.0]
22 [0.0, 0.0, 0.0, 0.0, 0.0, 0.85714287, 0.0, 0.0]
23 [0.0, 0.0, 0.0, 0.9375, 0.125, 0.9375, 0.9375, 0.0]
24 [0.0, 0.0, 0.0, 0.0, 0.0, 0.0, 0.0, 0.0]
25 [0.6666667, 0.6666667, 0.0, 0.6666667, 0.6666667, 0.9777778, 0.06666667, 0.06666667]
26 [0.0, 0.0, 0.0, 0.0, 0.0, 0.0, 0.0, 0.0]
27 [0.0, 0.0, 0.0, 0.0, 0.0, 0.0, 0.0, 0.0]
28 [0.6666667, 0.0, 0.1, 0.6666667, 0.95, 0.1, 0.0, 0.95]
29 [0.0, 0.0, 0.0, 0.0, 0.0, 0.0, 0.0, 0.0]
30 [0.0, 0.0, 0.96666664, 0.06666667, 0.96666664, 0.06666667, 0.0, 0.06666667]
31 [0.375, 0.0, 0.021978023, 0.989011, 0.021978023, 0.021978023, 0.021978023, 0.875]
32 [0.0, 0.0, 0.0, 0.0, 0.0, 0.0, 0.0, 0.0]
33 [0.6666667, 0.027777778, 0.6666667, 0.9722222, 0.027777778, 0.0, 0.027777778, 0.6666667]
34 [0.0, 0.0, 0.0, 0.0, 0.0, 0.0, 0.0, 0.0]
35 [0.0, 0.0, 0.0, 0.0, 0.0, 0.0, 0.0, 0.0]
36 [0.0, 0.0, 0.0, 0.0, 0.0, 0.0, 0.0, 0.0]
37 [0.0, 0.0, 0.9655172, 0.0, 0.0, 0.0, 0.0, 0.85714287]
38 [0.0, 0.0, 0.0, 0.0, 0.0, 0.0, 0.0, 0.0]
39 [0.0, 0.0, 0.0, 0.0, 0.0, 0.0, 0.0, 0.0]
40 [0.0, 0.93333334, 0.375, 0.0, 0.93333334, 0.0, 0.0, 0.375]
41 [0.0, 0.0, 0.0, 0.0, 0.0, 0.0, 0.0, 0.0]
42 [0.06666667, 0.93333334, 0.375, 0.06666667, 0.93333334, 0.0, 0.06666667, 0.875]
43 [0.9444444, 0.9444444, 0.375, 0.055555556, 0.055555556, 0.0, 0.055555556, 0.375]
44 [0.0, 0.0, 0.0, 0.0, 0.0, 0.0, 0.0, 0.0]
45 [0.9411765, 0.5, 0.9411765, 0.0, 0.9411765, 0.0, 0.9411765, 0.5]
46 [0.0, 0.0, 0.0, 0.0, 0.0, 0.0, 0.0, 0.0]
47 [0.0, 0.0, 0.0, 0.0, 0.0, 0.0, 0.0, 0.0]
48 [0.95, 0.375, 0.05, 0.95, 0.0, 0.05, 0.875, 0.95]
49 [0.0, 0.0, 0.0, 0.0, 0.0, 0.0, 0.0, 0.0]
