0 [10.0, 10.0, 10.0, 10.0, 10.0, 10.0, 10.0, 10.0, 10.0, 10.0, 10.0, 10.0, 10.0, 10.0, 10.0, 10.0, 10.0, 10.0, 10.0, 10.0, 10.0, 10.0, 10.0, 10.0, 10.0, 10.0, 10.0, 10.0, 10.0, 10.0, 10.0, 10.0, 10.0, 10.0, 10.0, 10.0, 10.0, 10.0, 10.0, 10.0, 10.0, 10.0, 10.0, 10.0, 10.0, 10.0, 10.0, 10.0, 10.0, 10.0, 10.0, 10.0, 10.0, 10.0, 10.0, 10.0, 10.0, 10.0, 10.0, 10.0, 10.0, 10.0, 10.0, 10.0, 10.0, 10.0, 10.0, 10.0, 10.0, 10.0, 10.0, 10.0, 10.0, 10.0, 10.0, 10.0, 10.0, 10.0, 10.0, 10.0, 10.0, 10.0, 10.0, 10.0, 10.0, 10.0, 10.0, 10.0, 10.0, 10.0, 10.0, 10.0, 10.0, 10.0, 10.0, 10.0, 10.0, 10.0, 10.0, 10.0, 10.0, 10.0, 10.0, 10.0, 10.0, 10.0, 10.0, 10.0, 10.0, 10.0, 10.0, 10.0, 10.0, 10.0, 10.0, 10.0, 10.0, 10.0, 10.0, 10.0, 10.0, 10.0, 10.0, 10.0, 10.0, 10.0, 10.0, 10.0, 10.0, 10.0, 10.0, 10.0, 10.0, 10.0, 10.0, 10.0, 10.0, 10.0, 10.0, 10.0, 10.0, 10.0, 10.0, 10.0, 10.0, 10.0, 10.0, 10.0, 10.0, 10.0, 10.0, 10.0, 10.0, 10.0, 10.0, 10.0, 10.0, 10.0, 10.0, 10.0, 10.0, 10.0, 10.0, 10.0, 10.0, 10.0, 10.0, 10.0, 10.0, 10.0, 10.0, 10.0, 10.0, 10.0, 10.0, 10.0, 10.0, 10.0, 10.0, 10.0, 10.0, 10.0]
1 [10.0, 10.0, 10.0, 10.0, 10.0, 10.0, 10.0, 10.0, 10.0, 10.0, 10.0, 10.0, 10.0, 10.0, 10.0, 10.0, 10.0, 10.0, 10.0, 10.0, 10.0, 10.0, 10.0, 10.0, 10.0, 10.0, 10.0, 10.0, 10.0, 10.0, 10.0, 10.0, 10.0, 10.0, 10.0, 10.0, 10.0, 10.0, 10.0, 10.0, 10.0, 10.0, 10.0, 10.0, 10.0, 10.0, 10.0, 10.0, 10.0, 10.0, 10.0, 10.0, 10.0, 10.0, 10.0, 10.0, 10.0, 10.0, 10.0, 10.0, 10.0, 10.0, 10.0, 10.0, 10.0, 10.0, 10.0, 10.0, 10.0, 10.0, 10.0, 10.0, 10.0, 10.0, 10.0, 10.0, 10.0, 10.0, 10.0, 10.0, 10.0, 10.0, 10.0, 10.0, 10.0, 10.0, 10.0, 10.0, 10.0, 10.0, 10.0, 10.0, 10.0, 10.0, 10.0, 10.0, 10.0, 10.0, 10.0, 10.0, 10.0, 10.0, 10.0, 10.0, 10.0, 10.0, 10.0, 10.0, 10.0, 10.0, 10.0, 10.0, 10.0, 10.0, 10.0, 10.0, 10.0, 10.0, 10.0, 10.0, 10.0, 10.0, 10.0, 10.0, 10.0, 10.0, 10.0, 10.0, 10.0, 10.0, 10.0, 10.0, 10.0, 10.0, 10.0, 10.0, 10.0, 10.0, 10.0, 10.0, 10.0, 10.0, 10.0, 10.0, 10.0, 10.0, 10.0, 10.0, 10.0, 10.0, 10.0, 10.0, 10.0, 10.0, 10.0, 10.0, 10.0, 10.0, 10.0, 10.0, 10.0, 10.0, 10.0, 10.0, 10.0, 10.0, 10.0, 10.0, 10.0, 10.0, 10.0, 10.0, 10.0, 10.0, 10.0, 10.0, 10.0, 10.0, 10.0, 10.0, 10.0, 10.0]
2 [1.07, 1.08, 1.1, 1.12, 1.14, 1.16, 1.18, 1.2, 1.22, 1.25, 1.27, 1.29, 1.31, 1.34, 1.36, 1.39, 1.41, 1.44, 1.46, 1.49, 1.52, 1.54, 1.57, 1.6, 1.63, 1.66, 1.7, 1.73, 1.76, 1.8, 1.83, 1.87, 1.91, 1.95, 1.99, 2.03, 2.07, 2.12, 2.16, 2.21, 2.26, 2.31, 2.36, 2.42, 2.47, 2.53, 2.6, 2.66, 2.73, 2.8, 2.87, 2.95, 3.03, 3.11, 3.2, 3.3, 3.36, 3.36, 3.36, 3.36, 3.36, 3.36, 3.36, 3.36, 3.36, 3.36, 3.36, 3.36, 3.36, 3.36, 3.36, 3.36, 3.36, 3.36, 3.36, 3.36, 2.68, 2.68, 2.68, 2.68, 2.68, 2.68, 2.68, 2.68, 2.68, 3.35, 3.35, 3.35, 3.35, 3.35, 3.35, 3.35, 3.35, 3.35, 3.35, 3.35, 3.35, 3.35, 3.35, 3.35, 3.35, 3.35, 3.35, 3.35, 3.35, 3.35, 3.35, 3.35, 3.35, 3.35, 3.35, 3.35, 3.35, 3.35, 3.35, 3.35, 3.35, 3.35, 3.35, 3.35, 2.37, 2.28, 2.25, 2.25, 2.25, 2.25, 2.25, 2.25, 2.25, 2.25, 2.25, 3.35, 3.35, 3.35, 3.35, 3.35, 3.34, 3.34, 3.34, 3.34, 3.34, 3.34, 3.34, 3.34, 3.34, 3.34, 3.34, 3.34, 3.34, 3.34, 3.34, 3.34, 3.34, 3.34, 3.34, 3.34, 3.34, 3.34, 3.34, 3.34, 3.34, 3.34, 3.34, 2.67, 2.62, 2.57, 2.53, 2.48, 2.47, 2.47, 2.47, 2.47, 2.47, 3.34, 3.29, 3.23, 3.17, 3.12, 3.06, 3.01, 2.96, 2.91]
3 [1.07, 1.08, 1.1, 1.12, 1.14, 1.16, 1.18, 1.2, 1.22, 1.25, 1.27, 1.29, 1.31, 1.34, 1.36, 1.39, 1.41, 1.44, 1.46, 1.49, 1.52, 1.54, 1.57, 1.6, 1.63, 1.66, 1.7, 1.73, 1.76, 1.8, 1.83, 1.87, 1.91, 1.95, 1.99, 2.03, 2.07, 2.12, 2.16, 2.21, 2.26, 2.31, 2.36, 2.42, 2.47, 2.53, 2.6, 2.66, 2.73, 2.8, 2.87, 2.95, 3.03, 3.11, 3.2, 3.3, 3.36, 3.36, 3.36, 3.36, 3.36, 3.36, 3.36, 3.36, 3.36, 3.36, 3.36, 3.36, 3.36, 3.36, 3.36, 3.36, 3.36, 3.36, 3.36, 3.36, 2.68, 2.68, 2.68, 2.68, 2.68, 2.68, 2.68, 2.68, 2.68, 3.35, 3.35, 3.35, 3.35, 3.35, 3.35, 3.35, 3.35, 3.35, 3.35, 3.35, 3.35, 3.35, 3.35, 3.35, 3.35, 3.35, 3.35, 3.35, 3.35, 3.35, 3.35, 3.35, 3.35, 3.35, 3.35, 3.35, 3.35, 3.35, 3.35, 3.35, 3.35, 3.35, 3.35, 3.35, 2.37, 2.28, 2.25, 2.25, 2.25, 2.25, 2.25, 2.25, 2.25, 2.25, 2.25, 3.35, 3.35, 3.35, 3.35, 3.35, 3.34, 3.34, 3.34, 3.34, 3.34, 3.34, 3.34, 3.34, 3.34, 3.34, 3.34, 3.34, 3.34, 3.34, 3.34, 3.34, 3.34, 3.34, 3.34, 3.34, 3.34, 3.34, 3.34, 3.34, 3.34, 3.34, 3.34, 2.67, 2.62, 2.57, 2.53, 2.48, 2.47, 2.47, 2.47, 2.47, 2.47, 3.34, 3.29, 3.23, 3.17, 3.12, 3.06, 3.01, 2.96, 2.91]
4 [1.05, 1.07, 1.09, 1.11, 1.13, 1.15, 1.17, 1.19, 1.21, 1.23, 1.25, 1.27, 1.29, 1.32, 1.34, 1.36, 1.39, 1.41, 1.44, 1.47, 1.49, 1.52, 1.55, 1.58, 1.6, 1.63, 1.67, 1.7, 1.73, 1.76, 1.8, 1.83, 1.87, 1.91, 1.95, 1.99, 2.03, 2.07, 2.11, 2.16, 2.21, 2.25, 2.3, 2.36, 2.41, 2.47, 2.53, 2.59, 2.65, 2.72, 2.79, 2.86, 2.94, 3.02, 3.1, 3.19, 3.28, 3.37, 3.37, 3.37, 3.37, 3.37, 3.37, 3.37, 3.37, 3.37, 3.37, 3.37, 3.37, 3.37, 3.37, 3.36, 3.36, 3.36, 3.36, 3.36, 3.36, 2.69, 2.69, 2.69, 2.69, 2.69, 2.69, 2.69, 2.69, 2.69, 3.36, 3.36, 3.36, 3.36, 3.36, 3.35, 3.35, 3.35, 3.35, 3.35, 3.35, 3.35, 3.35, 3.35, 3.35, 3.35, 3.35, 3.35, 3.35, 3.35, 3.35, 3.35, 3.35, 3.35, 3.35, 3.34, 3.34, 3.34, 3.34, 3.34, 3.34, 3.34, 3.34, 3.34, 3.34, 2.39, 2.3, 2.25, 2.25, 2.25, 2.25, 2.25, 2.25, 2.25, 2.25, 2.25, 3.33, 3.33, 3.33, 3.33, 3.33, 3.33, 3.33, 3.33, 3.33, 3.33, 3.33, 3.33, 3.33, 3.33, 3.33, 3.33, 3.32, 3.32, 3.32, 3.32, 3.32, 3.32, 3.32, 3.32, 3.32, 3.32, 3.32, 3.32, 3.32, 3.32, 3.32, 3.31, 3.31, 2.61, 2.56, 2.52, 2.47, 2.45, 2.45, 2.45, 2.45, 2.45, 3.31, 3.27, 3.21, 3.16, 3.1, 3.05, 2.99, 2.94]
5 [1.03, 1.05, 1.07, 1.09, 1.11, 1.13, 1.15, 1.16, 1.18, 1.2, 1.23, 1.25, 1.27, 1.29, 1.31, 1.33, 1.36, 1.38, 1.41, 1.43, 1.46, 1.48, 1.51, 1.54, 1.56, 1.59, 1.62, 1.65, 1.68, 1.71, 1.75, 1.78, 1.81, 1.85, 1.89, 1.92, 1.96, 2.0, 2.04, 2.09, 2.13, 2.18, 2.22, 2.27, 2.32, 2.37, 2.43, 2.48, 2.54, 2.6, 2.67, 2.73, 2.8, 2.88, 2.95, 3.03, 3.12, 3.2, 3.3, 3.39, 3.39, 3.39, 3.39, 3.38, 3.38, 3.38, 3.38, 3.38, 3.38, 3.38, 3.38, 3.38, 3.38, 3.37, 3.37, 3.37, 3.37, 3.37, 3.37, 3.37, 2.69, 2.69, 2.69, 2.69, 2.69, 2.69, 2.69, 2.69, 3.36, 3.36, 3.36, 3.36, 3.36, 3.35, 3.35, 3.35, 3.35, 3.35, 3.35, 3.35, 3.35, 3.35, 3.35, 3.34, 3.34, 3.34, 3.34, 3.34, 3.34, 3.34, 3.34, 3.34, 3.34, 3.33, 3.33, 3.33, 3.33, 3.33, 3.33, 3.33, 3.33, 3.33, 3.32, 2.38, 2.29, 2.24, 2.24, 2.24, 2.23, 2.23, 2.23, 2.23, 2.23, 2.23, 3.31, 3.31, 3.31, 3.31, 3.31, 3.31, 3.3, 3.3, 3.3, 3.3, 3.3, 3.3, 3.3, 3.3, 3.3, 3.29, 3.29, 3.29, 3.29, 3.29, 3.29, 3.29, 3.28, 3.28, 3.28, 3.28, 3.28, 3.28, 3.28, 3.28, 3.27, 3.27, 3.27, 2.58, 2.53, 2.48, 2.44, 2.42, 2.42, 2.41, 2.41, 2.41, 3.25, 3.22, 3.16, 3.11, 3.05, 3.0]
6 [1.01, 1.03, 1.05, 1.06, 1.08, 1.1, 1.12, 1.14, 1.16, 1.18, 1.19, 1.21, 1.24, 1.26, 1.28, 1.3, 1.32, 1.34, 1.37, 1.39, 1.41, 1.44, 1.46, 1.49, 1.51, 1.54, 1.57, 1.6, 1.63, 1.65, 1.69, 1.72, 1.75, 1.78, 1.81, 1.85, 1.88, 1.92, 1.96, 2.0, 2.04, 2.08, 2.12, 2.17, 2.21, 2.26, 2.31, 2.36, 2.41, 2.47, 2.53, 2.59, 2.65, 2.71, 2.78, 2.85, 2.92, 3.0, 3.08, 3.17, 3.26, 3.35, 3.41, 3.41, 3.41, 3.4, 3.4, 3.4, 3.4, 3.4, 3.4, 3.39, 3.39, 3.39, 3.39, 3.39, 3.39, 3.38, 3.38, 3.38, 3.38, 3.38, 2.7, 2.7, 2.7, 2.7, 2.69, 2.69, 2.69, 2.69, 2.69, 3.36, 3.36, 3.36, 3.35, 3.35, 3.35, 3.35, 3.35, 3.35, 3.34, 3.34, 3.34, 3.34, 3.34, 3.34, 3.33, 3.33, 3.33, 3.33, 3.33, 3.33, 3.32, 3.32, 3.32, 3.32, 3.32, 3.32, 3.31, 3.31, 3.31, 3.31, 3.31, 3.31, 3.3, 3.3, 2.33, 2.25, 2.22, 2.22, 2.22, 2.22, 2.22, 2.21, 2.21, 2.21, 2.21, 3.28, 3.28, 3.28, 3.28, 3.27, 3.27, 3.27, 3.27, 3.27, 3.26, 3.26, 3.26, 3.26, 3.26, 3.25, 3.25, 3.25, 3.25, 3.24, 3.24, 3.24, 3.24, 3.24, 3.23, 3.23, 3.23, 3.23, 3.22, 3.22, 3.22, 3.22, 3.21, 2.56, 2.51, 2.47, 2.42, 2.38, 2.37, 2.37, 2.37, 2.36, 2.36, 3.19, 3.13, 3.07]
7 [1.01, 1.03, 1.05, 1.06, 1.08, 1.1, 1.12, 1.14, 1.16, 1.18, 1.19, 1.21, 1.24, 1.26, 1.28, 1.3, 1.32, 1.34, 1.37, 1.39, 1.41, 1.44, 1.46, 1.49, 1.51, 1.54, 1.57, 1.6, 1.63, 1.65, 1.69, 1.72, 1.75, 1.78, 1.81, 1.85, 1.88, 1.92, 1.96, 2.0, 2.04, 2.08, 2.12, 2.17, 2.21, 2.26, 2.31, 2.36, 2.41, 2.47, 2.53, 2.59, 2.65, 2.71, 2.78, 2.85, 2.92, 3.0, 3.08, 3.17, 3.26, 3.35, 3.41, 3.41, 3.41, 3.4, 3.4, 3.4, 3.4, 3.4, 3.4, 3.39, 3.39, 3.39, 3.39, 3.39, 3.39, 3.38, 3.38, 3.38, 3.38, 3.38, 2.7, 2.7, 2.7, 2.7, 2.69, 2.69, 2.69, 2.69, 2.69, 3.36, 3.36, 3.36, 3.35, 3.35, 3.35, 3.35, 3.35, 3.35, 3.34, 3.34, 3.34, 3.34, 3.34, 3.34, 3.33, 3.33, 3.33, 3.33, 3.33, 3.33, 3.32, 3.32, 3.32, 3.32, 3.32, 3.32, 3.31, 3.31, 3.31, 3.31, 3.31, 3.31, 3.3, 3.3, 2.33, 2.25, 2.22, 2.22, 2.22, 2.22, 2.22, 2.21, 2.21, 2.21, 2.21, 3.28, 3.28, 3.28, 3.28, 3.27, 3.27, 3.27, 3.27, 3.27, 3.26, 3.26, 3.26, 3.26, 3.26, 3.25, 3.25, 3.25, 3.25, 3.24, 3.24, 3.24, 3.24, 3.24, 3.23, 3.23, 3.23, 3.23, 3.22, 3.22, 3.22, 3.22, 3.21, 2.56, 2.51, 2.47, 2.42, 2.38, 2.37, 2.37, 2.37, 2.36, 2.36, 3.19, 0.0, 0.0]
8 [0.94, 0.96, 0.97, 0.98, 1.0, 1.02, 1.03, 1.05, 1.06, 1.08, 1.09, 1.11, 1.13, 1.15, 1.16, 1.18, 1.2, 1.22, 1.24, 1.26, 1.27, 1.29, 1.31, 1.34, 1.36, 1.38, 1.4, 1.42, 1.44, 1.47, 1.49, 1.51, 1.54, 1.56, 1.59, 1.62, 1.64, 1.67, 1.7, 1.73, 1.76, 1.79, 1.82, 1.85, 1.89, 1.92, 1.96, 1.99, 2.03, 2.07, 2.11, 2.15, 2.19, 2.24, 2.28, 2.33, 2.38, 2.43, 2.48, 2.54, 2.59, 2.65, 2.71, 2.78, 2.85, 2.92, 2.99, 3.07, 3.15, 3.23, 3.32, 3.41, 3.47, 3.46, 3.46, 3.45, 3.45, 3.44, 3.44, 3.44, 3.43, 3.43, 3.42, 3.42, 3.41, 3.41, 3.41, 3.4, 3.4, 3.39, 3.39, 3.38, 2.7, 2.7, 2.7, 2.69, 2.69, 2.69, 2.68, 2.68, 2.68, 3.34, 3.34, 3.33, 3.33, 3.33, 3.32, 3.32, 3.31, 3.31, 3.3, 3.3, 3.3, 3.29, 3.29, 3.28, 3.28, 3.28, 3.27, 3.27, 3.26, 3.26, 3.25, 3.25, 3.25, 3.24, 3.24, 3.23, 3.23, 3.22, 3.22, 3.22, 3.21, 3.21, 3.2, 3.2, 2.27, 2.19, 2.14, 2.14, 2.14, 2.13, 2.13, 2.13, 2.12, 2.12, 2.12, 3.14, 3.14, 3.13, 3.13, 3.12, 3.12, 3.11, 3.11, 3.1, 3.1, 3.09, 3.09, 3.08, 3.08, 3.07, 3.07, 3.06, 3.06, 3.05, 3.05, 3.04, 3.04, 3.03, 3.03, 3.02, 3.01, 3.01, 3.0, 3.0, 2.99, 2.98, 2.98, 2.37, 2.33, 2.28]
9 [0.92, 0.94, 0.95, 0.96, 0.98, 0.99, 1.01, 1.02, 1.04, 1.05, 1.07, 1.09, 1.1, 1.12, 1.14, 1.15, 1.17, 1.19, 1.2, 1.22, 1.24, 1.26, 1.28, 1.3, 1.32, 1.34, 1.36, 1.38, 1.4, 1.42, 1.44, 1.47, 1.49, 1.51, 1.54, 1.56, 1.59, 1.61, 1.64, 1.67, 1.7, 1.72, 1.75, 1.78, 1.81, 1.85, 1.88, 1.91, 1.95, 1.98, 2.02, 2.05, 2.09, 2.13, 2.17, 2.22, 2.26, 2.31, 2.35, 2.4, 2.45, 2.51, 2.56, 2.62, 2.68, 2.74, 2.8, 2.87, 2.94, 3.02, 3.09, 3.17, 3.26, 3.35, 3.44, 3.47, 3.47, 3.46, 3.46, 3.45, 3.45, 3.44, 3.43, 3.43, 3.42, 3.42, 3.41, 3.41, 3.4, 3.4, 3.39, 3.39, 3.38, 3.38, 3.37, 2.69, 2.69, 2.68, 2.68, 2.68, 2.67, 2.67, 2.67, 2.66, 3.33, 3.32, 3.32, 3.31, 3.31, 3.3, 3.3, 3.29, 3.29, 3.28, 3.28, 3.27, 3.27, 3.26, 3.26, 3.25, 3.25, 3.24, 3.24, 3.23, 3.23, 3.22, 3.22, 3.21, 3.21, 3.2, 3.2, 3.19, 3.19, 3.18, 3.18, 3.17, 3.17, 3.16, 3.16, 2.23, 2.15, 2.11, 2.11, 2.11, 2.1, 2.1, 2.09, 2.09, 2.09, 2.08, 3.09, 3.09, 3.08, 3.08, 3.07, 3.07, 3.06, 3.05, 3.05, 3.04, 3.04, 3.03, 3.03, 3.02, 3.01, 3.01, 3.0, 2.99, 2.99, 2.98, 2.98, 2.97, 2.96, 2.96, 2.95, 2.94, 2.94, 2.93, 2.92, 2.91, 2.91, 2.9]
10 [0.91, 0.92, 0.93, 0.95, 0.96, 0.98, 0.99, 1.0, 1.02, 1.03, 1.05, 1.06, 1.08, 1.09, 1.11, 1.13, 1.14, 1.16, 1.18, 1.19, 1.21, 1.23, 1.25, 1.27, 1.28, 1.3, 1.32, 1.34, 1.36, 1.38, 1.4, 1.43, 1.45, 1.47, 1.49, 1.52, 1.54, 1.56, 1.59, 1.61, 1.64, 1.67, 1.69, 1.72, 1.75, 1.78, 1.81, 1.84, 1.87, 1.91, 1.94, 1.97, 2.01, 2.05, 2.09, 2.12, 2.16, 2.21, 2.25, 2.29, 2.34, 2.39, 2.44, 2.49, 2.54, 2.6, 2.66, 2.72, 2.78, 2.84, 2.91, 2.98, 3.06, 3.14, 3.22, 3.31, 3.4, 3.47, 3.47, 3.46, 3.46, 3.45, 3.44, 3.44, 3.43, 3.43, 3.42, 3.42, 3.41, 3.4, 3.4, 3.39, 3.39, 3.38, 3.38, 3.37, 3.36, 3.36, 2.68, 2.67, 2.67, 2.66, 2.66, 2.66, 2.65, 2.65, 2.8, 3.3, 3.3, 3.29, 3.29, 3.28, 3.28, 3.27, 3.27, 3.26, 3.25, 3.25, 3.24, 3.24, 3.23, 3.23, 3.22, 3.22, 3.21, 3.21, 3.2, 3.19, 3.19, 3.18, 3.18, 3.17, 3.17, 3.16, 3.16, 3.15, 3.14, 3.14, 3.13, 3.13, 3.12, 2.26, 2.18, 2.1, 2.08, 2.08, 2.07, 2.07, 2.06, 2.06, 2.06, 2.05, 2.05, 3.04, 3.04, 3.03, 3.02, 3.02, 3.01, 3.01, 3.0, 2.99, 2.99, 2.98, 2.97, 2.97, 2.96, 2.95, 2.95, 2.94, 2.93, 2.92, 2.92, 2.91, 2.9, 2.9, 2.89, 2.88, 2.87, 2.86, 2.86, 2.85]
11 [0.89, 0.9, 0.92, 0.93, 0.94, 0.96, 0.97, 0.98, 1.0, 1.01, 1.03, 1.04, 1.06, 1.07, 1.09, 1.1, 1.12, 1.13, 1.15, 1.16, 1.18, 1.2, 1.22, 1.23, 1.25, 1.27, 1.29, 1.31, 1.32, 1.34, 1.36, 1.38, 1.4, 1.43, 1.45, 1.47, 1.49, 1.51, 1.54, 1.56, 1.58, 1.61, 1.64, 1.66, 1.69, 1.71, 1.74, 1.77, 1.8, 1.83, 1.86, 1.89, 1.93, 1.96, 2.0, 2.03, 2.07, 2.11, 2.15, 2.19, 2.23, 2.27, 2.32, 2.36, 2.41, 2.46, 2.51, 2.56, 2.62, 2.68, 2.74, 2.8, 2.87, 2.94, 3.01, 3.08, 3.16, 3.25, 3.33, 3.43, 3.47, 3.46, 3.46, 3.45, 3.44, 3.44, 3.43, 3.42, 3.42, 3.41, 3.4, 3.4, 3.39, 3.38, 3.38, 3.37, 3.37, 3.36, 3.35, 3.35, 2.67, 2.66, 2.66, 2.65, 2.65, 2.64, 2.64, 2.63, 2.63, 3.28, 3.28, 3.27, 3.27, 3.26, 3.25, 3.25, 3.24, 3.24, 3.23, 3.22, 3.22, 3.21, 3.21, 3.2, 3.19, 3.19, 3.18, 3.17, 3.17, 3.16, 3.16, 3.15, 3.14, 3.14, 3.13, 3.13, 3.12, 3.11, 3.11, 3.1, 3.09, 3.09, 3.08, 3.07, 2.22, 2.14, 2.06, 2.04, 2.04, 2.03, 2.03, 2.02, 2.02, 2.02, 2.01, 2.01, 2.99, 2.98, 2.97, 2.97, 2.96, 2.95, 2.94, 2.94, 2.93, 2.92, 2.92, 2.91, 2.9, 2.89, 2.89, 2.88, 2.87, 2.86, 2.85, 2.85, 2.84, 2.83, 2.82, 2.81, 2.8, 2.8]
12 [0.87, 0.89, 0.9, 0.91, 0.92, 0.94, 0.95, 0.96, 0.98, 0.99, 1.0, 1.02, 1.03, 1.05, 1.06, 1.08, 1.09, 1.11, 1.12, 1.14, 1.15, 1.17, 1.19, 1.2, 1.22, 1.24, 1.25, 1.27, 1.29, 1.31, 1.33, 1.35, 1.36, 1.38, 1.4, 1.43, 1.45, 1.47, 1.49, 1.51, 1.53, 1.56, 1.58, 1.61, 1.63, 1.66, 1.68, 1.71, 1.74, 1.76, 1.79, 1.82, 1.85, 1.88, 1.91, 1.95, 1.98, 2.02, 2.05, 2.09, 2.13, 2.17, 2.21, 2.25, 2.29, 2.34, 2.38, 2.43, 2.48, 2.53, 2.59, 2.64, 2.7, 2.76, 2.83, 2.89, 2.96, 3.03, 3.11, 3.19, 3.27, 3.36, 3.45, 3.46, 3.45, 3.45, 3.44, 3.43, 3.43, 3.42, 3.41, 3.4, 3.4, 3.39, 3.38, 3.38, 3.37, 3.36, 3.35, 3.35, 3.34, 3.33, 3.33, 2.65, 2.64, 2.64, 2.63, 2.63, 2.62, 2.61, 2.61, 2.6, 3.26, 3.25, 3.25, 3.24, 3.23, 3.23, 3.22, 3.21, 3.21, 3.2, 3.19, 3.18, 3.18, 3.17, 3.16, 3.16, 3.15, 3.14, 3.14, 3.13, 3.12, 3.12, 3.11, 3.1, 3.1, 3.09, 3.08, 3.08, 3.07, 3.06, 3.05, 3.05, 3.04, 3.03, 3.03, 2.18, 2.1, 2.02, 2.01, 2.0, 2.0, 1.99, 1.99, 1.98, 1.98, 1.97, 1.97, 2.93, 2.92, 2.91, 2.91, 2.9, 2.89, 2.88, 2.88, 2.87, 2.86, 2.85, 2.84, 2.83, 2.83, 2.82, 2.81, 2.8, 2.79, 2.78, 2.77, 2.76, 2.76, 2.75]
13 [0.86, 0.87, 0.89, 0.9, 0.91, 0.92, 0.94, 0.95, 0.96, 0.98, 0.99, 1.0, 1.02, 1.03, 1.04, 1.06, 1.07, 1.09, 1.1, 1.12, 1.13, 1.15, 1.16, 1.18, 1.2, 1.21, 1.23, 1.25, 1.26, 1.28, 1.3, 1.32, 1.34, 1.36, 1.38, 1.4, 1.42, 1.44, 1.46, 1.48, 1.5, 1.52, 1.55, 1.57, 1.59, 1.62, 1.64, 1.67, 1.69, 1.72, 1.75, 1.77, 1.8, 1.83, 1.86, 1.89, 1.93, 1.96, 1.99, 2.03, 2.06, 2.1, 2.14, 2.18, 2.22, 2.26, 2.31, 2.35, 2.4, 2.45, 2.5, 2.55, 2.6, 2.66, 2.72, 2.78, 2.85, 2.91, 2.98, 3.06, 3.13, 3.21, 3.3, 3.39, 3.44, 3.44, 3.43, 3.42, 3.41, 3.41, 3.4, 3.39, 3.38, 3.38, 3.37, 3.36, 3.35, 3.35, 3.34, 3.33, 3.33, 3.32, 3.31, 3.3, 3.3, 2.62, 2.61, 2.61, 2.6, 2.59, 2.59, 2.58, 2.58, 2.6, 3.23, 3.22, 3.21, 3.2, 3.2, 3.19, 3.18, 3.18, 3.17, 3.16, 3.15, 3.15, 3.14, 3.13, 3.13, 3.12, 3.11, 3.11, 3.1, 3.09, 3.08, 3.08, 3.07, 3.06, 3.05, 3.05, 3.04, 3.03, 3.03, 3.02, 3.01, 3.0, 3.0, 2.99, 2.98, 2.15, 2.07, 1.99, 1.97, 1.96, 1.96, 1.95, 1.95, 1.94, 1.94, 1.93, 1.93, 2.88, 2.87, 2.86, 2.86, 2.85, 2.84, 2.83, 2.82, 2.81, 2.81, 2.8, 2.79, 2.78, 2.77, 2.76, 2.75, 2.74, 2.73, 2.72, 2.72, 2.71]
14 [0.86, 0.87, 0.89, 0.9, 0.91, 0.92, 0.94, 0.95, 0.96, 0.98, 0.99, 1.0, 1.02, 1.03, 1.05, 1.06, 1.08, 1.09, 1.11, 1.12, 1.14, 1.15, 1.17, 1.18, 1.2, 1.22, 1.23, 1.25, 1.27, 1.29, 1.31, 1.32, 1.34, 1.36, 1.38, 1.4, 1.42, 1.44, 1.46, 1.49, 1.51, 1.53, 1.55, 1.58, 1.6, 1.63, 1.65, 1.68, 1.7, 1.73, 1.76, 1.79, 1.82, 1.85, 1.88, 1.91, 1.94, 1.98, 2.01, 2.05, 2.08, 2.12, 2.16, 2.2, 2.24, 2.29, 2.33, 2.38, 2.43, 2.48, 2.53, 2.58, 2.64, 2.7, 2.76, 2.82, 2.89, 2.96, 3.03, 3.1, 3.18, 3.27, 3.36, 3.43, 3.42, 3.41, 3.41, 3.4, 3.39, 3.38, 3.38, 3.37, 3.36, 3.36, 3.35, 3.34, 3.33, 3.33, 3.32, 3.31, 3.31, 3.3, 3.29, 3.29, 2.61, 2.6, 2.59, 2.59, 2.58, 2.58, 2.57, 2.57, 2.56, 3.22, 3.21, 3.2, 3.2, 3.19, 3.18, 3.18, 3.17, 3.16, 3.15, 3.15, 3.14, 3.13, 3.13, 3.12, 3.11, 3.11, 3.1, 3.09, 3.09, 3.08, 3.07, 3.07, 3.06, 3.05, 3.04, 3.04, 3.03, 3.02, 3.02, 3.01, 3.0, 2.99, 2.99, 2.98, 2.97, 2.1, 2.03, 1.96, 1.96, 1.95, 1.95, 1.94, 1.94, 1.93, 1.93, 1.92, 1.92, 2.87, 2.87, 2.86, 2.85, 2.84, 2.83, 2.83, 2.82, 2.81, 2.8, 2.79, 2.78, 2.78, 2.77, 2.76, 2.75, 2.74, 2.73, 2.72, 2.71, 2.7]
15 [0.88, 0.9, 0.91, 0.92, 0.94, 0.95, 0.96, 0.98, 0.99, 1.01, 1.02, 1.04, 1.05, 1.07, 1.08, 1.1, 1.11, 1.13, 1.15, 1.16, 1.18, 1.2, 1.21, 1.23, 1.25, 1.27, 1.29, 1.31, 1.33, 1.35, 1.37, 1.39, 1.41, 1.43, 1.45, 1.47, 1.5, 1.52, 1.54, 1.57, 1.59, 1.62, 1.64, 1.67, 1.7, 1.73, 1.76, 1.79, 1.82, 1.85, 1.88, 1.91, 1.95, 1.98, 2.02, 2.06, 2.09, 2.13, 2.17, 2.22, 2.26, 2.31, 2.35, 2.4, 2.45, 2.51, 2.56, 2.62, 2.68, 2.74, 2.8, 2.87, 2.94, 3.02, 3.09, 3.17, 3.26, 3.35, 3.38, 3.38, 3.37, 3.36, 3.36, 3.35, 3.35, 3.34, 3.34, 3.33, 3.32, 3.32, 3.31, 3.31, 3.3, 3.29, 3.29, 3.28, 3.28, 3.27, 3.27, 2.59, 2.58, 2.58, 2.57, 2.57, 2.56, 2.56, 2.56, 2.55, 3.21, 3.21, 3.2, 3.19, 3.19, 3.18, 3.18, 3.17, 3.17, 3.16, 3.16, 3.15, 3.15, 3.14, 3.13, 3.13, 3.12, 3.12, 3.11, 3.11, 3.1, 3.1, 3.09, 3.08, 3.08, 3.07, 3.07, 3.06, 3.06, 3.05, 3.04, 3.04, 3.03, 3.03, 3.02, 3.02, 2.15, 2.08, 2.0, 1.98, 1.98, 1.97, 1.97, 1.96, 1.96, 1.96, 1.95, 1.95, 2.94, 2.93, 2.92, 2.92, 2.91, 2.9, 2.9, 2.89, 2.88, 2.88, 2.87, 2.86, 2.86, 2.85, 2.84, 2.84, 2.83, 2.82, 2.81, 2.81, 2.8, 2.79, 2.78, 2.78, 2.77, 2.76]
16 [0.94, 0.95, 0.97, 0.99, 1.0, 1.02, 1.03, 1.05, 1.07, 1.08, 1.1, 1.12, 1.13, 1.15, 1.17, 1.19, 1.21, 1.23, 1.25, 1.27, 1.29, 1.31, 1.33, 1.35, 1.37, 1.39, 1.42, 1.44, 1.47, 1.49, 1.52, 1.54, 1.57, 1.59, 1.62, 1.65, 1.68, 1.71, 1.74, 1.77, 1.8, 1.84, 1.87, 1.91, 1.94, 1.98, 2.02, 2.06, 2.1, 2.14, 2.19, 2.23, 2.28, 2.33, 2.38, 2.43, 2.49, 2.55, 2.6, 2.67, 2.73, 2.8, 2.87, 2.94, 3.02, 3.1, 3.19, 3.28, 3.31, 3.31, 3.31, 3.3, 3.3, 3.3, 3.29, 3.29, 3.29, 3.28, 3.28, 3.28, 3.27, 3.27, 3.27, 3.26, 3.26, 3.26, 3.25, 3.25, 3.25, 2.57, 2.56, 2.56, 2.56, 2.56, 2.55, 2.55, 2.55, 2.55, 3.22, 3.21, 3.21, 3.21, 3.2, 3.2, 3.2, 3.19, 3.19, 3.19, 3.18, 3.18, 3.18, 3.18, 3.17, 3.17, 3.17, 3.16, 3.16, 3.16, 3.15, 3.15, 3.15, 3.14, 3.14, 3.14, 3.13, 3.13, 3.13, 3.12, 3.12, 3.12, 3.12, 3.11, 3.11, 3.11, 3.1, 2.18, 2.11, 2.04, 2.04, 2.03, 2.03, 2.03, 2.03, 2.03, 2.02, 2.02, 2.02, 3.06, 3.05, 3.05, 3.05, 3.04, 3.04, 3.04, 3.03, 3.03, 3.02, 3.02, 3.02, 3.01, 3.01, 3.0, 3.0, 3.0, 2.99, 2.99, 2.98, 2.98, 2.97, 2.97, 2.97, 2.96, 2.96, 2.95, 2.95, 2.94, 2.94, 2.93, 2.93, 2.31, 10.0, 0.0]
17 [0.98, 0.99, 1.01, 1.03, 1.04, 1.06, 1.08, 1.1, 1.11, 1.13, 1.15, 1.17, 1.19, 1.21, 1.23, 1.25, 1.27, 1.29, 1.32, 1.34, 1.36, 1.38, 1.41, 1.43, 1.46, 1.48, 1.51, 1.54, 1.56, 1.59, 1.62, 1.65, 1.68, 1.71, 1.74, 1.78, 1.81, 1.84, 1.88, 1.92, 1.96, 1.99, 2.03, 2.08, 2.12, 2.17, 2.21, 2.26, 2.31, 2.36, 2.42, 2.47, 2.53, 2.59, 2.65, 2.72, 2.79, 2.86, 2.94, 3.02, 3.1, 3.19, 3.27, 3.27, 3.26, 3.26, 3.26, 3.26, 3.26, 3.25, 3.25, 3.25, 3.25, 3.25, 3.25, 3.24, 3.24, 3.24, 3.24, 3.24, 3.23, 3.23, 3.23, 2.55, 2.55, 2.55, 2.55, 2.55, 2.55, 2.54, 2.54, 2.54, 2.58, 3.21, 3.21, 3.21, 3.21, 3.2, 3.2, 3.2, 3.2, 3.2, 3.19, 3.19, 3.19, 3.19, 3.19, 3.19, 3.18, 3.18, 3.18, 3.18, 3.18, 3.17, 3.17, 3.17, 3.17, 3.17, 3.17, 3.16, 3.16, 3.16, 3.16, 3.16, 3.15, 3.15, 3.15, 3.15, 3.15, 2.26, 2.19, 2.12, 2.07, 2.07, 2.06, 2.06, 2.06, 2.06, 2.06, 2.06, 2.06, 2.06, 3.12, 3.12, 3.11, 3.11, 3.11, 3.11, 3.11, 3.1, 3.1, 3.1, 3.1, 3.1, 3.09, 3.09, 3.09, 3.09, 3.08, 3.08, 3.08, 3.08, 3.07, 3.07, 3.07, 3.07, 3.06, 3.06, 3.06, 3.06, 3.05, 3.05, 3.05, 3.04, 2.39, 2.35, 2.3, 2.26, 2.22, 2.21, 2.2, 2.2]
18 [1.03, 1.05, 1.06, 1.08, 1.1, 1.12, 1.14, 1.16, 1.18, 1.2, 1.22, 1.24, 1.27, 1.29, 1.31, 1.33, 1.36, 1.38, 1.41, 1.43, 1.46, 1.49, 1.51, 1.54, 1.57, 1.6, 1.63, 1.66, 1.69, 1.73, 1.76, 1.8, 1.83, 1.87, 1.91, 1.95, 1.99, 2.03, 2.07, 2.12, 2.17, 2.21, 2.26, 2.32, 2.37, 2.43, 2.48, 2.55, 2.61, 2.68, 2.74, 2.82, 2.89, 2.97, 3.06, 3.14, 3.21, 3.21, 3.21, 3.21, 3.21, 3.21, 3.21, 3.21, 3.21, 3.21, 3.21, 3.21, 3.2, 3.2, 3.2, 3.2, 3.2, 3.2, 3.2, 3.2, 3.2, 2.53, 2.53, 2.53, 2.53, 2.53, 2.53, 2.53, 2.53, 2.53, 2.62, 3.2, 3.2, 3.2, 3.2, 3.2, 3.2, 3.2, 3.2, 3.2, 3.2, 3.2, 3.2, 3.19, 3.19, 3.19, 3.19, 3.19, 3.19, 3.19, 3.19, 3.19, 3.19, 3.19, 3.19, 3.19, 3.19, 3.19, 3.19, 3.19, 3.19, 3.19, 3.19, 3.19, 3.19, 3.19, 3.19, 2.29, 2.22, 2.14, 2.09, 2.09, 2.09, 2.09, 2.09, 2.09, 2.09, 2.09, 2.09, 2.09, 3.18, 3.18, 3.18, 3.18, 3.18, 3.18, 3.18, 3.18, 3.18, 3.18, 3.18, 3.18, 3.18, 3.18, 3.18, 3.18, 3.18, 3.18, 3.18, 3.17, 3.17, 3.17, 3.17, 3.17, 3.17, 3.17, 3.17, 3.17, 3.17, 3.17, 3.17, 3.17, 2.49, 2.45, 2.41, 2.36, 2.32, 2.3, 2.3, 2.3, 2.3, 2.3, 3.12, 3.06, 3.01, 2.96]
19 [1.1, 1.12, 1.14, 1.16, 1.18, 1.2, 1.23, 1.25, 1.27, 1.3, 1.32, 1.35, 1.37, 1.4, 1.42, 1.45, 1.48, 1.51, 1.54, 1.57, 1.6, 1.63, 1.67, 1.7, 1.73, 1.77, 1.81, 1.85, 1.89, 1.93, 1.97, 2.01, 2.06, 2.1, 2.15, 2.2, 2.25, 2.31, 2.37, 2.42, 2.48, 2.55, 2.61, 2.68, 2.76, 2.83, 2.91, 3.0, 3.08, 3.13, 3.13, 3.13, 3.14, 3.14, 3.14, 3.14, 3.14, 3.14, 3.14, 3.15, 3.15, 3.15, 3.15, 3.15, 3.15, 3.16, 3.16, 3.16, 3.16, 3.16, 2.5, 2.5, 2.5, 2.5, 2.5, 2.5, 2.5, 2.5, 2.51, 2.66, 3.18, 3.18, 3.18, 3.18, 3.18, 3.18, 3.18, 3.19, 3.19, 3.19, 3.19, 3.19, 3.19, 3.19, 3.2, 3.2, 3.2, 3.2, 3.2, 3.2, 3.2, 3.21, 3.21, 3.21, 3.21, 3.21, 3.21, 3.21, 3.22, 3.22, 3.22, 3.22, 3.22, 3.22, 3.22, 3.23, 2.32, 2.24, 2.17, 2.12, 2.12, 2.12, 2.12, 2.12, 2.13, 2.13, 2.13, 2.13, 2.13, 3.25, 3.25, 3.25, 3.25, 3.25, 3.25, 3.26, 3.26, 3.26, 3.26, 3.26, 3.26, 3.27, 3.27, 3.27, 3.27, 3.27, 3.28, 3.28, 3.28, 3.28, 3.28, 3.29, 3.29, 3.29, 3.29, 3.29, 3.3, 3.3, 3.3, 3.3, 3.3, 2.61, 2.56, 2.52, 2.48, 2.43, 2.41, 2.41, 2.42, 2.42, 2.42, 2.42, 3.23, 3.18, 3.13, 3.08, 3.03, 2.98, 2.93, 2.88, 2.83, 2.78]
20 [1.28, 1.31, 1.33, 1.36, 1.39, 1.42, 1.45, 1.48, 1.52, 1.55, 1.58, 1.62, 1.66, 1.69, 1.73, 1.77, 1.81, 1.86, 1.9, 1.95, 1.99, 2.04, 2.09, 2.15, 2.2, 2.26, 2.32, 2.38, 2.45, 2.51, 2.59, 2.66, 2.74, 2.82, 2.9, 2.95, 2.95, 2.96, 2.96, 2.97, 2.98, 2.98, 2.99, 2.99, 2.99, 3.0, 3.0, 3.01, 3.01, 3.02, 3.02, 3.03, 3.03, 3.04, 3.04, 3.05, 2.41, 2.41, 2.41, 2.42, 2.42, 2.42, 2.43, 2.43, 2.44, 2.58, 3.1, 3.1, 3.11, 3.11, 3.12, 3.12, 3.13, 3.13, 3.14, 3.14, 3.15, 3.15, 3.16, 3.16, 3.16, 3.17, 3.17, 3.18, 3.18, 3.19, 3.19, 3.2, 3.2, 3.21, 3.21, 3.22, 3.22, 3.23, 3.23, 3.24, 3.24, 3.25, 3.25, 3.26, 3.26, 3.26, 3.27, 2.29, 2.22, 2.15, 2.15, 2.16, 2.16, 2.16, 2.17, 2.17, 2.17, 2.18, 2.18, 3.34, 3.34, 3.35, 3.35, 3.36, 3.36, 3.37, 3.38, 3.38, 3.39, 3.39, 3.4, 3.4, 3.41, 3.42, 3.42, 3.43, 3.43, 3.44, 3.45, 3.45, 3.46, 3.47, 3.47, 3.48, 3.49, 3.49, 3.5, 3.51, 3.51, 3.52, 3.53, 3.54, 2.77, 2.72, 2.68, 2.64, 2.6, 2.6, 2.61, 2.61, 2.62, 2.62, 3.55, 3.5, 3.45, 3.39, 3.34, 3.29, 3.25, 3.2, 3.15, 3.11, 3.06, 3.01, 2.97, 2.93, 2.88, 2.84, 2.8, 2.76, 2.72, 2.68, 2.64, 2.6, 2.56, 2.52]
21 [1.49, 1.52, 1.56, 1.6, 1.64, 1.68, 1.72, 1.76, 1.81, 1.86, 1.9, 1.95, 2.01, 2.06, 2.12, 2.17, 2.23, 2.3, 2.36, 2.43, 2.51, 2.58, 2.66, 2.75, 2.77, 2.78, 2.79, 2.8, 2.81, 2.81, 2.82, 2.83, 2.84, 2.84, 2.85, 2.86, 2.87, 2.87, 2.88, 2.89, 2.9, 2.9, 2.91, 2.92, 2.93, 2.31, 2.31, 2.32, 2.33, 2.33, 2.34, 2.34, 2.35, 2.35, 3.0, 3.01, 3.01, 3.02, 3.03, 3.03, 3.04, 3.05, 3.06, 3.06, 3.07, 3.08, 3.08, 3.09, 3.1, 3.11, 3.11, 3.12, 3.13, 3.13, 3.14, 3.15, 3.16, 3.16, 3.17, 3.18, 3.19, 3.19, 3.2, 3.21, 3.21, 3.22, 3.23, 3.24, 3.24, 3.25, 3.26, 3.27, 2.29, 2.22, 2.15, 2.15, 2.16, 2.16, 2.17, 2.17, 2.18, 2.18, 2.19, 2.2, 3.37, 3.38, 3.39, 3.4, 3.4, 3.41, 3.42, 3.43, 3.44, 3.45, 3.46, 3.47, 3.47, 3.48, 3.49, 3.5, 3.51, 3.52, 3.53, 3.54, 3.55, 3.56, 3.57, 3.58, 3.59, 3.6, 3.61, 3.62, 3.63, 3.64, 3.65, 3.67, 3.68, 2.89, 2.85, 2.81, 2.77, 2.73, 2.72, 2.72, 2.73, 2.74, 2.75, 2.76, 3.7, 3.65, 3.6, 3.55, 3.51, 3.46, 3.41, 3.37, 3.32, 3.28, 3.23, 3.19, 3.15, 3.1, 3.06, 3.02, 2.98, 2.94, 2.9, 2.86, 2.83, 2.79, 2.75, 2.71, 2.68, 2.64, 2.61, 2.57, 2.54, 2.5, 2.47, 1.4, 1.38, 1.36]
22 [1.77, 1.82, 1.88, 1.93, 1.98, 2.04, 2.1, 2.16, 2.23, 2.3, 2.37, 2.44, 2.52, 2.57, 2.59, 2.6, 2.61, 2.62, 2.63, 2.64, 2.65, 2.66, 2.67, 2.68, 2.69, 2.7, 2.71, 2.72, 2.73, 2.74, 2.75, 2.76, 2.77, 2.77, 2.19, 2.2, 2.2, 2.21, 2.22, 2.23, 2.23, 2.24, 2.25, 2.32, 2.88, 2.89, 2.9, 2.91, 2.92, 2.93, 2.94, 2.95, 2.95, 2.96, 2.97, 2.98, 2.99, 3.0, 3.01, 3.02, 3.03, 3.04, 3.05, 3.06, 3.07, 3.08, 3.09, 3.1, 3.11, 3.12, 3.13, 3.13, 3.14, 3.15, 3.16, 3.17, 3.18, 3.19, 3.2, 3.21, 3.22, 2.3, 2.23, 2.17, 2.12, 2.13, 2.14, 2.14, 2.15, 2.16, 2.16, 2.17, 2.18, 2.18, 3.37, 3.38, 3.39, 3.4, 3.41, 3.42, 3.44, 3.45, 3.46, 3.47, 3.48, 3.49, 3.51, 3.52, 3.53, 3.54, 3.55, 3.57, 3.58, 3.59, 3.6, 3.62, 3.63, 3.64, 3.66, 3.67, 3.69, 3.7, 3.71, 3.73, 3.74, 3.76, 3.77, 2.97, 2.93, 2.89, 2.85, 2.81, 2.79, 2.8, 2.82, 2.83, 2.84, 2.85, 3.85, 3.8, 3.75, 3.7, 3.66, 3.61, 3.56, 3.52, 3.48, 3.43, 3.39, 3.35, 3.31, 3.27, 3.23, 3.19, 3.15, 3.11, 3.07, 3.03, 3.0, 2.96, 2.93, 2.89, 2.86, 2.82, 2.79, 2.75, 2.72, 2.69, 2.65, 2.62, 1.48, 1.46, 1.44, 1.42, 1.41, 1.39, 1.37, 1.36, 1.34, 1.32, 1.31, 1.32]
23 [2.18, 2.25, 2.32, 2.37, 2.38, 2.4, 2.41, 2.42, 2.43, 2.45, 2.46, 2.47, 2.48, 2.5, 2.51, 2.52, 2.53, 2.54, 2.56, 2.57, 2.58, 2.59, 2.6, 2.61, 2.06, 2.07, 2.08, 2.09, 2.1, 2.11, 2.11, 2.12, 2.13, 2.21, 2.74, 2.75, 2.76, 2.78, 2.79, 2.8, 2.81, 2.82, 2.83, 2.84, 2.86, 2.87, 2.88, 2.89, 2.9, 2.91, 2.92, 2.94, 2.95, 2.96, 2.97, 2.98, 2.99, 3.0, 3.02, 3.03, 3.04, 3.05, 3.06, 3.07, 3.09, 3.1, 3.11, 3.12, 3.13, 3.15, 3.16, 3.17, 2.2, 2.14, 2.08, 2.09, 2.09, 2.1, 2.11, 2.12, 2.13, 2.14, 2.14, 2.15, 2.16, 3.35, 3.36, 3.37, 3.39, 3.4, 3.41, 3.43, 3.44, 3.46, 3.47, 3.48, 3.5, 3.51, 3.53, 3.54, 3.56, 3.57, 3.59, 3.6, 3.62, 3.63, 3.65, 3.67, 3.68, 3.7, 3.72, 3.73, 3.75, 3.77, 3.78, 3.8, 3.82, 3.84, 3.0, 2.96, 2.93, 2.89, 2.85, 2.85, 2.86, 2.88, 2.89, 2.91, 2.92, 3.94, 3.89, 3.84, 3.8, 3.75, 3.71, 3.66, 3.62, 3.58, 3.54, 3.5, 3.46, 3.42, 3.38, 3.34, 3.3, 3.27, 3.23, 3.19, 3.16, 3.12, 3.09, 3.05, 3.02, 2.99, 2.95, 2.92, 2.89, 2.86, 2.82, 2.79, 2.76, 1.55, 1.54, 1.52, 1.5, 1.49, 1.47, 1.45, 1.44, 1.42, 1.4, 1.39, 1.4, 1.41, 1.43, 1.45, 1.47, 2.28, 2.25, 2.22, 2.2, 2.17]
24 [2.26, 2.28, 2.29, 2.3, 2.32, 2.33, 2.35, 2.36, 2.38, 2.39, 2.4, 2.42, 2.43, 2.44, 1.93, 1.94, 1.95, 1.96, 1.97, 1.98, 1.99, 2.0, 2.01, 2.08, 2.59, 2.61, 2.62, 2.63, 2.65, 2.66, 2.67, 2.69, 2.7, 2.71, 2.73, 2.74, 2.75, 2.77, 2.78, 2.79, 2.81, 2.82, 2.83, 2.85, 2.86, 2.87, 2.89, 2.9, 2.91, 2.93, 2.94, 2.96, 2.97, 2.98, 3.0, 3.01, 3.02, 3.04, 3.05, 3.07, 3.08, 3.09, 2.16, 2.1, 2.04, 2.04, 2.05, 2.06, 2.07, 2.08, 2.09, 2.1, 2.11, 2.12, 2.13, 3.3, 3.32, 3.33, 3.35, 3.36, 3.38, 3.4, 3.41, 3.43, 3.44, 3.46, 3.48, 3.49, 3.51, 3.53, 3.55, 3.56, 3.58, 3.6, 3.62, 3.64, 3.65, 3.67, 3.69, 3.71, 3.73, 3.75, 3.77, 3.79, 3.81, 3.83, 3.85, 3.87, 3.89, 3.02, 2.98, 2.95, 2.91, 2.88, 2.9, 2.92, 2.93, 2.95, 2.97, 4.04, 4.0, 3.95, 3.91, 3.87, 3.82, 3.78, 3.74, 3.7, 3.66, 3.62, 3.58, 3.55, 3.51, 3.47, 3.44, 3.4, 3.36, 3.33, 3.3, 3.26, 3.23, 3.19, 3.16, 3.13, 3.1, 3.07, 3.03, 3.0, 2.97, 2.94, 2.91, 2.88, 1.62, 1.6, 1.59, 1.57, 1.56, 1.54, 1.52, 1.51, 1.49, 1.48, 1.46, 1.48, 1.5, 1.52, 1.54, 1.56, 2.42, 2.4, 2.37, 2.35, 2.32, 2.3, 2.27, 2.25, 2.22, 2.2, 2.18, 2.15, 2.13, 2.11]
25 [2.23, 2.25, 2.26, 2.28, 2.29, 2.31, 2.32, 2.34, 2.35, 1.86, 1.87, 1.88, 1.89, 1.9, 1.91, 1.92, 1.94, 1.95, 2.0, 2.51, 2.53, 2.54, 2.56, 2.57, 2.58, 2.6, 2.61, 2.63, 2.64, 2.66, 2.67, 2.68, 2.7, 2.71, 2.73, 2.74, 2.76, 2.77, 2.78, 2.8, 2.81, 2.83, 2.84, 2.86, 2.87, 2.89, 2.9, 2.92, 2.93, 2.95, 2.96, 2.97, 2.99, 3.0, 3.02, 3.03, 3.05, 2.14, 2.08, 2.02, 2.01, 2.02, 2.03, 2.04, 2.05, 2.06, 2.07, 2.08, 2.09, 2.1, 3.27, 3.29, 3.3, 3.32, 3.34, 3.35, 3.37, 3.39, 3.41, 3.42, 3.44, 3.46, 3.48, 3.5, 3.51, 3.53, 3.55, 3.57, 3.59, 3.61, 3.63, 3.65, 3.67, 3.69, 3.71, 3.73, 3.75, 3.77, 3.79, 3.81, 3.83, 3.86, 3.88, 3.9, 3.04, 3.0, 2.97, 2.93, 2.9, 2.91, 2.93, 2.95, 2.97, 2.98, 4.09, 4.05, 4.0, 3.96, 3.92, 3.87, 3.83, 3.79, 3.75, 3.71, 3.68, 3.64, 3.6, 3.57, 3.53, 3.49, 3.46, 3.42, 3.39, 3.36, 3.32, 3.29, 3.26, 3.23, 3.19, 3.16, 3.13, 3.1, 3.07, 3.04, 3.01, 2.98, 2.95, 1.66, 1.64, 1.63, 1.61, 1.6, 1.58, 1.57, 1.55, 1.53, 1.52, 1.51, 1.51, 1.53, 1.55, 1.57, 1.59, 2.5, 2.48, 2.45, 2.43, 2.4, 2.38, 2.36, 2.33, 2.31, 2.29, 2.26, 2.24, 2.22, 2.19, 2.17, 2.15, 2.13, 2.1, 2.08]
26 [2.21, 2.23, 2.24, 1.77, 1.78, 1.79, 1.8, 1.82, 1.83, 1.84, 1.85, 1.86, 1.88, 2.41, 2.43, 2.44, 2.46, 2.47, 2.49, 2.5, 2.52, 2.53, 2.55, 2.57, 2.58, 2.6, 2.61, 2.63, 2.64, 2.66, 2.67, 2.69, 2.7, 2.72, 2.73, 2.75, 2.76, 2.78, 2.8, 2.81, 2.83, 2.84, 2.86, 2.87, 2.89, 2.91, 2.92, 2.94, 2.95, 2.97, 2.99, 2.13, 2.07, 2.01, 1.97, 1.98, 1.99, 2.0, 2.01, 2.03, 2.04, 2.05, 2.06, 2.07, 2.08, 3.24, 3.26, 3.28, 3.29, 3.31, 3.33, 3.35, 3.37, 3.39, 3.4, 3.42, 3.44, 3.46, 3.48, 3.5, 3.52, 3.54, 3.56, 3.58, 3.6, 3.62, 3.64, 3.67, 3.69, 3.71, 3.73, 3.75, 3.78, 3.8, 3.82, 3.85, 3.87, 3.89, 3.07, 3.03, 3.0, 2.97, 2.93, 2.91, 2.93, 2.95, 2.97, 2.99, 3.01, 4.1, 4.06, 4.02, 3.98, 3.94, 3.9, 3.86, 3.82, 3.78, 3.74, 3.71, 3.67, 3.63, 3.6, 3.56, 3.53, 3.49, 3.46, 3.43, 3.4, 3.36, 3.33, 3.3, 3.27, 3.24, 3.21, 3.18, 3.15, 3.12, 3.09, 3.06, 3.04, 3.01, 1.69, 1.67, 1.66, 1.64, 1.63, 1.61, 1.6, 1.58, 1.57, 1.55, 1.54, 1.55, 1.57, 1.59, 1.62, 1.64, 2.57, 2.55, 2.52, 2.5, 2.48, 2.45, 2.43, 2.41, 2.39, 2.36, 2.34, 2.32, 2.3, 2.27, 2.25, 2.23, 2.21, 2.19, 2.16, 2.14, 2.12, 2.1, 2.08, 2.06]
27 [1.71, 1.72, 1.74, 1.75, 1.76, 1.78, 1.81, 2.3, 2.32, 2.34, 2.35, 2.37, 2.39, 2.4, 2.42, 2.43, 2.45, 2.47, 2.48, 2.5, 2.52, 2.53, 2.55, 2.57, 2.58, 2.6, 2.62, 2.63, 2.65, 2.66, 2.68, 2.7, 2.72, 2.73, 2.75, 2.77, 2.78, 2.8, 2.82, 2.83, 2.85, 2.87, 2.88, 2.9, 2.92, 2.06, 2.0, 1.95, 1.93, 1.94, 1.95, 1.96, 1.98, 1.99, 2.0, 2.01, 2.02, 2.04, 3.17, 3.19, 3.21, 3.23, 3.25, 3.27, 3.29, 3.31, 3.33, 3.35, 3.37, 3.39, 3.41, 3.43, 3.45, 3.47, 3.49, 3.51, 3.54, 3.56, 3.58, 3.6, 3.63, 3.65, 3.67, 3.7, 3.72, 3.74, 3.77, 3.79, 3.82, 3.84, 3.87, 3.89, 3.06, 3.03, 3.0, 2.96, 2.93, 2.91, 2.94, 2.96, 2.98, 3.0, 3.02, 4.12, 4.08, 4.04, 4.0, 3.96, 3.92, 3.88, 3.85, 3.81, 3.77, 3.74, 3.7, 3.67, 3.64, 3.6, 3.57, 3.54, 3.51, 3.47, 3.44, 3.41, 3.38, 3.35, 3.32, 3.29, 3.26, 3.23, 3.21, 3.18, 3.15, 3.12, 3.1, 3.07, 1.72, 1.71, 1.69, 1.68, 1.66, 1.65, 1.63, 1.62, 1.61, 1.59, 1.58, 1.58, 1.61, 1.63, 1.66, 1.68, 2.65, 2.63, 2.61, 2.58, 2.56, 2.54, 2.52, 2.49, 2.47, 2.45, 2.43, 2.41, 2.39, 2.36, 2.34, 2.32, 2.3, 2.28, 2.26, 2.24, 2.22, 2.2, 2.18, 2.16, 2.14, 2.12, 2.1, 2.08, 2.05, 2.03]
28 [2.17, 2.19, 2.2, 2.22, 2.24, 2.26, 2.28, 2.29, 2.31, 2.33, 2.35, 2.36, 2.38, 2.4, 2.42, 2.43, 2.45, 2.47, 2.49, 2.51, 2.52, 2.54, 2.56, 2.58, 2.6, 2.61, 2.63, 2.65, 2.67, 2.69, 2.7, 2.72, 2.74, 2.76, 2.78, 2.8, 2.81, 2.83, 1.98, 1.92, 1.87, 1.88, 1.89, 1.9, 1.91, 1.93, 1.94, 1.95, 1.96, 1.98, 1.99, 3.11, 3.13, 3.15, 3.17, 3.19, 3.21, 3.23, 3.25, 3.27, 3.29, 3.32, 3.34, 3.36, 3.38, 3.41, 3.43, 3.45, 3.47, 3.5, 3.52, 3.55, 3.57, 3.59, 3.62, 3.64, 3.67, 3.69, 3.72, 3.75, 3.77, 3.8, 3.83, 3.85, 3.88, 3.05, 3.02, 2.98, 2.95, 2.92, 2.91, 2.94, 2.96, 2.98, 3.0, 3.03, 4.13, 4.09, 4.05, 4.01, 3.98, 3.94, 3.9, 3.87, 3.83, 3.8, 3.77, 3.73, 3.7, 3.67, 3.64, 3.61, 3.58, 3.54, 3.51, 3.49, 3.46, 3.43, 3.4, 3.37, 3.34, 3.32, 3.29, 3.26, 3.24, 3.21, 3.18, 3.16, 3.13, 1.75, 1.74, 1.72, 1.71, 1.7, 1.68, 1.67, 1.66, 1.64, 1.63, 1.62, 1.63, 1.65, 1.68, 1.7, 1.73, 2.73, 2.71, 2.69, 2.67, 2.65, 2.63, 2.61, 2.59, 2.56, 2.54, 2.52, 2.5, 2.48, 2.46, 2.44, 2.42, 2.4, 2.38, 2.36, 2.34, 2.32, 2.3, 2.28, 2.27, 2.25, 2.23, 2.21, 2.19, 2.17, 2.15, 2.13, 2.11, 2.09, 2.07, 2.06, 2.04, 2.02]
29 [2.16, 2.18, 2.2, 2.22, 2.24, 2.25, 2.27, 2.29, 2.31, 2.33, 2.35, 2.37, 2.39, 2.41, 2.43, 2.44, 2.46, 2.48, 2.5, 2.52, 2.54, 2.56, 2.58, 2.6, 2.62, 2.64, 2.66, 2.68, 2.7, 2.72, 1.9, 1.85, 1.8, 1.8, 1.82, 1.83, 1.84, 1.86, 1.87, 1.89, 1.9, 1.91, 1.93, 3.01, 3.03, 3.05, 3.08, 3.1, 3.12, 3.14, 3.17, 3.19, 3.21, 3.24, 3.26, 3.28, 3.31, 3.33, 3.36, 3.38, 3.4, 3.43, 3.45, 3.48, 3.51, 3.53, 3.56, 3.59, 3.61, 3.64, 3.67, 3.7, 3.72, 3.75, 3.78, 3.81, 3.84, 3.87, 3.0, 2.97, 2.94, 2.91, 2.89, 2.91, 2.94, 2.96, 2.99, 3.01, 4.14, 4.1, 4.06, 4.03, 3.99, 3.96, 3.92, 3.89, 3.86, 3.82, 3.79, 3.76, 3.73, 3.7, 3.67, 3.64, 3.61, 3.58, 3.56, 3.53, 3.5, 3.47, 3.45, 3.42, 3.39, 3.37, 3.34, 3.32, 3.29, 3.27, 3.24, 3.22, 3.19, 1.78, 1.77, 1.76, 1.75, 1.73, 1.72, 1.71, 1.7, 1.68, 1.67, 1.66, 1.65, 1.68, 1.7, 1.73, 1.76, 2.82, 2.8, 2.78, 2.76, 2.74, 2.72, 2.7, 2.68, 2.66, 2.64, 2.62, 2.6, 2.58, 2.57, 2.55, 2.53, 2.51, 2.49, 2.47, 2.45, 2.43, 2.42, 2.4, 2.38, 2.36, 2.34, 2.33, 2.31, 2.29, 2.27, 2.25, 2.24, 2.22, 2.2, 2.18, 2.17, 2.15, 2.13, 2.11, 2.09, 2.08, 2.06, 2.04, 2.02, 2.01]
30 [2.16, 2.18, 2.2, 2.22, 2.24, 2.26, 2.28, 2.3, 2.32, 2.34, 2.36, 2.38, 2.4, 2.42, 2.44, 2.46, 2.49, 2.51, 2.53, 2.55, 2.57, 2.59, 1.84, 1.79, 1.74, 1.72, 1.74, 1.75, 1.77, 1.78, 1.79, 1.81, 1.82, 1.84, 1.85, 2.9, 2.92, 2.94, 2.97, 2.99, 3.01, 3.04, 3.06, 3.09, 3.11, 3.14, 3.16, 3.19, 3.21, 3.24, 3.26, 3.29, 3.31, 3.34, 3.37, 3.39, 3.42, 3.45, 3.48, 3.5, 3.53, 3.56, 3.59, 3.62, 3.65, 3.68, 3.71, 3.74, 3.77, 3.8, 2.98, 2.95, 2.92, 2.9, 2.87, 2.87, 2.9, 2.92, 2.95, 2.97, 3.0, 4.1, 4.06, 4.03, 4.0, 3.97, 3.93, 3.9, 3.87, 3.84, 3.81, 3.78, 3.75, 3.72, 3.69, 3.67, 3.64, 3.61, 3.59, 3.56, 3.53, 3.51, 3.48, 3.46, 3.43, 3.41, 3.39, 3.36, 3.34, 3.32, 3.29, 3.27, 3.25, 3.22, 1.8, 1.79, 1.77, 1.76, 1.75, 1.74, 1.73, 1.72, 1.7, 1.69, 1.68, 1.68, 1.71, 1.74, 1.77, 1.8, 2.88, 2.86, 2.84, 2.82, 2.8, 2.78, 2.76, 2.75, 2.73, 2.71, 2.69, 2.67, 2.66, 2.64, 2.62, 2.6, 2.59, 2.57, 2.55, 2.53, 2.52, 2.5, 2.48, 2.47, 2.45, 2.43, 2.42, 2.4, 2.38, 2.37, 2.35, 2.33, 2.32, 2.3, 2.28, 2.27, 2.25, 2.23, 2.22, 2.2, 2.18, 2.17, 2.15, 2.13, 2.12, 2.1, 2.09, 2.07, 2.05, 2.04, 2.02, 2.0]
31 [2.17, 2.19, 2.21, 2.23, 2.25, 2.27, 2.3, 2.32, 2.34, 2.36, 2.38, 2.41, 2.43, 2.45, 2.47, 1.74, 1.69, 1.64, 1.65, 1.66, 1.68, 1.69, 1.71, 1.72, 1.74, 1.75, 1.77, 1.78, 2.79, 2.82, 2.84, 2.87, 2.89, 2.92, 2.94, 2.97, 2.99, 3.02, 3.04, 3.07, 3.1, 3.12, 3.15, 3.18, 3.2, 3.23, 3.26, 3.29, 3.31, 3.34, 3.37, 3.4, 3.43, 3.46, 3.49, 3.52, 3.55, 3.58, 3.61, 3.65, 3.68, 3.71, 3.74, 2.93, 2.9, 2.88, 2.85, 2.83, 2.83, 2.86, 2.89, 2.91, 2.94, 2.97, 4.06, 4.03, 4.0, 3.97, 3.94, 3.91, 3.88, 3.85, 3.82, 3.79, 3.76, 3.74, 3.71, 3.69, 3.66, 3.63, 3.61, 3.58, 3.56, 3.54, 3.51, 3.49, 3.47, 3.44, 3.42, 3.4, 3.38, 3.35, 3.33, 3.31, 3.29, 3.27, 3.25, 1.81, 1.8, 1.79, 1.77, 1.76, 1.75, 1.74, 1.73, 1.72, 1.71, 1.7, 1.7, 1.73, 1.76, 1.79, 1.82, 2.93, 2.91, 2.89, 2.87, 2.86, 2.84, 2.82, 2.8, 2.79, 2.77, 2.75, 2.74, 2.72, 2.71, 2.69, 2.67, 2.66, 2.64, 2.62, 2.61, 2.59, 2.58, 2.56, 2.54, 2.53, 2.51, 2.5, 2.48, 2.47, 2.45, 2.44, 2.42, 2.41, 2.39, 2.37, 2.36, 2.34, 2.33, 2.31, 2.3, 2.28, 2.27, 2.25, 2.24, 2.22, 2.21, 2.19, 2.18, 2.16, 2.15, 2.13, 2.12, 2.1, 2.09, 2.07, 2.05, 2.04, 2.02, 2.01]
32 [2.18, 2.21, 2.23, 2.25, 2.27, 2.3, 2.32, 2.34, 1.64, 1.59, 1.55, 1.57, 1.58, 1.6, 1.61, 1.63, 1.64, 1.66, 1.68, 1.69, 1.71, 2.68, 2.7, 2.73, 2.76, 2.78, 2.81, 2.83, 2.86, 2.89, 2.91, 2.94, 2.97, 2.99, 3.02, 3.05, 3.08, 3.1, 3.13, 3.16, 3.19, 3.22, 3.25, 3.28, 3.31, 3.34, 3.37, 3.4, 3.43, 3.47, 3.5, 3.53, 3.56, 3.6, 3.63, 3.67, 2.87, 2.85, 2.83, 2.8, 2.78, 2.78, 2.81, 2.84, 2.87, 2.9, 2.92, 4.01, 3.98, 3.95, 3.93, 3.9, 3.87, 3.84, 3.82, 3.79, 3.77, 3.74, 3.71, 3.69, 3.67, 3.64, 3.62, 3.6, 3.57, 3.55, 3.53, 3.51, 3.48, 3.46, 3.44, 3.42, 3.4, 3.38, 3.36, 3.34, 3.32, 3.3, 3.28, 3.26, 1.81, 1.8, 1.79, 1.78, 1.77, 1.76, 1.75, 1.74, 1.73, 1.72, 1.71, 1.7, 1.73, 1.77, 1.8, 1.83, 2.96, 2.95, 2.93, 2.92, 2.9, 2.88, 2.87, 2.85, 2.84, 2.82, 2.81, 2.79, 2.78, 2.76, 2.75, 2.73, 2.72, 2.7, 2.69, 2.67, 2.66, 2.64, 2.63, 2.61, 2.6, 2.58, 2.57, 2.56, 2.54, 2.53, 2.51, 2.5, 2.48, 2.47, 2.46, 2.44, 2.43, 2.41, 2.4, 2.39, 2.37, 2.36, 2.34, 2.33, 2.32, 2.3, 2.29, 2.27, 2.26, 2.25, 2.23, 2.22, 2.2, 2.19, 2.18, 2.16, 2.15, 2.13, 2.12, 2.11, 2.09, 2.08, 2.06, 2.05, 2.03, 2.02]
33 [2.2, 1.56, 1.52, 1.48, 1.48, 1.49, 1.51, 1.53, 1.54, 1.56, 1.57, 1.59, 1.61, 1.62, 2.55, 2.58, 2.6, 2.63, 2.66, 2.68, 2.71, 2.74, 2.76, 2.79, 2.82, 2.85, 2.87, 2.9, 2.93, 2.96, 2.99, 3.02, 3.05, 3.08, 3.11, 3.14, 3.17, 3.2, 3.23, 3.26, 3.29, 3.33, 3.36, 3.39, 3.43, 3.46, 3.49, 3.53, 3.57, 3.6, 2.8, 2.78, 2.76, 2.73, 2.71, 2.74, 2.77, 2.8, 2.83, 2.86, 3.97, 3.94, 3.91, 3.89, 3.86, 3.83, 3.81, 3.79, 3.76, 3.74, 3.71, 3.69, 3.67, 3.65, 3.62, 3.6, 3.58, 3.56, 3.54, 3.52, 3.5, 3.48, 3.46, 3.44, 3.42, 3.4, 3.38, 3.36, 3.34, 3.33, 3.31, 3.29, 3.27, 3.25, 1.8, 1.79, 1.78, 1.78, 1.77, 1.76, 1.75, 1.74, 1.73, 1.72, 1.71, 1.72, 1.75, 1.78, 1.82, 1.85, 2.98, 2.97, 2.95, 2.94, 2.92, 2.91, 2.89, 2.88, 2.87, 2.85, 2.84, 2.82, 2.81, 2.8, 2.78, 2.77, 2.75, 2.74, 2.73, 2.71, 2.7, 2.69, 2.67, 2.66, 2.65, 2.63, 2.62, 2.61, 2.59, 2.58, 2.57, 2.56, 2.54, 2.53, 2.52, 2.5, 2.49, 2.48, 2.46, 2.45, 2.44, 2.43, 2.41, 2.4, 2.39, 2.37, 2.36, 2.35, 2.34, 2.32, 2.31, 2.3, 2.29, 2.27, 2.26, 2.25, 2.23, 2.22, 2.21, 2.19, 2.18, 2.17, 2.16, 2.14, 2.13, 2.12, 2.1, 2.09, 2.08, 2.06, 2.05, 2.04]
34 [2.28, 2.3, 2.33, 2.36, 2.39, 2.42, 2.44, 2.47, 2.5, 2.53, 2.56, 2.59, 2.62, 2.65, 2.68, 2.71, 2.74, 2.77, 2.8, 2.83, 2.86, 2.9, 2.93, 2.96, 3.0, 3.03, 3.06, 3.1, 3.13, 3.17, 3.2, 3.24, 3.27, 3.31, 3.35, 3.39, 2.63, 2.62, 2.6, 2.58, 2.57, 2.59, 2.62, 2.65, 2.69, 2.72, 3.79, 3.77, 3.75, 3.73, 3.71, 3.68, 3.66, 3.64, 3.63, 3.61, 3.59, 3.57, 3.55, 3.53, 3.51, 3.5, 3.48, 3.46, 3.45, 3.43, 3.41, 3.4, 3.38, 3.37, 3.35, 3.34, 3.32, 3.31, 3.29, 3.28, 3.26, 3.25, 3.23, 3.22, 1.77, 1.77, 1.76, 1.75, 1.74, 1.74, 1.73, 1.72, 1.72, 1.71, 1.7, 1.7, 1.73, 1.76, 1.8, 1.84, 1.87, 2.99, 2.98, 2.97, 2.95, 2.94, 2.93, 2.92, 2.91, 2.9, 2.89, 2.87, 2.86, 2.85, 2.84, 2.83, 2.82, 2.81, 2.8, 2.79, 2.78, 2.77, 2.75, 2.74, 2.73, 2.72, 2.71, 2.7, 2.69, 2.68, 2.67, 2.66, 2.65, 2.64, 2.63, 2.62, 2.61, 2.6, 2.59, 2.58, 2.57, 2.56, 2.55, 2.54, 2.53, 2.52, 2.51, 2.5, 2.49, 2.48, 2.47, 2.46, 2.45, 2.44, 2.42, 2.41, 2.4, 2.39, 2.38, 2.37, 2.36, 2.35, 2.34, 2.33, 2.32, 2.31, 2.3, 2.29, 2.28, 2.27, 2.26, 2.25, 2.24, 2.23, 2.21, 2.2, 2.19, 2.18, 2.17, 2.16, 1.24, 1.2, 0.48, 0.46, 0.45, 0.43]
35 [2.37, 2.4, 2.44, 2.47, 2.5, 2.53, 2.56, 2.6, 2.63, 2.66, 2.7, 2.73, 2.77, 2.8, 2.84, 2.87, 2.91, 2.94, 2.98, 3.02, 3.06, 3.09, 3.13, 2.45, 2.44, 2.43, 2.41, 2.4, 2.42, 2.45, 2.48, 2.51, 2.54, 2.57, 3.57, 3.56, 3.54, 3.52, 3.51, 3.49, 3.48, 3.46, 3.45, 3.43, 3.42, 3.4, 3.39, 3.38, 3.36, 3.35, 3.34, 3.32, 3.31, 3.3, 3.29, 3.27, 3.26, 3.25, 3.24, 3.23, 3.21, 3.2, 3.19, 3.18, 3.17, 3.16, 3.15, 1.72, 1.72, 1.71, 1.7, 1.7, 1.69, 1.69, 1.68, 1.68, 1.67, 1.67, 1.66, 1.67, 1.71, 1.74, 1.78, 1.82, 2.97, 2.96, 2.95, 2.94, 2.93, 2.93, 2.92, 2.91, 2.9, 2.89, 2.88, 2.87, 2.86, 2.86, 2.85, 2.84, 2.83, 2.82, 2.81, 2.81, 2.8, 2.79, 2.78, 2.77, 2.77, 2.76, 2.75, 2.74, 2.73, 2.73, 2.72, 2.71, 2.7, 2.69, 2.69, 2.68, 2.67, 2.66, 2.65, 2.65, 2.64, 2.63, 2.62, 2.62, 2.61, 2.6, 2.59, 2.58, 2.58, 2.57, 2.56, 2.55, 2.55, 2.54, 2.53, 2.52, 2.51, 2.51, 2.5, 2.49, 2.48, 2.47, 2.47, 2.46, 2.45, 2.44, 2.43, 2.43, 2.42, 2.41, 2.4, 2.39, 2.39, 2.38, 2.37, 2.36, 2.35, 2.34, 2.34, 2.33, 2.32, 1.33, 1.28, 1.24, 0.5, 0.49, 0.47, 0.46, 0.45, 0.43, 0.42, 0.41, 0.4, 0.39, 0.38, 0.37, 0.36, 0.35]
36 [2.47, 2.5, 2.54, 2.57, 2.61, 2.64, 2.68, 2.71, 2.75, 2.79, 2.83, 2.87, 2.91, 2.94, 2.29, 2.28, 2.27, 2.26, 2.25, 2.28, 2.31, 2.35, 2.38, 2.41, 2.44, 3.39, 3.38, 3.36, 3.35, 3.34, 3.33, 3.31, 3.3, 3.29, 3.28, 3.27, 3.26, 3.25, 3.24, 3.22, 3.21, 3.2, 3.19, 3.18, 3.17, 3.16, 3.16, 3.15, 3.14, 3.13, 3.12, 3.11, 3.1, 3.09, 3.08, 3.07, 3.07, 3.06, 1.66, 1.66, 1.65, 1.65, 1.64, 1.64, 1.63, 1.63, 1.63, 1.62, 1.62, 1.61, 1.63, 1.67, 1.7, 1.74, 1.78, 2.92, 2.91, 2.91, 2.9, 2.89, 2.89, 2.88, 2.87, 2.87, 2.86, 2.85, 2.85, 2.84, 2.83, 2.83, 2.82, 2.81, 2.81, 2.8, 2.79, 2.79, 2.78, 2.78, 2.77, 2.76, 2.76, 2.75, 2.75, 2.74, 2.73, 2.73, 2.72, 2.71, 2.71, 2.7, 2.7, 2.69, 2.68, 2.68, 2.67, 2.67, 2.66, 2.65, 2.65, 2.64, 2.64, 2.63, 2.62, 2.62, 2.61, 2.61, 2.6, 2.59, 2.59, 2.58, 2.58, 2.57, 2.56, 2.56, 2.55, 2.55, 2.54, 2.53, 2.53, 2.52, 2.51, 2.51, 2.5, 2.5, 2.49, 2.48, 2.48, 2.47, 2.46, 2.46, 2.45, 2.45, 2.44, 2.43, 2.43, 2.42, 2.41, 1.38, 1.34, 1.3, 1.26, 1.22, 0.5, 0.49, 0.47, 0.46, 0.45, 0.44, 0.42, 0.41, 0.4, 0.39, 0.38, 0.37, 0.36, 0.36, 0.35, 0.34, 0.33, 0.32, 0.32, 0.31]
37 [2.62, 2.66, 2.08, 2.07, 2.07, 2.06, 2.05, 2.08, 2.11, 2.14, 2.17, 2.2, 2.24, 3.14, 3.13, 3.12, 3.12, 3.11, 3.1, 3.09, 3.09, 3.08, 3.07, 3.06, 3.06, 3.05, 3.04, 3.04, 3.03, 3.02, 3.02, 3.01, 3.0, 3.0, 2.99, 2.99, 2.98, 2.97, 2.97, 2.96, 2.96, 2.95, 2.95, 2.94, 2.94, 2.93, 1.58, 1.57, 1.57, 1.57, 1.57, 1.56, 1.56, 1.56, 1.56, 1.55, 1.55, 1.55, 1.56, 1.59, 1.62, 1.66, 1.7, 1.73, 2.84, 2.83, 2.83, 2.83, 2.82, 2.82, 2.81, 2.81, 2.8, 2.8, 2.8, 2.79, 2.79, 2.78, 2.78, 2.78, 2.77, 2.77, 2.76, 2.76, 2.76, 2.75, 2.75, 2.74, 2.74, 2.74, 2.73, 2.73, 2.72, 2.72, 2.72, 2.71, 2.71, 2.7, 2.7, 2.7, 2.69, 2.69, 2.69, 2.68, 2.68, 2.67, 2.67, 2.67, 2.66, 2.66, 2.66, 2.65, 2.65, 2.64, 2.64, 2.64, 2.63, 2.63, 2.63, 2.62, 2.62, 2.61, 2.61, 2.61, 2.6, 2.6, 2.59, 2.59, 2.59, 2.58, 2.58, 2.58, 2.57, 2.57, 2.56, 2.56, 2.56, 2.55, 2.55, 2.54, 2.54, 2.54, 2.53, 2.53, 2.52, 2.52, 2.52, 1.43, 1.39, 1.35, 1.31, 1.27, 1.25, 1.25, 0.5, 0.48, 0.47, 0.46, 0.45, 0.44, 0.43, 0.42, 0.41, 0.4, 0.39, 0.38, 0.37, 0.36, 0.35, 0.35, 0.34, 0.33, 0.32, 0.32, 0.31, 0.31, 0.31, 0.31, 0.31, 0.31, 0.31, 0.31]
38 [2.79, 2.78, 2.78, 2.78, 2.78, 2.78, 2.77, 2.77, 2.77, 2.77, 2.77, 2.76, 2.76, 2.76, 2.76, 2.76, 2.76, 2.75, 2.75, 2.75, 2.75, 2.75, 2.75, 2.74, 2.74, 2.74, 2.74, 2.74, 2.74, 2.73, 2.73, 1.46, 1.46, 1.46, 1.46, 1.46, 1.45, 1.45, 1.45, 1.45, 1.45, 1.45, 1.45, 1.45, 1.48, 1.51, 1.55, 1.58, 1.62, 2.71, 2.71, 2.71, 2.71, 2.7, 2.7, 2.7, 2.7, 2.7, 2.7, 2.7, 2.7, 2.69, 2.69, 2.69, 2.69, 2.69, 2.69, 2.69, 2.69, 2.69, 2.69, 2.68, 2.68, 2.68, 2.68, 2.68, 2.68, 2.68, 2.68, 2.68, 2.67, 2.67, 2.67, 2.67, 2.67, 2.67, 2.67, 2.67, 2.67, 2.67, 2.66, 2.66, 2.66, 2.66, 2.66, 2.66, 2.66, 2.66, 2.66, 2.66, 2.65, 2.65, 2.65, 2.65, 2.65, 2.65, 2.65, 2.65, 2.65, 2.65, 2.64, 2.64, 2.64, 2.64, 2.64, 2.64, 2.64, 2.64, 2.64, 2.63, 2.63, 2.63, 2.63, 2.63, 2.63, 2.63, 2.63, 2.63, 2.63, 2.62, 2.62, 2.62, 2.62, 2.62, 1.48, 1.44, 1.4, 1.36, 1.33, 1.3, 1.3, 1.3, 0.51, 0.49, 0.48, 0.47, 0.46, 0.45, 0.44, 0.43, 0.42, 0.41, 0.4, 0.39, 0.39, 0.38, 0.37, 0.36, 0.35, 0.35, 0.34, 0.33, 0.33, 0.32, 0.31, 0.31, 0.31, 0.31, 0.31, 0.31, 0.31, 0.31, 0.31, 0.31, 0.31, 0.31, 0.31, 0.31, 0.31, 0.31, 0.31, 0.31]
39 [2.49, 2.5, 2.5, 2.5, 2.5, 2.51, 2.51, 2.51, 2.51, 2.51, 2.52, 2.52, 2.52, 2.52, 2.52, 2.53, 2.53, 2.53, 2.53, 1.34, 1.34, 1.34, 1.34, 1.34, 1.35, 1.35, 1.35, 1.35, 1.35, 1.35, 1.35, 1.37, 1.4, 1.43, 1.47, 1.5, 1.54, 2.56, 2.57, 2.57, 2.57, 2.57, 2.57, 2.57, 2.57, 2.58, 2.58, 2.58, 2.58, 2.58, 2.58, 2.58, 2.59, 2.59, 2.59, 2.59, 2.59, 2.59, 2.59, 2.6, 2.6, 2.6, 2.6, 2.6, 2.6, 2.6, 2.61, 2.61, 2.61, 2.61, 2.61, 2.61, 2.61, 2.61, 2.62, 2.62, 2.62, 2.62, 2.62, 2.62, 2.62, 2.63, 2.63, 2.63, 2.63, 2.63, 2.63, 2.63, 2.63, 2.64, 2.64, 2.64, 2.64, 2.64, 2.64, 2.64, 2.64, 2.65, 2.65, 2.65, 2.65, 2.65, 2.65, 2.65, 2.66, 2.66, 2.66, 2.66, 2.66, 2.66, 2.66, 2.67, 2.67, 2.67, 2.67, 2.67, 2.67, 2.67, 2.67, 2.68, 2.68, 2.68, 2.68, 1.5, 1.46, 1.42, 1.38, 1.35, 1.32, 1.32, 1.32, 1.32, 0.5, 0.49, 0.48, 0.47, 0.46, 0.45, 0.44, 0.43, 0.42, 0.41, 0.4, 0.39, 0.39, 0.38, 0.37, 0.36, 0.36, 0.35, 0.34, 0.34, 0.33, 0.33, 0.32, 0.32, 0.31, 0.31, 0.31, 0.31, 0.31, 0.31, 0.31, 0.31, 0.31, 0.31, 0.31, 0.31, 0.31, 0.31, 0.31, 0.31, 0.31, 0.31, 0.31, 0.31, 0.31, 0.31, 0.31, 0.31, 0.31, 0.31]
40 [2.3, 2.31, 2.31, 2.32, 2.32, 2.33, 2.33, 1.23, 1.23, 1.23, 1.24, 1.24, 1.24, 1.24, 1.25, 1.25, 1.25, 1.25, 1.26, 1.26, 1.28, 1.31, 1.34, 1.37, 1.41, 1.44, 2.42, 2.42, 2.43, 2.43, 2.44, 2.44, 2.44, 2.45, 2.45, 2.45, 2.46, 2.46, 2.47, 2.47, 2.47, 2.48, 2.48, 2.48, 2.49, 2.49, 2.49, 2.5, 2.5, 2.51, 2.51, 2.51, 2.52, 2.52, 2.52, 2.53, 2.53, 2.53, 2.54, 2.54, 2.54, 2.55, 2.55, 2.55, 2.56, 2.56, 2.56, 2.57, 2.57, 2.57, 2.58, 2.58, 2.58, 2.59, 2.59, 2.59, 2.6, 2.6, 2.6, 2.61, 2.61, 2.61, 2.62, 2.62, 2.62, 2.63, 2.63, 2.63, 2.64, 2.64, 2.64, 2.65, 2.65, 2.65, 2.66, 2.66, 2.66, 2.67, 2.67, 2.67, 2.68, 2.68, 2.68, 2.69, 2.69, 2.69, 2.7, 2.7, 2.71, 2.71, 2.71, 2.72, 2.72, 1.5, 1.46, 1.43, 1.39, 1.36, 1.34, 1.34, 1.34, 1.35, 0.5, 0.49, 0.48, 0.47, 0.46, 0.45, 0.44, 0.43, 0.42, 0.41, 0.4, 0.4, 0.39, 0.38, 0.38, 0.37, 0.36, 0.36, 0.35, 0.34, 0.34, 0.33, 0.33, 0.32, 0.32, 0.31, 0.31, 0.31, 0.31, 0.31, 0.31, 0.31, 0.31, 0.31, 0.31, 0.31, 0.31, 0.31, 0.31, 0.31, 0.31, 0.32, 0.32, 0.32, 0.32, 0.32, 0.32, 0.32, 0.32, 0.32, 0.32, 0.32, 0.32, 0.32, 0.33, 0.33, 0.33, 0.33, 0.33, 0.33]
41 [1.13, 1.13, 1.14, 1.14, 1.14, 1.15, 1.15, 1.15, 1.16, 1.17, 1.2, 1.23, 1.26, 1.3, 1.33, 2.26, 2.26, 2.27, 2.28, 2.28, 2.29, 2.3, 2.3, 2.31, 2.31, 2.32, 2.32, 2.33, 2.34, 2.34, 2.35, 2.35, 2.36, 2.36, 2.37, 2.38, 2.38, 2.39, 2.39, 2.4, 2.4, 2.41, 2.41, 2.42, 2.43, 2.43, 2.44, 2.44, 2.45, 2.45, 2.46, 2.46, 2.47, 2.47, 2.48, 2.48, 2.49, 2.49, 2.5, 2.5, 2.51, 2.51, 2.52, 2.53, 2.53, 2.54, 2.54, 2.55, 2.55, 2.56, 2.56, 2.57, 2.57, 2.58, 2.58, 2.59, 2.59, 2.6, 2.6, 2.61, 2.61, 2.62, 2.62, 2.63, 2.64, 2.64, 2.65, 2.65, 2.66, 2.66, 2.67, 2.67, 2.68, 2.68, 2.69, 2.7, 2.7, 2.71, 2.71, 2.72, 2.72, 2.73, 2.74, 1.51, 1.47, 1.43, 1.4, 1.37, 1.34, 1.35, 1.35, 1.35, 0.49, 0.48, 0.47, 0.46, 0.45, 0.44, 0.43, 0.43, 0.42, 0.41, 0.4, 0.4, 0.39, 0.38, 0.37, 0.37, 0.36, 0.36, 0.35, 0.34, 0.34, 0.33, 0.33, 0.32, 0.32, 0.31, 0.31, 0.3, 0.3, 0.3, 0.3, 0.3, 0.31, 0.31, 0.31, 0.31, 0.31, 0.31, 0.31, 0.31, 0.31, 0.31, 0.32, 0.32, 0.32, 0.32, 0.32, 0.32, 0.32, 0.32, 0.32, 0.33, 0.33, 0.33, 0.33, 0.33, 0.33, 0.33, 0.33, 0.34, 0.34, 0.34, 0.34, 0.34, 0.34, 0.35, 0.35, 1.44, 1.42, 1.4]
42 [1.95, 1.96, 1.97, 1.98, 1.99, 2.0, 2.01, 2.02, 2.03, 2.04, 2.05, 2.06, 2.07, 2.08, 2.09, 2.1, 2.11, 2.12, 2.13, 2.14, 2.15, 2.16, 2.17, 2.18, 2.18, 2.19, 2.2, 2.21, 2.22, 2.23, 2.24, 2.25, 2.26, 2.26, 2.27, 2.28, 2.29, 2.3, 2.31, 2.32, 2.33, 2.34, 2.34, 2.35, 2.36, 2.37, 2.38, 2.39, 2.4, 2.41, 2.41, 2.42, 2.43, 2.44, 2.45, 2.46, 2.47, 2.48, 2.48, 2.49, 2.5, 2.51, 2.52, 2.53, 2.54, 2.55, 2.56, 2.57, 2.57, 2.58, 2.59, 2.6, 2.61, 2.62, 2.63, 2.64, 2.65, 2.66, 2.67, 2.68, 2.69, 2.7, 2.71, 1.48, 1.45, 1.41, 1.38, 1.35, 1.33, 1.33, 1.34, 0.47, 0.46, 0.45, 0.44, 0.43, 0.43, 0.42, 0.41, 0.4, 0.4, 0.39, 0.38, 0.38, 0.37, 0.36, 0.36, 0.35, 0.35, 0.34, 0.34, 0.33, 0.33, 0.32, 0.32, 0.31, 0.31, 0.3, 0.3, 0.3, 0.29, 0.29, 0.29, 0.29, 0.29, 0.29, 0.29, 0.3, 0.3, 0.3, 0.3, 0.3, 0.3, 0.31, 0.31, 0.31, 0.31, 0.31, 0.31, 0.31, 0.32, 0.32, 0.32, 0.32, 0.32, 0.33, 0.33, 0.33, 0.33, 0.33, 0.34, 0.34, 0.34, 0.34, 0.35, 0.35, 0.35, 0.35, 0.36, 0.36, 0.36, 0.36, 0.37, 1.58, 1.56, 1.54, 1.52, 1.5, 1.49, 1.47, 1.45, 1.43, 1.42, 1.4, 1.38, 1.37, 1.35, 1.34, 1.32, 1.3, 1.29, 1.27]
43 [1.87, 1.88, 1.89, 1.91, 1.92, 1.93, 1.94, 1.95, 1.96, 1.97, 1.99, 2.0, 2.01, 2.02, 2.03, 2.04, 2.05, 2.06, 2.07, 2.09, 2.1, 2.11, 2.12, 2.13, 2.14, 2.15, 2.16, 2.17, 2.18, 2.2, 2.21, 2.22, 2.23, 2.24, 2.25, 2.26, 2.27, 2.28, 2.29, 2.3, 2.31, 2.33, 2.34, 2.35, 2.36, 2.37, 2.38, 2.39, 2.4, 2.41, 2.42, 2.44, 2.45, 2.46, 2.47, 2.48, 2.49, 2.5, 2.51, 2.53, 2.54, 2.55, 2.56, 2.57, 2.58, 2.6, 2.61, 2.62, 2.63, 2.64, 1.45, 1.41, 1.38, 1.35, 1.32, 1.3, 1.3, 0.45, 0.44, 0.43, 0.42, 0.42, 0.41, 0.4, 0.39, 0.39, 0.38, 0.37, 0.37, 0.36, 0.36, 0.35, 0.34, 0.34, 0.33, 0.33, 0.32, 0.32, 0.32, 0.31, 0.31, 0.3, 0.3, 0.29, 0.29, 0.29, 0.28, 0.28, 0.28, 0.28, 0.28, 0.28, 0.28, 0.28, 0.28, 0.29, 0.29, 0.29, 0.29, 0.29, 0.29, 0.3, 0.3, 0.3, 0.3, 0.3, 0.31, 0.31, 0.31, 0.31, 0.31, 0.32, 0.32, 0.32, 0.32, 0.32, 0.33, 0.33, 0.33, 0.33, 0.34, 0.34, 0.34, 0.35, 0.35, 0.35, 0.35, 0.36, 0.36, 0.36, 0.37, 0.37, 1.65, 1.64, 1.62, 1.6, 1.59, 1.57, 1.55, 1.54, 1.52, 1.51, 1.49, 1.48, 1.46, 1.45, 1.43, 1.42, 1.4, 1.39, 1.37, 1.36, 1.34, 1.33, 1.31, 1.3, 1.29, 1.27, 1.26, 1.24, 1.23, 1.22]
44 [1.87, 1.88, 1.89, 1.91, 1.92, 1.93, 1.94, 1.95, 1.96, 1.97, 1.99, 2.0, 2.01, 2.02, 2.03, 2.04, 2.05, 2.06, 2.07, 2.09, 2.1, 2.11, 2.12, 2.13, 2.14, 2.15, 2.16, 2.17, 2.18, 2.2, 2.21, 2.22, 2.23, 2.24, 2.25, 2.26, 2.27, 2.28, 2.29, 2.3, 2.31, 2.33, 2.34, 2.35, 2.36, 2.37, 2.38, 2.39, 2.4, 2.41, 2.42, 2.44, 2.45, 2.46, 2.47, 2.48, 2.49, 2.5, 2.51, 2.53, 2.54, 2.55, 2.56, 2.57, 2.58, 2.6, 2.61, 2.62, 2.63, 2.64, 1.45, 1.41, 1.38, 1.35, 1.32, 1.3, 1.3, 0.45, 0.44, 0.43, 0.42, 0.42, 0.41, 0.4, 0.39, 0.39, 0.38, 0.37, 0.37, 0.36, 0.36, 0.35, 0.34, 0.34, 0.33, 0.33, 0.32, 0.32, 0.32, 0.31, 0.31, 0.3, 0.3, 0.29, 0.29, 0.29, 0.28, 0.28, 0.28, 0.28, 0.28, 0.28, 0.28, 0.28, 0.28, 0.29, 0.29, 0.29, 0.29, 0.29, 0.29, 0.3, 0.3, 0.3, 0.3, 0.3, 0.31, 0.31, 0.31, 0.31, 0.31, 0.32, 0.32, 0.32, 0.32, 0.32, 0.33, 0.33, 0.33, 0.33, 0.34, 0.34, 0.34, 0.35, 0.35, 0.35, 0.35, 0.36, 0.36, 0.36, 0.37, 0.37, 1.65, 1.64, 1.62, 1.6, 1.59, 1.57, 1.55, 1.54, 1.52, 1.51, 1.49, 1.48, 1.46, 1.45, 1.43, 1.42, 1.4, 1.39, 1.37, 1.36, 1.34, 1.33, 1.31, 1.3, 1.29, 1.27, 1.26, 1.24, 1.23, 1.22]
45 [1.84, 1.85, 1.86, 1.88, 1.89, 1.9, 1.91, 1.92, 1.94, 1.95, 1.96, 1.97, 1.99, 2.0, 2.01, 2.02, 2.03, 2.05, 2.06, 2.07, 2.08, 2.09, 2.11, 2.12, 2.13, 2.14, 2.15, 2.16, 2.18, 2.19, 2.2, 2.21, 2.22, 2.24, 2.25, 2.26, 2.27, 2.28, 2.3, 2.31, 2.32, 2.33, 2.34, 2.36, 2.37, 2.38, 2.39, 2.41, 2.42, 2.43, 2.44, 2.45, 2.47, 2.48, 2.49, 2.51, 2.52, 2.53, 2.54, 2.56, 2.57, 2.58, 2.6, 1.43, 1.39, 1.36, 1.33, 1.3, 1.28, 1.28, 0.43, 0.42, 0.41, 0.41, 0.4, 0.39, 0.38, 0.38, 0.37, 0.37, 0.36, 0.35, 0.35, 0.34, 0.34, 0.33, 0.33, 0.32, 0.32, 0.31, 0.31, 0.3, 0.3, 0.3, 0.29, 0.29, 0.29, 0.28, 0.28, 0.27, 0.27, 0.27, 0.27, 0.27, 0.27, 0.27, 0.27, 0.28, 0.28, 0.28, 0.28, 0.28, 0.29, 0.29, 0.29, 0.29, 0.29, 0.29, 0.3, 0.3, 0.3, 0.3, 0.31, 0.31, 0.31, 0.31, 0.31, 0.32, 0.32, 0.32, 0.32, 0.33, 0.33, 0.33, 0.34, 0.34, 0.34, 0.34, 0.35, 0.35, 0.35, 0.36, 0.36, 0.36, 0.37, 0.37, 1.69, 1.67, 1.66, 1.64, 1.63, 1.61, 1.6, 1.58, 1.57, 1.55, 1.54, 1.52, 1.51, 1.49, 1.48, 1.46, 1.45, 1.43, 1.42, 1.41, 1.39, 1.38, 1.37, 1.35, 1.34, 1.32, 1.31, 1.3, 1.28, 1.27, 1.26, 1.25, 1.23, 1.22, 1.21, 1.19]
46 [1.79, 1.81, 1.82, 1.83, 1.85, 1.86, 1.88, 1.89, 1.9, 1.92, 1.93, 1.94, 1.96, 1.97, 1.99, 2.0, 2.01, 2.03, 2.04, 2.05, 2.07, 2.08, 2.1, 2.11, 2.12, 2.14, 2.15, 2.17, 2.18, 2.19, 2.21, 2.22, 2.24, 2.25, 2.26, 2.28, 2.29, 2.31, 2.32, 2.34, 2.35, 2.36, 2.38, 2.39, 2.41, 2.42, 2.44, 2.45, 2.47, 2.48, 1.36, 1.32, 1.3, 1.27, 1.24, 0.4, 0.39, 0.38, 0.37, 0.37, 0.36, 0.35, 0.35, 0.34, 0.34, 0.33, 0.33, 0.32, 0.32, 0.31, 0.31, 0.3, 0.3, 0.29, 0.29, 0.29, 0.28, 0.28, 0.27, 0.27, 0.27, 0.26, 0.26, 0.26, 0.25, 0.25, 0.25, 0.25, 0.25, 0.25, 0.25, 0.25, 0.25, 0.26, 0.26, 0.26, 0.26, 0.26, 0.27, 0.27, 0.27, 0.27, 0.27, 0.28, 0.28, 0.28, 0.28, 0.28, 0.29, 0.29, 0.29, 0.29, 0.3, 0.3, 0.3, 0.3, 0.31, 0.31, 0.31, 0.31, 0.32, 0.32, 0.32, 0.33, 0.33, 0.33, 0.34, 0.34, 0.34, 0.35, 0.35, 0.35, 0.36, 0.36, 0.37, 1.74, 1.72, 1.71, 1.69, 1.68, 1.67, 1.65, 1.64, 1.62, 1.61, 1.6, 1.58, 1.57, 1.56, 1.54, 1.53, 1.52, 1.51, 1.49, 1.48, 1.47, 1.46, 1.44, 1.43, 1.42, 1.41, 1.39, 1.38, 1.37, 1.36, 1.35, 1.33, 1.32, 1.31, 1.3, 1.29, 1.27, 1.26, 1.25, 1.24, 1.23, 1.22, 1.21, 1.19, 1.18, 1.17, 1.16]
47 [1.78, 1.79, 1.81, 1.82, 1.84, 1.85, 1.87, 1.88, 1.9, 1.91, 1.93, 1.94, 1.95, 1.97, 1.98, 2.0, 2.01, 2.03, 2.04, 2.06, 2.07, 2.09, 2.1, 2.12, 2.13, 2.15, 2.16, 2.18, 2.19, 2.21, 2.23, 2.24, 2.26, 2.27, 2.29, 2.3, 2.32, 2.33, 2.35, 2.37, 2.38, 2.4, 1.32, 1.29, 1.26, 1.23, 0.38, 0.37, 0.36, 0.35, 0.35, 0.34, 0.34, 0.33, 0.32, 0.32, 0.31, 0.31, 0.3, 0.3, 0.29, 0.29, 0.29, 0.28, 0.28, 0.27, 0.27, 0.27, 0.26, 0.26, 0.26, 0.25, 0.25, 0.25, 0.24, 0.24, 0.24, 0.24, 0.23, 0.23, 0.24, 0.24, 0.24, 0.24, 0.24, 0.25, 0.25, 0.25, 0.25, 0.25, 0.26, 0.26, 0.26, 0.26, 0.26, 0.27, 0.27, 0.27, 0.27, 0.27, 0.28, 0.28, 0.28, 0.28, 0.29, 0.29, 0.29, 0.29, 0.3, 0.3, 0.3, 0.31, 0.31, 0.31, 0.31, 0.32, 0.32, 0.32, 0.33, 0.33, 0.34, 0.34, 0.34, 0.35, 0.35, 0.36, 0.36, 0.36, 1.77, 1.75, 1.74, 1.72, 1.71, 1.7, 1.68, 1.67, 1.66, 1.65, 1.63, 1.62, 1.61, 1.6, 1.58, 1.57, 1.56, 1.55, 1.53, 1.52, 1.51, 1.5, 1.49, 1.48, 1.46, 1.45, 1.44, 1.43, 1.42, 1.41, 1.4, 1.38, 1.37, 1.36, 1.35, 1.34, 1.33, 1.32, 1.31, 1.3, 1.29, 1.28, 1.26, 1.25, 1.24, 1.23, 1.22, 1.21, 1.2, 1.19, 1.18, 1.17, 1.16, 1.15]
48 [1.77, 1.78, 1.8, 1.82, 1.84, 1.85, 1.87, 1.89, 1.9, 1.92, 1.94, 1.95, 1.97, 1.99, 2.01, 2.02, 2.04, 2.06, 2.08, 2.09, 2.11, 2.13, 2.15, 2.16, 2.18, 2.2, 0.32, 0.32, 0.31, 0.3, 0.3, 0.29, 0.29, 0.28, 0.28, 0.27, 0.27, 0.26, 0.26, 0.25, 0.25, 0.25, 0.24, 0.24, 0.24, 0.23, 0.23, 0.23, 0.22, 0.22, 0.22, 0.21, 0.21, 0.21, 0.21, 0.2, 0.2, 0.2, 0.2, 0.2, 0.21, 0.21, 0.21, 0.21, 0.21, 0.21, 0.22, 0.22, 0.22, 0.22, 0.22, 0.23, 0.23, 0.23, 0.23, 0.23, 0.24, 0.24, 0.24, 0.24, 0.24, 0.25, 0.25, 0.25, 0.25, 0.26, 0.26, 0.26, 0.26, 0.27, 0.27, 0.27, 0.27, 0.28, 0.28, 0.28, 0.29, 0.29, 0.29, 0.3, 0.3, 0.3, 0.31, 0.31, 0.31, 0.32, 0.32, 0.33, 0.33, 0.33, 0.34, 0.34, 0.35, 0.35, 1.79, 1.78, 1.77, 1.75, 1.74, 1.73, 1.72, 1.71, 1.7, 1.69, 1.68, 1.67, 1.66, 1.64, 1.63, 1.62, 1.61, 1.6, 1.59, 1.58, 1.57, 1.56, 1.55, 1.54, 1.53, 1.52, 1.51, 1.5, 1.49, 1.48, 1.47, 1.46, 1.45, 1.44, 1.43, 1.43, 1.42, 1.41, 1.4, 1.39, 1.38, 1.37, 1.36, 1.35, 1.34, 1.33, 1.32, 1.31, 1.3, 1.3, 1.29, 1.28, 1.27, 1.26, 1.25, 1.24, 1.23, 1.22, 1.21, 1.21, 1.2, 1.19, 1.18, 1.17, 1.16, 1.15, 1.14, 1.13]
49 [1.79, 1.8, 1.82, 1.84, 1.86, 1.88, 1.9, 1.92, 0.28, 0.27, 0.26, 0.26, 0.25, 0.25, 0.24, 0.24, 0.23, 0.23, 0.22, 0.22, 0.22, 0.21, 0.21, 0.2, 0.2, 0.2, 0.2, 0.19, 0.19, 0.19, 0.19, 0.18, 0.18, 0.18, 0.18, 0.17, 0.17, 0.17, 0.17, 0.17, 0.18, 0.18, 0.18, 0.18, 0.18, 0.18, 0.19, 0.19, 0.19, 0.19, 0.19, 0.19, 0.2, 0.2, 0.2, 0.2, 0.2, 0.21, 0.21, 0.21, 0.21, 0.21, 0.22, 0.22, 0.22, 0.22, 0.22, 0.23, 0.23, 0.23, 0.23, 0.24, 0.24, 0.24, 0.24, 0.25, 0.25, 0.25, 0.26, 0.26, 0.26, 0.26, 0.27, 0.27, 0.27, 0.28, 0.28, 0.28, 0.29, 0.29, 0.29, 0.3, 0.3, 0.31, 0.31, 0.31, 0.32, 0.32, 0.33, 0.33, 1.81, 1.8, 1.79, 1.78, 1.77, 1.76, 1.75, 1.74, 1.73, 1.72, 1.71, 1.7, 1.69, 1.68, 1.67, 1.67, 1.66, 1.65, 1.64, 1.63, 1.62, 1.61, 1.6, 1.6, 1.59, 1.58, 1.57, 1.56, 1.55, 1.54, 1.54, 1.53, 1.52, 1.51, 1.5, 1.5, 1.49, 1.48, 1.47, 1.46, 1.46, 1.45, 1.44, 1.43, 1.42, 1.42, 1.41, 1.4, 1.39, 1.38, 1.38, 1.37, 1.36, 1.35, 1.35, 1.34, 1.33, 1.32, 1.31, 1.31, 1.3, 1.29, 1.28, 1.28, 1.27, 1.26, 1.25, 1.24, 1.24, 1.23, 1.22, 1.21, 1.21, 1.2, 1.19, 1.18, 1.17, 1.17, 1.16, 1.15, 1.14, 1.13]
