0 [0.0, 0.0, 0.0, 0.0, 0.0, 0.0, 0.0, 0.0]
1 [0.0, 0.0, 0.0, 0.0, 0.0, 0.0, 0.0, 0.0]
2 [0.0, 0.055555556, 0.055555556, 0.055555556, 0.9444444, 0.0, 0.0, 0.9444444]
3 [0.0, 0.0, 0.0, 0.0, 0.0, 0.0, 0.0, 0.0]
4 [0.0, 0.0054945056, 0.0054945056, 0.0054945056, 0.99450547, 0.0, 0.0, 0.0054945056]
5 [0.0, 0.0, 0.0, 0.0, 0.0, 0.0, 0.0, 0.0]
6 [0.03846154, 0.03846154, 0.03846154, 0.03846154, 0.96153843, 0.96153843, 0.0, 0.03846154]
7 [0.96666664, 0.033333335, 0.033333335, 0.033333335, 0.96666664, 0.96666664, 0.0, 0.033333335]
8 [0.0, 0.0, 0.0, 0.0, 0.0, 0.0, 0.0, 0.0]
9 [0.90909094, 0.0, 0.90909094, 0.90909094, 0.90909094, 0.18181819, 0.0, 0.0]
10 [0.0, 0.0, 0.0, 0.0, 0.0, 0.0, 0.0, 0.0]
11 [0.9166667, 0.0, 0.16666667, 0.16666667, 0.9166667, 0.16666667, 0.0, 0.0]
12 [0.18181819, 0.0, 0.18181819, 0.18181819, 0.90909094, 0.90909094, 0.0, 0.0]
13 [0.0, 0.0, 0.0, 0.0, 0.0, 0.0, 0.0, 0.0]
14 [0.95, 0.0, 0.05, 0.05, 0.95, 0.95, 0.0, 0.0]
15 [0.0, 0.0, 0.0, 0.0, 0.0, 0.0, 0.0, 0.0]
16 [0.0, 0.0, 0.0, 0.0, 0.0, 0.0, 0.0, 0.0]
17 [0.0, 0.33333334, 0.9777778, 0.9777778, 0.9777778, 0.0, 0.33333334, 0.0]
18 [0.0, 0.0, 0.0, 0.0, 0.0, 0.0, 0.0, 0.0]
19 [0.4, 0.4, 0.4, 0.4, 0.8, 0.8, 0.8, 0.0]
20 [0.083333336, 0.9166667, 0.083333336, 0.083333336, 0.083333336, 0.9166667, 0.0, 0.0]
21 [0.0, 0.0, 0.0, 0.0, 0.0, 0.0, 0.0, 0.0]
22 [0.21428572, 0.21428572, 0.21428572, 0.21428572, 0.9285714, 0.9285714, 0.21428572, 0.0]
23 [0.0, 0.0, 0.0, 0.0, 0.0, 0.0, 0.0, 0.0]
24 [0.0, 0.0, 0.0, 0.0, 0.0, 0.0, 0.0, 0.0]
25 [0.0, 0.90909094, 0.0, 0.90909094, 0.90909094, 0.36363637, 0.90909094, 0.0]
26 [0.0, 0.0, 0.0, 0.0, 0.0, 0.0, 0.0, 0.0]
27 [0.0, 0.1, 0.0, 0.96666664, 0.1, 0.1, 0.96666664, 0.0]
28 [0.0, 0.85714287, 0.0, 0.85714287, 0.85714287, 0.42857143, 0.85714287, 0.0]
29 [0.0, 0.0, 0.0, 0.0, 0.0, 0.0, 0.0, 0.0]
30 [0.0, 0.9230769, 0.0, 0.9230769, 0.9230769, 0.15384616, 0.9230769, 0.0]
31 [0.0, 0.0, 0.0, 0.0, 0.0, 0.0, 0.0, 0.0]
32 [0.0, 0.0, 0.0, 0.0, 0.0, 0.0, 0.0, 0.0]
33 [0.0, 0.4, 0.0, 0.4, 0.8, 0.8, 0.8, 0.8]
34 [0.0, 0.0, 0.0, 0.0, 0.0, 0.0, 0.0, 0.0]
35 [0.0, 0.33333334, 0.0, 0.33333334, 0.8333333, 0.8333333, 0.8333333, 0.8333333]
36 [0.0, 0.8333333, 0.0, 0.33333334, 0.33333334, 0.8333333, 0.8333333, 0.8333333]
37 [0.0, 0.0, 0.0, 0.0, 0.0, 0.0, 0.0, 0.0]
38 [0.0, 0.9285714, 0.0, 0.071428575, 0.071428575, 0.9285714, 0.9285714, 0.0]
39 [0.0, 0.0, 0.0, 0.0, 0.0, 0.0, 0.0, 0.0]
40 [0.0, 0.05, 0.05, 0.05, 0.05, 0.05, 0.95, 0.05]
41 [0.0, 0.045454547, 0.95454544, 0.045454547, 0.045454547, 0.045454547, 0.95454544, 0.95454544]
42 [0.0, 0.0, 0.03846154, 0.0, 0.03846154, 0.03846154, 0.03846154, 0.96153843]
43 [0.0, 0.0, 0.0, 0.0, 0.0, 0.0, 0.0, 0.0]
44 [0.0, 0.0, 0.0, 0.0, 0.0, 0.0, 0.0, 0.0]
45 [0.0, 0.0, 0.016666668, 0.98333335, 0.016666668, 0.016666668, 0.016666668, 0.98333335]
46 [0.0, 0.0, 0.0, 0.0, 0.0, 0.0, 0.0, 0.0]
47 [0.0, 0.0, 0.0, 0.0, 0.0, 0.0, 0.0, 0.0]
48 [0.96666664, 0.96666664, 0.0, 0.033333335, 0.033333335, 0.033333335, 0.033333335, 0.033333335]
49 [0.875, 0.0, 0.0, 0.0, 0.0, 0.0, 0.0, 0.0]
