0 1.5707964
0 2.3182098E-7
0 2.4088934E-7
0 9.078623E-8
0 -0.0
0 -2.0647656E-7
0 -9.272836E-8
0 -1.5707964
0 -1.5707968
1 1.5707964
1 2.3182098E-7
1 2.4088934E-7
1 9.078623E-8
1 -0.0
1 -2.0647656E-7
1 -9.272836E-8
1 -1.5707964
1 -1.5707968
2 -3.1385598
2 -8.082718E-5
2 -5.9878083E-5
2 -5.267239E-5
2 -5.2640946E-5
2 -5.9982733E-5
2 -8.038568E-5
2 -0.0029848502
2 -1.5658439
3 3.1341507
3 1.2802378E-4
3 9.41972E-5
3 8.2089944E-5
3 8.157403E-5
3 9.198475E-5
3 1.2297893E-4
3 0.00745722
3 -1.5550181
4 3.1326976
4 4.2593206E-4
4 3.095734E-4
4 2.6839905E-4
4 2.651553E-4
4 2.9729298E-4
4 3.9279764E-4
4 0.008902956
4 -1.5371355
5 3.1306076
5 9.867743E-4
5 7.0595427E-4
5 6.063312E-4
5 5.94081E-4
5 6.6034816E-4
5 8.607369E-4
5 0.010987558
5 -1.5136994
6 3.1312034
6 0.002255151
6 0.0015380055
6 0.0012843929
6 0.0012299333
6 0.0013341431
6 0.001679403
6 0.010391355
6 -1.4487488
7 3.1312034
7 0.002255151
7 0.0015380055
7 0.0012843929
7 0.0012299333
7 0.0013341431
7 0.001679403
7 0.010391355
7 -1.4487488
8 3.1313934
8 0.0030141925
8 0.0019983188
8 0.001642785
8 0.0015537825
8 0.0016642743
8 0.002059253
8 0.010200704
8 -1.414273
9 3.1316643
9 0.003606355
9 0.002335102
9 0.0018953518
9 0.0017751332
9 0.0018827446
9 0.0022999598
9 0.009929487
9 -1.3873382
10 3.132023
10 0.0039740438
10 0.0025273354
10 0.0020324301
10 0.0018902294
10 0.0019909744
10 0.002410638
10 0.009570664
10 -1.3682003
11 3.1324406
11 0.0040894854
11 0.0025729695
11 0.0020577246
11 0.0019060031
11 0.001999636
11 0.0024089173
11 0.009153272
11 -1.3571416
12 3.1321368
12 0.004449777
12 0.0027774973
12 0.0022126175
12 0.0020435562
12 0.002137915
12 0.0025663816
12 0.009456848
12 -1.3493118
13 3.1332386
13 0.004071774
13 0.002526646
13 0.0020068334
13 0.0018494059
13 0.0019307862
13 0.0023116255
13 0.008355061
13 -1.3434833
14 3.1340241
14 0.0043117823
14 0.0026034797
14 0.0020408044
14 0.0018629303
14 0.0019272245
14 0.0022815976
14 0.0075694616
14 -1.3180118
15 3.1340241
15 0.0043117823
15 0.0026034797
15 0.0020408044
15 0.0018629303
15 0.0019272245
15 0.0022815976
15 0.0075694616
15 -1.3180118
16 3.1353102
16 0.0040820674
16 0.002400761
16 0.0018591513
16 0.0016824967
16 0.0017266335
16 0.0020240168
16 0.006283305
16 -1.2952425
17 3.137552
17 0.0029851664
17 0.0017037381
17 0.0013015779
17 0.0011670284
17 0.0011873246
17 0.0013778603
17 0.004041459
17 -1.271046
18 3.138268
18 0.0027316303
18 0.0015180478
18 0.001146662
18 0.001020143
18 0.0010306975
18 0.0011862874
18 0.00332543
18 -1.2512435
19 3.1388738
19 0.002379634
19 0.0012990703
19 9.740362E-4
19 8.622126E-4
19 8.672648E-4
19 9.930896E-4
19 0.002719521
19 -1.2387178
20 3.1391864
20 0.00216599
20 0.0011721151
20 8.756923E-4
20 7.734568E-4
20 7.762967E-4
20 8.8686845E-4
20 0.0024070384
20 -1.2328146
21 3.1390672
21 0.0022877085
21 0.0012364547
21 9.236036E-4
21 8.154265E-4
21 8.1819016E-4
21 9.344026E-4
21 0.0025263734
21 -1.232086
22 3.1390672
22 0.0022877085
22 0.0012364547
22 9.236036E-4
22 8.154265E-4
22 8.1819016E-4
22 9.344026E-4
22 0.0025263734
22 -1.232086
23 3.1387966
23 0.002588607
23 0.0013926796
23 0.0010381057
23 9.153855E-4
23 9.1754796E-4
23 0.0010465368
23 0.0027969154
23 -1.2289361
24 3.1392066
24 0.002306848
24 0.0012243579
24 9.076843E-4
24 7.975349E-4
24 7.968249E-4
24 9.057352E-4
24 0.0023864654
24 -1.2200663
25 3.1392066
25 0.002306848
25 0.0012243579
25 9.076843E-4
25 7.975349E-4
25 7.968249E-4
25 9.057352E-4
25 0.0023864654
25 -1.2200663
26 3.1410766
26 4.918628E-4
26 2.5009774E-4
26 1.8247029E-4
26 1.5853909E-4
26 1.569242E-4
26 1.7656074E-4
26 5.166511E-4
26 -1.1944741
27 3.1410766
27 4.918628E-4
27 2.5009774E-4
27 1.8247029E-4
27 1.5853909E-4
27 1.569242E-4
27 1.7656074E-4
27 5.166511E-4
27 -1.1944741
28 -3.1410198
28 -8.378289E-4
28 -4.1481273E-4
28 -2.9957097E-4
28 -2.58921E-4
28 -2.552168E-4
28 -2.853198E-4
28 -5.7217124E-4
28 -1.1788918
29 -3.1410198
29 -8.378289E-4
29 -4.1481273E-4
29 -2.9957097E-4
29 -2.58921E-4
29 -2.552168E-4
29 -2.853198E-4
29 -5.7217124E-4
29 -1.1788918
30 -3.1405132
30 -0.0016183539
30 -7.753124E-4
30 -5.538513E-4
30 -4.754529E-4
30 -4.6577936E-4
30 -5.173525E-4
30 -0.0010790258
30 -1.1623946
31 -3.1405132
31 -0.0016183539
31 -7.753124E-4
31 -5.538513E-4
31 -4.754529E-4
31 -4.6577936E-4
31 -5.173525E-4
31 -0.0010790258
31 -1.1623946
32 -3.140575
32 -0.0016640911
32 -7.7284686E-4
32 -5.463528E-4
32 -4.6606726E-4
32 -4.5411196E-4
32 -5.015531E-4
32 -0.0010174186
32 -1.1475056
33 -3.140575
33 -0.0016640911
33 -7.7284686E-4
33 -5.463528E-4
33 -4.6606726E-4
33 -4.5411196E-4
33 -5.015531E-4
33 -0.0010174186
33 -1.1475056
34 -3.1413085
34 -5.858522E-4
34 -2.654873E-4
34 -1.8636373E-4
34 -1.5829777E-4
34 -1.5384276E-4
34 -1.6902245E-4
34 -2.8364258E-4
34 -1.1365792
35 -3.1413085
35 -5.858522E-4
35 -2.654873E-4
35 -1.8636373E-4
35 -1.5829777E-4
35 -1.5384276E-4
35 -1.6902245E-4
35 -2.8364258E-4
35 -1.1365792
36 3.138801
36 0.004645738
36 0.0020577153
36 0.0014322248
36 0.0012104132
36 0.001170071
36 0.0012824348
36 0.0027921144
36 -1.1265143
37 3.138801
37 0.004645738
37 0.0020577153
37 0.0014322248
37 0.0012104132
37 0.001170071
37 0.0012824348
37 0.0027921144
37 -1.1265143
38 3.1364312
38 0.009194338
38 0.003981757
38 0.0027530175
38 0.0023173024
38 0.0022330924
38 0.0024389098
38 0.0051620207
38 -1.1174036
39 3.1364312
39 0.009194338
39 0.003981757
39 0.0027530175
39 0.0023173024
39 0.0022330924
39 0.0024389098
39 0.0051620207
39 -1.1174036
40 3.1354737
40 0.01146687
40 0.004865981
40 0.0033440234
40 0.0028050023
40 0.0026955819
40 0.0029353146
40 0.0061192396
40 -1.109511
41 3.1354737
41 0.01146687
41 0.004865981
41 0.0033440234
41 0.0028050023
41 0.0026955819
41 0.0029353146
41 0.0061192396
41 -1.109511
42 3.1338518
42 0.015638387
42 0.0064300196
42 0.0043791016
42 0.003654296
42 0.0034971933
42 0.003791812
42 0.007741188
42 -1.0979071
43 3.1338518
43 0.015638387
43 0.0064300196
43 0.0043791016
43 0.003654296
43 0.0034971933
43 0.003791812
43 0.007741188
43 -1.0979071
44 3.1327035
44 0.019789567
44 0.007788154
44 0.005241405
44 0.0043446175
44 0.004135777
44 0.004459514
44 0.008889591
44 -1.0830526
45 3.1327035
45 0.019789567
45 0.007788154
45 0.005241405
45 0.0043446175
45 0.004135777
45 0.004459514
45 0.008889591
45 -1.0830526
46 3.1329026
46 0.021489734
46 0.008039421
46 0.005340646
46 0.004395216
46 0.0041603777
46 0.0044603455
46 0.008690609
46 -1.0674361
47 3.132648
47 0.024656668
47 0.008729885
47 0.005723011
47 0.0046762996
47 0.0044020037
47 0.004693055
47 0.008945017
47 -1.0521343
48 3.13188
48 0.030692628
48 0.01009923
48 0.0065138354
48 0.005276787
48 0.004934754
48 0.005226639
48 0.009712871
48 -1.0340885
49 3.132238
49 0.035372693
49 0.0104919085
49 0.006628345
49 0.0053126616
49 0.0049287104
49 0.005179332
49 0.009355211
49 -1.0123216
