0 [0.0, 0.0, 0.0, 0.0, 0.0, 0.0, 0.0, 0.0]
1 [0.0, 0.0, 0.0, 0.0, 0.0, 0.0, 0.0, 0.0]
2 [0.0, 0.0, 0.0, 0.0, 0.0, 0.0, 0.0, 0.0]
3 [0.17667033, 0.06367032, 0.033329684, 0.033329684, 0.09167033, 0.03232966, 0.03132966, 0.10267033]
4 [0.17640659, 0.11196214, 0.09614897, 0.09414897, 1.033851, 0.033593398, 0.031593397, 1.047851]
5 [0.17640659, 0.056406587, 0.040593415, 0.038593415, 0.089406595, 0.033593398, 0.031593397, 0.10340659]
6 [0.17492858, 0.06956592, 0.06456593, 0.057565935, 1.0804341, 0.08592857, 0.02807143, 0.11142308]
7 [0.17492858, 0.06407142, 0.05907142, 0.05207143, 0.08592857, 0.08592857, 0.02807143, 0.10592858]
8 [0.20853846, 0.109384626, 0.1043846, 0.096384615, 1.0456153, 1.0476153, 0.02692308, 0.13553846]
9 [1.1283535, 0.17902014, 0.114646524, 0.10164651, 1.0209799, 1.0513535, 0.028313193, 0.048646517]
10 [0.16168682, 0.1456868, 0.08131319, 0.06831318, 0.05431319, 0.084686816, 0.028313193, 0.015313182]
11 [1.0677447, 0.14565384, 0.9964371, 0.9824371, 0.9674371, 0.26547205, 0.029346162, 0.014346153]
12 [0.26918218, 0.15938655, 0.08736656, 0.073346145, 0.05834616, 0.08365385, 0.029346162, 0.014346153]
13 [1.6909792, 0.1583293, 0.2598488, 0.24479854, 0.97679853, 0.25157595, 0.031054752, 0.019536555]
14 [0.47277722, 0.15442581, 0.2778248, 0.26678523, 0.97505796, 0.9933416, 0.03370563, 0.023093948]
15 [0.19820695, 0.15237877, 0.095995955, 0.091601856, 0.1040293, 0.09060914, 0.03309778, 0.021048207]
16 [1.272929, 0.14827006, 0.15197098, 0.1495806, 1.4849027, 1.0954257, 0.088051684, 0.016287306]
17 [0.16435902, 0.14643359, 0.10875875, 0.098421946, 0.10859359, 0.08731447, 0.08826213, 0.014772695]
18 [0.16645788, 0.48778656, 1.0873543, 1.120834, 1.4140215, 0.08540538, 0.4300836, 0.01480629]
19 [0.130595, 0.14123999, 0.10939149, 0.096654385, 0.09488819, 0.084477104, 0.08733345, 0.014213052]
20 [0.50246656, 0.53738314, 0.50875825, 0.50782853, 1.0481716, 0.904384, 0.80484074, 0.003763427]
21 [0.20534594, 1.0484266, 0.19629572, 0.18389165, 0.18854454, 0.9928757, 0.079818, 0.004651759]
22 [0.33144242, 0.34990534, 0.32975027, 0.28316075, 0.32455125, 0.8962065, 0.282482, 0.0071323877]
23 [0.12665586, 0.13691415, 0.115519054, 0.089441516, 0.0322673, 0.053674046, 0.083234, 0.008676538]
24 [0.084375285, 0.13387464, 0.11625554, 0.10742866, 0.046498824, 0.05685763, 0.08505346, 0.009308886]
25 [0.0166588, 0.9288305, 0.11773975, 0.9779224, 0.6443576, 0.40535092, 0.9713552, 0.010991275]
26 [0.025117606, 0.12092002, 0.11774703, 0.1139191, 0.06599423, 0.059950605, 0.087916054, 0.011673722]
27 [0.039838213, 0.21540083, 0.11708119, 1.0563661, 0.15456443, 0.15947686, 1.0395057, 0.0123152295]
28 [0.05069148, 0.9341642, 0.11779135, 0.9564877, 0.8093202, 0.48370937, 0.9359264, 0.012056811]
29 [0.05904879, 0.1254352, 0.1177967, 0.11735794, 0.08439442, 0.064185135, 0.08902335, 0.012333629]
30 [0.065734446, 1.0216389, 0.11831166, 1.0296714, 0.9314541, 0.21697256, 1.0066656, 0.08685852]
31 [0.07053337, 0.12824328, 0.11831473, 0.11763667, 0.08948562, 0.06509993, 0.0898709, 0.08795248]
32 [0.07479263, 0.5212344, 0.11935065, 0.52117085, 0.85565126, 0.8628944, 0.89034253, 0.89335716]
33 [0.07712844, 0.12785697, 0.11935224, 0.12401944, 0.09596034, 0.06829904, 0.09009813, 0.09138833]
34 [0.07740381, 0.45606294, 0.11875567, 0.4565751, 0.9375751, 0.90457505, 0.92109156, 0.92609155]
35 [0.07776558, 0.9517566, 0.11876095, 0.45825794, 0.42932057, 0.9049793, 0.92009056, 0.92609704]
36 [0.08176374, 0.12476373, 0.11876374, 0.12623626, 0.105236255, 0.07423626, 0.08676373, 0.09276374]
37 [0.07998971, 1.0469491, 0.12119671, 0.20023078, 0.17723076, 1.0073736, 1.0147692, 0.0951978]
38 [0.08052896, 0.12186204, 0.12119697, 0.1288022, 0.105802186, 0.07880219, 0.08619779, 0.0951978]
39 [0.08150549, 0.1635055, 0.16850549, 0.18249449, 0.1574945, 0.13649452, 1.0004945, 0.1495055]
40 [0.080192305, 0.093646854, 1.0677377, 0.15026224, 0.17826223, 0.14426224, 1.0123532, 1.0567378]
41 [0.081851654, 0.050851647, 0.15031318, 0.10885165, 0.16860989, 0.13960989, 0.10060988, 1.0603901]
42 [0.081851654, 0.050851647, 0.11185165, 0.10885165, 0.13014835, 0.10114835, 0.06214834, 0.09885165]
43 [0.081851654, 0.050851647, 0.11185165, 0.10885165, 0.13014835, 0.10114835, 0.06214834, 0.09885165]
44 [0.11784615, 0.045846157, 0.034512818, 1.0831795, 0.12182052, 0.14782052, 0.10782051, 1.0244871]
45 [0.11784615, 0.045846157, 0.017846148, 0.099846154, 0.10515385, 0.13115385, 0.091153845, 0.04115384]
46 [1.065815, 0.998815, 0.011148351, 0.06718498, 0.0, 0.0, 0.0, 0.0]
47 [0.97414833, 0.032148354, 0.011148351, 0.033851642, 0.08514835, 0.11185164, 0.12485165, 0.07285165]
48 [0.16817887, 0.035177536, 0.011150954, 0.033851642, 0.08514835, 0.11185164, 0.12485165, 0.07285165]
49 [1.6482893, 1.1147394, 0.009282043, 0.030280221, 1.0327197, 0.09028021, 1.0682802, 0.12528023]
