0 [0.0, 0.0, 0.0, 0.0, 0.0, 0.0, 0.0, 0.0]
1 [0.0, 0.0, 0.0, 0.0, 0.0, 0.0, 0.0, 0.0]
2 [0.0, 0.0, 0.0, 0.0, 0.0, 0.0, 0.0, 0.0]
3 [0.0, 0.0, 0.0, 0.0, 0.0, 0.0, 0.0, 0.0]
4 [0.0, 0.0, 0.0, 0.0, 0.0, 0.0, 0.0, 0.0]
5 [0.0, 0.0, 0.0, 0.0, 0.0, 0.0, 0.0, 0.0]
6 [0.0, 0.0, 0.0, 0.0, 0.0, 0.0, 0.0, 0.0]
7 [0.0, 0.0, 0.0, 0.0, 0.0, 0.0, 0.0, 0.0]
8 [0.0, 0.0, 0.0, 0.0, 0.0, 0.0, 0.0, 0.0]
9 [0.0, 0.0, 0.0, 0.0, 0.0, 0.0, 0.0, 0.0]
10 [0.0, 0.0, 0.0, 0.0, 0.0, 0.0, 0.0, 0.0]
11 [0.0, 0.0, 0.0, 0.0, 0.0, 0.0, 0.0, 0.0]
12 [0.0, 0.0, 0.0, 0.0, 0.0, 0.0, 0.0, 0.0]
13 [0.0, 0.0, 0.0, 0.0, 0.0, 0.0, 0.0, 0.0]
14 [0.0, 0.0, 0.0, 0.0, 0.0, 0.0, 0.0, 0.0]
15 [0.0, 0.0, 0.0, 0.0, 0.0, 0.0, 0.0, 0.0]
16 [0.0, 0.0, 0.0, 0.0, 0.0, 0.0, 0.0, 0.0]
17 [0.0, 0.0, 0.0, 0.0, 0.0, 0.0, 0.0, 0.0]
18 [0.0, 0.0, 0.0, 0.0, 0.0, 0.0, 0.0, 0.0]
19 [0.0, 0.0, 0.0, 0.0, 0.0, 0.0, 0.0, 0.0]
20 [0.0, 0.0, 0.0, 0.0, 0.0, 0.0, 0.0, 0.0]
21 [0.0, 0.0, 0.0, 0.0, 0.0, 0.0, 0.0, 0.0]
22 [0.0, 0.0, 0.0, 0.0, 0.0, 0.0, 0.0, 0.0]
23 [0.0, 0.0, 0.0, 0.0, 0.0, 0.0, 0.0, 0.0]
24 [0.0, 0.0, 0.0, 0.0, 0.0, 0.0, 0.0, 0.0]
25 [0.0, 0.0, 0.0, 0.0, 0.0, 0.0, 0.0, 0.0]
26 [0.0, 0.0, 0.0, 0.0, 0.0, 0.0, 0.0, 0.0]
27 [0.0, 0.0, 0.0, 0.0, 0.0, 0.0, 0.0, 0.0]
28 [0.0, 0.0, 0.0, 0.0, 0.0, 0.0, 0.0, 0.0]
29 [0.0, 0.0, 0.0, 0.0, 0.0, 0.0, 0.0, 0.0]
30 [0.9553132, 0.0, 0.0, 0.0, 0.0, 0.0, 0.0, 0.0]
31 [0.925993, 0.0, 0.0, 0.0, 0.0, 0.0, 0.0, 0.0]
32 [0.9145304, 0.0, 0.0, 0.0, 0.0, 0.0, 0.0, 0.0]
33 [0.8890899, 0.0, 0.0, 0.0, 0.0, 0.0, 0.0, 0.0]
34 [0.873396, 0.0, 0.0, 0.0, 0.9902935, 0.0, 0.0, 0.0]
35 [0.8650344, 0.0, 0.0, 0.0, 0.96343887, 0.9742314, 0.0, 0.0]
36 [0.8653436, 0.0, 0.0, 0.0, 0.0, 0.9706914, 0.0, 0.0]
37 [0.86584634, 0.0, 0.0, 0.0, 0.0, 0.9693506, 0.0, 0.0]
38 [0.8688209, 0.0, 0.0, 0.0, 0.96335274, 0.966231, 0.0, 0.0]
39 [0.87187654, 0.0, 0.0, 0.0, 0.9701891, 0.9626972, 0.0, 0.0]
40 [0.87629867, 0.0, 0.0, 0.0, 0.9776748, 0.0, 0.0, 0.0]
41 [0.88230306, 0.0, 0.0, 0.0, 0.98291546, 0.0, 0.0, 0.0]
42 [0.8900785, 0.0, 0.0, 0.0, 0.9857298, 0.0, 0.0, 0.0]
43 [0.8981584, 0.0, 0.0, 0.0, 0.9876612, 0.0, 0.0, 0.0]
44 [0.9049966, 0.0, 0.0, 0.0, 0.99031085, 0.0, 0.0, 0.0]
45 [0.9217922, 0.0, 0.0, 0.0, 0.990403, 0.0, 0.0, 0.0]
46 [0.9217922, 0.0, 0.0, 0.0, 0.990403, 0.0, 0.0, 0.0]
47 [0.9307867, 0.0, 0.0, 0.0, 0.98882747, 0.0, 0.0, 0.0]
48 [0.9367654, 0.0, 0.0, 0.0, 0.98807734, 0.0, 0.0, 0.0]
49 [0.93890524, 0.0, 0.0, 0.0, 0.9884358, 0.0, 0.0, 0.0]
