0.6055269241333 -1.7749983072281
0.60554653406143 -1.7731368541718
0.60558354854584 -1.7674051523209
0.60565167665482 -1.7582021951675
0.6056632399559 -1.7483364343643
0.60568034648895 -1.7386125326157
0.60570859909058 -1.7288545370102
0.60574728250504 -1.7190959453583
0.60578203201294 -1.7093223333359
0.60583454370499 -1.6995973587036
0.60591268539429 -1.6898332834244
0.60600054264069 -1.6801096200943
0.60605275630951 -1.6703689098358
0.60604679584503 -1.6606004238129
0.60622584819794 -1.650887131691
0.60654693841934 -1.6413552761078
0.60677891969681 -1.6321350336075
0.6069004535675 -1.622703909874
0.60701984167099 -1.6132768392563
0.60724401473999 -1.6038039922714
0.60750067234039 -1.5943936109543
0.60768574476242 -1.5851234197617
0.60777634382248 -1.5760803222656
0.60773354768753 -1.5671272277832
0.60760939121246 -1.558288693428
0.60744965076447 -1.5495502948761
0.60731422901154 -1.5408812761307
0.60720074176788 -1.5323061943054
0.60710251331329 -1.5238081216812
0.60704576969147 -1.5153968334198
0.60700267553329 -1.5070354938507
0.60697847604752 -1.4987477064133
0.60700041055679 -1.4905428886414
0.60705482959747 -1.4823734760284
0.60715329647064 -1.4742567539215
0.60727047920227 -1.4662203788757
0.60743719339371 -1.458154797554
0.607641518116 -1.4500838518143
0.60790294408798 -1.4419530630112
0.60819524526596 -1.433809876442
0.60856664180756 -1.4256327152252
0.60897666215897 -1.4174087047577
0.60943287611008 -1.4091608524323
0.60992753505707 -1.4008982181549
0.61048144102097 -1.3925877809525
0.61107665300369 -1.384230017662
0.61172199249268 -1.3758344650269
0.61242789030075 -1.3674211502075
0.61305010318756 -1.3600251674652
0.61342459917068 -1.3535305261612
0.61368888616562 -1.347199678421
0.6139965057373 -1.3407883644104
0.61466348171234 -1.333704829216
0.61544525623322 -1.3262947797775
0.61631262302399 -1.3189359903336
0.61726641654968 -1.3115594387054
0.61829525232315 -1.3041962385178
0.61940377950668 -1.2968187332153
0.62059527635574 -1.2894163131714
0.62186580896378 -1.2820146083832
0.62321650981903 -1.274601817131
0.62465238571167 -1.2671625614166
0.62618184089661 -1.2596899271011
0.62779307365417 -1.2522023916245
0.62948626279831 -1.2446745634079
0.63126742839813 -1.2371417284012
0.63314777612686 -1.2295429706573
0.63510900735855 -1.2219421863556
0.63715225458145 -1.2142975330353
0.63928586244583 -1.206622838974
0.64150470495224 -1.1989144086838
0.64380949735641 -1.1911728382111
0.64619880914688 -1.1833896636963
0.64866459369659 -1.1755920648575
0.65121686458588 -1.1677463054657
0.65385240316391 -1.1598601341248
0.6565774679184 -1.1519337892532
0.65937906503677 -1.1439687013626
0.66226154565811 -1.1359598636627
0.66521894931793 -1.1279244422913
0.66854459047318 -1.1191304922104
0.67214691638947 -1.1100598573685
0.67583441734314 -1.101037979126
0.67952841520309 -1.091995716095
0.68321406841278 -1.0829867124557
0.68688851594925 -1.0739676952362
0.6905522942543 -1.0649387836456
0.6942183971405 -1.0559128522873
0.69788563251495 -1.0468645095825
0.701540350914 -1.0378414392471
0.70520102977753 -1.0287984609604
0.70885646343231 -1.0197746753693
0.71251583099365 -1.0107343196869
0.71617805957794 -1.0016896724701
0.71983647346497 -0.99264919757843
0.72349244356155 -0.98361474275589
0.72714763879776 -0.97458219528198
0.73080217838287 -0.96554404497147
0.7344605922699 -0.95650637149811
0.73811495304108 -0.94747149944305
0.74177002906799 -0.93843793869019
0.74542582035065 -0.92940157651901
0.74906980991364 -0.9203799366951
0.75272995233536 -0.91133338212967
0.75638765096664 -0.90229910612106
0.76004666090012 -0.89326554536819
0.76370859146118 -0.88421452045441
0.76735806465149 -0.87519037723541
0.77101916074753 -0.86614453792572
0.77467316389084 -0.85711276531219
0.77832394838333 -0.84807479381561
0.78198343515396 -0.83904182910919
0.78564447164536 -0.82999658584595
0.78930407762527 -0.82096254825592
0.79296833276749 -0.81191790103912
0.79662096500397 -0.80288708209991
0.80026131868362 -0.79385668039322
0.80391043424606 -0.78482890129089
0.80757367610931 -0.77577954530716
0.81121569871902 -0.76675301790237
0.81488263607025 -0.75769859552383
0.81853646039963 -0.74865227937698
0.8221994638443 -0.73962992429733
0.82585370540619 -0.73059976100922
0.8295202255249 -0.72155314683914
0.8331845998764 -0.71251630783081
0.8368484377861 -0.70347881317139
0.84050858020782 -0.69443875551224
0.84416401386261 -0.68540382385254
0.84779298305511 -0.67641246318817
0.85137176513672 -0.66755139827728
0.85490882396698 -0.65881788730621
0.85839682817459 -0.65021234750748
0.86183327436447 -0.64171093702316
0.86523044109344 -0.63334047794342
0.8685809969902 -0.62508773803711
0.87187528610229 -0.61696696281433
0.87511491775513 -0.60897374153137
0.87827128171921 -0.6012157201767
0.88132774829865 -0.59369379281998
0.88429671525955 -0.58641731739044
0.8871693611145 -0.57934749126434
0.88994681835175 -0.57255411148071
0.89262801408768 -0.56599634885788
0.89525443315506 -0.55961865186691
0.89776277542114 -0.55350029468536
0.90020382404327 -0.54753410816193
0.90255892276764 -0.54181057214737
0.9048148393631 -0.53626662492752
0.90697515010834 -0.5309265255928
0.90907394886017 -0.52574098110199
0.91108095645905 -0.52074027061462
0.91300106048584 -0.51593524217606
0.91486060619354 -0.51127564907074
0.91662967205048 -0.5068199634552
0.91834717988968 -0.5024533867836
0.91998255252838 -0.49828749895096
0.92155200242996 -0.49426692724228
0.92305260896683 -0.4903756082058
0.92508536577225 -0.48505848646164
0.9271297454834 -0.47908276319504
0.92900907993317 -0.47337579727173
0.93080216646194 -0.4677517414093
0.93251734972 -0.46234554052353
0.9341738820076 -0.45706087350845
0.93556946516037 -0.45279884338379
0.93687611818314 -0.44911354780197
0.93823301792145 -0.44554170966148
0.93955671787262 -0.44212040305138
0.94081342220306 -0.43882831931114
0.94201248884201 -0.43565163016319
0.94316703081131 -0.43253964185715
0.94426250457764 -0.43017190694809
0.94532120227814 -0.42833718657494
0.94637411832809 -0.42667451500893
0.94755566120148 -0.42400878667831
0.94863975048065 -0.42126971483231
0.94966858625412 -0.41867882013321
0.95062863826752 -0.41623467206955
0.95160990953445 -0.41384452581406
0.95261543989182 -0.4103576540947
0.95326745510101 -0.40627184510231
0.95380574464798 -0.40228456258774
0.95435583591461 -0.39844086766243
0.95484411716461 -0.39456409215927
0.95519715547562 -0.3908528983593
0.95557463169098 -0.38717001676559
0.95595961809158 -0.38346710801125
0.95621526241302 -0.37991920113564
0.95640456676483 -0.37646144628525
0.95656186342239 -0.37294265627861
0.95643055438995 -0.36817374825478
0.955970287323 -0.36281594634056
0.95551955699921 -0.35808402299881
0.95528918504715 -0.35391503572464
0.95512074232101 -0.34994977712631
0.95495253801346 -0.34593945741653
0.95460397005081 -0.34174644947052
0.95407629013062 -0.33734160661697
0.95313626527786 -0.33222708106041
0.95195829868317 -0.32689207792282
0.95096576213837 -0.32238218188286
0.95033043622971 -0.31861224770546
0.95007246732712 -0.31546038389206
0.94948482513428 -0.3112578690052
0.94816130399704 -0.30645281076431
0.94638425111771 -0.30123019218445
0.94449442625046 -0.29614812135696
0.94248163700104 -0.29101663827896
0.94019538164139 -0.2857740521431
0.93774509429932 -0.28045791387558
0.93511468172073 -0.27515137195587
0.93228566646576 -0.26984018087387
0.92935866117477 -0.26456889510155
0.92622977495193 -0.25924634933472
0.92294037342072 -0.25390565395355
0.91942721605301 -0.24847018718719
0.91571867465973 -0.24299243092537
0.91182070970535 -0.23756711184978
0.9077542424202 -0.23217082023621
0.90342271327972 -0.22670920193195
0.89891463518143 -0.221141025424
0.89422923326492 -0.21558865904808
0.88879573345184 -0.20943923294544
0.88249522447586 -0.20286336541176
0.87557470798492 -0.19606393575668
0.8685467839241 -0.18927405774593
