0 [0.0, 0.0, 0.0, 0.0, 0.0, 0.0, 0.0, 0.0]
1 [0.0, 0.0, 0.0, 0.0, 0.0, 0.0, 0.0, 0.0]
2 [0.0, 0.0, 0.0, 0.0, 0.0, 0.0, 0.0, 0.0]
3 [0.0, 0.0, 0.0, 0.0, 0.0, 0.0, 0.0, 0.0]
4 [0.0, 0.0, 0.0, 0.0, 0.0, 0.0, 0.0, 0.0]
5 [0.0, 0.0, 0.0, 0.0, 0.0, 0.0, 0.0, 0.0]
6 [0.0, 0.0, 0.0, 0.0, 0.0, 0.0, 0.0, 0.0]
7 [0.0, 0.0, 0.0, 0.0, 0.0, 0.0, 0.0, 0.0]
8 [0.0, 0.0, 0.0, 0.0, 0.0, 0.0, 0.0, 0.0]
9 [0.0, 0.0, 0.0, 0.0, 0.0, 0.0, 0.0, 0.0]
10 [0.0, 0.0, 0.0, 0.0, 0.0, 0.0, 0.0, 0.0]
11 [0.0, 0.0, 0.0, 0.0, 0.0, 0.0, 0.0, 0.0]
12 [0.0, 0.0, 0.0, 0.0, 0.0, 0.0, 0.0, 0.0]
13 [0.0, 0.0, 0.0, 0.0, 0.0, 0.0, 0.0, 0.0]
14 [0.0, 0.0, 0.0, 0.0, 0.0, 0.0, 0.0, 0.0]
15 [0.0, 0.0, 0.0, 0.0, 0.0, 0.0, 0.0, 0.0]
16 [0.0, 0.0, 0.0, 0.0, 0.0, 0.0, 0.0, 0.0]
17 [0.96221465, 0.0, 0.0, 0.0, 0.0, 0.0, 0.0, 0.0]
18 [0.89659256, 0.0, 0.0, 0.0, 1.0001533, 0.0, 0.0, 0.0]
19 [0.84680504, 0.0, 0.0, 0.0, 0.98017347, 0.9685107, 0.0, 0.0]
20 [0.84183127, 0.0, 0.0, 0.0, 0.0, 0.9896253, 0.0, 0.0]
21 [0.83333194, 0.88251954, 0.0, 0.0, 0.0, 0.0, 0.9798253, 0.0]
22 [0.80647284, 0.8062191, 0.9297522, 0.0, 0.0, 0.0, 0.9812742, 0.0]
23 [0.8553595, 0.8099261, 0.82775617, 0.0, 0.0, 0.0, 0.0, 0.0]
24 [0.9622193, 0.8148863, 0.79887366, 0.8802601, 0.0, 0.0, 0.0, 0.0]
25 [0.0, 0.803863, 0.8199575, 0.8272446, 0.0, 0.0, 0.0, 0.0]
26 [0.0, 0.82801646, 0.82476324, 0.8106756, 0.8997183, 0.0, 0.0, 0.0]
27 [0.0, 0.8621236, 0.8142552, 0.8197905, 0.8525178, 0.0, 0.0, 0.0]
28 [0.0, 0.8982499, 0.80518633, 0.8219051, 0.8223654, 0.9645545, 0.0, 0.0]
29 [0.0, 0.92542446, 0.8064166, 0.8163521, 0.8052212, 0.9180425, 0.0, 0.0]
30 [0.0, 0.94084203, 0.80205196, 0.8023772, 0.7873695, 0.8795831, 0.0, 0.0]
31 [0.0, 0.93848234, 0.7890137, 0.7818254, 0.7665794, 0.84649825, 0.0, 0.0]
32 [0.0, 0.9083701, 0.7667837, 0.76229197, 0.7477066, 0.830152, 0.0, 0.0]
33 [0.0, 0.855465, 0.73809326, 0.74394137, 0.73290676, 0.83247507, 0.0, 0.0]
34 [0.0, 0.7912585, 0.7100781, 0.72470593, 0.7290993, 0.8634866, 0.0, 0.0]
35 [0.0, 0.73046744, 0.70195085, 0.6992191, 0.7456039, 0.9396525, 0.0, 0.0]
36 [0.0, 0.68837327, 0.6931557, 0.68615854, 0.7829978, 0.0, 0.0, 0.0]
37 [0.8794142, 0.6702221, 0.6759453, 0.70414984, 0.86567605, 0.0, 0.0, 0.0]
38 [0.754467, 0.6729057, 0.66508293, 0.76646125, 0.0, 0.0, 0.0, 0.0]
39 [0.6804501, 0.6545839, 0.70883167, 0.9112419, 0.0, 0.0, 0.0, 0.0]
40 [0.65731215, 0.6693333, 0.8018478, 0.0, 0.0, 0.0, 0.0, 0.0]
41 [0.6778863, 0.71726316, 0.93800294, 0.0, 0.0, 0.0, 0.0, 0.0]
42 [0.68744725, 0.7839636, 0.0, 0.0, 0.0, 0.0, 0.0, 0.0]
43 [0.68868977, 0.86084306, 0.0, 0.0, 0.0, 0.0, 0.0, 0.0]
44 [0.6886062, 0.9435383, 0.0, 0.0, 0.0, 0.0, 0.0, 0.0]
45 [0.7072146, 0.0, 0.0, 0.0, 0.0, 0.98817974, 0.0, 0.0]
46 [0.7282388, 0.0, 0.0, 0.0, 0.0, 0.9614077, 0.0, 0.0]
47 [0.74590003, 0.0, 0.9657529, 0.9488769, 0.9703459, 0.9259908, 0.0, 0.0]
48 [0.74758047, 0.0, 0.95233643, 0.94005275, 0.0, 0.9156037, 0.0, 0.0]
49 [0.74596775, 0.0, 0.9206567, 0.9241336, 0.0, 0.89336854, 0.0, 0.0]
