0.8999998 -0.7499997
0.8999998 -0.7499997
0.8999998 -0.7499997
0.8999998 -0.7499997
0.8999998 -0.7499997
0.8999998 -0.7499997
0.8999998 -0.7499997
0.90054256 -0.7495224
0.90054256 -0.7495224
0.9009142 -0.74763054
0.90135115 -0.74616367
0.9011675 -0.7421277
0.89985645 -0.7397806
0.88970697 -0.7376881
0.8805351 -0.7390319
0.8635937 -0.7431777
0.85436183 -0.7470734
0.8318652 -0.75951195
0.8198268 -0.7677604
0.8071765 -0.7773646
0.7814075 -0.7986506
0.7718946 -0.8068932
0.7535743 -0.8225316
0.74413526 -0.83068216
0.7325078 -0.8403801
0.72547686 -0.84640443
0.7040839 -0.86587346
0.6921402 -0.8777875
0.67984575 -0.8907081
0.65408957 -0.91916484
0.64084613 -0.9338571
0.61404717 -0.96344805
0.60077393 -0.9780947
0.5747987 -1.0067834
0.56203884 -1.0208504
0.5363173 -1.0492039
0.523159 -1.063735
0.5098096 -1.0784533
0.48301178 -1.1079962
0.4702665 -1.1220939
0.44993442 -1.1448966
0.43864974 -1.1570383
0.41261688 -1.1850115
0.39972174 -1.1990653
0.38846987 -1.2116554
0.3639024 -1.238735
0.3430202 -1.2605321
0.33497232 -1.2687625
0.32488757 -1.2787997
0.29928157 -1.3051553
0.28597578 -1.3193467
0.25879556 -1.3482698
0.24511962 -1.3628107
0.21819107 -1.3914225
0.20503092 -1.405399
0.17895223 -1.4331014
0.16574302 -1.4470743
0.13871433 -1.4758062
0.12641716 -1.4888823
0.11681332 -1.498956
0.09811337 -1.5186687
0.08560991 -1.5316603
0.06003393 -1.5596573
0.0473253 -1.5739173
0.021202419 -1.6031282
0.007905371 -1.6180336
-0.018586833 -1.6476616
-0.031607054 -1.6622145
-0.04442315 -1.6765382
-0.06847763 -1.7033571
-0.077465914 -1.7133195
-0.09477932 -1.7320831
-0.105381295 -1.7436154
-0.12354064 -1.7642416
-0.13515893 -1.7775917
-0.16091523 -1.8070507
-0.1735147 -1.8214302
-0.198588 -1.8500729
-0.21136065 -1.8646209
-0.22293982 -1.8778765
-0.24172309 -1.8989576
-0.25350353 -1.9125255
-0.25350353 -1.9125255
