-0.10000025 0.07500021
-0.10000025 0.07500021
-0.10000025 0.07500021
-0.10000025 0.07500021
-0.10000025 0.07500021
-0.10000025 0.07500021
-0.09992863 0.07516552
-0.1000127 0.07491121
-0.1000127 0.07491121
-0.10003195 0.075391464
-0.1000028 0.07603063
-0.10030694 0.07644667
-0.10259285 0.076530024
-0.108229436 0.076214194
-0.124829695 0.0749525
-0.124829695 0.0749525
-0.142303 0.07347726
-0.142303 0.07347726
-0.142303 0.07347726
-0.16737655 0.07165613
-0.1836823 0.07052798
-0.20044093 0.06952937
-0.21703401 0.0688266
-0.21703401 0.0688266
-0.23340416 0.0686609
-0.26579085 0.06890591
-0.26579085 0.06890591
-0.28230914 0.0700027
-0.2986653 0.071892165
-0.3124889 0.07348852
-0.32485175 0.07540525
-0.3374479 0.077464625
-0.3522128 0.07989214
-0.36961755 0.082940325
-0.36961755 0.082940325
-0.3855769 0.086017914
-0.3979988 0.08850597
-0.41201615 0.09125438
-0.41201615 0.09125438
-0.42656097 0.09426442
-0.43918458 0.0970207
-0.474155 0.10524424
-0.49289337 0.10999795
-0.5278869 0.118907474
-0.54076654 0.12218374
-0.57097405 0.12981176
-0.5902442 0.13467537
-0.60962236 0.13957544
-0.63989675 0.14698008
-0.65167665 0.15010217
-0.68291086 0.15840763
-0.70118093 0.16295125
-0.7201271 0.16792217
-0.7201271 0.16792217
