0 [1.0, 1.0, 1.0, 1.0, 1.0, 1.0, 1.0, 1.0]
1 [1.0, 1.0, 1.0, 1.0, 1.0, 1.0, 1.0, 1.0]
2 [1.0, 1.0, 1.0, 1.0, 1.0, 1.0, 1.0, 1.0]
3 [1.0, 1.0, 1.0, 1.0, 1.0, 1.0, 1.0, 1.0]
4 [1.0, 1.0, 1.0, 1.0, 1.0, 1.0, 1.0, 1.0]
5 [1.0, 1.0, 1.0, 1.0, 1.0, 1.0, 1.0, 1.0]
6 [1.0, 1.0, 1.0, 1.0, 1.0, 1.0, 1.0, 1.0]
7 [1.0, 1.0, 1.0, 1.0, 1.0, 1.0, 1.0, 1.0]
8 [1.0, 1.0, 1.0, 1.0, 1.0, 1.0, 1.0, 1.0]
9 [1.0, 1.0, 1.0, 1.0, 1.0, 1.0, 1.0, 1.0]
10 [1.0, 1.0, 1.0, 1.0, 1.0, 1.0, 1.0, 1.0]
11 [1.0, 1.0, 1.0, 1.0, 1.0, 1.0, 1.0, 1.0]
12 [1.0, 1.0, 1.0, 1.0, 1.0, 1.0, 1.0, 1.0]
13 [1.0, 1.0, 1.0, 1.0, 1.0, 1.0, 1.0, 1.0]
14 [1.0, 1.0, 1.0, 1.0, 1.0, 1.0, 1.0, 1.0]
15 [1.0, 1.0, 1.0, 1.0, 1.0, 1.0, 1.0, 1.0]
16 [1.3883795, 1.0525614, 1.0001303, 1.0, 1.0, 1.0, 1.0, 1.0]
17 [1.678397, 1.0918111, 1.0002276, 1.0, 1.0, 1.0, 1.0, 1.0]
18 [1.535915, 1.0725282, 1.0001798, 1.0, 1.0, 1.0001303, 1.0525614, 1.3883795]
19 [1.4064462, 1.0550065, 1.0001364, 1.0, 1.0, 1.0002277, 1.0918621, 1.6787738]
20 [1.3069642, 1.0415431, 1.000103, 1.0, 1.0, 1.0001798, 1.0725282, 1.535915]
21 [1.2320037, 1.0313983, 1.0002066, 1.0519351, 1.3837516, 1.0520715, 1.0551353, 1.4064462]
22 [1.1751697, 1.0237067, 1.0002865, 1.0918621, 1.6787738, 1.0919651, 1.0417708, 1.3069642]
23 [0.8242786, 0.9762187, 1.000121, 1.0725983, 1.5364327, 1.0726762, 1.0315783, 1.2320037]
24 [0.30946314, 0.906546, 0.9999049, 1.0550613, 1.4068518, 1.0551202, 1.0238669, 1.175345]
25 [0.49151683, 0.9311843, 0.9999235, 1.037968, 1.2805479, 1.0377767, 0.9229371, 0.4298826]
26 [0.61525905, 0.947931, 0.999942, 1.0286672, 1.2118237, 1.0285715, 0.96145034, 0.7146295]
27 [0.70916957, 0.9606404, 0.99995613, 1.0216663, 1.1600931, 1.0217239, 1.0233003, 1.1717706]
28 [0.7801921, 0.9702522, 0.99973583, 0.92316145, 0.43223554, 0.9232129, 1.0205675, 1.1533822]
29 [0.8340386, 0.97753954, 0.99972445, 0.9113033, 0.34461492, 0.9113426, 1.0156468, 1.1172403]
30 [0.88650537, 0.9846402, 0.9998072, 0.9375852, 0.53881335, 0.9376121, 1.010707, 1.0802583]
31 [0.9142226, 0.9883913, 0.9998542, 0.95278656, 0.65113723, 0.9528069, 1.0080924, 1.0606598]
32 [0.9351708, 0.9912263, 0.9998898, 0.96431434, 0.7363166, 0.9643297, 1.0061162, 1.0458459]
33 [0.9510522, 0.99337566, 0.9999168, 0.97305614, 0.8009105, 0.97283304, 0.9099358, 0.33500433]
34 [0.963006, 0.9949934, 0.9999371, 0.97963625, 0.8495313, 0.9793953, 0.9027395, 0.2817102]
35 [0.97204053, 0.9962161, 0.9999525, 0.9846094, 0.88627815, 0.9844229, 0.924717, 0.44401175]
36 [0.9788898, 0.99714303, 0.9999641, 0.98837966, 0.9141368, 0.9882386, 0.9430513, 0.5794157]
37 [1.0, 1.0, 0.99997824, 0.99121755, 0.935106, 0.9911203, 0.9607365, 0.7100406]
38 [1.0, 1.0, 0.99998355, 0.99336237, 0.95095414, 0.9932818, 0.96746504, 0.75971925]
39 [1.0, 1.0, 1.0, 1.0, 1.0, 0.9999445, 0.97760683, 0.8345357]
40 [1.0, 1.0, 0.9999906, 0.9962123, 0.9720126, 0.99617034, 0.9830662, 0.8749448]
41 [1.0, 1.0, 0.9999929, 0.99714017, 0.9788687, 0.9971085, 0.9872145, 0.9055798]
42 [1.0, 1.0, 1.0, 1.0, 1.0, 1.0, 1.0, 1.0]
43 [1.0, 1.0, 1.0, 1.0, 1.0, 0.9999819, 0.9927009, 0.9460663]
44 [1.0, 1.0, 1.0, 1.0, 1.0, 0.99998635, 0.99448895, 0.9592785]
45 [1.0, 1.0, 1.0, 1.0, 1.0, 0.99999046, 0.9961589, 0.971618]
46 [1.0, 1.0, 1.0, 1.0, 1.0, 0.9999928, 0.9970999, 0.97857076]
47 [1.0, 1.0, 1.0, 1.0, 1.0, 1.0, 1.0, 1.0]
48 [1.0, 1.0, 1.0, 1.0, 1.0, 1.0, 1.0, 1.0]
49 [1.0, 1.0, 1.0, 1.0, 1.0, 1.0, 1.0, 1.0]
