0 [0.0, 0.0, 0.0, 0.0, 0.0, 0.0, 0.0, 0.0]
1 [0.0, 0.0, 0.0, 0.0, 0.0, 0.0, 0.0, 0.0]
2 [0.0, 0.0, 0.0, 0.0, 0.0, 0.0, 0.0, 0.0]
3 [0.0, 0.0, 0.0, 0.0, 0.0, 0.0, 0.0, 0.0]
4 [0.0, 0.0, 0.0, 0.0, 0.0, 0.0, 0.0, 0.0]
5 [0.0, 0.0, 0.0, 0.0, 0.0, 0.0, 0.0, 0.0]
6 [0.0, 0.0, 0.0, 0.0, 0.0, 0.0, 0.0, 0.0]
7 [0.0, 0.0, 0.0, 0.0, 0.0, 0.0, 0.0, 0.0]
8 [0.0, 0.0, 0.0, 0.0, 0.0, 0.0, 0.0, 0.0]
9 [0.0, 0.0, 0.0, 0.0, 0.0, 0.0, 0.0, 0.0]
10 [0.0, 0.05, 0.05, 0.05, 0.95, 0.0, 0.0, 0.95]
11 [0.0, 0.0, 0.0, 0.0, 0.0, 0.0, 0.0, 0.0]
12 [0.0, 0.0, 0.0, 0.0, 0.0, 0.0, 0.0, 0.0]
13 [0.0054945056, 0.0054945056, 0.0054945056, 0.0054945056, 0.99450547, 0.0, 0.0, 0.0054945056]
14 [0.0, 0.0, 0.0, 0.0, 0.0, 0.0, 0.0, 0.0]
15 [0.5, 0.5, 0.5, 0.5, 0.5, 0.5, 0.0, 0.0]
16 [0.5, 0.5, 0.5, 0.5, 0.5, 0.5, 0.0, 0.0]
17 [0.0, 0.0, 0.0, 0.0, 0.0, 0.0, 0.0, 0.0]
18 [0.0, 0.5, 0.5, 0.5, 0.5, 0.5, 0.5, 0.0]
19 [0.0, 0.0, 0.0, 0.0, 0.0, 0.0, 0.0, 0.0]
20 [0.0, 0.0, 0.027777778, 0.9722222, 0.9722222, 0.027777778, 0.027777778, 0.9722222]
21 [0.0, 0.0, 0.0054945056, 0.99450547, 0.0054945056, 0.0054945056, 0.0054945056, 0.0054945056]
22 [0.875, 0.0, 0.0, 0.0, 0.0, 0.0, 0.0, 0.0]
23 [0.9777778, 0.0, 0.0, 0.022222223, 0.9777778, 0.022222223, 0.022222223, 0.022222223]
24 [0.875, 0.0, 0.0, 0.0, 0.0, 0.0, 0.0, 0.0]
25 [0.875, 0.0, 0.0, 0.0, 0.0, 0.0, 0.0, 0.0]
26 [0.010989011, 0.0, 0.0, 0.0, 0.99450547, 0.0, 0.010989011, 0.010989011]
27 [0.0, 0.0, 0.0, 0.0, 0.0, 0.0, 0.0, 0.0]
28 [0.875, 0.98333335, 0.0, 0.0, 0.0, 0.0, 0.98333335, 0.0]
29 [0.0, 0.0, 0.0, 0.0, 0.0, 0.0, 0.0, 0.0]
30 [0.0, 0.21428572, 0.0, 0.9285714, 0.9285714, 0.9285714, 0.9285714, 0.0]
31 [0.875, 0.90909094, 0.90909094, 0.0, 0.0, 0.0, 0.0, 0.0]
32 [0.875, 0.0, 0.0, 0.0, 0.875, 0.0, 0.0, 0.0]
33 [0.0, 0.94736844, 0.0, 0.0, 0.94736844, 0.0, 0.94736844, 0.0]
34 [0.0, 0.0, 0.0, 0.75, 0.75, 0.0, 0.0, 0.0]
35 [0.875, 0.875, 0.0, 0.0, 0.0, 0.875, 0.0, 0.0]
36 [0.0, 0.0, 0.0, 0.875, 0.875, 0.0, 0.0, 0.0]
37 [0.0, 0.0, 0.0, 0.875, 0.875, 0.0, 0.0, 0.0]
38 [0.9285714, 0.0, 0.0, 0.0, 0.0, 0.0, 0.0, 0.0]
39 [0.0, 0.0, 0.0, 0.875, 0.0, 0.0, 0.0, 0.0]
40 [0.90909094, 0.0, 0.0, 0.90909094, 0.0, 0.0, 0.0, 0.90909094]
41 [0.75, 0.75, 0.75, 0.75, 0.75, 0.75, 0.0, 0.0]
42 [0.0, 0.0, 0.75, 0.75, 0.0, 0.0, 0.0, 0.0]
43 [0.6, 0.8, 0.6, 0.8, 0.8, 0.0, 0.0, 0.0]
44 [0.0, 0.0, 0.0, 0.0, 0.0, 0.0, 0.0, 0.0]
45 [0.0, 0.0, 0.75, 0.75, 0.0, 0.0, 0.0, 0.0]
46 [0.027777778, 0.027777778, 0.027777778, 0.027777778, 0.027777778, 0.0, 0.0, 0.9722222]
47 [0.375, 0.0, 0.875, 0.375, 0.0, 0.0, 0.0, 0.0]
48 [0.875, 0.0, 0.875, 0.0, 0.0, 0.0, 0.0, 0.0]
49 [0.071428575, 0.9285714, 0.071428575, 0.071428575, 0.0, 0.0, 0.9285714, 0.9285714]
