0 [0.0, 0.0, 0.0, 0.0, 0.0, 0.0, 0.0, 0.0]
1 [0.0, 0.0, 0.0, 0.0, 0.0, 0.0, 0.0, 0.0]
2 [0.0, 0.0, 0.0, 0.0, 0.0, 0.0, 0.0, 0.0]
3 [0.0, 0.0, 0.0, 0.0, 0.0, 0.0, 0.0, 0.0]
4 [0.0, 0.0, 0.0, 0.0, 0.0, 0.0, 0.0, 0.0]
5 [0.0, 0.0, 0.0, 0.0, 0.0, 0.0, 0.0, 0.0]
6 [0.0, 0.0, 0.0, 0.0, 0.0, 0.0, 0.0, 0.0]
7 [0.0, 0.0, 0.0, 0.0, 0.0, 0.0, 0.0, 0.0]
8 [0.0, 0.0, 0.0, 0.0, 0.0, 0.0, 0.0, 0.0]
9 [0.17667033, 0.06367032, 0.033329684, 0.033329684, 0.09167033, 0.03232966, 0.03132966, 0.10267033]
10 [0.17667033, 0.06367032, 0.033329684, 0.033329684, 0.09167033, 0.03232966, 0.03132966, 0.10267033]
11 [0.17641759, 0.10641758, 0.09058243, 0.08858243, 1.0394176, 0.033582408, 0.03158241, 1.0534176]
12 [0.17786813, 0.057131864, 0.05213187, 0.04613187, 0.08686813, 0.03513186, 0.030131863, 0.107868135]
13 [0.17786813, 0.057131864, 0.05213187, 0.04613187, 0.08686813, 0.03513186, 0.030131863, 0.107868135]
14 [0.17521429, 0.07977473, 0.07177471, 0.06477472, 1.0782253, 0.08571978, 0.027280224, 0.021774717]
15 [0.16971979, 0.074280225, 0.06628021, 0.059280217, 0.083719775, 0.08571978, 0.027280224, 0.016280212]
16 [0.65206593, 0.6490659, 0.59793407, 0.58393407, 0.5649341, 0.5840659, 0.029934075, 0.012934068]
17 [0.12689178, 0.13935451, 0.12141143, 0.120604396, 0.091604404, 0.062604405, 0.08739561, 0.014395615]
18 [0.12016347, 0.5826448, 0.6066285, 0.60554945, 0.64045054, 0.60845053, 0.5634506, 0.100549445]
19 [0.14526434, 0.05846589, 0.1065737, 0.105549455, 0.14045055, 0.108450554, 0.06345055, 0.100549445]
20 [0.1318102, 0.058794584, 0.121618316, 1.0760409, 1.1104035, 0.13397656, 0.10416052, 1.4883996]
21 [0.17237467, 0.052286584, 0.0260585, 1.0880659, 0.11693405, 0.14496706, 0.11020609, 0.08382802]
22 [1.3037758, 0.051619336, 0.02056256, 0.09356044, 0.11143955, 0.13946462, 0.102361634, 0.0682554]
23 [1.3434021, 0.046044566, 0.019646911, 0.10505158, 1.4742775, 0.16473268, 0.12511726, 0.111924104]
24 [1.160648, 0.045701187, 0.01964848, 0.08477529, 0.14713255, 0.1467133, 0.100382045, 0.07496373]
25 [0.8032957, 0.09131936, 0.016545963, 0.036957502, 0.12835968, 0.130283, 0.13457564, 0.08926611]
26 [0.029004518, 0.08224663, 0.014723875, 0.032996744, 0.11497534, 0.1121326, 0.13031237, 0.09552583]
27 [0.47668222, 0.9983711, 0.01381762, 0.032365207, 0.10477274, 0.1101925, 1.0249351, 0.035758197]
28 [0.058338054, 0.084193975, 0.013817876, 0.032075197, 0.09914982, 0.10921507, 0.12227853, 0.05944382]
29 [0.07045327, 0.2926417, 0.014345518, 0.98205143, 1.1750786, 1.0658882, 1.0828823, 0.09333603]
30 [0.7677519, 0.91994065, 0.9249015, 0.06744151, 0.038060475, 0.124583006, 0.09485671, 0.07836662]
31 [0.87236995, 0.038455065, 0.016051844, 0.06849524, 0.5189069, 0.12652612, 0.09394023, 0.07339822]
32 [0.10403774, 0.97846216, 0.020353215, 0.08846786, 0.5623733, 0.12530516, 1.053168, 0.059028387]
33 [0.10729055, 0.04581899, 0.020354172, 0.8044921, 0.55109465, 0.12733583, 0.09540875, 0.05795747]
34 [0.88659847, 0.91496176, 0.021058116, 0.09648973, 0.077268735, 0.97295034, 0.09753245, 0.05118323]
35 [0.069484286, 0.04774207, 0.021058684, 0.9487886, 0.78484386, 0.13030083, 0.08820877, 0.016394963]
36 [0.073246665, 0.048814807, 0.09405452, 0.9610824, 0.85882485, 0.13020039, 0.07487283, 0.011533093]
37 [0.9797901, 0.050210383, 0.11039585, 0.11067118, 0.11751951, 0.098047435, 0.06620871, 0.015362322]
38 [0.9679475, 0.049588688, 0.11672658, 1.0099478, 0.12091218, 0.098101676, 0.061552234, 0.5448594]
39 [0.8289121, 0.79791206, 0.8688932, 0.8533512, 0.82391053, 0.8425393, 0.060610868, 0.02207369]
40 [0.078912094, 0.047912084, 0.8688978, 0.85519767, 0.12465861, 0.09941549, 0.061035354, 0.023618095]
41 [0.6778901, 0.9138901, 0.72189015, 0.9121099, 0.9291099, 0.09410467, 0.058763847, 0.064167544]
42 [0.07655495, 0.123554945, 0.12555377, 0.12596612, 0.09666184, 0.08611401, 0.055489216, 0.07923058]
43 [0.07655495, 0.123554945, 0.8755487, 0.87393856, 0.09734365, 0.08619511, 0.055723365, 0.082004726]
44 [0.10131624, 0.15731624, 0.15131624, 0.15123932, 0.12723932, 0.078461535, 0.052461535, 1.0607606]
45 [0.44853848, 0.12953846, 0.99853843, 0.49846154, 0.09946154, 0.07846011, 0.052078612, 0.08376326]
46 [1.0068846, 0.13388461, 0.99288464, 0.11911539, 0.09711539, 0.07311439, 0.050833683, 0.08238727]
47 [0.21338463, 1.0665275, 0.18147254, 0.16347253, 0.08504397, 0.065043345, 0.9897112, 0.9847615]
48 [1.0169561, 0.512956, 0.48504397, 0.09204396, 0.08504397, 0.065043494, 0.064767666, 0.08313551]
49 [1.0492802, 0.23928022, 0.20271978, 0.18571979, 0.075719774, 0.05871979, 0.9802802, 0.9852802]
