0.14999999 1.0499998
0.14982545 1.0501714
0.15013005 1.0501374
0.14970954 1.0500226
0.14912365 1.0502297
0.1480107 1.0504981
0.14651033 1.0508305
0.14457813 1.0509472
0.1399715 1.0490159
0.13750191 1.0466567
0.13750191 1.0466567
0.1331164 1.0388823
0.13147111 1.0337782
0.12991549 1.0281132
0.12864205 1.0222646
0.12750131 1.0165789
0.12697516 1.0112872
0.1271213 1.0059866
0.12680891 0.9957364
0.12680891 0.9957364
0.12793092 0.98670995
0.12872618 0.98306465
0.13611755 0.9772814
0.14204535 0.9753772
0.14869641 0.9744009
0.15712087 0.9748171
0.17779048 0.97960246
0.18848704 0.9835984
0.19901888 0.9884235
0.20931444 0.99385214
0.2192167 0.99991095
0.2272388 1.0049245
0.23360844 1.0093311
0.24165432 1.0148748
0.25280893 1.0222666
0.25280893 1.0222666
0.25280893 1.0222666
0.2779755 1.0382466
0.2779755 1.0382466
0.2779755 1.0382466
0.29605255 1.0497599
0.30194512 1.0538498
0.31296727 1.0611875
0.31296727 1.0611875
0.33154544 1.0693066
0.3417679 1.073057
0.36309537 1.0796537
0.36309537 1.0796537
0.37165734 1.0824716
0.37165734 1.0824716
0.37165734 1.0824716
0.38954297 1.0858004
0.38954297 1.0858004
0.39814845 1.0862333
0.4063931 1.0858985
0.41571075 1.0845332
0.42637333 1.0818517
0.43695647 1.0784886
0.43695647 1.0784886
0.44722646 1.0744944
0.45728007 1.0698293
0.45728007 1.0698293
0.4668006 1.0646887
0.4668006 1.0646887
0.4758896 1.0589983
0.48453397 1.052993
0.5006657 1.0401168
0.5006657 1.0401168
0.50989616 1.032167
0.522083 1.0219764
0.522083 1.0219764
0.53545827 1.0109421
0.5491132 1.0003226
0.5618143 0.99076337
0.5747517 0.9814687
0.58860815 0.97209996
0.619932 0.95330894
0.6345945 0.9450158
0.64546597 0.9389005
0.64546597 0.9389005
0.6729221 0.9248649
0.68956465 0.9158738
0.70610195 0.90677434
0.7439375 0.88634264
0.76192945 0.8770362
0.76192945 0.8770362
0.76192945 0.8770362
0.79514444 0.8607186
0.8116492 0.85310066
0.8278286 0.8462078
0.8278286 0.8462078
0.84360564 0.8405256
0.8596097 0.83559626
0.8596097 0.83559626
0.8757063 0.8313549
0.8919169 0.82799876
0.90624774 0.8256453
0.90624774 0.8256453
0.9187331 0.82407486
0.92991936 0.82357514
0.949876 0.825112
0.949876 0.825112
0.95744544 0.8255817
0.9642641 0.82602894
0.9642641 0.82602894
0.9754141 0.82667446
0.97996724 0.82749987
0.98517954 0.8296987
0.9920948 0.8340492
1.0000606 0.8406973
1.0079057 0.8487679
1.014411 0.8559497
1.014411 0.8559497
1.0188105 0.86052144
1.02383 0.8677343
1.02383 0.8677343
1.0287083 0.8746937
1.0323644 0.88022935
1.0357007 0.88646203
1.0357007 0.88646203
1.0387139 0.89255273
1.0422003 0.9003975
1.0422003 0.9003975
1.0460808 0.91004753
1.0495677 0.91992867
1.052739 0.9298118
1.052739 0.9298118
1.055627 0.9398696
1.0582025 0.94997567
1.061341 0.9616604
1.061341 0.9616604
1.06579 0.97498596
1.070752 0.98796767
1.070752 0.98796767
1.0760791 1.0009383
1.0817622 1.0137335
1.0874039 1.0257899
1.0874039 1.0257899
1.0926037 1.0363282
1.0974618 1.0452082
1.1015308 1.0524194
1.1015308 1.0524194
1.1051273 1.058732
1.1086576 1.064831
1.1086576 1.064831
1.112186 1.070822
1.1159108 1.0760298
1.1195545 1.0802777
1.1195545 1.0802777
1.1233478 1.0839622
1.1272695 1.0868766
1.1312758 1.0892825
1.1312758 1.0892825
1.1368071 1.09159
1.1434662 1.0935609
1.1504083 1.0950949
1.1644037 1.0961807
1.1644037 1.0961807
1.1713578 1.0962604
1.1802608 1.0962071
1.1887926 1.0962312
1.1887926 1.0962312
1.2024946 1.0953377
1.2077881 1.0945961
1.2117766 1.0939867
1.2167242 1.0932578
1.2183251 1.0930854
1.2227176 1.0920143
1.2251706 1.0910237
1.2301686 1.0879568
1.2335464 1.0866969
1.2460296 1.087405
1.2551334 1.090288
1.2651131 1.0949721
1.2870667 1.1093757
1.2987583 1.1188219
1.3220233 1.1403753
1.3331964 1.1519086
1.349817 1.17008
1.3555005 1.1768049
1.367071 1.1902138
1.3725637 1.1971092
1.3826532 1.2104156
1.3870659 1.2165344
1.3870659 1.2165344
1.4030768 1.2334625
1.4097751 1.2382176
1.4097751 1.2382176
