0 -1
1 -1
2 -1
3 9
4 9
5 9
6 9
7 9
8 9
9 59
10 59
11 59
12 59
13 59
14 59
15 34
16 34
17 34
18 34
19 34
20 34
21 15034
22 15034
23 15034
24 15034
25 15034
26 15034
27 15034
28 15034
29 12658
30 12658
31 75163
32 75163
33 75163
34 75163
35 75173
36 75173
37 62648
38 62648
39 62523
40 63172
41 312617
42 312617
43 312742
44 313117
45 328587
46 328587
47 312962
48 313587
