0 [0.0, 0.0, 0.0, 0.0, 0.0, 0.0, 0.0, 0.0, 0.0, 0.0, 0.0, 0.0, 0.0, 0.0, 0.0, 0.0, 0.0, 0.0, 0.0, 0.0, 0.0, 0.0, 0.0, 0.0, 0.0, 0.0, 0.0, 0.0, 0.0, 0.0, 0.0, 0.0, 0.0, 0.0, 0.0, 0.0, 0.0, 0.0, 0.0, 0.0, 0.0, 0.0, 0.0, 0.0, 0.0, 0.0, 0.0, 0.0, 0.0, 0.0, 0.0, 0.0, 0.0, 0.0, 0.0, 0.0, 0.0, 0.0, 0.0, 0.0, 0.0, 0.0, 0.0, 0.0, 0.0, 0.0, 0.0, 0.0, 0.0, 0.0, 0.0, 0.0, 0.0, 0.0, 0.0, 0.0, 0.0, 0.0, 0.0, 0.0, 0.0, 0.0, 0.0, 0.0, 0.0, 0.0, 0.0, 0.0, 0.0, 0.0, 0.0, 0.0, 0.0, 0.0, 0.0, 0.0, 0.0, 0.0, 0.0, 0.0, 0.0, 0.0, 0.0, 0.0, 0.0, 0.0, 0.0, 0.0, 0.0, 0.0, 0.0, 0.0, 0.0, 0.0, 0.0, 0.0, 0.0, 0.0, 0.0, 0.0, 0.0, 0.0, 0.0, 0.0, 0.0, 0.0, 0.0, 0.0, 0.0, 0.0, 0.0, 0.0, 0.0, 0.0, 0.0, 0.0, 0.0, 0.0, 0.0, 0.0, 0.0, 0.0, 0.0, 0.0, 0.0, 0.0, 0.0, 0.0, 0.0, 0.0, 0.0, 0.0, 0.0, 0.0, 0.0, 0.0, 0.0, 0.0, 0.0, 0.0, 0.0, 0.0, 0.0, 0.0, 0.0, 0.0, 0.0, 0.0, 0.0, 0.0, 0.0, 0.0, 0.0, 0.0, 0.0, 0.0, 0.0, 0.0, 0.0, 0.0, 0.0, 0.0]
1 [0.0, 0.0, 0.0, 0.0, 0.0, 0.0, 0.0, 0.0, 0.0, 0.0, 0.0, 0.0, 0.0, 0.0, 0.0, 0.0, 0.0, 0.0, 0.0, 0.0, 0.0, 0.0, 0.0, 0.0, 0.0, 0.0, 0.0, 0.0, 0.0, 0.0, 0.0, 0.0, 0.0, 0.0, 0.0, 0.0, 0.0, 0.0, 0.0, 0.0, 0.0, 0.0, 0.0, 0.0, 0.0, 0.0, 0.0, 0.0, 0.0, 0.0, 0.0, 0.0, 0.0, 0.0, 0.0, 0.0, 0.0, 0.0, 0.0, 0.0, 0.0, 0.0, 0.0, 0.0, 0.0, 0.0, 0.0, 0.0, 0.0, 0.0, 0.0, 0.0, 0.0, 0.0, 0.0, 0.0, 0.0, 0.0, 0.0, 0.0, 0.0, 0.0, 0.0, 0.0, 0.0, 0.0, 0.0, 0.0, 0.0, 0.0, 0.0, 0.0, 0.0, 0.0, 0.0, 0.0, 0.0, 0.0, 0.0, 0.0, 0.0, 0.0, 0.0, 0.0, 0.0, 0.0, 0.0, 0.0, 0.0, 0.0, 0.0, 0.0, 0.0, 0.0, 0.0, 0.0, 0.0, 0.0, 0.0, 0.0, 0.0, 0.0, 0.0, 0.0, 0.0, 0.0, 0.0, 0.0, 0.0, 0.0, 0.0, 0.0, 0.0, 0.0, 0.0, 0.0, 0.0, 0.0, 0.0, 0.0, 0.0, 0.0, 0.0, 0.0, 0.0, 0.0, 0.0, 0.0, 0.0, 0.0, 0.0, 0.0, 0.0, 0.0, 0.0, 0.0, 0.0, 0.0, 0.0, 0.0, 0.0, 0.0, 0.0, 0.0, 0.0, 0.0, 0.0, 0.0, 0.0, 0.0, 0.0, 0.0, 0.0, 0.0, 0.0, 0.0, 0.0, 0.0, 0.0, 0.0, 0.0, 0.0]
2 [0.0, 0.0, 0.0, 0.0, 0.0, 0.0, 0.0, 0.0, 0.0, 0.0, 0.0, 0.0, 0.0, 0.0, 0.0, 0.0, 0.0, 0.0, 0.0, 0.0, 0.0, 0.0, 0.0, 0.0, 0.0, 0.0, 0.0, 0.0, 0.0, 0.0, 0.0, 0.0, 0.0, 0.0, 0.0, 0.0, 0.0, 0.0, 0.0, 0.0, 0.0, 0.0, 0.0, 0.0, 0.0, 0.0, 0.0, 0.0, 0.0, 0.0, 0.0, 0.0, 0.0, 0.0, 0.0, 0.0, 0.0, 0.0, 0.0, 0.0, 0.0, 0.0, 0.0, 0.0, 0.0, 0.0, 0.0, 0.0, 0.0, 0.0, 0.0, 0.0, 0.0, 0.0, 0.0, 0.0, 0.0, 0.0, 0.0, 0.0, 0.0, 0.0, 0.0, 0.0, 0.0, 0.0, 0.0, 0.0, 0.0, 0.0, 0.0, 0.0, 0.0, 0.0, 0.0, 0.0, 0.0, 0.0, 0.0, 0.0, 0.0, 0.0, 0.0, 0.0, 0.0, 0.0, 0.0, 0.0, 0.0, 0.0, 0.0, 0.0, 0.0, 0.0, 0.0, 0.0, 0.0, 0.0, 0.0, 0.0, 0.0, 0.0, 0.0, 0.0, 0.0, 0.0, 0.0, 0.0, 0.0, 0.0, 0.0, 0.0, 0.0, 0.0, 0.0, 0.0, 0.0, 0.0, 0.0, 0.0, 0.0, 0.0, 0.0, 0.0, 0.0, 0.0, 0.0, 0.0, 0.0, 0.0, 0.0, 0.0, 0.0, 0.0, 0.0, 0.0, 0.0, 0.0, 0.0, 0.0, 0.0, 0.0, 0.0, 0.0, 0.0, 0.0, 0.0, 0.0, 0.0, 0.0, 0.0, 0.0, 0.0, 0.0, 0.0, 0.0, 0.0, 0.0, 0.0, 0.0, 0.0, 0.0]
3 [0.0, 0.0, 0.0, 0.0, 0.0, 0.0, 0.0, 0.0, 0.0, 0.0, 0.0, 0.0, 0.0, 0.0, 0.0, 0.0, 0.0, 0.0, 0.0, 0.0, 0.0, 0.0, 0.0, 0.0, 0.0, 0.0, 0.0, 0.0, 0.0, 0.0, 0.0, 0.0, 0.0, 0.0, 0.0, 0.0, 0.0, 0.0, 0.0, 0.0, 0.0, 0.0, 0.0, 0.0, 0.0, 0.0, 0.0, 0.0, 0.0, 0.0, 0.0, 0.0, 0.0, 0.0, 0.0, 0.0, 0.0, 0.0, 0.0, 0.0, 0.0, 0.0, 0.0, 0.0, 0.0, 0.0, 0.0, 0.0, 0.0, 0.0, 0.0, 0.0, 0.0, 0.0, 0.0, 0.0, 0.0, 0.0, 0.0, 0.0, 0.0, 0.0, 0.0, 0.0, 0.0, 0.0, 0.0, 0.0, 0.0, 0.0, 0.0, 0.0, 0.0, 0.0, 0.0, 0.0, 0.0, 0.0, 0.0, 0.0, 0.0, 0.0, 0.0, 0.0, 0.0, 0.0, 0.0, 0.0, 0.0, 0.0, 0.0, 0.0, 0.0, 0.0, 0.0, 0.0, 0.0, 0.0, 0.0, 0.0, 0.0, 0.0, 0.0, 0.0, 0.0, 0.0, 0.0, 0.0, 0.0, 0.0, 0.0, 0.0, 0.0, 0.0, 0.0, 0.0, 0.0, 0.0, 0.0, 0.0, 0.0, 0.0, 0.0, 0.0, 0.0, 0.0, 0.0, 0.0, 0.0, 0.0, 0.0, 0.0, 0.0, 0.0, 0.0, 0.0, 0.0, 0.0, 0.0, 0.0, 0.0, 0.0, 0.0, 0.0, 0.0, 0.0, 0.0, 0.0, 0.0, 0.0, 0.0, 0.0, 0.0, 0.0, 0.0, 0.0, 0.0, 0.0, 0.0, 0.0, 0.0, 0.0]
4 [0.0, 0.0, 0.0, 0.0, 0.0, 0.0, 0.0, 0.0, 0.0, 0.0, 0.0, 0.0, 0.0, 0.0, 0.0, 0.0, 0.0, 0.0, 0.0, 0.0, 0.0, 0.0, 0.0, 0.0, 0.0, 0.0, 0.0, 0.0, 0.0, 0.0, 0.0, 0.0, 0.0, 0.0, 0.0, 0.0, 0.0, 0.0, 0.0, 0.0, 0.0, 0.0, 0.0, 0.0, 0.0, 0.0, 0.0, 0.0, 0.0, 0.0, 0.0, 0.0, 0.0, 0.0, 0.0, 0.0, 0.0, 0.0, 0.0, 0.0, 0.0, 0.0, 0.0, 0.0, 0.0, 0.0, 0.0, 0.0, 0.0, 0.0, 0.0, 0.0, 0.0, 0.0, 0.0, 0.0, 0.0, 0.0, 0.0, 0.0, 0.0, 0.0, 0.0, 0.0, 0.0, 0.0, 0.0, 0.0, 0.0, 0.0, 0.0, 0.0, 0.0, 0.0, 0.0, 0.0, 0.0, 0.0, 0.0, 0.0, 0.0, 0.0, 0.0, 0.0, 0.0, 0.0, 0.0, 0.0, 0.0, 0.0, 0.0, 0.0, 0.0, 0.0, 0.0, 0.0, 0.0, 0.0, 0.0, 0.0, 0.0, 0.0, 0.0, 0.0, 0.0, 0.0, 0.0, 0.0, 0.0, 0.0, 0.0, 0.0, 0.0, 0.0, 0.0, 0.0, 0.0, 0.0, 0.0, 0.0, 0.0, 0.0, 0.0, 0.0, 0.0, 0.0, 0.0, 0.0, 0.0, 0.0, 0.0, 0.0, 0.0, 0.0, 0.0, 0.0, 0.0, 0.0, 0.0, 0.0, 0.0, 0.0, 0.0, 0.0, 0.0, 0.0, 0.0, 0.0, 0.0, 0.0, 0.0, 0.0, 0.0, 0.0, 0.0, 0.0, 0.0, 0.0, 0.0, 0.0, 0.0, 0.0]
5 [0.0, 0.0, 0.0, 0.0, 0.0, 0.0, 0.0, 0.0, 0.0, 0.0, 0.0, 0.0, 0.0, 0.0, 0.0, 0.0, 0.0, 0.0, 0.0, 0.0, 0.0, 0.0, 0.0, 0.0, 0.0, 0.0, 0.0, 0.0, 0.0, 0.0, 0.0, 0.0, 0.0, 0.0, 0.0, 0.0, 0.0, 0.0, 0.0, 0.0, 0.0, 0.0, 0.0, 0.0, 0.0, 0.0, 0.0, 0.0, 0.0, 0.0, 0.0, 0.0, 0.0, 0.0, 0.0, 0.0, 0.0, 0.0, 0.0, 0.0, 0.0, 0.0, 0.0, 0.0, 0.0, 0.0, 0.0, 0.0, 0.0, 0.0, 0.0, 0.0, 0.0, 0.0, 0.0, 0.0, 0.0, 0.0, 0.0, 0.0, 0.0, 0.0, 0.0, 0.0, 0.0, 0.0, 0.0, 0.0, 0.0, 0.0, 0.0, 0.0, 0.0, 0.0, 0.0, 0.0, 0.0, 0.0, 0.0, 0.0, 0.0, 0.0, 0.0, 0.0, 0.0, 0.0, 0.0, 0.0, 0.0, 0.0, 0.0, 0.0, 0.0, 0.0, 0.0, 0.0, 0.0, 0.0, 0.0, 0.0, 0.0, 0.0, 0.0, 0.0, 0.0, 0.0, 0.0, 0.0, 0.0, 0.0, 0.0, 0.0, 0.0, 0.0, 0.0, 0.0, 0.0, 0.0, 0.0, 0.0, 0.0, 0.0, 0.0, 0.0, 0.0, 0.0, 0.0, 0.0, 0.0, 0.0, 0.0, 0.0, 0.0, 0.0, 0.0, 0.0, 0.0, 0.0, 0.0, 0.0, 0.0, 0.0, 0.0, 0.0, 0.0, 0.0, 0.0, 0.0, 0.0, 0.0, 0.0, 0.0, 0.0, 0.0, 0.0, 0.0, 0.0, 0.0, 0.0, 0.0, 0.0, 0.0]
6 [0.0, 0.0, 0.0, 0.0, 0.0, 0.0, 0.0, 0.0, 0.0, 0.0, 0.0, 0.0, 0.0, 0.0, 0.0, 0.0, 0.0, 0.0, 0.0, 0.0, 0.0, 0.0, 0.0, 0.0, 0.0, 0.0, 0.0, 0.0, 0.0, 0.0, 0.0, 0.0, 0.0, 0.0, 0.0, 0.0, 0.0, 0.0, 0.0, 0.0, 0.0, 0.0, 0.0, 0.0, 0.0, 0.0, 0.0, 0.0, 0.0, 0.0, 0.0, 0.0, 0.0, 0.0, 0.0, 0.0, 0.0, 0.0, 0.0, 0.0, 0.0, 0.0, 0.0, 0.0, 0.0, 0.0, 0.0, 0.0, 0.0, 0.0, 0.0, 0.0, 0.0, 0.0, 0.0, 0.0, 0.0, 0.0, 0.0, 0.0, 0.0, 0.0, 0.0, 0.0, 0.0, 0.0, 0.0, 0.0, 0.0, 0.0, 0.0, 0.0, 0.0, 0.0, 0.0, 0.0, 0.0, 0.0, 0.0, 0.0, 0.0, 0.0, 0.0, 0.0, 0.0, 0.0, 0.0, 0.0, 0.0, 0.0, 0.0, 0.0, 0.0, 0.0, 0.0, 0.0, 0.0, 0.0, 0.0, 0.0, 0.0, 0.0, 0.0, 0.0, 0.0, 0.0, 0.0, 0.0, 0.0, 0.0, 0.0, 0.0, 0.0, 0.0, 0.0, 0.0, 0.0, 0.0, 0.0, 0.0, 0.0, 0.0, 0.0, 0.0, 0.0, 0.0, 0.0, 0.0, 0.0, 0.0, 0.0, 0.0, 0.0, 0.0, 0.0, 0.0, 0.0, 0.0, 0.0, 0.0, 0.0, 0.0, 0.0, 0.0, 0.0, 0.0, 0.0, 0.0, 0.0, 0.0, 0.0, 0.0, 0.0, 0.0, 0.0, 0.0, 0.0, 0.0, 0.0, 0.0, 0.0, 0.0]
7 [0.0, 0.0, 0.0, 0.0, 0.0, 0.0, 0.0, 0.0, 0.0, 0.0, 0.0, 0.0, 0.0, 0.0, 0.0, 0.0, 0.0, 0.0, 0.0, 0.0, 0.0, 0.0, 0.0, 0.0, 0.0, 0.0, 0.0, 0.0, 0.0, 0.0, 0.0, 0.0, 0.0, 0.0, 0.0, 0.0, 0.0, 0.0, 0.0, 0.0, 0.0, 0.0, 0.0, 0.0, 0.0, 0.0, 0.0, 0.0, 0.0, 0.0, 0.0, 0.0, 0.0, 0.0, 0.0, 0.0, 0.0, 0.0, 0.0, 0.0, 0.0, 0.0, 0.0, 0.0, 0.0, 0.0, 0.0, 0.0, 0.0, 0.0, 0.0, 0.0, 0.0, 0.0, 0.0, 0.0, 0.0, 0.0, 0.0, 0.0, 0.0, 0.0, 0.0, 0.0, 0.0, 0.0, 0.0, 0.0, 0.0, 0.0, 0.0, 0.0, 0.0, 0.0, 0.0, 0.0, 0.0, 0.0, 0.0, 0.0, 0.0, 0.0, 0.0, 0.0, 0.0, 0.0, 0.0, 0.0, 0.0, 0.0, 0.0, 0.0, 0.0, 0.0, 0.0, 0.0, 0.0, 0.0, 0.0, 0.0, 0.0, 0.0, 0.0, 0.0, 0.0, 0.0, 0.0, 0.0, 0.0, 0.0, 0.0, 0.0, 0.0, 0.0, 0.0, 0.0, 0.0, 0.0, 0.0, 0.0, 0.0, 0.0, 0.0, 0.0, 0.0, 0.0, 0.0, 0.0, 0.0, 0.0, 0.0, 0.0, 0.0, 0.0, 0.0, 0.0, 0.0, 0.0, 0.0, 0.0, 0.0, 0.0, 0.0, 0.0, 0.0, 0.0, 0.0, 0.0, 0.0, 0.0, 0.0, 0.0, 0.0, 0.0, 0.0, 0.0, 0.0, 0.0, 0.0, 0.0, 0.0, 0.0]
8 [0.0, 0.0, 0.0, 0.0, 0.0, 0.0, 0.0, 0.0, 0.0, 0.0, 0.0, 0.0, 0.0, 0.0, 0.0, 0.0, 0.0, 0.0, 0.0, 0.0, 0.0, 0.0, 0.0, 0.0, 0.0, 0.0, 0.0, 0.0, 0.0, 0.0, 0.0, 0.0, 0.0, 0.0, 0.0, 0.0, 0.0, 0.0, 0.0, 0.0, 0.0, 0.0, 0.0, 0.0, 0.0, 0.0, 0.0, 0.0, 0.0, 0.0, 0.0, 0.0, 0.0, 0.0, 0.0, 0.0, 0.0, 0.0, 0.0, 0.0, 0.0, 0.0, 0.0, 0.0, 0.0, 0.0, 0.0, 0.0, 0.0, 0.0, 0.0, 0.0, 0.0, 0.0, 0.0, 0.0, 0.0, 0.0, 0.0, 0.0, 0.0, 0.0, 0.0, 0.0, 0.0, 0.0, 0.0, 0.0, 0.0, 0.0, 0.0, 0.0, 0.0, 0.0, 0.0, 0.0, 0.0, 0.0, 0.0, 0.0, 0.0, 0.0, 0.0, 0.0, 0.0, 0.0, 0.0, 0.0, 0.0, 0.0, 0.0, 0.0, 0.0, 0.0, 0.0, 0.0, 0.0, 0.0, 0.0, 0.0, 0.0, 0.0, 0.0, 0.0, 0.0, 0.0, 0.0, 0.0, 0.0, 0.0, 0.0, 0.0, 0.0, 0.0, 0.0, 0.0, 0.0, 0.0, 0.0, 0.0, 0.0, 0.0, 0.0, 0.0, 0.0, 0.0, 0.0, 0.0, 0.0, 0.0, 0.0, 0.0, 0.0, 0.0, 0.0, 0.0, 0.0, 0.0, 0.0, 0.0, 0.0, 0.0, 0.0, 0.0, 0.0, 0.0, 0.0, 0.0, 0.0, 0.0, 0.0, 0.0, 0.0, 0.0, 0.0, 0.0, 0.0, 0.0, 0.0, 0.0, 0.0, 0.0]
9 [0.0, 0.0, 0.0, 0.0, 0.0, 0.0, 0.0, 0.0, 0.0, 0.0, 0.0, 0.0, 0.0, 0.0, 0.0, 0.0, 0.0, 0.0, 0.0, 0.0, 0.0, 0.0, 0.0, 0.0, 0.0, 0.0, 0.0, 0.0, 0.0, 0.0, 0.0, 0.0, 0.0, 0.0, 0.0, 0.0, 0.0, 0.0, 0.0, 0.0, 0.0, 0.0, 0.0, 0.0, 0.0, 0.0, 0.0, 0.0, 0.0, 0.0, 0.0, 0.0, 0.0, 0.0, 0.0, 0.0, 0.0, 0.0, 0.0, 0.0, 0.0, 0.0, 0.0, 0.0, 0.0, 0.0, 0.0, 0.0, 0.0, 0.0, 0.0, 0.0, 0.0, 0.0, 0.0, 0.0, 0.0, 0.0, 0.0, 0.0, 0.0, 0.0, 0.0, 0.0, 0.0, 0.0, 0.0, 0.0, 0.0, 0.0, 0.0, 0.0, 0.0, 0.0, 0.0, 0.0, 0.0, 0.0, 0.0, 0.0, 0.0, 0.0, 0.0, 0.0, 0.0, 0.0, 0.0, 0.0, 0.0, 0.0, 0.0, 0.0, 0.0, 0.0, 0.0, 0.0, 0.0, 0.0, 0.0, 0.0, 0.0, 0.0, 0.0, 0.0, 0.0, 0.0, 0.0, 0.0, 0.0, 0.0, 0.0, 0.0, 0.0, 0.0, 0.0, 0.0, 0.0, 0.0, 0.0, 0.0, 0.0, 0.0, 0.0, 0.0, 0.0, 0.0, 0.0, 0.0, 0.0, 0.0, 0.0, 0.0, 0.0, 0.0, 0.0, 0.0, 0.0, 0.0, 0.0, 0.0, 0.0, 0.0, 0.0, 0.0, 0.0, 0.0, 0.0, 0.0, 0.0, 0.0, 0.0, 0.0, 0.0, 0.0, 0.0, 0.0, 0.0, 0.0, 0.0, 0.0, 0.0, 0.0]
10 [0.0, 0.0, 0.0, 0.0, 0.0, 0.0, 0.0, 0.0, 0.0, 0.0, 0.0, 0.0, 0.0, 0.0, 0.0, 0.0, 0.0, 0.0, 0.0, 0.0, 0.0, 0.0, 0.0, 0.0, 0.0, 0.0, 0.0, 0.0, 0.0, 0.0, 0.0, 0.0, 0.0, 0.0, 0.0, 0.0, 0.0, 0.0, 0.0, 0.0, 0.0, 0.0, 0.0, 0.0, 0.0, 0.0, 0.0, 0.0, 0.0, 0.0, 0.0, 0.0, 0.0, 0.0, 0.0, 0.0, 0.0, 0.0, 0.0, 0.0, 0.0, 0.0, 0.0, 0.0, 0.0, 0.0, 0.0, 0.0, 0.0, 0.0, 0.0, 0.0, 0.0, 0.0, 0.0, 0.0, 0.0, 0.0, 0.0, 0.0, 0.0, 0.0, 0.0, 0.0, 0.0, 0.0, 0.0, 0.0, 0.0, 0.0, 0.0, 0.0, 0.0, 0.0, 0.0, 0.0, 0.0, 0.0, 0.0, 0.0, 0.0, 0.0, 0.0, 0.0, 0.0, 0.0, 0.0, 0.0, 0.0, 0.0, 0.0, 0.0, 0.0, 0.0, 0.0, 0.0, 0.0, 0.0, 0.0, 0.0, 0.0, 0.0, 0.0, 0.0, 0.0, 0.0, 0.0, 0.0, 0.0, 0.0, 0.0, 0.0, 0.0, 0.0, 0.0, 0.0, 0.0, 0.0, 0.0, 0.0, 0.0, 0.0, 0.0, 0.0, 0.0, 0.0, 0.0, 0.0, 0.0, 0.0, 0.0, 0.0, 0.0, 0.0, 0.0, 0.0, 0.0, 0.0, 0.0, 0.0, 0.0, 0.0, 0.0, 0.0, 0.0, 0.0, 0.0, 0.0, 0.0, 0.0, 0.0, 0.0, 0.0, 0.0, 0.0, 0.0, 0.0, 0.0, 0.0, 0.0, 0.0, 0.0]
11 [0.0, 0.0, 0.0, 0.0, 0.0, 0.0, 0.0, 0.0, 0.0, 0.0, 0.0, 0.0, 0.0, 0.0, 0.0, 0.0, 0.0, 0.0, 0.0, 0.0, 0.0, 0.0, 0.0, 0.0, 0.0, 0.0, 0.0, 0.0, 0.0, 0.0, 0.0, 0.0, 0.0, 0.0, 0.0, 0.0, 0.0, 0.0, 0.0, 0.0, 0.0, 0.0, 0.0, 0.0, 0.0, 0.0, 0.0, 0.0, 0.0, 0.0, 0.0, 0.0, 0.0, 0.0, 0.0, 0.0, 0.0, 0.0, 0.0, 0.0, 0.0, 0.0, 0.0, 0.0, 0.0, 0.0, 0.0, 0.0, 0.0, 0.0, 0.0, 0.0, 0.0, 0.0, 0.0, 0.0, 0.0, 0.0, 0.0, 0.0, 0.0, 0.0, 0.0, 0.0, 0.0, 0.0, 0.0, 0.0, 0.0, 0.0, 0.0, 0.0, 0.0, 0.0, 0.0, 0.0, 0.0, 0.0, 0.0, 0.0, 0.0, 0.0, 0.0, 0.0, 0.0, 0.0, 0.0, 0.0, 0.0, 0.0, 0.0, 0.0, 0.0, 0.0, 0.0, 0.0, 0.0, 0.0, 0.0, 0.0, 0.0, 0.0, 0.0, 0.0, 0.0, 0.0, 0.0, 0.0, 0.0, 0.0, 0.0, 0.0, 0.0, 0.0, 0.0, 0.0, 0.0, 0.0, 0.0, 0.0, 0.0, 0.0, 0.0, 0.0, 0.0, 0.0, 0.0, 0.0, 0.0, 0.0, 0.0, 0.0, 0.0, 0.0, 0.0, 0.0, 0.0, 0.0, 0.0, 0.0, 0.0, 0.0, 0.0, 0.0, 0.0, 0.0, 0.0, 0.0, 0.0, 0.0, 0.0, 0.0, 0.0, 0.0, 0.0, 0.0, 0.0, 0.0, 0.0, 0.0, 0.0, 0.0]
12 [0.0, 0.0, 0.0, 0.0, 0.0, 0.0, 0.0, 0.0, 0.0, 0.0, 0.0, 0.0, 0.0, 0.0, 0.0, 0.0, 0.0, 0.0, 0.0, 0.0, 0.0, 0.0, 0.0, 0.0, 0.0, 0.0, 0.0, 0.0, 0.0, 0.0, 0.0, 0.0, 0.0, 0.0, 0.0, 0.0, 0.0, 0.0, 0.0, 0.0, 0.0, 0.0, 0.0, 0.0, 0.0, 0.0, 0.0, 0.0, 0.0, 0.0, 0.0, 0.0, 0.0, 0.0, 0.0, 0.0, 0.0, 0.0, 0.0, 0.0, 0.0, 0.0, 0.0, 0.0, 0.0, 0.0, 0.0, 0.0, 0.0, 0.0, 0.0, 0.0, 0.0, 0.0, 0.0, 0.0, 0.0, 0.0, 0.0, 0.0, 0.0, 0.0, 0.0, 0.0, 0.0, 0.0, 0.0, 0.0, 0.0, 0.0, 0.0, 0.0, 0.0, 0.0, 0.0, 0.0, 0.0, 0.0, 0.0, 0.0, 0.0, 0.0, 0.0, 0.0, 0.0, 0.0, 0.0, 0.0, 0.0, 0.0, 0.0, 0.0, 0.0, 0.0, 0.0, 0.0, 0.0, 0.0, 0.0, 0.0, 0.0, 0.0, 0.0, 0.0, 0.0, 0.0, 0.0, 0.0, 0.0, 0.0, 0.0, 0.0, 0.0, 0.0, 0.0, 0.0, 0.0, 0.0, 0.0, 0.0, 0.0, 0.0, 0.0, 0.0, 0.0, 0.0, 0.0, 0.0, 0.0, 0.0, 0.0, 0.0, 0.0, 0.0, 0.0, 0.0, 0.0, 0.0, 0.0, 0.0, 0.0, 0.0, 0.0, 0.0, 0.0, 0.0, 0.0, 0.0, 0.0, 0.0, 0.0, 0.0, 0.0, 0.0, 0.0, 0.0, 0.0, 0.0, 0.0, 0.0, 0.0, 0.0]
13 [0.0, 0.0, 0.0, 0.0, 0.0, 0.0, 0.0, 0.0, 0.0, 0.0, 0.0, 0.0, 0.0, 0.0, 0.0, 0.0, 0.0, 0.0, 0.0, 0.0, 0.0, 0.0, 0.0, 0.0, 0.0, 0.0, 0.0, 0.0, 0.0, 0.0, 0.0, 0.0, 0.0, 0.0, 0.0, 0.0, 0.0, 0.0, 0.0, 0.0, 0.0, 0.0, 0.0, 0.0, 0.0, 0.0, 0.0, 0.0, 0.0, 0.0, 0.0, 0.0, 0.0, 0.0, 0.0, 0.0, 0.0, 0.0, 0.0, 0.0, 0.0, 0.0, 0.0, 0.0, 0.0, 0.0, 0.0, 0.0, 0.0, 0.0, 0.0, 0.0, 0.0, 0.0, 0.0, 0.0, 0.0, 0.0, 0.0, 0.0, 0.0, 0.0, 0.0, 0.0, 0.0, 0.0, 0.0, 0.0, 0.0, 0.0, 0.0, 0.0, 0.0, 0.0, 0.0, 0.0, 0.0, 0.0, 0.0, 0.0, 0.0, 0.0, 0.0, 0.0, 0.0, 0.0, 0.0, 0.0, 0.0, 0.0, 0.0, 0.0, 0.0, 0.0, 0.0, 0.0, 0.0, 0.0, 0.0, 0.0, 0.0, 0.0, 0.0, 0.0, 0.0, 0.0, 0.0, 0.0, 0.0, 0.0, 0.0, 0.0, 0.0, 0.0, 0.0, 0.0, 0.0, 0.0, 0.0, 0.0, 0.0, 0.0, 0.0, 0.0, 0.0, 0.0, 0.0, 0.0, 0.0, 0.0, 0.0, 0.0, 0.0, 0.0, 0.0, 0.0, 0.0, 0.0, 0.0, 0.0, 0.0, 0.0, 0.0, 0.0, 0.0, 0.0, 0.0, 0.0, 0.0, 0.0, 0.0, 0.0, 0.0, 0.0, 0.0, 0.0, 0.0, 0.0, 0.0, 0.0, 0.0, 0.0]
14 [0.0, 0.0, 0.0, 0.0, 0.0, 0.0, 0.0, 0.0, 0.0, 0.0, 0.0, 0.0, 0.0, 0.0, 0.0, 0.0, 0.0, 0.0, 0.0, 0.0, 0.0, 0.0, 0.0, 0.0, 0.0, 0.0, 0.0, 0.0, 0.0, 0.0, 0.0, 0.0, 0.0, 0.0, 0.0, 0.0, 0.0, 0.0, 0.0, 0.0, 0.0, 0.0, 0.0, 0.0, 0.0, 0.0, 0.0, 0.0, 0.0, 0.0, 0.0, 0.0, 0.0, 0.0, 0.0, 0.0, 0.0, 0.0, 0.0, 0.0, 0.0, 0.0, 0.0, 0.0, 0.0, 0.0, 0.0, 0.0, 0.0, 0.0, 0.0, 0.0, 0.0, 0.0, 0.0, 0.0, 0.0, 0.0, 0.0, 0.0, 0.0, 0.0, 0.0, 0.0, 0.0, 0.0, 0.0, 0.0, 0.0, 0.0, 0.0, 0.0, 0.0, 0.0, 0.0, 0.0, 0.0, 0.0, 0.0, 0.0, 0.0, 0.0, 0.0, 0.0, 0.0, 0.0, 0.0, 0.0, 0.0, 0.0, 0.0, 0.0, 0.0, 0.0, 0.0, 0.0, 0.0, 0.0, 0.0, 0.0, 0.0, 0.0, 0.0, 0.0, 0.0, 0.0, 0.0, 0.0, 0.0, 0.0, 0.0, 0.0, 0.0, 0.0, 0.0, 0.0, 0.0, 0.0, 0.0, 0.0, 0.0, 0.0, 0.0, 0.0, 0.0, 0.0, 0.0, 0.0, 0.0, 0.0, 0.0, 0.0, 0.0, 0.0, 0.0, 0.0, 0.0, 0.0, 0.0, 0.0, 0.0, 0.0, 0.0, 0.0, 0.0, 0.0, 0.0, 0.0, 0.0, 0.0, 0.0, 0.0, 0.0, 0.0, 0.0, 0.0, 0.0, 0.0, 0.0, 0.0, 0.0, 0.0]
15 [0.0, 0.0, 0.0, 0.0, 0.0, 0.0, 0.0, 0.0, 0.0, 0.0, 0.0, 0.0, 0.0, 0.0, 0.0, 0.0, 0.0, 0.0, 0.0, 0.0, 0.0, 0.0, 0.0, 0.0, 0.0, 0.0, 0.0, 0.0, 0.0, 0.0, 0.0, 0.0, 0.0, 0.0, 0.0, 0.0, 0.0, 0.0, 0.0, 0.0, 0.0, 0.0, 0.0, 0.0, 0.0, 0.0, 0.0, 0.0, 0.0, 0.0, 0.0, 0.0, 0.0, 0.0, 0.0, 0.0, 0.0, 0.0, 0.0, 0.0, 0.0, 0.0, 0.0, 0.0, 0.0, 0.0, 0.0, 0.0, 0.0, 0.0, 0.0, 0.0, 0.0, 0.0, 0.0, 0.0, 0.0, 0.0, 0.0, 0.0, 0.0, 0.0, 0.0, 0.0, 0.0, 0.0, 0.0, 0.0, 0.0, 0.0, 0.0, 0.0, 0.0, 0.0, 0.0, 0.0, 0.0, 0.0, 0.0, 0.0, 0.0, 0.0, 0.0, 0.0, 0.0, 0.0, 0.0, 0.0, 0.0, 0.0, 0.0, 0.0, 0.0, 0.0, 0.0, 0.0, 0.0, 0.0, 0.0, 0.0, 0.0, 0.0, 0.0, 0.0, 0.0, 0.0, 0.0, 0.0, 0.0, 0.0, 0.0, 0.0, 0.0, 0.0, 0.0, 0.0, 0.0, 0.0, 0.0, 0.0, 0.0, 0.0, 0.0, 0.0, 0.0, 0.0, 0.0, 0.0, 0.0, 0.0, 0.0, 0.0, 0.0, 0.0, 0.0, 0.0, 0.0, 0.0, 0.0, 0.0, 0.0, 0.0, 0.0, 0.0, 0.0, 0.0, 0.0, 0.0, 0.0, 0.0, 0.0, 0.0, 0.0, 0.0, 0.0, 0.0, 0.0, 0.0, 0.0, 0.0, 0.0, 0.0]
16 [0.0, 0.0, 0.0, 0.0, 0.0, 0.0, 0.0, 0.0, 0.0, 0.0, 0.0, 0.0, 0.0, 0.0, 0.0, 0.0, 0.0, 0.0, 0.0, 0.0, 0.0, 0.0, 0.0, 0.0, 0.0, 0.0, 0.0, 0.0, 0.0, 0.0, 0.0, 0.0, 0.0, 0.0, 0.0, 0.0, 0.0, 0.0, 0.0, 0.0, 0.0, 0.0, 0.0, 0.0, 0.0, 0.0, 0.0, 0.0, 0.0, 0.0, 0.0, 0.0, 0.0, 0.0, 0.0, 0.0, 0.0, 0.0, 0.0, 0.0, 0.0, 0.0, 0.0, 0.0, 0.0, 0.0, 0.0, 0.0, 0.0, 0.0, 0.0, 0.0, 0.0, 0.0, 0.0, 0.0, 0.0, 0.0, 0.0, 0.0, 0.0, 0.0, 0.0, 0.0, 0.0, 0.0, 0.0, 0.0, 0.0, 0.0, 0.0, 0.0, 0.0, 0.0, 0.0, 0.0, 0.0, 0.0, 0.0, 0.0, 0.0, 0.0, 0.0, 0.0, 0.0, 0.0, 0.0, 0.0, 0.0, 0.0, 0.0, 0.0, 0.0, 0.0, 0.0, 0.0, 0.0, 0.0, 0.0, 0.0, 0.0, 0.0, 0.0, 0.0, 0.0, 0.0, 0.0, 0.0, 0.0, 0.0, 0.0, 0.0, 0.0, 0.0, 0.0, 0.0, 0.0, 0.0, 0.0, 0.0, 0.0, 0.0, 0.0, 0.0, 0.0, 0.0, 0.0, 0.0, 0.0, 0.0, 0.0, 0.0, 0.0, 0.0, 0.0, 0.0, 0.0, 0.0, 0.0, 0.0, 0.0, 0.0, 0.0, 0.0, 0.0, 0.0, 0.0, 0.0, 0.0, 0.0, 0.0, 0.0, 0.0, 0.0, 0.0, 0.0, 0.0, 0.0, 0.0, 0.0, 0.0, 0.0]
17 [0.0, 0.0, 0.0, 0.0, 0.0, 0.0, 0.0, 0.0, 0.0, 0.0, 0.0, 0.0, 0.0, 0.0, 0.0, 0.0, 0.0, 0.0, 0.0, 0.0, 0.0, 0.0, 0.0, 0.0, 0.0, 0.0, 0.0, 0.0, 0.0, 0.0, 0.0, 0.0, 0.0, 0.0, 0.0, 0.0, 0.0, 0.0, 0.0, 0.0, 0.0, 0.0, 0.0, 0.0, 0.0, 0.0, 0.0, 0.0, 0.0, 0.0, 0.0, 0.0, 0.0, 0.0, 0.0, 0.0, 0.0, 0.0, 0.0, 0.0, 0.0, 0.0, 0.0, 0.0, 0.0, 0.0, 0.0, 0.0, 0.0, 0.0, 0.0, 0.0, 0.0, 0.0, 0.0, 0.0, 0.0, 0.0, 0.0, 0.0, 0.0, 0.0, 0.0, 0.0, 0.0, 0.0, 0.0, 0.0, 0.0, 0.0, 0.0, 0.0, 0.0, 0.0, 0.0, 0.0, 0.0, 0.0, 0.0, 0.0, 0.0, 0.0, 0.0, 0.0, 0.0, 0.0, 0.0, 0.0, 0.0, 0.0, 0.0, 0.0, 0.0, 0.0, 0.0, 0.0, 0.0, 0.0, 0.0, 0.0, 0.0, 0.0, 0.0, 0.0, 0.0, 0.0, 0.0, 0.0, 0.0, 0.0, 0.0, 0.0, 0.0, 0.0, 0.0, 0.0, 0.0, 0.0, 0.0, 0.0, 0.0, 0.0, 0.0, 0.0, 0.0, 0.0, 0.0, 0.0, 0.0, 0.0, 0.0, 0.0, 0.0, 0.0, 0.0, 0.0, 0.0, 0.0, 0.0, 0.0, 0.0, 0.0, 0.0, 0.0, 0.0, 0.0, 0.0, 0.0, 0.0, 0.0, 0.0, 0.0, 0.0, 0.0, 0.0, 0.0, 0.0, 0.0, 0.0, 0.0, 0.0, 0.0]
18 [0.0, 0.0, 0.0, 0.0, 0.0, 0.0, 0.0, 0.0, 0.0, 0.0, 0.0, 0.0, 0.0, 0.0, 0.0, 0.0, 0.0, 0.0, 0.0, 0.0, 0.0, 0.0, 0.0, 0.0, 0.0, 0.0, 0.0, 0.0, 0.0, 0.0, 0.0, 0.0, 0.0, 0.0, 0.0, 0.0, 0.0, 0.0, 0.0, 0.0, 0.0, 0.0, 0.0, 0.0, 0.0, 0.0, 0.0, 0.0, 0.0, 0.0, 0.0, 0.0, 0.0, 0.0, 0.0, 0.0, 0.0, 0.0, 0.0, 0.0, 0.0, 0.0, 0.0, 0.0, 0.0, 0.0, 0.0, 0.0, 0.0, 0.0, 0.0, 0.0, 0.0, 0.0, 0.0, 0.0, 0.0, 0.0, 0.0, 0.0, 0.0, 0.0, 0.0, 0.0, 0.0, 0.0, 0.0, 0.0, 0.0, 0.0, 0.0, 0.0, 0.0, 0.0, 0.0, 0.0, 0.0, 0.0, 0.0, 0.0, 0.0, 0.0, 0.0, 0.0, 0.0, 0.0, 0.0, 0.0, 0.0, 0.0, 0.0, 0.0, 0.0, 0.0, 0.0, 0.0, 0.0, 0.0, 0.0, 0.0, 0.0, 0.0, 0.0, 0.0, 0.0, 0.0, 0.0, 0.0, 0.0, 0.0, 0.0, 0.0, 0.0, 0.0, 0.0, 0.0, 0.0, 0.0, 0.0, 0.0, 0.0, 0.0, 0.0, 0.0, 0.0, 0.0, 0.0, 0.0, 0.0, 0.0, 0.0, 0.0, 0.0, 0.0, 0.0, 0.0, 0.0, 0.0, 0.0, 0.0, 0.0, 0.0, 0.0, 0.0, 0.0, 0.0, 0.0, 0.0, 0.0, 0.0, 0.0, 0.0, 0.0, 0.0, 0.0, 0.0, 0.0, 0.0, 0.0, 0.0, 0.0, 0.0]
19 [0.0, 0.0, 0.0, 0.0, 0.0, 0.0, 0.0, 0.0, 0.0, 0.0, 0.0, 0.0, 0.0, 0.0, 0.0, 0.0, 0.0, 0.0, 0.0, 0.0, 0.0, 0.0, 0.0, 0.0, 0.0, 0.0, 0.0, 0.0, 0.0, 0.0, 0.0, 0.0, 0.0, 0.0, 0.0, 0.0, 0.0, 0.0, 0.0, 0.0, 0.0, 0.0, 0.0, 0.0, 0.0, 0.0, 0.0, 0.0, 0.0, 0.0, 0.0, 0.0, 0.0, 0.0, 0.0, 0.0, 0.0, 0.0, 0.0, 0.0, 0.0, 0.0, 0.0, 0.0, 0.0, 0.0, 0.0, 0.0, 0.0, 0.0, 0.0, 0.0, 0.0, 0.0, 0.0, 0.0, 0.0, 0.0, 0.0, 0.0, 0.0, 0.0, 0.0, 0.0, 0.0, 0.0, 0.0, 0.0, 0.0, 0.0, 0.0, 0.0, 0.0, 0.0, 0.0, 0.0, 0.0, 0.0, 0.0, 0.0, 0.0, 0.0, 0.0, 0.0, 0.0, 0.0, 0.0, 0.0, 0.0, 0.0, 0.0, 0.0, 0.0, 0.0, 0.0, 0.0, 0.0, 0.0, 0.0, 0.0, 0.0, 0.0, 0.0, 0.0, 0.0, 0.0, 0.0, 0.0, 0.0, 0.0, 0.0, 0.0, 0.0, 0.0, 0.0, 0.0, 0.0, 0.0, 0.0, 0.0, 0.0, 0.0, 0.0, 0.0, 0.0, 0.0, 0.0, 0.0, 0.0, 0.0, 0.0, 0.0, 0.0, 0.0, 0.0, 0.0, 0.0, 0.0, 0.0, 0.0, 0.0, 0.0, 0.0, 0.0, 0.0, 0.0, 0.0, 0.0, 0.0, 0.0, 0.0, 0.0, 0.0, 0.0, 0.0, 0.0, 0.0, 0.0, 0.0, 0.0, 0.0, 0.0]
20 [0.0, 0.0, 0.0, 0.0, 0.0, 0.0, 0.0, 0.0, 0.0, 0.0, 0.0, 0.0, 0.0, 0.0, 0.0, 0.0, 0.0, 0.0, 0.0, 0.0, 0.0, 0.0, 0.0, 0.0, 0.0, 0.0, 0.0, 0.0, 0.0, 0.0, 0.0, 0.0, 0.0, 0.0, 0.0, 0.0, 0.0, 0.0, 0.0, 0.0, 0.0, 0.0, 0.0, 0.0, 0.0, 0.0, 0.0, 0.0, 0.0, 0.0, 0.0, 0.0, 0.0, 0.0, 0.0, 0.0, 0.0, 0.0, 0.0, 0.0, 0.0, 0.0, 0.0, 0.0, 0.0, 0.0, 0.0, 0.0, 0.0, 0.0, 0.0, 0.0, 0.0, 0.0, 0.0, 0.0, 0.0, 0.0, 0.0, 0.0, 0.0, 0.0, 0.0, 0.0, 0.0, 0.0, 0.0, 0.0, 0.0, 0.0, 0.0, 0.0, 0.0, 0.0, 0.0, 0.0, 0.0, 0.0, 0.0, 0.0, 0.0, 0.0, 0.0, 0.0, 0.0, 0.0, 0.0, 0.0, 0.0, 0.0, 0.0, 0.0, 0.0, 0.0, 0.0, 0.0, 0.0, 0.0, 0.0, 0.0, 0.0, 0.0, 0.0, 0.0, 0.0, 0.0, 0.0, 0.0, 0.0, 0.0, 0.0, 0.0, 0.0, 0.0, 0.0, 0.0, 0.0, 0.0, 0.0, 0.0, 0.0, 0.0, 0.0, 0.0, 0.0, 0.0, 0.0, 0.0, 0.0, 0.0, 0.0, 0.0, 0.0, 0.0, 0.0, 0.0, 0.0, 0.0, 0.0, 0.0, 0.0, 0.0, 0.0, 0.0, 0.0, 0.0, 0.0, 0.0, 0.0, 0.0, 0.0, 0.0, 0.0, 0.0, 0.0, 0.0, 0.0, 0.0, 0.0, 0.0, 0.0, 0.0]
21 [0.0, 0.0, 0.0, 0.0, 0.0, 0.0, 0.0, 0.0, 0.0, 0.0, 0.0, 0.0, 0.0, 0.0, 0.0, 0.0, 0.0, 0.0, 0.0, 0.0, 0.0, 0.0, 0.0, 0.0, 0.0, 0.0, 0.0, 0.0, 0.0, 0.0, 0.0, 0.0, 0.0, 0.0, 0.0, 0.0, 0.0, 0.0, 0.0, 0.0, 0.0, 0.0, 0.0, 0.0, 0.0, 0.0, 0.0, 0.0, 0.0, 0.0, 0.0, 0.0, 0.0, 0.0, 0.0, 0.0, 0.0, 0.0, 0.0, 0.0, 0.0, 0.0, 0.0, 0.0, 0.0, 0.0, 0.0, 0.0, 0.0, 0.0, 0.0, 0.0, 0.0, 0.0, 0.0, 0.0, 0.0, 0.0, 0.0, 0.0, 0.0, 0.0, 0.0, 0.0, 0.0, 0.0, 0.0, 0.0, 0.0, 0.0, 0.0, 0.0, 0.0, 0.0, 0.0, 0.0, 0.0, 0.0, 0.0, 0.0, 0.0, 0.0, 0.0, 0.0, 0.0, 0.0, 0.0, 0.0, 0.0, 0.0, 0.0, 0.0, 0.0, 0.0, 0.0, 0.0, 0.0, 0.0, 0.0, 0.0, 0.0, 0.0, 0.0, 0.0, 0.0, 0.0, 0.0, 0.0, 0.0, 0.0, 0.0, 0.0, 0.0, 0.0, 0.0, 0.0, 0.0, 0.0, 0.0, 0.0, 0.0, 0.0, 0.0, 0.0, 0.0, 0.0, 0.0, 0.0, 0.0, 0.0, 0.0, 0.0, 0.0, 0.0, 0.0, 0.0, 0.0, 0.0, 0.0, 0.0, 0.0, 0.0, 0.0, 0.0, 0.0, 0.0, 0.0, 0.0, 0.0, 0.0, 0.0, 0.0, 0.0, 0.0, 0.0, 0.0, 0.0, 0.0, 0.0, 0.0, 0.0, 0.0]
22 [0.0, 0.0, 0.0, 0.0, 0.0, 0.0, 0.0, 0.0, 0.0, 0.0, 0.0, 0.0, 0.0, 0.0, 0.0, 0.0, 0.0, 0.0, 0.0, 0.0, 0.0, 0.0, 0.0, 0.0, 0.0, 0.0, 0.0, 0.0, 0.0, 0.0, 0.0, 0.0, 0.0, 0.0, 0.0, 0.0, 0.0, 0.0, 0.0, 0.0, 0.0, 0.0, 0.0, 0.0, 0.0, 0.0, 0.0, 0.0, 0.0, 0.0, 0.0, 0.0, 0.0, 0.0, 0.0, 0.0, 0.0, 0.0, 0.0, 0.0, 0.0, 0.0, 0.0, 0.0, 0.0, 0.0, 0.0, 0.0, 0.0, 0.0, 0.0, 0.0, 0.0, 0.0, 0.0, 0.0, 0.0, 0.0, 0.0, 0.0, 0.0, 0.0, 0.0, 0.0, 0.0, 0.0, 0.0, 0.0, 0.0, 0.0, 0.0, 0.0, 0.0, 0.0, 0.0, 0.0, 0.0, 0.0, 0.0, 0.0, 0.0, 0.0, 0.0, 0.0, 0.0, 0.0, 0.0, 0.0, 0.0, 0.0, 0.0, 0.0, 0.0, 0.0, 0.0, 0.0, 0.0, 0.0, 0.0, 0.0, 0.0, 0.0, 0.0, 0.0, 0.0, 0.0, 0.0, 0.0, 0.0, 0.0, 0.0, 0.0, 0.0, 0.0, 0.0, 0.0, 0.0, 0.0, 0.0, 0.0, 0.0, 0.0, 0.0, 0.0, 0.0, 0.0, 0.0, 0.0, 0.0, 0.0, 0.0, 0.0, 0.0, 0.0, 0.0, 0.0, 0.0, 0.0, 0.0, 0.0, 0.0, 0.0, 0.0, 0.0, 0.0, 0.0, 0.0, 0.0, 0.0, 0.0, 0.0, 0.0, 0.0, 0.0, 0.0, 0.0, 0.0, 0.0, 0.0, 0.0, 0.0, 0.0]
23 [0.0, 0.0, 0.0, 0.0, 0.0, 0.0, 0.0, 0.0, 0.0, 0.0, 0.0, 0.0, 0.0, 0.0, 0.0, 0.0, 0.0, 0.0, 0.0, 0.0, 0.0, 0.0, 0.0, 0.0, 0.0, 0.0, 0.0, 0.0, 0.0, 0.0, 0.0, 0.0, 0.0, 0.0, 0.0, 0.0, 0.0, 0.0, 0.0, 0.0, 0.0, 0.0, 0.0, 0.0, 0.0, 0.0, 0.0, 0.0, 0.0, 0.0, 0.0, 0.0, 0.0, 0.0, 0.0, 0.0, 0.0, 0.0, 0.0, 0.0, 0.0, 0.0, 0.0, 0.0, 0.0, 0.0, 0.0, 0.0, 0.0, 0.0, 0.0, 0.0, 0.0, 0.0, 0.0, 0.0, 0.0, 0.0, 0.0, 0.0, 0.0, 0.0, 0.0, 0.0, 0.0, 0.0, 0.0, 0.0, 0.0, 0.0, 0.0, 0.0, 0.0, 0.0, 0.0, 0.0, 0.0, 0.0, 0.0, 0.0, 0.0, 0.0, 0.0, 0.0, 0.0, 0.0, 0.0, 0.0, 0.0, 0.0, 0.0, 0.0, 0.0, 0.0, 0.0, 0.0, 0.0, 0.0, 0.0, 0.0, 0.0, 0.0, 0.0, 0.0, 0.0, 0.0, 0.0, 0.0, 0.0, 0.0, 0.0, 0.0, 0.0, 0.0, 0.0, 0.0, 0.0, 0.0, 0.0, 0.0, 0.0, 0.0, 0.0, 0.0, 0.0, 0.0, 0.0, 0.0, 0.0, 0.0, 0.0, 0.0, 0.0, 0.0, 0.0, 0.0, 0.0, 0.0, 0.0, 0.0, 0.0, 0.0, 0.0, 0.0, 0.0, 0.0, 0.0, 0.0, 0.0, 0.0, 0.0, 0.0, 0.0, 0.0, 0.0, 0.0, 0.0, 0.0, 0.0, 0.0, 0.0, 0.0]
24 [0.0, 0.0, 0.0, 0.0, 0.0, 0.0, 0.0, 0.0, 0.0, 0.0, 0.0, 0.0, 0.0, 0.0, 0.0, 0.0, 0.0, 0.0, 0.0, 0.0, 0.0, 0.0, 0.0, 0.0, 0.0, 0.0, 0.0, 0.0, 0.0, 0.0, 0.0, 0.0, 0.0, 0.0, 0.0, 0.0, 0.0, 0.0, 0.0, 0.0, 0.0, 0.0, 0.0, 0.0, 0.0, 0.0, 0.0, 0.0, 0.0, 0.0, 0.0, 0.0, 0.0, 0.0, 0.0, 0.0, 0.0, 0.0, 0.0, 0.0, 0.0, 0.0, 0.0, 0.0, 0.0, 0.0, 0.0, 0.0, 0.0, 0.0, 0.0, 0.0, 0.0, 0.0, 0.0, 0.0, 0.0, 0.0, 0.0, 0.0, 0.0, 0.0, 0.0, 0.0, 0.0, 0.0, 0.0, 0.0, 0.0, 0.0, 0.0, 0.0, 0.0, 0.0, 0.0, 0.0, 0.0, 0.0, 0.0, 0.0, 0.0, 0.0, 0.0, 0.0, 0.0, 0.0, 0.0, 0.0, 0.0, 0.0, 0.0, 0.0, 0.0, 0.0, 0.0, 0.0, 0.0, 0.0, 0.0, 0.0, 0.0, 0.0, 0.0, 0.0, 0.0, 0.0, 0.0, 0.0, 0.0, 0.0, 0.0, 0.0, 0.0, 0.0, 0.0, 0.0, 0.0, 0.0, 0.0, 0.0, 0.0, 0.0, 0.0, 0.0, 0.0, 0.0, 0.0, 0.0, 0.0, 0.0, 0.0, 0.0, 0.0, 0.0, 0.0, 0.0, 0.0, 0.0, 0.0, 0.0, 0.0, 0.0, 0.0, 0.0, 0.0, 0.0, 0.0, 0.0, 0.0, 0.0, 0.0, 0.0, 0.0, 0.0, 0.0, 0.0, 0.0, 0.0, 0.0, 0.0, 0.0, 0.0]
25 [0.0, 0.0, 0.0, 0.0, 0.0, 0.0, 0.0, 0.0, 0.0, 0.0, 0.0, 0.0, 0.0, 0.0, 0.0, 0.0, 0.0, 0.0, 0.0, 0.0, 0.0, 0.0, 0.0, 0.0, 0.0, 0.0, 0.0, 0.0, 0.0, 0.0, 0.0, 0.0, 0.0, 0.0, 0.0, 0.0, 0.0, 0.0, 0.0, 0.0, 0.0, 0.0, 0.0, 0.0, 0.0, 0.0, 0.0, 0.0, 0.0, 0.0, 0.0, 0.0, 0.0, 0.0, 0.0, 0.0, 0.0, 0.0, 0.0, 0.0, 0.0, 0.0, 0.0, 0.0, 0.0, 0.0, 0.0, 0.0, 0.0, 0.0, 0.0, 0.0, 0.0, 0.0, 0.0, 0.0, 0.0, 0.0, 0.0, 0.0, 0.0, 0.0, 0.0, 0.0, 0.0, 0.0, 0.0, 0.0, 0.0, 0.0, 0.0, 0.0, 0.0, 0.0, 0.0, 0.0, 0.0, 0.0, 0.0, 0.0, 0.0, 0.0, 0.0, 0.0, 0.0, 0.0, 0.0, 0.0, 0.0, 0.0, 0.0, 0.0, 0.0, 0.0, 0.0, 0.0, 0.0, 0.0, 0.0, 0.0, 0.0, 0.0, 0.0, 0.0, 0.0, 0.0, 0.0, 0.0, 0.0, 0.0, 0.0, 0.0, 0.0, 0.0, 0.0, 0.0, 0.0, 0.0, 0.0, 0.0, 0.0, 0.0, 0.0, 0.0, 0.0, 0.0, 0.0, 0.0, 0.0, 0.0, 0.0, 0.0, 0.0, 0.0, 0.0, 0.0, 0.0, 0.0, 0.0, 0.0, 0.0, 0.0, 0.0, 0.0, 0.0, 0.0, 0.0, 0.0, 0.0, 0.0, 0.0, 0.0, 0.0, 0.0, 0.0, 0.0, 0.0, 0.0, 0.0, 0.0, 0.0, 0.0]
26 [0.0, 0.0, 0.0, 0.0, 0.0, 0.0, 0.0, 0.0, 0.0, 0.0, 0.0, 0.0, 0.0, 0.0, 0.0, 0.0, 0.0, 0.0, 0.0, 0.0, 0.0, 0.0, 0.0, 0.0, 0.0, 0.0, 0.0, 0.0, 0.0, 0.0, 0.0, 0.0, 0.0, 0.0, 0.0, 0.0, 0.0, 0.0, 0.0, 0.0, 0.0, 0.0, 0.0, 0.0, 0.0, 0.0, 0.0, 0.0, 0.0, 0.0, 0.0, 0.0, 0.0, 0.0, 0.0, 0.0, 0.0, 0.0, 0.0, 0.0, 0.0, 0.0, 0.0, 0.0, 0.0, 0.0, 0.0, 0.0, 0.0, 0.0, 0.0, 0.0, 0.0, 0.0, 0.0, 0.0, 0.0, 0.0, 0.0, 0.0, 0.0, 0.0, 0.0, 0.0, 0.0, 0.0, 0.0, 0.0, 0.0, 0.0, 0.0, 0.0, 0.0, 0.0, 0.0, 0.0, 0.0, 0.0, 0.0, 0.0, 0.0, 0.0, 0.0, 0.0, 0.0, 0.0, 0.0, 0.0, 0.0, 0.0, 0.0, 0.0, 0.0, 0.0, 0.0, 0.0, 0.0, 0.0, 0.0, 0.0, 0.0, 0.0, 0.0, 0.0, 0.0, 0.0, 0.0, 0.0, 0.0, 0.0, 0.0, 0.0, 0.0, 0.0, 0.0, 0.0, 0.0, 0.0, 0.0, 0.0, 0.0, 0.0, 0.0, 0.0, 0.0, 0.0, 0.0, 0.0, 0.0, 0.0, 0.0, 0.0, 0.0, 0.0, 0.0, 0.0, 0.0, 0.0, 0.0, 0.0, 0.0, 0.0, 0.0, 0.0, 0.0, 0.0, 0.0, 0.0, 0.0, 0.0, 0.0, 0.0, 0.0, 0.0, 0.0, 0.0, 0.0, 0.0, 0.0, 0.0, 0.0, 0.0]
27 [0.0, 0.0, 0.0, 0.0, 0.0, 0.0, 0.0, 0.0, 0.0, 0.0, 0.0, 0.0, 0.0, 0.0, 0.0, 0.0, 0.0, 0.0, 0.0, 0.0, 0.0, 0.0, 0.0, 0.0, 0.0, 0.0, 0.0, 0.0, 0.0, 0.0, 0.0, 0.0, 0.0, 0.0, 0.0, 0.0, 0.0, 0.0, 0.0, 0.0, 0.0, 0.0, 0.0, 0.0, 0.0, 0.0, 0.0, 0.0, 0.0, 0.0, 0.0, 0.0, 0.0, 0.0, 0.0, 0.0, 0.0, 0.0, 0.0, 0.0, 0.0, 0.0, 0.0, 0.0, 0.0, 0.0, 0.0, 0.0, 0.0, 0.0, 0.0, 0.0, 0.0, 0.0, 0.0, 0.0, 0.0, 0.0, 0.0, 0.0, 0.0, 0.0, 0.0, 0.0, 0.0, 0.0, 0.0, 0.0, 0.0, 0.0, 0.0, 0.0, 0.0, 0.0, 0.0, 0.0, 0.0, 0.0, 0.0, 0.0, 0.0, 0.0, 0.0, 0.0, 0.0, 0.0, 0.0, 0.0, 0.0, 0.0, 0.0, 0.0, 0.0, 0.0, 0.0, 0.0, 0.0, 0.0, 0.0, 0.0, 0.0, 0.0, 0.0, 0.0, 0.0, 0.0, 0.0, 0.0, 0.0, 0.0, 0.0, 0.0, 0.0, 0.0, 0.0, 0.0, 0.0, 0.0, 0.0, 0.0, 0.0, 0.0, 0.0, 0.0, 0.0, 0.0, 0.0, 0.0, 0.0, 0.0, 0.0, 0.0, 0.0, 0.0, 0.0, 0.0, 0.0, 0.0, 0.0, 0.0, 0.0, 0.0, 0.0, 0.0, 0.0, 0.0, 0.0, 0.0, 0.0, 0.0, 0.0, 0.0, 0.0, 0.0, 0.0, 0.0, 0.0, 0.0, 0.0, 0.0, 0.0, 0.0]
28 [0.0, 0.0, 0.0, 0.0, 0.0, 0.0, 0.0, 0.0, 0.0, 0.0, 0.0, 0.0, 0.0, 0.0, 0.0, 0.0, 0.0, 0.0, 0.0, 0.0, 0.0, 0.0, 0.0, 0.0, 0.0, 0.0, 0.0, 0.0, 0.0, 0.0, 0.0, 0.0, 0.0, 0.0, 0.0, 0.0, 0.0, 0.0, 0.0, 0.0, 0.0, 0.0, 0.0, 0.0, 0.0, 0.0, 0.0, 0.0, 0.0, 0.0, 0.0, 0.0, 0.0, 0.0, 0.0, 0.0, 0.0, 0.0, 0.0, 0.0, 0.0, 0.0, 0.0, 0.0, 0.0, 0.0, 0.0, 0.0, 0.0, 0.0, 0.0, 0.0, 0.0, 0.0, 0.0, 0.0, 0.0, 0.0, 0.0, 0.0, 0.0, 0.0, 0.0, 0.0, 0.0, 0.0, 0.0, 0.0, 0.0, 0.0, 0.0, 0.0, 0.0, 0.0, 0.0, 0.0, 0.0, 0.0, 0.0, 0.0, 0.0, 0.0, 0.0, 0.0, 0.0, 0.0, 0.0, 0.0, 0.0, 0.0, 0.0, 0.0, 0.0, 0.0, 0.0, 0.0, 0.0, 0.0, 0.0, 0.0, 0.0, 0.0, 0.0, 0.0, 0.0, 0.0, 0.0, 0.0, 0.0, 0.0, 0.0, 0.0, 0.0, 0.0, 0.0, 0.0, 0.0, 0.0, 0.0, 0.0, 0.0, 0.0, 0.0, 0.0, 0.0, 0.0, 0.0, 0.0, 0.0, 0.0, 0.0, 0.0, 0.0, 0.0, 0.0, 0.0, 0.0, 0.0, 0.0, 0.0, 0.0, 0.0, 0.0, 0.0, 0.0, 0.0, 0.0, 0.0, 0.0, 0.0, 0.0, 0.0, 0.0, 0.0, 0.0, 0.0, 0.0, 0.0, 0.0, 0.0, 0.0, 0.0]
29 [0.0, 0.0, 0.0, 0.0, 0.0, 0.0, 0.0, 0.0, 0.0, 0.0, 0.0, 0.0, 0.0, 0.0, 0.0, 0.0, 0.0, 0.0, 0.0, 0.0, 0.0, 0.0, 0.0, 0.0, 0.0, 0.0, 0.0, 0.0, 0.0, 0.0, 0.0, 0.0, 0.0, 0.0, 0.0, 0.0, 0.0, 0.0, 0.0, 0.0, 0.0, 0.0, 0.0, 0.0, 0.0, 0.0, 0.0, 0.0, 0.0, 0.0, 0.0, 0.0, 0.0, 0.0, 0.0, 0.0, 0.0, 0.0, 0.0, 0.0, 0.0, 0.0, 0.0, 0.0, 0.0, 0.0, 0.0, 0.0, 0.0, 0.0, 0.0, 0.0, 0.0, 0.0, 0.0, 0.0, 0.0, 0.0, 0.0, 0.0, 0.0, 0.0, 0.0, 0.0, 0.0, 0.0, 0.0, 0.0, 0.0, 0.0, 0.0, 0.0, 0.0, 0.0, 0.0, 0.0, 0.0, 0.0, 0.0, 0.0, 0.0, 0.0, 0.0, 0.0, 0.0, 0.0, 0.0, 0.0, 0.0, 0.0, 0.0, 0.0, 0.0, 0.0, 0.0, 0.0, 0.0, 0.0, 0.0, 0.0, 0.0, 0.0, 0.0, 0.0, 0.0, 0.0, 0.0, 0.0, 0.0, 0.0, 0.0, 0.0, 0.0, 0.0, 0.0, 0.0, 0.0, 0.0, 0.0, 0.0, 0.0, 0.0, 0.0, 0.0, 0.0, 0.0, 0.0, 0.0, 0.0, 0.0, 0.0, 0.0, 0.0, 0.0, 0.0, 0.0, 0.0, 0.0, 0.0, 0.0, 0.0, 0.0, 0.0, 0.0, 0.0, 0.0, 0.0, 0.0, 0.0, 0.0, 0.0, 0.0, 0.0, 0.0, 0.0, 0.0, 0.0, 0.0, 0.0, 0.0, 0.0, 0.0]
30 [0.016285721, 0.0132857235, 0.009285715, 0.0062857177, 0.0032857207, 2.8571172E-4, 0.0037142844, 0.0067142816, 0.010714278, 0.014714274, 0.017714271, 0.02171429, 0.025714288, 0.025714288, 0.025714288, 0.025714288, 0.025714288, 0.025714288, 0.025714288, 0.025714288, 0.04128572, 0.04128572, 0.04128572, 0.04128572, 0.04128572, 0.04128572, 0.04128572, 0.04128572, 0.04128572, 0.04128572, 0.04128572, 0.038285725, 0.035285715, 0.032285716, 0.028285721, 0.025285712, 0.021285716, 0.025714288, 0.025714288, 0.025714288, 0.025714288, 0.025714288, 0.025714288, 0.025714288, 0.025714288, 0.025714288, 0.025714288, 0.025714288, 0.025714288, 0.025714288, 0.025714288, 0.025714288, 0.025714288, 0.025714288, 0.025714288, 0.025714288, 0.025714288, 0.025714288, 0.025714288, 0.025714288, 0.025714288, 0.025714288, 0.025714288, 0.025714288, 0.025714288, 0.025714288, 0.025714288, 0.025714288, 0.025714288, 0.025714288, 0.025714288, 0.025714288, 0.025714288, 0.025714288, 0.025714288, 0.025714288, 0.025714288, 0.025714288, 0.025714288, 0.08328572, 0.08328572, 0.08328572, 0.08328572, 0.08328572, 0.08328572, 0.08328572, 0.08328572, 0.08328572, 0.08328572, 0.08328572, 0.08328572, 0.08328572, 0.08328572, 0.08328572, 0.08328572, 0.08328572, 0.08328572, 0.08328572, 0.08328572, 0.025714288, 0.025714288, 0.025714288, 0.025714288, 0.025714288, 0.025714288, 0.025714288, 0.025714288, 0.025714288, 0.025714288, 0.025714288, 0.025714288, 0.025714288, 0.025714288, 0.025714288, 0.025714288, 0.025714288, 0.025714288, 0.025714288, 0.025714288, 0.025714288, 0.025714288, 0.025714288, 0.025714288, 0.025714288, 0.025714288, 0.025714288, 0.025714288, 0.025714288, 0.025714288, 0.025714288, 0.025714288, 0.025714288, 0.025714288, 0.025714288, 0.025714288, 0.025714288, 0.025714288, 0.025714288, 0.025714288, 0.025714288, 0.025714288, 0.025714288, 0.025714288, 0.025714288, 0.025714288, 0.025714288, 0.025714288, 0.025714288, 0.025714288, 0.025714288, 0.025714288, 0.025714288, 0.025714288, 0.025714288, 0.025714288, 0.025714288, 0.025714288, 0.025714288, 0.025714288, 0.025714288, 0.025714288, 0.025714288, 0.025714288, 0.025714288, 0.025714288, 0.025714288, 0.025714288, 0.025714288, 0.04328572, 0.046285715, 0.048285715, 0.05128572, 0.05328572, 0.056285717, 0.058285717, 0.06128571, 0.06128571, 0.06128571, 0.06128571, 0.06128571, 0.06128571, 0.06128571]
31 [0.016285721, 0.0132857235, 0.009285715, 0.0062857177, 0.0032857207, 2.8571172E-4, 0.0037142844, 0.0067142816, 0.010714278, 0.014714274, 0.017714271, 0.02171429, 0.025714288, 0.025714288, 0.025714288, 0.025714288, 0.025714288, 0.025714288, 0.025714288, 0.025714288, 0.04128572, 0.04128572, 0.04128572, 0.04128572, 0.04128572, 0.04128572, 0.04128572, 0.04128572, 0.04128572, 0.04128572, 0.04128572, 0.038285725, 0.035285715, 0.032285716, 0.028285721, 0.025285712, 0.021285716, 0.025714288, 0.025714288, 0.025714288, 0.025714288, 0.025714288, 0.025714288, 0.025714288, 0.025714288, 0.025714288, 0.025714288, 0.025714288, 0.025714288, 0.025714288, 0.025714288, 0.025714288, 0.025714288, 0.025714288, 0.025714288, 0.025714288, 0.025714288, 0.025714288, 0.025714288, 0.025714288, 0.025714288, 0.025714288, 0.025714288, 0.025714288, 0.025714288, 0.025714288, 0.025714288, 0.025714288, 0.025714288, 0.025714288, 0.025714288, 0.025714288, 0.025714288, 0.025714288, 0.025714288, 0.025714288, 0.025714288, 0.025714288, 0.025714288, 0.08328572, 0.08328572, 0.08328572, 0.08328572, 0.08328572, 0.08328572, 0.08328572, 0.08328572, 0.08328572, 0.08328572, 0.08328572, 0.08328572, 0.08328572, 0.08328572, 0.08328572, 0.08328572, 0.08328572, 0.08328572, 0.08328572, 0.08328572, 0.025714288, 0.025714288, 0.025714288, 0.025714288, 0.025714288, 0.025714288, 0.025714288, 0.025714288, 0.025714288, 0.025714288, 0.025714288, 0.025714288, 0.025714288, 0.025714288, 0.025714288, 0.025714288, 0.025714288, 0.025714288, 0.025714288, 0.025714288, 0.025714288, 0.025714288, 0.025714288, 0.025714288, 0.025714288, 0.025714288, 0.025714288, 0.025714288, 0.025714288, 0.025714288, 0.025714288, 0.025714288, 0.025714288, 0.025714288, 0.025714288, 0.025714288, 0.025714288, 0.025714288, 0.025714288, 0.025714288, 0.025714288, 0.025714288, 0.025714288, 0.025714288, 0.025714288, 0.025714288, 0.025714288, 0.025714288, 0.025714288, 0.025714288, 0.025714288, 0.025714288, 0.025714288, 0.025714288, 0.025714288, 0.025714288, 0.025714288, 0.025714288, 0.025714288, 0.025714288, 0.025714288, 0.025714288, 0.025714288, 0.025714288, 0.025714288, 0.025714288, 0.025714288, 0.025714288, 0.025714288, 0.04328572, 0.046285715, 0.048285715, 0.05128572, 0.05328572, 0.056285717, 0.058285717, 0.06128571, 0.06128571, 0.06128571, 0.06128571, 0.06128571, 0.06128571, 0.06128571]
32 [0.016692312, 0.013692317, 0.0096923085, 0.006692311, 0.0036923138, 6.9230475E-4, 0.0033076915, 0.0063076885, 0.010307685, 0.014307681, 0.017307678, 0.021307698, 0.025307694, 0.026307693, 0.026307693, 0.026307693, 0.026307693, 0.026307693, 0.026307693, 0.026307693, 0.041692313, 0.041692313, 0.041692313, 0.041692313, 0.041692313, 0.041692313, 0.041692313, 0.041692313, 0.041692313, 0.041692313, 0.041692313, 0.038692318, 0.035692308, 0.03269231, 0.028692314, 0.025692305, 0.021692308, 0.026307693, 0.026307693, 0.026307693, 0.026307693, 0.026307693, 0.026307693, 0.026307693, 0.026307693, 0.026307693, 0.026307693, 0.026307693, 0.026307693, 0.026307693, 0.026307693, 0.026307693, 0.026307693, 0.026307693, 0.026307693, 0.026307693, 0.026307693, 0.026307693, 0.026307693, 0.026307693, 0.026307693, 0.026307693, 0.026307693, 0.026307693, 0.026307693, 0.026307693, 0.026307693, 0.026307693, 0.026307693, 0.026307693, 0.026307693, 0.026307693, 0.026307693, 0.026307693, 0.026307693, 0.026307693, 0.026307693, 0.026307693, 0.026307693, 0.08369231, 0.08369231, 0.08369231, 0.08369231, 0.08369231, 0.08369231, 0.08369231, 0.08369231, 0.08369231, 0.08369231, 0.08369231, 0.08369231, 0.08369231, 0.08369231, 0.08369231, 0.08369231, 0.08369231, 0.08369231, 0.08369231, 0.08369231, 0.026307693, 0.026307693, 0.026307693, 0.026307693, 0.026307693, 0.026307693, 0.026307693, 0.026307693, 0.026307693, 0.026307693, 0.026307693, 0.026307693, 0.026307693, 0.026307693, 0.026307693, 0.026307693, 0.026307693, 0.026307693, 0.026307693, 0.026307693, 0.026307693, 0.026307693, 0.026307693, 0.026307693, 0.026307693, 0.025307694, 0.025307694, 0.025307694, 0.025307694, 0.025307694, 0.025307694, 0.025307694, 0.025307694, 0.025307694, 0.025307694, 0.025307694, 0.025307694, 0.025307694, 0.025307694, 0.025307694, 0.025307694, 0.025307694, 0.025307694, 0.025307694, 0.025307694, 0.025307694, 0.025307694, 0.025307694, 0.025307694, 0.025307694, 0.025307694, 0.025307694, 0.025307694, 0.025307694, 0.025307694, 0.025307694, 0.025307694, 0.025307694, 0.025307694, 0.025307694, 0.025307694, 0.025307694, 0.025307694, 0.025307694, 0.025307694, 0.025307694, 0.025307694, 0.025307694, 0.025307694, 0.043692313, 0.046692308, 0.04869231, 0.051692314, 0.053692315, 0.05669231, 0.05869231, 0.061692305, 0.061692305, 0.061692305, 0.061692305, 0.061692305, 0.061692305, 0.061692305]
33 [0.016554952, 0.013554954, 0.009554946, 0.0065549486, 0.0035549514, 5.5494223E-4, 0.003445054, 0.006445051, 0.010445047, 0.014445043, 0.01744504, 0.02144506, 0.025445057, 0.026445055, 0.026445055, 0.026445055, 0.026445055, 0.026445055, 0.026445055, 0.026445055, 0.04155495, 0.04155495, 0.04155495, 0.04155495, 0.04155495, 0.04155495, 0.04155495, 0.04155495, 0.04155495, 0.04155495, 0.04155495, 0.038554955, 0.035554945, 0.032554947, 0.028554952, 0.025554942, 0.021554947, 0.026445055, 0.026445055, 0.026445055, 0.026445055, 0.026445055, 0.026445055, 0.026445055, 0.026445055, 0.026445055, 0.026445055, 0.026445055, 0.026445055, 0.026445055, 0.026445055, 0.026445055, 0.026445055, 0.026445055, 0.026445055, 0.026445055, 0.026445055, 0.026445055, 0.026445055, 0.026445055, 0.026445055, 0.026445055, 0.026445055, 0.026445055, 0.026445055, 0.026445055, 0.026445055, 0.026445055, 0.026445055, 0.026445055, 0.026445055, 0.026445055, 0.026445055, 0.026445055, 0.026445055, 0.026445055, 0.026445055, 0.026445055, 0.026445055, 0.083554946, 0.083554946, 0.083554946, 0.083554946, 0.083554946, 0.083554946, 0.083554946, 0.083554946, 0.083554946, 0.083554946, 0.083554946, 0.083554946, 0.083554946, 0.083554946, 0.083554946, 0.083554946, 0.083554946, 0.083554946, 0.083554946, 0.083554946, 0.025445057, 0.025445057, 0.025445057, 0.025445057, 0.025445057, 0.025445057, 0.025445057, 0.025445057, 0.025445057, 0.025445057, 0.025445057, 0.025445057, 0.025445057, 0.025445057, 0.025445057, 0.025445057, 0.025445057, 0.025445057, 0.025445057, 0.025445057, 0.025445057, 0.025445057, 0.025445057, 0.025445057, 0.025445057, 0.025445057, 0.025445057, 0.025445057, 0.025445057, 0.025445057, 0.025445057, 0.025445057, 0.025445057, 0.025445057, 0.025445057, 0.025445057, 0.025445057, 0.025445057, 0.025445057, 0.025445057, 0.025445057, 0.025445057, 0.025445057, 0.025445057, 0.025445057, 0.025445057, 0.025445057, 0.025445057, 0.025445057, 0.025445057, 0.025445057, 0.025445057, 0.025445057, 0.025445057, 0.025445057, 0.025445057, 0.025445057, 0.025445057, 0.025445057, 0.025445057, 0.025445057, 0.025445057, 0.025445057, 0.025445057, 0.025445057, 0.025445057, 0.025445057, 0.025445057, 0.025445057, 0.04355495, 0.046554945, 0.048554946, 0.05155495, 0.053554952, 0.056554947, 0.058554947, 0.061554942, 0.061554942, 0.061554942, 0.061554942, 0.061554942, 0.061554942, 0.061554942]
34 [0.016554952, 0.013554954, 0.009554946, 0.0065549486, 0.0035549514, 5.5494223E-4, 0.003445054, 0.006445051, 0.010445047, 0.014445043, 0.01744504, 0.02144506, 0.025445057, 0.026445055, 0.026445055, 0.026445055, 0.026445055, 0.026445055, 0.026445055, 0.026445055, 0.04155495, 0.04155495, 0.04155495, 0.04155495, 0.04155495, 0.04155495, 0.04155495, 0.04155495, 0.04155495, 0.04155495, 0.04155495, 0.038554955, 0.035554945, 0.032554947, 0.028554952, 0.025554942, 0.021554947, 0.026445055, 0.026445055, 0.026445055, 0.026445055, 0.026445055, 0.026445055, 0.026445055, 0.026445055, 0.026445055, 0.026445055, 0.026445055, 0.026445055, 0.026445055, 0.026445055, 0.026445055, 0.026445055, 0.026445055, 0.026445055, 0.026445055, 0.026445055, 0.026445055, 0.026445055, 0.026445055, 0.026445055, 0.026445055, 0.026445055, 0.026445055, 0.026445055, 0.026445055, 0.026445055, 0.026445055, 0.026445055, 0.026445055, 0.026445055, 0.026445055, 0.026445055, 0.026445055, 0.026445055, 0.026445055, 0.026445055, 0.026445055, 0.026445055, 0.083554946, 0.083554946, 0.083554946, 0.083554946, 0.083554946, 0.083554946, 0.083554946, 0.083554946, 0.083554946, 0.083554946, 0.083554946, 0.083554946, 0.083554946, 0.083554946, 0.083554946, 0.083554946, 0.083554946, 0.083554946, 0.083554946, 0.083554946, 0.025445057, 0.025445057, 0.025445057, 0.025445057, 0.025445057, 0.025445057, 0.025445057, 0.025445057, 0.025445057, 0.025445057, 0.025445057, 0.025445057, 0.025445057, 0.025445057, 0.025445057, 0.025445057, 0.025445057, 0.025445057, 0.025445057, 0.025445057, 0.025445057, 0.025445057, 0.025445057, 0.025445057, 0.025445057, 0.025445057, 0.025445057, 0.025445057, 0.025445057, 0.025445057, 0.025445057, 0.025445057, 0.025445057, 0.025445057, 0.025445057, 0.025445057, 0.025445057, 0.025445057, 0.025445057, 0.025445057, 0.025445057, 0.025445057, 0.025445057, 0.025445057, 0.025445057, 0.025445057, 0.025445057, 0.025445057, 0.025445057, 0.025445057, 0.025445057, 0.025445057, 0.025445057, 0.025445057, 0.025445057, 0.025445057, 0.025445057, 0.025445057, 0.025445057, 0.025445057, 0.025445057, 0.025445057, 0.025445057, 0.025445057, 0.025445057, 0.025445057, 0.025445057, 0.025445057, 0.025445057, 0.04355495, 0.046554945, 0.048554946, 0.05155495, 0.053554952, 0.056554947, 0.058554947, 0.061554942, 0.061554942, 0.061554942, 0.061554942, 0.061554942, 0.061554942, 0.061554942]
35 [0.016554952, 0.013554954, 0.009554946, 0.0065549486, 0.0035549514, 5.5494223E-4, 0.003445054, 0.006445051, 0.010445047, 0.014445043, 0.01744504, 0.02144506, 0.025445057, 0.026445055, 0.026445055, 0.026445055, 0.026445055, 0.026445055, 0.026445055, 0.026445055, 0.04155495, 0.04155495, 0.04155495, 0.04155495, 0.04155495, 0.04155495, 0.04155495, 0.04155495, 0.04155495, 0.04155495, 0.04155495, 0.038554955, 0.035554945, 0.032554947, 0.028554952, 0.025554942, 0.021554947, 0.026445055, 0.026445055, 0.026445055, 0.026445055, 0.026445055, 0.026445055, 0.026445055, 0.026445055, 0.026445055, 0.026445055, 0.026445055, 0.026445055, 0.026445055, 0.026445055, 0.026445055, 0.026445055, 0.026445055, 0.026445055, 0.026445055, 0.026445055, 0.026445055, 0.026445055, 0.026445055, 0.026445055, 0.026445055, 0.026445055, 0.026445055, 0.026445055, 0.026445055, 0.026445055, 0.026445055, 0.026445055, 0.026445055, 0.026445055, 0.026445055, 0.026445055, 0.026445055, 0.026445055, 0.026445055, 0.026445055, 0.026445055, 0.026445055, 0.083554946, 0.083554946, 0.083554946, 0.083554946, 0.083554946, 0.083554946, 0.083554946, 0.083554946, 0.083554946, 0.083554946, 0.083554946, 0.083554946, 0.083554946, 0.083554946, 0.083554946, 0.083554946, 0.083554946, 0.083554946, 0.083554946, 0.083554946, 0.025445057, 0.025445057, 0.025445057, 0.025445057, 0.025445057, 0.025445057, 0.025445057, 0.025445057, 0.025445057, 0.025445057, 0.025445057, 0.025445057, 0.025445057, 0.025445057, 0.025445057, 0.025445057, 0.025445057, 0.025445057, 0.025445057, 0.025445057, 0.025445057, 0.025445057, 0.025445057, 0.025445057, 0.025445057, 0.025445057, 0.025445057, 0.025445057, 0.025445057, 0.025445057, 0.025445057, 0.025445057, 0.025445057, 0.025445057, 0.025445057, 0.025445057, 0.025445057, 0.025445057, 0.025445057, 0.025445057, 0.025445057, 0.025445057, 0.025445057, 0.025445057, 0.025445057, 0.025445057, 0.025445057, 0.025445057, 0.025445057, 0.025445057, 0.025445057, 0.025445057, 0.025445057, 0.025445057, 0.025445057, 0.025445057, 0.025445057, 0.025445057, 0.025445057, 0.025445057, 0.025445057, 0.025445057, 0.025445057, 0.025445057, 0.025445057, 0.025445057, 0.025445057, 0.025445057, 0.025445057, 0.04355495, 0.046554945, 0.048554946, 0.05155495, 0.053554952, 0.056554947, 0.058554947, 0.061554942, 0.061554942, 0.061554942, 0.061554942, 0.061554942, 0.061554942, 0.061554942]
36 [0.018439565, 0.015439567, 0.012439558, 0.0094395615, 0.005439565, 0.002439568, 5.604411E-4, 0.0045604375, 0.0075604343, 0.011560431, 0.0145604275, 0.018560449, 0.022560444, 0.02656044, 0.02856044, 0.02856044, 0.027560439, 0.027560439, 0.027560439, 0.027560439, 0.027560439, 0.027560439, 0.03943957, 0.03943957, 0.04043957, 0.04043957, 0.04043957, 0.04043957, 0.04043957, 0.04043957, 0.04043957, 0.04043957, 0.038439568, 0.035439562, 0.032439563, 0.029439567, 0.025439559, 0.02243956, 0.027560439, 0.027560439, 0.027560439, 0.027560439, 0.027560439, 0.027560439, 0.027560439, 0.027560439, 0.02656044, 0.02656044, 0.02656044, 0.02656044, 0.02656044, 0.02656044, 0.02656044, 0.02656044, 0.02656044, 0.02656044, 0.02656044, 0.02656044, 0.02656044, 0.02656044, 0.02656044, 0.02656044, 0.02656044, 0.02656044, 0.02656044, 0.02656044, 0.02656044, 0.02656044, 0.02656044, 0.02656044, 0.02656044, 0.02656044, 0.02656044, 0.02656044, 0.02656044, 0.02656044, 0.02656044, 0.02656044, 0.02656044, 0.02656044, 0.08343956, 0.08343956, 0.08343956, 0.08343956, 0.08343956, 0.08343956, 0.08343956, 0.08343956, 0.08343956, 0.08343956, 0.08343956, 0.08343956, 0.08343956, 0.08343956, 0.08343956, 0.08343956, 0.08343956, 0.08343956, 0.08343956, 0.08343956, 0.08343956, 0.02556044, 0.02556044, 0.02556044, 0.02556044, 0.02556044, 0.02556044, 0.02556044, 0.02556044, 0.02556044, 0.02556044, 0.02556044, 0.02556044, 0.02556044, 0.02556044, 0.02556044, 0.02556044, 0.02556044, 0.02556044, 0.02556044, 0.02556044, 0.02556044, 0.02556044, 0.02556044, 0.02556044, 0.024560442, 0.024560442, 0.024560442, 0.024560442, 0.024560442, 0.024560442, 0.024560442, 0.024560442, 0.024560442, 0.024560442, 0.024560442, 0.024560442, 0.024560442, 0.024560442, 0.024560442, 0.024560442, 0.024560442, 0.024560442, 0.024560442, 0.024560442, 0.024560442, 0.024560442, 0.024560442, 0.024560442, 0.024560442, 0.024560442, 0.024560442, 0.024560442, 0.024560442, 0.024560442, 0.024560442, 0.024560442, 0.024560442, 0.024560442, 0.023560444, 0.023560444, 0.023560444, 0.023560444, 0.023560444, 0.023560444, 0.023560444, 0.023560444, 0.023560444, 0.023560444, 0.043439563, 0.046439562, 0.04943956, 0.05143957, 0.054439567, 0.056439564, 0.059439562, 0.06143956, 0.062439557, 0.062439557, 0.062439557, 0.062439557, 0.062439557]
37 [0.018439565, 0.015439567, 0.012439558, 0.0094395615, 0.005439565, 0.002439568, 5.604411E-4, 0.0045604375, 0.0075604343, 0.011560431, 0.0145604275, 0.018560449, 0.022560444, 0.02656044, 0.02856044, 0.02856044, 0.027560439, 0.027560439, 0.027560439, 0.027560439, 0.027560439, 0.027560439, 0.03943957, 0.03943957, 0.04043957, 0.04043957, 0.04043957, 0.04043957, 0.04043957, 0.04043957, 0.04043957, 0.04043957, 0.038439568, 0.035439562, 0.032439563, 0.029439567, 0.025439559, 0.02243956, 0.027560439, 0.027560439, 0.027560439, 0.027560439, 0.027560439, 0.027560439, 0.027560439, 0.027560439, 0.02656044, 0.02656044, 0.02656044, 0.02656044, 0.02656044, 0.02656044, 0.02656044, 0.02656044, 0.02656044, 0.02656044, 0.02656044, 0.02656044, 0.02656044, 0.02656044, 0.02656044, 0.02656044, 0.02656044, 0.02656044, 0.02656044, 0.02656044, 0.02656044, 0.02656044, 0.02656044, 0.02656044, 0.02656044, 0.02656044, 0.02656044, 0.02656044, 0.02656044, 0.02656044, 0.02656044, 0.02656044, 0.02656044, 0.02656044, 0.08343956, 0.08343956, 0.08343956, 0.08343956, 0.08343956, 0.08343956, 0.08343956, 0.08343956, 0.08343956, 0.08343956, 0.08343956, 0.08343956, 0.08343956, 0.08343956, 0.08343956, 0.08343956, 0.08343956, 0.08343956, 0.08343956, 0.08343956, 0.08343956, 0.02556044, 0.02556044, 0.02556044, 0.02556044, 0.02556044, 0.02556044, 0.02556044, 0.02556044, 0.02556044, 0.02556044, 0.02556044, 0.02556044, 0.02556044, 0.02556044, 0.02556044, 0.02556044, 0.02556044, 0.02556044, 0.02556044, 0.02556044, 0.02556044, 0.02556044, 0.02556044, 0.02556044, 0.024560442, 0.024560442, 0.024560442, 0.024560442, 0.024560442, 0.024560442, 0.024560442, 0.024560442, 0.024560442, 0.024560442, 0.024560442, 0.024560442, 0.024560442, 0.024560442, 0.024560442, 0.024560442, 0.024560442, 0.024560442, 0.024560442, 0.024560442, 0.024560442, 0.024560442, 0.024560442, 0.024560442, 0.024560442, 0.024560442, 0.024560442, 0.024560442, 0.024560442, 0.024560442, 0.024560442, 0.024560442, 0.024560442, 0.024560442, 0.023560444, 0.023560444, 0.023560444, 0.023560444, 0.023560444, 0.023560444, 0.023560444, 0.023560444, 0.023560444, 0.023560444, 0.043439563, 0.046439562, 0.04943956, 0.05143957, 0.054439567, 0.056439564, 0.059439562, 0.06143956, 0.062439557, 0.062439557, 0.062439557, 0.062439557, 0.062439557]
38 [0.02248352, 0.019483523, 0.016483514, 0.013483517, 0.009483521, 0.006483524, 0.0034835148, 5.1648135E-4, 0.0035164785, 0.0075164745, 0.010516472, 0.014516491, 0.018516488, 0.022516483, 0.024516482, 0.024516482, 0.023516484, 0.023516484, 0.023516484, 0.023516484, 0.023516484, 0.023516484, 0.043483526, 0.043483526, 0.044483524, 0.044483524, 0.044483524, 0.044483524, 0.044483524, 0.044483524, 0.044483524, 0.044483524, 0.042483527, 0.039483517, 0.03648352, 0.033483524, 0.029483514, 0.026483517, 0.023516484, 0.023516484, 0.023516484, 0.023516484, 0.023516484, 0.023516484, 0.023516484, 0.023516484, 0.022516483, 0.022516483, 0.022516483, 0.022516483, 0.022516483, 0.022516483, 0.022516483, 0.022516483, 0.022516483, 0.022516483, 0.022516483, 0.022516483, 0.022516483, 0.022516483, 0.022516483, 0.022516483, 0.022516483, 0.022516483, 0.022516483, 0.022516483, 0.022516483, 0.022516483, 0.022516483, 0.022516483, 0.022516483, 0.022516483, 0.022516483, 0.022516483, 0.022516483, 0.022516483, 0.022516483, 0.022516483, 0.022516483, 0.022516483, 0.08748352, 0.08748352, 0.08748352, 0.08748352, 0.08748352, 0.08748352, 0.08748352, 0.08748352, 0.08748352, 0.08748352, 0.08748352, 0.08748352, 0.08748352, 0.08748352, 0.08748352, 0.08748352, 0.08748352, 0.08748352, 0.08748352, 0.08748352, 0.08748352, 0.021516485, 0.021516485, 0.021516485, 0.021516485, 0.021516485, 0.021516485, 0.021516485, 0.021516485, 0.021516485, 0.021516485, 0.021516485, 0.021516485, 0.021516485, 0.021516485, 0.021516485, 0.021516485, 0.021516485, 0.021516485, 0.021516485, 0.021516485, 0.021516485, 0.021516485, 0.021516485, 0.021516485, 0.020516487, 0.020516487, 0.020516487, 0.020516487, 0.020516487, 0.020516487, 0.020516487, 0.020516487, 0.020516487, 0.020516487, 0.020516487, 0.020516487, 0.020516487, 0.020516487, 0.020516487, 0.020516487, 0.020516487, 0.020516487, 0.020516487, 0.020516487, 0.020516487, 0.020516487, 0.020516487, 0.020516487, 0.020516487, 0.020516487, 0.020516487, 0.020516487, 0.020516487, 0.020516487, 0.020516487, 0.020516487, 0.020516487, 0.020516487, 0.019516487, 0.019516487, 0.019516487, 0.019516487, 0.019516487, 0.019516487, 0.019516487, 0.019516487, 0.019516487, 0.019516487, 0.047483522, 0.050483517, 0.053483516, 0.055483524, 0.058483522, 0.06048352, 0.063483514, 0.06548352, 0.06648351, 0.06648351, 0.06648351, 0.8015165, 0.19848353]
39 [0.021170331, 0.018170334, 0.015170338, 0.012170329, 0.009170331, 0.0061703343, 0.003170337, 1.70328E-4, 0.0038296683, 0.0068296655, 0.010829662, 0.013829659, 0.017829679, 0.021829674, 0.024829673, 0.028829668, 0.029829668, 0.029829668, 0.029829668, 0.029829668, 0.029829668, 0.029829668, 0.029829668, 0.03917034, 0.03917034, 0.03917034, 0.03917034, 0.03917034, 0.03917034, 0.03917034, 0.03917034, 0.03917034, 0.03917034, 0.040170338, 0.03717033, 0.03417033, 0.031170335, 0.027170338, 0.02417033, 0.020170333, 0.02782967, 0.02782967, 0.02782967, 0.02782967, 0.02782967, 0.02782967, 0.02782967, 0.02782967, 0.02782967, 0.02782967, 0.02782967, 0.02782967, 0.02682967, 0.02682967, 0.02682967, 0.02682967, 0.02682967, 0.02682967, 0.02682967, 0.02682967, 0.02682967, 0.02682967, 0.02682967, 0.02682967, 0.02682967, 0.02682967, 0.02682967, 0.02682967, 0.02682967, 0.025829671, 0.025829671, 0.025829671, 0.025829671, 0.025829671, 0.025829671, 0.025829671, 0.025829671, 0.025829671, 0.025829671, 0.025829671, 0.025829671, 0.025829671, 0.084170334, 0.084170334, 0.084170334, 0.084170334, 0.084170334, 0.084170334, 0.084170334, 0.084170334, 0.084170334, 0.084170334, 0.084170334, 0.084170334, 0.084170334, 0.084170334, 0.084170334, 0.084170334, 0.084170334, 0.08517033, 0.08517033, 0.08517033, 0.024829673, 0.024829673, 0.024829673, 0.024829673, 0.024829673, 0.023829672, 0.023829672, 0.023829672, 0.023829672, 0.023829672, 0.023829672, 0.023829672, 0.023829672, 0.023829672, 0.023829672, 0.023829672, 0.023829672, 0.023829672, 0.023829672, 0.023829672, 0.023829672, 0.023829672, 0.023829672, 0.022829674, 0.022829674, 0.022829674, 0.022829674, 0.022829674, 0.022829674, 0.022829674, 0.022829674, 0.022829674, 0.022829674, 0.022829674, 0.022829674, 0.022829674, 0.022829674, 0.022829674, 0.022829674, 0.022829674, 0.021829674, 0.021829674, 0.021829674, 0.021829674, 0.021829674, 0.021829674, 0.021829674, 0.021829674, 0.021829674, 0.021829674, 0.021829674, 0.021829674, 0.021829674, 0.021829674, 0.021829674, 0.020829676, 0.020829676, 0.020829676, 0.020829676, 0.020829676, 0.020829676, 0.020829676, 0.020829676, 0.020829676, 0.020829676, 0.020829676, 0.020829676, 0.020829676, 0.019829677, 0.04717033, 0.05017033, 0.052170336, 0.055170335, 0.05717033, 0.06017033, 0.062170327, 0.06517034, 0.06517034, 0.06517034, 0.06517034]
40 [0.021170331, 0.018170334, 0.015170338, 0.012170329, 0.009170331, 0.0061703343, 0.003170337, 1.70328E-4, 0.0038296683, 0.0068296655, 0.010829662, 0.013829659, 0.017829679, 0.021829674, 0.024829673, 0.028829668, 0.029829668, 0.029829668, 0.029829668, 0.029829668, 0.029829668, 0.029829668, 0.029829668, 0.03917034, 0.03917034, 0.03917034, 0.03917034, 0.03917034, 0.03917034, 0.03917034, 0.03917034, 0.03917034, 0.03917034, 0.040170338, 0.03717033, 0.03417033, 0.031170335, 0.027170338, 0.02417033, 0.020170333, 0.02782967, 0.02782967, 0.02782967, 0.02782967, 0.02782967, 0.02782967, 0.02782967, 0.02782967, 0.02782967, 0.02782967, 0.02782967, 0.02782967, 0.02682967, 0.02682967, 0.02682967, 0.02682967, 0.02682967, 0.02682967, 0.02682967, 0.02682967, 0.02682967, 0.02682967, 0.02682967, 0.02682967, 0.02682967, 0.02682967, 0.02682967, 0.02682967, 0.02682967, 0.025829671, 0.025829671, 0.025829671, 0.025829671, 0.025829671, 0.025829671, 0.025829671, 0.025829671, 0.025829671, 0.025829671, 0.025829671, 0.025829671, 0.025829671, 0.084170334, 0.084170334, 0.084170334, 0.084170334, 0.084170334, 0.084170334, 0.084170334, 0.084170334, 0.084170334, 0.084170334, 0.084170334, 0.084170334, 0.084170334, 0.084170334, 0.084170334, 0.084170334, 0.084170334, 0.08517033, 0.08517033, 0.08517033, 0.024829673, 0.024829673, 0.024829673, 0.024829673, 0.024829673, 0.023829672, 0.023829672, 0.023829672, 0.023829672, 0.023829672, 0.023829672, 0.023829672, 0.023829672, 0.023829672, 0.023829672, 0.023829672, 0.023829672, 0.023829672, 0.023829672, 0.023829672, 0.023829672, 0.023829672, 0.023829672, 0.022829674, 0.022829674, 0.022829674, 0.022829674, 0.022829674, 0.022829674, 0.022829674, 0.022829674, 0.022829674, 0.022829674, 0.022829674, 0.022829674, 0.022829674, 0.022829674, 0.022829674, 0.022829674, 0.022829674, 0.021829674, 0.021829674, 0.021829674, 0.021829674, 0.021829674, 0.021829674, 0.021829674, 0.021829674, 0.021829674, 0.021829674, 0.021829674, 0.021829674, 0.021829674, 0.021829674, 0.021829674, 0.020829676, 0.020829676, 0.020829676, 0.020829676, 0.020829676, 0.020829676, 0.020829676, 0.020829676, 0.020829676, 0.020829676, 0.020829676, 0.020829676, 0.020829676, 0.019829677, 0.04717033, 0.05017033, 0.052170336, 0.055170335, 0.05717033, 0.06017033, 0.062170327, 0.06517034, 0.06517034, 0.06517034, 0.06517034]
41 [0.029818686, 0.026818676, 0.02381868, 0.020818682, 0.018818684, 0.015818687, 0.012818677, 0.009818681, 0.0068186834, 0.0038186861, 8.18677E-4, 0.0031813192, 0.0061813165, 0.009181313, 0.013181309, 0.016181307, 0.020181326, 0.023181325, 0.02718132, 0.031181317, 0.03418131, 0.03718131, 0.03718131, 0.036181312, 0.036181312, 0.036181312, 0.036181312, 0.035181314, 0.035181314, 0.03481868, 0.03581868, 0.03581868, 0.03581868, 0.03581868, 0.03581868, 0.03581868, 0.03581868, 0.03681868, 0.03681868, 0.03581868, 0.032818682, 0.029818686, 0.025818678, 0.022818679, 0.018818684, 0.032181315, 0.032181315, 0.031181317, 0.031181317, 0.031181317, 0.031181317, 0.031181317, 0.031181317, 0.030181317, 0.030181317, 0.030181317, 0.030181317, 0.030181317, 0.030181317, 0.029181318, 0.029181318, 0.029181318, 0.029181318, 0.029181318, 0.029181318, 0.029181318, 0.02818132, 0.02818132, 0.02818132, 0.02818132, 0.02818132, 0.02818132, 0.02718132, 0.02718132, 0.02718132, 0.02718132, 0.02718132, 0.02718132, 0.02718132, 0.026181322, 0.026181322, 0.026181322, 0.026181322, 0.026181322, 0.026181322, 0.026181322, 0.025181321, 0.08481868, 0.08481868, 0.08481868, 0.08481868, 0.08481868, 0.08481868, 0.08481868, 0.08481868, 0.08481868, 0.08581868, 0.08581868, 0.08581868, 0.08581868, 0.08581868, 0.08581868, 0.08581868, 0.08581868, 0.08581868, 0.08581868, 0.08581868, 0.08581868, 0.022181325, 0.022181325, 0.022181325, 0.022181325, 0.022181325, 0.022181325, 0.021181326, 0.021181326, 0.021181326, 0.021181326, 0.021181326, 0.021181326, 0.020181326, 0.020181326, 0.020181326, 0.020181326, 0.020181326, 0.020181326, 0.020181326, 0.019181328, 0.019181328, 0.019181328, 0.019181328, 0.019181328, 0.019181328, 0.019181328, 0.01818133, 0.01818133, 0.01818133, 0.01818133, 0.01818133, 0.01818133, 0.01718133, 0.01718133, 0.01718133, 0.01718133, 0.01718133, 0.01718133, 0.016181307, 0.016181307, 0.016181307, 0.016181307, 0.016181307, 0.016181307, 0.015181308, 0.015181308, 0.015181308, 0.015181308, 0.015181308, 0.014181308, 0.014181308, 0.014181308, 0.014181308, 0.014181308, 0.014181308, 0.013181309, 0.013181309, 0.013181309, 0.013181309, 0.013181309, 0.012181311, 0.012181311, 0.012181311, 0.012181311, 0.011181312, 0.011181312, 0.011181312, 0.011181312, 0.052818686, 0.054818686, 0.05781868, 0.06081868, 0.062818676, 0.06581869]
42 [0.034565933, 0.032565936, 0.029565938, 0.027565928, 0.02456593, 0.021565933, 0.018565936, 0.016565938, 0.013565929, 0.010565932, 0.0075659347, 0.0045659374, 0.0015659285, 0.0014340687, 0.004434066, 0.008434062, 0.011434059, 0.014434056, 0.018434076, 0.021434074, 0.02543407, 0.028434066, 0.03243406, 0.036434058, 0.039434057, 0.04143408, 0.04143408, 0.040434055, 0.040434055, 0.040434055, 0.039434057, 0.039434057, 0.039434057, 0.032565936, 0.033565935, 0.033565935, 0.033565935, 0.033565935, 0.034565933, 0.034565933, 0.034565933, 0.034565933, 0.034565933, 0.033565935, 0.030565936, 0.027565928, 0.023565931, 0.020565934, 0.016565938, 0.03443406, 0.03443406, 0.033434063, 0.033434063, 0.033434063, 0.033434063, 0.03243406, 0.03243406, 0.03243406, 0.03243406, 0.031434063, 0.031434063, 0.031434063, 0.031434063, 0.030434065, 0.030434065, 0.030434065, 0.030434065, 0.029434066, 0.029434066, 0.029434066, 0.029434066, 0.029434066, 0.028434066, 0.028434066, 0.028434066, 0.028434066, 0.027434068, 0.027434068, 0.027434068, 0.027434068, 0.027434068, 0.02643407, 0.02643407, 0.02643407, 0.02643407, 0.02643407, 0.02543407, 0.02543407, 0.02543407, 0.02543407, 0.024434071, 0.08556593, 0.08556593, 0.08556593, 0.08556593, 0.08556593, 0.08556593, 0.086565934, 0.086565934, 0.086565934, 0.086565934, 0.086565934, 0.086565934, 0.086565934, 0.086565934, 0.086565934, 0.086565934, 0.08756593, 0.08756593, 0.08756593, 0.08756593, 0.08756593, 0.020434074, 0.020434074, 0.020434074, 0.019434076, 0.019434076, 0.019434076, 0.019434076, 0.019434076, 0.018434076, 0.018434076, 0.018434076, 0.018434076, 0.017434077, 0.017434077, 0.017434077, 0.017434077, 0.017434077, 0.016434079, 0.016434079, 0.016434079, 0.016434079, 0.016434079, 0.015434056, 0.015434056, 0.015434056, 0.015434056, 0.014434056, 0.014434056, 0.014434056, 0.014434056, 0.013434057, 0.013434057, 0.013434057, 0.013434057, 0.013434057, 0.012434058, 0.012434058, 0.012434058, 0.012434058, 0.011434059, 0.011434059, 0.011434059, 0.011434059, 0.01043406, 0.01043406, 0.01043406, 0.01043406, 0.009434061, 0.009434061, 0.009434061, 0.009434061, 0.008434062, 0.008434062, 0.008434062, 0.007434063, 0.007434063, 0.007434063, 0.007434063, 0.006434064, 0.006434064, 0.006434064, 0.0054340647, 0.0054340647, 0.0054340647, 0.004434066, 0.004434066, 0.004434066, 0.0034340667, 0.058565933, 0.060565934]
43 [0.03892307, 0.036923073, 0.034923077, 0.031923078, 0.02992308, 0.02692307, 0.023923073, 0.021923074, 0.018923078, 0.01692308, 0.013923071, 0.010923074, 0.007923077, 0.0049230796, 0.0019230705, 0.0010769266, 0.0030769247, 0.007076921, 0.010076918, 0.013076915, 0.016076913, 0.019076934, 0.02307693, 0.026076926, 0.029076925, 0.03307692, 0.037076917, 0.04007691, 0.044076934, 0.048076928, 0.048076928, 0.04707693, 0.04707693, 0.04607693, 0.04607693, 0.045076933, 0.045076933, 0.028923081, 0.028923081, 0.028923081, 0.02992308, 0.02992308, 0.02992308, 0.030923078, 0.030923078, 0.030923078, 0.030923078, 0.031923078, 0.028923081, 0.025923071, 0.022923075, 0.019923078, 0.015923081, 0.012923072, 0.038076915, 0.038076915, 0.037076917, 0.037076917, 0.037076917, 0.03607692, 0.03607692, 0.03607692, 0.035076916, 0.035076916, 0.035076916, 0.034076918, 0.034076918, 0.034076918, 0.03307692, 0.03307692, 0.03307692, 0.03207692, 0.03207692, 0.03207692, 0.031076921, 0.031076921, 0.031076921, 0.030076923, 0.030076923, 0.030076923, 0.030076923, 0.029076925, 0.029076925, 0.029076925, 0.028076924, 0.028076924, 0.028076924, 0.028076924, 0.027076926, 0.027076926, 0.027076926, 0.026076926, 0.026076926, 0.026076926, 0.025076928, 0.025076928, 0.08492307, 0.08492307, 0.08492307, 0.085923076, 0.085923076, 0.085923076, 0.085923076, 0.085923076, 0.085923076, 0.085923076, 0.08692307, 0.08692307, 0.08692307, 0.08692307, 0.08692307, 0.08692307, 0.08692307, 0.08792307, 0.08792307, 0.08792307, 0.08792307, 0.019076934, 0.019076934, 0.018076934, 0.018076934, 0.018076934, 0.018076934, 0.017076936, 0.017076936, 0.017076936, 0.016076913, 0.016076913, 0.016076913, 0.016076913, 0.015076913, 0.015076913, 0.015076913, 0.014076914, 0.014076914, 0.014076914, 0.014076914, 0.013076915, 0.013076915, 0.013076915, 0.012076916, 0.012076916, 0.012076916, 0.011076917, 0.011076917, 0.011076917, 0.010076918, 0.010076918, 0.010076918, 0.010076918, 0.0090769185, 0.0090769185, 0.0090769185, 0.00807692, 0.00807692, 0.00807692, 0.007076921, 0.007076921, 0.007076921, 0.0060769217, 0.0060769217, 0.0060769217, 0.005076923, 0.005076923, 0.0040769237, 0.0040769237, 0.0040769237, 0.0030769247, 0.0030769247, 0.0030769247, 0.0020769257, 0.0020769257, 0.0010769266, 0.0010769266, 0.0010769266, 7.692752E-5, 7.692752E-5, 9.230715E-4, 9.230715E-4, 9.230715E-4, 0.0019230705, 0.0019230705]
44 [0.03892307, 0.036923073, 0.034923077, 0.031923078, 0.02992308, 0.02692307, 0.023923073, 0.021923074, 0.018923078, 0.01692308, 0.013923071, 0.010923074, 0.007923077, 0.0049230796, 0.0019230705, 0.0010769266, 0.0030769247, 0.007076921, 0.010076918, 0.013076915, 0.016076913, 0.019076934, 0.02307693, 0.026076926, 0.029076925, 0.03307692, 0.037076917, 0.04007691, 0.044076934, 0.048076928, 0.048076928, 0.04707693, 0.04707693, 0.04607693, 0.04607693, 0.045076933, 0.045076933, 0.028923081, 0.028923081, 0.028923081, 0.02992308, 0.02992308, 0.02992308, 0.030923078, 0.030923078, 0.030923078, 0.030923078, 0.031923078, 0.028923081, 0.025923071, 0.022923075, 0.019923078, 0.015923081, 0.012923072, 0.038076915, 0.038076915, 0.037076917, 0.037076917, 0.037076917, 0.03607692, 0.03607692, 0.03607692, 0.035076916, 0.035076916, 0.035076916, 0.034076918, 0.034076918, 0.034076918, 0.03307692, 0.03307692, 0.03307692, 0.03207692, 0.03207692, 0.03207692, 0.031076921, 0.031076921, 0.031076921, 0.030076923, 0.030076923, 0.030076923, 0.030076923, 0.029076925, 0.029076925, 0.029076925, 0.028076924, 0.028076924, 0.028076924, 0.028076924, 0.027076926, 0.027076926, 0.027076926, 0.026076926, 0.026076926, 0.026076926, 0.025076928, 0.025076928, 0.08492307, 0.08492307, 0.08492307, 0.085923076, 0.085923076, 0.085923076, 0.085923076, 0.085923076, 0.085923076, 0.085923076, 0.08692307, 0.08692307, 0.08692307, 0.08692307, 0.08692307, 0.08692307, 0.08692307, 0.08792307, 0.08792307, 0.08792307, 0.08792307, 0.019076934, 0.019076934, 0.018076934, 0.018076934, 0.018076934, 0.018076934, 0.017076936, 0.017076936, 0.017076936, 0.016076913, 0.016076913, 0.016076913, 0.016076913, 0.015076913, 0.015076913, 0.015076913, 0.014076914, 0.014076914, 0.014076914, 0.014076914, 0.013076915, 0.013076915, 0.013076915, 0.012076916, 0.012076916, 0.012076916, 0.011076917, 0.011076917, 0.011076917, 0.010076918, 0.010076918, 0.010076918, 0.010076918, 0.0090769185, 0.0090769185, 0.0090769185, 0.00807692, 0.00807692, 0.00807692, 0.007076921, 0.007076921, 0.007076921, 0.0060769217, 0.0060769217, 0.0060769217, 0.005076923, 0.005076923, 0.0040769237, 0.0040769237, 0.0040769237, 0.0030769247, 0.0030769247, 0.0030769247, 0.0020769257, 0.0020769257, 0.0010769266, 0.0010769266, 0.0010769266, 7.692752E-5, 7.692752E-5, 9.230715E-4, 9.230715E-4, 9.230715E-4, 0.0019230705, 0.0019230705]
45 [0.044137362, 0.041137364, 0.039137367, 0.037137356, 0.03513736, 0.03213736, 0.030137364, 0.027137367, 0.025137357, 0.023137359, 0.020137362, 0.018137364, 0.015137366, 0.012137357, 0.010137359, 0.007137362, 0.0041373647, 0.0021373667, 8.626424E-4, 0.0038626397, 0.0068626367, 0.009862633, 0.012862631, 0.015862629, 0.01886265, 0.021862647, 0.024862643, 0.02886264, 0.031862635, 0.034862634, 0.03886263, 0.041862626, 0.04586265, 0.04986264, 0.05286264, 0.054862637, 0.054862637, 0.05386264, 0.05386264, 0.05286264, 0.051862642, 0.051862642, 0.050862644, 0.024137357, 0.025137357, 0.025137357, 0.025137357, 0.026137356, 0.026137356, 0.027137367, 0.027137367, 0.027137367, 0.028137365, 0.027137367, 0.024137357, 0.02113736, 0.018137364, 0.014137367, 0.011137358, 0.04286265, 0.041862626, 0.041862626, 0.040862627, 0.040862627, 0.03986263, 0.03986263, 0.03886263, 0.03886263, 0.037862632, 0.037862632, 0.037862632, 0.03686263, 0.03686263, 0.035862632, 0.035862632, 0.035862632, 0.034862634, 0.034862634, 0.033862635, 0.033862635, 0.032862637, 0.032862637, 0.032862637, 0.031862635, 0.031862635, 0.030862637, 0.030862637, 0.030862637, 0.029862639, 0.029862639, 0.029862639, 0.02886264, 0.02886264, 0.02786264, 0.02786264, 0.02786264, 0.026862642, 0.026862642, 0.025862642, 0.025862642, 0.025862642, 0.024862643, 0.08513736, 0.08513736, 0.08513736, 0.08513736, 0.08513736, 0.086137354, 0.086137354, 0.086137354, 0.086137354, 0.086137354, 0.086137354, 0.08713736, 0.08713736, 0.08713736, 0.08713736, 0.08713736, 0.08813736, 0.08813736, 0.08813736, 0.08813736, 0.08813736, 0.016862627, 0.016862627, 0.015862629, 0.015862629, 0.015862629, 0.014862629, 0.014862629, 0.014862629, 0.01386263, 0.01386263, 0.012862631, 0.012862631, 0.012862631, 0.011862632, 0.011862632, 0.010862633, 0.010862633, 0.010862633, 0.009862633, 0.009862633, 0.009862633, 0.008862635, 0.008862635, 0.007862636, 0.007862636, 0.007862636, 0.0068626367, 0.0068626367, 0.005862638, 0.005862638, 0.0048626387, 0.0048626387, 0.0048626387, 0.0038626397, 0.0038626397, 0.0028626404, 0.0028626404, 0.0018626414, 0.0018626414, 0.0018626414, 8.626424E-4, 8.626424E-4, 1.373566E-4, 1.373566E-4, 0.0011373557, 0.0011373557, 0.0021373667, 0.0021373667, 0.0031373657, 0.0031373657, 0.0041373647, 0.0041373647, 0.005137364, 0.005137364, 0.0061373627, 0.0061373627, 0.007137362, 0.007137362, 0.008137361]
46 [0.050115388, 0.04811538, 0.04611538, 0.044115383, 0.042115387, 0.040115386, 0.03811539, 0.03511538, 0.033115383, 0.031115383, 0.029115386, 0.027115388, 0.02511539, 0.02211538, 0.020115383, 0.018115385, 0.016115386, 0.013115389, 0.011115379, 0.008115382, 0.0061153835, 0.0041153855, 0.0011153884, 0.0018846206, 0.0038846189, 0.006884616, 0.008884614, 0.011884611, 0.014884608, 0.017884605, 0.019884627, 0.022884624, 0.02588462, 0.02888462, 0.031884614, 0.034884613, 0.03888461, 0.041884605, 0.044884626, 0.047884624, 0.05188462, 0.054884616, 0.058884613, 0.06188461, 0.065884605, 0.06688461, 0.065884605, 0.06488461, 0.06488461, 0.06388461, 0.062884614, 0.06188461, 0.060884614, 0.017115384, 0.018115385, 0.018115385, 0.019115383, 0.019115383, 0.020115383, 0.020115383, 0.021115381, 0.021115381, 0.02211538, 0.021115381, 0.018115385, 0.015115387, 0.01211539, 0.009115381, 0.0051153847, 0.048884623, 0.047884624, 0.047884624, 0.046884626, 0.045884628, 0.045884628, 0.044884626, 0.043884605, 0.043884605, 0.042884607, 0.042884607, 0.041884605, 0.040884607, 0.040884607, 0.03988461, 0.03988461, 0.03888461, 0.03788461, 0.03788461, 0.03688461, 0.03688461, 0.03588461, 0.034884613, 0.034884613, 0.033884615, 0.033884615, 0.032884616, 0.032884616, 0.031884614, 0.030884616, 0.030884616, 0.029884618, 0.029884618, 0.02888462, 0.02888462, 0.02788462, 0.02788462, 0.026884621, 0.026884621, 0.02588462, 0.024884623, 0.024884623, 0.023884624, 0.08411538, 0.08511538, 0.08511538, 0.08511538, 0.08511538, 0.086115375, 0.086115375, 0.086115375, 0.086115375, 0.08711539, 0.08711539, 0.08711539, 0.08811539, 0.08811539, 0.08811539, 0.08811539, 0.08911539, 0.08911539, 0.08911539, 0.08911539, 0.09011538, 0.01288461, 0.011884611, 0.011884611, 0.010884612, 0.010884612, 0.009884613, 0.009884613, 0.008884614, 0.007884615, 0.007884615, 0.006884616, 0.006884616, 0.0058846166, 0.0058846166, 0.004884618, 0.004884618, 0.0038846189, 0.0028846196, 0.0028846196, 0.0018846206, 0.0018846206, 8.8462164E-4, 8.8462164E-4, 1.1538935E-4, 0.0011153884, 0.0011153884, 0.0021153875, 0.0021153875, 0.0031153865, 0.0031153865, 0.0041153855, 0.0051153847, 0.0051153847, 0.0061153835, 0.0061153835, 0.0071153827, 0.008115382, 0.008115382, 0.009115381, 0.0101153795, 0.0101153795, 0.011115379, 0.01211539, 0.01211539, 0.013115389, 0.014115388, 0.014115388, 0.015115387, 0.016115386]
47 [0.050115388, 0.04811538, 0.04611538, 0.044115383, 0.042115387, 0.040115386, 0.03811539, 0.03511538, 0.033115383, 0.031115383, 0.029115386, 0.027115388, 0.02511539, 0.02211538, 0.020115383, 0.018115385, 0.016115386, 0.013115389, 0.011115379, 0.008115382, 0.0061153835, 0.0041153855, 0.0011153884, 0.0018846206, 0.0038846189, 0.006884616, 0.008884614, 0.011884611, 0.014884608, 0.017884605, 0.019884627, 0.022884624, 0.02588462, 0.02888462, 0.031884614, 0.034884613, 0.03888461, 0.041884605, 0.044884626, 0.047884624, 0.05188462, 0.054884616, 0.058884613, 0.06188461, 0.065884605, 0.06688461, 0.065884605, 0.06488461, 0.06488461, 0.06388461, 0.062884614, 0.06188461, 0.060884614, 0.017115384, 0.018115385, 0.018115385, 0.019115383, 0.019115383, 0.020115383, 0.020115383, 0.021115381, 0.021115381, 0.02211538, 0.021115381, 0.018115385, 0.015115387, 0.01211539, 0.009115381, 0.0051153847, 0.048884623, 0.047884624, 0.047884624, 0.046884626, 0.045884628, 0.045884628, 0.044884626, 0.043884605, 0.043884605, 0.042884607, 0.042884607, 0.041884605, 0.040884607, 0.040884607, 0.03988461, 0.03988461, 0.03888461, 0.03788461, 0.03788461, 0.03688461, 0.03688461, 0.03588461, 0.034884613, 0.034884613, 0.033884615, 0.033884615, 0.032884616, 0.032884616, 0.031884614, 0.030884616, 0.030884616, 0.029884618, 0.029884618, 0.02888462, 0.02888462, 0.02788462, 0.02788462, 0.026884621, 0.026884621, 0.02588462, 0.024884623, 0.024884623, 0.023884624, 0.08411538, 0.08511538, 0.08511538, 0.08511538, 0.08511538, 0.086115375, 0.086115375, 0.086115375, 0.086115375, 0.08711539, 0.08711539, 0.08711539, 0.08811539, 0.08811539, 0.08811539, 0.08811539, 0.08911539, 0.08911539, 0.08911539, 0.08911539, 0.09011538, 0.01288461, 0.011884611, 0.011884611, 0.010884612, 0.010884612, 0.009884613, 0.009884613, 0.008884614, 0.007884615, 0.007884615, 0.006884616, 0.006884616, 0.0058846166, 0.0058846166, 0.004884618, 0.004884618, 0.0038846189, 0.0028846196, 0.0028846196, 0.0018846206, 0.0018846206, 8.8462164E-4, 8.8462164E-4, 1.1538935E-4, 0.0011153884, 0.0011153884, 0.0021153875, 0.0021153875, 0.0031153865, 0.0031153865, 0.0041153855, 0.0051153847, 0.0051153847, 0.0061153835, 0.0061153835, 0.0071153827, 0.008115382, 0.008115382, 0.009115381, 0.0101153795, 0.0101153795, 0.011115379, 0.01211539, 0.01211539, 0.013115389, 0.014115388, 0.014115388, 0.015115387, 0.016115386]
48 [0.050115388, 0.04811538, 0.04611538, 0.044115383, 0.042115387, 0.040115386, 0.03811539, 0.03511538, 0.033115383, 0.031115383, 0.029115386, 0.027115388, 0.02511539, 0.02211538, 0.020115383, 0.018115385, 0.016115386, 0.013115389, 0.011115379, 0.008115382, 0.0061153835, 0.0041153855, 0.0011153884, 0.0018846206, 0.0038846189, 0.006884616, 0.008884614, 0.011884611, 0.014884608, 0.017884605, 0.019884627, 0.022884624, 0.02588462, 0.02888462, 0.031884614, 0.034884613, 0.03888461, 0.041884605, 0.044884626, 0.047884624, 0.05188462, 0.054884616, 0.058884613, 0.06188461, 0.065884605, 0.06688461, 0.065884605, 0.06488461, 0.06488461, 0.06388461, 0.062884614, 0.06188461, 0.060884614, 0.017115384, 0.018115385, 0.018115385, 0.019115383, 0.019115383, 0.020115383, 0.020115383, 0.021115381, 0.021115381, 0.02211538, 0.021115381, 0.018115385, 0.015115387, 0.01211539, 0.009115381, 0.0051153847, 0.048884623, 0.047884624, 0.047884624, 0.046884626, 0.045884628, 0.045884628, 0.044884626, 0.043884605, 0.043884605, 0.042884607, 0.042884607, 0.041884605, 0.040884607, 0.040884607, 0.03988461, 0.03988461, 0.03888461, 0.03788461, 0.03788461, 0.03688461, 0.03688461, 0.03588461, 0.034884613, 0.034884613, 0.033884615, 0.033884615, 0.032884616, 0.032884616, 0.031884614, 0.030884616, 0.030884616, 0.029884618, 0.029884618, 0.02888462, 0.02888462, 0.02788462, 0.02788462, 0.026884621, 0.026884621, 0.02588462, 0.024884623, 0.024884623, 0.023884624, 0.08411538, 0.08511538, 0.08511538, 0.08511538, 0.08511538, 0.086115375, 0.086115375, 0.086115375, 0.086115375, 0.08711539, 0.08711539, 0.08711539, 0.08811539, 0.08811539, 0.08811539, 0.08811539, 0.08911539, 0.08911539, 0.08911539, 0.08911539, 0.09011538, 0.01288461, 0.011884611, 0.011884611, 0.010884612, 0.010884612, 0.009884613, 0.009884613, 0.008884614, 0.007884615, 0.007884615, 0.006884616, 0.006884616, 0.0058846166, 0.0058846166, 0.004884618, 0.004884618, 0.0038846189, 0.0028846196, 0.0028846196, 0.0018846206, 0.0018846206, 8.8462164E-4, 8.8462164E-4, 1.1538935E-4, 0.0011153884, 0.0011153884, 0.0021153875, 0.0021153875, 0.0031153865, 0.0031153865, 0.0041153855, 0.0051153847, 0.0051153847, 0.0061153835, 0.0061153835, 0.0071153827, 0.008115382, 0.008115382, 0.009115381, 0.0101153795, 0.0101153795, 0.011115379, 0.01211539, 0.01211539, 0.013115389, 0.014115388, 0.014115388, 0.015115387, 0.016115386]
49 [0.05214286, 0.050142862, 0.04914286, 0.047142852, 0.04514285, 0.043142855, 0.04114286, 0.03914286, 0.03714286, 0.03514286, 0.033142854, 0.031142855, 0.029142857, 0.027142858, 0.02514286, 0.023142863, 0.021142852, 0.019142855, 0.017142856, 0.015142858, 0.01314286, 0.010142863, 0.008142853, 0.0061428547, 0.0041428567, 0.0011428593, 8.571387E-4, 0.0038571476, 0.005857146, 0.007857144, 0.010857141, 0.012857139, 0.015857136, 0.018857133, 0.020857131, 0.023857152, 0.026857149, 0.029857147, 0.031857144, 0.034857143, 0.037857138, 0.040857136, 0.043857135, 0.046857156, 0.05085715, 0.053857148, 0.056857146, 0.05985714, 0.06385714, 0.06685714, 0.07085713, 0.07385715, 0.07385715, 0.07285716, 0.071857154, 0.07085713, 0.069857135, 0.06885713, 0.06785713, 0.012142861, 0.01314286, 0.01314286, 0.014142859, 0.015142858, 0.015142858, 0.016142856, 0.016142856, 0.017142856, 0.018142855, 0.018142855, 0.018142855, 0.015142858, 0.012142861, 0.008142853, 0.0051428555, 0.0021428585, 0.05185715, 0.05185715, 0.05085715, 0.04985715, 0.048857152, 0.048857152, 0.047857154, 0.046857156, 0.04585713, 0.044857133, 0.044857133, 0.043857135, 0.042857133, 0.042857133, 0.041857135, 0.040857136, 0.039857138, 0.039857138, 0.03885714, 0.037857138, 0.037857138, 0.03685714, 0.03585714, 0.03585714, 0.034857143, 0.033857144, 0.032857142, 0.032857142, 0.031857144, 0.030857146, 0.030857146, 0.029857147, 0.028857147, 0.028857147, 0.027857149, 0.027857149, 0.026857149, 0.02585715, 0.02585715, 0.024857152, 0.023857152, 0.023857152, 0.022857154, 0.08414285, 0.085142866, 0.085142866, 0.085142866, 0.08614286, 0.08614286, 0.08614286, 0.08714286, 0.08714286, 0.08714286, 0.08814286, 0.08814286, 0.08814286, 0.08914286, 0.08914286, 0.08914286, 0.08914286, 0.09014286, 0.09014286, 0.09014286, 0.091142856, 0.008857143, 0.007857144, 0.007857144, 0.006857145, 0.005857146, 0.005857146, 0.0048571466, 0.0038571476, 0.0038571476, 0.0028571486, 0.0028571486, 0.0018571378, 8.571387E-4, 8.571387E-4, 1.4286034E-4, 0.0011428593, 0.0011428593, 0.0021428585, 0.0031428575, 0.0031428575, 0.0041428567, 0.0051428555, 0.0061428547, 0.0061428547, 0.0071428535, 0.008142853, 0.008142853, 0.009142851, 0.010142863, 0.010142863, 0.011142862, 0.012142861, 0.01314286, 0.01314286, 0.014142859, 0.015142858, 0.016142856, 0.016142856, 0.017142856, 0.018142855, 0.019142855, 0.019142855]
