0.6055269241333 -1.7749983072281
0.60554653406143 -1.7731368541718
0.60558354854584 -1.7674051523209
0.60565167665482 -1.7582021951675
0.6056632399559 -1.7483364343643
0.60568034648895 -1.7386125326157
0.60570859909058 -1.7288545370102
0.60574728250504 -1.7190959453583
0.60578203201294 -1.7093223333359
0.60582268238068 -1.6996043920517
0.60584485530853 -1.68985247612
0.60598540306091 -1.680128455162
0.60610330104828 -1.6703971624374
0.60630041360855 -1.6606451272964
0.60658955574036 -1.6511482000351
0.60699063539505 -1.6417407989502
0.60731208324432 -1.6323671340942
0.60736304521561 -1.6228401660919
0.60746139287949 -1.6133702993393
0.6076420545578 -1.6040683984756
0.60784596204758 -1.5947232246399
0.60798728466034 -1.5853974819183
0.60800760984421 -1.5762803554535
0.60791718959808 -1.5673388242722
0.60780316591263 -1.5585087537766
0.60768693685532 -1.5497473478317
0.60757553577423 -1.5410821437836
0.60748529434204 -1.5325009822845
0.60741233825684 -1.5240008831024
0.60736453533173 -1.5155646800995
0.60735380649567 -1.5071882009506
0.60736805200577 -1.498931646347
0.60740488767624 -1.4907193183899
0.6074623465538 -1.4825263023376
0.60756409168243 -1.4744173288345
0.60769945383072 -1.4663244485855
0.60787403583527 -1.4582530260086
0.60810202360153 -1.4501556158066
0.608373939991 -1.442027926445
0.60869491100311 -1.4338787794113
0.60906529426575 -1.4256680011749
0.60948783159256 -1.417467713356
0.60995829105377 -1.4092237949371
0.61048024892807 -1.4009268283844
0.61103922128677 -1.3925914764404
0.61164951324463 -1.3842188119888
0.61231642961502 -1.3757932186127
0.61301910877228 -1.3673796653748
0.61348575353622 -1.3597792387009
0.6137130856514 -1.3531302213669
0.61392188072205 -1.3468165397644
0.61424070596695 -1.3404042720795
0.61473989486694 -1.3332502841949
0.61550581455231 -1.3258602619171
0.61638289690018 -1.3184642791748
0.61732971668243 -1.3111248016357
0.61835914850235 -1.3037353754044
0.61946308612823 -1.2963681221008
0.62064903974533 -1.288972735405
0.62191700935364 -1.2815614938736
0.62326842546463 -1.2741329669952
0.62470036745071 -1.2667005062103
0.62622725963593 -1.2592322826385
0.62783348560333 -1.2517337799072
0.62953013181686 -1.2442177534103
0.63130939006805 -1.236661195755
0.63317489624023 -1.2291009426117
0.63514029979706 -1.2214745283127
0.6371756196022 -1.2138454914093
0.6393021941185 -1.2061810493469
0.6415148973465 -1.1984657049179
0.64382523298264 -1.1907212734222
0.64620494842529 -1.1829663515091
0.64867812395096 -1.1751415729523
0.65122735500336 -1.1672849655151
0.65385657548904 -1.1594188213348
0.65658169984818 -1.1514765024185
0.65938305854797 -1.1435024738312
0.66224801540375 -1.1355119943619
0.66520017385483 -1.1274741888046
0.66841638088226 -1.1187169551849
0.67199146747589 -1.1096216440201
0.67565321922302 -1.1005823612213
0.67934346199036 -1.0915659666061
0.6830278635025 -1.0825502872467
0.68668472766876 -1.0735065937042
0.69033515453339 -1.06447660923
0.69398403167725 -1.0554320812225
0.69762629270554 -1.0464012622833
0.70127654075623 -1.0373582839966
0.70492440462112 -1.0283064842224
0.70857119560242 -1.019278049469
0.7122203707695 -1.0102434158325
0.7158699631691 -1.0012048482895
0.71952432394028 -0.9921595454216
0.7231719493866 -0.98311805725098
0.72682219743729 -0.97407305240631
0.7304715514183 -0.96503865718842
0.73413169384003 -0.95598381757736
0.73777252435684 -0.94695436954498
0.74142003059387 -0.93790978193283
0.74506270885468 -0.92887723445892
0.74871563911438 -0.91982281208038
0.75236451625824 -0.91078984737396
0.75599527359009 -0.90177595615387
0.75964564085007 -0.89273345470428
0.76329511404037 -0.88368570804596
0.76693087816238 -0.87465542554855
0.77059137821198 -0.86558943986893
0.77422773838043 -0.85655945539474
0.77788484096527 -0.84751445055008
0.78153192996979 -0.83847790956497
0.78517359495163 -0.82944011688232
0.78882110118866 -0.82039326429367
0.79246586561203 -0.81136304140091
0.79613018035889 -0.80231130123138
0.79978466033936 -0.79326915740967
0.80344599485397 -0.78422427177429
0.80707657337189 -0.7751978635788
0.81072127819061 -0.76614916324615
0.81438237428665 -0.7570852637291
0.81801861524582 -0.74805074930191
0.82166165113449 -0.73901325464249
0.82531100511551 -0.72997695207596
0.82896453142166 -0.72092372179031
0.83260643482208 -0.71188807487488
0.83626461029053 -0.70284199714661
0.83991783857346 -0.69379770755768
0.84356033802032 -0.68476134538651
0.84718149900436 -0.67577934265137
0.85075628757477 -0.66693341732025
0.85430240631104 -0.65820026397705
0.85779237747192 -0.6495823264122
0.86122453212738 -0.64109724760056
0.86460572481155 -0.63274484872818
0.86794126033783 -0.62451308965683
0.87122881412506 -0.61638641357422
0.87446945905685 -0.60839313268661
0.8776176571846 -0.6006486415863
0.88066214323044 -0.59316658973694
0.88361990451813 -0.58590471744537
0.88649731874466 -0.57888489961624
0.88926440477371 -0.57209557294846
0.8919472694397 -0.5655289888382
0.89453631639481 -0.55919086933136
0.89703893661499 -0.55307120084763
0.89945250749588 -0.54713755846024
0.9017653465271 -0.54139959812164
0.90400493144989 -0.53586930036545
0.90615522861481 -0.53053218126297
0.9082282781601 -0.52536761760712
0.91022938489914 -0.52038758993149
0.91214722394943 -0.51558578014374
0.91398823261261 -0.51096123456955
0.91577130556107 -0.50647008419037
0.91746491193771 -0.50216174125671
0.91909658908844 -0.49797087907791
0.92066323757172 -0.49393692612648
0.92215538024902 -0.49006801843643
0.92398232221603 -0.48464328050613
0.9259557723999 -0.47867313027382
0.92780512571335 -0.47295770049095
0.92959576845169 -0.46736091375351
0.93130671977997 -0.46196919679642
0.93297225236893 -0.45670527219772
0.93436270952225 -0.45255574584007
0.93567001819611 -0.44908675551414
0.9369632601738 -0.44575667381287
0.9382141828537 -0.44252008199692
0.93941515684128 -0.43939194083214
0.94054400920868 -0.43641218543053
0.9416167140007 -0.43358358740807
0.94252282381058 -0.4315427839756
0.94346821308136 -0.42998200654984
0.94442689418793 -0.42870157957077
0.94550734758377 -0.42630457878113
0.94654607772827 -0.42390924692154
0.94753712415695 -0.42161989212036
0.94850194454193 -0.41946831345558
0.9494481086731 -0.41740846633911
0.95036232471466 -0.41412442922592
0.95113122463226 -0.41028136014938
0.95170485973358 -0.40625590085983
0.95220339298248 -0.40248546004295
0.95268839597702 -0.39878505468369
0.95310181379318 -0.39515173435211
0.95354813337326 -0.3915947675705
0.95389795303345 -0.38812536001205
0.95426523685455 -0.38465178012848
0.95458281040192 -0.38134425878525
0.95489323139191 -0.37824326753616
0.95483016967773 -0.37404352426529
0.95447236299515 -0.36921012401581
0.9542081952095 -0.36495500802994
0.95418751239777 -0.36130541563034
0.95425832271576 -0.35772949457169
0.95418930053711 -0.35414144396782
0.95401608943939 -0.35032641887665
0.95367020368576 -0.34638851881027
0.95289742946625 -0.34168109297752
0.95174759626389 -0.33653369545937
0.95050477981567 -0.33137786388397
0.94945180416107 -0.3267340362072
0.94883346557617 -0.32288128137589
0.94853687286377 -0.31957826018333
0.94792002439499 -0.3155058324337
0.94667166471481 -0.31087297201157
0.94499605894089 -0.30582940578461
0.94306647777557 -0.3007792532444
0.94100314378738 -0.29571232199669
0.93871277570724 -0.29053810238838
0.93615609407425 -0.28522235155106
0.93343782424927 -0.27985453605652
0.93053436279297 -0.27447417378426
0.92746531963348 -0.26911443471909
0.92423963546753 -0.26378244161606
0.92076700925827 -0.25835779309273
0.91711491346359 -0.25289243459702
0.91323697566986 -0.24742563068867
0.90921211242676 -0.24194076657295
0.90499955415726 -0.2364240437746
0.90055930614471 -0.23090843856335
0.89588797092438 -0.22536012530327
0.8910721540451 -0.21980018913746
0.88548630475998 -0.21368393301964
0.87907201051712 -0.20712375640869
0.87205874919891 -0.20038576424122
0.86500132083893 -0.19365179538727
0.85793417692184 -0.18692123889923
0.85088920593262 -0.18019679188728
0.84385168552399 -0.173464179039
0.83679866790771 -0.16673628985882
0.82975816726685 -0.16001142561436
0.8227196931839 -0.15328149497509
