0 [0.0, 0.0, 0.0, 0.0, 0.0, 0.0, 0.0, 0.0]
1 [0.0, 0.0, 0.0, 0.0, 0.0, 0.0, 0.0, 0.0]
2 [0.0, 0.0, 0.0, 0.0, 0.0, 0.0, 0.0, 0.0]
3 [0.17667033, 0.06367032, 0.033329684, 0.033329684, 0.09167033, 0.03232966, 0.03132966, 0.10267033]
4 [0.1772088, 0.22687545, 0.8701245, 0.86812454, 0.9235421, 0.032791197, 0.0317912, 0.26887548]
5 [0.1772088, 0.060208786, 0.036791217, 0.03479122, 0.09020879, 0.032791197, 0.0317912, 0.10220879]
6 [0.17771429, 1.0062597, 0.091740265, 0.9968312, 1.0422597, 0.034285706, 0.030285709, 1.0602597]
7 [0.17771429, 0.051714286, 0.04628572, 0.04228572, 0.087714285, 0.034285706, 0.030285709, 0.105714284]
8 [0.17716484, 0.9538351, 0.15083517, 0.9448351, 0.9871648, 0.034835156, 0.02983516, 0.20716484]
9 [0.17716484, 0.05383516, 0.050835166, 0.04483517, 0.087164834, 0.034835156, 0.02983516, 0.10716484]
10 [0.17767033, 0.06232966, 0.056329668, 0.049329672, 0.08667033, 0.087670326, 0.02732967, 0.10967033]
11 [0.29802254, 0.06804372, 0.056342468, 0.049329672, 0.08667033, 0.087670326, 0.02732967, 0.10967033]
12 [1.6320649, 0.9709814, 0.89171964, 0.96532357, 1.5431364, 0.09605934, 0.027006129, 0.7726667]
13 [0.38176334, 0.15446384, 0.14225335, 0.1453974, 1.7123833, 0.18576989, 0.026873691, 1.076354]
14 [0.23894347, 0.064854056, 0.0588845, 0.054119434, 0.12828255, 0.09377913, 0.028620826, 0.15420267]
15 [0.2235605, 0.06412278, 0.0588805, 0.05332563, 0.11823561, 0.092409395, 0.029304232, 0.1738034]
16 [0.21263254, 0.061985694, 0.057333276, 0.0511253, 0.11133236, 0.0919295, 0.028193718, 0.15801239]
17 [0.5337018, 0.34687993, 0.33785367, 0.04634232, 0.108215906, 0.97430843, 0.929683, 1.3480034]
18 [0.062496547, 0.9374562, 0.07239232, 0.06880868, 0.13749711, 1.0238464, 0.027708745, 0.17959487]
19 [0.23730908, 0.52049035, 0.5309593, 0.48109254, 0.17972033, 0.028247837, 0.03204195, 0.72598827]
20 [0.063374825, 0.06461853, 0.031180505, 0.028734934, 0.038896047, 0.028736548, 0.031832542, 0.118690856]
21 [0.08699018, 0.067814514, 0.0311902, 0.03110905, 0.09110316, 0.031102393, 0.028501442, 0.037403807]
22 [0.10037055, 1.0669006, 0.025604244, 0.09981025, 1.421881, 0.04142057, 0.06890488, 0.034224648]
23 [0.0951083, 0.064200744, 0.02560314, 0.09901252, 0.120806396, 0.041091386, 0.07039472, 0.04802158]
24 [0.0923874, 0.020669686, 0.025239382, 0.09744336, 0.113354705, 0.042397235, 0.07297438, 0.058879837]
25 [0.37768218, 0.01978296, 0.024371147, 0.09833603, 0.40992284, 0.041504666, 0.3052267, 0.68005484]
26 [0.0913964, 0.019681662, 0.024370411, 0.0976765, 0.10958181, 0.04122747, 0.07377254, 0.06778055]
27 [0.24221161, 0.011340361, 0.016204448, 0.105474, 0.11507091, 0.032721426, 0.2100351, 1.3543901]
28 [0.18256441, 0.018896086, 0.024931591, 0.09723803, 0.10363639, 0.040419184, 1.0083308, 0.9076529]
29 [0.021656703, 0.01796599, 0.024924735, 0.091062166, 0.05847761, 0.03785243, 0.04617165, 0.08286502]
30 [0.4412985, 0.9102664, 0.02484074, 0.4471579, 0.025727507, 0.03411298, 0.043306824, 0.9662569]
31 [0.044477105, 0.019615471, 0.024843175, 0.08863316, 0.040195733, 0.034892213, 0.0434399, 0.08868313]
32 [0.052400123, 0.019728154, 0.024647478, 0.09063367, 0.05357437, 0.035420656, 0.04235113, 0.09139833]
33 [0.058791425, 0.984256, 0.025116267, 0.17078532, 0.06603283, 0.033640835, 0.038911305, 0.17329885]
34 [0.06322237, 0.021589069, 0.025117395, 0.092829295, 0.073343754, 0.034003723, 0.0391178, 0.09787912]
35 [0.065087706, 0.055160522, 0.025815973, 0.09289307, 0.07827337, 0.03398136, 0.037703075, 0.09698464]
36 [0.07302748, 0.057027467, 0.026971309, 0.09330085, 0.08226938, 0.032373417, 0.03597092, 0.10002747]
37 [0.06743269, 0.056436185, 0.026970914, 0.09372382, 0.08539475, 0.03252018, 0.035971314, 0.10002747]
38 [0.3356439, 1.0341054, 0.026059266, 0.3763301, 0.08951282, 0.030738391, 0.033059586, 0.38627288]
39 [0.0697508, 0.058590844, 0.026059553, 0.096180685, 0.09133216, 0.030817285, 0.033059794, 0.10293955]
40 [0.070545495, 0.058692414, 0.026043287, 0.0963824, 0.09271734, 0.028872114, 0.031043498, 0.103956036]
41 [0.7351063, 1.0142215, 0.02488413, 0.7035427, 0.0958405, 0.024773339, 0.025884328, 1.0616608]
42 [0.07075568, 0.06295433, 0.02488425, 0.0248006, 0.09664275, 0.0248006, 0.0258844, 0.10711539]
43 [0.072560444, 0.06156044, 0.02443956, 0.02443956, 0.37528574, 0.023439562, 0.023439562, 1.0925715]
44 [1.0457113, 1.0307112, 0.02351099, 0.02251099, 0.10148902, 0.02251099, 0.02251099, 1.0727112]
45 [0.18396702, 1.0440879, 0.021923073, 0.021923073, 0.10207692, 0.021923073, 0.021923073, 1.086088]
46 [0.07407692, 0.055076916, 0.021923073, 0.021923073, 0.10207692, 0.021923073, 0.021923073, 0.09707692]
47 [0.30900365, 1.004663, 0.021329667, 0.02032967, 0.10367032, 0.02032967, 0.02032967, 1.0790037]
48 [0.075670324, 0.021329667, 0.021329667, 0.02032967, 0.10367032, 0.02032967, 0.02032967, 0.09567033]
49 [0.07298351, 0.05498352, 0.023016479, 0.02201648, 0.102983505, 0.020016482, 0.019016484, 0.018016484]
