0 [0.0, 0.0, 0.0, 0.0, 0.0, 0.0, 0.0, 0.0]
1 [0.0, 0.0, 0.0, 0.0, 0.0, 0.0, 0.0, 0.0]
2 [0.0, 0.0, 0.0, 0.0, 0.0, 0.0, 0.0, 0.0]
3 [0.0, 0.0, 0.0, 0.0, 0.0, 0.0, 0.0, 0.0]
4 [0.0, 0.0, 0.0, 0.0, 0.0, 0.0, 0.0, 0.0]
5 [0.0, 0.0, 0.0, 0.0, 0.0, 0.0, 0.0, 0.0]
6 [0.0, 0.0, 0.0, 0.0, 0.0, 0.0, 0.0, 0.0]
7 [0.0, 0.0, 0.0, 0.0, 0.0, 0.0, 0.0, 0.0]
8 [0.75, 0.75, 0.8888889, 0.8888889, 0.33333334, 0.33333334, 0.8888889, 0.0]
9 [0.0, 0.0, 0.0, 0.0, 0.0, 0.0, 0.0, 0.0]
10 [0.75, 0.75, 0.8888889, 0.8888889, 0.5555556, 0.0, 0.8888889, 0.0]
11 [0.75, 0.75, 0.6666667, 0.8888889, 0.8888889, 0.0, 0.8888889, 0.0]
12 [0.0, 0.0, 0.0, 0.0, 0.0, 0.0, 0.0, 0.0]
13 [0.75, 0.75, 0.6666667, 0.8888889, 0.8888889, 0.0, 0.6666667, 0.0]
14 [0.0, 0.0, 0.0, 0.0, 0.0, 0.0, 0.0, 0.0]
15 [0.75, 0.75, 0.0, 0.9, 0.9, 0.0, 0.7, 0.0]
16 [0.75, 0.75, 0.0, 0.9166667, 0.9166667, 0.0, 0.5, 0.0]
17 [0.0, 0.0, 0.0, 0.0, 0.0, 0.0, 0.0, 0.0]
18 [0.5, 0.5, 0.5, 0.9444444, 0.9444444, 0.0, 0.3888889, 0.0]
19 [0.0, 0.0, 0.0, 0.0, 0.0, 0.0, 0.0, 0.0]
20 [0.0, 0.0, 0.0, 0.0, 0.0, 0.0, 0.0, 0.0]
21 [0.5, 0.5, 0.5, 0.85714287, 0.85714287, 0.0, 0.0, 0.85714287]
22 [0.0, 0.0, 0.0, 0.0, 0.0, 0.0, 0.0, 0.0]
23 [0.0, 0.0, 0.0, 0.0, 0.0, 0.0, 0.0, 0.0]
24 [0.0, 0.0, 0.0, 0.95454544, 0.95454544, 0.0, 0.0, 0.8636364]
25 [0.0, 0.0, 0.0, 0.0, 0.0, 0.0, 0.0, 0.0]
26 [0.0, 0.0, 0.0, 0.0, 0.0, 0.0, 0.0, 0.0]
27 [0.96666664, 0.0, 0.0, 0.0, 0.96666664, 0.0, 0.0, 0.8333333]
28 [0.0, 0.0, 0.0, 0.0, 0.0, 0.0, 0.0, 0.0]
29 [0.96666664, 0.0, 0.0, 0.6333333, 0.96666664, 0.0, 0.0, 0.96666664]
30 [0.96153843, 0.0, 0.0, 0.46153846, 0.96153843, 0.0, 0.0, 0.96153843]
31 [0.0, 0.0, 0.0, 0.0, 0.0, 0.0, 0.0, 0.0]
32 [0.36363637, 0.0, 0.0, 0.36363637, 0.95454544, 0.36363637, 0.0, 0.95454544]
33 [0.0, 0.0, 0.0, 0.0, 0.0, 0.0, 0.0, 0.0]
34 [0.0, 0.0, 0.0, 0.0, 0.0, 0.0, 0.0, 0.0]
35 [0.0, 0.0, 0.0, 0.0, 0.0, 0.0, 0.0, 0.0]
36 [0.8333333, 0.0, 0.0, 0.5, 0.9166667, 0.8333333, 0.5, 0.9166667]
37 [0.0, 0.0, 0.0, 0.0, 0.0, 0.0, 0.0, 0.0]
38 [0.9230769, 0.0, 0.0, 0.0, 0.61538464, 0.9230769, 0.0, 0.61538464]
39 [0.85714287, 0.0, 0.0, 0.0, 0.0, 0.0, 0.0, 0.0]
40 [0.0, 0.0, 0.0, 0.0, 0.0, 0.0, 0.0, 0.0]
41 [0.85714287, 0.0, 0.0, 0.0, 0.9, 0.9, 0.8, 0.0]
42 [0.0, 0.0, 0.0, 0.0, 0.0, 0.0, 0.0, 0.0]
43 [0.8, 0.0, 0.0, 0.0, 0.9, 0.9, 0.8, 0.0]
44 [0.90909094, 0.0, 0.0, 0.0, 0.0, 0.90909094, 0.90909094, 0.0]
45 [0.0, 0.0, 0.0, 0.0, 0.0, 0.0, 0.0, 0.0]
46 [0.95, 0.0, 0.0, 0.0, 0.0, 0.4, 0.95, 0.0]
47 [0.0, 0.0, 0.0, 0.0, 0.0, 0.0, 0.0, 0.0]
48 [0.0, 0.0, 0.0, 0.0, 0.0, 0.0, 0.0, 0.0]
49 [0.9444444, 0.0, 0.0, 0.0, 0.0, 0.3888889, 0.9444444, 0.9444444]
