0 1.5707964
0 2.3182098E-7
0 2.4088934E-7
0 9.078623E-8
0 -0.0
0 -2.0647656E-7
0 -9.272836E-8
0 -1.5707964
0 -1.5707968
1 1.5707964
1 2.3182098E-7
1 2.4088934E-7
1 9.078623E-8
1 -0.0
1 -2.0647656E-7
1 -9.272836E-8
1 -1.5707964
1 -1.5707968
2 1.5707964
2 2.3182098E-7
2 2.4088934E-7
2 9.078623E-8
2 -0.0
2 -2.0647656E-7
2 -9.272836E-8
2 -1.5707964
2 -1.5707968
3 1.5707964
3 2.3182098E-7
3 2.4088934E-7
3 9.078623E-8
3 -0.0
3 -2.0647656E-7
3 -9.272836E-8
3 -1.5707964
3 -1.5707968
4 1.5707964
4 2.3182098E-7
4 2.4088934E-7
4 9.078623E-8
4 -0.0
4 -2.0647656E-7
4 -9.272836E-8
4 -1.5707964
4 -1.5707968
5 1.5707964
5 2.3182098E-7
5 2.4088934E-7
5 9.078623E-8
5 -0.0
5 -2.0647656E-7
5 -9.272836E-8
5 -1.5707964
5 -1.5707968
6 1.5707964
6 2.3182098E-7
6 2.4088934E-7
6 9.078623E-8
6 -0.0
6 -2.0647656E-7
6 -9.272836E-8
6 -1.5707964
6 -1.5707968
7 1.5707964
7 2.3182098E-7
7 2.4088934E-7
7 9.078623E-8
7 -0.0
7 -2.0647656E-7
7 -9.272836E-8
7 -1.5707964
7 -1.5707968
8 1.5707964
8 2.3182098E-7
8 2.4088934E-7
8 9.078623E-8
8 -0.0
8 -2.0647656E-7
8 -9.272836E-8
8 -1.5707964
8 -1.5707968
9 1.5707964
9 2.3182098E-7
9 2.4088934E-7
9 9.078623E-8
9 -0.0
9 -2.0647656E-7
9 -9.272836E-8
9 -1.5707964
9 -1.5707968
10 1.5707964
10 2.3182098E-7
10 2.4088934E-7
10 9.078623E-8
10 -0.0
10 -2.0647656E-7
10 -9.272836E-8
10 -1.5707964
10 -1.5707968
11 1.5707964
11 2.3182098E-7
11 2.4088934E-7
11 9.078623E-8
11 -0.0
11 -2.0647656E-7
11 -9.272836E-8
11 -1.5707964
11 -1.5707968
12 -3.1371052
12 -9.1969945E-5
12 -6.798686E-5
12 -5.986559E-5
12 -5.9777038E-5
12 -6.803109E-5
12 -9.135984E-5
12 -0.004445089
12 -1.565882
13 -3.1371052
13 -9.1969945E-5
13 -6.798686E-5
13 -5.986559E-5
13 -5.9777038E-5
13 -6.803109E-5
13 -9.135984E-5
13 -0.004445089
13 -1.565882
14 -3.1371052
14 -9.1969945E-5
14 -6.798686E-5
14 -5.986559E-5
14 -5.9777038E-5
14 -6.803109E-5
14 -9.135984E-5
14 -0.004445089
14 -1.565882
15 -3.1371052
15 -9.1969945E-5
15 -6.798686E-5
15 -5.986559E-5
15 -5.9777038E-5
15 -6.803109E-5
15 -9.135984E-5
15 -0.004445089
15 -1.565882
16 3.1329577
16 1.5635935E-4
16 1.1509972E-4
16 1.0038919E-4
16 9.974514E-5
16 1.1245493E-4
16 1.5035059E-4
16 0.008650204
16 -1.55512
17 3.1329577
17 1.5635935E-4
17 1.1509972E-4
17 1.0038919E-4
17 9.974514E-5
17 1.1245493E-4
17 1.5035059E-4
17 0.008650204
17 -1.55512
18 3.1309524
18 9.393535E-4
18 6.7242695E-4
18 5.776726E-4
18 5.6619453E-4
18 6.295452E-4
18 8.2076044E-4
18 0.010644091
18 -1.514474
19 3.1309524
19 9.393535E-4
19 6.7242695E-4
19 5.776726E-4
19 5.6619453E-4
19 6.295452E-4
19 8.2076044E-4
19 0.010644091
19 -1.514474
20 3.1309524
20 9.393535E-4
20 6.7242695E-4
20 5.776726E-4
20 5.6619453E-4
20 6.295452E-4
20 8.2076044E-4
20 0.010644091
20 -1.514474
21 3.1311715
21 0.0014677976
21 0.0010297574
21 8.7410095E-4
21 8.4821985E-4
21 9.330827E-4
21 0.0011977805
21 0.010422968
21 -1.4861029
22 3.1307673
22 0.0021106042
22 0.001451426
22 0.0012178115
22 0.0011705054
22 0.0012747196
22 0.0016134202
22 0.010827541
22 -1.4592769
23 3.1304843
23 0.0026348846
23 0.0017843671
23 0.0014840398
23 0.0014165376
23 0.0015315003
23 0.0019190044
23 0.011110147
23 -1.4397382
24 3.1303396
24 0.0030909055
24 0.0020651624
24 0.0017048337
24 0.0016177079
24 0.0017384358
24 0.002160706
24 0.011254201
24 -1.4233223
25 3.1303396
25 0.0030909055
25 0.0020651624
25 0.0017048337
25 0.0016177079
25 0.0017384358
25 0.002160706
25 0.011254201
25 -1.4233223
26 3.1303396
26 0.0030909055
26 0.0020651624
26 0.0017048337
26 0.0016177079
26 0.0017384358
26 0.002160706
26 0.011254201
26 -1.4233223
27 3.1303396
27 0.0030909055
27 0.0020651624
27 0.0017048337
27 0.0016177079
27 0.0017384358
27 0.002160706
27 0.011254201
27 -1.4233223
28 3.1303396
28 0.0030909055
28 0.0020651624
28 0.0017048337
28 0.0016177079
28 0.0017384358
28 0.002160706
28 0.011254201
28 -1.4233223
29 3.1308775
29 0.0032465623
29 0.0021472098
29 0.0017627301
29 0.0016654519
29 0.0017818463
29 0.0022017057
29 0.0107159
29 -1.4113133
30 3.1305318
30 0.0035487986
30 0.0023326299
30 0.0019084892
30 0.0017985075
30 0.0019192311
30 0.0023632955
30 0.011061804
30 -1.4041446
31 3.1305318
31 0.0035487986
31 0.0023326299
31 0.0019084892
31 0.0017985075
31 0.0019192311
31 0.0023632955
31 0.011061804
31 -1.4041446
32 3.1310441
32 0.0035133886
32 0.002299269
32 0.00187686
32 0.0017654003
32 0.0018805448
32 0.002310064
32 0.010549979
32 -1.3991551
33 3.1316366
33 0.0033984317
33 0.0022170665
33 0.0018068621
33 0.0016975062
33 0.0018059353
33 0.0022148194
33 0.009957454
33 -1.3957638
34 3.1327062
34 0.002960235
34 0.0019361762
34 0.0015801521
34 0.0014859905
34 0.001582588
34 0.0019436843
34 0.008887628
34 -1.3986415
35 3.1342006
35 0.0022766483
35 0.0015014475
35 0.0012306054
35 0.0011613123
35 0.0012409851
35 0.0015310139
35 0.007393749
35 -1.4080659
36 3.134145
36 0.0021352351
36 0.0014189809
36 0.0011679194
36 0.0011055941
36 0.0011852006
36 0.0014685178
36 0.0074489526
36 -1.4168826
37 3.134899
37 0.001792763
37 0.0011988305
37 9.901862E-4
37 9.39909E-4
37 0.0010103829
37 0.0012566564
37 0.0066957115
37 -1.4244723
38 3.13685
38 0.0011647837
38 7.840222E-4
38 6.498096E-4
38 6.1860826E-4
38 6.6687015E-4
38 8.326322E-4
38 0.0047446205
38 -1.4323113
39 3.1365497
39 0.0011643711
39 7.8839046E-4
39 6.5543206E-4
39 6.254637E-4
39 6.75992E-4
39 8.470318E-4
39 0.0050443457
39 -1.4392533
40 3.1365497
40 0.0011643711
40 7.8839046E-4
40 6.5543206E-4
40 6.254637E-4
40 6.75992E-4
40 8.470318E-4
40 0.0050443457
40 -1.4392533
41 3.1366057
41 0.0010798908
41 7.3474605E-4
41 6.1270973E-4
41 5.8602233E-4
41 6.349029E-4
41 7.9807173E-4
41 0.004988297
41 -1.4457611
42 3.1366057
42 0.0010798908
42 7.3474605E-4
42 6.1270973E-4
42 5.8602233E-4
42 6.349029E-4
42 7.9807173E-4
42 0.004988297
42 -1.4457611
43 3.1356177
43 0.0012009441
43 8.2254567E-4
43 6.8846846E-4
43 6.604747E-4
43 7.1775407E-4
43 9.060904E-4
43 0.005975846
43 -1.4540383
44 3.1356177
44 0.0012009441
44 8.2254567E-4
44 6.8846846E-4
44 6.604747E-4
44 7.1775407E-4
44 9.060904E-4
44 0.005975846
44 -1.4540383
45 3.1356177
45 0.0012009441
45 8.2254567E-4
45 6.8846846E-4
45 6.604747E-4
45 7.1775407E-4
45 9.060904E-4
45 0.005975846
45 -1.4540383
46 3.1370642
46 7.7308767E-4
46 5.347936E-4
46 4.5006874E-4
46 4.3375776E-4
46 4.735607E-4
46 6.019615E-4
46 0.0045305016
46 -1.4669719
47 3.1370642
47 7.7308767E-4
47 5.347936E-4
47 4.5006874E-4
47 4.3375776E-4
47 4.735607E-4
47 6.019615E-4
47 0.0045305016
47 -1.4669719
48 3.1370642
48 7.7308767E-4
48 5.347936E-4
48 4.5006874E-4
48 4.3375776E-4
48 4.735607E-4
48 6.019615E-4
48 0.0045305016
48 -1.4669719
49 3.137724
49 4.994556E-4
49 3.505284E-4
49 2.976137E-4
49 2.8883244E-4
49 3.1770096E-4
49 4.0807232E-4
49 0.0038715112
49 -1.4868454
