0.14999999 1.0499998
0.14999999 1.0499998
0.14999999 1.0499998
0.14999999 1.0499998
0.14999999 1.0499998
0.14999999 1.0499998
0.14999999 1.0499998
0.14983208 1.0501792
0.14983208 1.0501792
0.14983208 1.0501792
0.15018083 1.0502586
0.15018083 1.0502586
0.14880572 1.0504289
0.14880572 1.0504289
0.146453 1.0509665
0.14553429 1.0504533
0.14508337 1.0479999
0.14508337 1.0479999
0.14508337 1.0479999
0.14499071 1.0449194
0.14563127 1.0402453
0.14682668 1.0332643
0.1484492 1.024298
0.15218972 1.0067476
0.15383233 1.0006604
0.156652 0.9906144
0.15711693 0.9896552
0.15711693 0.9896552
0.15725347 0.9906758
0.15770207 0.9903887
0.15770207 0.9903887
0.15847434 0.9885645
0.15847434 0.9885645
0.15940447 0.98678505
0.16062638 0.9848685
0.1622108 0.98300487
0.16402051 0.98128784
0.16402051 0.98128784
0.1681083 0.98157704
0.1681083 0.98157704
0.17008409 0.98160905
0.17171572 0.98029834
0.1740652 0.9766291
0.1740652 0.9766291
0.17374966 0.96747476
0.17374966 0.96747476
0.17222232 0.95903033
0.17064287 0.95110005
0.17064287 0.95110005
0.16948485 0.9451844
0.16786528 0.93846023
0.16786528 0.93846023
0.16587695 0.9288328
0.16173747 0.9167307
0.16173747 0.9167307
0.16006617 0.9109564
0.15754306 0.90443623
0.15754306 0.90443623
0.1537635 0.89379454
0.1537635 0.89379454
0.1513958 0.8880801
0.14829065 0.8814949
0.14829065 0.8814949
0.14391796 0.87375563
0.13851847 0.8654429
0.13440324 0.8587597
0.13323049 0.85493964
0.13323049 0.85493964
0.13192423 0.8516389
0.13192423 0.8516389
0.13084784 0.8465371
0.13084784 0.8465371
0.13165781 0.84420526
0.13279226 0.8422411
0.13540663 0.83970416
0.13659331 0.83907187
0.13782978 0.8387284
0.13784847 0.8387052
0.13828622 0.8387667
0.13894455 0.8383438
0.13989125 0.83758354
0.13972336 0.83585405
0.13723937 0.8336654
0.13026348 0.82969177
0.13026348 0.82969177
0.1261873 0.827742
0.12354199 0.82713336
0.11927064 0.82664335
0.115803644 0.82573193
0.1157308 0.8258381
0.11557559 0.8259432
0.115110934 0.8257216
0.11473985 0.8250635
0.11497629 0.8249381
0.11509065 0.8249696
0.11509065 0.8249696
0.11554688 0.825039
0.11554688 0.825039
0.11667176 0.82438993
0.11685528 0.8221003
0.11685528 0.8221003
0.11685528 0.8221003
0.117691696 0.8183485
0.120109834 0.8127467
0.1211125 0.81022847
0.1211125 0.81022847
0.121217646 0.8080662
0.11956532 0.8067967
0.11675495 0.80582637
0.11675495 0.80582637
0.11361823 0.80506295
0.11020287 0.8048803
0.11020287 0.8048803
0.10394573 0.8059546
0.10394573 0.8059546
0.09989523 0.80743325
0.09989523 0.80743325
0.09989523 0.80743325
0.09989523 0.80743325
0.09633086 0.80868423
0.09633086 0.80868423
0.09431358 0.80919874
0.09017814 0.81002724
0.09017814 0.81002724
0.09017814 0.81002724
0.08756874 0.81033915
0.0846151 0.81049424
0.07813279 0.81040496
0.07503607 0.8101282
0.06949143 0.81078947
0.06602606 0.81224597
0.058076404 0.81583214
0.05381273 0.817917
0.05381273 0.817917
0.049345143 0.82014096
0.039706536 0.8259572
0.039706536 0.8259572
0.03513918 0.83095044
0.03143951 0.8365183
0.025456537 0.8482353
0.025456537 0.8482353
0.025456537 0.8482353
0.025456537 0.8482353
0.022849027 0.8545815
0.01821211 0.8671796
0.015714174 0.8732647
0.0131169455 0.8789908
0.010653691 0.8849276
0.0065704575 0.8979872
0.0048813894 0.90509474
0.0046373466 0.91257125
0.0046373466 0.91257125
0.00732047 0.9265211
0.00732047 0.9265211
0.009994758 0.93288267
0.018231304 0.94545615
0.018231304 0.94545615
0.02828069 0.9594432
0.034527835 0.9667672
0.0420233 0.9729682
0.0420233 0.9729682
0.0420233 0.9729682
0.050798625 0.97843045
0.06122128 0.983315
0.073305026 0.987243
0.073305026 0.987243
0.073305026 0.987243
0.08850034 0.991313
0.10590603 0.9935287
0.10590603 0.9935287
0.123564914 0.9919504
0.15801778 0.9770544
0.17379943 0.9661142
0.17379943 0.9661142
0.18507814 0.9534141
0.19050458 0.93728226
0.19050458 0.93728226
0.19380555 0.91959953
0.19489208 0.89883006
0.19299385 0.8765496
0.19299385 0.8765496
0.18681028 0.85639656
0.17606321 0.84011316
0.16235755 0.8249658
0.16235755 0.8249658
0.1482365 0.80574715
0.12975203 0.79317665
0.12975203 0.79317665
0.087655835 0.77745235
0.087655835 0.77745235
0.06781811 0.7745334
0.06781811 0.7745334
0.048984237 0.7748667
0.013530883 0.7817277
0.013530883 0.7817277
0.013530883 0.7817277
0.013530883 0.7817277
-0.017822456 0.7951142
-0.017822456 0.7951142
-0.032282557 0.80467236
-0.044067524 0.8155769
-0.044067524 0.8155769
-0.05148249 0.8260229
-0.05609001 0.8363088
-0.059033018 0.8473525
-0.059033018 0.8473525
-0.059033018 0.8473525
-0.059033018 0.8473525
-0.058459513 0.86747456
-0.058459513 0.86747456
-0.056211274 0.8761632
-0.053145915 0.88414747
-0.053145915 0.88414747
-0.049317334 0.89127886
-0.044777106 0.89843273
-0.03973352 0.90693456
-0.03973352 0.90693456
-0.033943933 0.9151062
-0.033943933 0.9151062
-0.022305321 0.9231922
-0.022305321 0.9231922
-0.017011642 0.9234554
-0.017011642 0.9234554
-0.011738217 0.9224016
-0.007475812 0.9204651
-0.007475812 0.9204651
-0.0013204089 0.91433895
-0.0013204089 0.91433895
-4.0898426E-4 0.9098462
-4.0898426E-4 0.9098462
0.0041844537 0.90277386
0.0041844537 0.90277386
0.006502735 0.89879525
0.006502735 0.89879525
0.009527688 0.8945101
0.011326982 0.8893995
0.011194456 0.88431215
0.008287712 0.8797693
0.008287712 0.8797693
0.0038746714 0.87582576
-0.001559961 0.87231463
-0.001559961 0.87231463
-0.0076801903 0.86923903
-0.014015118 0.8664111
-0.020200204 0.86375856
-0.020200204 0.86375856
-0.020200204 0.86375856
-0.020200204 0.86375856
-0.02615882 0.8619499
-0.03728911 0.8609883
-0.03728911 0.8609883
-0.03728911 0.8609883
-0.042489816 0.86187077
-0.047364384 0.86369264
-0.05166515 0.8659545
-0.05166515 0.8659545
-0.055672158 0.86861783
-0.05966891 0.8713247
-0.063698515 0.87400544
-0.06765602 0.87644875
-0.07128174 0.8787748
-0.07128174 0.8787748
-0.07128174 0.8787748
-0.07128174 0.8787748
-0.07397399 0.88268995
-0.07397399 0.88268995
-0.07553815 0.8884061
-0.07553815 0.8884061
-0.075979665 0.9017121
-0.075979665 0.9017121
-0.07411226 0.90981835
-0.07411226 0.90981835
-0.07263828 0.9163154
-0.070007905 0.9230007
-0.06568711 0.9303254
-0.060444284 0.937086
-0.053827684 0.94394815
-0.053827684 0.94394815
-0.046797957 0.9504097
-0.03931625 0.9563802
-0.03931625 0.9563802
-0.031346854 0.96197665
-0.022924876 0.9675125
-0.013996008 0.97298926
-0.013996008 0.97298926
-0.003919377 0.978279
0.006842283 0.9829442
0.017514361 0.9863116
0.028005967 0.98872215
0.028005967 0.98872215
0.050847072 0.9911257
0.050847072 0.9911257
0.088652775 0.99087083
0.088652775 0.99087083
0.11035554 0.98899734
0.11035554 0.98899734
0.1290228 0.98442906
0.139201 0.9802785
0.14965335 0.9748559
0.15969354 0.9688137
0.15969354 0.9688137
0.17908916 0.9554489
0.17908916 0.9554489
0.19799891 0.94086677
0.19799891 0.94086677
0.20687678 0.9333251
0.2158803 0.92430085
0.2158803 0.92430085
0.22447152 0.9137805
0.22447152 0.9137805
0.23895204 0.89081764
0.23895204 0.89081764
0.24440062 0.87926644
0.24856022 0.87023115
0.24856022 0.87023115
0.24856022 0.87023115
0.2521629 0.8627159
0.2521629 0.8627159
0.25684065 0.84675425
0.25796732 0.83937895
0.25796732 0.83937895
0.25866297 0.832176
0.25866297 0.832176
0.2590789 0.8189166
0.2590789 0.8189166
0.259342 0.8123686
0.25956732 0.8066126
0.25940278 0.801072
0.25940278 0.801072
0.25888416 0.79586476
0.25794318 0.79098046
0.25794318 0.79098046
0.25652722 0.7860649
0.25652722 0.7860649
0.25652722 0.7860649
0.25531682 0.78155935
0.25531682 0.78155935
0.25531682 0.78155935
0.25420254 0.7768927
0.25329435 0.7720589
0.25329435 0.7720589
0.25329435 0.7720589
0.25329435 0.7720589
0.2484659 0.7642824
0.2484659 0.7642824
0.24546185 0.76149327
0.2423228 0.759341
0.236105 0.7569985
0.23320284 0.75677264
0.23048207 0.75691247
0.22813284 0.7573405
0.22620022 0.7581935
0.22429934 0.7591719
0.22429934 0.7591719
0.22140607 0.76151544
0.22140607 0.76151544
0.21722777 0.76593584
0.21722777 0.76593584
0.21258911 0.7714673
0.21258911 0.7714673
0.20742576 0.7777907
0.20189235 0.7849469
0.19614062 0.79293996
0.1904187 0.80183554
0.1904187 0.80183554
0.18519941 0.81119907
0.18055642 0.8203249
0.17682089 0.8287546
0.17384306 0.8363639
0.17132421 0.84370553
0.16626588 0.85944855
0.16626588 0.85944855
0.16401128 0.8674644
0.16401128 0.8674644
0.16186509 0.87527305
0.16186509 0.87527305
0.15772717 0.88948953
0.15569596 0.89584506
0.15360862 0.90145195
0.15360862 0.90145195
0.15360862 0.90145195
0.1520088 0.90664595
0.1520088 0.90664595
0.15160242 0.91704834
0.15160242 0.91704834
0.15405777 0.9234389
0.15839115 0.9302028
0.15839115 0.9302028
0.16397707 0.9363925
0.16397707 0.9363925
0.17059414 0.9420229
0.17776152 0.94705075
0.18585059 0.95221394
0.18585059 0.95221394
0.19441402 0.9571916
0.20470946 0.9620784
0.21616368 0.96594
0.22664484 0.9686142
0.23506658 0.97073287
0.23506658 0.97073287
0.24252208 0.97231686
0.24943562 0.97326374
0.24943562 0.97326374
0.25748366 0.97335416
0.26662236 0.9727775
0.27642626 0.97174245
0.28655058 0.9701378
0.29791623 0.9673292
0.29791623 0.9673292
0.30796415 0.9644679
0.31655678 0.961933
0.31655678 0.961933
0.3256792 0.95823175
0.3256792 0.95823175
0.33384165 0.95430917
0.33384165 0.95430917
0.34830365 0.9455182
0.3549661 0.9395955
0.36061877 0.9345692
0.36454165 0.932251
0.36830455 0.92989194
0.3720873 0.92747337
0.3720873 0.92747337
0.3761016 0.92591274
0.38320723 0.9249276
0.3861615 0.92486984
0.3861615 0.92486984
0.38874176 0.9234514
0.39117214 0.9209927
0.39375785 0.91811955
0.39375785 0.91811955
0.39635986 0.9147272
0.39941108 0.9042498
0.39957607 0.89865524
0.39887506 0.89311326
0.39887506 0.89311326
0.39887506 0.89311326
0.39482045 0.8818717
0.39482045 0.8818717
0.39482045 0.8818717
0.39103907 0.87542117
0.38680896 0.869119
0.38680896 0.869119
0.3826192 0.8631436
0.3826192 0.8631436
0.3826192 0.8631436
0.37837029 0.8574878
0.37240773 0.85093087
0.36492217 0.8439975
0.35641998 0.83751124
0.3462825 0.8308641
0.3462825 0.8308641
0.32784575 0.82061684
0.32784575 0.82061684
0.32784575 0.82061684
0.3169034 0.81549466
0.3052239 0.8103553
0.3052239 0.8103553
0.29538733 0.8059921
0.285239 0.8022461
0.27355248 0.7988602
0.26117563 0.7961361
0.24789426 0.7940766
0.23625425 0.792452
0.23625425 0.792452
0.22381945 0.7913674
0.22381945 0.7913674
0.19262597 0.79070836
0.19262597 0.79070836
0.19262597 0.79070836
0.19262597 0.79070836
0.16441445 0.7917375
0.13913947 0.79288405
0.13144729 0.7930168
0.12532815 0.7930263
0.11896765 0.79280055
0.11896765 0.79280055
0.11116669 0.79291004
0.100648746 0.7938639
0.09148001 0.7949153
0.08186774 0.79661334
0.08186774 0.79661334
0.07024747 0.7997764
0.059243422 0.8032686
0.04860825 0.8071634
0.037692048 0.8114184
0.026683684 0.81607616
0.0054813107 0.8262582
0.0054813107 0.8262582
-0.0041286093 0.8315514
-0.0041286093 0.8315514
-0.019503703 0.84248734
-0.030649653 0.8528922
-0.030649653 0.8528922
-0.040288366 0.8649866
-0.040288366 0.8649866
-0.04427661 0.87152386
-0.047446243 0.8772877
-0.04988234 0.882236
-0.051721714 0.88599855
-0.052951664 0.8888298
-0.053717174 0.89063376
-0.053717174 0.89063376
-0.054819603 0.8886625
-0.054819603 0.8886625
-0.055786192 0.8882159
-0.057258476 0.8891308
-0.057258476 0.8891308
-0.058808435 0.8920228
-0.061577566 0.90208435
-0.061577566 0.90208435
-0.061577566 0.90208435
-0.06250626 0.904976
-0.06326979 0.90746814
-0.06415139 0.910511
-0.0647713 0.9129855
-0.06492652 0.91657716
-0.06509505 0.92119825
-0.06538326 0.9247918
-0.06562178 0.92730397
-0.065749876 0.9286789
-0.065749876 0.9286789
-0.065749876 0.9286789
-0.06573891 0.92955035
-0.06566741 0.9302699
-0.06566741 0.9302699
-0.06566741 0.9302699
-0.06608555 0.9325878
-0.06621802 0.9329546
-0.06621802 0.9329546
-0.06621802 0.9329546
-0.06621802 0.9329546
-0.06626471 0.93292093
-0.066162 0.9345795
-0.066162 0.9345795
-0.06577989 0.93740356
-0.06559188 0.94058
-0.06559188 0.94058
-0.06560131 0.94305724
-0.06560131 0.94305724
-0.06564738 0.9445424
-0.06550951 0.945591
-0.06504406 0.9466155
-0.064043686 0.9493984
-0.064043686 0.9493984
-0.0612543 0.9597756
-0.058639735 0.9696151
-0.054784518 0.9831079
-0.050142992 0.99845636
-0.042745896 1.0223236
-0.042745896 1.0223236
-0.039715525 1.0323985
-0.039715525 1.0323985
-0.039715525 1.0323985
-0.040466767 1.0315973
-0.040466767 1.0315973
-0.04125381 1.0309813
-0.042231552 1.0306356
-0.04352178 1.0304421
-0.04352178 1.0304421
-0.04644827 1.0290117
-0.047996048 1.0274209
-0.050015666 1.0259035
-0.055643104 1.0225613
-0.058514018 1.0214827
-0.060445827 1.022094
-0.060780365 1.0243835
-0.05940435 1.0284859
-0.058524966 1.032031
-0.056274056 1.0365169
-0.056274056 1.0365169
-0.05117637 1.0434955
-0.044537857 1.0511484
-0.044537857 1.0511484
-0.044537857 1.0511484
-0.03670604 1.0595247
-0.027783617 1.0682415
-0.019911285 1.0758287
-0.014169876 1.0815337
-0.0077893184 1.0870761
6.027411E-4 1.0931804
0.017256416 1.1033145
0.026200172 1.1078587
0.026200172 1.1078587
0.026200172 1.1078587
0.044700004 1.1153969
0.044700004 1.1153969
0.05572487 1.1185663
0.05572487 1.1185663
0.05572487 1.1185663
0.05572487 1.1185663
0.067794554 1.1207815
0.067794554 1.1207815
0.067794554 1.1207815
0.07996684 1.1218746
0.09081707 1.122574
0.09081707 1.122574
0.10067725 1.1228646
0.111677624 1.1222724
0.111677624 1.1222724
0.12294533 1.1206472
0.12294533 1.1206472
0.14328428 1.1144274
0.15258527 1.1100545
0.15258527 1.1100545
0.17101988 1.0981951
0.17101988 1.0981951
0.1897215 1.0855132
0.19340429 1.0838462
0.20224932 1.0777932
0.20684382 1.0731113
0.21182859 1.0657871
0.2203389 1.0508134
0.2238123 1.0429952
0.2238123 1.0429952
0.22749884 1.0331509
0.23042524 1.0245343
0.23042524 1.0245343
0.23435947 1.0061963
0.23435947 1.0061963
0.23653288 0.97878665
0.23653288 0.97878665
0.23652112 0.9634544
0.23646958 0.9496993
0.23633973 0.93927
0.23633973 0.93927
0.23633973 0.93927
0.23598877 0.9207405
0.23598877 0.9207405
0.23603804 0.9128749
0.23603804 0.9128749
0.23609824 0.89901817
0.23609824 0.89901817
0.23621044 0.89249086
0.23621044 0.89249086
0.23616949 0.88503426
0.23616949 0.88503426
0.23551781 0.8711144
0.23424685 0.8633048
0.23192552 0.8553381
0.23192552 0.8553381
0.22898586 0.8480729
0.22660592 0.8422262
0.22660592 0.8422262
0.21793303 0.8295196
0.211939 0.82348764
0.20540893 0.8181779
0.20540893 0.8181779
0.19983135 0.81381166
0.19983135 0.81381166
0.19527048 0.8103016
0.19527048 0.8103016
0.1912215 0.8058441
0.1912215 0.8058441
0.18786566 0.8033265
0.18221977 0.8003457
0.18221977 0.8003457
0.17539911 0.7973207
0.16870788 0.79446185
0.16870788 0.79446185
0.16286466 0.7922143
0.15776959 0.7907023
0.15776959 0.7907023
0.15346698 0.7895446
0.1499585 0.78859824
0.14740536 0.7879776
0.14589615 0.7875859
0.14589615 0.7875859
0.14309531 0.7873988
0.13764727 0.78741753
0.13764727 0.78741753
0.13764727 0.78741753
0.13120961 0.78719246
0.13120961 0.78719246
0.1295125 0.78719956
0.12720975 0.78692657
0.12720975 0.78692657
0.12397432 0.786434
0.12166385 0.786415
0.11650868 0.78687775
0.11650868 0.78687775
0.11004373 0.787622
0.11004373 0.787622
0.09510869 0.79027194
0.09510869 0.79027194
0.08509281 0.7923696
0.08509281 0.7923696
0.07290944 0.79512715
0.05716331 0.7990704
0.05716331 0.7990704
0.020877039 0.8094141
0.020877039 0.8094141
0.0030070446 0.81510085
-0.015672829 0.8208578
-0.015672829 0.8208578
-0.015672829 0.8208578
-0.03435294 0.8264046
-0.05274261 0.83195513
-0.07129587 0.837495
-0.108674265 0.8485683
-0.108674265 0.8485683
-0.12673114 0.8544652
-0.14433172 0.8610321
-0.17970917 0.87486047
-0.19532776 0.88104355
-0.19532776 0.88104355
-0.19532776 0.88104355
-0.19532776 0.88104355
-0.19532776 0.88104355
-0.20915541 0.8868753
-0.20915541 0.8868753
-0.20915541 0.8868753
-0.22981445 0.89565057
-0.22981445 0.89565057
-0.23545846 0.8975177
-0.23867981 0.89780605
-0.24401808 0.8965834
-0.24621555 0.8954538
-0.24621555 0.8954538
-0.24770625 0.89409477
-0.24868682 0.89286196
-0.2503244 0.89280593
-0.2503244 0.89280593
-0.25648254 0.89724034
-0.2601833 0.90028346
-0.26442903 0.9039156
-0.27357274 0.91253984
-0.27357274 0.91253984
-0.2782942 0.91741246
-0.28304484 0.9225658
-0.28304484 0.9225658
-0.2873692 0.9279391
-0.29107556 0.93182087
-0.29473063 0.9349267
-0.29839626 0.9376193
-0.29839626 0.9376193
-0.30233493 0.9398037
-0.3063103 0.94308054
-0.3063103 0.94308054
-0.30937558 0.94707364
-0.31167123 0.95117617
-0.31167123 0.95117617
-0.31316057 0.95533407
-0.31402165 0.9596216
-0.3130297 0.96467304
-0.30953673 0.971289
-0.30953673 0.971289
-0.3044881 0.9784155
-0.29820934 0.9858208
-0.29820934 0.9858208
-0.28273207 0.9988451
-0.2737811 1.0049651
-0.2737811 1.0049651
-0.26462397 1.0105393
-0.24880464 1.0184349
-0.24880464 1.0184349
-0.24142906 1.0214828
-0.22599904 1.0272477
-0.22599904 1.0272477
-0.22599904 1.0272477
-0.21828158 1.0298111
-0.20330815 1.0341499
-0.20330815 1.0341499
-0.1950176 1.0355184
-0.18635492 1.0359105
-0.18635492 1.0359105
-0.18635492 1.0359105
-0.17774889 1.0357049
-0.16913578 1.0350844
-0.16061954 1.0339303
-0.16061954 1.0339303
-0.15253219 1.0321721
-0.1383605 1.026655
-0.1383605 1.026655
-0.1319094 1.0236106
-0.12548803 1.0206345
-0.11942847 1.0163102
-0.11942847 1.0163102
-0.114290394 1.0100839
-0.10987918 1.0027995
-0.10987918 1.0027995
-0.10616139 0.99500275
-0.10259571 0.987116
-0.098819815 0.9793841
-0.098819815 0.9793841
-0.09696073 0.97095776
-0.09806134 0.962052
-0.10106703 0.9538304
-0.10106703 0.9538304
-0.1048942 0.94646406
-0.10891382 0.939038
-0.10891382 0.939038
-0.11472459 0.9325835
-0.12267073 0.9282447
-0.1407318 0.9231407
-0.14948028 0.92132795
-0.1682351 0.91604346
-0.1682351 0.91604346
-0.19215633 0.91324556
-0.20658651 0.914165
-0.22145851 0.91733086
-0.2332199 0.9242798
-0.24322006 0.9335741
-0.25287667 0.94441414
-0.26615077 0.9703846
-0.26615077 0.9703846
-0.2695914 0.9858286
-0.27061027 1.00327
-0.2687987 1.02201
-0.2687987 1.02201
-0.26403248 1.0407368
-0.25594056 1.0579375
-0.25594056 1.0579375
-0.25594056 1.0579375
-0.24462657 1.073126
-0.24462657 1.073126
-0.23042755 1.0861197
-0.23042755 1.0861197
-0.21410015 1.096958
-0.21410015 1.096958
-0.16429406 1.1041243
-0.16429406 1.1041243
-0.16429406 1.1041243
-0.14721519 1.100314
-0.13202824 1.093623
-0.12012334 1.0850279
-0.11087978 1.0745475
-0.104106046 1.0628321
-0.104106046 1.0628321
-0.10002096 1.0503715
-0.098414704 1.0367126
-0.09984585 1.022783
-0.09984585 1.022783
-0.10427383 1.0104779
-0.11117045 0.99977696
-0.11117045 0.99977696
-0.11972843 0.98689824
-0.13122667 0.9735242
-0.14394096 0.96561384
-0.14394096 0.96561384
-0.15714948 0.95953214
-0.17214605 0.95507795
-0.17214605 0.95507795
-0.18820816 0.9522203
-0.20500565 0.9513202
-0.20500565 0.9513202
-0.22434552 0.9501897
-0.24220212 0.95286244
-0.24220212 0.95286244
-0.2819565 0.96849453
-0.2819565 0.96849453
-0.3000297 0.98080033
-0.3122292 0.99381036
-0.3122292 0.99381036
-0.31972882 1.0066448
-0.31972882 1.0066448
-0.32578486 1.0353444
-0.32507434 1.0513833
-0.31421486 1.077795
-0.30491218 1.0875714
-0.29376042 1.0949887
-0.28211325 1.098909
-0.25880975 1.0969007
-0.24689846 1.0921961
-0.24689846 1.0921961
-0.22357865 1.0750962
-0.21305136 1.0635674
-0.20897421 1.0387272
-0.20897421 1.0387272
-0.22342288 1.0045127
-0.23273483 0.99499357
-0.25748292 0.9772097
-0.2724698 0.9700519
-0.2724698 0.9700519
-0.28844243 0.96637183
-0.30608854 0.9652792
-0.32517755 0.9674568
-0.32517755 0.9674568
-0.3438781 0.9731194
-0.3438781 0.9731194
-0.3438781 0.9731194
-0.3438781 0.9731194
-0.3594436 0.9829399
-0.37157142 0.99521923
-0.37978476 1.0088038
-0.38374054 1.022765
-0.38392147 1.0354271
-0.37670115 1.0572393
-0.37670115 1.0572393
-0.37118968 1.067601
-0.36444962 1.0774815
-0.35663894 1.0862987
-0.35663894 1.0862987
-0.3484215 1.0929363
-0.3402975 1.0964503
-0.3402975 1.0964503
-0.33267587 1.0974666
-0.33267587 1.0974666
-0.3235565 1.099467
-0.3235565 1.099467
-0.3035986 1.1006093
-0.3035986 1.1006093
-0.29326084 1.0984992
-0.28240618 1.0951167
-0.28240618 1.0951167
-0.2718901 1.0906951
-0.25072297 1.0792645
-0.25072297 1.0792645
-0.24085645 1.0723064
-0.2298559 1.0640247
-0.21979034 1.054815
-0.21140333 1.0451429
-0.21140333 1.0451429
-0.20379934 1.0351
-0.19687673 1.0246923
-0.19687673 1.0246923
-0.191695 1.0152338
-0.191695 1.0152338
-0.18884113 1.0023376
-0.18884113 1.0023376
-0.1908522 0.9997078
-0.19392392 0.9990163
-0.19392392 0.9990163
-0.19730313 0.9995755
-0.19730313 0.9995755
-0.20343506 1.0034925
-0.20343506 1.0034925
-0.20343506 1.0034925
-0.20597866 1.0062616
-0.21218474 1.0183592
-0.21591166 1.0288979
-0.21960862 1.0416195
-0.22306673 1.055568
-0.22660795 1.0723315
-0.22660795 1.0723315
-0.22660795 1.0723315
-0.22968838 1.0909946
-0.22968838 1.0909946
-0.2341074 1.1272957
-0.2341074 1.1272957
-0.23630035 1.1504109
-0.23718293 1.1579229
-0.23879161 1.1717726
-0.23879161 1.1717726
-0.24059686 1.1848228
-0.24123469 1.1900296
-0.24123469 1.1900296
-0.24144718 1.1947119
-0.24181938 1.199645
-0.23919824 1.2132343
-0.23919824 1.2132343
-0.23609522 1.2213184
-0.23609522 1.2213184
-0.23609522 1.2213184
-0.23609522 1.2213184
-0.23190132 1.2298633
-0.22836527 1.2373927
-0.22489074 1.2438757
-0.22249794 1.2490516
-0.22249794 1.2490516
-0.22113952 1.253341
-0.2185765 1.2577683
-0.21530087 1.2619985
-0.21530087 1.2619985
-0.19862719 1.2746838
-0.19862719 1.2746838
-0.19862719 1.2746838
-0.1792453 1.279592
-0.1792453 1.279592
-0.15525553 1.2811987
-0.15525553 1.2811987
-0.14092073 1.2796139
-0.12649482 1.2765226
-0.12649482 1.2765226
-0.12649482 1.2765226
-0.12649482 1.2765226
-0.09952319 1.2662336
-0.08668868 1.2594373
-0.08668868 1.2594373
-0.08668868 1.2594373
-0.06260082 1.2427686
-0.06260082 1.2427686
-0.041235816 1.2187449
-0.03233284 1.2043517
-0.018807001 1.1748419
-0.015041065 1.1610388
-0.013092903 1.1473482
-0.014162466 1.1209977
-0.014162466 1.1209977
-0.026395777 1.0851518
-0.026395777 1.0851518
-0.03683288 1.066755
-0.043072846 1.057371
-0.05664751 1.0408058
-0.06284848 1.0343814
-0.06284848 1.0343814
-0.06891508 1.0284358
-0.07534982 1.0224841
-0.08179739 1.0166103
-0.08179739 1.0166103
-0.08818908 1.0110836
-0.100407794 1.0006474
-0.1128642 0.9913076
-0.120419905 0.9878127
-0.12793258 0.98548114
-0.12793258 0.98548114
-0.12793258 0.98548114
-0.12793258 0.98548114
-0.12793258 0.98548114
-0.13581632 0.984134
-0.14406078 0.9832985
-0.15249965 0.9830495
-0.1607078 0.9832285
-0.1607078 0.9832285
-0.16841927 0.98428136
-0.17591901 0.98537076
-0.18306527 0.98647106
-0.18306527 0.98647106
-0.1901987 0.98829687
-0.19711521 0.9902564
-0.2039442 0.9929104
-0.2039442 0.9929104
-0.21012953 0.9959973
-0.21638477 0.9994237
-0.21638477 0.9994237
-0.22293642 1.00264
-0.22934182 1.0061176
-0.22934182 1.0061176
-0.23555729 1.0100677
-0.24136007 1.0150723
-0.2470957 1.0210962
-0.25316963 1.0280854
-0.25316963 1.0280854
-0.25941044 1.0362236
-0.26561388 1.04604
-0.26561388 1.04604
-0.26561388 1.04604
-0.26561388 1.04604
-0.26887664 1.0568541
-0.26896763 1.0678625
-0.2610164 1.0879861
-0.2610164 1.0879861
-0.2544772 1.0960497
-0.2544772 1.0960497
-0.2372128 1.1085415
-0.2372128 1.1085415
-0.2372128 1.1085415
-0.2265999 1.1124319
-0.2265999 1.1124319
-0.21494558 1.1146057
-0.20281477 1.1138333
-0.1904655 1.1101524
-0.17864221 1.1038754
-0.16787834 1.0951121
-0.15935907 1.0842317
-0.1593452 1.061002
-0.16374116 1.0491555
-0.17966464 1.0300223
-0.19163634 1.024091
-0.19163634 1.024091
-0.21825299 1.0183516
-0.2318141 1.019671
-0.24467075 1.0234485
-0.24467075 1.0234485
-0.2707833 1.0384315
-0.28690946 1.0470023
-0.29637545 1.0591882
-0.3045227 1.0910928
-0.3023308 1.1051543
-0.29041672 1.1352764
-0.27945203 1.1494205
-0.25319153 1.1804672
-0.2354296 1.1896132
-0.19472867 1.201071
-0.17423995 1.2016609
-0.13512841 1.1963648
-0.11757165 1.1905835
-0.1032231 1.1834385
-0.074894205 1.1672696
-0.074894205 1.1672696
-0.066263504 1.1557207
-0.06021554 1.1447622
-0.057497155 1.1231366
-0.05962751 1.1131039
-0.06948265 1.094209
-0.06948265 1.094209
-0.06948265 1.094209
-0.075927086 1.0852811
-0.075927086 1.0852811
-0.102205135 1.062313
-0.102205135 1.062313
-0.11274769 1.0569727
-0.12465533 1.0526973
-0.13813245 1.0496194
-0.15310809 1.0485697
-0.18441266 1.0545812
-0.18441266 1.0545812
-0.18441266 1.0545812
-0.19930664 1.0621765
-0.21366544 1.0730839
-0.22502708 1.0865467
-0.23362067 1.1018107
-0.24080674 1.1338063
-0.240713 1.1495283
-0.240713 1.1495283
-0.23802404 1.1643032
-0.23802404 1.1643032
-0.22414926 1.1906846
-0.22414926 1.1906846
-0.19961862 1.2118019
-0.18308672 1.2197047
-0.14469233 1.2264179
-0.14469233 1.2264179
-0.11245282 1.2141608
-0.11245282 1.2141608
-0.08556447 1.1884444
-0.077096745 1.170879
-0.077096745 1.170879
-0.078030385 1.1073464
-0.083770685 1.0895059
-0.09477411 1.0807537
-0.10988055 1.0757
-0.14376017 1.0722394
-0.15705457 1.0763922
-0.15705457 1.0763922
-0.16508168 1.0848405
-0.16508168 1.0848405
-0.19122589 1.1177355
-0.19638383 1.1313465
-0.19921008 1.1460446
-0.19921008 1.1460446
-0.19284052 1.1925142
-0.18652202 1.2084559
-0.16777378 1.2387346
-0.1558184 1.2521218
-0.12962654 1.2724147
-0.11432874 1.2798694
-0.11432874 1.2798694
-0.07959438 1.2877882
-0.061309647 1.287352
-0.031031808 1.277322
-0.020433847 1.2688067
-0.011896842 1.2583395
-0.011896842 1.2583395
-0.0055657653 1.2462325
-0.0055657653 1.2462325
-0.0016096055 1.2328389
-0.0016096055 1.2328389
-0.0016096055 1.2328389
3.897106E-4 1.2177527
-5.005259E-4 1.201515
-0.0041612196 1.1841005
-0.011943817 1.1687784
-0.011943817 1.1687784
-0.022641886 1.157953
-0.035745688 1.1498792
-0.035745688 1.1498792
-0.035745688 1.1498792
-0.051110007 1.1438951
-0.051110007 1.1438951
-0.06629084 1.1421263
-0.06629084 1.1421263
-0.08217162 1.1434653
-0.08217162 1.1434653
-0.098247655 1.1473753
-0.098247655 1.1473753
-0.1136485 1.1537778
-0.1136485 1.1537778
-0.12934217 1.1627053
-0.12934217 1.1627053
-0.14307858 1.174201
-0.14307858 1.174201
-0.14307858 1.174201
-0.16065952 1.2026207
-0.16065952 1.2026207
-0.16430983 1.2177162
-0.16430983 1.2177162
-0.16464719 1.231799
-0.16265897 1.2451127
-0.15880731 1.2566721
-0.15880731 1.2566721
-0.15880731 1.2566721
-0.15320493 1.2657393
-0.15320493 1.2657393
-0.14584897 1.2755189
-0.13721235 1.2844298
-0.13721235 1.2844298
-0.13721235 1.2844298
-0.12822828 1.2883009
-0.12822828 1.2883009
-0.106529914 1.2939289
-0.07902507 1.2936399
-0.063946426 1.2899506
-0.037745796 1.2729913
-0.029903516 1.2613523
-0.025036525 1.2488425
-0.023367759 1.2364018
-0.023367759 1.2364018
-0.027819345 1.2131084
-0.033709865 1.2042147
-0.04151053 1.1978722
-0.04151053 1.1978722
-0.05852882 1.1914968
-0.06696527 1.1899331
-0.08413508 1.1885879
-0.08413508 1.1885879
-0.10668194 1.1872488
-0.10668194 1.1872488
-0.10668194 1.1872488
-0.10668194 1.1872488
-0.10668194 1.1872488
-0.12130405 1.1871084
-0.13746858 1.1886059
-0.13746858 1.1886059
-0.15247867 1.1916385
-0.15247867 1.1916385
-0.1648204 1.1965113
-0.1648204 1.1965113
-0.17380948 1.2029812
-0.17380948 1.2029812
-0.18451858 1.2175816
-0.1877876 1.2257421
-0.19089511 1.2447207
-0.19089511 1.2447207
-0.19079646 1.2553155
-0.1851055 1.2725191
-0.18033609 1.2781055
-0.18033609 1.2781055
-0.17473516 1.2806848
-0.16899619 1.2838209
-0.15559526 1.2899529
-0.15559526 1.2899529
-0.1473785 1.2926857
-0.13777733 1.294904
-0.13777733 1.294904
-0.12765685 1.2954953
-0.11675446 1.2946109
-0.104905054 1.291959
-0.09225491 1.2876439
-0.09225491 1.2876439
-0.06938402 1.2743242
-0.06938402 1.2743242
-0.05314805 1.2460897
-0.050671894 1.2341197
-0.052942704 1.2088261
-0.058466632 1.1986259
-0.06573455 1.1895014
-0.08520588 1.1741819
-0.08520588 1.1741819
-0.11001883 1.1659024
-0.11001883 1.1659024
-0.15122369 1.1659887
-0.16344842 1.1700776
-0.1749812 1.1756856
-0.18718104 1.1834111
-0.19942683 1.1935815
-0.19942683 1.1935815
-0.21900961 1.2210971
-0.21900961 1.2210971
-0.22464521 1.2377862
-0.22695148 1.2768466
-0.22695148 1.2768466
-0.21618214 1.3177171
-0.20511326 1.3367985
-0.20511326 1.3367985
-0.1900266 1.3548484
-0.1711578 1.3709757
-0.14932708 1.3843681
-0.14932708 1.3843681
-0.12729222 1.3927339
-0.12729222 1.3927339
-0.12729222 1.3927339
-0.10367737 1.3961412
-0.05354323 1.3910613
-0.05354323 1.3910613
-0.031811245 1.3834096
-0.014259189 1.373218
-0.0012135261 1.360818
0.006922928 1.3481034
0.006922928 1.3481034
0.010405391 1.3361704
0.011861159 1.3239825
0.011696827 1.3113515
0.01038333 1.298579
0.007874893 1.2849057
0.0032229745 1.2706147
-0.01159442 1.248987
-0.01159442 1.248987
-0.020509321 1.2437618
-0.030174047 1.240403
-0.030174047 1.240403
-0.030174047 1.240403
-0.04088124 1.2385819
-0.05265851 1.2380021
-0.06420553 1.238931
-0.07555197 1.2414992
-0.08688927 1.2459724
-0.09668456 1.2527425
-0.09668456 1.2527425
-0.09668456 1.2527425
-0.1180025 1.2721328
-0.1180025 1.2721328
-0.12547871 1.2842019
-0.13058478 1.2986478
-0.13351528 1.3150783
-0.13300833 1.3313806
-0.12336637 1.3643159
-0.11457751 1.3796325
-0.08974433 1.4016868
-0.075528786 1.4086444
-0.06153618 1.4122403
-0.048586614 1.4125228
-0.048586614 1.4125228
-0.0043362076 1.4026372
0.010698873 1.3954189
0.021772606 1.3866894
0.0294859 1.3756266
0.034063783 1.3535827
0.034063783 1.3535827
0.031630266 1.3439542
0.027343754 1.3349789
0.027343754 1.3349789
0.02188646 1.3264105
0.015721276 1.3157632
0.007740909 1.3029379
0.007740909 1.3029379
-0.0026679311 1.290736
-0.0026679311 1.290736
-0.0026679311 1.290736
-0.015001833 1.2808516
-0.028799385 1.2742901
-0.04439779 1.2697935
-0.04439779 1.2697935
-0.059884854 1.2687062
-0.075156234 1.2705395
-0.1022534 1.2817452
-0.11461117 1.290001
-0.12658486 1.300297
-0.13718326 1.3125281
-0.14445144 1.3256806
-0.14803633 1.3389198
-0.14803633 1.3389198
-0.14637613 1.3627795
-0.14637613 1.3627795
-0.13637082 1.3839388
-0.1285328 1.3937796
-0.107664846 1.4090949
-0.09600714 1.4144642
-0.09600714 1.4144642
-0.08386704 1.4183899
-0.07212855 1.4198062
-0.053704135 1.415467
-0.053704135 1.415467
-0.047345556 1.4110411
-0.042148072 1.4061499
-0.03768239 1.4011228
-0.03768239 1.4011228
-0.03388724 1.3959172
-0.03388724 1.3959172
-0.031934813 1.3908883
-0.03161463 1.3860241
-0.032114707 1.3818133
-0.032114707 1.3818133
-0.034609575 1.378775
-0.038249835 1.3767822
-0.042516194 1.3754901
-0.04738477 1.3745282
-0.04738477 1.3745282
-0.058326453 1.3735373
-0.058326453 1.3735373
-0.063931145 1.3734071
-0.07482647 1.3744978
-0.08051416 1.3756422
-0.08051416 1.3756422
-0.08649294 1.3786322
-0.09626344 1.3888178
-0.09626344 1.3888178
-0.099634886 1.3947428
-0.102779195 1.4011959
-0.102779195 1.4011959
-0.102779195 1.4011959
-0.107930996 1.4142706
-0.110645235 1.4195181
-0.11243701 1.4252003
-0.11243701 1.4252003
-0.113237716 1.4310303
-0.115280315 1.4357299
-0.115280315 1.4357299
-0.1182598 1.4402301
-0.12097067 1.4454929
-0.12285664 1.4513324
-0.123477064 1.4571815
-0.123477064 1.4571815
-0.124544464 1.4632137
-0.12588152 1.4695717
-0.1272557 1.4767718
-0.1272557 1.4767718
-0.12852389 1.4849925
-0.1294746 1.4935899
-0.1294746 1.4935899
-0.13012837 1.502558
-0.12971976 1.5124556
-0.12738615 1.5211589
-0.12738615 1.5211589
-0.12738615 1.5211589
-0.123121776 1.5275037
-0.123121776 1.5275037
-0.123121776 1.5275037
-0.118026294 1.5319909
-0.118026294 1.5319909
-0.112774216 1.5354066
-0.10776253 1.5383123
-0.10776253 1.5383123
-0.10280453 1.5407917
-0.10280453 1.5407917
-0.10280453 1.5407917
-0.09772225 1.5433004
-0.08551091 1.5471038
-0.08551091 1.5471038
-0.07913504 1.546926
-0.07353461 1.5454831
-0.067354426 1.5445459
-0.067354426 1.5445459
-0.067354426 1.5445459
-0.05975808 1.5440327
-0.052278567 1.5425199
-0.052278567 1.5425199
-0.052278567 1.5425199
-0.0457895 1.5402803
-0.04166399 1.5364805
-0.04041091 1.5319569
-0.04118482 1.5273759
-0.04405553 1.5232201
-0.04939818 1.5197594
-0.04939818 1.5197594
-0.062936045 1.5154145
-0.0702365 1.5147475
-0.07760896 1.5149944
-0.08513712 1.515846
-0.101648554 1.5184298
-0.10959059 1.5204976
-0.1177737 1.5230645
-0.12601264 1.5258077
-0.13414736 1.5290134
-0.14817479 1.5366856
-0.14817479 1.5366856
-0.15499693 1.5410972
-0.16141796 1.545846
-0.16141796 1.545846
