0 -1
1 -1
2 -1
3 -1
4 -1
5 -1
6 -1
7 -1
8 -1
9 -1
10 -1
11 0
12 0
13 0
14 0
15 0
16 0
17 0
18 0
19 0
20 0
21 0
22 0
23 0
24 0
25 0
26 0
27 0
28 0
29 0
30 0
31 0
32 0
33 0
34 0
35 0
36 0
37 0
38 0
39 312500
40 312500
41 312500
42 312500
43 312500
44 312500
45 312500
46 312500
47 312500
48 312500
49 312500
50 -1
51 312500
52 312500
53 312500
54 312500
55 312500
56 312500
57 312500
58 312500
59 312500
60 312500
61 312500
62 312500
63 312500
64 312500
65 0
66 0
67 62500
68 375000
69 375000
70 375000
71 375000
72 375000
73 375000
74 375000
75 375000
76 387500
77 387500
78 -1
79 387500
80 387500
81 387500
82 387500
83 387500
84 387500
85 387500
86 325000
87 325000
88 325000
89 325000
90 325000
91 325000
92 325000
93 325000
94 325000
95 325000
96 325000
97 325000
98 325000
99 325000
100 390000
101 390000
102 390000
103 390000
104 390000
105 377500
106 -1
107 390000
108 390000
109 390500
110 390500
111 390500
112 390500
113 390500
114 390500
115 390500
116 390500
117 390500
118 390500
119 390500
120 390500
121 388000
122 388000
123 388000
124 390475
125 390475
126 390475
127 390475
128 387325
129 387325
130 59325
131 59325
132 58715
133 74365
134 -1
135 74365
136 74240
137 74240
138 74240
139 14849
140 14848
141 14848
142 14848
143 14848
144 14848
145 14843
146 2969
147 469
148 469
149 118
150 118
151 118
152 23
153 3
154 3
155 3
156 4
157 4
158 0
159 0
160 0
161 0
162 0
163 -1
164 234375
165 234375
166 234375
167 234375
168 234375
169 359375
170 281250
171 281250
172 281250
173 296250
174 293625
175 293625
176 293725
177 292600
178 371245
179 371245
180 58620
181 74245
182 11724
183 11724
184 14849
185 2969
186 2969
187 620
188 620
189 124
190 124
191 124
192 -1
193 24
194 24
195 4
196 4
197 4
198 4
199 4
200 4
201 4
202 4
203 4
204 4
205 0
206 0
207 0
208 0
209 0
210 312500
211 0
212 0
213 0
214 62500
215 62500
216 62500
217 62500
218 375000
219 375000
220 234375
221 -1
222 234375
223 234375
224 234375
225 234375
226 234375
227 234375
228 359375
229 359375
230 359375
231 359375
232 371875
233 371875
234 371875
235 290625
236 308750
237 308125
238 308125
239 292500
240 296125
241 296000
242 296000
243 296000
244 371725
245 371725
246 371700
247 371700
248 371700
249 371700
250 -1
251 58715
252 58715
253 58715
254 58590
255 74240
256 74240
257 74240
258 74215
259 14848
260 14848
261 14843
262 14843
263 14843
264 14843
265 14843
266 2343
267 2343
268 2343
269 2968
270 2968
271 2969
272 2969
273 469
274 468
275 593
276 593
277 593
278 -1
279 593
280 93
281 93
282 93
283 93
284 93
285 118
286 118
287 118
288 118
289 18
290 23
291 23
292 23
293 23
294 3
295 3
296 3
297 3
298 4
299 4
300 4
301 4
302 0
303 0
304 0
305 0
306 0
307 -1
308 0
309 0
310 0
311 0
312 0
313 0
314 0
315 0
316 0
317 0
318 0
319 312500
320 312500
321 312500
322 0
323 0
324 0
325 62500
326 375000
327 375000
328 375000
329 387500
330 325000
331 325000
332 325000
333 327500
334 327500
335 327500
336 -1
337 327500
338 390000
339 377500
340 377500
341 377500
342 377500
343 377500
344 377500
345 388000
346 388000
347 388000
348 78100
349 77600
350 77600
351 77600
352 77600
353 77600
354 77600
355 77620
356 77620
357 77620
358 78120
359 78120
360 78120
361 78120
362 78120
363 78020
364 78020
365 74270
366 74245
367 74245
368 74245
369 74245
370 74245
371 11724
372 14849
373 14849
374 -1
375 14844
376 14844
377 14844
378 2969
379 2969
380 2969
381 2969
382 2969
383 2969
384 2969
385 593
386 593
387 593
388 593
389 93
390 93
391 93
392 118
393 118
394 118
395 118
396 118
397 18
398 18
399 23
400 23
401 23
402 3
403 3
404 3
405 3
406 3
407 3
408 3
409 4
410 4
411 4
412 4
413 504
414 504
415 504
416 500
417 500
418 600
419 600
420 100
421 100
422 100
423 100
424 120
425 20
426 20
427 20
428 20
429 20
430 20
431 0
432 0
433 0
434 4
435 4
436 4
437 4
438 4
439 4
440 4
441 4
442 4
443 0
444 312500
445 312500
446 312500
447 312500
448 312500
449 312500
450 312500
451 312500
452 312500
453 312500
454 312500
455 312500
456 312500
457 312500
458 312500
459 325000
460 325000
461 325000
462 325000
463 325000
464 325000
465 327500
466 390000
467 390000
468 390000
469 390000
470 -1
471 390000
472 390000
473 390000
474 390000
475 390000
476 390000
477 390000
478 377500
479 377500
480 377500
481 389750
482 389750
483 389750
484 389750
485 390375
486 390375
487 390475
488 390475
489 371700
490 59200
491 59200
492 58720
493 58720
494 58715
495 58590
496 58615
497 58615
498 58615
499 -1
500 74240
501 74240
502 74240
503 74240
504 74240
505 74215
506 74215
507 74215
508 74215
509 74215
510 74224
511 74223
512 74223
513 74223
514 11723
515 11723
516 11723
517 11723
518 11718
519 11718
520 11718
521 11718
522 11718
523 11718
524 11718
525 11718
526 11718
527 11718
528 11718
529 11718
530 11718
531 11718
532 -1
533 11718
534 11718
535 11718
536 11718
537 14843
538 14843
539 14843
540 14843
541 14843
542 14843
543 14843
544 14843
545 14843
546 14843
547 11718
548 11718
549 11693
550 11693
551 11568
552 11568
553 10943
554 10943
555 10943
556 11568
557 11568
558 11563
559 11563
560 14688
561 -1
562 14688
563 14685
564 14685
565 2189
566 2313
567 2313
568 2313
569 2938
570 2938
571 2938
572 438
573 438
574 438
575 438
576 438
577 438
578 437
579 437
580 437
581 87
582 87
583 87
584 87
585 87
586 87
587 17
588 17
589 17
590 -1
591 17
592 17
593 17
594 17
595 17
596 17
597 22
598 2
599 3
600 3
601 3
602 3
603 3
604 3
605 3
606 3
607 4
608 4
609 4
610 0
611 0
612 0
613 0
614 0
615 0
616 0
617 0
618 0
619 -1
620 0
621 0
622 0
623 312500
624 312500
625 312500
626 312500
627 312500
628 312500
629 312500
630 312500
631 312500
632 312500
633 312500
634 312500
635 312500
636 312500
637 312500
638 312500
639 312500
640 0
641 0
642 62500
643 62500
644 62500
645 62500
646 375000
647 375000
648 -1
649 375000
650 387500
651 387500
652 387500
653 387500
654 387500
655 387500
656 387500
657 387500
658 325000
659 325000
660 325000
661 325000
662 390000
663 390000
664 390000
665 390000
666 390000
667 390000
668 390000
669 390000
670 390000
671 390000
672 390000
673 390000
674 390000
675 390000
676 390000
677 -1
678 390000
679 390000
680 390000
681 390000
682 390000
683 390000
684 390000
685 390000
686 390000
687 376875
688 376875
689 376875
690 376875
691 376875
692 376895
693 389395
694 389395
695 389895
696 389895
697 389895
698 389895
699 389895
700 296145
701 295395
702 295375
703 295375
704 295250
705 -1
706 292125
707 292125
708 292125
709 292125
710 292125
711 292129
712 292129
713 292129
714 292129
715 292129
716 292129
717 371579
718 370929
719 370929
720 370929
721 370929
722 58444
723 58444
724 58444
725 58690
726 58560
727 58560
728 58560
729 58560
730 58560
731 74210
732 74210
733 74212
734 11717
735 11717
736 11717
737 11717
738 14842
739 14842
740 2342
741 2342
742 2967
743 2967
744 2967
745 2968
746 468
747 468
748 -1
749 468
750 593
751 593
752 593
753 93
754 118
755 118
756 118
757 118
758 118
759 18
760 18
761 18
762 23
763 3
764 3
765 3
766 3
767 3
768 3
769 4
770 0
771 0
772 0
773 0
774 0
775 0
776 234375
777 -1
778 246875
779 171250
780 158750
781 158750
782 284250
783 344250
784 275600
785 275600
786 287600
787 304495
788 304495
789 291895
790 292125
791 292750
792 292750
793 292804
794 292804
795 58560
796 74218
797 74218
798 14842
799 2968
800 593
801 593
802 18
803 23
804 23
805 312504
806 -1
807 312500
808 0
809 62500
810 62500
811 62500
812 309375
813 309375
814 309375
815 168750
816 168750
817 158750
818 158750
819 158750
820 271875
821 271875
822 271875
823 271875
824 271875
825 210625
826 210625
827 198375
828 198375
829 195925
830 274050
831 273560
832 273560
833 39210
834 54835
835 -1
836 58472
837 74218
838 14843
839 14843
840 2343
841 2969
842 2969
843 468
844 593
845 93
846 93
847 118
848 18
849 18
850 18
851 23
852 3
853 3
854 3
855 312504
856 312504
857 312504
858 312500
859 62500
860 168750
861 168750
862 158750
863 172375
864 -1
865 271975
866 288770
867 198375
868 198375
869 274050
870 54835
871 73592
872 73592
873 14842
874 2969
875 2969
876 468
877 468
878 118
879 118
880 18
881 18
882 18
883 23
884 23
885 312503
886 312504
887 312500
888 312500
889 62500
890 62500
891 75000
892 75000
893 -1
894 93125
895 93125
896 80625
897 81125
898 81125
899 81125
900 109875
901 109875
902 256850
903 253225
904 253225
905 190745
906 190745
907 210270
908 210270
909 198375
910 198375
911 198450
912 198450
913 277175
914 274050
915 274050
916 274050
917 289675
918 289675
919 289675
920 355435
921 371060
922 -1
923 58560
924 57935
925 57985
926 57985
927 54835
928 54835
929 54835
930 54835
931 54710
932 54710
933 54710
934 54712
935 54692
936 54692
937 54692
938 54692
939 54692
940 54692
941 54692
942 54687
943 7812
944 7812
945 7810
946 7810
947 10935
948 10935
949 1562
950 1562
951 -1
952 1532
953 1532
954 2157
955 2157
956 2157
957 282
958 307
959 307
960 306
961 56
962 56
963 56
964 56
965 61
966 12
967 12
968 12
969 12
970 12
971 2
972 2
973 2
974 2
975 2
976 2
977 2
978 3
979 -1
980 3
981 3
982 3
983 0
984 0
985 234375
986 234375
987 234375
988 234375
989 234375
990 234375
991 359375
992 359375
993 359375
994 281250
995 281250
996 275000
997 275000
998 271875
999 271875
