0 -1
1 -1
2 -1
3 -1
4 -1
5 -1
6 -1
7 -1
8 -1
9 3
10 3
11 3
12 3
13 3
14 4
15 4
16 4
17 5
18 5
19 5
20 5
21 7
22 7
23 7
24 7
25 7
26 5
27 5
28 5
29 5
30 5
31 5
32 5
33 5
34 5
35 5
36 5
37 5
38 5
39 5
40 5
41 5
42 5
43 5
44 5
45 5
46 5
47 5
48 5
49 5
