-1.1499999 0.7250001
-1.1501766 0.72479427
-1.1503025 0.7249611
-1.150601 0.7237886
-1.150601 0.7237886
-1.1531345 0.7210452
-1.1560833 0.71914196
-1.1580123 0.7176
-1.1593406 0.7165746
-1.1603087 0.7159584
-1.1594013 0.7161029
-1.1594013 0.7161029
-1.1558673 0.7167558
-1.1535237 0.71727884
-1.1535237 0.71727884
-1.1533308 0.7171953
-1.1532214 0.7171005
-1.1532105 0.7170886
-1.1532105 0.7170886
-1.1526215 0.71723014
-1.1504743 0.7176961
-1.1462725 0.71858466
-1.1462725 0.71858466
-1.141572 0.71984524
-1.1390498 0.72070175
-1.1356275 0.721791
-1.1356275 0.721791
-1.1295502 0.72314763
-1.1207265 0.72493
-1.1207265 0.72493
-1.1085694 0.72755617
-1.0948151 0.7305893
-1.0799626 0.7339584
-1.0799626 0.7339584
-1.0799626 0.7339584
-1.0650159 0.73702693
-1.0507381 0.7393964
-1.0391276 0.7410722
-1.0314038 0.74227333
-1.0247775 0.7431509
-1.0180647 0.7437039
-1.0180647 0.7437039
-1.0132959 0.74434924
-1.0100218 0.74476063
-0.9960235 0.7453894
-0.9855539 0.74537706
-0.9855539 0.74537706
-0.9649377 0.74420846
-0.94680053 0.74211085
-0.94680053 0.74211085
-0.93531084 0.7396392
-0.9317838 0.73806036
-0.9317838 0.73806036
-0.93095905 0.7361224
-0.93095905 0.7361224
-0.9333809 0.73250425
-0.9343707 0.73098284
-0.9350036 0.7298644
-0.93681115 0.72863275
-0.93681115 0.72863275
-0.93768185 0.7286348
-0.9370777 0.7294344
-0.9370777 0.7294344
-0.9343956 0.73094517
-0.9312889 0.732546
-0.92877847 0.7342822
-0.92877847 0.7342822
-0.9256226 0.7363335
-0.9222131 0.73812455
-0.9222131 0.73812455
-0.91891545 0.7396048
-0.916423 0.740777
-0.9147223 0.74168026
-0.9147223 0.74168026
-0.9134426 0.7423643
-0.9120878 0.7428347
-0.9107726 0.7430748
-0.9107726 0.7430748
-0.9095012 0.74333155
-0.9081665 0.7434696
-0.9081665 0.7434696
-0.906816 0.7433678
-0.905517 0.7429365
-0.905517 0.7429365
-0.9042056 0.7422472
-0.9028791 0.741252
-0.9016296 0.7399214
-0.9016296 0.7399214
-0.9006437 0.73800033
-0.9006437 0.73800033
-0.90084684 0.7321457
-0.90239066 0.72779936
-0.9129035 0.71248376
-0.9129035 0.71248376
-0.92048347 0.7020805
-0.9283329 0.69092834
-0.9283329 0.69092834
-0.9360838 0.67934376
-0.9428223 0.66879255
-0.94852906 0.6590036
-0.94852906 0.6590036
-0.9530446 0.6508479
-0.95560086 0.6453486
-0.95560086 0.6453486
-0.9574534 0.6407334
-0.95819396 0.6381562
-0.95822144 0.63705003
-0.95822144 0.63705003
-0.9573719 0.6379007
-0.95595264 0.6401113
-0.95407593 0.64388055
-0.95407593 0.64388055
-0.9517336 0.6487814
-0.9490039 0.6546961
-0.9469449 0.65928715
-0.9469449 0.65928715
-0.9459928 0.663095
-0.9439433 0.66802895
-0.94024915 0.67507
-0.92743623 0.6978221
-0.9191736 0.7114123
-0.9038743 0.7347446
-0.8965801 0.7452993
-0.880056 0.7653038
-0.871451 0.7746591
-0.8626215 0.7840108
-0.8444009 0.8019072
-0.83543414 0.81008035
-0.8142413 0.8250558
-0.80394757 0.8306923
-0.7852997 0.8384411
-0.7769445 0.8410503
-0.7615498 0.8439394
-0.7541807 0.8443878
-0.74043936 0.8436352
-0.73402697 0.84257746
-0.72606343 0.84113806
-0.7035264 0.8365771
-0.6969898 0.83508503
-0.6938158 0.8338768
-0.69287384 0.833374
-0.68438303 0.8309498
-0.68153065 0.8302925
-0.6782063 0.8291237
-0.6762935 0.8282008
-0.67530334 0.8276539
-0.6737109 0.82645494
-0.67228645 0.8253355
-0.6695152 0.82190484
-0.6695152 0.82190484
-0.66784453 0.81722605
-0.6684373 0.8107492
-0.6682831 0.8071312
-0.6677412 0.80396163
-0.6651479 0.79892075
-0.66111606 0.7984055
-0.6572903 0.7980563
-0.6501156 0.7979378
-0.6440601 0.80056685
-0.63134015 0.80918914
-0.6253443 0.81480044
-0.6144794 0.8271621
-0.60954154 0.8338463
-0.6007399 0.84763384
-0.5979312 0.8528193
-0.5968257 0.85574466
-0.5957068 0.859153
-0.5943599 0.8612917
-0.58555084 0.87282455
-0.5775846 0.8821472
-0.5579649 0.90291166
-0.54980135 0.9122094
-0.5415994 0.92231673
-0.53934115 0.92549956
-0.5345827 0.9330183
-0.5326993 0.9369035
-0.5313388 0.9407999
-0.52675426 0.94962376
-0.5230051 0.9538042
-0.5077646 0.96288455
-0.49675125 0.9670698
-0.4705542 0.97316664
-0.45627546 0.97490865
-0.42705187 0.9767315
-0.41242337 0.97703266
-0.39137512 0.9765576
-0.38260916 0.97623026
-0.37020403 0.9762478
-0.33656058 0.97712183
-0.32074434 0.977928
-0.29029042 0.98095334
-0.27387077 0.98343736
-0.23850667 0.9906211
-0.22001436 0.9950242
-0.18276346 1.0037949
-0.16391204 1.007973
-0.14707857 1.0116332
-0.12257862 1.0167763
-0.11111119 1.0191875
-0.087136656 1.0245657
-0.07433571 1.0281851
-0.048167102 1.0382798
-0.034351796 1.0449582
-0.0042265556 1.0617441
0.009993235 1.0704912
0.030647704 1.0834777
0.039456856 1.0894554
0.047786336 1.0952761
0.064301394 1.1073319
0.0723484 1.1134161
0.0872469 1.1250261
0.09388007 1.1301678
0.10732738 1.1380786
0.11715051 1.1416548
0.13444217 1.1463913
0.14066514 1.1479073
0.1457995 1.1489937
0.16113786 1.1499984
0.17311046 1.1494699
0.20024881 1.1457506
0.21392341 1.1427791
0.24314173 1.1351222
0.26075915 1.1303686
0.28909037 1.123308
0.29782698 1.1210703
0.30623585 1.1185738
0.30959052 1.1173187
0.3128689 1.1158047
0.3192654 1.1121571
0.32213578 1.1099658
0.32120326 1.1056491
0.32061487 1.1039169
0.3191985 1.0995553
0.31797224 1.0967441
0.31804147 1.0911701
0.31886476 1.0890504
0.32099944 1.0862093
0.32197243 1.0855124
0.32284218 1.0851219
0.32376373 1.0851717
0.32374316 1.0851619
0.3237278 1.0851544
0.32488918 1.0859863
0.33281013 1.0910015
0.3397445 1.0952803
0.36166674 1.1089838
0.375485 1.1180321
0.38877743 1.1273988
0.41385898 1.1449045
0.4272582 1.1532508
0.45373374 1.1668549
0.46316367 1.1711712
0.47657332 1.1773124
0.48222136 1.1793742
0.49304295 1.1821493
0.5017831 1.1831801
0.51504076 1.184499
0.5201999 1.1845899
0.526885 1.1843178
0.53527576 1.1841403
0.53765106 1.1839329
0.54137605 1.1828384
0.54249954 1.1820091
0.54362166 1.179695
0.5438571 1.1782651
0.5435575 1.174499
0.54190075 1.1720153
0.5388875 1.1687806
0.5277151 1.1592886
0.5204016 1.1533378
0.5063547 1.1404376
0.49962407 1.1339496
0.48643023 1.1210096
0.4798481 1.1147974
0.4680771 1.1041076
0.4654463 1.1016598
0.4651893 1.1009746
0.46525893 1.1009701
0.46523303 1.1009313
0.46538228 1.101444
0.46718472 1.1035831
0.4765672 1.1123408
0.47803402 1.1141857
0.48105207 1.1176003
0.4846665 1.1207689
0.5024485 1.1321738
0.5151775 1.1390742
0.54445946 1.1542085
0.56089574 1.1623275
0.57714236 1.1710651
0.6073325 1.1887981
0.6219382 1.1975409
0.6490997 1.2146034
0.6571912 1.2198672
0.66168606 1.222473
0.6618541 1.2225791
0.6621413 1.2240974
0.6619879 1.225363
0.6617056 1.226891
0.6648918 1.2327182
0.6686605 1.2363602
0.67567176 1.2420342
0.6787909 1.2442006
0.69131696 1.2508819
0.7006794 1.254959
0.71762216 1.2629116
0.72389096 1.2662876
0.7360512 1.2721332
0.7414304 1.2740967
0.7464781 1.2755547
0.75139886 1.2778331
0.75368387 1.2793328
0.7570079 1.2828197
0.7578305 1.2843425
0.758253 1.2866062
0.7580676 1.2871758
0.75801 1.2871469
0.75789434 1.2866793
0.75759614 1.2858708
0.7565494 1.28315
0.75560933 1.2812784
0.75738096 1.2767861
0.7604991 1.2747287
0.7705559 1.2707332
0.7732026 1.2691576
0.78045213 1.2657895
0.78699905 1.2646477
0.8048199 1.2647059
0.8138448 1.265803
0.82273865 1.2675827
0.8398037 1.2729456
0.84797096 1.2763541
0.8639165 1.2840096
0.8715733 1.2881781
0.8879283 1.2978086
0.89898 1.3034289
0.92191184 1.3131876
0.9336833 1.3177674
0.95676005 1.3255942
0.9679632 1.3288876
0.9800436 1.3311424
1.0046763 1.3316602
1.0165958 1.3299091
1.0395758 1.3228651
1.0505548 1.3178322
1.0697029 1.3068652
1.0751895 1.3039265
1.0844429 1.2974269
1.0886648 1.2941462
1.0925548 1.2908903
1.0990458 1.2839377
1.1033434 1.2789513
1.1125094 1.2689699
1.1142876 1.2666736
1.1165951 1.2637225
1.1183197 1.2616005
1.1221023 1.2562311
1.123787 1.2530366
1.1276407 1.2456069
1.1319256 1.2410579
1.1373423 1.2367942
1.1487428 1.2302736
1.1536124 1.2280161
1.1650668 1.223659
1.1730813 1.221119
1.1961029 1.217034
1.2063874 1.2160504
1.2321525 1.215645
1.2448949 1.2160147
1.2537401 1.2163761
1.2700402 1.2180967
1.278303 1.2194324
1.2945752 1.2230574
1.3024616 1.2251158
1.3194051 1.2297777
1.3311712 1.2322251
1.3475338 1.2354057
1.3530068 1.2364388
1.3608105 1.2376864
1.3632166 1.2380391
1.364627 1.2382903
1.3650112 1.2383769
1.3649943 1.2383822
1.3649758 1.2383887
1.3649727 1.2383902
1.3666219 1.2381334
1.3709826 1.2373283
1.3750145 1.2367005
1.3750393 1.2365576
1.3750393 1.2365576
