0 -1
1 -1
2 -1
3 312524
4 312524
5 12500
6 81146
7 62620
8 2520
9 313000
10 34374
11 78149
12 78149
13 59390
14 31320
15 234397
16 12879
17 312674
18 312500
19 172059
20 250929
21 81230
22 331929
23 331279
24 331284
25 250607
26 312527
27 331561
28 328158
29 328158
30 328158
31 328158
32 378585
33 65660
34 303735
35 303760
36 312500
37 312500
38 381885
39 388121
40 312500
41 312500
42 43760
43 385637
44 68874
45 -1
46 62624
47 389507
48 7624
49 389653
50 30629
51 77778
52 4
53 12520
54 390400
55 332001
56 312500
57 249955
58 249955
59 248629
60 312500
61 4
62 31235
63 31235
64 31235
65 3115
66 3115
67 237400
68 388000
69 237400
70 63000
71 387600
72 313100
73 -1
74 77656
75 157498
76 312500
77 220624
78 56874
79 312500
80 312500
81 312500
82 312500
83 313598
84 90749
85 313624
86 313624
87 359845
88 235624
89 343781
90 1249
91 1249
92 79374
93 312500
94 312500
95 312500
96 312500
97 312500
98 312500
99 384478
100 3247
101 -1
102 12624
103 312500
104 312500
105 375000
106 312500
107 375120
108 328246
109 312500
110 312500
111 158771
112 359465
113 140629
114 359495
115 312524
116 140745
117 375009
118 218760
119 77519
120 62500
121 30626
122 328906
123 -1
124 281269
125 343751
126 343751
127 343751
128 359375
129 3004
130 360125
131 314052
132 159354
133 3100
134 4
135 4
136 575
137 4
138 345425
139 153125
140 245
141 113110
142 234995
143 206861
144 120
145 191240
146 20
147 312500
148 312500
149 9
150 312500
151 4
152 -1
153 312500
154 4
155 93759
156 312524
157 312500
158 312524
159 312500
160 309375
161 365627
162 368753
163 108750
164 12500
165 108750
166 12500
167 3000
168 2500
169 2500
170 624
171 3000
172 312599
173 234999
174 375064
175 500
176 500
177 375012
178 624
179 141093
180 153593
181 -1
182 309537
183 4
184 75004
185 4
186 75004
187 312500
188 374378
189 64
190 335631
191 64
192 331906
193 312500
194 64
195 335631
196 312500
197 312500
198 42974
199 171250
200 39824
201 312500
202 23419
203 20294
204 190263
205 19
206 19
207 19
208 19
209 19
210 -1
211 78144
212 362387
213 78144
214 70602
215 312512
216 65601
217 312512
218 312512
219 77500
220 312506
221 77500
222 124
223 312524
224 100
225 312524
226 78149
227 62574
228 62624
229 24
230 62524
231 12512
232 12512
233 390600
234 12512
235 62600
236 62600
237 4
238 71917
239 -1
240 12512
241 390500
242 390000
243 12512
244 65605
245 12512
246 12512
247 366264
248 346877
249 350002
250 170124
251 366252
252 312500
253 312500
254 500
255 73127
256 155001
257 252524
258 331250
259 2504
260 21379
261 233376
262 342879
263 124676
264 124676
265 124676
266 355300
267 375600
268 -1
269 31076
270 24996
271 65350
272 24996
273 4874
274 4874
275 4874
276 4874
277 59470
278 174
279 312503
280 312528
281 312528
282 312528
283 81125
284 78625
285 43760
286 156374
287 12500
288 311528
289 311528
290 311527
291 62520
292 249379
293 156175
294 156175
295 156175
296 12524
297 -1
298 157504
299 2504
300 4
301 312504
302 2504
303 315500
304 315004
305 315500
306 5621
307 359375
308 5622
309 313101
310 62600
311 1094
312 169070
313 23599
314 23599
315 20349
316 352370
317 312500
318 316422
319 3024
320 345154
321 623
322 56750
323 53736
324 78598
325 113116
326 112741
327 156298
328 190747
329 234384
330 312594
331 175049
332 96899
333 96889
334 328129
335 -1
336 312500
337 375000
338 175039
339 190664
340 384375
341 268789
342 386250
343 312500
344 312500
345 363169
346 312518
347 374378
348 346882
349 390003
350 382501
351 128169
352 230003
353 284419
354 234250
355 233750
356 362544
357 312500
358 312500
359 385878
360 378905
361 343782
362 343782
363 343782
364 -1
365 234250
366 343782
367 2500
368 328131
369 2500
370 3122
371 328126
372 312999
373 328125
374 328125
375 2500
376 37475
377 375006
378 75000
379 62504
380 62531
381 71878
382 140656
383 140656
384 218781
385 300031
386 175624
