1 100 85.5 85.5
2 79 77.5 163.0
3 57 51.0 214.0
4 90 86.0 300.0
5 58 46.5 346.5
6 86 73.0 419.5
7 88 67.0 486.5
8 211 129.5 616.0
9 83 57.0 673.0
10 75 30.0 703.0
11 79 77.0 780.0
12 131 107.0 887.0
13 79 76.0 963.0
14 136 98.5 1061.5
15 98 88.5 1150.0
16 127 106.5 1256.5
17 211 127.5 1384.0
18 47 43.0 1427.0
19 44 39.5 1466.5
20 130 107.0 1573.5
21 119 92.0 1665.5
22 45 44.5 1710.0
23 136 71.5 1781.5
24 100 85.0 1866.5
25 45 38.5 1905.0
26 47 36.0 1941.0
27 56 56.0 1997.0
28 29 29.0 2026.0
29 123 106.0 2132.0
30 45 34.5 2166.5
31 161 147.0 2313.5
32 84 61.0 2374.5
33 127 110.0 2484.5
34 31 31.0 2515.5
35 97 69.0 2584.5
36 73 66.5 2651.0
37 106 58.0 2709.0
38 131 91.0 2800.0
39 133 118.5 2918.5
40 100 79.0 2997.5
41 35 29.5 3027.0
42 137 82.5 3109.5
43 114 100.5 3210.0
44 70 60.5 3270.5
45 133 96.5 3367.0
46 152 131.5 3498.5
47 33 28.5 3527.0
48 93 76.5 3603.5
49 139 110.0 3713.5
50 85 81.0 3794.5
51 72 56.0 3850.5
52 110 85.0 3935.5
53 115 56.0 3991.5
54 47 29.0 4020.5
55 134 102.0 4122.5
56 90 84.5 4207.0
57 80 69.0 4276.0
58 65 56.0 4332.0
59 89 70.5 4402.5
60 73 69.0 4471.5
61 23 5.0 4476.5
62 207 149.0 4625.5
63 129 102.5 4728.0
64 201 103.0 4831.0
65 1 1.0 4832.0
66 22 21.5 4853.5
67 100 81.5 4935.0
68 65 53.0 4988.0
69 64 60.0 5048.0
70 37 31.0 5079.0
71 251 160.0 5239.0
72 107 63.5 5302.5
73 97 68.5 5371.0
74 57 48.0 5419.0
75 24 20.5 5439.5
76 86 55.5 5495.0
77 95 77.5 5572.5
78 83 73.0 5645.5
79 110 64.5 5710.0
80 76 67.5 5777.5
81 155 138.5 5916.0
82 88 71.5 5987.5
83 85 82.0 6069.5
84 47 40.0 6109.5
85 47 34.0 6143.5
86 100 84.0 6227.5
87 311 224.0 6451.5
88 87 73.0 6524.5
89 34 32.0 6556.5
90 58 40.0 6596.5
91 122 75.0 6671.5
92 4 4.0 6675.5
93 28 26.0 6701.5
94 98 88.5 6790.0
95 121 84.0 6874.0
96 70 68.5 6942.5
97 120 89.0 7031.5
98 83 71.5 7103.0
99 40 30.0 7133.0
100 82 68.5 7201.5
101 160 103.0 7304.5
102 54 37.5 7342.0
103 55 51.5 7393.5
104 99 62.5 7456.0
105 1 1.0 7457.0
106 87 62.5 7519.5
107 139 104.5 7624.0
108 98 66.5 7690.5
109 101 90.5 7781.0
110 141 103.0 7884.0
111 45 45.0 7929.0
112 49 42.5 7971.5
113 159 129.5 8101.0
114 94 88.5 8189.5
115 103 70.5 8260.0
116 130 103.5 8363.5
117 45 45.0 8408.5
118 39 39.0 8447.5
119 94 70.5 8518.0
120 62 55.0 8573.0
121 26 21.0 8594.0
122 76 69.0 8663.0
123 81 52.5 8715.5
124 77 63.5 8779.0
125 186 90.5 8869.5
126 56 48.5 8918.0
127 85 83.5 9001.5
128 31 25.5 9027.0
129 49 46.0 9073.0
130 140 131.0 9204.0
131 64 59.5 9263.5
132 155 102.0 9365.5
133 58 58.0 9423.5
134 75 62.0 9485.5
135 105 105.0 9590.5
136 85 76.0 9666.5
137 105 96.5 9763.0
138 39 38.5 9801.5
139 92 65.5 9867.0
140 179 114.0 9981.0
141 74 72.0 10053.0
142 74 61.5 10114.5
143 108 93.5 10208.0
144 114 87.5 10295.5
145 61 50.0 10345.5
146 225 170.0 10515.5
147 129 90.5 10606.0
148 106 76.0 10682.0
149 94 80.5 10762.5
150 113 106.0 10868.5
151 72 58.5 10927.0
152 128 76.0 11003.0
153 174 108.0 11111.0
154 267 199.5 11310.5
155 74 60.0 11370.5
156 158 102.5 11473.0
157 172 111.5 11584.5
158 73 67.5 11652.0
159 42 40.0 11692.0
160 73 62.5 11754.5
161 65 60.5 11815.0
162 82 79.0 11894.0
163 153 115.5 12009.5
164 43 15.5 12025.0
165 88 44.0 12069.0
166 55 41.5 12110.5
167 69 68.0 12178.5
168 135 76.5 12255.0
169 43 43.0 12298.0
170 137 126.0 12424.0
171 153 126.5 12550.5
172 51 47.0 12597.5
173 80 68.5 12666.0
174 188 106.0 12772.0
175 164 126.5 12898.5
176 50 45.0 12943.5
177 89 74.5 13018.0
178 114 98.0 13116.0
179 105 94.0 13210.0
180 105 85.0 13295.0
181 50 33.5 13328.5
182 124 87.5 13416.0
183 150 124.5 13540.5
184 105 71.0 13611.5
185 118 105.5 13717.0
186 113 78.5 13795.5
187 140 126.0 13921.5
188 79 69.0 13990.5
189 25 21.5 14012.0
190 187 153.0 14165.0
191 135 124.5 14289.5
192 60 55.0 14344.5
193 76 73.0 14417.5
194 105 81.0 14498.5
195 44 42.5 14541.0
196 28 12.0 14553.0
197 89 60.0 14613.0
198 56 43.5 14656.5
199 127 111.5 14768.0
200 43 41.0 14809.0
201 60 60.0 14869.0
202 222 166.0 15035.0
203 57 46.5 15081.5
204 104 76.5 15158.0
205 37 36.0 15194.0
206 50 47.5 15241.5
207 55 53.0 15294.5
208 113 100.0 15394.5
209 132 91.5 15486.0
210 127 103.0 15589.0
211 54 41.5 15630.5
212 44 24.0 15654.5
213 40 29.0 15683.5
214 221 147.5 15831.0
215 152 105.0 15936.0
216 77 69.5 16005.5
217 93 73.0 16078.5
218 137 73.0 16151.5
219 81 64.0 16215.5
220 174 126.0 16341.5
221 44 44.0 16385.5
222 156 125.0 16510.5
223 1 1.0 16511.5
224 91 86.0 16597.5
225 102 82.0 16679.5
226 111 102.0 16781.5
227 113 102.5 16884.0
228 57 40.0 16924.0
229 65 63.5 16987.5
230 130 86.0 17073.5
231 379 277.0 17350.5
232 86 60.5 17411.0
233 61 56.0 17467.0
234 121 97.5 17564.5
235 1 0.0 17564.5
236 68 68.0 17632.5
237 155 120.0 17752.5
238 47 47.0 17799.5
239 1 1.0 17800.5
240 43 35.0 17835.5
241 102 93.0 17928.5
242 105 85.5 18014.0
243 31 27.0 18041.0
244 58 49.5 18090.5
245 209 160.5 18251.0
246 100 85.0 18336.0
247 214 137.5 18473.5
248 125 98.0 18571.5
249 36 36.0 18607.5
250 373 287.0 18894.5
251 56 51.5 18946.0
252 117 97.5 19043.5
253 1 1.0 19044.5
254 38 38.0 19082.5
255 74 62.0 19144.5
256 138 122.0 19266.5
257 55 45.5 19312.0
258 195 137.5 19449.5
259 145 91.0 19540.5
260 71 56.0 19596.5
261 37 35.5 19632.0
262 193 108.0 19740.0
263 111 95.0 19835.0
264 187 121.5 19956.5
265 103 82.0 20038.5
266 50 48.0 20086.5
267 124 105.0 20191.5
268 175 131.5 20323.0
269 257 175.5 20498.5
270 133 107.5 20606.0
271 67 58.0 20664.0
272 134 111.0 20775.0
273 243 176.0 20951.0
274 101 77.0 21028.0
275 153 141.0 21169.0
276 124 80.5 21249.5
277 278 153.0 21402.5
278 186 140.0 21542.5
279 237 168.0 21710.5
280 58 38.0 21748.5
281 167 125.0 21873.5
282 94 63.0 21936.5
283 112 91.5 22028.0
284 199 178.5 22206.5
285 1 1.0 22207.5
286 71 48.0 22255.5
287 63 59.5 22315.0
288 51 46.0 22361.0
289 124 100.5 22461.5
290 135 110.5 22572.0
291 93 77.5 22649.5
292 58 51.0 22700.5
293 193 125.5 22826.0
294 183 128.0 22954.0
295 239 170.0 23124.0
296 68 31.5 23155.5
297 112 99.0 23254.5
298 381 255.5 23510.0
299 87 78.5 23588.5
300 183 132.0 23720.5
301 214 165.0 23885.5
302 159 96.0 23981.5
303 47 45.5 24027.0
304 103 91.0 24118.0
305 98 84.0 24202.0
306 84 82.5 24284.5
307 63 47.5 24332.0
308 84 75.5 24407.5
309 74 53.0 24460.5
310 180 140.5 24601.0
311 87 65.5 24666.5
312 77 52.5 24719.0
313 110 99.0 24818.0
314 44 36.5 24854.5
315 138 110.0 24964.5
316 79 73.0 25037.5
317 102 72.5 25110.0
318 65 60.0 25170.0
319 102 59.5 25229.5
320 104 92.5 25322.0
321 136 109.5 25431.5
322 258 146.0 25577.5
323 145 117.5 25695.0
324 97 61.0 25756.0
325 336 256.5 26012.5
326 118 102.0 26114.5
327 60 60.0 26174.5
328 172 133.5 26308.0
329 169 98.5 26406.5
330 101 75.0 26481.5
331 116 94.5 26576.0
332 250 144.5 26720.5
333 69 62.0 26782.5
334 55 47.0 26829.5
335 83 52.0 26881.5
336 60 50.5 26932.0
337 313 233.5 27165.5
338 119 78.0 27243.5
339 93 82.5 27326.0
340 70 45.0 27371.0
341 203 144.5 27515.5
342 272 201.5 27717.0
343 50 50.0 27767.0
344 168 90.5 27857.5
345 132 100.0 27957.5
346 211 123.5 28081.0
347 97 80.5 28161.5
348 206 139.5 28301.0
349 295 236.0 28537.0
350 139 112.5 28649.5
351 157 141.0 28790.5
352 143 95.0 28885.5
353 199 115.5 29001.0
354 47 39.0 29040.0
355 238 208.5 29248.5
356 179 114.5 29363.0
357 163 140.5 29503.5
358 282 220.5 29724.0
359 71 51.0 29775.0
360 151 121.5 29896.5
361 135 84.0 29980.5
362 81 37.5 30018.0
363 71 66.0 30084.0
364 203 182.0 30266.0
365 96 84.0 30350.0
366 149 100.0 30450.0
367 77 73.0 30523.0
368 138 96.5 30619.5
369 223 165.5 30785.0
370 124 108.5 30893.5
371 200 117.5 31011.0
372 63 61.0 31072.0
373 89 65.0 31137.0
374 133 102.5 31239.5
375 302 192.0 31431.5
376 135 119.5 31551.0
377 189 123.5 31674.5
378 66 65.5 31740.0
379 301 239.0 31979.0
380 379 255.0 32234.0
381 102 51.5 32285.5
382 88 73.5 32359.0
383 237 168.0 32527.0
384 158 143.0 32670.0
385 48 45.5 32715.5
386 82 67.5 32783.0
387 89 65.0 32848.0
388 101 79.5 32927.5
389 101 94.5 33022.0
390 73 73.0 33095.0
391 188 122.5 33217.5
392 121 101.5 33319.0
393 100 76.5 33395.5
394 82 79.0 33474.5
395 134 67.5 33542.0
396 91 63.0 33605.0
397 130 100.0 33705.0
398 89 67.5 33772.5
399 157 113.0 33885.5
400 116 81.0 33966.5
401 150 122.0 34088.5
402 84 80.0 34168.5
403 700 449.0 34617.5
404 664 463.0 35080.5
405 700 550.5 35631.0
406 207 173.0 35804.0
407 150 105.5 35909.5
408 180 129.0 36038.5
409 81 72.0 36110.5
410 211 161.0 36271.5
411 73 62.5 36334.0
412 55 53.0 36387.0
413 99 70.5 36457.5
414 86 69.5 36527.0
415 119 100.0 36627.0
416 143 85.0 36712.0
417 244 120.5 36832.5
418 112 97.5 36930.0
419 66 63.5 36993.5
420 42 41.0 37034.5
421 162 84.5 37119.0
422 535 386.5 37505.5
423 57 53.0 37558.5
424 214 157.0 37715.5
425 184 147.0 37862.5
426 163 119.0 37981.5
427 109 66.5 38048.0
428 147 114.5 38162.5
429 145 123.5 38286.0
430 1 1.0 38287.0
431 70 49.5 38336.5
432 659 448.5 38785.0
433 201 107.0 38892.0
434 1 1.0 38893.0
435 230 154.0 39047.0
436 41 38.0 39085.0
437 355 273.0 39358.0
438 253 164.0 39522.0
439 195 145.0 39667.0
440 240 135.0 39802.0
441 675 473.5 40275.5
442 214 166.5 40442.0
443 272 159.0 40601.0
444 355 213.5 40814.5
445 144 104.5 40919.0
446 370 315.5 41234.5
447 39 33.0 41267.5
448 200 162.5 41430.0
449 236 175.5 41605.5
450 515 406.0 42011.5
451 192 132.5 42144.0
452 146 104.0 42248.0
453 143 125.0 42373.0
454 161 109.0 42482.0
455 216 145.5 42627.5
456 141 110.5 42738.0
457 98 81.5 42819.5
458 82 60.0 42879.5
459 102 66.0 42945.5
460 425 288.5 43234.0
461 211 161.0 43395.0
462 700 589.0 43984.0
463 47 43.5 44027.5
464 178 123.0 44150.5
465 269 194.5 44345.0
466 72 69.0 44414.0
467 89 61.5 44475.5
468 537 375.5 44851.0
469 130 71.0 44922.0
470 269 140.5 45062.5
471 700 517.0 45579.5
472 58 47.0 45626.5
473 79 56.0 45682.5
474 700 560.0 46242.5
475 175 95.0 46337.5
476 562 408.5 46746.0
477 94 75.5 46821.5
478 64 56.5 46878.0
479 584 419.0 47297.0
480 700 435.0 47732.0
481 33 25.0 47757.0
482 101 81.5 47838.5
483 179 98.0 47936.5
484 163 103.5 48040.0
485 49 42.5 48082.5
486 126 78.0 48160.5
487 204 152.0 48312.5
488 472 353.5 48666.0
489 210 135.0 48801.0
490 472 318.0 49119.0
491 138 119.5 49238.5
492 72 65.5 49304.0
493 74 44.5 49348.5
494 132 88.5 49437.0
495 224 176.0 49613.0
496 129 93.5 49706.5
497 70 65.0 49771.5
498 208 133.0 49904.5
499 163 114.5 50019.0
500 700 481.5 50500.5
501 700 432.0 50932.5
502 136 98.0 51030.5
503 206 160.5 51191.0
504 235 146.0 51337.0
505 61 54.5 51391.5
506 210 159.5 51551.0
507 183 128.5 51679.5
508 231 164.5 51844.0
509 1 1.0 51845.0
510 157 107.5 51952.5
511 268 223.0 52175.5
512 275 197.5 52373.0
513 121 58.0 52431.0
514 116 93.0 52524.0
515 700 534.0 53058.0
516 89 70.5 53128.5
517 164 80.5 53209.0
518 700 565.0 53774.0
519 60 57.0 53831.0
520 382 305.5 54136.5
521 48 45.0 54181.5
522 232 181.0 54362.5
523 212 152.0 54514.5
524 700 487.0 55001.5
525 327 230.5 55232.0
526 700 525.5 55757.5
527 54 54.0 55811.5
528 700 480.5 56292.0
529 118 98.5 56390.5
530 94 70.0 56460.5
531 124 106.5 56567.0
532 68 53.0 56620.0
533 88 60.0 56680.0
534 700 583.5 57263.5
535 85 74.0 57337.5
536 99 71.5 57409.0
537 321 185.0 57594.0
538 664 499.0 58093.0
539 106 81.5 58174.5
540 301 199.0 58373.5
541 125 114.5 58488.0
542 191 142.5 58630.5
543 131 95.5 58726.0
544 501 362.0 59088.0
545 57 54.5 59142.5
546 161 137.0 59279.5
547 146 123.5 59403.0
548 320 181.5 59584.5
549 52 51.0 59635.5
550 189 120.0 59755.5
551 38 38.0 59793.5
552 129 105.0 59898.5
553 700 511.0 60409.5
554 114 82.0 60491.5
555 95 75.5 60567.0
556 117 75.5 60642.5
557 700 498.5 61141.0
558 96 73.0 61214.0
559 41 38.5 61252.5
560 302 189.0 61441.5
561 700 497.0 61938.5
562 327 194.0 62132.5
563 700 440.0 62572.5
564 136 105.5 62678.0
565 226 157.5 62835.5
566 128 109.0 62944.5
567 147 105.5 63050.0
568 174 132.0 63182.0
569 94 66.5 63248.5
570 586 381.0 63629.5
571 196 146.5 63776.0
572 112 84.0 63860.0
573 57 53.0 63913.0
574 292 234.0 64147.0
575 156 96.5 64243.5
576 78 73.5 64317.0
577 99 83.5 64400.5
578 76 63.5 64464.0
579 179 121.5 64585.5
580 700 492.0 65077.5
581 700 540.0 65617.5
582 42 39.0 65656.5
583 700 532.5 66189.0
584 122 105.5 66294.5
585 94 63.5 66358.0
586 213 173.5 66531.5
587 72 61.5 66593.0
588 183 140.5 66733.5
589 75 72.0 66805.5
590 57 51.0 66856.5
591 91 60.0 66916.5
592 150 114.0 67030.5
593 278 224.5 67255.0
594 112 90.5 67345.5
595 1 1.0 67346.5
596 60 57.5 67404.0
597 1 0.5 67404.5
598 152 115.5 67520.0
599 180 129.0 67649.0
600 77 66.5 67715.5
601 555 421.5 68137.0
602 160 121.0 68258.0
603 174 127.5 68385.5
604 225 182.0 68567.5
605 78 72.5 68640.0
606 700 495.5 69135.5
607 700 456.5 69592.0
608 378 219.0 69811.0
609 165 122.5 69933.5
610 75 70.0 70003.5
611 215 148.5 70152.0
612 374 294.5 70446.5
613 294 222.5 70669.0
614 180 108.0 70777.0
615 192 105.5 70882.5
616 189 111.5 70994.0
617 275 214.5 71208.5
618 366 272.5 71481.0
619 181 139.0 71620.0
620 478 305.5 71925.5
621 66 58.5 71984.0
622 28 27.5 72011.5
623 462 329.0 72340.5
624 468 335.5 72676.0
625 83 82.5 72758.5
626 223 173.0 72931.5
627 127 104.5 73036.0
628 229 182.0 73218.0
629 69 67.0 73285.0
630 127 96.0 73381.0
631 298 208.0 73589.0
632 700 475.5 74064.5
633 215 140.0 74204.5
634 75 65.0 74269.5
635 203 127.0 74396.5
636 49 47.0 74443.5
637 206 161.5 74605.0
638 83 74.5 74679.5
639 197 146.5 74826.0
640 122 102.5 74928.5
641 123 78.0 75006.5
642 371 310.5 75317.0
643 191 117.5 75434.5
644 73 70.0 75504.5
645 700 560.5 76065.0
646 94 75.0 76140.0
647 69 65.0 76205.0
648 405 247.5 76452.5
649 200 116.0 76568.5
650 88 83.0 76651.5
651 92 81.5 76733.0
652 649 354.0 77087.0
653 124 99.5 77186.5
654 84 66.0 77252.5
655 368 266.5 77519.0
656 257 194.0 77713.0
657 26 25.0 77738.0
658 149 126.0 77864.0
659 101 96.5 77960.5
660 517 373.5 78334.0
661 83 56.5 78390.5
662 1 1.0 78391.5
663 700 536.0 78927.5
664 157 93.5 79021.0
665 222 143.5 79164.5
666 700 569.0 79733.5
667 161 98.0 79831.5
668 557 387.0 80218.5
669 588 449.5 80668.0
670 280 205.0 80873.0
671 346 227.5 81100.5
672 143 103.0 81203.5
673 219 159.5 81363.0
674 184 150.0 81513.0
675 566 428.5 81941.5
676 103 56.0 81997.5
677 99 94.5 82092.0
678 139 88.5 82180.5
679 65 47.5 82228.0
680 700 472.0 82700.0
681 82 73.0 82773.0
682 205 147.0 82920.0
683 45 45.0 82965.0
684 4 4.0 82969.0
685 299 178.5 83147.5
686 63 60.5 83208.0
687 636 413.5 83621.5
688 72 64.0 83685.5
689 376 277.5 83963.0
690 34 23.5 83986.5
691 216 171.0 84157.5
692 70 67.5 84225.0
693 79 72.0 84297.0
694 159 123.0 84420.0
695 79 61.0 84481.0
696 51 44.0 84525.0
697 122 109.5 84634.5
698 49 48.5 84683.0
699 109 82.0 84765.0
700 219 158.0 84923.0
701 70 67.5 84990.5
702 700 525.5 85516.0
703 213 155.5 85671.5
704 70 53.0 85724.5
705 158 130.5 85855.0
706 316 258.5 86113.5
707 700 478.0 86591.5
708 45 36.5 86628.0
709 101 68.5 86696.5
710 86 73.5 86770.0
711 73 63.0 86833.0
712 176 140.0 86973.0
713 683 425.5 87398.5
714 188 124.0 87522.5
715 95 89.0 87611.5
716 90 79.5 87691.0
717 700 483.5 88174.5
718 361 256.5 88431.0
719 544 356.0 88787.0
720 31 30.5 88817.5
721 213 134.0 88951.5
722 317 275.5 89227.0
723 700 511.5 89738.5
724 61 61.0 89799.5
725 414 260.5 90060.0
726 152 121.5 90181.5
727 196 130.0 90311.5
728 133 107.5 90419.0
729 220 119.5 90538.5
730 111 104.0 90642.5
731 146 118.0 90760.5
732 331 239.0 90999.5
733 700 448.5 91448.0
734 106 99.0 91547.0
735 189 143.0 91690.0
736 472 266.0 91956.0
737 130 109.5 92065.5
738 42 34.0 92099.5
739 97 84.5 92184.0
740 89 62.0 92246.0
741 87 58.0 92304.0
742 50 42.0 92346.0
743 700 415.5 92761.5
744 110 96.0 92857.5
745 97 81.5 92939.0
746 25 25.0 92964.0
747 700 455.0 93419.0
748 382 238.0 93657.0
749 700 417.0 94074.0
750 46 44.0 94118.0
751 700 492.0 94610.0
752 65 51.5 94661.5
753 71 67.5 94729.0
754 135 99.0 94828.0
755 100 67.0 94895.0
756 122 75.5 94970.5
757 75 67.5 95038.0
758 60 44.0 95082.0
759 81 23.5 95105.5
760 535 336.0 95441.5
761 153 120.0 95561.5
762 634 410.0 95971.5
763 700 510.5 96482.0
764 700 393.0 96875.0
765 700 520.5 97395.5
766 135 114.0 97509.5
767 144 91.0 97600.5
768 142 124.5 97725.0
769 203 103.5 97828.5
770 164 127.5 97956.0
771 167 105.0 98061.0
772 85 78.0 98139.0
773 199 145.5 98284.5
774 70 53.5 98338.0
775 354 212.5 98550.5
776 135 81.5 98632.0
777 94 72.5 98704.5
778 54 50.5 98755.0
779 700 547.5 99302.5
780 700 460.5 99763.0
781 63 58.0 99821.0
782 289 167.5 99988.5
783 523 309.5 100298.0
784 700 443.0 100741.0
785 101 61.5 100802.5
786 184 91.5 100894.0
787 700 500.5 101394.5
788 203 165.0 101559.5
789 270 173.0 101732.5
790 196 146.0 101878.5
791 483 344.5 102223.0
792 700 555.5 102778.5
793 700 510.0 103288.5
794 700 513.5 103802.0
795 700 423.5 104225.5
796 700 605.0 104830.5
797 700 528.0 105358.5
798 700 527.5 105886.0
799 700 549.5 106435.5
800 700 474.5 106910.0
801 700 494.5 107404.5
802 700 501.5 107906.0
803 700 537.0 108443.0
804 700 578.5 109021.5
805 700 478.0 109499.5
806 700 580.5 110080.0
807 700 569.0 110649.0
808 700 528.5 111177.5
809 700 512.5 111690.0
810 700 312.5 112002.5
811 8 7.5 112010.0
812 700 561.0 112571.0
813 700 517.5 113088.5
814 700 507.0 113595.5
815 700 523.5 114119.0
816 700 505.5 114624.5
817 700 598.5 115223.0
818 700 559.0 115782.0
819 700 574.0 116356.0
820 700 519.5 116875.5
821 700 549.5 117425.0
822 700 541.0 117966.0
823 700 513.5 118479.5
824 700 553.0 119032.5
825 700 534.5 119567.0
826 700 468.5 120035.5
827 700 627.5 120663.0
828 700 546.0 121209.0
829 700 527.5 121736.5
830 700 532.5 122269.0
831 700 472.0 122741.0
832 700 580.5 123321.5
833 700 577.0 123898.5
834 700 571.0 124469.5
835 700 530.0 124999.5
836 700 504.0 125503.5
837 700 407.5 125911.0
838 700 542.5 126453.5
839 700 408.0 126861.5
840 700 556.5 127418.0
841 700 572.0 127990.0
842 700 590.5 128580.5
843 700 465.5 129046.0
844 141 118.5 129164.5
845 700 562.0 129726.5
846 700 553.5 130280.0
847 700 524.5 130804.5
848 700 501.0 131305.5
849 700 571.5 131877.0
850 700 481.5 132358.5
851 700 610.0 132968.5
852 700 551.0 133519.5
853 700 551.0 134070.5
854 700 456.5 134527.0
855 700 504.5 135031.5
856 700 547.5 135579.0
857 700 553.0 136132.0
858 700 591.0 136723.0
859 700 488.0 137211.0
860 700 456.0 137667.0
861 700 531.5 138198.5
862 97 75.5 138274.0
863 700 478.0 138752.0
864 700 548.5 139300.5
865 700 536.0 139836.5
866 700 549.5 140386.0
867 700 581.5 140967.5
868 347 250.0 141217.5
869 700 549.5 141767.0
870 273 222.0 141989.0
871 700 581.5 142570.5
872 700 409.5 142980.0
873 700 539.5 143519.5
874 700 539.0 144058.5
875 700 535.0 144593.5
876 700 503.5 145097.0
877 700 517.5 145614.5
878 700 483.0 146097.5
879 700 472.5 146570.0
880 700 537.5 147107.5
881 700 616.5 147724.0
882 700 572.5 148296.5
883 639 419.0 148715.5
884 700 492.0 149207.5
885 700 427.0 149634.5
886 700 584.0 150218.5
887 700 590.0 150808.5
888 700 564.5 151373.0
889 700 519.5 151892.5
890 700 508.0 152400.5
891 700 558.0 152958.5
892 666 484.5 153443.0
893 700 452.0 153895.0
894 700 434.0 154329.0
895 700 584.0 154913.0
896 700 512.5 155425.5
897 700 492.5 155918.0
898 700 632.0 156550.0
899 700 550.5 157100.5
900 700 474.0 157574.5
901 700 561.0 158135.5
902 700 584.5 158720.0
903 700 499.5 159219.5
904 700 509.0 159728.5
905 700 541.5 160270.0
906 700 578.0 160848.0
907 700 538.5 161386.5
908 700 453.5 161840.0
909 700 557.0 162397.0
910 700 547.0 162944.0
911 700 546.5 163490.5
912 700 533.0 164023.5
913 700 513.0 164536.5
914 700 502.5 165039.0
915 700 607.0 165646.0
916 700 480.5 166126.5
917 700 583.5 166710.0
918 700 526.5 167236.5
919 700 484.0 167720.5
920 700 531.5 168252.0
921 700 351.5 168603.5
922 700 518.0 169121.5
923 700 500.5 169622.0
924 700 590.5 170212.5
925 700 566.0 170778.5
926 595 500.0 171278.5
927 700 530.5 171809.0
928 453 343.5 172152.5
929 700 455.0 172607.5
930 700 528.5 173136.0
931 700 566.0 173702.0
932 700 566.5 174268.5
933 700 530.0 174798.5
934 700 443.0 175241.5
935 700 523.0 175764.5
936 700 518.5 176283.0
937 700 496.0 176779.0
938 700 578.5 177357.5
939 700 533.5 177891.0
940 700 634.5 178525.5
941 700 556.0 179081.5
942 700 560.5 179642.0
943 700 587.0 180229.0
944 700 519.5 180748.5
945 700 486.5 181235.0
946 700 589.5 181824.5
947 700 522.5 182347.0
948 700 573.5 182920.5
949 590 471.5 183392.0
950 700 515.0 183907.0
951 700 586.0 184493.0
952 700 588.5 185081.5
953 700 573.5 185655.0
954 700 410.0 186065.0
955 700 561.5 186626.5
956 700 523.0 187149.5
957 700 595.0 187744.5
958 700 600.0 188344.5
959 700 601.0 188945.5
960 700 518.5 189464.0
961 700 488.0 189952.0
962 700 535.5 190487.5
963 42 40.0 190527.5
964 24 12.0 190539.5
965 325 279.5 190819.0
966 353 313.5 191132.5
967 700 452.5 191585.0
968 700 545.5 192130.5
969 700 636.5 192767.0
970 700 504.5 193271.5
971 700 538.0 193809.5
972 700 565.0 194374.5
973 700 459.0 194833.5
974 700 545.0 195378.5
975 700 533.5 195912.0
976 700 575.0 196487.0
977 700 621.5 197108.5
978 700 575.5 197684.0
979 700 584.0 198268.0
980 700 507.5 198775.5
981 700 593.0 199368.5
982 700 578.0 199946.5
983 700 587.5 200534.0
984 700 590.0 201124.0
985 700 435.0 201559.0
986 700 588.0 202147.0
987 700 504.0 202651.0
988 700 476.0 203127.0
989 700 490.5 203617.5
990 700 597.0 204214.5
991 700 590.0 204804.5
992 700 525.0 205329.5
993 700 524.0 205853.5
994 700 503.0 206356.5
995 700 443.0 206799.5
996 700 582.0 207381.5
997 700 572.0 207953.5
998 700 570.0 208523.5
999 700 537.0 209060.5
1000 700 555.0 209615.5
1001 700 558.0 210173.5
1002 700 436.0 210609.5
1003 700 510.5 211120.0
1004 700 561.0 211681.0
1005 700 546.5 212227.5
1006 635 456.5 212684.0
1007 218 153.5 212837.5
1008 528 428.0 213265.5
1009 262 178.5 213444.0
1010 165 118.0 213562.0
1011 259 121.0 213683.0
1012 89 69.5 213752.5
1013 59 49.5 213802.0
1014 147 130.5 213932.5
1015 700 476.5 214409.0
1016 190 149.5 214558.5
1017 78 67.0 214625.5
1018 170 116.5 214742.0
1019 173 97.0 214839.0
1020 105 87.5 214926.5
1021 138 116.5 215043.0
1022 700 517.5 215560.5
1023 125 125.0 215685.5
1024 79 62.0 215747.5
1025 283 172.0 215919.5
1026 209 120.0 216039.5
1027 195 122.5 216162.0
1028 163 115.0 216277.0
1029 259 127.0 216404.0
1030 72 64.0 216468.0
1031 700 500.0 216968.0
1032 215 172.5 217140.5
1033 162 109.0 217249.5
1034 700 477.0 217726.5
1035 265 171.5 217898.0
1036 208 146.0 218044.0
1037 1 0.0 218044.0
1038 700 508.0 218552.0
1039 228 130.0 218682.0
1040 700 497.0 219179.0
1041 359 254.5 219433.5
1042 60 53.5 219487.0
1043 700 465.0 219952.0
1044 432 313.5 220265.5
1045 104 88.0 220353.5
1046 438 316.5 220670.0
1047 259 173.0 220843.0
1048 524 340.5 221183.5
1049 268 130.0 221313.5
1050 1 1.0 221314.5
1051 229 129.0 221443.5
1052 102 91.5 221535.0
1053 16 14.0 221549.0
1054 700 440.0 221989.0
1055 209 135.0 222124.0
1056 197 150.0 222274.0
1057 589 383.5 222657.5
1058 89 78.0 222735.5
1059 234 196.0 222931.5
1060 700 419.0 223350.5
1061 240 186.0 223536.5
1062 52 52.0 223588.5
1063 165 101.0 223689.5
1064 40 40.0 223729.5
1065 285 213.0 223942.5
1066 105 77.5 224020.0
1067 153 99.0 224119.0
1068 154 133.5 224252.5
1069 93 60.0 224312.5
1070 123 67.5 224380.0
1071 700 508.0 224888.0
1072 700 488.5 225376.5
1073 149 120.0 225496.5
1074 270 217.0 225713.5
1075 133 109.0 225822.5
1076 121 108.5 225931.0
1077 131 95.5 226026.5
1078 372 169.0 226195.5
1079 12 6.0 226201.5
1080 700 530.0 226731.5
1081 646 385.5 227117.0
1082 193 134.0 227251.0
1083 99 76.0 227327.0
1084 201 141.5 227468.5
1085 158 87.5 227556.0
1086 70 58.0 227614.0
1087 602 424.5 228038.5
1088 700 427.5 228466.0
1089 700 439.5 228905.5
1090 140 108.5 229014.0
1091 700 419.0 229433.0
1092 201 136.0 229569.0
1093 641 434.0 230003.0
1094 319 174.5 230177.5
1095 11 6.5 230184.0
1096 700 471.5 230655.5
1097 700 532.0 231187.5
1098 82 75.0 231262.5
1099 628 410.5 231673.0
1100 700 532.5 232205.5
1101 700 455.0 232660.5
1102 380 264.5 232925.0
1103 258 179.5 233104.5
1104 113 60.0 233164.5
1105 501 352.0 233516.5
1106 346 153.0 233669.5
1107 8 8.0 233677.5
1108 700 505.0 234182.5
1109 292 159.5 234342.0
1110 384 249.5 234591.5
1111 133 121.0 234712.5
1112 135 94.0 234806.5
1113 165 142.5 234949.0
1114 127 108.0 235057.0
1115 700 492.5 235549.5
1116 150 114.0 235663.5
1117 237 175.0 235838.5
1118 106 72.0 235910.5
1119 241 200.0 236110.5
1120 647 456.0 236566.5
1121 72 60.5 236627.0
1122 155 108.0 236735.0
1123 223 142.0 236877.0
1124 211 169.5 237046.5
1125 700 516.5 237563.0
1126 118 101.0 237664.0
1127 700 490.5 238154.5
1128 109 88.5 238243.0
1129 77 67.0 238310.0
1130 144 124.5 238434.5
1131 125 91.0 238525.5
1132 218 118.5 238644.0
1133 68 62.0 238706.0
1134 129 89.5 238795.5
1135 700 477.0 239272.5
1136 695 552.0 239824.5
1137 310 173.0 239997.5
1138 700 449.5 240447.0
1139 700 436.5 240883.5
1140 700 490.5 241374.0
1141 623 516.0 241890.0
1142 513 300.0 242190.0
1143 600 465.5 242655.5
1144 264 164.0 242819.5
1145 178 103.0 242922.5
1146 326 245.5 243168.0
1147 700 460.0 243628.0
1148 108 105.5 243733.5
1149 443 284.0 244017.5
1150 161 121.0 244138.5
1151 288 190.0 244328.5
1152 269 180.0 244508.5
1153 170 117.5 244626.0
1154 98 75.5 244701.5
1155 546 430.0 245131.5
1156 657 476.0 245607.5
1157 700 490.0 246097.5
1158 190 130.5 246228.0
1159 74 73.0 246301.0
1160 316 147.5 246448.5
1161 700 559.5 247008.0
1162 338 211.5 247219.5
1163 139 91.5 247311.0
1164 669 479.0 247790.0
1165 112 77.5 247867.5
1166 94 76.0 247943.5
1167 222 190.0 248133.5
1168 154 116.5 248250.0
1169 155 118.5 248368.5
1170 186 143.0 248511.5
1171 329 217.0 248728.5
1172 199 143.5 248872.0
1173 109 64.5 248936.5
1174 700 556.5 249493.0
1175 700 524.5 250017.5
1176 246 127.0 250144.5
1177 463 319.5 250464.0
1178 386 267.5 250731.5
1179 255 169.0 250900.5
1180 118 80.0 250980.5
1181 117 103.5 251084.0
1182 575 367.0 251451.0
1183 180 126.0 251577.0
1184 145 102.5 251679.5
1185 173 140.5 251820.0
1186 191 124.5 251944.5
1187 123 87.0 252031.5
1188 700 407.5 252439.0
1189 700 413.0 252852.0
1190 427 349.5 253201.5
1191 123 92.5 253294.0
1192 342 240.5 253534.5
1193 85 73.5 253608.0
1194 94 64.0 253672.0
1195 68 60.0 253732.0
1196 225 177.0 253909.0
1197 164 117.0 254026.0
1198 106 77.5 254103.5
1199 26 3.0 254106.5
1200 143 100.0 254206.5
