0 [1.0, 1.0, 1.0, 1.0, 1.0, 1.0, 1.0, 1.0]
1 [1.0, 1.0, 1.0, 1.0, 1.0, 1.0, 1.0, 1.0]
2 [1.0, 1.0, 1.0, 1.0, 1.0, 1.0, 1.0, 1.0]
3 [1.0, 1.0, 1.0, 1.0, 1.0, 1.0, 1.0, 1.0]
4 [1.0, 1.0, 1.0, 1.0, 1.0, 1.0, 1.0, 1.0]
5 [1.0, 1.0, 1.0, 1.0, 1.0, 1.0, 1.0, 1.0]
6 [1.0, 1.0, 1.0, 1.0, 1.0, 1.0, 1.0, 1.0]
7 [1.0, 1.0, 1.0, 1.0, 1.0, 1.0, 1.0, 1.0]
8 [1.0, 1.0, 1.0, 1.0, 1.0, 1.0, 1.0, 1.0]
9 [1.0, 1.0, 1.0, 1.0, 1.0, 1.0, 1.0, 1.0]
10 [1.0, 1.0, 1.0, 1.0, 1.0, 1.0, 1.0, 1.0]
11 [1.0, 1.0, 1.0, 1.0, 1.0, 1.0, 1.0, 1.0]
12 [1.6967542, 1.0942954, 1.0002338, 1.0, 1.0, 1.0, 1.0, 1.0]
13 [1.5809212, 1.0786191, 1.0001949, 1.0, 1.0, 1.0, 1.0, 1.0]
14 [1.3426434, 1.0463717, 1.0001149, 1.0, 1.0, 1.0, 1.0, 1.0]
15 [1.258721, 1.035014, 1.0000868, 1.0, 1.0, 1.0, 1.0, 1.0]
16 [0.45488, 0.926226, 0.99981713, 1.0, 1.0, 1.0, 1.0, 1.0]
17 [0.33989674, 0.91066474, 0.99977857, 1.0, 1.0, 1.0, 1.0, 1.0]
18 [0.48651898, 0.9305079, 0.99982774, 1.0, 1.0, 1.0, 1.0, 1.0]
19 [0.611011, 0.94735605, 0.9998695, 1.0, 1.0, 1.0, 1.0, 1.0]
20 [0.70595324, 0.9602051, 0.99990135, 1.0, 1.0, 1.0, 1.0, 1.0]
21 [0.85295254, 0.9800993, 0.99995065, 1.0, 1.0, 1.0, 1.0, 1.0]
22 [0.8888639, 0.98495936, 0.99996275, 1.0, 1.0, 1.0, 1.0, 1.0]
23 [0.9256521, 0.9899381, 0.9999751, 1.0, 1.0, 1.0, 1.0, 1.0]
24 [0.94386524, 0.992403, 0.99998116, 1.0, 1.0, 1.0, 1.0, 1.0]
25 [0.95757425, 0.9942583, 0.99998575, 1.0, 1.0, 1.0, 1.0, 1.0]
26 [0.9679353, 0.99566054, 0.9999893, 1.0, 1.0, 1.0, 1.0, 1.0]
27 [0.97579026, 0.9967236, 0.9999919, 1.0, 1.0, 1.0, 1.0, 1.0]
28 [1.0, 1.0, 1.0, 1.0, 1.0, 1.0, 1.0, 1.0]
29 [1.0, 1.0, 1.0, 1.0, 1.0, 1.0, 1.0, 1.0]
30 [1.0, 1.0, 1.0, 1.0, 1.0, 1.0, 1.0, 1.0]
31 [1.0, 1.0, 1.0, 1.0, 1.0, 1.0, 1.0, 1.0]
32 [1.0, 1.0, 1.0, 1.0, 1.0, 1.0, 1.0, 1.0]
33 [1.0, 1.0, 1.0, 1.0, 1.0, 1.0, 1.0, 1.0]
34 [1.0, 1.0, 1.0, 1.0, 1.0, 1.0, 1.0, 1.0]
35 [1.0, 1.0, 1.0, 1.0, 1.0, 1.0, 1.0, 1.0]
36 [1.0, 1.0, 1.0, 1.0, 1.0, 1.0, 1.0, 1.0]
37 [1.6966634, 1.0942831, 1.0002337, 1.0, 1.0, 1.0, 1.0, 1.0]
38 [1.5766195, 1.078037, 1.0001935, 1.0, 1.0, 1.0, 1.0, 1.0]
39 [1.4388459, 1.0593913, 1.0001472, 1.0, 1.0, 1.0, 1.0, 1.0]
40 [1.3315263, 1.0448672, 1.0001112, 1.0, 1.0, 1.0, 1.0, 1.0]
41 [1.2505733, 1.0339113, 1.000084, 1.0, 1.0, 1.0, 1.0, 1.0]
42 [1.1893799, 1.0256298, 1.0000635, 1.0, 1.0, 1.0, 1.0, 1.0]
43 [1.1427015, 1.0193125, 1.0000479, 1.0, 1.0, 1.0, 1.0, 1.0]
44 [0.3073749, 0.9062634, 0.99976766, 1.0, 1.0, 1.0, 1.0, 1.0]
45 [0.4399469, 0.92420506, 0.9998121, 1.0, 1.0, 1.0, 1.0, 1.0]
46 [0.5744868, 0.94241303, 0.99985725, 1.0, 1.0, 1.0, 1.0, 1.0]
47 [0.7241807, 0.96267194, 0.9999075, 1.0, 1.0, 1.0, 1.0, 1.0]
48 [0.7915385, 0.9717878, 0.9999301, 1.0, 1.0, 1.0, 1.0, 1.0]
49 [0.84260553, 0.97869897, 0.9999472, 1.0, 1.0, 1.0, 1.0, 1.0]
