0 [0.0, 0.0, 0.0, 0.0, 0.0, 0.0, 0.0, 0.0]
1 [0.0, 0.0, 0.0, 0.0, 0.0, 0.0, 0.0, 0.0]
2 [0.0, 0.0, 0.0, 0.0, 0.0, 0.0, 0.0, 0.0]
3 [0.0, 0.0, 0.0, 0.0, 0.0, 0.0, 0.0, 0.0]
4 [0.85714287, 0.0, 0.375, 0.875, 0.875, 0.375, 0.0, 0.375]
5 [0.0, 0.0, 0.0, 0.0, 0.0, 0.0, 0.0, 0.0]
6 [0.0, 0.0, 0.23076923, 0.9230769, 0.9230769, 0.23076923, 0.0, 0.9230769]
7 [0.6666667, 0.6666667, 0.2857143, 0.9285714, 0.9285714, 0.2857143, 0.0, 0.2857143]
8 [0.0, 0.0, 0.0, 0.0, 0.0, 0.0, 0.0, 0.0]
9 [0.0, 0.0, 0.0, 0.0, 0.0, 0.0, 0.0, 0.0]
10 [0.0, 0.0, 0.0, 0.0, 0.0, 0.0, 0.0, 0.0]
11 [0.0, 0.0, 0.0, 0.0, 0.0, 0.0, 0.0, 0.0]
12 [0.13636364, 0.13636364, 0.0, 0.13636364, 0.13636364, 0.95454544, 0.13636364, 0.95454544]
13 [0.6666667, 0.6666667, 0.0, 0.0, 0.0, 0.0, 0.0, 0.0]
14 [0.6666667, 0.6666667, 0.055555556, 0.055555556, 0.055555556, 0.9722222, 0.055555556, 0.9722222]
15 [0.9166667, 0.9166667, 0.16666667, 0.0, 0.16666667, 0.0, 0.0, 0.9166667]
16 [0.0, 0.0, 0.0, 0.0, 0.0, 0.0, 0.0, 0.0]
17 [0.6666667, 0.0, 0.0, 0.6666667, 0.6666667, 0.0, 0.0, 0.6666667]
18 [0.0, 0.0, 0.0, 0.0, 0.0, 0.0, 0.0, 0.0]
19 [0.0, 0.0, 0.06666667, 0.06666667, 0.9777778, 0.06666667, 0.0, 0.85714287]
20 [0.0, 0.0, 0.0, 0.0, 0.0, 0.0, 0.0, 0.0]
21 [0.375, 0.0, 0.0, 0.375, 0.0, 0.0, 0.0, 0.875]
22 [0.875, 0.0, 0.0, 0.375, 0.0, 0.0, 0.0, 0.375]
23 [0.0, 0.0, 0.0, 0.0, 0.0, 0.0, 0.0, 0.0]
24 [0.0, 0.0, 0.0, 0.0, 0.0, 0.0, 0.0, 0.0]
25 [0.0, 0.0, 0.0, 0.0, 0.0, 0.0, 0.0, 0.0]
26 [0.0054945056, 0.0054945056, 0.99450547, 0.375, 0.0, 0.0054945056, 0.0054945056, 0.875]
27 [0.0, 0.9714286, 0.9714286, 0.0, 0.0, 0.0, 0.0, 0.9714286]
28 [0.0, 0.0, 0.0, 0.0, 0.0, 0.0, 0.0, 0.0]
29 [0.0, 0.0, 0.0, 0.0, 0.0, 0.0, 0.0, 0.0]
30 [0.0, 0.0, 0.0, 0.0, 0.0, 0.0, 0.0, 0.0]
31 [0.0, 0.0, 0.0, 0.0, 0.0, 0.0, 0.0, 0.0]
32 [0.0, 0.98888886, 0.375, 0.0, 0.0, 0.0, 0.0, 0.875]
33 [0.95, 0.95, 0.05, 0.05, 0.05, 0.0, 0.05, 0.0]
34 [0.0, 0.375, 0.875, 0.0, 0.0, 0.0, 0.375, 0.0]
35 [0.0, 0.0, 0.0, 0.0, 0.0, 0.0, 0.0, 0.0]
36 [0.9444444, 0.055555556, 0.055555556, 0.055555556, 0.055555556, 0.055555556, 0.055555556, 0.0]
37 [0.0, 0.0, 0.0, 0.0, 0.0, 0.0, 0.0, 0.0]
38 [0.0, 0.0, 0.0, 0.0, 0.0, 0.0, 0.0, 0.0]
39 [0.0, 0.0, 0.0, 0.0, 0.0, 0.0, 0.0, 0.0]
40 [0.0, 0.875, 0.0, 0.0, 0.0, 0.0, 0.875, 0.0]
41 [0.96153843, 0.03846154, 0.03846154, 0.03846154, 0.0, 0.03846154, 0.0, 0.0]
42 [0.0, 0.875, 0.0, 0.0, 0.0, 0.0, 0.875, 0.0]
43 [0.93333334, 0.06666667, 0.06666667, 0.06666667, 0.06666667, 0.06666667, 0.0, 0.93333334]
44 [0.96666664, 0.75, 0.033333335, 0.033333335, 0.033333335, 0.033333335, 0.75, 0.96666664]
45 [0.0, 0.0, 0.0, 0.0, 0.0, 0.0, 0.0, 0.0]
46 [0.11111111, 0.875, 0.9444444, 0.0, 0.9444444, 0.0, 0.875, 0.9444444]
47 [0.0, 0.0, 0.0, 0.0, 0.0, 0.0, 0.0, 0.0]
48 [0.0, 0.875, 0.0, 0.0, 0.0, 0.375, 0.375, 0.0]
49 [0.0625, 0.0625, 0.0625, 0.0, 0.0625, 0.0, 0.9375, 0.9375]
