0 [0.0, 0.0, 0.0, 0.0, 0.0, 0.0, 0.0, 0.0]
1 [0.0, 0.0, 0.0, 0.0, 0.0, 0.0, 0.0, 0.0]
2 [0.0, 0.0, 0.0, 0.0, 0.0, 0.0, 0.0, 0.0]
3 [0.0, 0.0, 0.0, 0.0, 0.0, 0.0, 0.0, 0.0]
4 [0.16829121, 0.11829121, 0.06370878, 0.06370878, 0.061708786, 0.060708787, 0.05970879, 0.058708787]
5 [0.16829121, 0.11829121, 0.06370878, 0.06370878, 0.061708786, 0.060708787, 0.05970879, 0.058708787]
6 [1.0251868, 0.120043956, 0.44295606, 0.94195604, 0.939956, 0.43695605, 0.05995604, 0.43195605]
7 [0.16804396, 0.120043956, 0.06795605, 0.06695606, 0.06495603, 0.061956037, 0.05995604, 0.05695604]
8 [0.1657967, 0.1207967, 0.30497253, 0.99628025, 0.99228024, 0.29597253, 0.061203294, 0.9802802]
9 [0.8300733, 0.78707325, 0.3663077, 1.0081648, 1.0021648, 0.3543077, 0.061593406, 0.34230772]
10 [0.1634066, 0.1204066, 0.080593415, 0.07959341, 0.07359339, 0.0685934, 0.061593406, 0.05659341]
11 [0.1634066, 0.1204066, 0.080593415, 0.07959341, 0.07359339, 0.0685934, 0.061593406, 0.05659341]
12 [0.1634066, 0.1204066, 0.080593415, 0.07959341, 0.07359339, 0.0685934, 0.061593406, 0.05659341]
13 [0.16216484, 0.12216484, 0.08283517, 0.08483517, 0.07583515, 0.069835156, 0.060835168, 0.054835174]
14 [0.50541073, 0.282185, 0.07851285, 0.22185814, 0.21185814, 1.0250399, 0.19685815, 1.00904]
15 [1.309275, 0.8501376, 0.07850979, 0.08549451, 0.0754945, 0.0704945, 0.060494512, 0.054494515]
16 [1.1123604, 0.82504874, 0.13375223, 0.14073688, 0.13073687, 1.0424036, 0.11573688, 1.0264035]
17 [1.3555135, 1.0732033, 0.24945755, 0.08276924, 0.2404359, 0.06876923, 0.05876924, 0.9704359]
18 [0.20168583, 0.124440536, 0.08277642, 0.08276924, 0.07376923, 0.06876923, 0.05876924, 0.05376922]
19 [0.3763066, 0.11077561, 0.08038641, 0.7460678, 0.7390678, 0.067401096, 0.059401106, 0.7210678]
20 [0.054587044, 0.1089145, 0.0803833, 0.07940111, 0.07240109, 0.067401096, 0.059401106, 0.05440111]
21 [0.08015266, 0.103981696, 0.12289824, 0.12391941, 1.0360305, 0.12591942, 0.06025274, 0.9173956]
22 [0.10066238, 0.105864435, 0.05624541, 0.057252746, 0.058252744, 0.059252743, 0.06025274, 0.06025274]
23 [0.37945762, 0.088829525, 0.036485415, 0.421489, 0.05951099, 0.06348901, 0.070489004, 0.946489]
24 [0.8812593, 0.07271043, 0.038184926, 0.41881317, 0.06318681, 0.06981318, 0.07781319, 0.43181318]
25 [0.14060657, 0.07307099, 0.038185388, 0.04381318, 0.06318681, 0.06981318, 0.07781319, 0.05681319]
26 [0.1162214, 0.049989384, 0.048750922, 0.06475275, 0.07124724, 0.091247246, 0.09924726, 0.15475275]
27 [0.121031545, 0.050242066, 0.048751526, 0.06475275, 0.07124724, 0.091247246, 0.09924726, 0.15475275]
28 [0.082671195, 0.074021265, 1.0283928, 0.4450934, 0.09690658, 0.12640111, 0.13558792, 1.0170934]
29 [0.075358994, 1.0401198, 1.0421115, 0.07630221, 0.1093022, 0.1293022, 0.1326978, 1.1031264]
30 [0.076174386, 0.07437365, 0.07069703, 0.07630221, 0.1093022, 0.1293022, 0.1326978, 0.1316978]
31 [0.07679255, 0.07445305, 0.07069722, 0.07630221, 0.1093022, 0.1293022, 0.1326978, 0.1316978]
32 [0.07869781, 0.07469779, 0.07069779, 0.07630221, 0.1093022, 0.1293022, 0.1326978, 0.1316978]
33 [0.07869781, 0.07469779, 0.07069779, 0.07630221, 0.1093022, 0.1293022, 0.1326978, 0.1316978]
34 [0.10037912, 1.007268, 0.45337912, 0.10862089, 0.14262088, 0.11037912, 0.119379126, 0.9553791]
35 [1.0531484, 1.0341483, 0.13014835, 0.16385165, 0.19085163, 0.11514836, 0.16214834, 0.08214835]
36 [0.103148356, 0.45914835, 0.95514834, 0.11385165, 0.14085163, 0.11514836, 0.48714834, 0.08214835]
37 [1.0014334, 0.14454456, 0.13456653, 0.20056656, 0.19656652, 0.16754456, 0.096544564, 0.08298901]
38 [0.05698901, 0.088989004, 0.07901098, 0.14501101, 0.14101097, 0.11198901, 0.040989004, 0.08298901]
39 [0.05698901, 0.088989004, 0.07901098, 0.14501101, 0.14101097, 0.11198901, 0.040989004, 0.08298901]
40 [0.05698901, 0.088989004, 0.07901098, 0.14501101, 0.14101097, 0.11198901, 0.040989004, 0.08298901]
41 [0.094761446, 1.0580094, 0.09116965, 0.14514838, 0.12214837, 0.10785165, 0.91685164, 0.08185165]
42 [1.6734169, 0.14587855, 0.14463237, 0.18060438, 0.09885714, 0.14031868, 0.041857153, 0.077857144]
43 [0.14367904, 1.0295769, 0.10615847, 0.14214285, 0.09885714, 0.10185714, 0.9168571, 0.077857144]
44 [1.3817487, 0.16723233, 0.16930088, 0.20728207, 0.16605128, 0.15805128, 0.042384624, 1.009718]
45 [1.3427057, 0.8457338, 0.17534256, 0.16932783, 0.12933883, 0.06332784, 0.7900055, 1.1966721]
46 [0.12727019, 0.0697372, 0.1420035, 0.1359945, 0.09600549, 0.029994505, 0.0400055, 0.23000549]
47 [0.2533421, 0.98201233, 1.084903, 0.11540659, 1.0340378, 0.027406603, 0.9085934, 1.1760378]
48 [0.03399364, 0.08011966, 0.14037399, 0.11540659, 0.0895934, 0.027406603, 0.03359341, 0.2315934]
49 [0.048655227, 0.8903852, 0.14038023, 0.11540659, 0.0895934, 0.4024066, 0.40859342, 0.2315934]
