0 -1
1 -1
2 -1
3 194389
4 384699
5 194389
6 343874
7 194389
8 312621
9 194389
10 96884
11 96889
12 18764
13 93759
14 18759
15 234472
16 171974
17 310639
18 188102
19 306879
20 388910
21 234470
22 115639
23 362598
24 263774
25 331274
26 334484
27 280125
28 350105
29 280001
30 369061
31 280128
32 368817
33 387524
34 280134
35 280009
36 312500
37 387524
38 -1
39 368848
40 350124
41 312624
42 202634
43 202634
44 331899
45 296383
46 355063
47 355063
48 285019
49 253759
50 134014
51 253754
52 40384
53 347501
54 40505
55 40505
56 24875
57 379253
58 86782
59 140753
60 324333
61 65004
62 317983
63 317984
64 153129
65 313301
66 75003
67 231254
68 153145
69 312530
70 365625
71 368765
72 312505
73 228356
74 250970
75 231281
76 297495
77 328287
78 312506
79 312500
80 312500
81 209844
82 312505
83 359375
84 328280
85 328280
86 78045
87 359817
88 344035
89 299905
90 299972
91 297495
92 318748
93 62500
94 313100
95 315493
96 375600
97 327650
98 -1
99 351525
100 312500
101 93103
102 390125
103 89978
104 388625
105 89953
106 325000
107 325000
108 312500
109 16424
110 312500
111 171202
112 375000
113 375000
114 62500
115 312525
116 75000
117 312500
118 312500
119 75000
120 312500
121 315566
122 312500
123 -1
124 313692
125 313692
126 313692
127 313692
128 312500
129 312500
130 313692
131 156520
132 312500
133 312786
134 312500
135 314780
136 312500
137 328030
138 93670
139 313255
140 15560
141 312500
142 15487
143 75000
144 62500
145 92482
146 92477
147 92477
148 389254
149 92482
150 375500
151 375000
152 -1
153 375500
154 93617
155 93496
156 75100
157 2500
158 75100
159 2500
160 20
161 2500
162 2500
163 520
164 3120
165 2500
166 3100
167 2500
168 2500
169 3100
170 15000
171 234350
172 309879
173 15000
174 15000
175 15000
176 500
177 15000
178 600
179 600
180 15000
181 -1
182 15000
183 15000
184 312604
185 15000
186 312504
187 4
188 165562
189 15000
190 93471
191 15620
192 15000
193 33612
194 15000
195 475
196 15496
197 15000
198 62498
199 15000
200 296875
201 2500
202 62500
203 75020
204 3000
205 12504
206 3000
207 500
208 2500
209 600
210 500
211 600
212 -1
213 20
214 312620
215 62520
216 135024
217 120
218 20
219 120
220 18846
221 20
222 115
223 20
224 120
225 120
226 120
227 296895
228 375020
229 45
230 375000
231 95
232 95
233 95
234 312500
235 78249
236 62595
237 62620
238 31320
239 31320
240 3124
241 -1
242 62620
243 15554
244 62560
245 62560
246 375500
247 62620
248 15624
249 78124
250 15720
251 78149
252 46995
253 368774
254 15735
255 156860
256 62560
257 237415
258 62545
259 62504
260 315500
261 312500
262 78075
263 381882
264 312500
265 4
266 65000
267 4
268 312524
269 312674
270 75024
271 312599
272 68752
273 62504
274 234498
275 171879
276 297499
277 348
278 78129
279 373
