0 [0.0, 0.0, 0.0, 0.0, 0.0, 0.0, 0.0, 0.0]
1 [0.0, 0.0, 0.0, 0.0, 0.0, 0.0, 0.0, 0.0]
2 [0.0, 0.0, 0.0, 0.0, 0.0, 0.0, 0.0, 0.0]
3 [0.0, 0.0, 0.0, 0.0, 0.0, 0.0, 0.0, 0.0]
4 [0.0, 0.0, 0.0, 0.0, 0.0, 0.0, 0.0, 0.0]
5 [0.0, 0.0, 0.0, 0.0, 0.0, 0.0, 0.0, 0.0]
6 [0.0, 0.0, 0.0, 0.0, 0.0, 0.0, 0.0, 0.0]
7 [0.0, 0.0, 0.0, 0.0, 0.0, 0.0, 0.0, 0.0]
8 [0.0, 0.0, 0.0, 0.0, 0.0, 0.0, 0.0, 0.0]
9 [0.0, 0.0, 0.0, 0.0, 0.0, 0.0, 0.0, 0.0]
10 [0.0, 0.0, 0.0, 0.0, 0.0, 0.0, 0.0, 0.0]
11 [0.20090659, 0.09590659, 0.019906593, 0.030093407, 0.0630934, 0.109093405, 0.1140934, 0.096906595]
12 [0.20090659, 0.09590659, 0.019906593, 0.030093407, 0.0630934, 0.109093405, 0.1140934, 0.096906595]
13 [1.0588956, 0.9538956, 0.39675274, 0.025247257, 0.05624725, 0.099247254, 0.53881866, 1.6292472]
14 [1.0711484, 0.96314836, 0.8911483, 0.027851654, 0.055851653, 0.09385164, 0.48585165, 0.58914834]
15 [1.0785043, 0.96750426, 0.8995043, 0.029384626, 0.05338463, 0.08638462, 0.44271797, 0.38471794]
16 [0.18961538, 0.57861537, 0.5106154, 0.029384626, 0.05338463, 0.08638462, 0.10938462, 0.5513846]
17 [0.18961538, 0.07861539, 0.010615383, 0.029384626, 0.05338463, 0.08638462, 0.10938462, 0.051384605]
18 [0.18178572, 0.17178571, 0.062785715, 0.031214278, 0.05221428, 0.08021428, 0.108214274, 0.08821429]
19 [1.1556374, 1.0376264, 1.0366373, 0.038373623, 0.053373635, 0.073373616, 0.09937364, 0.48037362]
20 [0.16662638, 1.0376264, 0.9226264, 0.038373623, 0.053373635, 0.073373616, 0.09937364, 0.10537363]
21 [0.9931135, 0.99011356, 0.8731135, 0.041219782, 0.054219767, 0.07021978, 0.09121978, 0.9762198]
22 [1.0302088, 1.0282087, 0.91020876, 0.04279121, 0.0537912, 0.066791214, 0.08479122, 0.9717912]
23 [0.1552088, 0.5282088, 0.91020876, 0.04279121, 0.0537912, 0.066791214, 0.08479122, 0.4717912]
24 [1.1061883, 0.14964285, 1.0861883, 0.04335715, 0.05235714, 0.06335715, 0.07735714, 0.63681173]
25 [0.15164286, 0.6496428, 0.6316429, 0.04335715, 0.05235714, 0.06335715, 0.07735714, 0.5913572]
26 [0.1485055, 0.14750549, 0.1315055, 0.044494513, 0.053494506, 0.063494496, 0.07649451, 0.0894945]
27 [0.61554027, 0.6135403, 1.1086514, 0.045126382, 0.053126376, 0.06212637, 0.07512638, 1.0659041]
28 [0.15567033, 1.0860037, 0.102337, 0.10699636, 0.98266304, 0.994663, 0.14299634, 0.15699635]
29 [0.15567033, 0.9026703, 0.78567034, 0.040329684, 0.049329672, 0.061329663, 0.07632967, 0.090329684]
30 [0.24681318, 1.1244285, 0.42789012, 0.99264836, 0.045109887, 0.062109895, 0.0851099, 0.97110987]
31 [0.1698901, 0.1628901, 0.052890114, 0.031109901, 0.045109887, 0.062109895, 0.0851099, 0.09610989]
32 [0.19228572, 0.08228571, 0.016285725, 0.01771429, 0.038714293, 0.06571429, 0.09671429, 0.77271426]
33 [0.19228572, 0.08228571, 0.016285725, 0.01771429, 0.038714293, 0.06571429, 0.09671429, 0.77271426]
34 [0.3108022, 0.4724176, 0.985956, 0.015582417, 0.042582415, 0.07758243, 0.21596703, 0.91458243]
35 [0.17899635, 1.0729963, 0.99799633, 0.01667032, 0.04967034, 0.09567034, 0.172337, 0.9723297]
36 [0.14566301, 1.089663, 0.03132968, 0.01667032, 0.04967034, 0.09567034, 0.13900366, 0.8473297]
37 [0.120115384, 0.054115385, 0.030115396, 0.025884623, 0.065884605, 0.11288461, 0.09888463, 0.10011539]
38 [0.21834317, 1.0109795, 0.028434057, 0.03556593, 0.08456593, 0.20947501, 0.15447502, 1.0509795]
39 [0.12743407, 0.056434065, 0.028434057, 0.03556593, 0.08456593, 0.118565924, 0.063565925, 0.096434064]
40 [0.13321428, 0.060214285, 0.030214278, 0.043785725, 0.10178571, 0.12078572, 0.06878572, 0.09421429]
41 [1.0208242, 0.99082416, 0.030252742, 0.05274725, 0.12074725, 0.2606044, 0.2281099, 1.0198241]
42 [0.092252746, 0.06225275, 0.030252742, 0.05274725, 0.12074725, 0.11774726, 0.08525275, 0.091252744]
43 [0.093549445, 0.06254945, 0.02854945, 0.064450555, 0.12045055, 0.103450544, 0.08854945, 0.08854945]
44 [1.0162528, 0.06017583, 0.023175826, 0.077824175, 0.19974726, 0.15274724, 0.16209891, 1.1732528]
45 [0.09317582, 0.06017583, 0.023175826, 0.077824175, 0.12282418, 0.07582417, 0.08517583, 0.25017583]
46 [0.09610439, 0.0621044, 0.023104401, 0.086895615, 0.11989561, 0.0768956, 0.0851044, 0.040104385]
47 [0.99704945, 0.062049456, 0.02995054, 0.10295054, 0.21895055, 0.17395055, 0.18404946, 0.9410494]
48 [0.097049445, 0.062049456, 0.02995054, 0.10295054, 0.11895055, 0.073950544, 0.08404945, 0.04104944]
49 [1.0202748, 0.060197797, 0.0398022, 0.114802204, 0.18772528, 0.15312088, 1.0042747, 0.9642747]
