0 [10.0, 10.0, 10.0, 10.0, 10.0, 10.0, 10.0, 10.0, 10.0, 10.0, 10.0, 10.0, 10.0, 10.0, 10.0, 10.0, 10.0, 10.0, 10.0, 10.0, 10.0, 10.0, 10.0, 10.0, 10.0, 10.0, 10.0, 10.0, 10.0, 10.0, 10.0, 10.0, 10.0, 10.0, 10.0, 10.0, 10.0, 10.0, 10.0, 10.0, 10.0, 10.0, 10.0, 10.0, 10.0, 10.0, 10.0, 10.0, 10.0, 10.0, 10.0, 10.0, 10.0, 10.0, 10.0, 10.0, 10.0, 10.0, 10.0, 10.0, 10.0, 10.0, 10.0, 10.0, 10.0, 10.0, 10.0, 10.0, 10.0, 10.0, 10.0, 10.0, 10.0, 10.0, 10.0, 10.0, 10.0, 10.0, 10.0, 10.0, 10.0, 10.0, 10.0, 10.0, 10.0, 10.0, 10.0, 10.0, 10.0, 10.0, 10.0, 10.0, 10.0, 10.0, 10.0, 10.0, 10.0, 10.0, 10.0, 10.0, 10.0, 10.0, 10.0, 10.0, 10.0, 10.0, 10.0, 10.0, 10.0, 10.0, 10.0, 10.0, 10.0, 10.0, 10.0, 10.0, 10.0, 10.0, 10.0, 10.0, 10.0, 10.0, 10.0, 10.0, 10.0, 10.0, 10.0, 10.0, 10.0, 10.0, 10.0, 10.0, 10.0, 10.0, 10.0, 10.0, 10.0, 10.0, 10.0, 10.0, 10.0, 10.0, 10.0, 10.0, 10.0, 10.0, 10.0, 10.0, 10.0, 10.0, 10.0, 10.0, 10.0, 10.0, 10.0, 10.0, 10.0, 10.0, 10.0, 10.0, 10.0, 10.0, 10.0, 10.0, 10.0, 10.0, 10.0, 10.0, 10.0, 10.0, 10.0, 10.0, 10.0, 10.0, 10.0, 10.0, 10.0, 10.0, 10.0, 10.0, 10.0, 10.0]
1 [10.0, 10.0, 10.0, 10.0, 10.0, 10.0, 10.0, 10.0, 10.0, 10.0, 10.0, 10.0, 10.0, 10.0, 10.0, 10.0, 10.0, 10.0, 10.0, 10.0, 10.0, 10.0, 10.0, 10.0, 10.0, 10.0, 10.0, 10.0, 10.0, 10.0, 10.0, 10.0, 10.0, 10.0, 10.0, 10.0, 10.0, 10.0, 10.0, 10.0, 10.0, 10.0, 10.0, 10.0, 10.0, 10.0, 10.0, 10.0, 10.0, 10.0, 10.0, 10.0, 10.0, 10.0, 10.0, 10.0, 10.0, 10.0, 10.0, 10.0, 10.0, 10.0, 10.0, 10.0, 10.0, 10.0, 10.0, 10.0, 10.0, 10.0, 10.0, 10.0, 10.0, 10.0, 10.0, 10.0, 10.0, 10.0, 10.0, 10.0, 10.0, 10.0, 10.0, 10.0, 10.0, 10.0, 10.0, 10.0, 10.0, 10.0, 10.0, 10.0, 10.0, 10.0, 10.0, 10.0, 10.0, 10.0, 10.0, 10.0, 10.0, 10.0, 10.0, 10.0, 10.0, 10.0, 10.0, 10.0, 10.0, 10.0, 10.0, 10.0, 10.0, 10.0, 10.0, 10.0, 10.0, 10.0, 10.0, 10.0, 10.0, 10.0, 10.0, 10.0, 10.0, 10.0, 10.0, 10.0, 10.0, 10.0, 10.0, 10.0, 10.0, 10.0, 10.0, 10.0, 10.0, 10.0, 10.0, 10.0, 10.0, 10.0, 10.0, 10.0, 10.0, 10.0, 10.0, 10.0, 10.0, 10.0, 10.0, 10.0, 10.0, 10.0, 10.0, 10.0, 10.0, 10.0, 10.0, 10.0, 10.0, 10.0, 10.0, 10.0, 10.0, 10.0, 10.0, 10.0, 10.0, 10.0, 10.0, 10.0, 10.0, 10.0, 10.0, 10.0, 10.0, 10.0, 10.0, 10.0, 10.0, 10.0]
2 [10.0, 10.0, 10.0, 10.0, 10.0, 10.0, 10.0, 10.0, 10.0, 10.0, 10.0, 10.0, 10.0, 10.0, 10.0, 10.0, 10.0, 10.0, 10.0, 10.0, 10.0, 10.0, 10.0, 10.0, 10.0, 10.0, 10.0, 10.0, 10.0, 10.0, 10.0, 10.0, 10.0, 10.0, 10.0, 10.0, 10.0, 10.0, 10.0, 10.0, 10.0, 10.0, 10.0, 10.0, 10.0, 10.0, 10.0, 10.0, 10.0, 10.0, 10.0, 10.0, 10.0, 10.0, 10.0, 10.0, 10.0, 10.0, 10.0, 10.0, 10.0, 10.0, 10.0, 10.0, 10.0, 10.0, 10.0, 10.0, 10.0, 10.0, 10.0, 10.0, 10.0, 10.0, 10.0, 10.0, 10.0, 10.0, 10.0, 10.0, 10.0, 10.0, 10.0, 10.0, 10.0, 10.0, 10.0, 10.0, 10.0, 10.0, 10.0, 10.0, 10.0, 10.0, 10.0, 10.0, 10.0, 10.0, 10.0, 10.0, 10.0, 10.0, 10.0, 10.0, 10.0, 10.0, 10.0, 10.0, 10.0, 10.0, 10.0, 10.0, 10.0, 10.0, 10.0, 10.0, 10.0, 10.0, 10.0, 10.0, 10.0, 10.0, 10.0, 10.0, 10.0, 10.0, 10.0, 10.0, 10.0, 10.0, 10.0, 10.0, 10.0, 10.0, 10.0, 10.0, 10.0, 10.0, 10.0, 10.0, 10.0, 10.0, 10.0, 10.0, 10.0, 10.0, 10.0, 10.0, 10.0, 10.0, 10.0, 10.0, 10.0, 10.0, 10.0, 10.0, 10.0, 10.0, 10.0, 10.0, 10.0, 10.0, 10.0, 10.0, 10.0, 10.0, 10.0, 10.0, 10.0, 10.0, 10.0, 10.0, 10.0, 10.0, 10.0, 10.0, 10.0, 10.0, 10.0, 10.0, 10.0, 10.0]
3 [10.0, 10.0, 10.0, 10.0, 10.0, 10.0, 10.0, 10.0, 10.0, 10.0, 10.0, 10.0, 10.0, 10.0, 10.0, 10.0, 10.0, 10.0, 10.0, 10.0, 10.0, 10.0, 10.0, 10.0, 10.0, 10.0, 10.0, 10.0, 10.0, 10.0, 10.0, 10.0, 10.0, 10.0, 10.0, 10.0, 10.0, 10.0, 10.0, 10.0, 10.0, 10.0, 10.0, 10.0, 10.0, 10.0, 10.0, 10.0, 10.0, 10.0, 10.0, 10.0, 10.0, 10.0, 10.0, 10.0, 10.0, 10.0, 10.0, 10.0, 10.0, 10.0, 10.0, 10.0, 10.0, 10.0, 10.0, 10.0, 10.0, 10.0, 10.0, 10.0, 10.0, 10.0, 10.0, 10.0, 10.0, 10.0, 10.0, 10.0, 10.0, 10.0, 10.0, 10.0, 10.0, 10.0, 10.0, 10.0, 10.0, 10.0, 10.0, 10.0, 10.0, 10.0, 10.0, 10.0, 10.0, 10.0, 10.0, 10.0, 10.0, 10.0, 10.0, 10.0, 10.0, 10.0, 10.0, 10.0, 10.0, 10.0, 10.0, 10.0, 10.0, 10.0, 10.0, 10.0, 10.0, 10.0, 10.0, 10.0, 10.0, 10.0, 10.0, 10.0, 10.0, 10.0, 10.0, 10.0, 10.0, 10.0, 10.0, 10.0, 10.0, 10.0, 10.0, 10.0, 10.0, 10.0, 10.0, 10.0, 10.0, 10.0, 10.0, 10.0, 10.0, 10.0, 10.0, 10.0, 10.0, 10.0, 10.0, 10.0, 10.0, 10.0, 10.0, 10.0, 10.0, 10.0, 10.0, 10.0, 10.0, 10.0, 10.0, 10.0, 10.0, 10.0, 10.0, 10.0, 10.0, 10.0, 10.0, 10.0, 10.0, 10.0, 10.0, 10.0, 10.0, 10.0, 10.0, 10.0, 10.0, 10.0]
4 [10.0, 10.0, 10.0, 10.0, 10.0, 10.0, 10.0, 10.0, 10.0, 10.0, 10.0, 10.0, 10.0, 10.0, 10.0, 10.0, 10.0, 10.0, 10.0, 10.0, 10.0, 10.0, 10.0, 10.0, 10.0, 10.0, 10.0, 10.0, 10.0, 10.0, 10.0, 10.0, 10.0, 10.0, 10.0, 10.0, 10.0, 10.0, 10.0, 10.0, 10.0, 10.0, 10.0, 10.0, 10.0, 10.0, 10.0, 10.0, 10.0, 10.0, 10.0, 10.0, 10.0, 10.0, 10.0, 10.0, 10.0, 10.0, 10.0, 10.0, 10.0, 10.0, 10.0, 10.0, 10.0, 10.0, 10.0, 10.0, 10.0, 10.0, 10.0, 10.0, 10.0, 10.0, 10.0, 10.0, 10.0, 10.0, 10.0, 10.0, 10.0, 10.0, 10.0, 10.0, 10.0, 10.0, 10.0, 10.0, 10.0, 10.0, 10.0, 10.0, 10.0, 10.0, 10.0, 10.0, 10.0, 10.0, 10.0, 10.0, 10.0, 10.0, 10.0, 10.0, 10.0, 10.0, 10.0, 10.0, 10.0, 10.0, 10.0, 10.0, 10.0, 10.0, 10.0, 10.0, 10.0, 10.0, 10.0, 10.0, 10.0, 10.0, 10.0, 10.0, 10.0, 10.0, 10.0, 10.0, 10.0, 10.0, 10.0, 10.0, 10.0, 10.0, 10.0, 10.0, 10.0, 10.0, 10.0, 10.0, 10.0, 10.0, 10.0, 10.0, 10.0, 10.0, 10.0, 10.0, 10.0, 10.0, 10.0, 10.0, 10.0, 10.0, 10.0, 10.0, 10.0, 10.0, 10.0, 10.0, 10.0, 10.0, 10.0, 10.0, 10.0, 10.0, 10.0, 10.0, 10.0, 10.0, 10.0, 10.0, 10.0, 10.0, 10.0, 10.0, 10.0, 10.0, 10.0, 10.0, 10.0, 10.0]
5 [10.0, 10.0, 10.0, 10.0, 10.0, 10.0, 10.0, 10.0, 10.0, 10.0, 10.0, 10.0, 10.0, 10.0, 10.0, 10.0, 10.0, 10.0, 10.0, 10.0, 10.0, 10.0, 10.0, 10.0, 10.0, 10.0, 10.0, 10.0, 10.0, 10.0, 10.0, 10.0, 10.0, 10.0, 10.0, 10.0, 10.0, 10.0, 10.0, 10.0, 10.0, 10.0, 10.0, 10.0, 10.0, 10.0, 10.0, 10.0, 10.0, 10.0, 10.0, 10.0, 10.0, 10.0, 10.0, 10.0, 10.0, 10.0, 10.0, 10.0, 10.0, 10.0, 10.0, 10.0, 10.0, 10.0, 10.0, 10.0, 10.0, 10.0, 10.0, 10.0, 10.0, 10.0, 10.0, 10.0, 10.0, 10.0, 10.0, 10.0, 10.0, 10.0, 10.0, 10.0, 10.0, 10.0, 10.0, 10.0, 10.0, 10.0, 10.0, 10.0, 10.0, 10.0, 10.0, 10.0, 10.0, 10.0, 10.0, 10.0, 10.0, 10.0, 10.0, 10.0, 10.0, 10.0, 10.0, 10.0, 10.0, 10.0, 10.0, 10.0, 10.0, 10.0, 10.0, 10.0, 10.0, 10.0, 10.0, 10.0, 10.0, 10.0, 10.0, 10.0, 10.0, 10.0, 10.0, 10.0, 10.0, 10.0, 10.0, 10.0, 10.0, 10.0, 10.0, 10.0, 10.0, 10.0, 10.0, 10.0, 10.0, 10.0, 10.0, 10.0, 10.0, 10.0, 10.0, 10.0, 10.0, 10.0, 10.0, 10.0, 10.0, 10.0, 10.0, 10.0, 10.0, 10.0, 10.0, 10.0, 10.0, 10.0, 10.0, 10.0, 10.0, 10.0, 10.0, 10.0, 10.0, 10.0, 10.0, 10.0, 10.0, 10.0, 10.0, 10.0, 10.0, 10.0, 10.0, 10.0, 10.0, 10.0]
6 [0.44, 0.44, 0.44, 0.44, 0.46, 0.48, 0.5, 0.52, 0.55, 0.57, 0.6, 1.91, 1.92, 1.93, 1.94, 1.95, 1.96, 1.97, 1.98, 1.99, 1.47, 1.48, 1.49, 1.49, 1.5, 1.51, 1.52, 1.52, 1.53, 1.54, 1.55, 1.55, 1.56, 2.13, 2.14, 2.15, 2.16, 2.17, 2.18, 2.19, 2.2, 2.21, 2.22, 2.23, 2.24, 2.25, 2.26, 2.27, 2.28, 2.29, 2.3, 2.31, 2.32, 2.33, 2.34, 2.35, 2.36, 2.37, 2.38, 2.39, 2.4, 2.41, 2.42, 2.43, 2.45, 2.46, 2.47, 2.48, 2.49, 2.5, 2.51, 2.52, 2.53, 2.54, 2.55, 2.57, 2.58, 2.59, 2.6, 2.61, 2.62, 2.64, 2.65, 2.66, 2.67, 2.68, 2.7, 2.71, 2.72, 2.73, 2.75, 2.76, 2.77, 2.78, 2.8, 2.81, 2.82, 2.84, 2.85, 2.86, 2.88, 2.89, 2.91, 2.92, 2.94, 2.95, 2.97, 2.98, 3.0, 3.01, 3.03, 3.04, 3.06, 3.08, 3.09, 3.11, 3.13, 3.15, 3.16, 3.18, 3.2, 3.22, 3.24, 3.26, 3.28, 3.3, 3.32, 3.34, 3.36, 3.38, 3.4, 3.42, 3.44, 3.47, 3.49, 3.52, 3.54, 3.56, 3.59, 3.59, 3.55, 3.52, 3.48, 3.44, 3.41, 2.64, 2.61, 2.59, 2.56, 2.53, 2.51, 2.49, 2.51, 2.54, 2.56, 3.04, 3.0, 2.97, 2.94, 2.91, 2.88, 2.85, 2.82, 2.79, 2.76, 2.73, 2.7, 2.67, 2.65, 2.62, 2.59, 2.56, 2.53, 2.51, 2.48, 1.59, 1.57, 1.55, 1.53, 1.52, 1.5, 1.48]
7 [0.44, 0.44, 0.44, 0.45, 0.45, 0.45, 0.46, 0.48, 0.5, 0.52, 0.54, 0.56, 0.59, 0.62, 1.95, 1.96, 1.96, 1.97, 1.98, 1.99, 2.0, 2.01, 1.49, 1.5, 1.51, 1.51, 1.52, 1.53, 1.53, 1.54, 1.55, 1.56, 1.56, 1.57, 1.58, 2.15, 2.16, 2.17, 2.18, 2.19, 2.2, 2.21, 2.22, 2.23, 2.24, 2.24, 2.25, 2.26, 2.27, 2.28, 2.29, 2.3, 2.31, 2.32, 2.33, 2.34, 2.35, 2.36, 2.37, 2.38, 2.39, 2.4, 2.41, 2.42, 2.43, 2.44, 2.45, 2.46, 2.47, 2.48, 2.49, 2.5, 2.51, 2.52, 2.53, 2.55, 2.56, 2.57, 2.58, 2.59, 2.6, 2.61, 2.62, 2.63, 2.64, 2.66, 2.67, 2.68, 2.69, 2.7, 2.71, 2.73, 2.74, 2.75, 2.76, 2.77, 2.79, 2.8, 2.81, 2.83, 2.84, 2.85, 2.86, 2.88, 2.89, 2.91, 2.92, 2.93, 2.95, 2.96, 2.98, 2.99, 3.01, 3.02, 3.04, 3.05, 3.07, 3.09, 3.1, 3.12, 3.13, 3.15, 3.17, 3.19, 3.2, 3.22, 3.24, 3.26, 3.28, 3.3, 3.32, 3.34, 3.36, 3.38, 3.4, 3.42, 3.45, 3.47, 3.49, 3.52, 3.54, 3.56, 3.54, 3.5, 3.46, 3.43, 3.39, 2.63, 2.6, 2.57, 2.54, 2.52, 2.49, 2.46, 2.46, 2.49, 2.51, 2.53, 2.98, 2.95, 2.92, 2.88, 2.85, 2.82, 2.79, 2.76, 2.73, 2.7, 2.67, 2.64, 2.62, 2.59, 2.56, 2.53, 2.5, 2.47, 2.45, 1.56, 1.55, 1.53, 10.0, 0.0]
8 [0.44, 0.45, 0.45, 0.45, 0.45, 0.46, 0.46, 0.46, 0.46, 0.47, 0.48, 0.5, 0.52, 0.54, 0.56, 0.59, 0.62, 1.99, 2.0, 2.0, 2.01, 2.02, 2.03, 2.04, 2.05, 2.06, 1.52, 1.53, 1.54, 1.54, 1.55, 1.56, 1.57, 1.57, 1.58, 1.59, 1.59, 1.6, 1.61, 2.19, 2.2, 2.21, 2.21, 2.22, 2.23, 2.24, 2.25, 2.26, 2.27, 2.28, 2.29, 2.3, 2.3, 2.31, 2.32, 2.33, 2.34, 2.35, 2.36, 2.37, 2.38, 2.39, 2.4, 2.41, 2.42, 2.43, 2.43, 2.44, 2.45, 2.46, 2.47, 2.48, 2.49, 2.5, 2.51, 2.52, 2.53, 2.54, 2.55, 2.56, 2.57, 2.58, 2.59, 2.6, 2.61, 2.62, 2.63, 2.64, 2.66, 2.67, 2.68, 2.69, 2.7, 2.71, 2.72, 2.73, 2.74, 2.76, 2.77, 2.78, 2.79, 2.8, 2.82, 2.83, 2.84, 2.85, 2.87, 2.88, 2.89, 2.9, 2.92, 2.93, 2.94, 2.96, 2.97, 2.99, 3.0, 3.01, 3.03, 3.04, 3.06, 3.07, 3.09, 3.11, 3.12, 3.14, 3.16, 3.17, 3.19, 3.21, 3.22, 3.24, 3.26, 3.28, 3.3, 3.32, 3.34, 3.36, 3.38, 3.4, 3.42, 3.44, 3.46, 3.49, 3.51, 3.5, 3.46, 3.43, 3.39, 3.35, 3.31, 2.57, 2.54, 2.51, 2.48, 2.46, 2.43, 2.42, 2.44, 2.46, 2.48, 2.93, 2.9, 2.87, 2.84, 2.8, 2.77, 2.74, 2.71, 2.68, 2.65, 2.62, 2.59, 2.56, 2.53, 2.5, 2.47, 2.45, 2.42, 2.39, 2.36, 1.51]
9 [0.45, 0.45, 0.45, 0.46, 0.46, 0.46, 0.46, 0.47, 0.47, 0.47, 0.47, 0.47, 0.48, 0.48, 0.49, 0.51, 0.53, 0.55, 0.57, 0.6, 0.63, 0.66, 2.05, 2.05, 2.06, 2.07, 2.08, 2.09, 2.1, 2.11, 1.56, 1.56, 1.57, 1.58, 1.58, 1.59, 1.59, 1.6, 1.61, 1.61, 1.62, 1.63, 1.63, 2.22, 2.23, 2.24, 2.25, 2.26, 2.26, 2.27, 2.28, 2.29, 2.3, 2.31, 2.31, 2.32, 2.33, 2.34, 2.35, 2.36, 2.37, 2.37, 2.38, 2.39, 2.4, 2.41, 2.42, 2.43, 2.43, 2.44, 2.45, 2.46, 2.47, 2.48, 2.49, 2.5, 2.5, 2.51, 2.52, 2.53, 2.54, 2.55, 2.56, 2.57, 2.58, 2.59, 2.6, 2.61, 2.62, 2.63, 2.64, 2.65, 2.66, 2.67, 2.68, 2.69, 2.7, 2.71, 2.72, 2.73, 2.74, 2.75, 2.76, 2.77, 2.78, 2.79, 2.8, 2.81, 2.83, 2.84, 2.85, 2.86, 2.87, 2.88, 2.9, 2.91, 2.92, 2.93, 2.95, 2.96, 2.97, 2.99, 3.0, 3.01, 3.03, 3.04, 3.06, 3.07, 3.09, 3.1, 3.12, 3.13, 3.15, 3.16, 3.18, 3.2, 3.21, 3.23, 3.25, 3.27, 3.28, 3.3, 3.32, 3.34, 3.36, 3.38, 3.4, 3.42, 3.44, 3.44, 3.4, 3.36, 3.32, 3.29, 3.25, 2.52, 2.49, 2.46, 2.43, 2.4, 2.38, 2.36, 2.38, 2.4, 2.42, 2.86, 2.83, 2.8, 2.76, 2.73, 2.7, 2.67, 2.64, 2.61, 2.57, 2.54, 2.51, 2.48, 2.45, 2.43, 2.4, 2.37]
10 [0.46, 0.46, 0.46, 0.46, 0.47, 0.47, 0.47, 0.47, 0.47, 0.48, 0.48, 0.48, 0.48, 0.48, 0.49, 0.49, 0.49, 0.49, 0.49, 0.5, 0.51, 0.54, 0.56, 0.58, 0.61, 0.64, 0.67, 2.1, 2.11, 2.12, 2.13, 2.14, 2.14, 2.15, 2.16, 1.6, 1.6, 1.61, 1.61, 1.62, 1.62, 1.63, 1.63, 1.64, 1.65, 1.65, 1.66, 1.66, 2.26, 2.27, 2.28, 2.29, 2.29, 2.3, 2.31, 2.32, 2.32, 2.33, 2.34, 2.35, 2.35, 2.36, 2.37, 2.38, 2.38, 2.39, 2.4, 2.41, 2.41, 2.42, 2.43, 2.44, 2.45, 2.45, 2.46, 2.47, 2.48, 2.48, 2.49, 2.5, 2.51, 2.52, 2.52, 2.53, 2.54, 2.55, 2.56, 2.57, 2.57, 2.58, 2.59, 2.6, 2.61, 2.62, 2.62, 2.63, 2.64, 2.65, 2.66, 2.67, 2.68, 2.69, 2.7, 2.71, 2.72, 2.72, 2.73, 2.74, 2.75, 2.76, 2.77, 2.78, 2.79, 2.8, 2.81, 2.82, 2.84, 2.85, 2.86, 2.87, 2.88, 2.89, 2.9, 2.91, 2.92, 2.94, 2.95, 2.96, 2.97, 2.99, 3.0, 3.01, 3.02, 3.04, 3.05, 3.06, 3.08, 3.09, 3.11, 3.12, 3.14, 3.15, 3.17, 3.18, 3.2, 3.22, 3.23, 3.25, 3.27, 3.28, 3.3, 3.32, 3.34, 3.36, 3.36, 3.32, 3.28, 3.24, 3.2, 3.16, 2.45, 2.42, 2.39, 2.36, 2.33, 2.3, 2.28, 2.3, 2.32, 2.33, 2.77, 2.73, 2.7, 2.67, 2.63, 2.6, 2.57, 2.54, 2.51, 2.47, 2.44, 2.41]
11 [0.47, 0.48, 0.48, 0.48, 0.48, 0.48, 0.48, 0.49, 0.49, 0.49, 0.49, 0.49, 0.49, 0.5, 0.5, 0.5, 0.5, 0.5, 0.5, 0.51, 0.51, 0.51, 0.51, 0.51, 0.51, 0.52, 0.52, 0.52, 0.52, 0.53, 0.55, 0.57, 0.59, 0.62, 0.65, 0.68, 0.71, 2.2, 2.21, 2.22, 2.22, 2.23, 2.23, 2.24, 2.25, 1.66, 1.66, 1.67, 1.67, 1.68, 1.68, 1.68, 1.69, 1.69, 1.7, 1.7, 1.71, 1.87, 2.33, 2.33, 2.34, 2.35, 2.35, 2.36, 2.36, 2.37, 2.38, 2.38, 2.39, 2.39, 2.4, 2.4, 2.41, 2.42, 2.42, 2.43, 2.43, 2.44, 2.45, 2.45, 2.46, 2.46, 2.47, 2.48, 2.48, 2.49, 2.49, 2.5, 2.51, 2.51, 2.52, 2.53, 2.53, 2.54, 2.54, 2.55, 2.56, 2.56, 2.57, 2.58, 2.58, 2.59, 2.6, 2.6, 2.61, 2.62, 2.62, 2.63, 2.64, 2.65, 2.65, 2.66, 2.67, 2.67, 2.68, 2.69, 2.7, 2.7, 2.71, 2.72, 2.73, 2.74, 2.74, 2.75, 2.76, 2.77, 2.78, 2.78, 2.79, 2.8, 2.81, 2.82, 2.83, 2.84, 2.85, 2.86, 2.87, 2.87, 2.88, 2.89, 2.9, 2.91, 2.92, 2.94, 2.95, 2.96, 2.97, 2.98, 2.99, 3.0, 3.01, 3.03, 3.04, 3.05, 3.06, 3.08, 3.09, 3.1, 3.12, 3.13, 3.14, 3.16, 3.17, 3.19, 3.15, 3.11, 3.07, 3.03, 2.99, 2.32, 2.29, 2.26, 2.23, 2.2, 2.17, 2.14, 2.14, 2.15, 2.16, 2.18, 2.55, 2.52]
12 [0.48, 0.48, 0.48, 0.48, 0.49, 0.49, 0.49, 0.49, 0.49, 0.49, 0.49, 0.5, 0.5, 0.5, 0.5, 0.5, 0.5, 0.51, 0.51, 0.51, 0.51, 0.51, 0.51, 0.51, 0.52, 0.52, 0.52, 0.52, 0.52, 0.52, 0.52, 0.52, 0.53, 0.53, 0.55, 0.58, 0.6, 0.63, 0.65, 0.68, 0.71, 2.24, 2.24, 2.25, 2.25, 2.26, 2.26, 2.27, 2.27, 1.68, 1.68, 1.68, 1.69, 1.69, 1.7, 1.7, 1.7, 1.71, 1.71, 1.71, 1.72, 1.72, 2.35, 2.35, 2.36, 2.36, 2.37, 2.37, 2.38, 2.38, 2.39, 2.39, 2.4, 2.4, 2.41, 2.41, 2.42, 2.42, 2.43, 2.43, 2.44, 2.44, 2.45, 2.45, 2.46, 2.46, 2.47, 2.47, 2.48, 2.48, 2.49, 2.49, 2.5, 2.51, 2.51, 2.52, 2.52, 2.53, 2.53, 2.54, 2.54, 2.55, 2.56, 2.56, 2.57, 2.57, 2.58, 2.58, 2.59, 2.6, 2.6, 2.61, 2.61, 2.62, 2.63, 2.63, 2.64, 2.65, 2.65, 2.66, 2.66, 2.67, 2.68, 2.68, 2.69, 2.7, 2.71, 2.71, 2.72, 2.73, 2.73, 2.74, 2.75, 2.76, 2.76, 2.77, 2.78, 2.79, 2.79, 2.8, 2.81, 2.82, 2.83, 2.84, 2.84, 2.85, 2.86, 2.87, 2.88, 2.89, 2.9, 2.91, 2.92, 2.93, 2.94, 2.95, 2.96, 2.97, 2.98, 2.99, 3.0, 3.02, 3.03, 3.04, 3.05, 3.06, 3.08, 3.09, 3.07, 3.03, 2.99, 2.95, 2.91, 2.87, 2.22, 2.19, 2.16, 2.13, 2.1, 2.07, 2.05, 2.06]
13 [1.06, 1.09, 1.11, 0.49, 0.49, 0.49, 0.49, 0.49, 0.49, 0.49, 0.5, 0.5, 0.5, 0.5, 0.5, 0.5, 0.5, 0.51, 0.51, 0.51, 0.51, 0.51, 0.51, 0.51, 0.51, 0.52, 0.52, 0.52, 0.52, 0.52, 0.52, 0.52, 0.52, 0.52, 0.53, 0.53, 0.53, 0.56, 0.58, 0.6, 0.62, 0.65, 0.68, 0.71, 2.26, 2.26, 2.27, 2.27, 2.28, 2.28, 2.29, 2.29, 1.69, 1.69, 1.69, 1.7, 1.7, 1.7, 1.71, 1.71, 1.71, 1.72, 1.72, 1.72, 1.73, 2.35, 2.36, 2.36, 2.37, 2.37, 2.38, 2.38, 2.38, 2.39, 2.39, 2.4, 2.4, 2.41, 2.41, 2.42, 2.42, 2.42, 2.43, 2.43, 2.44, 2.44, 2.45, 2.45, 2.46, 2.46, 2.47, 2.47, 2.47, 2.48, 2.48, 2.49, 2.49, 2.5, 2.5, 2.51, 2.51, 2.52, 2.52, 2.53, 2.53, 2.54, 2.54, 2.55, 2.55, 2.56, 2.56, 2.57, 2.57, 2.58, 2.58, 2.59, 2.59, 2.6, 2.6, 2.61, 2.62, 2.62, 2.63, 2.63, 2.64, 2.64, 2.65, 2.66, 2.66, 2.67, 2.67, 2.68, 2.69, 2.69, 2.7, 2.7, 2.71, 2.72, 2.72, 2.73, 2.74, 2.75, 2.75, 2.76, 2.77, 2.77, 2.78, 2.79, 2.8, 2.8, 2.81, 2.82, 2.83, 2.84, 2.84, 2.85, 2.86, 2.87, 2.88, 2.89, 2.9, 2.91, 2.92, 2.93, 2.94, 2.95, 2.96, 2.97, 2.98, 2.99, 3.0, 3.01, 2.98, 2.93, 2.89, 2.85, 2.81, 2.17, 2.14, 2.11, 2.08, 2.05]
14 [1.02, 1.04, 1.06, 1.08, 1.11, 0.48, 0.48, 0.49, 0.49, 0.49, 0.49, 0.49, 0.49, 0.49, 0.49, 0.5, 0.5, 0.5, 0.5, 0.5, 0.5, 0.5, 0.5, 0.5, 0.5, 0.51, 0.51, 0.51, 0.51, 0.51, 0.51, 0.51, 0.51, 0.51, 0.51, 0.52, 0.52, 0.52, 0.52, 0.54, 0.56, 0.58, 0.6, 0.62, 0.65, 0.68, 0.71, 2.27, 2.27, 2.28, 2.28, 2.29, 2.29, 2.29, 2.3, 2.3, 1.69, 1.69, 1.69, 1.7, 1.7, 1.7, 1.71, 1.71, 1.71, 1.71, 1.72, 1.72, 1.72, 2.35, 2.36, 2.36, 2.36, 2.37, 2.37, 2.38, 2.38, 2.38, 2.39, 2.39, 2.39, 2.4, 2.4, 2.41, 2.41, 2.41, 2.42, 2.42, 2.42, 2.43, 2.43, 2.44, 2.44, 2.44, 2.45, 2.45, 2.46, 2.46, 2.46, 2.47, 2.47, 2.47, 2.48, 2.48, 2.49, 2.49, 2.5, 2.5, 2.5, 2.51, 2.51, 2.52, 2.52, 2.52, 2.53, 2.53, 2.54, 2.54, 2.55, 2.55, 2.56, 2.56, 2.56, 2.57, 2.57, 2.58, 2.58, 2.59, 2.59, 2.6, 2.6, 2.61, 2.61, 2.62, 2.62, 2.63, 2.63, 2.64, 2.64, 2.65, 2.65, 2.66, 2.67, 2.67, 2.68, 2.68, 2.69, 2.7, 2.7, 2.71, 2.71, 2.72, 2.73, 2.73, 2.74, 2.75, 2.75, 2.76, 2.77, 2.77, 2.78, 2.79, 2.8, 2.8, 2.81, 2.82, 2.83, 2.84, 2.85, 2.85, 2.86, 2.87, 2.88, 2.89, 2.9, 2.91, 2.88, 2.84, 2.8, 2.76, 2.71, 2.68]
15 [1.01, 1.02, 1.04, 1.07, 1.09, 0.48, 0.48, 0.48, 0.48, 0.48, 0.48, 0.48, 0.48, 0.48, 0.49, 0.49, 0.49, 0.49, 0.49, 0.49, 0.49, 0.49, 0.49, 0.49, 0.5, 0.5, 0.5, 0.5, 0.5, 0.5, 0.5, 0.5, 0.5, 0.5, 0.5, 0.51, 0.51, 0.51, 0.51, 0.52, 0.54, 0.56, 0.58, 0.6, 0.62, 0.65, 0.67, 0.7, 2.27, 2.27, 2.27, 2.28, 2.28, 2.28, 2.29, 2.29, 2.3, 1.68, 1.68, 1.69, 1.69, 1.69, 1.69, 1.7, 1.7, 1.7, 1.7, 1.71, 1.71, 1.71, 2.34, 2.35, 2.35, 2.35, 2.36, 2.36, 2.36, 2.37, 2.37, 2.37, 2.38, 2.38, 2.39, 2.39, 2.39, 2.4, 2.4, 2.4, 2.41, 2.41, 2.41, 2.42, 2.42, 2.42, 2.43, 2.43, 2.43, 2.44, 2.44, 2.45, 2.45, 2.45, 2.46, 2.46, 2.46, 2.47, 2.47, 2.48, 2.48, 2.48, 2.49, 2.49, 2.49, 2.5, 2.5, 2.51, 2.51, 2.51, 2.52, 2.52, 2.53, 2.53, 2.53, 2.54, 2.54, 2.55, 2.55, 2.56, 2.56, 2.57, 2.57, 2.57, 2.58, 2.58, 2.59, 2.59, 2.6, 2.6, 2.61, 2.61, 2.62, 2.62, 2.63, 2.63, 2.64, 2.64, 2.65, 2.65, 2.66, 2.67, 2.67, 2.68, 2.68, 2.69, 2.69, 2.7, 2.71, 2.71, 2.72, 2.73, 2.73, 2.74, 2.75, 2.75, 2.76, 2.77, 2.77, 2.78, 2.79, 2.8, 2.81, 2.81, 2.82, 2.83, 2.84, 2.85, 2.86, 2.86, 2.82, 2.78, 2.74, 2.7]
16 [1.0, 1.02, 1.04, 0.46, 0.46, 0.46, 0.46, 0.47, 0.47, 0.47, 0.47, 0.47, 0.47, 0.47, 0.47, 0.47, 0.47, 0.48, 0.48, 0.48, 0.48, 0.48, 0.48, 0.48, 0.48, 0.48, 0.48, 0.48, 0.49, 0.49, 0.49, 0.49, 0.49, 0.49, 0.49, 0.49, 0.49, 0.49, 0.5, 0.52, 0.54, 0.55, 0.57, 0.6, 0.62, 0.64, 0.67, 2.25, 2.25, 2.26, 2.26, 2.26, 2.27, 2.27, 2.27, 2.28, 2.28, 1.67, 1.67, 1.67, 1.67, 1.68, 1.68, 1.68, 1.68, 1.69, 1.69, 1.69, 1.69, 1.7, 2.33, 2.33, 2.34, 2.34, 2.34, 2.35, 2.35, 2.35, 2.36, 2.36, 2.36, 2.37, 2.37, 2.37, 2.38, 2.38, 2.38, 2.39, 2.39, 2.39, 2.4, 2.4, 2.4, 2.41, 2.41, 2.41, 2.42, 2.42, 2.42, 2.43, 2.43, 2.43, 2.44, 2.44, 2.44, 2.45, 2.45, 2.46, 2.46, 2.46, 2.47, 2.47, 2.47, 2.48, 2.48, 2.49, 2.49, 2.49, 2.5, 2.5, 2.5, 2.51, 2.51, 2.52, 2.52, 2.52, 2.53, 2.53, 2.54, 2.54, 2.55, 2.55, 2.55, 2.56, 2.56, 2.57, 2.57, 2.58, 2.58, 2.59, 2.59, 2.6, 2.6, 2.61, 2.61, 2.62, 2.62, 2.63, 2.63, 2.64, 2.64, 2.65, 2.65, 2.66, 2.67, 2.67, 2.68, 2.68, 2.69, 2.7, 2.7, 2.71, 2.72, 2.72, 2.73, 2.74, 2.74, 2.75, 2.76, 2.76, 2.77, 2.78, 2.79, 2.8, 2.8, 2.81, 2.82, 2.83, 2.83, 2.79, 2.75, 2.7]
17 [0.42, 0.42, 0.43, 0.43, 0.43, 0.43, 0.43, 0.43, 0.43, 0.43, 0.43, 0.44, 0.44, 0.44, 0.44, 0.44, 0.44, 0.44, 0.44, 0.44, 0.44, 0.45, 0.45, 0.45, 0.45, 0.45, 0.45, 0.45, 0.45, 0.45, 0.45, 0.46, 0.47, 0.49, 0.5, 0.52, 0.54, 0.56, 0.58, 0.6, 0.62, 0.65, 2.19, 2.19, 2.2, 2.2, 2.2, 2.21, 2.21, 2.22, 2.22, 2.22, 2.23, 1.62, 1.62, 1.63, 1.63, 1.63, 1.63, 1.64, 1.64, 1.64, 1.65, 1.65, 1.65, 1.65, 1.8, 2.29, 2.29, 2.29, 2.3, 2.3, 2.31, 2.31, 2.31, 2.32, 2.32, 2.33, 2.33, 2.33, 2.34, 2.34, 2.35, 2.35, 2.35, 2.36, 2.36, 2.37, 2.37, 2.37, 2.38, 2.38, 2.39, 2.39, 2.39, 2.4, 2.4, 2.41, 2.41, 2.41, 2.42, 2.42, 2.43, 2.43, 2.44, 2.44, 2.44, 2.45, 2.45, 2.46, 2.46, 2.47, 2.47, 2.47, 2.48, 2.48, 2.49, 2.49, 2.5, 2.5, 2.51, 2.51, 2.52, 2.52, 2.53, 2.53, 2.54, 2.54, 2.55, 2.55, 2.56, 2.56, 2.57, 2.57, 2.58, 2.58, 2.59, 2.6, 2.6, 2.61, 2.61, 2.62, 2.62, 2.63, 2.64, 2.64, 2.65, 2.66, 2.66, 2.67, 2.68, 2.68, 2.69, 2.7, 2.7, 2.71, 2.72, 2.72, 2.73, 2.74, 2.75, 2.76, 2.76, 2.77, 2.78, 2.79, 2.8, 2.81, 2.82, 2.83, 2.84, 2.84, 2.85, 2.86, 2.88, 2.88, 2.84, 2.8, 2.76, 2.72, 2.68, 2.64]
18 [0.38, 0.38, 0.39, 0.39, 0.39, 0.39, 0.39, 0.39, 0.39, 0.4, 0.4, 0.4, 0.4, 0.4, 0.4, 0.4, 0.4, 0.41, 0.41, 0.41, 0.43, 0.44, 0.45, 0.47, 0.48, 0.5, 0.52, 0.53, 0.55, 0.57, 0.59, 2.07, 2.08, 2.08, 2.09, 2.09, 2.1, 2.1, 2.11, 2.12, 2.12, 2.13, 2.13, 2.14, 1.55, 1.55, 1.56, 1.56, 1.57, 1.57, 1.57, 1.58, 1.58, 1.58, 1.59, 1.59, 1.6, 1.75, 2.22, 2.22, 2.23, 2.23, 2.24, 2.24, 2.25, 2.25, 2.26, 2.27, 2.27, 2.28, 2.28, 2.29, 2.29, 2.3, 2.3, 2.31, 2.31, 2.32, 2.32, 2.33, 2.33, 2.34, 2.35, 2.35, 2.36, 2.36, 2.37, 2.37, 2.38, 2.38, 2.39, 2.4, 2.4, 2.41, 2.41, 2.42, 2.42, 2.43, 2.44, 2.44, 2.45, 2.45, 2.46, 2.47, 2.47, 2.48, 2.48, 2.49, 2.5, 2.5, 2.51, 2.52, 2.52, 2.53, 2.54, 2.54, 2.55, 2.56, 2.56, 2.57, 2.58, 2.58, 2.59, 2.6, 2.61, 2.61, 2.62, 2.63, 2.64, 2.64, 2.65, 2.66, 2.67, 2.67, 2.68, 2.69, 2.7, 2.71, 2.72, 2.73, 2.73, 2.74, 2.75, 2.76, 2.77, 2.78, 2.79, 2.8, 2.81, 2.82, 2.83, 2.84, 2.85, 2.86, 2.87, 2.89, 2.9, 2.91, 2.92, 2.93, 2.95, 2.96, 2.97, 2.98, 3.0, 3.01, 3.03, 3.04, 3.0, 2.96, 2.92, 2.88, 2.84, 2.81, 2.17, 2.14, 2.11, 2.08, 2.05, 2.02, 2.0, 1.99]
19 [0.35, 0.35, 0.35, 0.36, 0.37, 0.38, 0.39, 0.4, 0.41, 0.43, 0.44, 0.46, 0.47, 0.49, 0.5, 0.52, 0.54, 1.91, 1.91, 1.92, 1.93, 1.94, 1.94, 1.95, 1.96, 1.97, 1.97, 1.98, 1.99, 2.0, 2.0, 1.45, 1.46, 1.46, 1.47, 1.47, 1.48, 1.48, 1.49, 1.49, 1.5, 1.5, 1.51, 1.51, 1.52, 2.11, 2.12, 2.13, 2.14, 2.14, 2.15, 2.16, 2.16, 2.17, 2.18, 2.19, 2.19, 2.2, 2.21, 2.22, 2.22, 2.23, 2.24, 2.24, 2.25, 2.26, 2.27, 2.27, 2.28, 2.29, 2.3, 2.3, 2.31, 2.32, 2.33, 2.33, 2.34, 2.35, 2.36, 2.36, 2.37, 2.38, 2.39, 2.4, 2.4, 2.41, 2.42, 2.43, 2.44, 2.44, 2.45, 2.46, 2.47, 2.48, 2.49, 2.49, 2.5, 2.51, 2.52, 2.53, 2.54, 2.55, 2.56, 2.57, 2.57, 2.58, 2.59, 2.6, 2.61, 2.62, 2.63, 2.64, 2.65, 2.66, 2.67, 2.68, 2.69, 2.7, 2.71, 2.72, 2.73, 2.75, 2.76, 2.77, 2.78, 2.79, 2.8, 2.81, 2.83, 2.84, 2.85, 2.86, 2.88, 2.89, 2.9, 2.92, 2.93, 2.94, 2.96, 2.97, 2.99, 3.0, 3.02, 3.03, 3.05, 3.06, 3.08, 3.1, 3.11, 3.13, 3.15, 3.17, 3.19, 3.21, 3.22, 3.24, 3.22, 3.19, 3.15, 3.11, 3.07, 3.04, 3.0, 2.32, 2.29, 2.26, 2.24, 2.21, 2.18, 2.16, 2.17, 2.19, 2.21, 2.63, 2.6, 2.56, 2.53, 2.5, 2.47, 2.44, 10.0, 0.0]
20 [0.4, 0.41, 0.42, 0.44, 0.45, 0.47, 0.49, 1.78, 1.79, 1.8, 1.81, 1.82, 1.82, 1.83, 1.84, 1.85, 1.86, 1.87, 1.88, 1.89, 1.89, 1.9, 1.91, 1.38, 1.39, 1.4, 1.4, 1.41, 1.41, 1.42, 1.43, 1.43, 1.44, 1.45, 1.45, 1.46, 1.51, 2.04, 2.05, 2.06, 2.07, 2.07, 2.08, 2.09, 2.1, 2.11, 2.12, 2.12, 2.13, 2.14, 2.15, 2.16, 2.17, 2.18, 2.18, 2.19, 2.2, 2.21, 2.22, 2.23, 2.24, 2.24, 2.25, 2.26, 2.27, 2.28, 2.29, 2.3, 2.31, 2.32, 2.32, 2.33, 2.34, 2.35, 2.36, 2.37, 2.38, 2.39, 2.4, 2.41, 2.42, 2.43, 2.44, 2.45, 2.45, 2.46, 2.47, 2.48, 2.49, 2.5, 2.51, 2.52, 2.53, 2.55, 2.56, 2.57, 2.58, 2.59, 2.6, 2.61, 2.62, 2.63, 2.64, 2.65, 2.67, 2.68, 2.69, 2.7, 2.71, 2.73, 2.74, 2.75, 2.76, 2.78, 2.79, 2.8, 2.82, 2.83, 2.84, 2.86, 2.87, 2.88, 2.9, 2.91, 2.93, 2.94, 2.96, 2.97, 2.99, 3.01, 3.02, 3.04, 3.06, 3.07, 3.09, 3.11, 3.13, 3.15, 3.17, 3.19, 3.21, 3.23, 3.25, 3.27, 3.29, 3.31, 3.33, 3.36, 3.36, 3.32, 3.28, 3.25, 3.21, 3.18, 3.14, 2.43, 2.4, 2.37, 2.35, 2.32, 2.3, 2.27, 2.27, 2.29, 2.32, 2.34, 2.75, 2.72, 2.69, 2.66, 2.63, 2.6, 2.57, 2.54, 2.51, 2.48, 2.45, 2.42, 2.4, 2.37, 2.34, 2.31]
21 [1.67, 1.68, 1.69, 1.7, 1.71, 1.72, 1.73, 1.74, 1.75, 1.76, 1.77, 1.78, 1.79, 1.8, 1.3, 1.31, 1.32, 1.32, 1.33, 1.34, 1.35, 1.35, 1.36, 1.37, 1.37, 1.38, 1.39, 1.39, 1.5, 1.96, 1.97, 1.98, 1.99, 2.0, 2.01, 2.02, 2.03, 2.03, 2.04, 2.05, 2.06, 2.07, 2.08, 2.09, 2.1, 2.11, 2.12, 2.13, 2.14, 2.15, 2.16, 2.17, 2.18, 2.19, 2.2, 2.21, 2.22, 2.23, 2.24, 2.25, 2.26, 2.27, 2.28, 2.29, 2.3, 2.31, 2.32, 2.33, 2.34, 2.35, 2.36, 2.38, 2.39, 2.4, 2.41, 2.42, 2.43, 2.44, 2.45, 2.46, 2.47, 2.49, 2.5, 2.51, 2.52, 2.53, 2.54, 2.56, 2.57, 2.58, 2.59, 2.61, 2.62, 2.63, 2.64, 2.66, 2.67, 2.68, 2.7, 2.71, 2.72, 2.74, 2.75, 2.77, 2.78, 2.8, 2.81, 2.82, 2.84, 2.86, 2.87, 2.89, 2.9, 2.92, 2.94, 2.95, 2.97, 2.99, 3.0, 3.02, 3.04, 3.06, 3.08, 3.1, 3.11, 3.13, 3.15, 3.17, 3.2, 3.22, 3.24, 3.26, 3.28, 3.31, 3.33, 3.35, 3.38, 3.4, 3.43, 3.45, 3.48, 3.44, 3.4, 3.37, 3.33, 3.3, 3.27, 2.52, 2.5, 2.47, 2.45, 2.42, 2.4, 2.37, 2.36, 2.38, 2.41, 2.43, 2.89, 2.86, 2.83, 2.8, 2.77, 2.74, 2.71, 2.68, 2.65, 2.63, 2.6, 2.57, 2.54, 2.52, 2.49, 2.46, 2.44, 2.41, 2.38, 2.36, 2.33, 2.31, 1.47, 1.45]
22 [1.64, 1.65, 1.66, 1.67, 1.68, 1.69, 1.22, 1.23, 1.24, 1.25, 1.26, 1.26, 1.27, 1.28, 1.29, 1.3, 1.3, 1.31, 1.32, 1.33, 1.38, 1.87, 1.88, 1.89, 1.9, 1.91, 1.92, 1.93, 1.94, 1.95, 1.96, 1.97, 1.98, 1.99, 2.01, 2.02, 2.03, 2.04, 2.05, 2.06, 2.07, 2.08, 2.09, 2.1, 2.11, 2.12, 2.14, 2.15, 2.16, 2.17, 2.18, 2.19, 2.2, 2.21, 2.23, 2.24, 2.25, 2.26, 2.27, 2.28, 2.29, 2.31, 2.32, 2.33, 2.34, 2.35, 2.37, 2.38, 2.39, 2.4, 2.41, 2.43, 2.44, 2.45, 2.46, 2.48, 2.49, 2.5, 2.52, 2.53, 2.54, 2.56, 2.57, 2.58, 2.6, 2.61, 2.63, 2.64, 2.66, 2.67, 2.68, 2.7, 2.72, 2.73, 2.75, 2.76, 2.78, 2.79, 2.81, 2.83, 2.84, 2.86, 2.88, 2.89, 2.91, 2.93, 2.95, 2.97, 2.98, 3.0, 3.02, 3.04, 3.06, 3.08, 3.1, 3.12, 3.14, 3.17, 3.19, 3.21, 3.23, 3.26, 3.28, 3.3, 3.33, 3.35, 3.38, 3.41, 3.43, 3.46, 3.49, 3.52, 3.55, 3.55, 3.52, 3.48, 3.45, 3.41, 3.38, 3.35, 2.59, 2.56, 2.54, 2.52, 2.49, 2.47, 2.44, 2.45, 2.47, 2.5, 2.53, 2.99, 2.96, 2.93, 2.9, 2.87, 2.85, 2.82, 2.79, 2.76, 2.74, 2.71, 2.68, 2.66, 2.63, 2.61, 2.58, 2.56, 2.53, 2.51, 2.48, 2.46, 2.43, 1.54, 1.53, 1.51, 1.5, 1.48, 1.47, 1.45, 1.44, 1.42]
23 [1.16, 1.17, 1.17, 1.18, 1.19, 1.2, 1.21, 1.22, 1.23, 1.23, 1.24, 1.25, 1.26, 1.77, 1.78, 1.79, 1.8, 1.81, 1.82, 1.84, 1.85, 1.86, 1.87, 1.88, 1.89, 1.91, 1.92, 1.93, 1.94, 1.95, 1.97, 1.98, 1.99, 2.0, 2.01, 2.02, 2.04, 2.05, 2.06, 2.07, 2.08, 2.1, 2.11, 2.12, 2.13, 2.15, 2.16, 2.17, 2.18, 2.2, 2.21, 2.22, 2.23, 2.25, 2.26, 2.27, 2.28, 2.3, 2.31, 2.32, 2.34, 2.35, 2.36, 2.38, 2.39, 2.41, 2.42, 2.43, 2.45, 2.46, 2.48, 2.49, 2.5, 2.52, 2.53, 2.55, 2.56, 2.58, 2.59, 2.61, 2.63, 2.64, 2.66, 2.67, 2.69, 2.71, 2.72, 2.74, 2.76, 2.78, 2.79, 2.81, 2.83, 2.85, 2.87, 2.88, 2.9, 2.92, 2.94, 2.96, 2.98, 3.0, 3.02, 3.04, 3.07, 3.09, 3.11, 3.13, 3.15, 3.18, 3.2, 3.23, 3.25, 3.28, 3.3, 3.33, 3.35, 3.38, 3.41, 3.44, 3.46, 3.49, 3.52, 3.55, 3.59, 3.62, 3.61, 3.58, 3.55, 3.52, 3.48, 3.45, 3.42, 2.64, 2.62, 2.6, 2.57, 2.55, 2.53, 2.51, 2.52, 2.55, 2.58, 2.61, 3.07, 3.05, 3.02, 2.99, 2.97, 2.94, 2.91, 2.89, 2.86, 2.84, 2.81, 2.79, 2.76, 2.74, 2.71, 2.69, 2.66, 2.64, 2.62, 2.59, 2.57, 2.55, 1.62, 1.6, 1.59, 1.57, 1.56, 1.54, 1.53, 1.51, 1.5, 1.48, 1.47, 1.48, 1.54, 2.23, 2.21, 2.18]
24 [1.14, 1.15, 1.16, 1.17, 1.18, 1.22, 1.67, 1.68, 1.7, 1.71, 1.72, 1.73, 1.75, 1.76, 1.77, 1.78, 1.8, 1.81, 1.82, 1.83, 1.85, 1.86, 1.87, 1.88, 1.9, 1.91, 1.92, 1.94, 1.95, 1.96, 1.97, 1.99, 2.0, 2.01, 2.03, 2.04, 2.05, 2.06, 2.08, 2.09, 2.1, 2.12, 2.13, 2.14, 2.16, 2.17, 2.19, 2.2, 2.21, 2.23, 2.24, 2.26, 2.27, 2.28, 2.3, 2.31, 2.33, 2.34, 2.36, 2.37, 2.39, 2.4, 2.42, 2.43, 2.45, 2.46, 2.48, 2.49, 2.51, 2.53, 2.54, 2.56, 2.58, 2.59, 2.61, 2.63, 2.64, 2.66, 2.68, 2.7, 2.71, 2.73, 2.75, 2.77, 2.79, 2.81, 2.83, 2.85, 2.87, 2.89, 2.91, 2.93, 2.95, 2.97, 2.99, 3.02, 3.04, 3.06, 3.08, 3.11, 3.13, 3.16, 3.18, 3.21, 3.23, 3.26, 3.28, 3.31, 3.34, 3.37, 3.4, 3.43, 3.46, 3.49, 3.52, 3.55, 3.58, 3.62, 3.65, 3.68, 3.64, 3.61, 3.58, 3.55, 3.52, 3.49, 2.7, 2.68, 2.65, 2.63, 2.61, 2.59, 2.57, 2.55, 2.58, 2.62, 2.65, 3.16, 3.13, 3.11, 3.08, 3.06, 3.03, 3.01, 2.98, 2.96, 2.93, 2.91, 2.89, 2.86, 2.84, 2.81, 2.79, 2.77, 2.74, 2.72, 2.7, 2.68, 2.65, 2.63, 1.67, 1.66, 1.64, 1.63, 1.61, 1.6, 1.59, 1.57, 1.56, 1.54, 1.53, 1.56, 1.63, 2.33, 2.31, 2.29, 2.27, 2.24, 2.22, 2.2, 2.18, 2.16]
25 [1.58, 1.6, 1.61, 1.62, 1.64, 1.65, 1.66, 1.68, 1.69, 1.7, 1.72, 1.73, 1.74, 1.76, 1.77, 1.78, 1.8, 1.81, 1.82, 1.84, 1.85, 1.86, 1.88, 1.89, 1.9, 1.92, 1.93, 1.95, 1.96, 1.97, 1.99, 2.0, 2.01, 2.03, 2.04, 2.06, 2.07, 2.09, 2.1, 2.11, 2.13, 2.14, 2.16, 2.17, 2.19, 2.2, 2.22, 2.23, 2.25, 2.26, 2.28, 2.29, 2.31, 2.33, 2.34, 2.36, 2.37, 2.39, 2.41, 2.42, 2.44, 2.46, 2.47, 2.49, 2.51, 2.52, 2.54, 2.56, 2.58, 2.6, 2.61, 2.63, 2.65, 2.67, 2.69, 2.71, 2.73, 2.75, 2.77, 2.79, 2.81, 2.83, 2.85, 2.87, 2.89, 2.92, 2.94, 2.96, 2.99, 3.01, 3.03, 3.06, 3.08, 3.11, 3.13, 3.16, 3.18, 3.21, 3.24, 3.27, 3.29, 3.32, 3.35, 3.38, 3.41, 3.44, 3.47, 3.51, 3.54, 3.57, 3.61, 3.64, 3.68, 3.71, 3.68, 3.65, 3.62, 3.59, 3.56, 3.53, 2.73, 2.71, 2.69, 2.66, 2.64, 2.62, 2.6, 2.59, 2.62, 2.65, 2.69, 3.22, 3.19, 3.17, 3.14, 3.12, 3.09, 3.07, 3.05, 3.02, 3.0, 2.98, 2.95, 2.93, 2.91, 2.89, 2.86, 2.84, 2.82, 2.8, 2.78, 2.76, 2.73, 2.71, 1.72, 1.71, 1.69, 1.68, 1.67, 1.65, 1.64, 1.63, 1.61, 1.6, 1.59, 1.6, 1.67, 2.42, 2.4, 2.38, 2.36, 2.34, 2.32, 2.3, 2.28, 2.26, 2.24, 2.23, 2.21, 2.19, 2.17, 2.15]
26 [1.58, 1.59, 1.6, 1.62, 1.63, 1.65, 1.66, 1.67, 1.69, 1.7, 1.72, 1.73, 1.74, 1.76, 1.77, 1.79, 1.8, 1.81, 1.83, 1.84, 1.86, 1.87, 1.89, 1.9, 1.91, 1.93, 1.94, 1.96, 1.97, 1.99, 2.0, 2.02, 2.03, 2.05, 2.06, 2.08, 2.09, 2.11, 2.12, 2.14, 2.16, 2.17, 2.19, 2.2, 2.22, 2.23, 2.25, 2.27, 2.28, 2.3, 2.32, 2.33, 2.35, 2.37, 2.39, 2.4, 2.42, 2.44, 2.46, 2.47, 2.49, 2.51, 2.53, 2.55, 2.57, 2.59, 2.61, 2.63, 2.65, 2.67, 2.69, 2.71, 2.73, 2.75, 2.77, 2.79, 2.81, 2.84, 2.86, 2.88, 2.91, 2.93, 2.95, 2.98, 3.0, 3.03, 3.05, 3.08, 3.1, 3.13, 3.16, 3.19, 3.21, 3.24, 3.27, 3.3, 3.33, 3.36, 3.39, 3.43, 3.46, 3.49, 3.53, 3.56, 3.6, 3.63, 3.67, 3.71, 3.72, 3.69, 3.66, 3.63, 3.6, 3.58, 3.55, 2.74, 2.72, 2.7, 2.68, 2.66, 2.64, 2.62, 2.62, 2.66, 2.69, 2.73, 3.25, 3.22, 3.2, 3.18, 3.15, 3.13, 3.11, 3.09, 3.06, 3.04, 3.02, 3.0, 2.98, 2.96, 2.93, 2.91, 2.89, 2.87, 2.85, 2.83, 2.81, 2.79, 2.77, 1.75, 1.74, 1.73, 1.71, 1.7, 1.69, 1.68, 1.66, 1.65, 1.64, 1.63, 1.64, 1.72, 2.49, 2.48, 2.46, 2.44, 2.42, 2.4, 2.38, 2.36, 2.34, 2.32, 2.31, 2.29, 2.27, 2.25, 2.23, 2.21, 2.19, 2.17, 2.16, 2.14]
27 [1.57, 1.59, 1.6, 1.62, 1.63, 1.64, 1.66, 1.67, 1.69, 1.7, 1.72, 1.73, 1.75, 1.76, 1.78, 1.79, 1.81, 1.82, 1.84, 1.85, 1.87, 1.88, 1.9, 1.91, 1.93, 1.94, 1.96, 1.97, 1.99, 2.0, 2.02, 2.03, 2.05, 2.07, 2.08, 2.1, 2.11, 2.13, 2.15, 2.16, 2.18, 2.2, 2.21, 2.23, 2.25, 2.27, 2.28, 2.3, 2.32, 2.34, 2.35, 2.37, 2.39, 2.41, 2.43, 2.45, 2.47, 2.48, 2.5, 2.52, 2.54, 2.56, 2.58, 2.6, 2.62, 2.65, 2.67, 2.69, 2.71, 2.73, 2.75, 2.78, 2.8, 2.82, 2.85, 2.87, 2.89, 2.92, 2.94, 2.97, 3.0, 3.02, 3.05, 3.08, 3.1, 3.13, 3.16, 3.19, 3.22, 3.25, 3.28, 3.31, 3.34, 3.37, 3.41, 3.44, 3.47, 3.51, 3.54, 3.58, 3.62, 3.66, 3.69, 3.73, 3.71, 3.68, 3.65, 3.63, 3.6, 3.57, 3.55, 2.74, 2.72, 2.7, 2.68, 2.66, 2.64, 2.63, 2.65, 2.69, 2.73, 2.76, 3.26, 3.24, 3.22, 3.2, 3.17, 3.15, 3.13, 3.11, 3.09, 3.07, 3.05, 3.03, 3.01, 2.99, 2.96, 2.94, 2.92, 2.9, 2.88, 2.87, 2.85, 2.83, 2.81, 1.77, 1.76, 1.75, 1.74, 1.73, 1.71, 1.7, 1.69, 1.68, 1.67, 1.65, 1.69, 1.77, 2.54, 2.53, 2.51, 2.49, 2.47, 2.45, 2.44, 2.42, 2.4, 2.38, 2.36, 2.35, 2.33, 2.31, 2.29, 2.27, 2.26, 2.24, 2.22, 2.2, 2.19, 2.17, 0.01, 0.0]
28 [1.57, 1.59, 1.6, 1.62, 1.63, 1.65, 1.66, 1.68, 1.69, 1.71, 1.72, 1.74, 1.75, 1.77, 1.78, 1.8, 1.81, 1.83, 1.84, 1.86, 1.88, 1.89, 1.91, 1.92, 1.94, 1.95, 1.97, 1.99, 2.0, 2.02, 2.04, 2.05, 2.07, 2.09, 2.1, 2.12, 2.14, 2.16, 2.17, 2.19, 2.21, 2.23, 2.24, 2.26, 2.28, 2.3, 2.32, 2.34, 2.35, 2.37, 2.39, 2.41, 2.43, 2.45, 2.47, 2.49, 2.51, 2.53, 2.55, 2.58, 2.6, 2.62, 2.64, 2.66, 2.69, 2.71, 2.73, 2.75, 2.78, 2.8, 2.83, 2.85, 2.88, 2.9, 2.93, 2.95, 2.98, 3.01, 3.03, 3.06, 3.09, 3.12, 3.15, 3.18, 3.21, 3.24, 3.27, 3.3, 3.34, 3.37, 3.4, 3.44, 3.47, 3.51, 3.55, 3.58, 3.62, 3.66, 3.7, 3.73, 3.7, 3.68, 3.65, 3.62, 3.6, 3.58, 2.76, 2.74, 2.72, 2.7, 2.68, 2.67, 2.65, 2.63, 2.67, 2.71, 2.74, 3.3, 3.28, 3.26, 3.24, 3.21, 3.19, 3.17, 3.15, 3.13, 3.11, 3.09, 3.07, 3.05, 3.03, 3.01, 2.99, 2.97, 2.95, 2.94, 2.92, 2.9, 2.88, 2.86, 2.84, 1.79, 1.78, 1.77, 1.76, 1.75, 1.74, 1.72, 1.71, 1.7, 1.69, 1.68, 1.71, 1.79, 2.59, 2.57, 2.56, 2.54, 2.52, 2.51, 2.49, 2.47, 2.45, 2.44, 2.42, 2.4, 2.39, 2.37, 2.35, 2.33, 2.32, 2.3, 2.28, 2.27, 2.25, 2.23, 2.21, 2.2, 2.18, 2.16, 2.15, 2.13]
29 [1.57, 1.59, 1.6, 1.62, 1.63, 1.65, 1.67, 1.68, 1.7, 1.71, 1.73, 1.74, 1.76, 1.78, 1.79, 1.81, 1.83, 1.84, 1.86, 1.87, 1.89, 1.91, 1.92, 1.94, 1.96, 1.98, 1.99, 2.01, 2.03, 2.04, 2.06, 2.08, 2.1, 2.12, 2.13, 2.15, 2.17, 2.19, 2.21, 2.23, 2.24, 2.26, 2.28, 2.3, 2.32, 2.34, 2.36, 2.38, 2.4, 2.42, 2.44, 2.47, 2.49, 2.51, 2.53, 2.55, 2.57, 2.6, 2.62, 2.64, 2.67, 2.69, 2.71, 2.74, 2.76, 2.79, 2.81, 2.84, 2.87, 2.89, 2.92, 2.95, 2.97, 3.0, 3.03, 3.06, 3.09, 3.12, 3.15, 3.18, 3.21, 3.25, 3.28, 3.31, 3.35, 3.38, 3.42, 3.45, 3.49, 3.53, 3.57, 3.61, 3.65, 3.69, 3.73, 3.7, 3.68, 3.65, 3.63, 3.61, 3.58, 3.56, 2.74, 2.73, 2.71, 2.69, 2.67, 2.66, 2.64, 2.67, 2.7, 2.74, 2.79, 3.3, 3.28, 3.26, 3.24, 3.22, 3.2, 3.18, 3.16, 3.14, 3.12, 3.11, 3.09, 3.07, 3.05, 3.03, 3.01, 2.99, 2.98, 2.96, 2.94, 2.92, 2.91, 2.89, 1.82, 1.81, 1.8, 1.79, 1.78, 1.76, 1.75, 1.74, 1.73, 1.72, 1.71, 1.7, 1.78, 2.65, 2.63, 2.62, 2.6, 2.58, 2.57, 2.55, 2.54, 2.52, 2.5, 2.49, 2.47, 2.45, 2.44, 2.42, 2.41, 2.39, 2.37, 2.36, 2.34, 2.32, 2.31, 2.29, 2.28, 2.26, 2.24, 2.23, 2.21, 2.2, 2.18, 2.16, 2.15, 2.13]
30 [1.58, 1.59, 1.61, 1.63, 1.64, 1.66, 1.68, 1.69, 1.71, 1.73, 1.74, 1.76, 1.78, 1.79, 1.81, 1.83, 1.85, 1.86, 1.88, 1.9, 1.92, 1.93, 1.95, 1.97, 1.99, 2.01, 2.02, 2.04, 2.06, 2.08, 2.1, 2.12, 2.14, 2.16, 2.18, 2.2, 2.22, 2.24, 2.26, 2.28, 2.3, 2.32, 2.34, 2.36, 2.38, 2.4, 2.42, 2.45, 2.47, 2.49, 2.51, 2.54, 2.56, 2.59, 2.61, 2.63, 2.66, 2.68, 2.71, 2.73, 2.76, 2.79, 2.81, 2.84, 2.87, 2.9, 2.92, 2.95, 2.98, 3.01, 3.04, 3.07, 3.11, 3.14, 3.17, 3.2, 3.24, 3.27, 3.31, 3.34, 3.38, 3.42, 3.45, 3.49, 3.53, 3.57, 3.61, 3.66, 3.7, 3.7, 3.68, 3.66, 3.63, 3.61, 3.59, 3.57, 2.75, 2.73, 2.72, 2.7, 2.68, 2.67, 2.65, 2.65, 2.69, 2.73, 2.77, 3.32, 3.31, 3.29, 3.27, 3.25, 3.23, 3.21, 3.19, 3.18, 3.16, 3.14, 3.12, 3.11, 3.09, 3.07, 3.05, 3.04, 3.02, 3.0, 2.99, 2.97, 2.95, 2.94, 2.92, 1.84, 1.83, 1.82, 1.81, 1.8, 1.79, 1.78, 1.77, 1.76, 1.75, 1.74, 1.75, 1.84, 2.7, 2.68, 2.67, 2.65, 2.64, 2.62, 2.61, 2.59, 2.58, 2.56, 2.55, 2.53, 2.52, 2.5, 2.49, 2.47, 2.46, 2.44, 2.43, 2.41, 2.4, 2.38, 2.37, 2.35, 2.34, 2.32, 2.31, 2.29, 2.27, 2.26, 2.24, 2.23, 2.21, 2.2, 2.18, 2.17, 2.15, 2.14]
31 [1.59, 1.61, 1.63, 1.64, 1.66, 1.68, 1.7, 1.71, 1.73, 1.75, 1.77, 1.79, 1.8, 1.82, 1.84, 1.86, 1.88, 1.9, 1.91, 1.93, 1.95, 1.97, 1.99, 2.01, 2.03, 2.05, 2.07, 2.09, 2.11, 2.13, 2.15, 2.17, 2.19, 2.21, 2.24, 2.26, 2.28, 2.3, 2.32, 2.35, 2.37, 2.39, 2.41, 2.44, 2.46, 2.49, 2.51, 2.54, 2.56, 2.59, 2.61, 2.64, 2.66, 2.69, 2.72, 2.75, 2.77, 2.8, 2.83, 2.86, 2.89, 2.92, 2.95, 2.98, 3.01, 3.04, 3.08, 3.11, 3.15, 3.18, 3.21, 3.25, 3.29, 3.32, 3.36, 3.4, 3.44, 3.48, 3.52, 3.57, 3.61, 3.65, 3.69, 3.67, 3.65, 3.63, 3.61, 3.59, 3.57, 2.75, 2.73, 2.72, 2.7, 2.69, 2.67, 2.66, 2.64, 2.67, 2.71, 2.75, 2.8, 3.33, 3.31, 3.29, 3.27, 3.26, 3.24, 3.22, 3.21, 3.19, 3.17, 3.16, 3.14, 3.13, 3.11, 3.09, 3.08, 3.06, 3.05, 3.03, 3.02, 3.0, 2.99, 2.97, 1.87, 1.86, 1.85, 1.84, 1.83, 1.82, 1.81, 1.8, 1.79, 1.78, 1.77, 1.76, 1.8, 1.89, 2.75, 2.74, 2.73, 2.71, 2.7, 2.68, 2.67, 2.66, 2.64, 2.63, 2.61, 2.6, 2.59, 2.57, 2.56, 2.54, 2.53, 2.52, 2.5, 2.49, 2.48, 2.46, 2.45, 2.43, 2.42, 2.41, 2.39, 2.38, 2.36, 2.35, 2.34, 2.32, 2.31, 2.29, 2.28, 2.27, 2.25, 2.24, 2.22, 2.21, 2.2, 2.18, 2.17, 2.15]
32 [1.61, 1.63, 1.65, 1.67, 1.68, 1.7, 1.72, 1.74, 1.76, 1.78, 1.8, 1.82, 1.84, 1.86, 1.88, 1.9, 1.92, 1.94, 1.96, 1.98, 2.0, 2.02, 2.04, 2.06, 2.08, 2.1, 2.13, 2.15, 2.17, 2.19, 2.21, 2.24, 2.26, 2.28, 2.31, 2.33, 2.36, 2.38, 2.41, 2.43, 2.46, 2.48, 2.51, 2.53, 2.56, 2.59, 2.61, 2.64, 2.67, 2.7, 2.73, 2.76, 2.79, 2.82, 2.85, 2.88, 2.91, 2.94, 2.98, 3.01, 3.04, 3.08, 3.11, 3.15, 3.19, 3.22, 3.26, 3.3, 3.34, 3.38, 3.42, 3.47, 3.51, 3.55, 3.6, 3.64, 3.65, 3.63, 3.61, 3.59, 3.57, 3.55, 3.53, 2.72, 2.7, 2.69, 2.68, 2.66, 2.65, 2.64, 2.64, 2.68, 2.73, 2.77, 3.33, 3.32, 3.3, 3.29, 3.27, 3.25, 3.24, 3.22, 3.21, 3.19, 3.18, 3.16, 3.15, 3.14, 3.12, 3.11, 3.09, 3.08, 3.07, 3.05, 3.04, 3.02, 3.01, 3.0, 1.88, 1.87, 1.86, 1.85, 1.84, 1.84, 1.83, 1.82, 1.81, 1.8, 1.79, 1.79, 1.86, 1.96, 2.8, 2.79, 2.77, 2.76, 2.75, 2.74, 2.72, 2.71, 2.7, 2.69, 2.67, 2.66, 2.65, 2.64, 2.62, 2.61, 2.6, 2.59, 2.57, 2.56, 2.55, 2.54, 2.52, 2.51, 2.5, 2.49, 2.47, 2.46, 2.45, 2.43, 2.42, 2.41, 2.4, 2.38, 2.37, 2.36, 2.35, 2.33, 2.32, 2.31, 2.29, 2.28, 2.27, 2.25, 2.24, 2.23, 2.21, 2.2, 2.19, 2.17]
33 [1.64, 1.65, 1.67, 1.69, 1.71, 1.73, 1.75, 1.77, 1.79, 1.81, 1.83, 1.86, 1.88, 1.9, 1.92, 1.94, 1.96, 1.98, 2.01, 2.03, 2.05, 2.07, 2.1, 2.12, 2.14, 2.17, 2.19, 2.21, 2.24, 2.26, 2.29, 2.31, 2.34, 2.36, 2.39, 2.42, 2.44, 2.47, 2.5, 2.52, 2.55, 2.58, 2.61, 2.64, 2.67, 2.7, 2.73, 2.76, 2.79, 2.82, 2.86, 2.89, 2.92, 2.96, 2.99, 3.03, 3.07, 3.1, 3.14, 3.18, 3.22, 3.26, 3.3, 3.34, 3.38, 3.43, 3.47, 3.52, 3.56, 3.61, 3.6, 3.59, 3.57, 3.55, 3.53, 3.52, 3.5, 2.69, 2.68, 2.67, 2.65, 2.64, 2.63, 2.62, 2.63, 2.68, 2.72, 2.77, 3.32, 3.31, 3.29, 3.28, 3.26, 3.25, 3.24, 3.22, 3.21, 3.2, 3.18, 3.17, 3.16, 3.14, 3.13, 3.12, 3.1, 3.09, 3.08, 3.07, 3.05, 3.04, 3.03, 3.02, 1.89, 1.88, 1.87, 1.87, 1.86, 1.85, 1.84, 1.84, 1.83, 1.82, 1.81, 1.81, 1.88, 1.98, 2.84, 2.83, 2.82, 2.81, 2.79, 2.78, 2.77, 2.76, 2.75, 2.74, 2.73, 2.72, 2.7, 2.69, 2.68, 2.67, 2.66, 2.65, 2.64, 2.63, 2.61, 2.6, 2.59, 2.58, 2.57, 2.56, 2.55, 2.53, 2.52, 2.51, 2.5, 2.49, 2.48, 2.47, 2.45, 2.44, 2.43, 2.42, 2.41, 2.4, 2.38, 2.37, 2.36, 2.35, 2.34, 2.33, 2.31, 2.3, 2.29, 2.28, 2.27, 2.25, 2.24, 2.23, 2.22, 2.2]
34 [1.71, 1.73, 1.75, 1.77, 1.79, 1.82, 1.84, 1.86, 1.89, 1.91, 1.93, 1.96, 1.98, 2.01, 2.03, 2.06, 2.08, 2.11, 2.14, 2.16, 2.19, 2.21, 2.24, 2.27, 2.3, 2.33, 2.35, 2.38, 2.41, 2.44, 2.47, 2.5, 2.54, 2.57, 2.6, 2.63, 2.67, 2.7, 2.73, 2.77, 2.8, 2.84, 2.88, 2.91, 2.95, 2.99, 3.03, 3.07, 3.11, 3.15, 3.2, 3.24, 3.29, 3.33, 3.38, 3.43, 3.47, 3.51, 3.49, 3.48, 3.47, 3.45, 3.44, 3.43, 2.63, 2.62, 2.61, 2.6, 2.6, 2.59, 2.58, 2.57, 2.61, 2.65, 2.7, 2.75, 3.27, 3.26, 3.25, 3.24, 3.23, 3.22, 3.21, 3.2, 3.19, 3.18, 3.17, 3.16, 3.15, 3.14, 3.13, 3.12, 3.11, 3.1, 3.09, 3.08, 3.07, 3.06, 3.05, 1.9, 1.9, 1.89, 1.89, 1.88, 1.88, 1.87, 1.86, 1.86, 1.85, 1.85, 1.84, 1.85, 1.95, 2.91, 2.9, 2.9, 2.89, 2.88, 2.87, 2.86, 2.85, 2.84, 2.83, 2.82, 2.82, 2.81, 2.8, 2.79, 2.78, 2.77, 2.76, 2.76, 2.75, 2.74, 2.73, 2.72, 2.71, 2.7, 2.69, 2.69, 2.68, 2.67, 2.66, 2.65, 2.64, 2.63, 2.62, 2.61, 2.61, 2.6, 2.59, 2.58, 2.57, 2.56, 2.55, 2.54, 2.53, 2.52, 2.52, 2.51, 2.5, 2.49, 2.48, 2.47, 2.46, 2.45, 2.44, 2.43, 2.42, 2.41, 1.84, 1.79, 1.73, 1.68, 1.66, 1.65, 1.65, 1.64, 1.63, 1.63, 1.62, 1.61]
35 [1.95, 1.98, 2.01, 2.04, 2.07, 2.1, 2.14, 2.17, 2.2, 2.24, 2.27, 2.31, 2.34, 2.38, 2.42, 2.45, 2.49, 2.53, 2.57, 2.61, 2.65, 2.69, 2.73, 2.78, 2.82, 2.87, 2.91, 2.96, 3.01, 3.06, 3.11, 3.16, 3.18, 3.17, 3.17, 3.16, 3.16, 3.15, 3.15, 2.42, 2.41, 2.41, 2.41, 2.4, 2.4, 2.4, 2.41, 2.46, 2.51, 2.56, 3.09, 3.09, 3.08, 3.08, 3.08, 3.07, 3.07, 3.06, 3.06, 3.06, 3.05, 3.05, 3.04, 3.04, 3.04, 3.03, 3.03, 3.02, 3.02, 3.02, 3.01, 3.01, 3.01, 3.0, 1.87, 1.87, 1.87, 1.87, 1.86, 1.86, 1.86, 1.86, 1.85, 1.85, 1.85, 1.85, 1.91, 2.01, 2.95, 2.95, 2.94, 2.94, 2.94, 2.93, 2.93, 2.93, 2.92, 2.92, 2.92, 2.91, 2.91, 2.91, 2.9, 2.9, 2.9, 2.89, 2.89, 2.89, 2.88, 2.88, 2.88, 2.87, 2.87, 2.87, 2.86, 2.86, 2.86, 2.85, 2.85, 2.85, 2.84, 2.84, 2.84, 2.83, 2.83, 2.83, 2.82, 2.82, 2.82, 2.81, 2.81, 2.81, 2.8, 2.8, 2.8, 2.79, 2.79, 2.79, 2.78, 2.78, 2.77, 2.77, 2.77, 2.76, 2.76, 2.12, 2.06, 2.0, 1.95, 1.92, 1.92, 1.92, 1.92, 1.91, 1.91, 1.91, 1.9, 1.9, 2.71, 2.7, 2.7, 2.69, 2.69, 2.68, 2.68, 2.68, 2.67, 2.67, 2.66, 2.62, 2.56, 2.51, 2.46, 2.41, 2.36, 0.68, 0.67, 0.66, 0.64, 0.63, 0.62, 0.6]
36 [2.1, 2.14, 2.18, 2.21, 2.25, 2.29, 2.33, 2.37, 2.41, 2.45, 2.49, 2.53, 2.58, 2.62, 2.66, 2.71, 2.76, 2.8, 2.85, 2.9, 2.95, 3.0, 3.0, 3.0, 2.99, 2.99, 2.99, 2.99, 2.3, 2.3, 2.3, 2.3, 2.29, 2.29, 2.29, 2.29, 2.34, 2.39, 2.44, 2.49, 2.97, 2.97, 2.97, 2.97, 2.97, 2.96, 2.96, 2.96, 2.96, 2.96, 2.96, 2.96, 2.96, 2.96, 2.95, 2.95, 2.95, 2.95, 2.95, 2.95, 2.95, 2.95, 2.95, 1.84, 1.84, 1.84, 1.83, 1.83, 1.83, 1.83, 1.83, 1.83, 1.83, 1.83, 1.83, 1.86, 1.95, 2.93, 2.93, 2.93, 2.93, 2.92, 2.92, 2.92, 2.92, 2.92, 2.92, 2.92, 2.92, 2.92, 2.92, 2.91, 2.91, 2.91, 2.91, 2.91, 2.91, 2.91, 2.91, 2.91, 2.91, 2.9, 2.9, 2.9, 2.9, 2.9, 2.9, 2.9, 2.9, 2.9, 2.9, 2.89, 2.89, 2.89, 2.89, 2.89, 2.89, 2.89, 2.89, 2.89, 2.89, 2.88, 2.88, 2.88, 2.88, 2.88, 2.88, 2.88, 2.88, 2.88, 2.87, 2.87, 2.87, 2.87, 2.87, 2.17, 2.11, 2.06, 2.01, 2.01, 2.01, 2.01, 2.01, 2.01, 2.0, 2.0, 2.0, 2.0, 2.85, 2.85, 2.85, 2.85, 2.85, 2.85, 2.85, 2.84, 2.84, 2.84, 2.83, 2.77, 2.72, 2.66, 2.61, 2.56, 0.74, 0.72, 0.71, 0.7, 0.68, 0.67, 0.66, 0.65, 0.63, 0.62, 0.61, 0.6, 0.59, 0.58, 0.57, 0.56, 0.55, 0.55]
37 [2.56, 2.57, 2.57, 2.58, 2.59, 2.59, 2.6, 2.0, 2.01, 2.01, 2.01, 2.02, 2.02, 2.02, 2.04, 2.09, 2.14, 2.19, 2.66, 2.66, 2.67, 2.67, 2.67, 2.68, 2.68, 2.69, 2.69, 2.7, 2.7, 2.7, 2.71, 2.71, 2.72, 2.72, 2.73, 2.73, 2.73, 2.74, 2.74, 2.75, 2.75, 2.75, 1.72, 1.72, 1.72, 1.73, 1.73, 1.73, 1.73, 1.74, 1.74, 1.74, 1.74, 1.75, 1.82, 1.92, 2.81, 2.81, 2.82, 2.82, 2.83, 2.83, 2.83, 2.84, 2.84, 2.84, 2.85, 2.85, 2.85, 2.86, 2.86, 2.87, 2.87, 2.87, 2.88, 2.88, 2.88, 2.89, 2.89, 2.89, 2.9, 2.9, 2.91, 2.91, 2.91, 2.92, 2.92, 2.92, 2.93, 2.93, 2.93, 2.94, 2.94, 2.95, 2.95, 2.95, 2.96, 2.96, 2.96, 2.97, 2.97, 2.98, 2.98, 2.98, 2.99, 2.99, 2.99, 3.0, 3.0, 3.01, 3.01, 3.01, 3.02, 3.02, 2.27, 2.21, 2.16, 2.13, 2.13, 2.14, 2.14, 2.14, 2.15, 2.15, 2.15, 2.15, 2.16, 3.08, 3.09, 3.09, 3.1, 3.1, 3.1, 3.11, 3.11, 3.12, 3.12, 3.11, 3.05, 3.0, 2.95, 2.89, 0.83, 0.81, 0.8, 0.78, 0.77, 0.76, 0.75, 0.73, 0.72, 0.71, 0.7, 0.69, 0.68, 0.67, 0.66, 0.65, 0.64, 0.63, 0.63, 0.63, 0.63, 0.64, 0.64, 0.64, 0.64, 0.64, 0.64, 0.64, 0.65, 0.65, 0.65, 0.65, 0.65, 0.65, 0.66, 0.66, 1.62, 1.59, 1.57, 1.54]
38 [1.86, 1.87, 1.87, 1.88, 1.89, 1.93, 1.98, 2.02, 2.07, 2.49, 2.49, 2.5, 2.51, 2.51, 2.52, 2.53, 2.54, 2.54, 2.55, 2.56, 2.56, 2.57, 2.58, 2.58, 2.59, 2.6, 2.6, 2.61, 2.61, 2.62, 2.63, 2.63, 1.64, 1.65, 1.65, 1.66, 1.66, 1.66, 1.67, 1.67, 1.67, 1.68, 1.68, 1.69, 1.74, 1.83, 2.72, 2.73, 2.73, 2.74, 2.75, 2.75, 2.76, 2.76, 2.77, 2.77, 2.78, 2.79, 2.79, 2.8, 2.8, 2.81, 2.81, 2.82, 2.83, 2.83, 2.84, 2.84, 2.85, 2.85, 2.86, 2.87, 2.87, 2.88, 2.88, 2.89, 2.89, 2.9, 2.91, 2.91, 2.92, 2.92, 2.93, 2.93, 2.94, 2.95, 2.95, 2.96, 2.96, 2.97, 2.98, 2.98, 2.99, 2.99, 3.0, 3.01, 3.01, 3.02, 3.02, 3.03, 3.04, 3.04, 3.05, 3.06, 2.32, 2.26, 2.21, 2.16, 2.16, 2.17, 2.17, 2.18, 2.18, 2.19, 2.19, 2.2, 2.2, 3.15, 3.16, 3.16, 3.17, 3.18, 3.18, 3.19, 3.2, 3.21, 3.21, 3.22, 3.17, 3.12, 3.07, 3.01, 2.97, 0.84, 0.83, 0.81, 0.8, 0.79, 0.78, 0.76, 0.75, 0.74, 0.73, 0.72, 0.71, 0.7, 0.69, 0.68, 0.67, 0.66, 0.66, 0.66, 0.67, 0.67, 0.67, 0.67, 0.67, 0.68, 0.68, 0.68, 0.68, 0.69, 0.69, 0.69, 0.69, 0.7, 0.7, 0.7, 1.75, 1.72, 1.7, 1.67, 1.65, 1.63, 1.61, 1.58, 1.56, 1.54, 1.52, 1.5, 1.48, 1.45]
39 [2.16, 2.17, 2.18, 2.19, 2.21, 1.38, 1.39, 1.39, 1.4, 1.41, 1.41, 1.42, 1.43, 1.44, 1.44, 1.45, 1.46, 1.47, 1.55, 1.64, 2.39, 2.4, 2.41, 2.42, 2.44, 2.45, 2.46, 2.47, 2.48, 2.49, 2.5, 2.51, 2.52, 2.54, 2.55, 2.56, 2.57, 2.58, 2.59, 2.6, 2.61, 2.62, 2.63, 2.64, 2.66, 2.67, 2.68, 2.69, 2.7, 2.71, 2.72, 2.73, 2.74, 2.75, 2.77, 2.78, 2.79, 2.8, 2.81, 2.82, 2.83, 2.84, 2.86, 2.87, 2.88, 2.89, 2.9, 2.91, 2.92, 2.94, 2.95, 2.96, 2.97, 2.98, 2.99, 3.01, 3.02, 3.03, 2.31, 2.25, 2.2, 2.15, 2.16, 2.17, 2.18, 2.19, 2.2, 2.21, 2.22, 2.23, 2.24, 3.21, 3.22, 3.24, 3.25, 3.26, 3.28, 3.29, 3.31, 3.32, 3.34, 3.35, 3.33, 3.28, 3.23, 3.18, 0.88, 0.87, 0.86, 0.85, 0.83, 0.82, 0.81, 0.8, 0.79, 0.78, 0.77, 0.76, 0.75, 0.74, 0.73, 0.72, 0.71, 0.71, 0.71, 0.71, 0.72, 0.72, 0.72, 0.73, 0.73, 0.74, 0.74, 0.75, 0.75, 0.76, 0.76, 0.76, 0.77, 0.77, 0.78, 0.78, 0.79, 1.98, 1.96, 1.94, 1.92, 1.89, 1.87, 1.85, 1.83, 1.81, 1.79, 1.77, 1.75, 1.73, 1.72, 1.7, 1.68, 1.66, 1.64, 1.62, 1.61, 1.59, 1.57, 1.55, 1.54, 1.52, 1.5, 1.49, 1.47, 1.45, 1.44, 1.42, 1.4, 1.39, 1.37, 1.36, 1.34, 1.33, 1.31, 1.29]
40 [2.05, 2.07, 2.08, 2.1, 2.11, 2.13, 2.14, 2.16, 2.17, 2.19, 2.2, 2.22, 2.23, 2.25, 2.26, 2.27, 2.29, 2.3, 2.32, 2.33, 2.35, 2.36, 2.38, 2.39, 2.41, 2.42, 2.44, 2.45, 2.46, 2.48, 2.49, 2.51, 2.52, 2.54, 2.55, 2.57, 2.58, 2.6, 2.61, 2.63, 2.64, 2.66, 2.67, 2.69, 2.7, 2.72, 2.73, 2.75, 2.76, 2.78, 2.8, 2.81, 2.83, 2.84, 2.86, 2.87, 2.89, 2.91, 2.21, 2.16, 2.11, 2.08, 2.09, 2.1, 2.11, 2.12, 2.13, 2.15, 2.16, 2.17, 2.18, 3.14, 3.16, 3.18, 3.2, 3.22, 3.24, 3.25, 3.27, 3.29, 3.31, 3.33, 3.32, 3.28, 3.23, 3.19, 0.87, 0.86, 0.84, 0.83, 0.82, 0.81, 0.8, 0.79, 0.78, 0.78, 0.77, 0.76, 0.75, 0.74, 0.73, 0.72, 0.72, 0.71, 0.72, 0.72, 0.73, 0.73, 0.74, 0.75, 0.75, 0.76, 0.76, 0.77, 0.77, 0.78, 0.79, 0.79, 0.8, 0.8, 0.81, 0.82, 0.82, 2.11, 2.09, 2.07, 2.05, 2.03, 2.01, 1.99, 1.97, 1.95, 1.94, 1.92, 1.9, 1.88, 1.87, 1.85, 1.83, 1.82, 1.8, 1.78, 1.77, 1.75, 1.74, 1.72, 1.71, 1.69, 1.68, 1.66, 1.65, 1.63, 1.62, 1.6, 1.59, 1.57, 1.56, 1.54, 1.53, 1.52, 1.5, 1.49, 1.47, 1.46, 1.45, 1.43, 1.42, 1.41, 1.39, 1.38, 1.37, 1.36, 1.34, 1.33, 1.32, 1.3, 1.29, 1.28, 1.27, 1.25, 1.24, 1.23]
41 [2.02, 2.04, 2.05, 2.07, 2.09, 2.11, 2.12, 2.14, 2.16, 2.18, 2.2, 2.21, 2.23, 2.25, 2.27, 2.29, 2.3, 2.32, 2.34, 2.36, 2.38, 2.4, 2.41, 2.43, 2.45, 2.47, 2.49, 2.51, 2.53, 2.55, 2.57, 2.58, 2.6, 2.62, 2.64, 2.66, 2.68, 2.07, 2.02, 1.98, 1.94, 1.94, 1.96, 1.97, 1.98, 2.0, 2.01, 2.03, 2.04, 2.06, 2.07, 2.99, 3.01, 3.04, 3.06, 3.08, 3.1, 3.13, 3.15, 3.17, 3.2, 3.22, 3.2, 3.16, 3.13, 0.83, 0.82, 0.81, 0.8, 0.79, 0.78, 0.78, 0.77, 0.76, 0.75, 0.74, 0.74, 0.73, 0.72, 0.71, 0.71, 0.7, 0.7, 0.71, 0.71, 0.72, 0.73, 0.73, 0.74, 0.75, 0.75, 0.76, 0.77, 0.77, 0.78, 0.79, 0.79, 0.8, 0.81, 0.82, 0.82, 0.83, 0.84, 2.16, 2.14, 2.13, 2.11, 2.09, 2.08, 2.06, 2.05, 2.03, 2.02, 2.0, 1.99, 1.97, 1.96, 1.94, 1.93, 1.91, 1.9, 1.89, 1.87, 1.86, 1.84, 1.83, 1.82, 1.81, 1.79, 1.78, 1.77, 1.75, 1.74, 1.73, 1.72, 1.7, 1.69, 1.68, 1.67, 1.66, 1.64, 1.63, 1.62, 1.61, 1.6, 1.59, 1.57, 1.56, 1.55, 1.54, 1.53, 1.52, 1.51, 1.5, 1.49, 1.47, 1.46, 1.45, 1.44, 1.43, 1.42, 1.41, 1.4, 1.39, 1.38, 1.37, 1.36, 1.35, 1.34, 1.32, 1.31, 1.3, 1.29, 1.28, 1.27, 1.26, 1.25, 1.24, 1.23, 1.22, 1.21, 1.2]
42 [2.05, 2.08, 2.1, 2.12, 2.14, 2.16, 2.18, 2.21, 2.23, 2.25, 2.27, 2.3, 2.32, 2.34, 2.36, 1.82, 1.78, 1.75, 1.72, 1.73, 1.75, 1.76, 1.78, 1.8, 1.82, 1.83, 1.85, 1.87, 2.7, 2.73, 2.75, 2.78, 2.8, 2.83, 2.86, 2.88, 2.91, 2.94, 2.96, 2.99, 2.99, 0.78, 0.77, 0.76, 0.75, 0.75, 0.74, 0.73, 0.73, 0.72, 0.71, 0.71, 0.7, 0.69, 0.69, 0.68, 0.68, 0.67, 0.67, 0.67, 0.68, 0.69, 0.69, 0.7, 0.71, 0.71, 0.72, 0.73, 0.74, 0.74, 0.75, 0.76, 0.77, 0.78, 0.78, 0.79, 0.8, 0.81, 0.82, 0.83, 2.17, 2.15, 2.14, 2.13, 2.12, 2.1, 2.09, 2.08, 2.06, 2.05, 2.04, 2.03, 2.02, 2.0, 1.99, 1.98, 1.97, 1.96, 1.95, 1.94, 1.93, 1.92, 1.9, 1.89, 1.88, 1.87, 1.86, 1.85, 1.84, 1.83, 1.82, 1.81, 1.8, 1.79, 1.78, 1.77, 1.77, 1.76, 1.75, 1.74, 1.73, 1.72, 1.71, 1.7, 1.69, 1.68, 1.67, 1.66, 1.66, 1.65, 1.64, 1.63, 1.62, 1.61, 1.6, 1.6, 1.59, 1.58, 1.57, 1.56, 1.55, 1.54, 1.54, 1.53, 1.52, 1.51, 1.5, 1.49, 1.49, 1.48, 1.47, 1.46, 1.45, 1.44, 1.44, 1.43, 1.42, 1.41, 1.4, 1.4, 1.39, 1.38, 1.37, 1.36, 1.35, 1.35, 1.34, 1.33, 1.32, 1.31, 1.31, 1.3, 1.29, 1.28, 1.27, 1.26, 1.26, 1.25, 1.24, 1.23, 1.22, 1.21]
43 [2.11, 2.13, 2.16, 1.63, 1.6, 1.58, 1.58, 1.6, 1.61, 1.63, 1.65, 1.67, 1.68, 1.7, 1.72, 1.74, 2.52, 2.55, 2.57, 2.6, 2.63, 2.66, 2.69, 2.71, 2.74, 2.77, 2.8, 2.82, 0.73, 0.72, 0.72, 0.71, 0.7, 0.7, 0.69, 0.69, 0.68, 0.68, 0.67, 0.67, 0.66, 0.66, 0.65, 0.65, 0.64, 0.64, 0.65, 0.65, 0.66, 0.67, 0.68, 0.68, 0.69, 0.7, 0.71, 0.71, 0.72, 0.73, 0.74, 0.75, 0.76, 0.77, 0.78, 0.78, 0.79, 0.8, 0.81, 2.13, 2.12, 2.11, 2.1, 2.09, 2.08, 2.07, 2.06, 2.05, 2.04, 2.03, 2.02, 2.01, 2.0, 1.99, 1.98, 1.97, 1.96, 1.95, 1.94, 1.93, 1.92, 1.91, 1.9, 1.9, 1.89, 1.88, 1.87, 1.86, 1.85, 1.85, 1.84, 1.83, 1.82, 1.81, 1.8, 1.8, 1.79, 1.78, 1.77, 1.77, 1.76, 1.75, 1.74, 1.74, 1.73, 1.72, 1.71, 1.71, 1.7, 1.69, 1.68, 1.68, 1.67, 1.66, 1.65, 1.65, 1.64, 1.63, 1.63, 1.62, 1.61, 1.61, 1.6, 1.59, 1.58, 1.58, 1.57, 1.56, 1.56, 1.55, 1.54, 1.54, 1.53, 1.52, 1.52, 1.51, 1.5, 1.5, 1.49, 1.48, 1.48, 1.47, 1.46, 1.45, 1.45, 1.44, 1.43, 1.43, 1.42, 1.41, 1.41, 1.4, 1.39, 1.39, 1.38, 1.37, 1.37, 1.36, 1.35, 1.34, 1.34, 1.33, 1.32, 1.32, 1.31, 1.3, 1.29, 1.29, 1.28, 1.27, 1.27, 1.26, 1.25, 1.24]
44 [1.54, 1.56, 2.26, 2.29, 2.32, 2.35, 2.38, 2.41, 2.44, 2.47, 2.5, 2.53, 2.56, 2.59, 0.67, 0.67, 0.66, 0.66, 0.65, 0.65, 0.64, 0.64, 0.63, 0.63, 0.62, 0.62, 0.62, 0.61, 0.61, 0.61, 0.6, 0.6, 0.61, 0.62, 0.63, 0.63, 0.64, 0.65, 0.66, 0.67, 0.67, 0.68, 0.69, 0.7, 0.71, 0.72, 0.73, 0.74, 0.75, 0.76, 0.77, 0.78, 2.08, 2.07, 2.06, 2.05, 2.04, 2.03, 2.03, 2.02, 2.01, 2.0, 1.99, 1.98, 1.98, 1.97, 1.96, 1.95, 1.95, 1.94, 1.93, 1.92, 1.92, 1.91, 1.9, 1.9, 1.89, 1.88, 1.88, 1.87, 1.86, 1.86, 1.85, 1.84, 1.84, 1.83, 1.82, 1.82, 1.81, 1.81, 1.8, 1.79, 1.79, 1.78, 1.78, 1.77, 1.76, 1.76, 1.75, 1.75, 1.74, 1.74, 1.73, 1.72, 1.72, 1.71, 1.71, 1.7, 1.7, 1.69, 1.69, 1.68, 1.67, 1.67, 1.66, 1.66, 1.65, 1.65, 1.64, 1.64, 1.63, 1.63, 1.62, 1.62, 1.61, 1.61, 1.6, 1.59, 1.59, 1.58, 1.58, 1.57, 1.57, 1.56, 1.56, 1.55, 1.55, 1.54, 1.54, 1.53, 1.53, 1.52, 1.52, 1.51, 1.51, 1.5, 1.49, 1.49, 1.48, 1.48, 1.47, 1.47, 1.46, 1.46, 1.45, 1.45, 1.44, 1.44, 1.43, 1.42, 1.42, 1.41, 1.41, 1.4, 1.4, 1.39, 1.39, 1.38, 1.37, 1.37, 1.36, 1.36, 1.35, 1.34, 1.34, 1.33, 1.33, 1.32, 1.31, 1.31, 1.3, 1.3]
45 [0.5, 0.5, 0.51, 0.52, 0.53, 0.54, 0.54, 0.55, 0.56, 0.57, 0.58, 0.59, 0.6, 0.61, 0.62, 0.63, 0.64, 0.65, 0.66, 0.67, 0.68, 1.82, 1.81, 1.81, 1.81, 1.81, 1.8, 1.8, 1.8, 1.8, 1.79, 1.79, 1.79, 1.79, 1.78, 1.78, 1.78, 1.78, 1.77, 1.77, 1.77, 1.77, 1.77, 1.76, 1.76, 1.76, 1.76, 1.76, 1.75, 1.75, 1.75, 1.75, 1.75, 1.74, 1.74, 1.74, 1.74, 1.74, 1.73, 1.73, 1.73, 1.73, 1.73, 1.73, 1.72, 1.72, 1.72, 1.72, 1.72, 1.71, 1.71, 1.71, 1.71, 1.71, 1.71, 1.7, 1.7, 1.7, 1.7, 1.7, 1.7, 1.69, 1.69, 1.69, 1.69, 1.69, 1.69, 1.69, 1.68, 1.68, 1.68, 1.68, 1.68, 1.68, 1.67, 1.67, 1.67, 1.67, 1.67, 1.67, 1.66, 1.66, 1.66, 1.66, 1.66, 1.66, 1.66, 1.65, 1.65, 1.65, 1.65, 1.65, 1.65, 1.64, 1.64, 1.64, 1.64, 1.64, 1.64, 1.63, 1.63, 1.63, 1.63, 1.63, 1.63, 1.63, 1.62, 1.62, 1.62, 1.62, 1.62, 1.62, 1.61, 1.61, 1.61, 1.61, 1.61, 1.61, 1.6, 1.6, 1.6, 1.6, 1.6, 1.59, 1.59, 1.59, 1.59, 1.59, 1.59, 1.58, 1.58, 1.58, 1.58, 1.58, 1.57, 1.57, 1.57, 1.57, 1.57, 1.56, 1.56, 1.56, 1.56, 1.56, 1.55, 1.55, 1.55, 1.55, 1.55, 1.54, 1.54, 1.54, 1.54, 1.53, 1.53, 1.53, 1.53, 1.53, 1.52, 1.52, 1.52, 1.52]
46 [1.43, 1.44, 1.44, 1.44, 1.45, 1.45, 1.45, 1.46, 1.46, 1.46, 1.47, 1.47, 1.47, 1.48, 1.48, 1.49, 1.49, 1.49, 1.49, 1.5, 1.5, 1.5, 1.51, 1.51, 1.51, 1.52, 1.52, 1.52, 1.53, 1.53, 1.53, 1.53, 1.54, 1.54, 1.54, 1.55, 1.55, 1.55, 1.55, 1.56, 1.56, 1.56, 1.57, 1.57, 1.57, 1.57, 1.58, 1.58, 1.58, 1.59, 1.59, 1.59, 1.59, 1.6, 1.6, 1.6, 1.6, 1.61, 1.61, 1.61, 1.61, 1.62, 1.62, 1.62, 1.62, 1.63, 1.63, 1.63, 1.64, 1.64, 1.64, 1.64, 1.65, 1.65, 1.65, 1.65, 1.66, 1.66, 1.66, 1.66, 1.67, 1.67, 1.67, 1.67, 1.68, 1.68, 1.68, 1.69, 1.69, 1.69, 1.69, 1.7, 1.7, 1.7, 1.7, 1.71, 1.71, 1.71, 1.71, 1.72, 1.72, 1.72, 1.73, 1.73, 1.73, 1.73, 1.74, 1.74, 1.74, 1.75, 1.75, 1.75, 1.75, 1.76, 1.76, 1.76, 1.77, 1.77, 1.77, 1.78, 1.78, 1.78, 1.79, 1.79, 1.79, 1.8, 1.8, 1.8, 1.81, 1.81, 1.81, 1.82, 1.82, 1.82, 1.83, 1.83, 1.83, 1.84, 1.84, 1.84, 1.85, 1.85, 1.86, 1.86, 1.86, 1.87, 1.87, 1.88, 1.88, 1.89, 1.89, 1.89, 1.9, 1.9, 1.91, 1.91, 1.92, 1.92, 1.93, 1.93, 1.94, 1.94, 1.95, 1.95, 1.96, 1.96, 1.97, 1.94, 1.92, 1.89, 1.86, 1.83, 1.81, 0.64, 0.63, 0.62, 0.61, 0.6, 0.59, 0.58, 0.57, 0.57]
47 [1.32, 1.33, 1.33, 1.34, 1.34, 1.35, 1.35, 1.36, 1.37, 1.37, 1.38, 1.38, 1.39, 1.39, 1.4, 1.4, 1.41, 1.41, 1.42, 1.42, 1.43, 1.43, 1.44, 1.44, 1.45, 1.45, 1.46, 1.46, 1.47, 1.47, 1.48, 1.48, 1.49, 1.49, 1.49, 1.5, 1.5, 1.51, 1.51, 1.52, 1.52, 1.53, 1.53, 1.54, 1.54, 1.54, 1.55, 1.55, 1.56, 1.56, 1.57, 1.57, 1.58, 1.58, 1.59, 1.59, 1.59, 1.6, 1.6, 1.61, 1.61, 1.62, 1.62, 1.63, 1.63, 1.64, 1.64, 1.64, 1.65, 1.65, 1.66, 1.66, 1.67, 1.67, 1.68, 1.68, 1.69, 1.69, 1.69, 1.7, 1.7, 1.71, 1.71, 1.72, 1.72, 1.73, 1.73, 1.74, 1.74, 1.75, 1.75, 1.76, 1.76, 1.77, 1.77, 1.78, 1.78, 1.79, 1.79, 1.8, 1.8, 1.81, 1.81, 1.82, 1.82, 1.83, 1.84, 1.84, 1.85, 1.85, 1.86, 1.86, 1.87, 1.88, 1.88, 1.89, 1.89, 1.9, 1.91, 1.91, 1.92, 1.92, 1.93, 1.94, 1.94, 1.95, 1.96, 1.96, 1.97, 1.98, 1.99, 1.99, 2.0, 2.01, 2.01, 2.02, 2.03, 2.04, 2.05, 2.05, 2.06, 2.07, 2.08, 2.09, 2.1, 2.11, 2.11, 2.12, 2.13, 2.14, 2.15, 2.14, 2.11, 2.09, 2.06, 2.03, 2.01, 0.7, 0.69, 0.68, 0.68, 0.67, 0.66, 0.65, 0.64, 0.63, 0.63, 0.62, 0.61, 0.6, 0.6, 0.59, 0.58, 0.57, 0.57, 0.56, 0.55, 0.54, 0.54, 0.53, 10.0, 0.0]
48 [1.25, 1.26, 1.27, 1.28, 1.28, 1.29, 1.3, 1.3, 1.31, 1.32, 1.32, 1.33, 1.34, 1.34, 1.35, 1.36, 1.36, 1.37, 1.38, 1.38, 1.39, 1.39, 1.4, 1.41, 1.41, 1.42, 1.43, 1.43, 1.44, 1.44, 1.45, 1.46, 1.46, 1.47, 1.48, 1.48, 1.49, 1.49, 1.5, 1.51, 1.51, 1.52, 1.53, 1.53, 1.54, 1.54, 1.55, 1.56, 1.56, 1.57, 1.58, 1.58, 1.59, 1.59, 1.6, 1.61, 1.61, 1.62, 1.63, 1.63, 1.64, 1.64, 1.65, 1.66, 1.66, 1.67, 1.68, 1.68, 1.69, 1.7, 1.7, 1.71, 1.72, 1.72, 1.73, 1.74, 1.74, 1.75, 1.76, 1.76, 1.77, 1.78, 1.79, 1.79, 1.8, 1.81, 1.81, 1.82, 1.83, 1.84, 1.84, 1.85, 1.86, 1.87, 1.87, 1.88, 1.89, 1.9, 1.91, 1.91, 1.92, 1.93, 1.94, 1.95, 1.96, 1.96, 1.97, 1.98, 1.99, 2.0, 2.01, 2.02, 2.03, 2.04, 2.05, 2.06, 2.07, 2.08, 2.09, 2.1, 2.11, 2.12, 2.13, 2.14, 2.15, 2.16, 2.17, 2.18, 2.19, 2.21, 2.22, 2.23, 2.24, 2.26, 2.27, 2.28, 2.29, 2.27, 2.24, 2.21, 2.19, 2.16, 0.76, 0.75, 0.74, 0.73, 0.72, 0.71, 0.71, 0.7, 0.69, 0.68, 0.68, 0.67, 0.66, 0.65, 0.65, 0.64, 0.63, 0.62, 0.62, 0.61, 0.6, 0.6, 0.59, 0.58, 0.58, 0.59, 0.59, 0.6, 0.61, 0.61, 0.62, 0.63, 0.64, 0.64, 0.65, 0.66, 1.43, 1.41, 1.39, 1.38]
49 [1.25, 1.26, 1.27, 1.28, 1.28, 1.29, 1.3, 1.3, 1.31, 1.32, 1.32, 1.33, 1.34, 1.34, 1.35, 1.36, 1.36, 1.37, 1.38, 1.38, 1.39, 1.39, 1.4, 1.41, 1.41, 1.42, 1.43, 1.43, 1.44, 1.44, 1.45, 1.46, 1.46, 1.47, 1.48, 1.48, 1.49, 1.49, 1.5, 1.51, 1.51, 1.52, 1.53, 1.53, 1.54, 1.54, 1.55, 1.56, 1.56, 1.57, 1.58, 1.58, 1.59, 1.59, 1.6, 1.61, 1.61, 1.62, 1.63, 1.63, 1.64, 1.64, 1.65, 1.66, 1.66, 1.67, 1.68, 1.68, 1.69, 1.7, 1.7, 1.71, 1.72, 1.72, 1.73, 1.74, 1.74, 1.75, 1.76, 1.76, 1.77, 1.78, 1.79, 1.79, 1.8, 1.81, 1.81, 1.82, 1.83, 1.84, 1.84, 1.85, 1.86, 1.87, 1.87, 1.88, 1.89, 1.9, 1.91, 1.91, 1.92, 1.93, 1.94, 1.95, 1.96, 1.96, 1.97, 1.98, 1.99, 2.0, 2.01, 2.02, 2.03, 2.04, 2.05, 2.06, 2.07, 2.08, 2.09, 2.1, 2.11, 2.12, 2.13, 2.14, 2.15, 2.16, 2.17, 2.18, 2.19, 2.21, 2.22, 2.23, 2.24, 2.26, 2.27, 2.28, 2.29, 2.27, 2.24, 2.21, 2.19, 2.16, 0.76, 0.75, 0.74, 0.73, 0.72, 0.71, 0.71, 0.7, 0.69, 0.68, 0.68, 0.67, 0.66, 0.65, 0.65, 0.64, 0.63, 0.62, 0.62, 0.61, 0.6, 0.6, 0.59, 0.58, 0.58, 0.59, 0.59, 0.6, 0.61, 0.61, 0.62, 0.63, 0.64, 0.64, 0.65, 0.66, 1.43, 1.41, 1.39, 1.38]
