0 -1
1 -1
2 -1
3 -1
4 -1
5 -1
6 -1
7 -1
8 -1
9 -1
10 -1
11 194389
12 194389
13 328163
14 187624
15 312621
16 116259
17 112549
18 78249
19 121
20 234444
21 312569
22 312610
23 234454
24 312595
25 312612
26 15020
27 15020
28 78670
29 18773
30 312501
31 312501
32 234486
33 234495
34 234395
35 310634
36 263759
37 186259
38 331274
39 296383
40 296383
41 -1
42 56013
43 312504
44 312504
45 375004
46 40508
47 313003
48 23658
49 312504
50 62500
51 62500
52 90625
53 312500
54 152500
55 312500
56 78625
57 12500
58 76525
59 15100
60 12520
61 11835
62 3004
63 1736
64 972
65 375000
66 312800
67 62520
68 12500
69 20
70 328125
71 350120
72 312500
73 312620
74 388875
75 388875
76 12426
77 12427
78 316375
79 314500
80 6231
81 6231
82 375500
83 4990
84 4990
85 4370
86 44100
87 4121
88 249
89 46320
90 24
91 62620
92 100
93 3004
94 331879
95 500
96 500
97 37520
98 -1
99 68755
100 390400
101 387300
102 387300
103 293680
104 70024
105 292455
106 370580
107 363138
108 370580
109 370580
110 363128
111 292455
112 390523
113 390500
114 15504
115 78149
116 4
117 15500
118 15500
119 100860
120 4
