0,6055269241333 -1,7749983072281
0,60554653406143 -1,7731368541718
0,60558354854584 -1,7674051523209
0,60565167665482 -1,7582021951675
0,6056632399559 -1,7483364343643
0,60568034648895 -1,7386125326157
0,60570859909058 -1,7288545370102
0,60574728250504 -1,7190959453583
0,60577481985092 -1,7093334197998
0,60584408044815 -1,6995890140533
0,60589301586151 -1,6898584365845
0,60596269369125 -1,6801360845566
0,60598146915436 -1,6703774929047
0,60614740848541 -1,6606388092041
0,60633939504623 -1,6511375904083
0,60655122995377 -1,6418116092682
0,60676872730255 -1,6325159072876
0,60685330629349 -1,6230274438858
0,60706162452698 -1,6135637760162
0,607202231884 -1,6038678884506
0,60733616352081 -1,5941525697708
0,60758823156357 -1,5848748683929
0,60759454965591 -1,5759007930756
0,60759156942368 -1,5669906139374
0,60752236843109 -1,5581444501877
0,60739362239838 -1,5493850708008
0,60729509592056 -1,5407502651215
0,60721063613892 -1,5321786403656
0,60715043544769 -1,5236763954163
0,60709470510483 -1,5152549743652
0,607077896595 -1,5069000720978
0,60710465908051 -1,498601436615
0,60714137554169 -1,4903885126114
0,60720711946487 -1,4822281599045
0,60730063915253 -1,474128484726
0,60742104053497 -1,4660639762878
0,60759794712067 -1,4580067396164
0,60782730579376 -1,4499065876007
0,60810154676437 -1,4417585134506
0,60840725898743 -1,4335999488831
0,60880064964294 -1,4254112243652
0,60924261808395 -1,4171824455261
0,60972487926483 -1,4089341163635
0,61025011539459 -1,4006382226944
0,61083018779755 -1,3922924995422
0,61146509647369 -1,3838982582092
0,61214202642441 -1,3755288124084
0,61286282539368 -1,3670837879181
0,61350667476654 -1,3596135377884
0,6138950586319 -1,3530187606812
0,61415374279022 -1,346654176712
0,61444580554962 -1,3402001857758
0,61488324403763 -1,3331483602524
0,61556458473206 -1,3258495330811
0,61641019582748 -1,3184788227081
0,61736261844635 -1,3111054897308
0,61839944124222 -1,3037244081497
0,6195096373558 -1,2963334321976
0,6206995844841 -1,2889450788498
0,62197482585907 -1,2815363407135
0,623330950737 -1,2741038799286
0,62476992607117 -1,2666548490524
0,62629121541977 -1,2591989040375
0,62791347503662 -1,2516937255859
0,62961179018021 -1,2441753149033
0,63139569759369 -1,2366309165955
0,63326847553253 -1,2290545701981
0,63523507118225 -1,2214353084564
0,63727986812592 -1,2137885093689
0,63941538333893 -1,2061264514923
0,641641497612 -1,1984133720398
0,6439500451088 -1,1906644105911
0,64634001255035 -1,1828860044479
0,64881122112274 -1,1750870943069
0,65136635303497 -1,1672312021255
0,65400516986847 -1,1593352556229
0,6567308306694 -1,1513950824738
0,65953171253204 -1,1434352397919
0,66240483522415 -1,1354366540909
0,6653653383255 -1,1273925304413
0,66857397556305 -1,1186434030533
0,67214846611023 -1,1095545291901
0,67581379413605 -1,1005177497864
0,67949426174164 -1,0915057659149
0,6831773519516 -1,0824756622314
0,68683660030365 -1,0734654664993
0,69050073623657 -1,0644313097
0,69416224956512 -1,0553957223892
0,69782376289368 -1,0463359355927
0,70146608352661 -1,0373132228851
0,70512169599533 -1,0282719135284
0,70876830816269 -1,0192424058914
0,71242380142212 -1,0101974010468
0,71607053279877 -1,0011658668518
0,71972465515137 -0,99211895465851
0,72337621450424 -0,98307818174362
0,72702091932297 -0,9740549325943
0,73067057132721 -0,96500968933105
0,73432213068008 -0,95596045255661
0,73796117305756 -0,94693899154663
0,74162077903748 -0,93788510560989
0,74527585506439 -0,92884129285812
0,74892032146454 -0,91980743408203
0,75257080793381 -0,91076451539993
0,75621825456619 -0,90172779560089
0,75986683368683 -0,89268970489502
0,76351982355118 -0,8836562037468
0,76716655492783 -0,87461233139038
0,77081376314163 -0,86557281017303
0,77446115016937 -0,85653573274612
0,77811968326569 -0,8474930524826
0,78177803754807 -0,83845281600952
0,78542411327362 -0,82941901683807
0,78907400369644 -0,8203632235527
0,79272031784058 -0,81132680177689
0,7963679432869 -0,80229103565216
0,80002248287201 -0,79324400424957
0,80366849899292 -0,78420704603195
0,80731296539307 -0,77517175674438
0,81095993518829 -0,76613360643387
0,81461012363434 -0,7570983171463
0,81826323270798 -0,74805152416229
0,82192438840866 -0,73900413513184
0,82556819915771 -0,72997629642487
0,82924377918243 -0,7209244966507
0,83289700746536 -0,71188151836395
0,8365495800972 -0,70284056663513
0,84019261598587 -0,69381505250931
0,84384059906006 -0,68477988243103
0,84747093915939 -0,67579877376556
0,85105258226395 -0,66695648431778
0,85457813739777 -0,65822064876556
0,85805761814117 -0,64961725473404
0,86148262023926 -0,6411372423172
0,86486434936523 -0,63278126716614
0,86820536851883 -0,62453043460846
0,87149971723557 -0,61639988422394
0,8747336268425 -0,60839855670929
0,87786912918091 -0,6006184220314
0,88090705871582 -0,59311312437057
0,88385283946991 -0,58583706617355
0,88670933246613 -0,5787867307663
0,88948047161102 -0,57198190689087
0,89215487241745 -0,56543511152267
0,89473181962967 -0,55907118320465
0,89722979068756 -0,55295765399933
0,89964616298676 -0,54704087972641
0,90197449922562 -0,54132694005966
0,90423220396042 -0,53578948974609
0,90638715028763 -0,53044760227203
0,90847158432007 -0,52528560161591
0,91045820713043 -0,52029812335968
0,91236817836761 -0,51551359891891
0,91421568393707 -0,51087439060211
0,91599035263062 -0,50636565685272
0,9176829457283 -0,50207591056824
0,9193269610405 -0,4978933930397
0,9208847284317 -0,49391880631447
0,92240035533905 -0,49002155661583
0,92441302537918 -0,4846530854702
0,92642515897751 -0,47864073514938
0,92829096317291 -0,47292846441269
0,93008089065552 -0,46734738349915
0,93180400133133 -0,46191120147705
0,93346720933914 -0,45665010809898
0,93502557277679 -0,45234069228172
0,9364527463913 -0,44863858819008
0,93782091140747 -0,44509643316269
0,93914043903351 -0,44167789816856
0,94039583206177 -0,43836975097656
0,94159066677094 -0,43518781661987
0,9427353143692 -0,43211403489113
0,9437238574028 -0,42988935112953
0,94470632076263 -0,42808875441551
0,94575101137161 -0,42639794945717
0,94683849811554 -0,42367658019066
0,94791525602341 -0,42093601822853
0,94896125793457 -0,41836443543434
0,94992446899414 -0,41593760251999
0,95089197158813 -0,41354376077652
0,95175015926361 -0,41008496284485
0,95248824357986 -0,40599671006203
0,95297068357468 -0,40202584862709
0,95346164703369 -0,39813849329948
0,95390331745148 -0,39436602592468
0,95424270629883 -0,39070564508438
0,9546177983284 -0,38712844252586
0,9549166560173 -0,38350388407707
0,95522624254227 -0,3799704015255
0,95549124479294 -0,37647998332977
0,95563638210297 -0,3730121254921
0,95546644926071 -0,36824718117714
0,9549812078476 -0,36287468671799
0,95450621843338 -0,35812631249428
0,95431768894196 -0,35382962226868
0,95420551300049 -0,3497519493103
0,95398062467575 -0,34562334418297
0,95360696315765 -0,34144812822342
0,95303612947464 -0,33701652288437
0,95203197002411 -0,33184546232224
0,95082360506058 -0,32657369971275
0,9497931599617 -0,32219523191452
0,94912070035934 -0,3182592689991
0,94888210296631 -0,31499573588371
0,9482519030571 -0,31096059083939
0,94708263874054 -0,30607956647873
0,94533187150955 -0,30094435811043
0,9434357881546 -0,29593235254288
0,94131660461426 -0,29071694612503
0,93901586532593 -0,28546121716499
0,93662852048874 -0,2802098095417
0,93408048152924 -0,27488213777542
0,93135625123978 -0,26965945959091
0,92835891246796 -0,26428696513176
0,92521971464157 -0,25892335176468
0,92189788818359 -0,25359010696411
0,91843909025192 -0,24824395775795
0,91474151611328 -0,2428172826767
0,91085565090179 -0,23737689852715
0,906762778759 -0,23187470436096
0,90247571468353 -0,22631220519543
0,89802944660187 -0,22077877819538
0,89332407712936 -0,21521747112274
0,88786268234253 -0,20909735560417
0,88171052932739 -0,20254914462566
0,87482178211212 -0,19576986134052
0,86782389879227 -0,18897974491119
0,86081457138062 -0,18219947814941
0,85381096601486 -0,17544166743755
0,84678220748901 -0,16864001750946
0,83980512619019 -0,16188597679138
0,83281278610229 -0,15508428215981
0,82586938142776 -0,14831891655922
0,81910705566406 -0,14170807600021
0,8126312494278 -0,13533334434032
0,80653935670853 -0,12930682301521
0,80088168382645 -0,12368889153004
0,79566466808319 -0,11844167858362
0,79076570272446 -0,11352578550577
0,78612911701202 -0,10888804495335
0,78138220310211 -0,10413672029972
0,77631598711014 -0,099224351346493
0,7711273431778 -0,094208940863609
0,76596242189407 -0,08924239128828
0,76094162464142 -0,08443795144558
0,75600677728653 -0,079722665250301
0,75110709667206 -0,075079061090946
0,74618566036224 -0,070458725094795
0,74115878343582 -0,065784268081188
0,73595535755157 -0,061012655496597
0,73056280612946 -0,056075148284435
0,72489577531815 -0,050992738455534
0,71891438961029 -0,045725055038929
0,71262788772583 -0,04025025293231
0,70610821247101 -0,034611135721207
0,69944965839386 -0,028881657868624
0,69273674488068 -0,023127177730203
0,68600213527679 -0,017371779307723
0,67928093671799 -0,011630385182798
0,67275983095169 -0,006046699360013
0,66647887229919 -0,00063840503571555
0,66038453578949 0,0046202437952161
0,65440773963928 0,0097550479695201
0,64855664968491 0,014806824736297
0,64285719394684 0,019730223342776
0,63738620281219 0,024386154487729
0,63225847482681 0,028884116560221
0,62758195400238 0,033012587577105
0,62345850467682 0,036757025867701
0,61965310573578 0,040221385657787
0,61607128381729 0,0435457713902
0,61270177364349 0,046645503491163
0,61034488677979 0,049083050340414
0,60871207714081 0,051117688417435
0,60741937160492 0,052986957132816
0,60657608509064 0,054698891937733
0,60571825504303 0,056308507919312
0,60547572374344 0,057662654668093
0,60476022958755 0,05931580811739
0,60452216863632 0,06062238663435
0,60386550426483 0,062235973775387
0,60260140895844 0,063990607857704
0,60074520111084 0,065908223390579
0,59761077165604 0,068089343607426
0,59346103668213 0,070390775799751
0,58923661708832 0,072582371532917
0,5848103761673 0,074697203934193
0,58053553104401 0,076690681278706
0,57596027851105 0,078666709363461
0,57103711366653 0,080591350793839
0,5658073425293 0,082375101745129
0,56017076969147 0,084106765687466
0,55370485782623 0,085832580924034
0,54640847444534 0,087416753172874
0,53894519805908 0,08886031806469
0,53136610984802 0,090202584862709
0,52362096309662 0,09147571772337
0,51606684923172 0,092668399214745
0,50866663455963 0,093804322183132
0,50164830684662 0,094974957406521
0,49500846862793 0,096099361777306
0,48863679170609 0,097155511379242
0,48244446516037 0,098067708313465
0,47623863816261 0,098956122994423
0,47013387084007 0,099790088832378
0,46421933174133 0,1005050688982
0,45831733942032 0,10116223990917
0,45245376229286 0,10172901302576
0,44682964682579 0,10216765105724
0,44093436002731 0,10247155278921
0,43474578857422 0,1025822982192
0,42845684289932 0,10247687995434
0,42197775840759 0,10226731002331
0,41553729772568 0,1019788980484
0,40897908806801 0,10156714916229
0,40211898088455 0,10092359781265
0,39508554339409 0,10010296106339
0,38782525062561 0,099077835679054
0,38030883669853 0,097784340381622
0,37254628539085 0,096352517604828
0,36452001333237 0,094683356583118
0,35618931055069 0,092836774885654
0,34747609496117 0,090741060674191
0,33817061781883 0,088379614055157
0,32875034213066 0,085873611271381
0,31935468316078 0,083303764462471
0,30992823839188 0,080801293253899
0,30051383376122 0,07827914506197
0,29110252857208 0,075784862041473
0,28167286515236 0,073272615671158
0,27227154374123 0,070770069956779
0,26285719871521 0,068256124854088
0,25342518091202 0,06574858725071
0,24401065707207 0,06324577331543
0,23459219932556 0,060743797570467
0,22518685460091 0,058246873319149
0,21575033664703 0,055735439062119
0,20633101463318 0,053234301507473
0,19692552089691 0,050734221935272
0,18750324845314 0,048237171024084
0,17808395624161 0,045730702579021
0,1686700284481 0,043234907090664
0,1592575609684 0,040729276835918
0,14982710778713 0,038206361234188
0,14039859175682 0,035703979432583
0,13099981844425 0,033196873962879
0,12157428264618 0,030680079013109
0,11214419454336 0,028174858540297
0,10273083299398 0,025671448558569
0,093322969973087 0,023168219253421
0,083887748420238 0,020665155723691
0,074462674558163 0,018175439909101
0,065045222640038 0,015673505142331
0,055626429617405 0,013176162727177
0,046190209686756 0,010665440931916
0,036789070814848 0,0081792147830129
0,027365531772375 0,0056699523702264
0,017945097759366 0,0031696129590273
0,0085214506834745 0,0006573898717761
-0,00089872907847166 -0,0018391273915768
-0,010320519097149 -0,0043414360843599
-0,019750628620386 -0,0068443203344941
-0,029169011861086 -0,0093443859368563
-0,038586441427469 -0,011848563328385
-0,048002943396568 -0,014353823848069
-0,057426922023296 -0,016856851056218
-0,066841877996922 -0,019354263320565
-0,076262980699539 -0,02185470238328
-0,085685133934021 -0,024352556094527
-0,095108702778816 -0,026850383728743
-0,10452923923731 -0,029350936412811
-0,11392909288406 -0,031864956021309
-0,12336460500956 -0,03436966240406
-0,1327795535326 -0,036884136497974
-0,14220651984215 -0,039400082081556
-0,15161997079849 -0,041899401694536
-0,16105833649635 -0,044417329132557
-0,17045827209949 -0,046911306679249
-0,17984583973885 -0,049414526671171
-0,18930642306805 -0,051927924156189
-0,19871070981026 -0,054431565105915
-0,20813670754433 -0,056938637048006
-0,21756510436535 -0,059434752911329
-0,22697046399117 -0,061940558254719
-0,23638188838959 -0,064438208937645
-0,24581880867481 -0,066933795809746
-0,25523620843887 -0,069446288049221
-0,26466137170792 -0,071961499750614
-0,27408543229103 -0,074465602636337
-0,28342074155807 -0,076955616474152
-0,29268637299538 -0,079409338533878
-0,30182009935379 -0,081831447780132
-0,3108229637146 -0,084193363785744
-0,31972959637642 -0,086520686745644
-0,32848224043846 -0,088812753558159
-0,33712044358253 -0,091070301830769
-0,34550452232361 -0,093228831887245
-0,35366168618202 -0,095346532762051
-0,36155271530151 -0,097374781966209
-0,36923384666443 -0,099355846643448
-0,37664800882339 -0,10127099603415
-0,3838572204113 -0,10313819348812
-0,39083179831505 -0,10495802015066
-0,39762926101685 -0,10674049705267
-0,40422335267067 -0,1084770783782
-0,41056951880455 -0,11016394197941
-0,41674166917801 -0,11185099929571
-0,42269095778465 -0,11347683519125
-0,42852085828781 -0,11509121954441
-0,43412509560585 -0,11668564379215
-0,43958431482315 -0,11825833469629
-0,44487366080284 -0,11980446428061
-0,45003587007523 -0,12129603326321
-0,45505422353745 -0,1227164119482
-0,45991763472557 -0,12416914850473
-0,46455436944962 -0,12566801905632
-0,47049027681351 -0,12783892452717
-0,47711461782455 -0,13053105771542
-0,48363932967186 -0,13331316411495
-0,49006938934326 -0,13611648976803
-0,49642577767372 -0,13889971375465
-0,50257408618927 -0,14160294830799
-0,50873482227325 -0,14442330598831
-0,51489728689194 -0,14730958640575
-0,52091163396835 -0,15019109845161
-0,52688491344452 -0,15307608246803
-0,53276336193085 -0,15606425702572
-0,53852319717407 -0,15903797745705
-0,54372215270996 -0,16163837909698
-0,54828733205795 -0,16370402276516
-0,55233693122864 -0,16534835100174
-0,55722844600677 -0,16777500510216
-0,56278073787689 -0,17079722881317
-0,56824719905853 -0,17408716678619
-0,57349717617035 -0,1773256957531
-0,57855767011642 -0,18051615357399
-0,58338248729706 -0,18355152010918
-0,58803635835648 -0,18654796481133
-0,59311920404434 -0,18997839093208
-0,5980686545372 -0,19360095262527
-0,60285097360611 -0,19717882573605
-0,60757821798325 -0,20078563690186
-0,61233860254288 -0,2045533657074
-0,61699086427689 -0,20846524834633
-0,62174946069717 -0,21253482997417
-0,62647646665573 -0,21671056747437
-0,6309649348259 -0,2208000421524
-0,63555061817169 -0,22523105144501
-0,6401349902153 -0,22979286313057
-0,64458680152893 -0,23446767032146
-0,64904129505157 -0,23929591476917
-0,65351676940918 -0,24440589547157
-0,65795266628265 -0,24973455071449
-0,66239750385284 -0,2552889585495
-0,66684740781784 -0,26107615232468
-0,67135661840439 -0,26717522740364
-0,67593270540237 -0,2735903263092
-0,68046933412552 -0,28020310401917
-0,68500798940659 -0,28700470924377
-0,68969905376434 -0,29430189728737
-0,69432133436203 -0,30176454782486
-0,69919556379318 -0,30995097756386
-0,70409572124481 -0,31839996576309
-0,70892471075058 -0,32684016227722
-0,71377235651016 -0,33532959222794
-0,71862089633942 -0,34377783536911
-0,72349673509598 -0,35221338272095
-0,72838944196701 -0,36063119769096
-0,73329120874405 -0,36908021569252
-0,73818844556808 -0,37750744819641
-0,74303615093231 -0,38586327433586
-0,74780142307281 -0,39408472180367
-0,75250178575516 -0,40213662385941
-0,75709801912308 -0,40999788045883
-0,76158368587494 -0,41768139600754
-0,76599901914597 -0,42520585656166
-0,77030789852142 -0,4325795173645
-0,77451813220978 -0,43980899453163
-0,77863544225693 -0,4468794465065
-0,78269022703171 -0,45385384559631
-0,78664779663086 -0,46067157387733
-0,79053348302841 -0,46736663579941
-0,7943240404129 -0,47394490242004
-0,79804253578186 -0,48038205504417
-0,80167627334595 -0,48677438497543
-0,80523645877838 -0,49302926659584
-0,80871230363846 -0,49920177459717
-0,81211757659912 -0,5052735209465
-0,81545370817184 -0,511270403862
-0,81873333454132 -0,51719272136688
-0,82193601131439 -0,52301967144012
-0,82507050037384 -0,52877646684647
-0,82815539836884 -0,53448915481567
-0,83117759227753 -0,54013121128082
-0,83413076400757 -0,54572570323944
-0,83702164888382 -0,55127257108688
-0,83987271785736 -0,55674183368683
-0,842604637146 -0,56207203865051
-0,84567624330521 -0,56820142269135
-0,84864938259125 -0,57427382469177
-0,85157215595245 -0,58027201890945
-0,85395783185959 -0,58514553308487
-0,85607194900513 -0,58893156051636
-0,85816782712936 -0,59236115217209
-0,8602369427681 -0,5957612991333
-0,86225593090057 -0,59912550449371
-0,86423969268799 -0,60256069898605
-0,8661607503891 -0,60607689619064
-0,86805611848831 -0,60957366228104
-0,86975717544556 -0,61275750398636
-0,87148487567902 -0,61622220277786
-0,87314194440842 -0,61994969844818
-0,87472474575043 -0,62369930744171
-0,87617921829224 -0,62749391794205
-0,87768304347992 -0,63154524564743
-0,87916958332062 -0,63567197322845
-0,88056516647339 -0,63997662067413
-0,8820880651474 -0,64552772045135
-0,88352024555206 -0,65193724632263
-0,88477098941803 -0,65839850902557
-0,88596284389496 -0,66494196653366
-0,88706904649734 -0,67144709825516
-0,88814508914948 -0,67742145061493
-0,88918352127075 -0,68331432342529
-0,89019167423248 -0,68919670581818
-0,89102840423584 -0,6939976811409
-0,8919603228569 -0,69793778657913
-0,89297533035278 -0,70097649097443
-0,89418351650238 -0,70389586687088
-0,89525663852692 -0,70721065998077
-0,89597737789154 -0,71157324314117
-0,89656418561935 -0,71680319309235
-0,89677542448044 -0,7226625084877
-0,89665877819061 -0,72881650924683
-0,89633274078369 -0,73527872562408
-0,89585816860199 -0,74167788028717
-0,89531022310257 -0,74810230731964
-0,89470463991165 -0,75458920001984
-0,89394408464432 -0,7611135840416
-0,89305400848389 -0,76764702796936
-0,89200794696808 -0,77419847249985
-0,89089334011078 -0,78081148862839
-0,88968074321747 -0,7874630689621
-0,88832819461823 -0,79408270120621
-0,88688850402832 -0,80075776576996
-0,88538217544556 -0,80740517377853
-0,88368159532547 -0,81406909227371
-0,88186377286911 -0,82076966762543
-0,87994468212128 -0,82749289274216
-0,87788784503937 -0,83433324098587
-0,87528878450394 -0,84189987182617
-0,87211245298386 -0,85027551651001
-0,8682724237442 -0,85916316509247
-0,86438292264938 -0,8681298494339
-0,86044520139694 -0,8770654797554
-0,85655558109283 -0,88598793745041
-0,85266530513763 -0,89494627714157
-0,84880602359772 -0,90392434597015
-0,84495258331299 -0,91287976503372
-0,84111785888672 -0,92183464765549
-0,83727264404297 -0,93079364299774
-0,83343756198883 -0,93974411487579
-0,82958698272705 -0,94871455430984
-0,82573986053467 -0,95767867565155
-0,82190227508545 -0,96663045883179
-0,81807118654251 -0,97559118270874
-0,81422984600067 -0,98457109928131
-0,81039619445801 -0,99351423978806
-0,80654668807983 -1,0024622678757
-0,80270177125931 -1,0114144086838
-0,79887253046036 -1,0203628540039
-0,79502642154694 -1,0293247699738
-0,7911770939827 -1,0383032560349
-0,78735256195068 -1,047244310379
-0,78350484371185 -1,0562214851379
-0,77967131137848 -1,0651891231537
-0,77583426237106 -1,0741239786148
-0,77199590206146 -1,0830861330032
-0,76814883947372 -1,0920572280884
-0,76431131362915 -1,1010091304779
-0,76046669483185 -1,1099761724472
-0,75662952661514 -1,1189382076263
-0,75279456377029 -1,1279088258743
-0,74895870685577 -1,1368520259857
-0,74512284994125 -1,1458072662354
-0,74128890037537 -1,1547718048096
-0,73744815587997 -1,1637312173843
-0,73363071680069 -1,1726754903793
-0,72978723049164 -1,1816363334656
-0,72594743967056 -1,1905895471573
-0,7221063375473 -1,1995675563812
-0,7182742357254 -1,2085158824921
-0,71442472934723 -1,2174618244171
-0,71058905124664 -1,2264248132706
-0,70675361156464 -1,2353761196136
-0,70290744304657 -1,2443352937698
-0,69904375076294 -1,253317117691
-0,69520598649979 -1,262264251709
-0,69135677814484 -1,2712270021439
-0,68753015995026 -1,2801841497421
-0,6836804151535 -1,2891497612
-0,67985141277313 -1,2981070280075
-0,67599618434906 -1,3070727586746
-0,67214787006378 -1,3160177469254
-0,66830945014954 -1,3249886035919
-0,66445869207382 -1,3339455127716
-0,66062432527542 -1,3428976535797
-0,65677583217621 -1,3518596887589
-0,65293920040131 -1,3608329296112
-0,64910233020782 -1,3697636127472
-0,64526569843292 -1,3787332773209
-0,64143407344818 -1,3876965045929
-0,63760060071945 -1,3966652154922
-0,63376700878143 -1,4056081771851
-0,62992423772812 -1,414568901062
-0,62607461214066 -1,4235450029373
-0,62222063541412 -1,4325011968613
-0,61839425563812 -1,4414526224136
-0,6145533323288 -1,450413942337
-0,61069774627686 -1,4593795537949
-0,60686123371124 -1,4683306217194
-0,60311722755432 -1,4770793914795
-0,59948837757111 -1,4856381416321
-0,59596145153046 -1,4939392805099
-0,59255707263947 -1,5019627809525
-0,58931893110275 -1,5096763372421
-0,58626371622086 -1,5170676708221
-0,58335417509079 -1,5241369009018
-0,58057343959808 -1,5308380126953
-0,57795238494873 -1,5371568202972
-0,57543778419495 -1,5431516170502
-0,57308393716812 -1,5488532781601
-0,57084178924561 -1,5543203353882
-0,56877052783966 -1,5594062805176
-0,56676119565964 -1,5642765760422
-0,56486976146698 -1,5687838792801
-0,56300437450409 -1,5732071399689
-0,56126344203949 -1,5774028301239
-0,55958807468414 -1,5813839435577
-0,55798929929733 -1,5852028131485
-0,55646109580994 -1,5887798070908
-0,5549727678299 -1,5921914577484
-0,55361604690552 -1,5954320430756
-0,55220812559128 -1,5986460447311
-0,55088371038437 -1,6017013788223
-0,5495685338974 -1,6047089099884
-0,54830080270767 -1,6075531244278
-0,54709374904633 -1,6103019714355
-0,54580283164978 -1,6130872964859
-0,54450261592865 -1,6157419681549
-0,54329186677933 -1,6183860301971
-0,54206538200378 -1,6209976673126
-0,54089742898941 -1,6235239505768
-0,53993666172028 -1,625782251358
-0,53911197185516 -1,6279575824738
-0,53830128908157 -1,6300222873688
-0,53754848241806 -1,6320171356201
-0,5367888212204 -1,6340644359589
-0,53620183467865 -1,6360460519791
-0,53552114963531 -1,637978553772
-0,5348664522171 -1,6398932933807
-0,53415668010712 -1,6418702602386
-0,53334379196167 -1,643944144249
-0,53249537944794 -1,6460077762604
-0,53167104721069 -1,6480420827866
-0,53068876266479 -1,6501481533051
-0,52966576814651 -1,6522432565689
-0,52859717607498 -1,6543430089951
-0,52746123075485 -1,6564304828644
-0,52636557817459 -1,6584842205048
-0,52516359090805 -1,6604716777802
-0,52377140522003 -1,6624876260757
-0,52224189043045 -1,6646112203598
-0,52049815654755 -1,6667855978012
-0,51851451396942 -1,6690406799316
-0,51633059978485 -1,6713247299194
-0,51413911581039 -1,6734974384308
-0,5119486451149 -1,6756044626236
-0,51001781225204 -1,6776411533356
-0,50787055492401 -1,6795955896378
-0,50568550825119 -1,6814985275269
-0,50347149372101 -1,6833369731903
-0,50096333026886 -1,6851940155029
-0,49818533658981 -1,6870489120483
-0,49519577622414 -1,6887989044189
-0,49202728271484 -1,6905295848846
-0,48854461312294 -1,6921678781509
-0,48491525650024 -1,6937530040741
-0,48099422454834 -1,6952921152115
-0,47692036628723 -1,696749329567
-0,47230976819992 -1,6981055736542
-0,46747151017189 -1,6993297338486
-0,46236404776573 -1,7005252838135
-0,45718485116959 -1,7015424966812
-0,45196613669395 -1,702509522438
-0,446513235569 -1,7033504247665
-0,44084730744362 -1,7040627002716
-0,43513470888138 -1,7046880722046
-0,42929345369339 -1,7051591873169
-0,42339381575584 -1,705489397049
-0,41730982065201 -1,7057021856308
-0,41121870279312 -1,7057927846909
-0,40503534674644 -1,7058273553848
-0,39864662289619 -1,7057625055313
-0,39241647720337 -1,7054946422577
-0,38596028089523 -1,7051178216934
-0,37938553094864 -1,7046022415161
-0,37277549505234 -1,7039425373077
-0,36609777808189 -1,703179359436
-0,35934808850288 -1,702311873436
-0,35255858302116 -1,7013095617294
-0,34575647115707 -1,7002201080322
-0,33887910842896 -1,6990287303925
-0,33198210597038 -1,6977182626724
-0,32508343458176 -1,6963398456573
-0,31825014948845 -1,6949126720428
-0,31146627664566 -1,6934330463409
-0,30470779538155 -1,6918966770172
-0,29801028966904 -1,6903162002563
-0,29134982824326 -1,6887058019638
-0,28472539782524 -1,6870530843735
-0,27821430563927 -1,6853787899017
-0,27178278565407 -1,6836836338043
-0,26544806361198 -1,6819505691528
-0,25920230150223 -1,6801989078522
-0,25303763151169 -1,6784416437149
-0,24695792794228 -1,6766681671143
-0,240952283144 -1,6748898029327
-0,23501631617546 -1,6731036901474
-0,22914734482765 -1,6713111400604
-0,22290229797363 -1,6693975925446
-0,21662072837353 -1,6674726009369
-0,21036684513092 -1,6655380725861
-0,2040938436985 -1,6635797023773
-0,19786849617958 -1,6616147756577
-0,19165246188641 -1,6596386432648
-0,18545450270176 -1,6576572656631
-0,17924679815769 -1,6556609869003
-0,17304727435112 -1,6536552906036
-0,16685792803764 -1,6516456604004
-0,16067461669445 -1,6496378183365
-0,15449833869934 -1,6476256847382
-0,14832919836044 -1,6456136703491
-0,14216479659081 -1,6435989141464
-0,13600042462349 -1,641588807106
-0,12983977794647 -1,6395826339722
-0,12368346750736 -1,6375850439072
-0,11752947419882 -1,6355907917023
-0,11137491464615 -1,6336076259613
-0,10522395372391 -1,6316311359406
-0,099071308970451 -1,6296659708023
-0,092920452356339 -1,6277097463608
-0,087537348270416 -1,6260004043579
-0,083078198134899 -1,6244623661041
-0,07933883368969 -1,622929930687
-0,075790099799633 -1,6213600635529
-0,07222692668438 -1,6197912693024
-0,068633273243904 -1,6182556152344
-0,065019279718399 -1,6167722940445
-0,06041120365262 -1,6150996685028
-0,054954141378403 -1,6134214401245
-0,049026940017939 -1,6119201183319
-0,04294403269887 -1,6105983257294
-0,036823883652687 -1,6093711853027
-0,030707698315382 -1,6081831455231
-0,024595215916634 -1,6070325374603
-0,018488585948944 -1,6059045791626
-0,012394270859659 -1,604803442955
-0,0063045159913599 -1,6037466526031
-0,0002180020819651 -1,6027309894562
0,0058780093677342 -1,6017615795135
0,01197021920234 -1,6008297204971
0,018067678436637 -1,5999360084534
0,024167880415916 -1,599094748497
0,030271749943495 -1,598296880722
0,036378510296345 -1,5975431203842
0,042488075792789 -1,5968415737152
0,048603836447001 -1,5961818695068
0,054724156856537 -1,5955653190613
0,060856878757477 -1,5949980020523
0,067007280886173 -1,5944858789444
0,073145732283592 -1,5940091609955
0,079301804304123 -1,5935859680176
0,085464097559452 -1,5932133197784
0,091654717922211 -1,5928815603256
0,097886569797993 -1,5926072597504
0,1041374206543 -1,5923764705658
0,11043713241816 -1,5921711921692
0,11668735742569 -1,5920515060425
0,12380985915661 -1,5919810533524
0,13183805346489 -1,5920805931091
0,14053654670715 -1,592515707016
0,14927236735821 -1,5930004119873
0,15798223018646 -1,5934468507767
0,16671824455261 -1,5938062667847
0,17546156048775 -1,5941191911697
0,18428818881512 -1,5943886041641
0,19312773644924 -1,5946058034897
0,20198905467987 -1,594783782959
0,21086959540844 -1,5949108600616
0,21969774365425 -1,5949832201004
0,2285964936018 -1,5950276851654
0,2374714165926 -1,5950248241425
0,24637620151043 -1,5949821472168
0,25526684522629 -1,5948950052261
0,26416465640068 -1,5947709083557
0,27306413650513 -1,5946069955826
0,28199258446693 -1,5944037437439
0,29090228676796 -1,5941689014435
0,29984667897224 -1,5938857793808
0,30881017446518 -1,5935629606247
0,31775572896004 -1,5931874513626
0,32667249441147 -1,5927822589874
0,33565637469292 -1,5923355817795
0,34464612603188 -1,5918519496918
0,35365298390388 -1,5913313627243
0,36265873908997 -1,5907716751099
0,37167489528656 -1,5901744365692
0,38070797920227 -1,5895317792892
0,38974326848984 -1,5888608694077
0,39878860116005 -1,58813560009
0,40785065293312 -1,5873922109604
0,41693249344826 -1,5866050720215
0,42603126168251 -1,5857932567596
0,43512123823166 -1,5849301815033
0,44424542784691 -1,5840466022491
0,4533486366272 -1,5831367969513
0,46249786019325 -1,5821807384491
0,47168073058128 -1,5811930894852
0,48083528876305 -1,5801734924316
0,48998981714249 -1,579122543335
0,49916419386864 -1,5780370235443
0,50834828615189 -1,57692694664
0,51760542392731 -1,5757871866226
0,52681940793991 -1,5746228694916
0,53608512878418 -1,5734300613403
0,54536539316177 -1,5722033977509
0,55465519428253 -1,5709571838379
0,56396168470383 -1,5696872472763
0,57330149412155 -1,5683932304382
0,58263367414474 -1,56707072258
0,59201246500015 -1,5657284259796
0,6013902425766 -1,5643622875214
0,61078679561615 -1,5629842281342
0,62021028995514 -1,561572432518
0,62963271141052 -1,5601531267166
0,63908278942108 -1,5587104558945
0,64855736494064 -1,5572535991669
0,65803444385529 -1,5557819604874
0,66754937171936 -1,554287314415
0,67706495523453 -1,5527843236923
0,68661433458328 -1,5512679815292
0,69618004560471 -1,5497353076935
0,70578134059906 -1,5481958389282
0,71537220478058 -1,5466523170471
0,72498315572739 -1,545089006424
0,73461294174194 -1,5435351133347
0,74418061971664 -1,5419882535934
0,7535811662674 -1,5404621362686
0,76287388801575 -1,5389422178268
0,77200895547867 -1,5374610424042
0,78103244304657 -1,535995721817
0,78990143537521 -1,5345456600189
0,79866218566895 -1,5331327915192
0,80727177858353 -1,5317261219025
0,8156231045723 -1,5303852558136
0,82367193698883 -1,529070019722
0,8314563035965 -1,5277934074402
0,83896827697754 -1,5265530347824
0,8462775349617 -1,5253179073334
0,85331249237061 -1,5241490602493
0,8601581454277 -1,523029923439
0,86673086881638 -1,5219391584396
0,87308883666992 -1,5208877325058
0,8792005777359 -1,5198800563812
0,88513052463531 -1,5189133882523
0,89085304737091 -1,5179796218872
0,89637041091919 -1,5170971155167
0,90171748399734 -1,5162590742111
0,90686827898026 -1,5154396295547
0,9118332862854 -1,5146696567535
0,91663372516632 -1,5139244794846
0,92125999927521 -1,5132148265839
0,92572259902954 -1,5125252008438
0,93002319335938 -1,5118947029114
0,93416720628738 -1,5112843513489
0,93816077709198 -1,5107069015503
0,94201344251633 -1,5101549625397
0,94572800397873 -1,5096286535263
0,9493145942688 -1,5091406106949
0,95277392864227 -1,5086686611176
0,95610392093658 -1,5082087516785
0,95931130647659 -1,507779955864
0,96241092681885 -1,5073755979538
0,96540462970734 -1,5069973468781
0,96828347444534 -1,5066220760345
0,97107541561127 -1,5062520503998
0,97377568483353 -1,5059237480164
0,97637188434601 -1,5056054592133
0,97888076305389 -1,5053046941757
0,9812895655632 -1,5050035715103
0,98394232988358 -1,5045005083084
0,98640650510788 -1,5039936304092
0,98866540193558 -1,5034681558609
0,99071633815765 -1,5029226541519
0,99261045455933 -1,5023621320724
0,99431198835373 -1,5017886161804
0,99584656953812 -1,5011903047562
0,99816906452179 -1,5007182359695
1,0005249977112 -1,5003198385239
1,0027239322662 -1,4999244213104
1,0048024654388 -1,4995222091675
1,0067768096924 -1,4991430044174
1,0086362361908 -1,4987474679947
1,0103980302811 -1,4983365535736
1,0121123790741 -1,4979436397552
1,0137584209442 -1,4975574016571
1,0152931213379 -1,4971520900726
1,0181083679199 -1,4971295595169
1,0181083679199 -1,4971295595169
1,0181083679199 -1,4971295595169
1,0181083679199 -1,4971295595169
1,0181083679199 -1,4971295595169
1,0181083679199 -1,4971295595169
1,0181083679199 -1,4971295595169
1,0181083679199 -1,4971295595169
1,0181083679199 -1,4971295595169
1,0181083679199 -1,4971295595169
1,0181083679199 -1,4971295595169
1,0181083679199 -1,4971295595169
1,0181083679199 -1,4971295595169
1,0181083679199 -1,4971295595169
1,0181083679199 -1,4971295595169
1,0181083679199 -1,4971295595169
1,0181083679199 -1,4971295595169
1,0181083679199 -1,4971295595169
1,018266916275 -1,4973913431168
1,0188299417496 -1,497265458107
1,0199244022369 -1,4967483282089
1,0212880373001 -1,4960623979568
1,0226789712906 -1,4953647851944
1,0233598947525 -1,4956977367401
1,0234633684158 -1,4970276355743
1,0237025022507 -1,4984576702118
1,02505838871 -1,4984346628189
1,0270984172821 -1,4971941709518
1,0291049480438 -1,4959750175476
1,0311213731766 -1,4947115182877
1,0331418514252 -1,4934320449829
1,035148024559 -1,4921140670776
1,0371286869049 -1,4906163215637
1,0390112400055 -1,4890840053558
1,0408664941788 -1,4874815940857
1,0427198410034 -1,4857733249664
1,0445592403412 -1,4839537143707
1,0463460683823 -1,4820568561554
1,0481188297272 -1,4800193309784
1,049857378006 -1,4779109954834
1,0519783496857 -1,4743590354919
1,0543484687805 -1,4696577787399
1,0565664768219 -1,4642316102982
1,0586702823639 -1,4586958885193
1,0603086948395 -1,4541249275208
1,0617917776108 -1,4503248929977
1,0632890462875 -1,4471242427826
1,0649538040161 -1,4446070194244
1,0667126178741 -1,4426412582397
1,0684913396835 -1,4406732320786
1,0701714754105 -1,4387044906616
1,0718116760254 -1,4365564584732
1,073370218277 -1,4333492517471
1,0747034549713 -1,4291566610336
1,0756039619446 -1,4240057468414
1,0761196613312 -1,4184510707855
1,0764826536179 -1,4125814437866
1,0768048763275 -1,4068117141724
1,0770046710968 -1,4010345935822
1,0770552158356 -1,3951380252838
1,0770065784454 -1,3893296718597
1,0768655538559 -1,3833836317062
1,0765626430511 -1,3774075508118
1,0761525630951 -1,3713332414627
1,0756392478943 -1,3652637004852
1,0750119686127 -1,3592076301575
1,0742557048798 -1,3530991077423
1,0733637809753 -1,3468775749207
1,0719846487045 -1,3398005962372
1,0702221393585 -1,332047700882
1,0679260492325 -1,3235419988632
1,0650677680969 -1,3143026828766
1,0619753599167 -1,3049576282501
1,0589275360107 -1,2956855297089
1,0559381246567 -1,2864371538162
1,0529808998108 -1,2771778106689
1,05002617836 -1,2678955793381
1,0470881462097 -1,2586443424225
1,0441507101059 -1,2493933439255
1,0412184000015 -1,2401498556137
1,0382837057114 -1,2308900356293
1,035341501236 -1,2216302156448
1,0323951244354 -1,212367773056
1,0294592380524 -1,2031009197235
1,0265129804611 -1,1938135623932
1,0235534906387 -1,1845020055771
1,0206036567688 -1,1752065420151
1,0176482200623 -1,1658834218979
1,0146911144257 -1,1565543413162
1,0117455720901 -1,1472300291061
1,0087810754776 -1,137913942337
1,0058182477951 -1,128582239151
1,0028591156006 -1,1192672252655
0,99991768598557 -1,10997569561
0,99697530269623 -1,1006886959076
0,99403417110443 -1,091413974762
0,99108755588531 -1,0821379423141
0,98815709352493 -1,0728940963745
0,98522043228149 -1,0636266469955
0,98229438066483 -1,0543787479401
0,97936022281647 -1,0451114177704
0,97642582654953 -1,0358617305756
0,97348177433014 -1,0265786647797
0,97053164243698 -1,0172927379608
0,96758830547333 -1,0080111026764
0,96463841199875 -0,99870777130127
0,96168100833893 -0,98937684297562
0,95871984958649 -0,98006057739258
0,95576572418213 -0,97072619199753
0,95281678438187 -0,96139258146286
0,94986200332642 -0,95209324359894
0,94690942764282 -0,94278371334076
0,94395464658737 -0,9334756731987
0,94101095199585 -0,92419737577438
0,93806326389313 -0,91491717100143
0,93512171506882 -0,90565311908722
0,93218898773193 -0,89639711380005
0,92925894260406 -0,88714516162872
0,92632639408112 -0,87789142131805
0,92338597774506 -0,86864078044891
0,92044574022293 -0,85937678813934
0,91750800609589 -0,8501141667366
0,91456270217896 -0,84081572294235
0,91161185503006 -0,83151787519455
0,90865582227707 -0,82220619916916
0,90571087598801 -0,8129016160965
0,90274631977081 -0,80356979370117
0,8997882604599 -0,79425305128098
0,89682149887085 -0,7849041223526
0,8938667178154 -0,77558118104935
0,89091283082962 -0,7662740945816
0,88795727491379 -0,75696408748627
0,88501739501953 -0,74767792224884
0,88207995891571 -0,73840755224228
0,87912702560425 -0,72911816835403
0,87617599964142 -0,71986317634583
0,87324267625809 -0,71061050891876
0,87030422687531 -0,70136064291
0,86735761165619 -0,69211345911026
0,86442530155182 -0,68286490440369
0,86147403717041 -0,67358428239822
0,85855120420456 -0,66436189413071
0,8556672334671 -0,655228972435
0,85280609130859 -0,64615875482559
0,84998655319214 -0,63716614246368
0,84719008207321 -0,6282245516777
0,84441041946411 -0,61934822797775
0,8416553735733 -0,6105363368988
0,838911652565 -0,60182458162308
0,8361799120903 -0,5931636095047
0,83347368240356 -0,58458024263382
0,83077430725098 -0,57610040903091
0,8280503153801 -0,56764483451843
0,82537174224854 -0,55928993225098
0,82232123613358 -0,55025935173035
0,81914460659027 -0,5410812497139
0,81594401597977 -0,53192192316055
0,8127533197403 -0,52273851633072
0,80957067012787 -0,51356303691864
0,80638110637665 -0,50437027215958
0,80320662260056 -0,49518316984177
0,80003249645233 -0,48597782850266
0,79683476686478 -0,47674283385277
0,79365760087967 -0,46752041578293
0,79046136140823 -0,45826435089111
0,78727304935455 -0,44900840520859
0,78408467769623 -0,43977028131485
0,78089541196823 -0,43050771951675
0,77771180868149 -0,421272367239
0,77489060163498 -0,41266861557961
0,77241051197052 -0,40492424368858
0,77009052038193 -0,39730682969093
0,76770997047424 -0,38968846201897
0,76534330844879 -0,38225653767586
0,76289021968842 -0,37484604120255
0,76040732860565 -0,3676805794239
0,75797945261002 -0,36080685257912
0,75563490390778 -0,35417777299881
0,75347173213959 -0,34806805849075
0,75146472454071 -0,34240955114365
0,74955856800079 -0,33713260293007
0,74776417016983 -0,33217626810074
0,74603551626205 -0,32747167348862
0,74433469772339 -0,32286754250526
0,74251794815063 -0,31821420788765
0,74063861370087 -0,31352293491364
0,73863899707794 -0,30881178379059
0,73655956983566 -0,30405551195145
0,73439717292786 -0,29919040203094
0,73215711116791 -0,2943277657032
0,72975414991379 -0,28931763768196
0,72712123394012 -0,28398162126541
0,72435510158539 -0,27859288454056
0,72196412086487 -0,27407187223434
0,71960091590881 -0,26965510845184
0,71719413995743 -0,26523187756538
0,71470040082932 -0,26077330112457
0,71201491355896 -0,25612255930901
0,70906460285187 -0,25117748975754
0,7058510184288 -0,24589160084724
0,70232313871384 -0,24025857448578
0,69856595993042 -0,234335064888
0,69463086128235 -0,22823163866997
0,69045734405518 -0,22187101840973
0,6860014796257 -0,21516661345959
0,68118846416473 -0,20801961421967
0,67610907554626 -0,20055012404919
0,67084264755249 -0,19286876916885
0,66548532247543 -0,18508823215961
0,66006064414978 -0,17719079554081
0,65457093715668 -0,16920517385006
0,64904534816742 -0,16117051243782
0,64353346824646 -0,15315267443657
0,63799995183945 -0,14511129260063
0,63245832920074 -0,13706633448601
0,62692189216614 -0,12899865210056
0,62137991189957 -0,12093200534582
0,61583781242371 -0,11286570876837
0,61029130220413 -0,1048047170043
0,60475724935532 -0,096750639379025
0,59922742843628 -0,088698253035545
0,59371131658554 -0,080680668354034
0,58819407224655 -0,072652563452721
0,58268797397614 -0,064628519117832
0,57718247175217 -0,056619990617037
0,57168352603912 -0,048611015081406
0,56618058681488 -0,040610261261463
0,56067377328873 -0,032598346471786
0,55518245697021 -0,024597778916359
0,54967671632767 -0,016588591039181
0,54414767026901 -0,0085622081533074
0,53862905502319 -0,00051555765094236
0,53310543298721 0,0075246440246701
0,52757877111435 0,015563877299428
0,52201282978058 0,023647472262383
0,51647251844406 0,0317094437778
0,51093679666519 0,039778515696526
0,50539511442184 0,047831948846579
0,49985900521278 0,055896896868944
0,49438053369522 0,063879296183586
0,48903971910477 0,07167974114418
0,48385253548622 0,079249113798141
0,47889852523804 0,086463049054146
0,47416886687279 0,093347974121571
0,46967458724976 0,099873468279839
0,46543723344803 0,10604956001043
0,46143168210983 0,11185695230961
0,45766893029213 0,1173467040062
0,45407694578171 0,12256836891174
0,45063209533691 0,12757846713066
0,4473839700222 0,13229317963123
0,44429954886436 0,1367988884449
0,44138607382774 0,14104320108891
0,43858104944229 0,14512686431408
0,43592667579651 0,14898245036602
0,43340611457825 0,15263018012047
0,43097203969955 0,15615892410278
0,42865991592407 0,15949594974518
0,42642259597778 0,16271847486496
0,4244569838047 0,16552796959877
0,42279821634293 0,16785816848278
0,4214386343956 0,16971816122532
0,4204118847847 0,17102134227753
0,41968870162964 0,17182642221451
0,419269323349 0,17208504676819
0,41919526457787 0,17181865870953
0,41944232583046 0,17106425762177
0,4199658036232 0,16985827684402
0,42083150148392 0,16808234155178
0,42188555002213 0,16590161621571
0,42305302619934 0,16351570188999
0,42424267530441 0,16095355153084
0,4255833029747 0,15807339549065
0,42694172263145 0,15500545501709
0,42818960547447 0,15210622549057
0,42941236495972 0,14917115867138
0,43067795038223 0,14608485996723
0,43190240859985 0,14305327832699
0,43317222595215 0,13989518582821
0,43443331122398 0,13682581484318
0,43563789129257 0,1337546557188
0,43680089712143 0,1305932700634
0,43800729513168 0,12737946212292
0,43917626142502 0,12409776449203
0,4403084218502 0,12080197036266
0,44132041931152 0,117716178298
0,44230580329895 0,11444784700871
0,44330471754074 0,11112435907125
0,44432130455971 0,10776994377375
0,44528803229332 0,10445318371058
0,44622641801834 0,10111846774817
0,44711273908615 0,097790703177452
0,44798699021339 0,094425320625305
0,44885724782944 0,091017425060272
0,44964990019798 0,087677597999573
0,4503955245018 0,084470637142658
0,45104876160622 0,081348218023777
0,45163416862488 0,078308366239071
0,45220047235489 0,075158379971981
0,45273613929749 0,072054609656334
0,45320826768875 0,069079846143723
0,45364460349083 0,06625097244978
0,45399752259254 0,063481420278549
0,4542949795723 0,060775052756071
0,4545373916626 0,058120794594288
0,45471820235252 0,055785041302443
0,45482164621353 0,053539205342531
0,45484885573387 0,051544614136219
0,45478445291519 0,049885891377926
0,45465078949928 0,048612013459206
0,45439261198044 0,047770146280527
0,45408463478088 0,047282107174397
0,4537268280983 0,047098517417908
0,45329087972641 0,047281768172979
0,45280355215073 0,04793993383646
0,45229706168175 0,04881339520216
0,45179304480553 0,050051588565111
0,45126229524612 0,051499538123608
0,45073261857033 0,053273815661669
0,4501650929451 0,05535202100873
0,44958275556564 0,05767210572958
0,44902795553207 0,060241706669331
0,44848942756653 0,063076376914978
0,44794893264771 0,066049605607986
0,44742470979691 0,069158717989922
0,44690728187561 0,072321347892284
0,44641643762589 0,075526759028435
0,44594597816467 0,07874620705843
0,44548377394676 0,082061216235161
0,44503790140152 0,085278891026974
0,44461506605148 0,088437460362911
0,44421967864037 0,091496333479881
0,44384628534317 0,094428993761539
0,44350576400757 0,097284607589245
0,44317379593849 0,10009972006083
0,44285917282104 0,10285530239344
0,44255614280701 0,10567214339972
0,44225907325745 0,1080294623971
0,4419558942318 0,11040621995926
0,44166222214699 0,11279556900263
0,44136825203896 0,11515472084284
0,44111055135727 0,11738874018192
0,44084495306015 0,11942943185568
0,44058328866959 0,12109185755253
0,44031915068626 0,12235063314438
0,44005960226059 0,12333419173956
0,4398198723793 0,12403725087643
0,43957909941673 0,12447918951511
0,4393327832222 0,12465699017048
0,43904486298561 0,12456350028515
0,43874216079712 0,12420685589314
0,43845161795616 0,1235682964325
0,43819230794907 0,12257622182369
0,43787640333176 0,12130449712276
0,43755707144737 0,11958857625723
0,43717527389526 0,11742739379406
0,43675869703293 0,11486396938562
0,43624457716942 0,11200734227896
0,43566733598709 0,10890603065491
0,43502649664879 0,10573488473892
0,43436154723167 0,10272713005543
0,43370285630226 0,099632143974304
0,43302077054977 0,096718348562717
0,43232011795044 0,093866445124149
0,43155688047409 0,09103699028492
0,43078184127808 0,088239021599293
0,43003171682358 0,085932418704033
0,42899242043495 0,082403115928173
0,42741078138351 0,077496290206909
0,4253471493721 0,071619398891926
0,42314606904984 0,065622471272945
0,42120251059532 0,061026614159346
0,41931787133217 0,057646609842777
0,41730707883835 0,054821956902742
0,41510206460953 0,052055276930332
0,41290760040283 0,049362346529961
0,41064661741257 0,046719908714294
0,40836673974991 0,044146284461021
0,40648871660233 0,042602509260178
0,40532445907593 0,042827684432268
0,40496197342873 0,044278901070356
0,40461692214012 0,04582742229104
0,40437468886375 0,047376062721014
0,4041993021965 0,048983741551638
0,40407586097717 0,050743274390697
0,4036391377449 0,051726382225752
0,40264376997948 0,052134018391371
0,40095907449722 0,051995396614075
0,39898443222046 0,051936149597168
0,3965839445591 0,051687262952328
0,39498275518417 0,052374910563231
0,39453503489494 0,054205685853958
0,3946168422699 0,056224811822176
0,39491751790047 0,058392435312271
0,39580234885216 0,060891389846802
0,39703449606895 0,063500225543976
0,39854174852371 0,066258698701859
0,4003044962883 0,069036163389683
0,40317416191101 0,072321586310863
0,40708833932877 0,075959175825119
0,41133680939674 0,079473093152046
0,41571769118309 0,082962289452553
0,42016023397446 0,086370915174484
0,42480358481407 0,089722022414207
0,42949944734573 0,093033567070961
0,43429785966873 0,096227154135704
0,43942365050316 0,099480926990509
0,44461050629616 0,10261112451553
0,44997030496597 0,1056974157691
0,4555920958519 0,10868746042252
0,46142974495888 0,11160186678171
0,46759110689163 0,11447636038065
0,47444838285446 0,11749359220266
0,48238760232925 0,12060762941837
0,49133032560349 0,12379144132137
0,5005846619606 0,12686374783516
0,50962936878204 0,12984362244606
0,51862490177155 0,1328544318676
0,52749788761139 0,1358507424593
0,53629016876221 0,13879799842834
0,54496031999588 0,14172150194645
0,55340754985809 0,14456497132778
0,56160974502563 0,14732022583485
0,56957459449768 0,14999902248383
0,57736867666245 0,15257488191128
0,58491379022598 0,15507191419601
0,59224832057953 0,15749394893646
0,59935033321381 0,15987169742584
0,60623705387115 0,16216829419136
0,6129184961319 0,16439032554626
0,61940580606461 0,16662938892841
0,62566721439362 0,16876509785652
0,63172549009323 0,17085473239422
0,63765799999237 0,17294126749039
0,64338791370392 0,1749841272831
0,64892780780792 0,17696496844292
0,65434938669205 0,17897987365723
0,65962958335876 0,18086437880993
0,66463816165924 0,18276789784431
0,6695761680603 0,18464216589928
0,67438805103302 0,18651096522808
0,67909878492355 0,18837685883045
0,68359100818634 0,19022157788277
0,68931418657303 0,19274707138538
0,69560873508453 0,19588807225227
0,70191442966461 0,19919815659523
0,70812666416168 0,20253376662731
0,71426695585251 0,20586533844471
0,72024983167648 0,20919588208199
0,72619235515594 0,21254821121693
0,73203670978546 0,21591413021088
0,73780333995819 0,21929052472115
0,74345183372498 0,22262191772461
0,74829494953156 0,22552359104156
0,75139153003693 0,22748143970966
0,75388693809509 0,22877487540245
0,75619226694107 0,22980229556561
0,75839453935623 0,23070903122425
0,76056385040283 0,23162715137005
0,76348912715912 0,23322775959969
0,76692527532578 0,23548090457916
0,77067679166794 0,23828387260437
0,77442228794098 0,24113288521767
0,77809810638428 0,24391475319862
0,78168618679047 0,24669262766838
0,78505623340607 0,2492698431015
0,78820610046387 0,25166955590248
0,79126292467117 0,25400143861771
0,79406988620758 0,25614511966705
0,79727727174759 0,25883480906487
0,800665974617 0,26176738739014
0,80393153429031 0,264623939991
0,80720233917236 0,26747450232506
0,81035441160202 0,27025654911995
0,81356656551361 0,27308252453804
0,81673276424408 0,27590745687485
0,81990575790405 0,27880010008812
0,8231428861618 0,28179520368576
0,8262882232666 0,28477901220322
0,82943946123123 0,28783705830574
0,83256244659424 0,29096907377243
0,83571320772171 0,29416918754578
0,83895552158356 0,29746508598328
0,84220325946808 0,30082267522812
0,8455638885498 0,3043894469738
0,8489556312561 0,30804765224457
0,85251522064209 0,31196624040604
0,8561863899231 0,31610709428787
0,85990589857101 0,32034474611282
0,86367046833038 0,32487127184868
0,86767089366913 0,32986083626747
0,87182652950287 0,33523759245872
0,87610948085785 0,34092912077904
0,8804218173027 0,34698969125748
0,88511973619461 0,35383465886116
0,88979399204254 0,3612248301506
0,89434397220612 0,36871832609177
0,89883488416672 0,37624651193619
0,90331447124481 0,3838182091713
0,90774524211884 0,39141374826431
0,91220742464066 0,3990698158741
0,91689670085907 0,40730780363083
0,92158633470535 0,41583862900734
0,92618751525879 0,42437022924423
0,93080788850784 0,43293166160583
0,93543356657028 0,44148549437523
0,94009560346603 0,4500330388546
0,9447603225708 0,45858606696129
0,94943588972092 0,4671511054039
0,95409822463989 0,47572946548462
0,95877856016159 0,48431652784348
0,96345126628876 0,49288868904114
0,96813690662384 0,50149917602539
0,97282493114471 0,5100907087326
0,9775048494339 0,51868307590485
0,98217886686325 0,52725410461426
0,98687380552292 0,53582513332367
0,99153006076813 0,54437690973282
0,9961993098259 0,55293387174606
1,0008581876755 0,56146210432053
1,0055123567581 0,56999987363815
1,0101583003998 0,57850617170334
1,0147525072098 0,58695739507675
1,0193313360214 0,59532791376114
1,0238807201385 0,60360825061798
1,0283751487732 0,61177772283554
1,0328024625778 0,6198798418045
1,0372107028961 0,62793040275574
1,0413347482681 0,6352955698967
1,0453240871429 0,64242416620255
1,0492959022522 0,64950931072235
1,0531550645828 0,65641182661057
1,0569454431534 0,66326385736465
1,060690164566 0,67006385326385
1,0642964839935 0,67668581008911
1,0678498744965 0,68329846858978
1,0713517665863 0,68986028432846
1,0748076438904 0,69635587930679
1,0781028270721 0,70263999700546
1,0813219547272 0,70887857675552
1,0844571590424 0,71501517295837
1,0875134468079 0,72110742330551
1,0905128717422 0,72715932130814
1,0935124158859 0,7333060503006
1,0964350700378 0,73943561315536
1,0992811918259 0,74548095464706
1,1020430326462 0,75138837099075
1,1046658754349 0,75728380680084
1,1072280406952 0,76320421695709
1,1100823879242 0,7701108455658
1,1129264831543 0,77730864286423
1,1157038211823 0,78453481197357
1,1184115409851 0,79174822568893
1,121059179306 0,79894322156906
1,1236617565155 0,80613154172897
1,126213312149 0,81335723400116
1,1287226676941 0,82056415081024
1,13117146492 0,82779663801193
1,1335512399673 0,83501845598221
1,135861992836 0,84224683046341
1,137920498848 0,84853172302246
1,1398165225983 0,85392618179321
1,1417253017426 0,85885345935822
1,143661737442 0,86352336406708
1,1454721689224 0,8685547709465
1,1472473144531 0,87363874912262
1,1490870714188 0,87984800338745
1,1507716178894 0,88677942752838
1,1521875858307 0,89402735233307
1,1534602642059 0,90131789445877
1,1546549797058 0,90859425067902
1,1557692289352 0,91590815782547
1,1567988395691 0,92318469285965
1,1577317714691 0,93051367998123
1,158563375473 0,93786656856537
1,1592924594879 0,94524478912354
1,1599634885788 0,9526435136795
1,1605291366577 0,96008282899857
1,1609938144684 0,96684205532074
1,1613081693649 0,97302550077438
1,1614500284195 0,97919017076492
1,1615846157074 0,98536986112595
1,1616781949997 0,99161303043365
1,1617041826248 0,99757558107376
1,1616905927658 1,0035302639008
1,1616216897964 1,0096039772034
1,1615408658981 1,0157644748688
1,1614209413528 1,0218139886856
1,161257982254 1,0279891490936
1,1611076593399 1,0343533754349
1,1608933210373 1,0410035848618
1,1605496406555 1,0493812561035
1,1599181890488 1,0588896274567
1,1590435504913 1,0685786008835
1,158153295517 1,0782459974289
1,1572479009628 1,0879093408585
1,1563481092453 1,097581744194
1,1554536819458 1,1072406768799
1,1546052694321 1,1168628931046
1,1537816524506 1,1262710094452
1,1529710292816 1,1354278326035
1,1522061824799 1,1441717147827
1,1514894962311 1,1525146961212
1,1508128643036 1,1605331897736
1,1501498222351 1,1681621074677
1,1495323181152 1,1754193305969
1,1489424705505 1,1822662353516
1,1484037637711 1,1887028217316
1,1478635072708 1,1947762966156
1,1473652124405 1,2004435062408
1,1468943357468 1,2057657241821
1,1464463472366 1,2107957601547
1,1460100412369 1,2155101299286
1,1456182003021 1,2199200391769
1,1452586650848 1,2240197658539
1,1449419260025 1,227800488472
1,1446511745453 1,231278181076
1,1443825960159 1,2345035076141
1,144162774086 1,2374143600464
1,1439751386642 1,2401673793793
1,1438089609146 1,2426869869232
1,1436845064163 1,2449530363083
1,1435821056366 1,2470791339874
1,1434800624847 1,2490499019623
1,1433990001678 1,250849366188
1,1433508396149 1,2524980306625
1,143326997757 1,2536548376083
1,1432874202728 1,2546623945236
1,1432611942291 1,2556235790253
1,1432538032532 1,256517291069
1,1432474851608 1,2573573589325
1,1432723999023 1,2581715583801
1,1433036327362 1,2591097354889
1,143351316452 1,2601313591003
1,1434235572815 1,2610820531845
1,1435114145279 1,2619584798813
1,1436299085617 1,262700676918
1,1437666416168 1,2634100914001
1,143923997879 1,2640789747238
1,144069314003 1,2646911144257
1,1442563533783 1,2653138637543
1,1444782018661 1,2658573389053
1,1446861028671 1,2664225101471
1,144869685173 1,2669590711594
1,1450622081757 1,2674707174301
1,1452896595001 1,2680261135101
1,1455283164978 1,2686008214951
1,1457694768906 1,2690868377686
1,1459919214249 1,2696276903152
1,1462163925171 1,27015376091
1,1464682817459 1,2706792354584
1,14670586586 1,2712543010712
1,1469389200211 1,2718136310577
1,1472038030624 1,2723981142044
1,1474686861038 1,2730292081833
1,1477093696594 1,2735589742661
1,1479017734528 1,2741901874542
1,1481198072433 1,2747713327408
1,1484587192535 1,2749485969543
1,1488208770752 1,2746357917786
1,1492182016373 1,2741646766663
1,1496458053589 1,2735877037048
1,1500653028488 1,272939324379
1,1504981517792 1,2722011804581
1,1508982181549 1,2714121341705
1,1512979269028 1,2706770896912
1,1516568660736 1,2700643539429
1,1519837379456 1,2695218324661
1,1523028612137 1,2690184116364
1,1525970697403 1,268527507782
1,1529002189636 1,2680579423904
1,1531896591187 1,2675788402557
1,1534949541092 1,2670629024506
1,1537975072861 1,2665076255798
1,1540851593018 1,2659606933594
1,1543574333191 1,2654974460602
1,1545957326889 1,2650936841965
1,1548458337784 1,2646626234055
1,1551069021225 1,2641584873199
1,1553921699524 1,2635468244553
1,1555435657501 1,2633469104767
1,1557000875473 1,2631922960281
1,1558710336685 1,2630378007889
1,1560150384903 1,2629325389862
1,1563255786896 1,262301325798
1,1566673517227 1,2613065242767
1,1569607257843 1,2604110240936
1,1572289466858 1,2595856189728
1,1574640274048 1,2588424682617
1,1576708555222 1,2581598758698
1,1578533649445 1,2575335502625
1,1580171585083 1,2569444179535
1,1581665277481 1,2563828229904
1,1583116054535 1,2558516263962
1,1584274768829 1,2553617954254
1,1585215330124 1,254953622818
1,1585832834244 1,2546461820602
1,1586219072342 1,2544748783112
1,1586163043976 1,2544938325882
1,1585696935654 1,2547147274017
1,158486366272 1,2551482915878
1,158377289772 1,2556908130646
1,15824842453 1,2563477754593
1,1581205129623 1,2570980787277
1,1579614877701 1,257937669754
1,1578180789948 1,2588480710983
1,1576591730118 1,2597558498383
1,1575381755829 1,2606602907181
1,1573765277863 1,261617898941
1,1572144031525 1,262633562088
1,1570407152176 1,2636972665787
1,1569181680679 1,2648679018021
1,1566911935806 1,2661144733429
1,1564385890961 1,2674573659897
1,1561741828918 1,2688213586807
1,1559133529663 1,2701947689056
1,1556643247604 1,2715843915939
1,1554081439972 1,2730151414871
1,1551415920258 1,2743958234787
1,154926776886 1,275801897049
1,1546425819397 1,2772430181503
1,1544437408447 1,2785489559174
1,154168844223 1,279971241951
1,1539063453674 1,2814484834671
1,1536494493484 1,282808303833
1,1533573865891 1,2841511964798
1,1530531644821 1,2856051921844
1,1528532505035 1,286917924881
1,1526668071747 1,2881970405579
1,1525263786316 1,2895032167435
1,1523244380951 1,29088306427
1,1521579027176 1,2923226356506
1,1520625352859 1,293792963028
1,1519597768784 1,2951519489288
1,1517949104309 1,296685218811
1,1514647006989 1,298451423645
1,1511398553848 1,3001396656036
1,1507856845856 1,3018851280212
1,1503604650497 1,3036111593246
1,1500195264816 1,3053340911865
1,149701833725 1,307035446167
1,1492831707001 1,3087323904037
1,148826956749 1,3104858398438
1,1483272314072 1,3121827840805
1,1476821899414 1,3140075206757
1,1469756364822 1,3158496618271
1,1461696624756 1,3177139759064
1,1451690196991 1,3196456432343
1,1440119743347 1,3216335773468
1,1426918506622 1,3236410617828
1,141038775444 1,325751543045
1,139160990715 1,3278770446777
1,1371030807495 1,329968214035
1,1349176168442 1,3320620059967
1,1326231956482 1,3340656757355
1,1301094293594 1,3360787630081
1,1274958848953 1,3380109071732
1,1246095895767 1,3399449586868
1,1216372251511 1,3418282270432
1,1184792518616 1,343680024147
1,1151669025421 1,3455011844635
1,1115498542786 1,3472388982773
1,1078253984451 1,348953127861
1,1038253307343 1,3505380153656
1,0996135473251 1,3519798517227
1,0951087474823 1,3534173965454
1,0902868509293 1,3548032045364
1,0852555036545 1,356014251709
1,0799803733826 1,3570928573608
1,074690580368 1,3580346107483
1,0693198442459 1,3588082790375
1,0637141466141 1,3595473766327
1,0579743385315 1,360166311264
1,05215716362 1,3606697320938
1,0461616516113 1,3610550165176
1,0400837659836 1,3612892627716
1,0338733196259 1,3614200353622
1,0276086330414 1,3613975048065
1,0211691856384 1,3612304925919
1,0145750045776 1,3609255552292
1,0078910589218 1,360479593277
1,0010707378387 1,3598744869232
0,99417018890381 1,3591272830963
0,98719012737274 1,3581973314285
0,98013687133789 1,3571646213531
0,97296154499054 1,3559688329697
0,96564513444901 1,3546587228775
0,95823115110397 1,3532085418701
0,95071429014206 1,3516254425049
0,94321191310883 1,3499720096588
0,93585681915283 1,3482649326324
0,92851287126541 1,3464761972427
0,92132949829102 1,344679236412
0,9141491651535 1,3427917957306
0,90715664625168 1,340873837471
0,90021580457687 1,3389098644257
0,89348775148392 1,336961388588
0,88691395521164 1,3349804878235
0,88051640987396 1,3329652547836
0,87428969144821 1,3309619426727
0,86831396818161 1,3289947509766
0,86251717805862 1,3270374536514
0,85694801807404 1,3251149654388
0,85158920288086 1,3232338428497
0,8464595079422 1,3213917016983
0,84191101789474 1,3197376728058
0,83755904436111 1,3181067705154
0,83327543735504 1,3164749145508
0,82912158966064 1,3148839473724
0,82506102323532 1,3133103847504
0,8210711479187 1,3117694854736
0,81703805923462 1,310231924057
0,81298464536667 1,3086628913879
0,80883204936981 1,3070597648621
0,80473327636719 1,3054449558258
0,80070924758911 1,3038942813873
0,79671037197113 1,3023545742035
0,79273611307144 1,3008377552032
0,78873413801193 1,2993377447128
0,78473663330078 1,2978504896164
0,78072309494019 1,296374797821
0,77665251493454 1,2949237823486
0,77253425121307 1,2934793233871
0,76838046312332 1,2920486927032
0,76418697834015 1,2906320095062
0,75999486446381 1,289234995842
0,75582873821259 1,2878657579422
0,75168740749359 1,2865118980408
0,74756133556366 1,2851816415787
0,74342179298401 1,2838760614395
0,73919266462326 1,2825717926025
0,73476940393448 1,2812535762787
0,72959434986115 1,2798454761505
0,72409105300903 1,2784361839294
0,71903973817825 1,2770283222198
0,71435034275055 1,2756510972977
0,70999372005463 1,2742975950241
0,70602476596832 1,2729958295822
0,7024639248848 1,2717632055283
0,69931638240814 1,2705910205841
0,69657438993454 1,2694637775421
0,69424271583557 1,2683672904968
0,6921055316925 1,2672486305237
0,69007909297943 1,2661644220352
0,68813729286194 1,2651298046112
0,68616473674774 1,2641435861588
0,68505752086639 1,263201713562
0,68486392498016 1,2621208429337
0,68503725528717 1,2610125541687
0,68540650606155 1,2598391771317
0,68577969074249 1,2587124109268
0,68565833568573 1,2577298879623
0,68546414375305 1,2567098140717
0,6849747300148 1,2558234930038
0,68415832519531 1,255136013031
0,68275701999664 1,254662156105
0,68079602718353 1,2543706893921
0,67914128303528 1,2541273832321
0,67693686485291 1,2540584802628
0,67377942800522 1,2543088197708
0,66997927427292 1,2549458742142
0,66604340076447 1,2556861639023
0,66202628612518 1,2564973831177
0,65795058012009 1,2573565244675
0,65383088588715 1,2582604885101
0,64972114562988 1,2591831684113
0,64566117525101 1,2601013183594
0,64162629842758 1,2610276937485
0,63762670755386 1,2619602680206
0,63361912965775 1,262909412384
0,62965309619904 1,2638547420502
0,62573832273483 1,2647880315781
0,62188154459 1,2657141685486
0,61806517839432 1,2666262388229
0,61425077915192 1,2675569057465
0,61035490036011 1,2685220241547
0,60641926527023 1,269526720047
0,60255938768387 1,2705166339874
0,59882116317749 1,271457195282
0,59522306919098 1,2723602056503
0,59164357185364 1,2732603549957
0,58809375762939 1,2741547822952
0,58488124608994 1,2749211788177
0,58136385679245 1,2758152484894
0,57858192920685 1,2764909267426
0,57628571987152 1,2768799066544
0,57409989833832 1,277227640152
0,57209050655365 1,2775347232819
0,57025235891342 1,2777854204178
0,5686422586441 1,277975320816
0,56712180376053 1,2781474590302
0,56563407182693 1,2783027887344
0,56426477432251 1,2784477472305
0,56296300888062 1,2785905599594
0,56157028675079 1,2787743806839
0,55984842777252 1,2791450023651
0,55807214975357 1,2796074151993
0,55620467662811 1,2801191806793
0,5543367266655 1,280663728714
0,55253773927689 1,2811871767044
0,55083113908768 1,2816700935364
0,5490220785141 1,2822194099426
0,54709994792938 1,2828323841095
0,54507923126221 1,2835206985474
0,54294168949127 1,284264922142
0,54065883159637 1,2850844860077
0,53834223747253 1,2859284877777
0,53593736886978 1,2868287563324
0,53348875045776 1,2877056598663
0,53105336427689 1,2885984182358
0,52860194444656 1,2894740104675
0,52613961696625 1,290357708931
0,52373135089874 1,2912038564682
0,52130174636841 1,2920376062393
0,51876413822174 1,2929246425629
0,51619249582291 1,2937973737717
0,51357418298721 1,2947026491165
0,51096612215042 1,2955906391144
0,50843405723572 1,2964189052582
0,50604313611984 1,29718542099
0,50356590747833 1,2979615926743
0,50098931789398 1,2987402677536
0,49829593300819 1,2995765209198
0,49633496999741 1,3002068996429
0,49491754174232 1,3005647659302
0,4935901761055 1,3008024692535
0,49238032102585 1,3009955883026
0,49126330018044 1,3011620044708
0,49024677276611 1,3012959957123
0,4893254339695 1,3014051914215
0,48852929472923 1,3014734983444
0,4878014922142 1,3015024662018
0,48711118102074 1,3015376329422
0,48637986183167 1,3016152381897
0,48531517386436 1,3018066883087
0,48411822319031 1,3021130561829
0,48282304406166 1,3024733066559
0,48147878050804 1,3028621673584
0,48014944791794 1,3032487630844
0,47878557443619 1,3036391735077
0,4775498509407 1,3039815425873
0,47628745436668 1,304335474968
0,47496557235718 1,3047218322754
0,47362312674522 1,3051271438599
0,47223740816116 1,3055373430252
0,47088503837585 1,3059500455856
0,46957406401634 1,3063313961029
0,4683256149292 1,3066946268082
0,46712979674339 1,3070185184479
0,46604198217392 1,3072987794876
0,46503800153732 1,3075438737869
0,46411076188087 1,3077529668808
0,46322670578957 1,3079514503479
0,46235537528992 1,308144569397
0,46159037947655 1,3082991838455
0,46089482307434 1,3084242343903
0,46025618910789 1,3085324764252
0,45968002080917 1,3086178302765
0,45914745330811 1,3086847066879
0,4586001932621 1,3087702989578
0,45804911851883 1,3088549375534
0,45752397179604 1,3089442253113
0,45700091123581 1,3090316057205
0,45637688040733 1,3091663122177
0,45573917031288 1,3093190193176
0,45509061217308 1,3094755411148
0,45444339513779 1,3096398115158
0,45389491319656 1,309766292572
0,45136794447899 1,3124740123749
0,44062247872353 1,3189532756805
0,43106251955032 1,3218734264374
0,42511105537415 1,3229169845581
0,42080527544022 1,3238022327423
0,41718998551369 1,3247498273849
0,41390639543533 1,3258594274521
0,41202101111412 1,3267469406128
0,41122651100159 1,3274142742157
0,41052666306496 1,3281455039978
0,40970650315285 1,3289520740509
0,40869432687759 1,3298096656799
0,40845355391502 1,3303570747375
0,40863293409348 1,3305718898773
0,40870290994644 1,3308041095734
0,40873807668686 1,3310189247131
0,40879583358765 1,3312361240387
0,40878787636757 1,3314573764801
0,40874832868576 1,3316556215286
0,40863656997681 1,3318876028061
0,40843111276627 1,3321446180344
0,40806919336319 1,3324387073517
0,4076324403286 1,3327753543854
0,40705442428589 1,3331845998764
0,40617269277573 1,3336646556854
0,40501299500465 1,3342131376266
0,4036041200161 1,334833741188
0,4019792675972 1,3355400562286
0,40015497803688 1,3362486362457
0,39820489287376 1,336993932724
0,39609396457672 1,3377196788788
0,39376085996628 1,3384690284729
0,39127194881439 1,3392522335052
0,38854894042015 1,3400262594223
0,38541474938393 1,3408561944962
0,38197228312492 1,3417605161667
0,37806907296181 1,3427193164825
0,37375217676163 1,343675494194
0,3691218495369 1,3445882797241
0,36419713497162 1,3454749584198
0,35891729593277 1,3463537693024
0,35352608561516 1,3471397161484
0,3479051887989 1,3478826284409
0,34227737784386 1,3485221862793
0,33644288778305 1,3490507602692
0,33057165145874 1,349424123764
0,32464253902435 1,3497463464737
0,31862300634384 1,3499487638474
0,31246569752693 1,3499583005905
0,30605626106262 1,3498811721802
0,29951792955399 1,3496911525726
0,29294902086258 1,3493529558182
0,2862086892128 1,348970413208
0,27935659885406 1,3484021425247
0,27231508493423 1,3476637601852
0,26511016488075 1,3467557430267
0,25778436660767 1,3457400798798
0,25040662288666 1,3446789979935
0,24288575351238 1,3434381484985
0,2352250367403 1,342081785202
0,22752511501312 1,3405964374542
0,219811886549 1,3390430212021
0,21207292377949 1,3374135494232
0,20435202121735 1,3356798887253
0,19664531946182 1,333912730217
0,18891984224319 1,3320677280426
0,18104520440102 1,3300743103027
0,17314444482327 1,3280135393143
0,16520640254021 1,3258545398712
0,15722718834877 1,3236162662506
0,14920005202293 1,3212810754776
0,14117158949375 1,3188650608063
0,13308806717396 1,316361784935
0,12496726214886 1,3137764930725
0,11683516204357 1,3111110925674
0,10864984989166 1,3083543777466
0,10043839365244 1,305527806282
0,092193618416786 1,302619934082
0,083920955657959 1,299633026123
0,075613990426064 1,2965734004974
0,067293837666512 1,2934503555298
0,058948267251253 1,2902582883835
0,050567466765642 1,2870038747787
0,042170591652393 1,2836863994598
0,033757511526346 1,2803069353104
0,025302574038506 1,2768760919571
0,0168392136693 1,2733899354935
0,0083237579092383 1,2698395252228
-0,00021508810459636 1,2662411928177
-0,0087928343564272 1,2625876665115
-0,017424713820219 1,2588800191879
-0,026122648268938 1,2551168203354
-0,034842722117901 1,2513132095337
-0,043614942580462 1,2474592924118
-0,052445612847805 1,243560552597
-0,061344642192125 1,2396045923233
-0,070273742079735 1,2356221675873
-0,07921140640974 1,2316373586655
-0,088153406977654 1,2276479005814
-0,097085490822792 1,2236691713333
-0,105996273458 1,2196950912476
-0,11490793526173 1,2157224416733
-0,12381593883038 1,2117503881454
-0,13270491361618 1,207778096199
-0,1415858566761 1,2038233280182
-0,15045747160912 1,1998627185822
-0,15925116837025 1,1959582567215
-0,16794253885746 1,1921045780182
-0,17650830745697 1,188313126564
-0,18489198386669 1,1846086978912
-0,19308723509312 1,1810123920441
-0,20105612277985 1,1775104999542
-0,20882134139538 1,1741125583649
-0,21639330685139 1,1708204746246
-0,22378984093666 1,1676061153412
-0,2309535741806 1,1644556522369
-0,23791472613811 1,1613993644714
-0,24468663334846 1,1584252119064
-0,25129395723343 1,1555576324463
-0,25775876641273 1,1526724100113
-0,26399871706963 1,149888753891
-0,27002793550491 1,1471540927887
-0,27590781450272 1,1444619894028
-0,28163650631905 1,1418068408966
-0,28716036677361 1,1392061710358
-0,29250100255013 1,1366682052612
-0,29774871468544 1,1341313123703
-0,30285203456879 1,1316521167755
-0,30782237648964 1,1291757822037
-0,31385308504105 1,1260755062103
-0,32035148143768 1,1224229335785
-0,32675561308861 1,118714928627
-0,33305007219315 1,1150133609772
-0,33929577469826 1,1112905740738
-0,34544229507446 1,1075646877289
-0,35152381658554 1,1038724184036
-0,35750585794449 1,100159406662
-0,36347991228104 1,0964028835297
-0,36934122443199 1,0926535129547
-0,37520554661751 1,0888484716415
-0,38095480203629 1,0850509405136
-0,38608691096306 1,0816376209259
-0,39067402482033 1,0787975788116
-0,39505782723427 1,0762740373611
-0,39928558468819 1,0739575624466
-0,40422257781029 1,0709339380264
-0,40969029068947 1,0671747922897
-0,41505321860313 1,0629217624664
-0,42014861106873 1,0587389469147
-0,42507821321487 1,0546077489853
-0,43022006750107 1,0501075983047
-0,43527811765671 1,0455310344696
-0,4402003288269 1,0409969091415
-0,4450586438179 1,0363951921463
-0,44983619451523 1,0317716598511
-0,45454543828964 1,0270479917526
-0,45916730165482 1,0222632884979
-0,46372103691101 1,0173898935318
-0,46819177269936 1,0124405622482
-0,47260457277298 1,0073919296265
-0,47695279121399 1,0022448301315
-0,48121362924576 0,99702274799347
-0,48543214797974 0,99166440963745
-0,48957103490829 0,98618584871292
-0,49388200044632 0,97996586561203
-0,49834242463112 0,97289454936981
-0,50294822454453 0,96519148349762
-0,50750279426575 0,95739567279816
-0,51199120283127 0,9495924115181
-0,51648616790771 0,94171124696732
-0,52094256877899 0,93383419513702
-0,52539312839508 0,92591106891632
-0,52983242273331 0,91796189546585
-0,53424793481827 0,91001254320145
-0,53865593671799 0,90201741456985
-0,54322910308838 0,89352905750275
-0,54776227474213 0,8849179148674
-0,55228114128113 0,87628352642059
-0,5567871928215 0,86768931150436
-0,56129777431488 0,85910141468048
-0,56581681966782 0,85050904750824
-0,57034057378769 0,84189957380295
-0,57486069202423 0,8332913517952
-0,57937824726105 0,8246842622757
-0,58391135931015 0,81605738401413
-0,58845317363739 0,8074215054512
-0,59300512075424 0,79877007007599
-0,5975661277771 0,79011303186417
-0,60211372375488 0,78145396709442
-0,60666573047638 0,77279531955719
-0,61117100715637 0,76422822475433
-0,61560934782028 0,75579249858856
-0,61998599767685 0,74748432636261
-0,62429249286652 0,73932695388794
-0,62852936983109 0,73129481077194
-0,63270080089569 0,7233818769455
-0,63681441545486 0,71558678150177
-0,64085507392883 0,70791453123093
-0,64483022689819 0,70035910606384
-0,64875811338425 0,69289535284042
-0,65262019634247 0,68554365634918
-0,65642207860947 0,67827945947647
-0,66014993190765 0,67112517356873
-0,66385120153427 0,66408056020737
-0,6674183011055 0,65726506710052
-0,67088484764099 0,65066707134247
-0,67424237728119 0,64429539442062
-0,67749089002609 0,63814556598663
-0,68062299489975 0,63219112157822
-0,68364262580872 0,62643730640411
-0,68655282258987 0,62091249227524
-0,68937087059021 0,61555683612823
-0,69201272726059 0,61052286624908
-0,69454288482666 0,60570800304413
-0,69692379236221 0,60115939378738
-0,69917911291122 0,59686356782913
-0,7012996673584 0,59280622005463
-0,7033097743988 0,58899104595184
-0,7052196264267 0,58535712957382
-0,70702773332596 0,5819303393364
-0,70900475978851 0,57810467481613
-0,71090680360794 0,57440060377121
-0,71272969245911 0,57084506750107
-0,71447420120239 0,56744968891144
-0,71613705158234 0,56417852640152
-0,71772998571396 0,56105327606201
-0,7192570567131 0,55804622173309
-0,72072154283524 0,55515944957733
-0,72211188077927 0,55243992805481
-0,7234673500061 0,54978787899017
-0,72475564479828 0,54728585481644
-0,72598516941071 0,54488879442215
-0,7271865606308 0,54254508018494
-0,72893929481506 0,53871244192123
-0,73076826334 0,53426945209503
-0,73239481449127 0,53002774715424
-0,73395454883575 0,52585065364838
-0,73543608188629 0,52187436819077
-0,73655515909195 0,51897042989731
-0,73760581016541 0,51690369844437
-0,73875820636749 0,51511013507843
-0,73993408679962 0,51331031322479
-0,74104034900665 0,51159536838531
-0,742103099823 0,50997942686081
-0,74314266443253 0,50837409496307
-0,7441868185997 0,50757920742035
-0,74521946907043 0,50718820095062
-0,74624836444855 0,50688469409943
-0,74745124578476 0,50543737411499
-0,74858194589615 0,50349235534668
-0,74964684247971 0,50170040130615
-0,75063073635101 0,49874156713486
-0,75140249729156 0,49519944190979
-0,75206160545349 0,49176532030106
-0,75265139341354 0,48838648200035
-0,75322568416595 0,48506197333336
-0,75372123718262 0,48172074556351
-0,75416094064713 0,47844702005386
-0,7545417547226 0,47523751854897
-0,75491237640381 0,47210177779198
-0,75527262687683 0,46896943449974
-0,75559097528458 0,46577531099319
-0,75578808784485 0,46264123916626
-0,75574147701263 0,45828953385353
-0,75562107563019 0,45415717363358
-0,75575053691864 0,45079112052917
-0,75594484806061 0,44757384061813
-0,75605517625809 0,44431644678116
-0,7560373544693 0,44099316000938
-0,75563061237335 0,43684953451157
-0,75486278533936 0,43218463659286
-0,75384312868118 0,42743664979935
-0,75281882286072 0,42265105247498
-0,75204014778137 0,41872674226761
-0,75162541866302 0,41536396741867
-0,75144404172897 0,41241726279259
-0,75084871053696 0,40839385986328
-0,74963682889938 0,40392670035362
-0,74779850244522 0,39896279573441
-0,74571913480759 0,39403614401817
-0,74336624145508 0,38894999027252
-0,74093496799469 0,38396152853966
-0,73848819732666 0,37910643219948
-0,73587214946747 0,374193161726
-0,73307651281357 0,36931592226028
-0,73008525371552 0,36428532004356
-0,7268431186676 0,35925596952438
-0,72343748807907 0,35417982935905
-0,7198423743248 0,34909802675247
-0,71600639820099 0,34393972158432
-0,7120121717453 0,33881965279579
-0,70781511068344 0,33370426297188
-0,70340776443481 0,32861179113388
-0,69887846708298 0,32350036501884
-0,69417041540146 0,31840550899506
-0,68870770931244 0,31263947486877
-0,68229287862778 0,30645287036896
-0,67508184909821 0,30000892281532
-0,66778898239136 0,29358637332916
-0,66047865152359 0,28721570968628
-0,65314865112305 0,28081232309341
-0,64587581157684 0,2743958234787
-0,63861018419266 0,26797062158585
-0,63134175539017 0,26149350404739
-0,62407243251801 0,25501909852028
-0,61678600311279 0,2485343515873
-0,60948717594147 0,24203109741211
-0,60220569372177 0,23554262518883
-0,59488481283188 0,22903302311897
-0,58757627010345 0,22251336276531
-0,58026874065399 0,21601800620556
-0,57296121120453 0,2095057964325
-0,56566941738129 0,20301309227943
-0,55838721990585 0,19654254615307
-0,55110728740692 0,19005849957466
-0,543836414814 0,18358175456524
-0,53658217191696 0,17711061239243
-0,52932184934616 0,17064586281776
-0,52206814289093 0,16419646143913
-0,5148246884346 0,15774439275265
-0,50756990909576 0,15128146111965
-0,50031912326813 0,14481964707375
-0,49306043982506 0,13835121691227
-0,48578518629074 0,13188418745995
-0,47850006818771 0,12539169192314
-0,47120395302773 0,11889109760523
-0,46390262246132 0,11238821595907
-0,45661482214928 0,10589721053839
-0,44929757714272 0,099374800920486
-0,44198656082153 0,092865139245987
-0,43470007181168 0,086378566920757
-0,42738729715347 0,079862087965012
-0,4201078414917 0,073388054966927
-0,41282296180725 0,066905826330185
-0,40555223822594 0,060437679290771
-0,39829394221306 0,053964775055647
-0,39105015993118 0,047513250261545
-0,38379409909248 0,041057713329792
-0,37655055522919 0,034600917249918
-0,36930054426193 0,028141194954515
-0,36205196380615 0,021681904792786
-0,35479465126991 0,015217503532767
-0,34751015901566 0,008738175034523
-0,34021669626236 0,0022418615408242
-0,33293059468269 -0,0042525110766292
-0,3256194293499 -0,010761242359877
-0,31832697987556 -0,017253814265132
-0,31102791428566 -0,023759089410305
-0,30370950698853 -0,030259266495705
-0,29639452695847 -0,036785908043385
-0,28909829258919 -0,043268121778965
-0,28181901574135 -0,049753375351429
-0,27454453706741 -0,056224875152111
-0,26727977395058 -0,062707491219044
-0,26001724600792 -0,069164842367172
-0,25274932384491 -0,075633592903614
-0,24551479518414 -0,082076355814934
-0,23827293515205 -0,088529899716377
-0,2310132086277 -0,095000721514225
-0,22374784946442 -0,10147353261709
-0,21650275588036 -0,10793559253216
-0,20921882987022 -0,11441776901484
-0,20193763077259 -0,12089551985264
-0,19462957978249 -0,12741100788116
-0,18734157085419 -0,13390250504017
-0,18003553152084 -0,14041677117348
-0,17272293567657 -0,14693227410316
-0,16541774570942 -0,15343981981277
-0,15810924768448 -0,15994477272034
-0,15081524848938 -0,16644307971001
-0,14352130889893 -0,17294016480446
-0,13624283671379 -0,17942391335964
-0,128976136446 -0,18588599562645
-0,12174061685801 -0,19233052432537
-0,11462827026844 -0,19863775372505
-0,10759109258652 -0,2048407047987
-0,1006264090538 -0,21096989512444
-0,093709401786327 -0,21706607937813
-0,086780041456223 -0,2231812030077
-0,079900667071342 -0,2293059527874
-0,072932794690132 -0,23553244769573
-0,065827734768391 -0,24197658896446
-0,058748789131641 -0,24847070872784
-0,05181410163641 -0,25485697388649
-0,045019835233688 -0,26114338636398
-0,038354948163033 -0,26730605959892
-0,031803116202354 -0,27336052060127
-0,025371769443154 -0,27930921316147
-0,019063824787736 -0,28515794873238
-0,012868104502559 -0,29088288545609
-0,0067728101275861 -0,29649347066879
-0,00082881486741826 -0,30195757746696
0,005063674878329 -0,3073256611824
0,01082412712276 -0,31256854534149
0,016473697498441 -0,31767442822456
0,02280031889677 -0,32327371835709
0,029210144653916 -0,32884648442268
0,035583239048719 -0,33431506156921
0,041876066476107 -0,33967739343643
0,048137880861759 -0,34499496221542
0,054337870329618 -0,35020223259926
0,060526125133038 -0,35535714030266
0,066685810685158 -0,36042276024818
0,072874426841736 -0,36550039052963
0,078950859606266 -0,37038680911064
0,084995530545712 -0,3752227127552
0,091092385351658 -0,38010841608047
0,096952721476555 -0,38467982411385
0,10200361907482 -0,3886587023735
0,10620950162411 -0,39211991429329
0,10985861718655 -0,39524671435356
0,11330193281174 -0,39806285500526
0,11654168367386 -0,40070295333862
0,11966294050217 -0,40318870544434
0,12295285612345 -0,40579360723495
0,12750846147537 -0,40921521186829
0,13299058377743 -0,41293549537659
0,13867639005184 -0,41660824418068
0,14432822167873 -0,42019471526146
0,14989556372166 -0,42366448044777
0,15539214015007 -0,42707547545433
0,16101452708244 -0,43055304884911
0,16673356294632 -0,43406385183334
0,17255195975304 -0,43762016296387
0,17843376100063 -0,44126862287521
0,18441936373711 -0,44491314888
0,19035086035728 -0,44851452112198
0,19632312655449 -0,45199489593506
0,20238748192787 -0,45544710755348
0,20847460627556 -0,45887413620949
0,21461446583271 -0,46220821142197
0,22074596583843 -0,46543231606483
0,22706334292889 -0,4686393737793
0,23348343372345 -0,47179239988327
0,2399939596653 -0,47490587830544
0,246452242136 -0,477917522192
0,25304886698723 -0,48085626959801
0,25973483920097 -0,48368221521378
0,26642721891403 -0,48641729354858
0,27406233549118 -0,4893262386322
0,28221994638443 -0,49213749170303
0,29079222679138 -0,49480175971985
0,29928728938103 -0,49722418189049
0,30767914652824 -0,4995718896389
0,31599718332291 -0,50194990634918
0,32426658272743 -0,50439792871475
0,33248966932297 -0,50685751438141
0,34074336290359 -0,50935328006744
0,34897702932358 -0,51190412044525
0,35728093981743 -0,51460123062134
0,36567878723145 -0,5173773765564
0,37420302629471 -0,52025753259659
0,38290917873383 -0,52328288555145
0,39177158474922 -0,52640384435654
0,40079674124718 -0,52963507175446
0,40999656915665 -0,53296571969986
0,41918581724167 -0,53630131483078
0,42837256193161 -0,53963667154312
0,43758687376976 -0,54298305511475
0,44678568840027 -0,54632818698883
0,45597869157791 -0,54966503381729
0,46515840291977 -0,55299508571625
0,47431960701942 -0,55632293224335
0,48348945379257 -0,55965209007263
0,49263495206833 -0,56298625469208
0,50176358222961 -0,56630599498749
0,51089549064636 -0,56961578130722
0,52002489566803 -0,57292997837067
0,52915585041046 -0,5762437582016
0,53829139471054 -0,57956516742706
0,54742819070816 -0,58288490772247
0,55657982826233 -0,58620882034302
0,56572967767715 -0,58953034877777
0,57490593194962 -0,5928612947464
0,58408975601196 -0,59619349241257
0,59327429533005 -0,59952747821808
0,60247027873993 -0,60286158323288
0,61166989803314 -0,60620355606079
0,62086683511734 -0,60954242944717
0,63005566596985 -0,61287534236908
0,63922870159149 -0,6162046790123
0,64840888977051 -0,61953747272491
0,65756332874298 -0,62286400794983
0,66670936346054 -0,62618064880371
0,67585402727127 -0,62950134277344
0,68498623371124 -0,63282072544098
0,69412243366241 -0,63613498210907
0,70323729515076 -0,63943898677826
0,71236437559128 -0,64275258779526
0,72152149677277 -0,64607459306717
0,73065519332886 -0,64938777685165
0,73981946706772 -0,65271079540253
0,74898779392242 -0,65603673458099
0,75817584991455 -0,65937775373459
0,76737034320831 -0,66270691156387
0,7765566110611 -0,66602885723114
0,78575426340103 -0,66936373710632
0,79495942592621 -0,67271322011948
0,80414611101151 -0,67605042457581
0,81334066390991 -0,67937934398651
0,82251596450806 -0,68270939588547
0,83166438341141 -0,68602430820465
0,84082162380219 -0,6893504858017
0,84995096921921 -0,69266831874847
0,85910004377365 -0,69599115848541
0,86822146177292 -0,69929701089859
0,87734872102737 -0,70260751247406
0,88647139072418 -0,70591974258423
0,89562427997589 -0,70924246311188
0,90477573871613 -0,71255987882614
0,9139267206192 -0,71589201688766
0,92307651042938 -0,71920907497406
0,93210649490356 -0,72250699996948
0,9410360455513 -0,72575825452805
0,94984704256058 -0,7289856672287
