-9.384256E-36 4.586E-41
0.14999999 1.0499998
0.14982545 1.0501714
0.14970954 1.0500226
0.14912365 1.0502297
0.14651033 1.0508305
0.1447612 1.0508053
0.14274737 1.0482385
0.14274737 1.0482385
0.1430121 1.0439935
0.1437961 1.041684
0.14487347 1.0394374
0.14710857 1.034539
0.14854917 1.0294156
0.15137559 1.0201724
0.1524703 1.0177189
0.15432253 1.0127586
0.15548715 1.0059224
0.15668875 0.99760246
0.1579722 0.98172075
0.15817979 0.974102
0.15767403 0.9592851
0.15709761 0.9521643
0.15560825 0.93701744
0.15548596 0.92688435
0.15779957 0.90472806
0.16064858 0.8925357
0.16366014 0.88189757
0.16562977 0.87443864
0.16748402 0.8661267
0.17023107 0.85702866
0.17368476 0.84911317
0.18636443 0.82695866
0.19517817 0.81426334
0.20860775 0.7958711
0.21570015 0.7880865
0.2255582 0.7768768
0.24823411 0.7527277
0.25830868 0.74274725
0.28051487 0.7201686
0.28877303 0.71189153
0.30874184 0.69269305
0.3214025 0.681249
0.3214025 0.681249
0.34718937 0.6583177
0.3602152 0.64705575
0.37341338 0.63620913
0.38673955 0.62579906
0.41339833 0.6075288
0.42490777 0.60039014
0.4434913 0.59015286
0.4516735 0.5866615
0.45961052 0.5842337
0.47895187 0.5815971
0.48832422 0.5808568
0.48832422 0.5808568
0.5097188 0.5821794
0.5097188 0.5821794
0.5329464 0.58642197
0.5424476 0.58821756
0.5502311 0.58963025
0.5502311 0.58963025
0.5572282 0.59181654
0.5711386 0.5988828
0.57814276 0.6033523
0.59194106 0.6138024
0.5984234 0.61952865
0.60452205 0.62517947
0.61038864 0.6309467
0.61607194 0.635954
0.6214921 0.6408138
0.6265748 0.64566225
0.63328695 0.65682805
0.6355964 0.6627447
0.6407968 0.66628075
0.6407968 0.66628075
0.64650214 0.66952616
0.6499742 0.6740017
0.65414256 0.6782202
0.65414256 0.6782202
0.6570128 0.6825636
0.65715563 0.68735385
0.6545571 0.6917318
0.6545571 0.6917318
0.64333576 0.69800246
0.6363038 0.6995331
0.6363038 0.6995331
0.6275238 0.699482
0.619711 0.6992496
0.619711 0.6992496
0.6130496 0.69861114
0.6047913 0.69652
0.59670866 0.694091
0.59670866 0.694091
0.5809088 0.68737143
0.57316536 0.6833358
0.5579387 0.6716224
0.5505874 0.6635275
0.543339 0.6537844
0.5311764 0.6331273
0.524081 0.61948097
0.524081 0.61948097
0.51669717 0.6040676
0.5133147 0.59684724
0.5104021 0.5886327
0.50628453 0.5713934
0.50509226 0.56289446
0.50402486 0.55388916
0.502547 0.53531677
0.502547 0.53531677
0.5027451 0.5171629
0.5027451 0.5171629
0.50381684 0.50817215
0.5071231 0.48938623
0.50935006 0.47998682
0.51178896 0.47084254
0.51178896 0.47084254
0.5148227 0.4621493
0.51809853 0.454571
0.51809853 0.454571
0.52569854 0.4412209
0.52569854 0.4412209
0.52783227 0.43562722
0.5294355 0.4307677
0.53167796 0.42631537
0.53167796 0.42631537
0.5353039 0.42218557
0.5412583 0.41839966
0.5412583 0.41839966
0.54923284 0.41553578
0.55815285 0.41369456
0.56751263 0.4130637
0.56751263 0.4130637
0.5782625 0.41360968
0.58844215 0.41486645
0.58844215 0.41486645
0.6075849 0.419017
0.6147648 0.42114812
0.6211873 0.423235
0.6298025 0.4262762
0.6480202 0.43497396
0.6565242 0.4401152
0.66493803 0.44560346
0.68106556 0.45758677
0.6888504 0.4640356
0.70363116 0.4768613
0.7090535 0.4821453
0.71642196 0.4894198
0.7192153 0.4919935
0.7213231 0.49442166
0.7205611 0.4946677
0.7213773 0.49580747
0.7296587 0.5006347
0.7296587 0.5006347
0.74720615 0.5077271
0.7578908 0.51137906
0.77250034 0.51694375
0.77250034 0.51694375
0.7804998 0.5199233
0.7804998 0.5199233
0.78407043 0.5212265
0.7875867 0.52245784
0.7875867 0.52245784
0.7902452 0.52331966
0.79180825 0.5239087
0.79467523 0.52433723
0.79696053 0.5247325
0.79753935 0.5249881
0.79753935 0.5249881
0.7975473 0.5250094
0.7975473 0.5250094
0.7981818 0.5250947
0.80000985 0.52552164
0.80000985 0.52552164
0.79852545 0.5265782
0.79852545 0.5265782
0.79629576 0.5274447
0.79614717 0.52769166
0.80191004 0.52802306
0.80191004 0.52802306
0.8184139 0.5276993
0.8184139 0.5276993
0.83001506 0.5270934
0.8421208 0.52655506
0.8421208 0.52655506
0.86707276 0.52569
0.87757 0.52558994
0.89107245 0.5257489
0.90166605 0.5252811
0.91745824 0.52452546
0.92088234 0.52468127
0.92174006 0.5251794
0.9214419 0.526046
0.9256765 0.52712566
0.92767227 0.5270869
0.9289962 0.5271256
0.92897624 0.52713495
0.9316138 0.52598304
0.9353522 0.52506214
0.944116 0.5230416
0.95095044 0.52158093
0.9610543 0.51893306
0.9893181 0.50895923
1.0049233 0.50220513
1.03678 0.48799977
1.0525204 0.4802533
1.0795262 0.4659863
1.0905268 0.46007675
1.1112171 0.44909328
1.117597 0.44604248
1.1281321 0.44071347
1.1362749 0.43548837
1.1466544 0.42788857
1.1629283 0.41506785
1.1669871 0.4121582
1.179587 0.40024552
1.1890844 0.39015764
1.1890844 0.39015764
