0 [0.0, 0.0, 0.0, 0.0, 0.0, 0.0, 0.0, 0.0]
1 [0.0, 0.0, 0.0, 0.0, 0.0, 0.0, 0.0, 0.0]
2 [0.0, 0.0, 0.5703917, 0.55997354, 0.0, 0.0, 0.0, 0.0]
3 [0.0, 0.0, 0.5815344, 0.5609294, 0.0, 0.0, 0.0, 0.0]
4 [0.0, 0.0, 0.60304487, 0.5608412, 0.0, 0.0, 0.0, 0.0]
5 [0.0, 0.0, 0.0, 0.5607217, 0.0, 0.0, 0.0, 0.0]
6 [0.0, 0.0, 0.0, 0.55667776, 0.55288833, 0.0, 0.0, 0.0]
7 [0.0, 0.0, 0.0, 0.5498531, 0.55143607, 0.0, 0.0, 0.0]
8 [0.0, 0.0, 0.0, 0.5423635, 0.5363295, 0.0, 0.0, 0.0]
9 [0.0, 0.0, 0.0, 0.520023, 0.50614005, 0.0, 0.0, 0.0]
10 [0.0, 0.0, 0.0, 0.49260503, 0.4773817, 0.0, 0.0, 0.0]
11 [0.0, 0.0, 0.0, 0.45540038, 0.44242194, 0.0, 0.0, 0.0]
12 [0.0, 0.0, 0.0, 0.4189488, 0.40565762, 0.0, 0.0, 0.0]
13 [0.0, 0.0, 0.0, 0.37543505, 0.35979503, 0.0, 0.0, 0.0]
14 [0.0, 0.0, 0.0, 0.35519645, 0.33057597, 0.0, 0.0, 0.0]
15 [0.0, 0.0, 0.0, 0.34382725, 0.30153298, 0.49138892, 0.0, 0.0]
16 [0.0, 0.0, 0.0, 0.33221644, 0.27540106, 0.27282205, 0.0, 0.0]
17 [0.0, 0.0, 0.0, 0.0, 0.24924017, 0.24362841, 0.0, 0.0]
18 [0.0, 0.0, 0.0, 0.0, 0.23532255, 0.2267014, 0.0, 0.0]
19 [0.0, 0.0, 0.0, 0.0, 0.22308566, 0.21032828, 0.0, 0.0]
20 [0.0, 0.0, 0.0, 0.0, 0.21040766, 0.19407937, 0.0, 0.0]
21 [0.0, 0.0, 0.0, 0.0, 0.19724932, 0.17866826, 0.0, 0.0]
22 [0.0, 0.0, 0.0, 0.0, 0.18390097, 0.16397992, 0.35683993, 0.0]
23 [0.0, 0.0, 0.0, 0.0, 0.16948654, 0.14927523, 0.14870827, 0.0]
24 [0.0, 0.0, 0.0, 0.0, 0.15458198, 0.13496216, 0.13510273, 0.0]
25 [0.0, 0.0, 0.0, 0.0, 0.13968886, 0.12076009, 0.12106495, 0.0]
26 [0.0, 0.0, 0.0, 0.0, 0.12491803, 0.106327444, 0.10679479, 0.0]
27 [0.0, 0.0, 0.0, 0.0, 0.10998782, 0.09162479, 0.09225054, 0.0]
28 [0.0, 0.9943853, 0.0, 0.0, 0.0948038, 0.07689414, 0.07775096, 0.0]
