0 [1.0, 1.0, 1.0, 1.0, 1.0, 1.0, 1.0, 1.0]
1 [1.0, 1.0, 1.0, 1.0, 1.0, 1.0, 1.0, 1.0]
2 [1.0, 1.0, 1.0, 1.0, 1.0, 1.0, 1.0, 1.0]
3 [1.0, 1.0, 1.0, 1.0, 1.0, 1.0, 1.0, 1.0]
4 [1.0, 1.0, 1.0, 1.0, 1.0, 1.0, 1.0, 1.0]
5 [1.0, 1.0, 1.0, 1.0, 1.0, 1.0, 1.0, 1.0]
6 [1.0, 1.0, 1.0, 1.0, 1.0, 1.0, 1.0, 1.0]
7 [1.0, 1.0, 1.0, 1.0, 1.0, 1.0, 1.0, 1.0]
8 [1.0, 1.0, 1.0, 1.0, 1.0, 1.0, 1.0, 1.0]
9 [1.0, 1.0, 1.0, 1.0, 1.0, 1.0, 1.0, 1.0]
10 [1.0, 1.0, 1.0, 1.0, 1.0, 1.0, 1.0, 1.0]
11 [1.0, 1.0, 1.0, 1.0, 1.0, 1.0, 1.0, 1.0]
12 [1.0, 1.0, 1.0, 1.0, 1.0, 1.0, 1.0, 1.0]
13 [1.0, 1.0, 1.0, 1.0, 1.0, 1.0, 1.0, 1.0]
14 [1.0, 1.0, 1.0, 1.0, 1.0, 1.0, 1.0, 1.0]
15 [1.0, 1.0, 1.0, 1.0, 1.0, 1.0, 1.0, 1.0]
16 [1.0, 1.0, 1.0, 1.0, 1.0, 1.0, 1.0, 1.0]
17 [1.0, 1.0, 1.0, 1.0, 1.0, 1.0, 1.0, 1.0]
18 [1.0, 1.0, 1.0, 1.0, 1.0, 1.0, 1.0, 1.0]
19 [1.0, 1.0002337, 1.094249, 1.6964109, 1.094249, 1.0002337, 1.0, 1.0]
20 [1.0, 1.0001682, 1.0678777, 1.5015521, 1.0678777, 1.0001682, 1.0, 1.0]
21 [1.0, 1.0001273, 1.0513463, 1.3794004, 1.0513463, 1.0001273, 1.0, 1.0]
22 [1.0, 1.0000961, 1.0387737, 1.286501, 1.0387737, 1.0000961, 1.0, 1.0]
23 [1.0, 1.0000693, 1.0281825, 1.2965615, 1.6927359, 1.090037, 1.000223, 1.0]
24 [1.0, 1.0000523, 1.0213407, 1.2406449, 1.6455406, 1.0845569, 1.0002095, 1.0]
25 [1.0000589, 1.0235476, 1.081603, 0.38436344, 1.3275149, 1.0568393, 1.0001415, 1.0]
26 [1.0002316, 1.093227, 1.612644, 0.56205624, 1.2410169, 1.0429158, 1.0001068, 1.0]
27 [1.0001585, 1.0639163, 1.4475973, 0.99693406, 1.8688635, 1.1209477, 1.0002999, 1.0]
28 [1.00012, 1.0485454, 1.4134148, 1.5543807, 1.7646419, 1.0960947, 1.0002378, 1.0]
29 [1.0000907, 1.0367043, 1.3167683, 1.3509648, 0.83167243, 0.9710316, 0.9999279, 1.0]
30 [1.0000684, 1.0277137, 1.2393942, 1.2458538, 0.7167128, 0.95695263, 0.99989307, 1.0]
31 [1.0000517, 1.0209455, 1.1811777, 1.2789667, 1.4733276, 1.060497, 1.0001498, 1.0]
32 [0.99978614, 0.9137633, 0.38275108, 1.1157758, 1.4102643, 1.0528687, 1.0001309, 1.0]
33 [0.9997863, 0.9138373, 0.37842482, 1.0669487, 1.313219, 1.0403904, 1.0001, 1.0]
34 [0.9998355, 0.9336688, 0.5209971, 0.9410245, 0.43663716, 0.9222481, 0.9998072, 1.0]
35 [1.0001091, 1.0437478, 1.2253306, 0.24284649, 0.41803855, 0.93445605, 0.9998382, 1.0]
36 [1.0001029, 1.0412884, 1.224688, 0.3876039, 0.5511203, 0.9501003, 0.9998768, 1.0]
37 [1.0000665, 1.0267216, 1.1457076, 0.5151849, 0.027343001, 0.87531656, 0.99969125, 1.0]
38 [1.0000503, 1.0202059, 1.1120362, 0.6247219, 0.09590923, 0.8826419, 0.9997093, 1.0]
39 [1.0000311, 1.0125159, 1.0693811, 0.7610197, 0.39174855, 0.9207775, 0.9998037, 1.0]
40 [0.99993455, 0.9735629, 0.7872141, 0.7836606, 0.54054815, 0.9401691, 0.9998518, 1.0]
41 [0.9997519, 0.8998713, 0.24696231, 0.7563452, 0.65254825, 0.9547798, 0.99988794, 1.0]
42 [0.9998125, 0.92432386, 0.4308673, 0.8179508, 0.7529308, 0.967925, 0.99992055, 1.0]
43 [0.9998484, 0.9388257, 0.54045415, 0.85843074, 0.81325924, 0.97575825, 0.9999399, 1.0]
44 [0.9998854, 0.9537474, 0.6525496, 0.8929862, 0.85886437, 0.9816785, 0.99995464, 1.0]
45 [0.9999187, 0.96717864, 0.7531948, 0.9245786, 0.91765356, 0.9894432, 0.99997383, 1.0]
46 [0.99993855, 0.9752022, 0.8167479, 0.96723163, 0.9410436, 0.9920294, 0.9999803, 1.0]
47 [0.99995357, 0.9812769, 0.86165434, 0.9812769, 0.99995357, 1.0, 1.0, 1.0]
48 [0.99996495, 0.98584944, 0.8954294, 0.9813011, 0.96635723, 0.9954517, 0.99998873, 1.0]
49 [0.99997354, 0.9893159, 0.92104614, 0.9858818, 0.97459877, 0.9965659, 0.9999915, 1.0]
