0 -3.1415925
0 -3.1415925
0 -3.1415925
0 3.1415925
0 -0.0
0 -0.0
0 -0.0
0 -0.0
0 -0.0
1 -3.1415925
1 -3.1415925
1 -3.1415925
1 3.1415925
1 -0.0
1 -0.0
1 -0.0
1 -0.0
1 -0.0
2 -3.1415925
2 -3.1415925
2 -3.1415925
2 3.1415925
2 -0.0
2 -0.0
2 -0.0
2 -0.0
2 -0.0
3 -3.1415925
3 -3.1415925
3 -3.1415925
3 3.1415925
3 -0.0
3 -0.0
3 -0.0
3 -0.0
3 -0.0
4 -3.1415925
4 -3.1415925
4 -3.1415925
4 3.1415925
4 -0.0
4 -0.0
4 -0.0
4 -0.0
4 -0.0
5 -3.1415925
5 -3.1415925
5 -3.1415925
5 3.1415925
5 -0.0
5 -0.0
5 -0.0
5 -0.0
5 -0.0
6 -3.1415925
6 -3.1415925
6 -3.1415925
6 3.1415925
6 -0.0
6 -0.0
6 -0.0
6 -0.0
6 -0.0
7 -3.1415925
7 -3.1415925
7 -3.1415925
7 3.1415925
7 -0.0
7 -0.0
7 -0.0
7 -0.0
7 -0.0
8 -3.1415925
8 -3.1415925
8 -3.1415925
8 3.1415925
8 -0.0
8 -0.0
8 -0.0
8 -0.0
8 -0.0
9 -3.1415925
9 -3.1415925
9 -3.1415925
9 3.1415925
9 -0.0
9 -0.0
9 -0.0
9 -0.0
9 -0.0
10 -3.1415925
10 -3.1415925
10 -3.1415925
10 3.1415925
10 -0.0
10 -0.0
10 -0.0
10 -0.0
10 -0.0
11 -3.1415925
11 -3.1415925
11 -3.1415925
11 3.1415925
11 -0.0
11 -0.0
11 -0.0
11 -0.0
11 -0.0
12 3.134978
12 3.1329947
12 3.1284802
12 3.1045918
12 0.039213974
12 0.013347542
12 0.008672125
12 0.006614587
12 0.00512552
13 3.134978
13 3.1329947
13 3.1284802
13 3.1045918
13 0.039213974
13 0.013347542
13 0.008672125
13 0.006614587
13 0.00512552
14 3.1294124
14 3.1261203
14 3.118552
14 3.0825827
14 0.08612824
14 0.025838392
14 0.016355006
14 0.012180353
14 0.03304555
15 3.1294124
15 3.1261203
15 3.118552
15 3.0825827
15 0.08612824
15 0.025838392
15 0.016355006
15 0.012180353
15 0.03304555
16 3.1304867
16 3.127735
16 3.121318
16 3.0929163
16 0.09287038
16 0.024561448
16 0.015204391
16 0.011105893
16 0.055163436
17 3.1304867
17 3.127735
17 3.121318
17 3.0929163
17 0.09287038
17 0.024561448
17 0.015204391
17 0.011105893
17 0.055163436
18 3.130257
18 3.1281269
18 3.122773
18 3.102538
18 0.19619182
18 0.028524434
18 0.016435834
18 0.011335919
18 0.117837295
19 3.130257
19 3.1281269
19 3.122773
19 3.102538
19 0.19619182
19 0.028524434
19 0.016435834
19 0.011335919
19 0.117837295
20 3.1304655
20 3.1287408
20 3.1240616
20 3.1075764
20 0.5053467
20 0.030493854
20 0.01671958
20 0.0111273145
20 0.15464836
21 3.1304655
21 3.1287408
21 3.1240616
21 3.1075764
21 0.5053467
21 0.030493854
21 0.01671958
21 0.0111273145
21 0.15464836
22 3.1317322
22 3.1307395
22 3.1273525
22 3.1164927
22 2.9293964
22 0.032134514
22 0.015844919
22 0.009860458
22 0.21925999
23 3.1317322
23 3.1307395
23 3.1273525
23 3.1164927
23 2.9293964
23 0.032134514
23 0.015844919
23 0.009860458
23 0.21925999
24 3.133112
24 3.1324475
24 3.1297796
24 3.121491
24 3.028888
24 0.03016967
24 0.014061869
24 0.008480636
24 0.24732745
25 3.133112
25 3.1324475
25 3.1297796
25 3.121491
25 3.028888
25 0.03016967
25 0.014061869
25 0.008480636
25 0.24732745
26 3.13562
26 3.1352615
26 3.13352
26 3.1282327
26 3.0821352
26 0.023103872
26 0.010190173
26 0.0059724976
26 0.27150938
27 3.13562
27 3.1352615
27 3.13352
27 3.1282327
27 3.0821352
27 0.023103872
27 0.010190173
27 0.0059724976
27 0.27150938
28 3.1393094
28 3.139193
28 3.1385581
28 3.1366558
28 3.1220593
28 0.009401446
28 0.003982753
28 0.0022832367
28 0.28739163
29 3.1393094
29 3.139193
29 3.1385581
29 3.1366558
29 3.1220593
29 0.009401446
29 0.003982753
29 0.0022832367
29 0.28739163
30 3.1393094
30 3.139193
30 3.1385581
30 3.1366558
30 3.1220593
30 0.009401446
30 0.003982753
30 0.0022832367
30 0.28739163
31 3.1415195
31 3.141505
31 3.1414826
31 3.1414156
31 3.1409483
31 3.6577665E-4
31 1.4955451E-4
31 7.320719E-5
31 0.30029362
32 3.1415195
32 3.141505
32 3.1414826
32 3.1414156
32 3.1409483
32 3.6577665E-4
32 1.4955451E-4
32 7.320719E-5
32 0.30029362
33 -3.1392994
33 -3.1392496
33 -3.1386666
33 -3.1369536
33 -3.1258
33 -0.010355712
33 -0.0040850723
33 -0.0022932389
33 0.31241608
34 -3.1392994
34 -3.1392496
34 -3.1386666
34 -3.1369536
34 -3.1258
34 -0.010355712
34 -0.0040850723
34 -0.0022932389
34 0.31241608
35 -3.1389487
35 -3.1389112
35 -3.138262
35 -3.1363678
35 -3.1247654
35 -0.012543188
35 -0.004778991
35 -0.0026440728
35 0.32334912
36 -3.1389487
36 -3.1389112
36 -3.138262
36 -3.1363678
36 -3.1247654
36 -0.012543188
36 -0.004778991
36 -0.0026440728
36 0.32334912
37 -3.1401753
37 -3.1401482
37 -3.139788
37 -3.1387281
37 -3.1317852
37 -0.006349515
37 -0.0025128517
37 -0.0014172161
37 0.31135178
38 -3.1401753
38 -3.1401482
38 -3.139788
38 -3.1387281
38 -3.1317852
38 -0.006349515
38 -0.0025128517
38 -0.0014172161
38 0.31135178
39 -3.1401753
39 -3.1401482
39 -3.139788
39 -3.1387281
39 -3.1317852
39 -0.006349515
39 -0.0025128517
39 -0.0014172161
39 0.31135178
40 -3.141049
40 -3.1410363
40 -3.1408896
40 -3.1404517
40 -3.13713
40 -0.0021975364
40 -9.2655217E-4
40 -5.435934E-4
40 0.28920108
41 -3.141049
41 -3.1410363
41 -3.1408896
41 -3.1404517
41 -3.13713
41 -0.0021975364
41 -9.2655217E-4
41 -5.435934E-4
41 0.28920108
42 3.140375
42 3.1402867
42 3.1399212
42 3.1388037
42 3.1283817
42 0.0046232855
42 0.002073999
42 0.0012177699
42 0.26436323
43 3.1383307
43 3.1380417
43 3.1369789
43 3.1336384
43 3.0904708
43 0.011237321
43 0.0053538554
43 0.0032620456
43 0.23671831
44 3.1360016
44 3.135383
44 3.1333914
44 3.1269124
44 2.9786782
44 0.017641565
44 0.008880277
44 0.005591062
44 0.2078686
45 3.1341348
45 3.1331577
45 3.1302867
45 3.120618
45 2.4242842
45 0.02196715
45 0.01153525
45 0.0074579953
45 0.18294792
46 3.133038
46 3.1317835
46 3.1282945
46 3.1162012
46 0.6979602
46 0.02402496
46 0.012983056
46 0.008554677
46 0.16446438
47 3.1336238
47 3.1323726
47 3.1289992
47 3.1170695
47 0.34533453
47 0.021738697
47 0.011952555
47 0.007968927
47 0.15262143
48 3.1363752
48 3.1355314
48 3.1332877
48 3.1252823
48 0.19039775
48 0.014072417
48 0.007790822
48 0.0052174404
48 0.14772497
49 3.1405082
49 3.1403277
49 3.139859
49 3.1381874
49 0.04010684
49 0.0029370887
49 0.0016260243
49 0.0010846123
49 0.147662
