0 -1
1 -1
2 -1
3 -1
4 -1
5 -1
6 -1
7 -1
8 -1
9 -1
10 -1
11 1018631
12 939250
13 940500
14 1018631
15 1174395
16 1408980
17 1187062
18 1408225
19 1174375
20 1184353
21 1171879
22 1171879
23 1187075
24 1248461
25 1248211
26 1183350
27 1184225
28 1453358
29 1186250
30 1246875
31 1183750
32 1234375
33 1174375
34 1174375
35 1184499
36 1174375
37 1185062
38 1184442
39 1172620
40 1185791
41 1495265
42 1484375
43 1186270
44 778290
45 405625
46 766430
47 766455
48 761400
49 703125
50 766455
51 766450
52 1243854
53 1243756
54 -1
55 1243768
56 1547700
57 1485206
58 1485206
59 1540628
60 1540629
61 1485205
62 1540649
63 1485230
64 1559399
65 1485230
66 1522149
67 1485205
68 1503268
69 1484375
70 1485130
71 1515751
72 1171879
73 1234875
74 844250
75 861116
76 969024
77 860361
78 1250986
79 1500125
80 1407240
81 1437774
82 1329240
83 1500254
84 1484625
85 1484375
86 1328449
87 1484375
88 1173615
89 1173620
90 1328449
91 1173620
92 1406800
93 1171879
94 1251746
95 1484526
96 1484375
97 1484699
98 703131
99 -1
100 703149
101 473621
102 473622
103 703636
104 390649
105 703149
106 396123
107 703149
108 703143
109 396249
110 703143
111 391125
112 703149
113 391125
114 703149
115 468754
116 391125
117 1187375
118 1196818
119 1344240
120 1344240
121 1172375
122 1171895
123 1344240
124 1171895
125 -1
126 1484385
127 1484375
128 1171895
129 1343990
130 1171895
131 1343990
132 1171895
133 1171895
134 1171899
135 1171879
136 1422116
137 1171879
138 1172375
139 1172375
140 1172379
141 781754
142 781496
143 782754
144 875247
145 782754
146 484622
147 390629
148 484622
149 390629
150 390629
151 4
152 504
153 4
154 -1
155 546889
156 468923
157 546889
158 390645
159 468948
160 468948
161 391125
162 390649
163 547699
164 390649
165 390649
166 391125
167 391534
168 390649
169 391125
170 1171899
171 1171899
172 1180562
173 1234375
174 1280757
175 1246875
176 1296383
177 1325000
178 1296393
179 1296388
180 1484375
181 1531250
182 1296387
183 1484375
184 1184375
185 1484375
186 1184375
187 1184375
188 1184375
189 1418750
190 1184375
191 1418750
192 1496875
193 1184375
194 1485625
195 1184375
196 1234375
197 712500
198 715625
199 737500
200 453125
201 740625
202 453125
203 764507
204 453125
205 705629
206 705629
207 453125
208 705629
209 375000
210 1093750
211 1096254
212 1093754
213 1093750
214 1106250
215 1093750
216 825007
217 1028125
218 840632
219 1028125
220 1028125
221 934413
222 793750
223 609419
224 609414
225 612539
226 690663
227 690663
228 703125
229 693788
230 771913
231 703125
232 768788
233 703125
234 703125
235 -1
236 768787
237 750037
238 703125
239 734407
240 734407
241 734407
242 1171879
243 1374060
244 1171979
245 1374090
246 1171879
247 1184475
248 1184375
249 1171879
250 1175100
251 1446745
252 1172475
253 1181350
254 1184475
255 1184475
256 1171975
257 1171975
258 1171975
259 1234395
260 1171975
261 1234395
262 -1
263 1171995
264 1234395
265 1184495
266 1184495
267 1171895
268 390629
269 403245
270 390629
271 498138
272 592004
273 390629
274 390725
275 390629
276 703129
277 75015
278 312504
279 313279
280 312500
281 1094250
282 1093750
283 781254
284 1043100
285 1496975
286 1203379
287 1374350
288 1203379
289 1172375
290 1203379
291 -1
292 1203379
293 1328379
294 1171879
295 1172375
296 1311225
297 1484975
298 1233745
299 1484975
300 1484675
301 1232965
302 1484675
303 1172375
304 1172375
305 1484975
306 1484375
307 1172375
308 1242495
309 1234375
310 1343819
311 1249495
312 1343789
313 1343789
314 1343789
315 1184375
316 1343789
317 1265664
318 1246875
319 1343789
320 1484375
321 1559375
322 1484375
323 1484375
324 1484375
325 1265664
326 1265664
327 1421914
328 1484375
329 1484375
330 1484375
331 1343789
332 1343789
333 1187539
334 1187539
335 1187539
336 1265664
337 1265664
338 1265664
339 1265664
340 1265664
341 1265664
342 1265664
343 1265664
344 1265664
345 1265664
346 -1
347 1265664
348 1265664
349 1265664
350 1265664
351 1265664
352 1265664
353 1265664
354 1265664
355 1421914
356 1421914
357 1421914
358 1343789
359 1343789
360 1405639
361 1265824
362 1186875
363 1187539
364 1186875
365 1187475
366 1265634
367 1559379
368 1265634
369 1265634
370 1265634
371 1265634
372 1562495
373 1171879
374 1171879
375 -1
376 1343759
377 1171879
378 1343764
379 1171879
380 1171879
381 1171879
382 1440664
383 1050039
384 783750
385 1128138
386 1031259
387 15500
388 15500
389 312504
390 250014
391 78129
392 150697
393 303198
394 312504
395 287574
396 312504
397 312504
398 268789
399 312524
400 1050039
401 1484395
402 1440639
403 1484395
404 1440664
405 -1
406 1440664
407 1484395
408 1440669
409 1484395
410 1484395
411 1456294
412 1328139
413 1518794
414 1250009
415 1268759
416 1456939
417 1460600
418 1484904
419 1484975
420 1094350
421 781750
422 878000
423 1018503
424 1186877
425 1187036
426 1263750
427 1184375
428 1185635
429 -1
430 1234375
431 1184395
432 1559375
433 1184395
434 1172395
435 1184395
436 1184395
437 1171879
438 1184395
439 1234375
440 1184395
441 1234375
442 1184395
443 1184395
444 453225
445 453225
446 465625
447 453225
448 465625
449 465628
450 453136
451 465628
452 453225
453 703125
454 465629
455 1484475
456 1246879
457 1209379
458 -1
459 1240627
460 1234379
461 1484475
462 1234379
463 1234379
464 1171995
465 1234379
466 1171895
467 1171895
468 1500001
469 1468752
470 1171879
471 1171895
472 1328227
473 1171895
474 1250100
475 1171896
476 1328225
477 1484465
478 1171895
479 1484435
480 1171895
481 1171899
482 1484435
483 1171879
484 1171995
485 1171879
486 390745
487 -1
488 562544
489 4
490 268823
491 312604
492 268824
493 268824
494 312604
495 312604
496 346918
497 312532
498 312512
499 346914
500 375015
501 268789
502 268789
503 78139
504 112539
505 218764
506 296889
507 312500
508 268794
509 1440669
510 1440664
511 -1
512 1484375
513 1484375
514 1546876
515 1403127
516 1518788
517 1281125
518 1187375
519 1515662
520 1174975
521 1186875
522 1174375
523 1253100
524 1187375
525 1325000
526 1559375
527 1202500
528 1540625
529 1246875
530 1234395
531 1521875
532 1515631
533 1484375
534 1246875
535 1246875
536 1518750
537 1171875
538 1500000
539 1518750
540 -1
541 1503125
542 1503125
543 1515625
544 1546875
545 1409168
546 1485756
547 1485756
548 1486382
549 1187395
550 1487288
551 1186145
552 1193693
553 1187395
554 1328249
555 1178063
556 1174938
557 1178053
558 1174379
559 1256178
560 1256179
561 1174379
562 1171995
563 1171979
564 1174385
565 1174378
566 1186895
567 1183765
568 1171979
569 1186890
570 1174479
571 1174375
572 1185020
573 1171975
574 1186890
575 405645
576 393225
577 405645
578 403225
579 1171895
580 1172476
581 1184475
582 1172329
583 1184475
584 1184475
585 1172395
586 1184475
587 1171895
588 1172395
589 1278145
590 1172139
591 1184395
592 1174895
593 -1
594 1171879
595 1173379
596 1234395
597 1173379
598 1171895
599 1546895
600 1173379
601 1171895
602 1184127
603 1174004
604 1484375
605 1198899
606 1171895
607 1171975
608 1173770
609 1484495
610 1171895
611 1484495
612 1484495
613 1171895
614 1484495
615 1174395
616 1175004
617 1484435
618 -1
619 1210754
620 1484495
621 1328235
622 1184379
623 1484395
624 1184379
625 1484395
626 1184375
627 1484395
628 1184375
629 1184375
630 1484395
631 1184375
632 1312007
633 1312007
634 1184375
635 1325757
636 1403882
637 1185002
638 1482632
639 1185004
640 1482627
641 1185004
642 1262500
643 1179379
644 398129
645 398129
646 403125
647 453125
648 1234375
649 1486879
650 1234375
651 1486879
652 843750
653 843750
654 1093754
655 843750
656 1093754
657 1093754
658 1093750
659 1093754
660 1093750
661 1093750
662 1093750
663 1103129
664 1103129
665 1159413
666 793754
667 1550038
668 1246879
669 1550038
670 1246879
671 1246879
672 1550037
673 -1
674 1534412
675 1484375
676 1515657
677 1515657
678 1484375
679 1515656
680 1500006
681 1496879
682 1500006
683 1418752
684 734381
685 403229
686 765625
687 468754
688 456250
689 434375
690 703149
691 1484381
692 1484406
693 1219250
694 1484375
695 1234875
696 1171999
697 1234875
698 1171899
699 1171899
700 1234875
701 1171899
702 1234875
703 844250
704 781274
705 783750
706 1095437
707 938617
708 1109501
709 1531625
710 1547396
711 1547375
712 1559895
713 1173122
714 1246975
715 1173121
716 1249870
717 1234975
718 1200550
719 1172996
720 1515949
721 1172872
722 1234749
723 1234675
724 1172873
725 1234476
726 -1
727 1250604
728 1171979
729 1175999
730 1094071
731 1094350
732 781350
733 793703
734 1172475
735 1171895
736 1250020
737 1534376
738 1184499
739 1484375
740 1171895
741 1185129
742 1174375
743 1172379
744 1172375
745 1396274
746 1171995
747 1184465
748 1184375
749 1271551
750 1484375
751 1484375
752 -1
753 1484375
754 1484375
755 1553163
756 1484375
757 1484375
758 1484475
759 1093750
760 1159413
761 1125007
762 1143757
763 1103128
764 1143782
765 1103128
766 1143787
767 1106254
768 928319
769 225194
770 303319
771 246879
772 378319
773 378163
774 1093754
775 1156254
776 1531287
777 1234379
778 1515657
779 1515657
780 1234379
781 -1
782 1234379
783 1234379
784 1515631
785 1515627
786 1515656
787 1515656
788 1515631
789 1234379
790 1500001
791 1234379
792 1500001
793 1484375
794 1363725
795 1519975
796 1531625
797 1515775
798 1484375
799 1547450
800 1401870
801 1404995
802 1234950
803 1248745
804 1172450
805 1172475
806 1404995
807 1391200
808 1326870
809 1234825
810 1404995
811 1172450
812 1172475
813 1484375
814 1484375
815 -1
816 1322593
817 1172475
818 1234735
819 1322593
820 1234475
821 1172495
822 1500025
823 1234490
824 1478849
825 1515685
826 1400749
827 931899
828 838149
829 859250
830 803062
831 1031146
832 803062
833 1028147
834 1109256
835 803062
836 784250
837 783520
838 803062
839 783524
840 803062
841 -1
842 1095250
843 1093750
844 803062
845 1096225
846 1093750
847 803067
848 784250
849 803092
850 803092
851 799942
852 956192
853 1093765
854 799941
855 784311
856 937384
857 1193743
858 1174879
859 1191857
860 1172477
861 1206175
862 1210495
863 1210495
864 1210495
865 1288249
866 406125
867 453225
868 405745
869 573149
870 -1
871 390645
872 703145
873 570024
874 390629
875 554399
876 553774
877 405649
878 403125
879 725644
880 360018
881 1103128
882 1150393
883 781350
884 781254
885 781254
886 871879
887 781254
888 804629
889 781274
890 1078125
891 781254
892 1015501
893 781254
894 937375
895 782754
896 781254
897 1328000
898 1171879
899 -1
900 1249875
901 1171879
902 1487375
903 1406150
904 1485875
905 1406200
906 1485875
907 1484350
908 1486625
909 1486625
910 1557950
911 1558575
912 1484375
913 1484375
914 1550800
915 1312500
916 1390625
917 1534419
918 1534414
919 1534419
920 1518789
921 1534414
922 1518788
923 1518788
924 1128163
925 -1
926 1128163
927 1128163
928 784350
929 1128163
930 784350
931 1156254
932 1128163
933 1156254
934 1128163
935 1140628
936 1125032
937 1140628
938 1156253
939 1128157
940 1156254
941 1284419
942 1300044
943 1390629
944 1184375
945 1186875
946 1186875
947 1515657
948 1559375
949 1515631
950 1559375
951 1521875
952 1484999
953 1171879
954 -1
955 1500006
956 1171899
957 1171975
958 1559375
959 1365725
960 1562495
961 1559375
962 1500006
963 1246879
964 1500000
965 1484375
966 1500001
967 1246879
968 1500006
969 1226225
970 1406350
971 1234375
972 1460620
973 1484975
974 1484375
975 1172475
976 1484950
977 1484500
978 1172475
979 1484500
980 -1
981 1484500
982 1172475
983 1484825
984 1484500
985 1484875
986 1534499
987 1518844
988 1531250
989 1422484
990 1422484
991 1171975
992 1188109
993 1171879
994 1171979
995 1266859
996 1171979
997 1266859
998 1344984
999 1344979
