0 [0.0, 0.0, 0.0, 0.0, 0.0, 0.0, 0.0, 0.0]
1 [0.0, 0.0, 0.0, 0.0, 0.0, 0.0, 0.0, 0.0]
2 [0.0, 0.0, 0.0, 0.0, 0.0, 0.0, 0.0, 0.0]
3 [0.0, 0.0, 0.0, 0.0, 0.0, 0.0, 0.0, 0.0]
4 [0.0, 0.0, 0.0, 0.0, 0.0, 0.0, 0.0, 0.0]
5 [0.31144506, 0.0, 0.0, 0.0, 0.0, 0.0, 0.0, 0.4122062]
6 [0.3066837, 0.3349196, 0.0, 0.0, 0.0, 0.0, 0.0, 0.41614515]
7 [0.30048755, 0.32032526, 0.0, 0.0, 0.0, 0.0, 0.0, 0.4185991]
8 [0.29551107, 0.31209233, 0.0, 0.0, 0.0, 0.0, 0.0, 0.41939884]
9 [0.92223734, 0.30493954, 0.0, 0.0, 0.0, 0.0, 0.0, 0.4196442]
10 [0.914236, 0.29954815, 0.0, 0.0, 0.0, 0.0, 0.0, 0.41976553]
11 [0.91169345, 0.2957879, 0.0, 0.0, 0.0, 0.0, 0.0, 0.42151427]
12 [0.9111969, 0.29329738, 0.0, 0.0, 0.0, 0.0, 0.0, 0.42359316]
13 [0.9086743, 0.28781864, 0.0, 0.0, 0.0, 0.0, 0.0, 0.0]
14 [0.90681165, 0.2852646, 0.0, 0.0, 0.0, 0.0, 0.0, 0.0]
15 [0.90299445, 0.2836527, 0.0, 0.0, 0.0, 0.0, 0.0, 0.0]
16 [0.90226007, 0.28429118, 0.0, 0.0, 0.0, 0.0, 0.0, 0.0]
17 [0.27817768, 0.28519958, 0.0, 0.0, 0.0, 0.0, 0.0, 0.0]
18 [0.278058, 0.2862929, 0.0, 0.0, 0.0, 0.0, 0.0, 0.6266197]
19 [0.27908507, 0.28886607, 0.0, 0.0, 0.0, 0.0, 0.0, 0.43279663]
20 [0.28029108, 0.29210824, 0.0, 0.0, 0.0, 0.0, 0.0, 0.43373376]
21 [0.28192025, 0.95040643, 0.0, 0.0, 0.0, 0.0, 0.0, 0.43458083]
22 [0.2870046, 0.0, 0.0, 0.0, 0.0, 0.0, 0.0, 0.4346287]
23 [0.28967622, 0.0, 0.0, 0.0, 0.0, 0.0, 0.0, 0.43358696]
24 [0.29257426, 0.0, 0.0, 0.0, 0.0, 0.0, 0.0, 0.43133616]
25 [0.29558957, 0.0, 0.0, 0.0, 0.0, 0.0, 0.0, 0.4279464]
26 [0.30080265, 0.0, 0.0, 0.0, 0.0, 0.0, 0.0, 0.4198929]
27 [0.30080265, 0.0, 0.0, 0.0, 0.0, 0.0, 0.0, 0.4198929]
28 [0.30681843, 0.0, 0.0, 0.0, 0.0, 0.0, 0.0, 0.41137522]
29 [0.30681843, 0.0, 0.0, 0.0, 0.0, 0.0, 0.0, 0.41137522]
30 [0.9412297, 0.0, 0.0, 0.0, 0.0, 0.0, 0.0, 0.4048723]
31 [0.9412297, 0.0, 0.0, 0.0, 0.0, 0.0, 0.0, 0.4048723]
32 [0.9537826, 0.0, 0.0, 0.0, 0.0, 0.0, 0.0, 0.4006377]
33 [0.9537826, 0.0, 0.0, 0.0, 0.0, 0.0, 0.0, 0.4006377]
34 [0.9583967, 0.0, 0.0, 0.0, 0.0, 0.0, 0.0, 0.39882946]
35 [0.9612586, 0.0, 0.0, 0.0, 0.0, 0.0, 0.0, 0.39797089]
36 [0.9620542, 0.0, 0.0, 0.0, 0.0, 0.0, 0.0, 0.39844826]
37 [0.96265554, 0.0, 0.0, 0.0, 0.0, 0.0, 0.0, 0.39939576]
38 [0.9644976, 0.0, 0.0, 0.0, 0.0, 0.0, 0.0, 0.4001429]
39 [0.9672813, 0.0, 0.0, 0.0, 0.0, 0.0, 0.0, 0.40074846]
40 [0.96944195, 0.0, 0.0, 0.0, 0.0, 0.0, 0.0, 0.4016405]
41 [0.0, 0.0, 0.0, 0.0, 0.0, 0.0, 0.0, 0.40211934]
42 [0.0, 0.0, 0.0, 0.0, 0.0, 0.0, 0.0, 0.40202263]
43 [0.0, 0.0, 0.0, 0.0, 0.0, 0.0, 0.0, 0.59588045]
44 [0.0, 0.0, 0.0, 0.0, 0.0, 0.0, 0.0, 0.5953266]
45 [0.0, 0.0, 0.0, 0.0, 0.0, 0.0, 0.0, 0.5953266]
46 [0.0, 0.0, 0.0, 0.0, 0.0, 0.0, 0.0, 0.5946194]
47 [0.0, 0.0, 0.0, 0.0, 0.0, 0.0, 0.0, 0.5946194]
48 [0.0, 0.0, 0.0, 0.0, 0.0, 0.0, 0.0, 0.0]
49 [0.0, 0.0, 0.0, 0.0, 0.0, 0.0, 0.0, 0.0]
