0 -1
1 -1
2 -1
3 -1
4 1018631
5 1095250
6 1096750
7 1093774
8 1018631
9 1018631
10 1093750
11 1095250
12 1095500
13 1017375
14 1094625
15 781254
16 1094633
17 939876
18 1096524
19 1033852
20 939504
21 1096254
22 1096500
23 881102
24 878602
25 1485875
26 1484375
27 1484879
28 1347477
29 1484879
30 1484879
31 1269352
32 1484875
33 -1
34 1269352
35 1269352
36 1484879
37 1266227
38 1266226
39 1266226
40 1484979
41 1406854
42 1422476
43 1172479
44 1328745
45 1347495
46 1172475
47 1347495
48 1172450
49 1191870
50 1191870
51 1191870
52 1172475
53 1172475
54 1269995
55 1172450
56 1172475
57 1172375
58 1172375
59 1172195
60 -1
61 1184375
62 1343794
63 1171879
64 1171879
65 1421919
66 1171879
67 1437544
68 1440669
69 1500039
70 1171879
71 1171879
72 1515664
73 1518789
74 1171879
75 1440664
76 1328129
77 1206289
78 1284414
79 971914
80 971914
81 971914
82 796625
83 268789
84 268789
85 268789
86 268789
87 268789
88 268789
89 268789
90 312524
91 -1
92 312524
93 268789
94 312506
95 312500
96 312524
97 268789
98 268789
99 268789
100 265639
101 312501
102 312500
103 312506
104 346889
105 312500
106 1484381
107 1518789
108 1484395
109 1484395
110 1206289
111 1328145
112 1284414
113 1362539
114 1362539
115 1362539
116 1484395
117 1362539
118 1484395
119 1346914
120 1440664
121 1328139
122 -1
123 1441289
124 1440664
125 1440664
126 1328139
127 1328139
128 1484395
129 1484375
130 1484377
131 1484531
132 1437544
133 1437544
134 1403129
135 1265669
136 1483750
137 1515002
138 1484375
139 1187375
140 1440664
141 1518819
142 1174875
143 1484379
144 1174875
145 1484375
146 -1
147 1518788
148 1518788
149 1518788
150 1174975
151 1534413
152 1487375
153 1534413
154 1546750
155 1484375
156 1518757
157 1484375
158 1534407
159 1484375
160 1534413
161 1534413
162 1318819
163 1396944
164 1475069
165 1484375
166 1172475
167 1550069
168 781850
169 1159413
170 1159413
171 1093750
172 1143788
173 1143788
174 1093750
175 -1
176 1100002
177 1143788
178 1128162
179 325004
180 1128162
181 1156254
182 1125032
183 1156254
184 1109381
185 843754
186 843754
187 843754
188 1500032
189 1234379
190 1515657
191 1234379
192 1472069
193 1550194
194 1484375
195 1546879
196 1518788
197 1515627
198 1518787
199 1515627
200 1515662
201 1500001
202 1500001
203 1515627
204 -1
205 1515657
206 1234379
207 1234379
208 1234379
209 1484375
210 1234379
211 1500006
212 1390002
213 1246875
214 1531225
215 1343749
216 1500001
217 1325000
218 1515626
219 1531281
220 1515656
221 1515656
222 1171879
223 1323101
224 1323101
225 1401226
226 844254
227 1156754
228 846000
229 -1
230 1096125
231 1010601
232 843750
233 1010601
234 784250
235 1010601
236 1095250
237 1109375
238 784250
239 784250
240 784250
241 1166850
242 1095375
243 1093750
244 1484375
245 1172375
246 1484525
247 1172375
248 1172375
249 1401225
250 1406750
251 1476225
252 1476225
253 1476225
254 1476225
255 1476225
256 1484975
257 1476225
258 -1
259 1554370
260 1484950
261 1500575
262 1554370
263 1247480
264 1554370
265 1249875
266 1554370
267 1515781
268 1538590
269 1538590
270 1515936
271 1554370
272 1218725
273 1483000
274 1172475
275 1244999
276 1484975
277 1484375
278 1172475
279 1484875
280 1172475
281 1172375
282 1172485
283 1553874
284 1553874
285 1172235
286 1171995
287 1459144
288 1171895
289 1459144
290 1517137
291 1485153
292 1485304
293 1484378
294 1484469
295 1485929
296 703144
297 392179
298 547804
299 547804
300 662524
301 465645
302 703127
303 1484375
304 1234399
305 1234395
306 1234395
307 1453149
308 1485927
309 1485302
310 -1
311 1485927
312 1484381
313 1485302
314 1234395
315 1234395
316 1171899
317 1255604
318 1171899
319 1234395
320 1172379
321 1411829
322 1411829
323 1234379
324 1218754
325 1485875
326 1484375
327 1484375
328 1177453
329 1234379
330 1234379
331 1255578
332 1255578
333 1255578
334 1255578
335 1218754
336 1484375
337 1546879
338 1359379
339 -1
340 1255578
341 1484379
342 1484899
343 1255583
344 1484375
345 1484375
346 1484879
347 1255608
348 1172375
349 1406504
350 1333732
351 1484375
352 1171899
353 1171879
354 1177487
355 1171879
356 1177487
357 1328725
358 1171879
359 1177487
360 1177491
361 1177491
362 1177491
363 1177491
364 1484675
365 1177491
366 1562495
367 -1
368 787481
369 790575
370 790575
371 1181200
372 1181200
373 1184300
374 1184300
375 1184300
376 1532875
377 1327376
378 1174875
379 1184875
380 1484375
381 1174875
382 1234330
383 1234330
384 1234330
385 1174875
386 1234330
387 1174875
388 1328080
389 1328105
390 1328110
391 1328110
392 1549999
393 1249991
394 1237475
395 -1
396 1406110
397 1406110
398 1406110
399 1406110
400 1406110
401 1406110
402 1546879
403 1402985
404 1402985
405 1558610
406 1555360
407 1554735
408 1484377
409 1554610
410 1249873
411 1234675
412 1228870
413 1203475
414 1306995
415 1484375
416 1531350
417 1306995
418 1234475
419 1385645
420 1234475
421 1385649
422 -1
423 1421970
424 1385649
425 1468845
426 1484475
427 1484375
428 1484375
429 1546895
430 1390695
431 1556899
432 1484405
433 1556899
434 1468820
435 1546890
436 1390695
437 1228774
438 1312520
439 1250120
440 1306899
441 1484465
442 1171895
443 1484440
444 1381899
445 1381899
446 1381899
447 1546924
448 1460024
449 -1
450 1546949
451 1444379
452 1484375
453 1484379
454 1444379
455 1246879
456 1546879
457 1441254
458 1518754
459 1518754
460 737504
461 718753
462 737504
463 718752
464 704628
465 703129
466 703127
467 1328129
468 1234395
469 1406254
470 1484375
471 1475039
472 1234395
473 1553164
474 1203139
475 1553164
476 1550039
477 1234399
478 -1
479 1234379
480 1484375
481 1234379
482 1550038
483 1234379
484 1234379
485 1550038
486 1546879
487 1515632
488 1515632
489 1500001
490 1484375
491 1484378
492 1484376
493 1518787
494 1250004
495 1143819
496 1143794
497 1015629
498 781372
499 1143789
500 1128164
501 1050044
502 1050044
503 784250
504 -1
505 565639
506 545628
507 565644
508 659449
509 761266
510 659497
511 403249
512 400019
513 1501849
514 1501874
515 1501874
516 1265618
517 1250600
518 1408700
519 1212499
520 1174875
521 1199248
522 1199247
523 1249525
524 1230616
525 1367485
526 1367485
527 1367485
528 1484125
529 1418562
530 1562375
531 1464955
532 1523752
533 1500000
534 1561879
535 1555275
536 1555275
537 1557504
538 1551376
539 1541253
540 1504501
541 1546250
542 1500625
543 1480876
544 1480876
545 1484375
546 1233101
547 1233101
548 1234875
549 1406750
550 1172375
551 1484375
552 1172375
553 1234875
554 1401850
555 1401850
556 1234825
557 1531250
558 1401850
559 -1
560 1172375
561 1172475
562 1312500
563 1234375
564 1401245
565 1515925
566 1484375
567 1547375
568 1172475
569 1234875
570 1172475
571 1547325
572 1515900
573 1484375
574 1547450
575 1172475
576 1245499
577 1245499
578 1172375
579 1172450
580 1244718
581 1391125
582 1240938
583 1240938
584 1234975
585 1553843
586 1171999
587 1234375
588 1247661
589 1184475
590 1247661
591 1184475
592 1186875
593 1184480
594 1186250
595 1246905
596 1247030
597 1247036
598 1186250
599 1186875
600 1186352
601 1184487
602 1247812
603 1184476
604 1186999
605 1543756
606 1421374
607 1561969
608 1406374
609 1559381
610 1472524
611 1486875
612 1559401
613 -1
614 1184999
615 1186875
616 1559381
617 1186895
618 1556285
619 1561995
620 1561875
621 1547765
622 1515650
623 1515655
624 1540625
625 1484675
626 1556325
627 1484676
628 1329977
629 1246875
630 1485301
631 1547250
632 1312500
633 1484375
634 1234375
635 1256007
636 1316250
637 1487500
638 1184375
639 1484375
640 1184375
641 1184375
642 1491875
643 1312007
644 1312007
645 1420000
646 1312007
647 1186875
648 1499875
649 1507501
650 -1
651 1491875
652 1468257
653 1498125
654 1498125
655 1468257
656 1498125
657 1562007
658 1562007
659 1493750
660 1542626
661 1545757
662 764507
663 700000
664 543850
665 452632
666 453125
667 765127
668 608882
669 608882
670 751878
671 686382
672 686382
673 764507
674 1343627
675 1492477
676 1562007
677 1499979
678 1523251
679 -1
680 1464877
681 1562127
682 1562127
683 1562375
684 1561875
685 1546502
686 1546502
687 1533825
688 1523876
689 1486253
690 1542626
691 1171895
692 1543376
693 1486879
694 1546502
695 1236875
696 1171975
697 1312127
698 1390252
699 1408754
700 1408754
701 1468377
702 1171879
703 1486879
704 1546502
705 1391877
706 1546502
707 1172395
708 1546502
709 1484375
710 1546502
711 1172375
712 1546502
713 1546502
714 1546502
715 1486879
716 1480126
717 1486879
718 1184375
719 1485627
720 1486252
721 1484378
722 1542626
723 1496501
724 1496501
725 1234375
726 1252500
727 1393125
728 1330625
729 1527001
730 1527001
731 1542626
732 1533251
733 1548750
734 1555882
735 1173625
736 1324632
737 1228004
738 1484007
739 1480877
740 1559002
741 1559002
742 1251354
743 1562127
744 1172375
745 1329379
746 1486875
747 1559002
748 -1
749 1559002
750 1559002
751 1561875
752 1559002
753 1561875
754 1559002
755 1486875
756 1561875
757 1523251
758 1542500
759 1539501
760 1486250
761 1542500
762 1504500
763 1387127
764 1327504
765 1393729
766 1387251
767 1387251
768 1465376
769 1546899
770 1546899
771 1547475
772 1546899
773 1559301
774 1531829
775 1547499
776 -1
777 1558725
778 1496875
779 1558725
780 1558725
781 1496875
782 1496881
783 1558725
784 1561850
785 1522800
786 1103125
787 1103126
788 1106256
789 1150925
790 1150925
791 1166575
792 871881
793 1469700
794 1469675
795 1343995
796 1343995
797 1343995
798 1343995
799 1343995
800 1343995
801 1343995
802 -1
803 1343996
804 1343996
805 1343996
806 1343996
807 1343996
808 1171879
809 1343997
810 1172129
811 1343997
812 1500247
813 1172379
814 1422122
815 1171879
816 1422122
817 1422122
818 1172379
819 1171879
820 1265872
821 1265872
822 1265872
823 1484375
824 1484375
825 1484879
826 1343997
827 1343997
828 1172254
829 1172379
830 1343922
831 -1
832 1343923
833 1343923
834 1172384
835 1343923
836 562673
837 391129
838 562673
839 391149
840 172049
841 172049
842 312500
843 312500
844 359649
845 312506
846 78170
847 78640
848 312504
849 20
850 78322
851 312522
852 312507
853 328334
854 312513
855 312504
856 4
857 15694
858 78129
859 312500
860 234379
861 93789
862 78229
863 96889
864 175014
865 175014
866 175014
867 1484379
868 1484378
869 1484379
870 -1
871 1484375
872 1484390
873 1484375
874 1484395
875 1440664
876 1440664
877 1484395
878 1440669
879 1484395
880 1515638
881 1484390
882 1515639
883 1515639
884 1484380
885 1484390
886 1206264
887 1206264
888 1405749
889 1362514
890 1362514
891 1250014
892 1362514
893 1484382
894 1515639
895 1440639
896 1440639
897 1328139
898 1440639
899 -1
900 1440639
901 1440639
902 1484395
903 1440669
904 1484395
905 1440639
906 1359389
907 1250014
908 1437514
909 1437514
910 1374379
911 1374379
912 1171879
913 1171879
914 1179379
915 1172504
916 1179379
917 1358754
918 1179379
919 1530628
920 1530628
921 1179379
922 1174377
923 1186875
924 1183754
925 1249375
926 1186250
927 1183750
928 1327500
929 1327500
930 1186875
931 1186875
932 1186875
933 1174375
934 1186875
935 1405000
936 1487500
937 1484375
938 -1
939 1482000
940 1482000
941 1186875
942 1184375
943 1186875
944 1184375
945 1186875
946 1560125
947 1560125
948 1537500
949 1538125
950 1541250
951 1541375
952 1249375
953 1184375
954 1249375
955 1237500
956 1325750
957 1403875
958 1482000
959 1373125
960 1560125
961 1560125
962 1557000
963 1325000
964 1550625
965 1550625
966 1550625
967 -1
968 1246875
969 1246879
970 769375
971 769375
972 759375
973 762475
974 703276
975 703250
976 704027
977 704027
978 740631
979 703125
980 621875
981 473709
982 629959
983 1489334
984 687524
985 707458
986 765649
987 707308
988 759387
989 707308
990 1488558
991 1546875
992 1488558
993 -1
994 1546887
995 1488558
996 1546875
997 1176864
998 1176864
999 1234375
