0 -1
1 -1
2 14
3 14
4 2500
5 14
6 24
7 15000
8 3000
9 390504
10 75102
11 9
12 313001
13 246703
14 312500
15 312500
16 296325
17 21
18 325516
19 388128
20 312500
21 326850
22 312500
23 249325
24 312504
25 312504
26 312504
27 500
28 346884
29 350629
30 350629
31 -1
32 312504
33 312504
34 12600
35 354508
36 313124
37 354508
38 312624
39 313124
40 371381
41 325624
42 390131
43 390000
44 375120
45 77625
46 375020
47 375024
48 307303
49 311053
50 311803
51 62500
52 124
53 171813
54 62504
55 89935
56 89935
57 89935
58 371879
59 77343
60 -1
61 368750
62 384475
63 375331
64 384875
65 375331
66 75000
67 384506
68 388024
69 376440
70 388005
71 150000
72 78145
73 78749
74 75000
75 62600
76 150000
77 62504
78 71875
