0 [0.0, 0.0, 0.0, 0.0, 0.0, 0.0, 0.0, 0.0]
1 [0.0, 0.0, 0.0, 0.0, 0.0, 0.0, 0.0, 0.0]
2 [0.6666667, 0.6666667, 0.6666667, 0.6666667, 0.5, 0.0, 0.0, 0.5]
3 [0.0, 0.0, 0.0, 0.0, 0.0, 0.0, 0.0, 0.0]
4 [0.0, 0.0, 0.0, 0.9444444, 0.375, 0.0, 0.0, 0.875]
5 [0.0, 0.0, 0.0, 0.0, 0.0, 0.0, 0.0, 0.0]
6 [0.2857143, 0.2857143, 0.2857143, 0.875, 0.85714287, 0.0, 0.0, 0.375]
7 [0.0, 0.0, 0.0, 0.75, 0.75, 0.75, 0.0, 0.75]
8 [0.0, 0.0, 0.0, 0.0, 0.0, 0.0, 0.0, 0.0]
9 [0.33333334, 0.6666667, 0.0, 0.6666667, 0.6666667, 0.6666667, 0.6666667, 0.6666667]
10 [0.0, 0.0, 0.0, 0.0, 0.0, 0.0, 0.0, 0.0]
11 [0.0, 0.0, 0.0, 0.0, 0.0, 0.0, 0.0, 0.0]
12 [0.875, 0.875, 0.0, 0.5, 0.875, 0.25, 0.875, 0.875]
13 [0.0, 0.0, 0.0, 0.0, 0.0, 0.0, 0.0, 0.0]
14 [0.8, 0.8, 0.0, 0.5, 0.8, 0.8, 0.8, 0.8]
15 [0.9375, 0.9375, 0.0625, 0.9375, 0.5, 0.0625, 0.0625, 0.9375]
16 [0.0, 0.0, 0.0, 0.0, 0.0, 0.0, 0.0, 0.0]
17 [0.9777778, 0.9777778, 0.06666667, 0.5, 0.5, 0.06666667, 0.06666667, 0.9777778]
18 [0.0, 0.0, 0.0, 0.0, 0.0, 0.0, 0.0, 0.0]
19 [0.0, 0.0, 0.0, 0.0, 0.0, 0.0, 0.0, 0.0]
20 [0.032967035, 0.989011, 0.032967035, 0.5, 0.5, 0.032967035, 0.032967035, 0.5]
21 [0.0, 0.0, 0.0, 0.0, 0.0, 0.0, 0.0, 0.0]
22 [0.9444444, 0.33333334, 0.33333334, 0.375, 0.375, 0.0, 0.0, 0.9444444]
23 [0.93333334, 0.26666668, 0.26666668, 0.93333334, 0.375, 0.0, 0.0, 0.93333334]
24 [0.0, 0.0, 0.0, 0.0, 0.0, 0.0, 0.0, 0.0]
25 [0.8, 0.8, 0.8, 0.8, 0.375, 0.0, 0.0, 0.875]
26 [0.875, 0.25, 0.875, 0.875, 0.375, 0.0, 0.0, 0.875]
27 [0.0, 0.0, 0.0, 0.0, 0.0, 0.0, 0.0, 0.0]
28 [0.09090909, 0.95454544, 0.95454544, 0.5, 0.5, 0.0, 0.0, 0.95454544]
29 [0.0, 0.0, 0.0, 0.0, 0.0, 0.0, 0.0, 0.0]
30 [0.0, 0.0, 0.0, 0.0, 0.0, 0.0, 0.0, 0.0]
31 [0.15384616, 0.15384616, 0.9230769, 0.9230769, 0.5, 0.0, 0.0, 0.5]
32 [0.0, 0.0, 0.0, 0.0, 0.0, 0.0, 0.0, 0.0]
33 [0.0, 0.0, 0.0, 0.0, 0.0, 0.0, 0.0, 0.0]
34 [0.93333334, 0.93333334, 0.13333334, 0.93333334, 0.75, 0.0, 0.0, 0.0]
35 [0.0, 0.0, 0.0, 0.0, 0.0, 0.0, 0.0, 0.0]
36 [0.0, 0.0, 0.0, 0.0, 0.0, 0.0, 0.0, 0.0]
37 [0.0, 0.27272728, 0.27272728, 0.90909094, 0.90909094, 0.0, 0.0, 0.0]
38 [0.0, 0.0, 0.0, 0.0, 0.0, 0.0, 0.0, 0.0]
39 [0.0, 0.33333334, 0.33333334, 0.8888889, 0.8888889, 0.0, 0.0, 0.0]
40 [0.0, 0.42857143, 0.85714287, 0.85714287, 0.875, 0.85714287, 0.0, 0.0]
41 [0.0, 0.0, 0.0, 0.0, 0.0, 0.0, 0.0, 0.0]
42 [0.0, 0.85714287, 0.42857143, 0.85714287, 0.85714287, 0.85714287, 0.0, 0.0]
43 [0.0, 0.0, 0.0, 0.0, 0.0, 0.0, 0.0, 0.0]
44 [0.0, 0.3, 0.3, 0.9, 0.9, 0.75, 0.0, 0.0]
45 [0.0, 0.0, 0.0, 0.0, 0.0, 0.0, 0.0, 0.0]
46 [0.0, 0.0, 0.0, 0.0, 0.0, 0.0, 0.0, 0.0]
47 [0.0, 0.044444446, 0.044444446, 0.044444446, 0.9777778, 0.75, 0.0, 0.0]
48 [0.0, 0.0, 0.0, 0.0, 0.0, 0.0, 0.0, 0.0]
49 [0.0, 0.0, 0.95, 0.05, 0.75, 0.95, 0.95, 0.05]
