0 [1.0, 1.0, 1.0, 1.0, 1.0, 1.0, 1.0, 1.0]
1 [1.0, 1.0, 1.0, 1.0, 1.0, 1.0, 1.0, 1.0]
2 [1.0, 1.0, 1.0, 1.0, 1.0, 1.0, 1.0, 1.0]
3 [1.0, 1.0, 1.0, 1.0, 1.0, 1.0, 1.0, 1.0]
4 [1.0, 1.0, 1.0, 1.0, 1.0, 1.0, 1.0, 1.0]
5 [1.0, 1.0, 1.0, 1.0, 1.0, 1.0, 1.0, 1.0]
6 [1.0, 1.0, 1.0, 1.0, 1.0, 1.0, 1.0, 1.0]
7 [1.0, 1.0, 1.0, 1.0, 1.0, 1.0, 1.0, 1.0]
8 [1.0, 1.0, 1.0, 1.0, 1.0, 1.0, 1.0, 1.0]
9 [1.0, 1.0, 1.0, 1.0, 1.0, 1.0, 1.0, 1.0]
10 [1.6963267, 1.0942376, 1.0002337, 1.0, 1.0, 1.0, 1.0, 1.0]
11 [1.5863078, 1.0793481, 1.0001967, 1.0, 1.0, 1.0, 1.0, 1.0]
12 [1.5409939, 1.7566983, 1.094375, 1.0002335, 1.0, 1.0, 1.0, 1.0]
13 [2.1136112, 1.7273387, 1.079841, 1.000197, 1.0, 1.0, 1.0, 1.0]
14 [1.9024948, 1.5611613, 1.0608062, 1.00015, 1.0, 1.0, 1.0, 1.0]
15 [1.685123, 1.4244151, 1.0459418, 1.0001134, 1.0, 1.0, 1.0, 1.0]
16 [1.5180286, 1.3208095, 1.0347241, 1.0000857, 1.0, 1.0, 1.0, 1.0]
17 [0.5939427, 1.1343341, 1.0259503, 1.0000647, 1.0, 1.0, 1.0, 1.0]
18 [0.60628617, 1.0897774, 1.0195838, 1.0000489, 1.0, 1.0, 1.0, 1.0]
19 [0.58936054, 0.27061832, 0.90700203, 0.99976975, 1.0, 1.0, 1.0, 1.0]
20 [-0.119214475, 0.25285095, 0.9175315, 0.99979645, 1.0, 1.0, 1.0, 1.0]
21 [0.16166732, 1.1157361, 1.0313047, 1.0000783, 1.0, 1.0, 1.0, 1.0]
22 [0.36979866, 1.1457211, 1.031625, 1.0000789, 1.0, 1.0, 1.0, 1.0]
23 [1.2202815, 1.2078956, 1.0246164, 1.0000608, 1.0, 1.0, 1.0, 1.0]
24 [1.2261738, 1.1652796, 1.0186353, 1.000046, 1.0, 1.0, 1.0, 1.0]
25 [1.1746358, 1.1254289, 1.0140873, 1.0000348, 1.0, 1.0, 1.0, 1.0]
26 [1.1322064, 1.0948277, 1.0106472, 1.0000263, 1.0, 1.0, 1.0, 1.0]
27 [1.0999328, 1.071671, 1.0080469, 1.0000199, 1.0, 1.0, 1.0, 1.0]
28 [0.96752053, 0.2565953, 0.89814323, 0.99974746, 1.0, 1.0, 1.0, 1.0]
29 [0.96381927, 0.35218748, 0.911385, 0.9997803, 1.0, 1.0, 1.0, 1.0]
30 [0.17477816, 0.3977682, 0.9321185, 0.9998324, 1.0, 1.0, 1.0, 1.0]
31 [0.30924672, 0.56301534, 0.952429, 0.99988264, 1.0, 1.0, 1.0, 1.0]
32 [0.46978626, 0.6477844, 0.9611709, 0.99990416, 1.0, 1.0, 1.0, 1.0]
33 [0.6227151, 0.7529097, 0.9728577, 0.999933, 1.0, 1.0, 1.0, 1.0]
34 [0.73525983, 0.9641713, 0.9999112, 1.0, 1.0, 1.0, 1.0, 1.0]
35 [0.7846911, 0.8589987, 0.98451155, 0.9999618, 1.0, 1.0, 1.0, 1.0]
36 [0.837273, 0.89343345, 0.9882941, 0.9999711, 1.0, 1.0, 1.0, 1.0]
37 [0.87701356, 0.91945875, 0.9911528, 0.9999782, 1.0, 1.0, 1.0, 1.0]
38 [0.90714175, 0.9391891, 0.99332017, 0.9999835, 1.0, 1.0, 1.0, 1.0]
39 [0.9298192, 0.95404005, 0.9949515, 0.99998754, 1.0, 1.0, 1.0, 1.0]
40 [0.9469585, 0.96526426, 0.9961844, 0.9999906, 1.0, 1.0, 1.0, 1.0]
41 [0.9599522, 0.9737735, 0.9971191, 0.9999929, 1.0, 1.0, 1.0, 1.0]
42 [1.0, 1.0, 1.0, 1.0, 1.0, 1.0, 1.0, 1.0]
43 [0.9787628, 0.99712586, 0.99999285, 1.0, 1.0, 1.0, 1.0, 1.0]
44 [1.0, 1.0, 1.0, 1.0, 1.0, 1.0, 1.0, 1.0]
45 [1.0, 1.0, 1.0, 1.0, 1.0, 1.0, 1.0, 1.0]
46 [1.0, 1.0, 1.0, 1.0, 1.0, 1.0, 1.0, 1.0]
47 [1.0, 1.0, 1.0, 1.0, 1.0, 1.0, 1.0, 1.0]
48 [1.0, 1.0, 1.0, 1.0, 1.0, 1.0, 1.0, 1.0]
49 [1.0, 1.0, 1.0, 1.0, 1.0, 1.0, 1.0, 1.0]
