0 -3.1415286
0 -3.1415925
0 -3.1415925
0 -3.1415925
0 -3.1415927
0 3.1415923
0 3.1415925
0 -6.4194304E-5
0 1.0471984
1 -3.1415286
1 -3.1415925
1 -3.1415925
1 -3.1415925
1 -3.1415927
1 3.1415923
1 3.1415925
1 -6.4194304E-5
1 1.0471984
2 3.1349418
2 3.138044
2 3.1382642
2 3.1380568
2 3.1372654
2 3.1349921
2 3.1229546
2 0.0066506276
2 1.0522045
3 3.1349418
3 3.138044
3 3.1382642
3 3.1380568
3 3.1372654
3 3.1349921
3 3.1229546
3 0.0066506276
3 1.0522045
4 3.1288924
4 3.1349492
4 3.1353862
4 3.135026
4 3.1335979
4 3.1295142
4 3.1088343
4 0.012699871
4 1.0631946
5 3.130139
5 3.1357467
5 3.1361663
5 3.1358876
5 3.134703
5 3.1313357
5 3.115345
5 0.011453253
5 1.0807498
6 3.1301658
6 3.1359546
6 3.136403
6 3.1361809
6 3.1351235
6 3.1321347
6 3.1189408
6 0.011426659
6 1.1034174
7 3.1302874
7 3.1361935
7 3.1366618
7 3.1364882
7 3.1355467
7 3.1328926
7 3.1218376
7 0.011305043
7 1.1241614
8 3.1299565
8 3.1361637
8 3.1366606
8 3.1365125
8 3.1356118
8 3.1330743
8 3.1228766
8 0.011635959
8 1.1381986
9 3.129603
9 3.1360633
9 3.1365824
9 3.1364446
9 3.1355493
9 3.1330266
9 3.1230528
9 0.011989534
9 1.1449596
10 3.1299837
10 3.1362536
10 3.1367579
10 3.1366277
10 3.135769
10 3.133348
10 3.123815
10 0.011608592
10 1.146685
11 3.129916
11 3.136225
11 3.1367326
11 3.1366024
11 3.1357396
11 3.133308
11 3.1237395
11 0.01167641
11 1.1469554
12 3.1296773
12 3.1360793
12 3.136593
12 3.136452
12 3.1355531
12 3.13302
12 3.1229596
12 0.0119151315
12 1.1430186
13 3.1295934
13 3.1359346
13 3.13644
13 3.1362731
13 3.1353126
13 3.1326053
13 3.1215513
13 0.011999259
13 1.1317275
14 3.1294312
14 3.1356876
14 3.1361775
14 3.135966
14 3.1348968
14 3.131879
14 3.1189394
14 0.012161308
14 1.1134728
15 3.1295393
15 3.135588
15 3.1360524
15 3.1358013
15 3.1346495
15 3.1313903
15 3.1167102
15 0.012053246
15 1.096897
16 3.1297143
16 3.1355908
16 3.1360357
16 3.1357644
16 3.1345756
16 3.1312037
16 3.1155522
16 0.011878067
16 1.0875047
17 3.1296973
17 3.1355522
17 3.1359928
17 3.1357121
17 3.134502
17 3.1310651
17 3.1149325
17 0.011894998
17 1.0841035
18 3.1294029
18 3.1353993
18 3.1358502
18 3.1355615
18 3.1343188
18 3.1307898
18 3.1141973
18 0.012189764
18 1.0836649
19 3.1293535
19 3.1353736
19 3.1358259
19 3.135536
19 3.1342876
19 3.1307425
19 3.1140695
19 0.012239002
19 1.0835642
20 3.1294246
20 3.1354094
20 3.1358593
20 3.135571
20 3.1343298
20 3.1308055
20 3.114229
20 0.012167999
20 1.0835625
21 3.1294065
21 3.1354003
21 3.135851
21 3.135562
21 3.134319
21 3.13079
21 3.1141875
21 0.012185995
21 1.0835675
22 3.1294072
22 3.1354008
22 3.1358511
22 3.1355624
22 3.1343195
22 3.1307902
22 3.114191
22 0.012185426
22 1.0835758
23 3.12965
23 3.1355016
23 3.1359396
23 3.1356502
23 3.1344173
23 3.1309137
23 3.114296
23 0.011942239
23 1.0811069
24 3.1293602
24 3.1352859
24 3.135723
24 3.1354055
24 3.134096
24 3.1303651
24 3.112192
24 0.012232262
24 1.0735399
25 3.1289933
25 3.1349938
25 3.135426
25 3.135066
25 3.1336434
25 3.129574
25 3.1088989
25 0.012599258
25 1.062344
26 3.130565
26 3.1357324
26 3.1360962
26 3.1357543
26 3.1344483
26 3.1306973
26 3.1108496
26 0.011027556
26 1.0523742
27 3.1302378
27 3.1355214
27 3.1358888
27 3.135524
27 3.1341503
27 3.1301959
27 3.1088653
27 0.0113548245
27 1.0477808
28 3.1299667
28 3.1353707
28 3.1357455
28 3.1353695
28 3.133958
28 3.1298935
28 3.1078908
28 0.01162593
28 1.0469878
29 3.1304028
29 3.1355784
29 3.1359344
29 3.135564
29 3.1341863
29 3.1302128
29 3.1084127
29 0.011189802
29 1.0439795
30 3.1300488
30 3.1353185
30 3.1356719
30 3.1352646
30 3.1337864
30 3.1295054
30 3.1050816
30 0.011543607
30 1.0354774
31 3.1301801
31 3.13527
31 3.1355944
31 3.1351473
31 3.133585
31 3.1290216
31 3.1009984
31 0.011412348
31 1.020846
32 3.1299553
32 3.1349764
32 3.135269
32 3.1347458
32 3.1329982
32 3.1278234
32 3.0919697
32 0.011637204
32 1.0002084
33 3.1301713
33 3.1348846
33 3.1351194
33 3.1345131
33 3.132583
33 3.1267433
33 3.0774517
33 0.011421321
33 0.97334605
34 3.1303291
34 3.1347218
34 3.1348839
34 3.134163
34 3.131968
34 3.1251118
34 3.0431817
34 0.011263438
34 0.9402815
35 3.130241
35 3.1343591
35 3.134428
35 3.1335328
35 3.1309092
35 3.1223054
35 2.886314
35 0.011351662
35 0.89982426
36 3.1313505
36 3.134733
36 3.1346807
36 3.1336632
36 3.1307638
36 3.1205144
36 0.30370122
36 0.010242147
36 0.8510287
37 3.132929
37 3.135508
37 3.1353538
37 3.1342869
37 3.13128
37 3.1195493
37 0.08513596
37 0.008663416
37 0.80168754
38 3.1337013
38 3.135838
38 3.1356044
38 3.1344535
38 3.1312044
38 3.1171076
38 0.051197063
38 0.007891142
38 0.76033926
39 3.13499
39 3.136637
39 3.136376
39 3.1352818
39 3.1321692
39 3.117196
39 0.034355193
39 0.0066026235
39 0.7280265
40 3.13601
40 3.137316
40 3.1370528
40 3.1360407
40 3.1331367
40 3.1178644
40 0.02559044
40 0.0055827
40 0.70479023
41 3.1363516
41 3.1375122
41 3.1372306
41 3.1362095
41 3.1332514
41 3.1163054
41 0.021940151
41 0.0052410755
41 0.6856332
42 3.1372054
42 3.1381207
42 3.1378553
42 3.1369379
42 3.1342509
42 3.117287
42 0.016979719
42 0.0043872655
42 0.666845
43 3.1390066
43 3.1394997
43 3.1393206
43 3.1387303
43 3.1369734
43 3.1242032
43 0.009223799
43 0.0025859473
43 0.64407706
44 3.1406083
44 3.1407647
44 3.1406841
44 3.1404307
44 3.1396575
44 3.1325562
44 0.0032392568
44 9.841915E-4
44 0.61505854
45 -3.1402524
45 -3.1404881
45 -3.140366
45 -3.1399982
45 -3.1388397
45 -3.1235628
45 -0.0038608438
45 -0.0013402941
45 0.5844913
46 -3.1401005
46 -3.1403344
46 -3.1401813
46 -3.1397305
46 -3.138265
46 -3.1056726
46 -0.004028696
46 -0.0014920655
46 0.5582744
47 -3.1397512
47 -3.140011
47 -3.1398053
47 -3.139207
47 -3.1372118
47 -3.040249
47 -0.0047663995
47 -0.0018414493
47 0.5389531
48 -3.139624
48 -3.1398842
48 -3.1396525
48 -3.1389835
48 -3.136713
48 -2.6414592
48 -0.0049630036
48 -0.001968582
48 0.5266789
49 -3.1394496
49 -3.1397223
49 -3.1394634
49 -3.1387188
49 -3.1361668
49 -0.556959
49 -0.00533842
49 -0.0021431064
49 0.5206431
