0 [10.0, 10.0, 10.0, 10.0, 10.0, 10.0, 10.0, 10.0, 10.0, 10.0, 10.0, 10.0, 10.0, 10.0, 10.0, 10.0, 10.0, 10.0, 10.0, 10.0, 10.0, 10.0, 10.0, 10.0, 10.0, 10.0, 10.0, 10.0, 10.0, 10.0, 10.0, 10.0, 10.0, 10.0, 10.0, 10.0, 10.0, 10.0, 10.0, 10.0, 10.0, 10.0, 10.0, 10.0, 10.0, 10.0, 10.0, 10.0, 10.0, 10.0, 10.0, 10.0, 10.0, 10.0, 10.0, 10.0, 10.0, 10.0, 10.0, 10.0, 10.0, 10.0, 10.0, 10.0, 10.0, 10.0, 10.0, 10.0, 10.0, 10.0, 10.0, 10.0, 10.0, 10.0, 10.0, 10.0, 10.0, 10.0, 10.0, 10.0, 10.0, 10.0, 10.0, 10.0, 10.0, 10.0, 10.0, 10.0, 10.0, 10.0, 10.0, 10.0, 10.0, 10.0, 10.0, 10.0, 10.0, 10.0, 10.0, 10.0, 10.0, 10.0, 10.0, 10.0, 10.0, 10.0, 10.0, 10.0, 10.0, 10.0, 10.0, 10.0, 10.0, 10.0, 10.0, 10.0, 10.0, 10.0, 10.0, 10.0, 10.0, 10.0, 10.0, 10.0, 10.0, 10.0, 10.0, 10.0, 10.0, 10.0, 10.0, 10.0, 10.0, 10.0, 10.0, 10.0, 10.0, 10.0, 10.0, 10.0, 10.0, 10.0, 10.0, 10.0, 10.0, 10.0, 10.0, 10.0, 10.0, 10.0, 10.0, 10.0, 10.0, 10.0, 10.0, 10.0, 10.0, 10.0, 10.0, 10.0, 10.0, 10.0, 10.0, 10.0, 10.0, 10.0, 10.0, 10.0, 10.0, 10.0, 10.0, 10.0, 10.0, 10.0, 10.0, 10.0, 10.0, 10.0, 10.0, 10.0, 10.0, 10.0]
1 [10.0, 10.0, 10.0, 10.0, 10.0, 10.0, 10.0, 10.0, 10.0, 10.0, 10.0, 10.0, 10.0, 10.0, 10.0, 10.0, 10.0, 10.0, 10.0, 10.0, 10.0, 10.0, 10.0, 10.0, 10.0, 10.0, 10.0, 10.0, 10.0, 10.0, 10.0, 10.0, 10.0, 10.0, 10.0, 10.0, 10.0, 10.0, 10.0, 10.0, 10.0, 10.0, 10.0, 10.0, 10.0, 10.0, 10.0, 10.0, 10.0, 10.0, 10.0, 10.0, 10.0, 10.0, 10.0, 10.0, 10.0, 10.0, 10.0, 10.0, 10.0, 10.0, 10.0, 10.0, 10.0, 10.0, 10.0, 10.0, 10.0, 10.0, 10.0, 10.0, 10.0, 10.0, 10.0, 10.0, 10.0, 10.0, 10.0, 10.0, 10.0, 10.0, 10.0, 10.0, 10.0, 10.0, 10.0, 10.0, 10.0, 10.0, 10.0, 10.0, 10.0, 10.0, 10.0, 10.0, 10.0, 10.0, 10.0, 10.0, 10.0, 10.0, 10.0, 10.0, 10.0, 10.0, 10.0, 10.0, 10.0, 10.0, 10.0, 10.0, 10.0, 10.0, 10.0, 10.0, 10.0, 10.0, 10.0, 10.0, 10.0, 10.0, 10.0, 10.0, 10.0, 10.0, 10.0, 10.0, 10.0, 10.0, 10.0, 10.0, 10.0, 10.0, 10.0, 10.0, 10.0, 10.0, 10.0, 10.0, 10.0, 10.0, 10.0, 10.0, 10.0, 10.0, 10.0, 10.0, 10.0, 10.0, 10.0, 10.0, 10.0, 10.0, 10.0, 10.0, 10.0, 10.0, 10.0, 10.0, 10.0, 10.0, 10.0, 10.0, 10.0, 10.0, 10.0, 10.0, 10.0, 10.0, 10.0, 10.0, 10.0, 10.0, 10.0, 10.0, 10.0, 10.0, 10.0, 10.0, 10.0, 10.0]
2 [10.0, 10.0, 10.0, 10.0, 10.0, 10.0, 10.0, 10.0, 10.0, 10.0, 10.0, 10.0, 10.0, 10.0, 10.0, 10.0, 10.0, 10.0, 10.0, 10.0, 10.0, 10.0, 10.0, 10.0, 10.0, 10.0, 10.0, 10.0, 10.0, 10.0, 10.0, 10.0, 10.0, 10.0, 10.0, 10.0, 10.0, 10.0, 10.0, 10.0, 10.0, 10.0, 10.0, 10.0, 10.0, 10.0, 10.0, 10.0, 10.0, 10.0, 10.0, 10.0, 10.0, 10.0, 10.0, 10.0, 10.0, 10.0, 10.0, 10.0, 10.0, 10.0, 10.0, 10.0, 10.0, 10.0, 10.0, 10.0, 10.0, 10.0, 10.0, 10.0, 10.0, 10.0, 10.0, 10.0, 10.0, 10.0, 10.0, 10.0, 10.0, 10.0, 10.0, 10.0, 10.0, 10.0, 10.0, 10.0, 10.0, 10.0, 10.0, 10.0, 10.0, 10.0, 10.0, 10.0, 10.0, 10.0, 10.0, 10.0, 10.0, 10.0, 10.0, 10.0, 10.0, 10.0, 10.0, 10.0, 10.0, 10.0, 10.0, 10.0, 10.0, 10.0, 10.0, 10.0, 10.0, 10.0, 10.0, 10.0, 10.0, 10.0, 10.0, 10.0, 10.0, 10.0, 10.0, 10.0, 10.0, 10.0, 10.0, 10.0, 10.0, 10.0, 10.0, 10.0, 10.0, 10.0, 10.0, 10.0, 10.0, 10.0, 10.0, 10.0, 10.0, 10.0, 10.0, 10.0, 10.0, 10.0, 10.0, 10.0, 10.0, 10.0, 10.0, 10.0, 10.0, 10.0, 10.0, 10.0, 10.0, 10.0, 10.0, 10.0, 10.0, 10.0, 10.0, 10.0, 10.0, 10.0, 10.0, 10.0, 10.0, 10.0, 10.0, 10.0, 10.0, 10.0, 10.0, 10.0, 10.0, 10.0]
3 [10.0, 10.0, 10.0, 10.0, 10.0, 10.0, 10.0, 10.0, 10.0, 10.0, 10.0, 10.0, 10.0, 10.0, 10.0, 10.0, 10.0, 10.0, 10.0, 10.0, 10.0, 10.0, 10.0, 10.0, 10.0, 10.0, 10.0, 10.0, 10.0, 10.0, 10.0, 10.0, 10.0, 10.0, 10.0, 10.0, 10.0, 10.0, 10.0, 10.0, 10.0, 10.0, 10.0, 10.0, 10.0, 10.0, 10.0, 10.0, 10.0, 10.0, 10.0, 10.0, 10.0, 10.0, 10.0, 10.0, 10.0, 10.0, 10.0, 10.0, 10.0, 10.0, 10.0, 10.0, 10.0, 10.0, 10.0, 10.0, 10.0, 10.0, 10.0, 10.0, 10.0, 10.0, 10.0, 10.0, 10.0, 10.0, 10.0, 10.0, 10.0, 10.0, 10.0, 10.0, 10.0, 10.0, 10.0, 10.0, 10.0, 10.0, 10.0, 10.0, 10.0, 10.0, 10.0, 10.0, 10.0, 10.0, 10.0, 10.0, 10.0, 10.0, 10.0, 10.0, 10.0, 10.0, 10.0, 10.0, 10.0, 10.0, 10.0, 10.0, 10.0, 10.0, 10.0, 10.0, 10.0, 10.0, 10.0, 10.0, 10.0, 10.0, 10.0, 10.0, 10.0, 10.0, 10.0, 10.0, 10.0, 10.0, 10.0, 10.0, 10.0, 10.0, 10.0, 10.0, 10.0, 10.0, 10.0, 10.0, 10.0, 10.0, 10.0, 10.0, 10.0, 10.0, 10.0, 10.0, 10.0, 10.0, 10.0, 10.0, 10.0, 10.0, 10.0, 10.0, 10.0, 10.0, 10.0, 10.0, 10.0, 10.0, 10.0, 10.0, 10.0, 10.0, 10.0, 10.0, 10.0, 10.0, 10.0, 10.0, 10.0, 10.0, 10.0, 10.0, 10.0, 10.0, 10.0, 10.0, 10.0, 10.0]
4 [10.0, 10.0, 10.0, 10.0, 10.0, 10.0, 10.0, 10.0, 10.0, 10.0, 10.0, 10.0, 10.0, 10.0, 10.0, 10.0, 10.0, 10.0, 10.0, 10.0, 10.0, 10.0, 10.0, 10.0, 10.0, 10.0, 10.0, 10.0, 10.0, 10.0, 10.0, 10.0, 10.0, 10.0, 10.0, 10.0, 10.0, 10.0, 10.0, 10.0, 10.0, 10.0, 10.0, 10.0, 10.0, 10.0, 10.0, 10.0, 10.0, 10.0, 10.0, 10.0, 10.0, 10.0, 10.0, 10.0, 10.0, 10.0, 10.0, 10.0, 10.0, 10.0, 10.0, 10.0, 10.0, 10.0, 10.0, 10.0, 10.0, 10.0, 10.0, 10.0, 10.0, 10.0, 10.0, 10.0, 10.0, 10.0, 10.0, 10.0, 10.0, 10.0, 10.0, 10.0, 10.0, 10.0, 10.0, 10.0, 10.0, 10.0, 10.0, 10.0, 10.0, 10.0, 10.0, 10.0, 10.0, 10.0, 10.0, 10.0, 10.0, 10.0, 10.0, 10.0, 10.0, 10.0, 10.0, 10.0, 10.0, 10.0, 10.0, 10.0, 10.0, 10.0, 10.0, 10.0, 10.0, 10.0, 10.0, 10.0, 10.0, 10.0, 10.0, 10.0, 10.0, 10.0, 10.0, 10.0, 10.0, 10.0, 10.0, 10.0, 10.0, 10.0, 10.0, 10.0, 10.0, 10.0, 10.0, 10.0, 10.0, 10.0, 10.0, 10.0, 10.0, 10.0, 10.0, 10.0, 10.0, 10.0, 10.0, 10.0, 10.0, 10.0, 10.0, 10.0, 10.0, 10.0, 10.0, 10.0, 10.0, 10.0, 10.0, 10.0, 10.0, 10.0, 10.0, 10.0, 10.0, 10.0, 10.0, 10.0, 10.0, 10.0, 10.0, 10.0, 10.0, 10.0, 10.0, 10.0, 10.0, 10.0]
5 [10.0, 10.0, 10.0, 10.0, 10.0, 10.0, 10.0, 10.0, 10.0, 10.0, 10.0, 10.0, 10.0, 10.0, 10.0, 10.0, 10.0, 10.0, 10.0, 10.0, 10.0, 10.0, 10.0, 10.0, 10.0, 10.0, 10.0, 10.0, 10.0, 10.0, 10.0, 10.0, 10.0, 10.0, 10.0, 10.0, 10.0, 10.0, 10.0, 10.0, 10.0, 10.0, 10.0, 10.0, 10.0, 10.0, 10.0, 10.0, 10.0, 10.0, 10.0, 10.0, 10.0, 10.0, 10.0, 10.0, 10.0, 10.0, 10.0, 10.0, 10.0, 10.0, 10.0, 10.0, 10.0, 10.0, 10.0, 10.0, 10.0, 10.0, 10.0, 10.0, 10.0, 10.0, 10.0, 10.0, 10.0, 10.0, 10.0, 10.0, 10.0, 10.0, 10.0, 10.0, 10.0, 10.0, 10.0, 10.0, 10.0, 10.0, 10.0, 10.0, 10.0, 10.0, 10.0, 10.0, 10.0, 10.0, 10.0, 10.0, 10.0, 10.0, 10.0, 10.0, 10.0, 10.0, 10.0, 10.0, 10.0, 10.0, 10.0, 10.0, 10.0, 10.0, 10.0, 10.0, 10.0, 10.0, 10.0, 10.0, 10.0, 10.0, 10.0, 10.0, 10.0, 10.0, 10.0, 10.0, 10.0, 10.0, 10.0, 10.0, 10.0, 10.0, 10.0, 10.0, 10.0, 10.0, 10.0, 10.0, 10.0, 10.0, 10.0, 10.0, 10.0, 10.0, 10.0, 10.0, 10.0, 10.0, 10.0, 10.0, 10.0, 10.0, 10.0, 10.0, 10.0, 10.0, 10.0, 10.0, 10.0, 10.0, 10.0, 10.0, 10.0, 10.0, 10.0, 10.0, 10.0, 10.0, 10.0, 10.0, 10.0, 10.0, 10.0, 10.0, 10.0, 10.0, 10.0, 10.0, 10.0, 10.0]
6 [10.0, 10.0, 10.0, 10.0, 10.0, 10.0, 10.0, 10.0, 10.0, 10.0, 10.0, 10.0, 10.0, 10.0, 10.0, 10.0, 10.0, 10.0, 10.0, 10.0, 10.0, 10.0, 10.0, 10.0, 10.0, 10.0, 10.0, 10.0, 10.0, 10.0, 10.0, 10.0, 10.0, 10.0, 10.0, 10.0, 10.0, 10.0, 10.0, 10.0, 10.0, 10.0, 10.0, 10.0, 10.0, 10.0, 10.0, 10.0, 10.0, 10.0, 10.0, 10.0, 10.0, 10.0, 10.0, 10.0, 10.0, 10.0, 10.0, 10.0, 10.0, 10.0, 10.0, 10.0, 10.0, 10.0, 10.0, 10.0, 10.0, 10.0, 10.0, 10.0, 10.0, 10.0, 10.0, 10.0, 10.0, 10.0, 10.0, 10.0, 10.0, 10.0, 10.0, 10.0, 10.0, 10.0, 10.0, 10.0, 10.0, 10.0, 10.0, 10.0, 10.0, 10.0, 10.0, 10.0, 10.0, 10.0, 10.0, 10.0, 10.0, 10.0, 10.0, 10.0, 10.0, 10.0, 10.0, 10.0, 10.0, 10.0, 10.0, 10.0, 10.0, 10.0, 10.0, 10.0, 10.0, 10.0, 10.0, 10.0, 10.0, 10.0, 10.0, 10.0, 10.0, 10.0, 10.0, 10.0, 10.0, 10.0, 10.0, 10.0, 10.0, 10.0, 10.0, 10.0, 10.0, 10.0, 10.0, 10.0, 10.0, 10.0, 10.0, 10.0, 10.0, 10.0, 10.0, 10.0, 10.0, 10.0, 10.0, 10.0, 10.0, 10.0, 10.0, 10.0, 10.0, 10.0, 10.0, 10.0, 10.0, 10.0, 10.0, 10.0, 10.0, 10.0, 10.0, 10.0, 10.0, 10.0, 10.0, 10.0, 10.0, 10.0, 10.0, 10.0, 10.0, 10.0, 10.0, 10.0, 10.0, 10.0]
7 [1.72, 1.75, 1.78, 1.81, 1.84, 1.88, 1.91, 1.94, 1.97, 2.01, 2.04, 2.08, 2.11, 2.15, 2.19, 2.22, 2.26, 2.26, 2.26, 2.26, 2.26, 2.26, 2.26, 2.26, 1.57, 1.57, 1.57, 1.57, 1.57, 1.56, 1.56, 1.56, 1.56, 1.56, 1.56, 1.59, 1.62, 1.65, 1.69, 1.72, 1.76, 2.24, 2.24, 2.24, 2.24, 2.24, 2.24, 2.24, 2.23, 2.23, 2.23, 2.23, 2.23, 2.23, 2.23, 2.23, 2.23, 2.23, 2.23, 2.23, 2.23, 2.22, 2.22, 2.22, 2.22, 2.22, 2.22, 2.22, 2.22, 2.22, 2.22, 2.22, 2.22, 2.22, 2.22, 2.22, 2.21, 2.21, 2.21, 2.21, 2.21, 2.21, 2.21, 1.11, 1.11, 1.11, 1.11, 1.11, 1.11, 1.11, 1.11, 1.11, 1.11, 1.11, 1.11, 1.11, 1.11, 1.11, 1.11, 1.11, 1.11, 1.11, 1.1, 2.2, 2.2, 2.2, 2.19, 2.19, 2.19, 2.19, 2.19, 2.19, 2.19, 2.19, 2.19, 2.19, 2.19, 2.19, 2.19, 2.19, 2.19, 2.18, 2.18, 2.18, 2.18, 2.18, 2.18, 2.18, 2.18, 2.18, 2.18, 2.18, 2.18, 2.18, 2.18, 2.17, 2.17, 2.17, 2.17, 2.17, 2.17, 2.17, 2.17, 2.17, 2.17, 2.17, 2.17, 2.17, 2.16, 2.16, 2.16, 2.16, 2.16, 2.16, 2.16, 2.16, 2.16, 2.16, 2.16, 2.16, 2.15, 2.15, 2.15, 2.15, 2.15, 2.15, 2.15, 2.15, 2.15, 2.15, 2.14, 2.14, 1.47, 1.44, 1.41, 1.39, 1.36, 1.34, 1.31, 1.29, 1.29, 1.29]
8 [1.69, 1.72, 1.75, 1.78, 1.8, 1.83, 1.87, 1.9, 1.93, 1.96, 1.99, 2.03, 2.06, 2.09, 2.13, 2.17, 2.2, 2.24, 2.28, 2.3, 2.3, 2.3, 2.3, 2.29, 2.29, 2.29, 2.29, 1.59, 1.59, 1.59, 1.59, 1.59, 1.58, 1.58, 1.58, 1.58, 1.58, 1.59, 1.62, 1.65, 1.69, 1.72, 1.76, 2.26, 2.26, 2.26, 2.26, 2.26, 2.26, 2.26, 2.25, 2.25, 2.25, 2.25, 2.25, 2.25, 2.25, 2.25, 2.24, 2.24, 2.24, 2.24, 2.24, 2.24, 2.24, 2.24, 2.23, 2.23, 2.23, 2.23, 2.23, 2.23, 2.23, 2.23, 2.23, 2.22, 2.22, 2.22, 2.22, 2.22, 2.22, 2.22, 2.22, 2.22, 2.21, 1.11, 1.11, 1.11, 1.11, 1.11, 1.11, 1.11, 1.11, 1.11, 1.11, 1.11, 1.11, 1.11, 1.11, 1.11, 1.1, 1.1, 1.1, 1.1, 1.1, 1.1, 2.19, 2.19, 2.19, 2.19, 2.19, 2.19, 2.18, 2.18, 2.18, 2.18, 2.18, 2.18, 2.18, 2.18, 2.18, 2.17, 2.17, 2.17, 2.17, 2.17, 2.17, 2.17, 2.17, 2.17, 2.16, 2.16, 2.16, 2.16, 2.16, 2.16, 2.16, 2.16, 2.15, 2.15, 2.15, 2.15, 2.15, 2.15, 2.15, 2.15, 2.14, 2.14, 2.14, 2.14, 2.14, 2.14, 2.14, 2.13, 2.13, 2.13, 2.13, 2.13, 2.13, 2.13, 2.13, 2.12, 2.12, 2.12, 2.12, 2.12, 2.12, 2.11, 2.11, 2.11, 2.11, 2.11, 2.11, 2.1, 1.45, 1.43, 1.4, 1.37, 1.35, 1.32, 1.3, 1.28]
9 [1.65, 1.67, 1.7, 1.73, 1.76, 1.79, 1.81, 1.84, 1.87, 1.9, 1.94, 1.97, 2.0, 2.03, 2.06, 2.1, 2.13, 2.17, 2.2, 2.24, 2.28, 2.31, 2.35, 2.34, 2.34, 2.34, 2.34, 2.33, 2.33, 2.33, 1.62, 1.62, 1.62, 1.61, 1.61, 1.61, 1.61, 1.61, 1.61, 1.6, 1.6, 1.63, 1.67, 1.7, 1.73, 1.77, 2.29, 2.29, 2.29, 2.29, 2.28, 2.28, 2.28, 2.28, 2.28, 2.27, 2.27, 2.27, 2.27, 2.27, 2.26, 2.26, 2.26, 2.26, 2.26, 2.26, 2.25, 2.25, 2.25, 2.25, 2.25, 2.25, 2.24, 2.24, 2.24, 2.24, 2.24, 2.23, 2.23, 2.23, 2.23, 2.23, 2.23, 2.22, 2.22, 2.22, 2.22, 2.22, 2.22, 1.11, 1.11, 1.11, 1.11, 1.11, 1.11, 1.11, 1.11, 1.11, 1.11, 1.11, 1.1, 1.1, 1.1, 1.1, 1.1, 1.1, 1.1, 1.1, 1.1, 2.18, 2.18, 2.18, 2.18, 2.18, 2.17, 2.17, 2.17, 2.17, 2.17, 2.17, 2.16, 2.16, 2.16, 2.16, 2.16, 2.16, 2.15, 2.15, 2.15, 2.15, 2.15, 2.15, 2.14, 2.14, 2.14, 2.14, 2.14, 2.14, 2.13, 2.13, 2.13, 2.13, 2.13, 2.12, 2.12, 2.12, 2.12, 2.12, 2.12, 2.11, 2.11, 2.11, 2.11, 2.11, 2.1, 2.1, 2.1, 2.1, 2.09, 2.09, 2.09, 2.09, 2.09, 2.08, 2.08, 2.08, 2.08, 2.08, 2.07, 2.07, 2.07, 2.07, 2.06, 2.06, 2.06, 2.06, 2.05, 1.42, 1.4, 1.37, 1.34, 1.32]
10 [1.6, 1.63, 1.65, 1.68, 1.7, 1.73, 1.76, 1.79, 1.81, 1.84, 1.87, 1.9, 1.93, 1.96, 1.99, 2.02, 2.05, 2.09, 2.12, 2.15, 2.19, 2.22, 2.26, 2.29, 2.33, 2.37, 2.4, 2.4, 2.39, 2.39, 2.39, 2.38, 2.38, 2.38, 1.65, 1.65, 1.65, 1.64, 1.64, 1.64, 1.64, 1.63, 1.63, 1.63, 1.63, 1.66, 1.69, 1.72, 1.76, 1.79, 2.32, 2.32, 2.32, 2.31, 2.31, 2.31, 2.31, 2.3, 2.3, 2.3, 2.3, 2.29, 2.29, 2.29, 2.29, 2.28, 2.28, 2.28, 2.28, 2.27, 2.27, 2.27, 2.27, 2.26, 2.26, 2.26, 2.26, 2.25, 2.25, 2.25, 2.25, 2.24, 2.24, 2.24, 2.24, 2.23, 2.23, 2.23, 2.23, 2.22, 2.22, 2.22, 2.22, 1.11, 1.11, 1.11, 1.11, 1.11, 1.11, 1.11, 1.11, 1.11, 1.1, 1.1, 1.1, 1.1, 1.1, 1.1, 1.1, 1.1, 1.09, 1.09, 1.09, 2.17, 2.17, 2.17, 2.16, 2.16, 2.16, 2.16, 2.15, 2.15, 2.15, 2.15, 2.14, 2.14, 2.14, 2.14, 2.13, 2.13, 2.13, 2.13, 2.13, 2.12, 2.12, 2.12, 2.12, 2.11, 2.11, 2.11, 2.11, 2.1, 2.1, 2.1, 2.1, 2.09, 2.09, 2.09, 2.09, 2.08, 2.08, 2.08, 2.07, 2.07, 2.07, 2.07, 2.06, 2.06, 2.06, 2.05, 2.05, 2.05, 2.05, 2.04, 2.04, 2.04, 2.03, 2.03, 2.03, 2.02, 2.02, 2.02, 2.01, 2.01, 2.01, 2.0, 2.0, 2.0, 1.99, 1.99, 1.99, 1.38]
11 [1.56, 1.58, 1.6, 1.63, 1.65, 1.68, 1.7, 1.73, 1.76, 1.78, 1.81, 1.84, 1.86, 1.89, 1.92, 1.95, 1.98, 2.01, 2.04, 2.07, 2.1, 2.13, 2.17, 2.2, 2.23, 2.27, 2.3, 2.34, 2.38, 2.41, 2.45, 2.45, 2.45, 2.44, 2.44, 2.43, 2.43, 2.42, 1.68, 1.68, 1.68, 1.67, 1.67, 1.67, 1.66, 1.66, 1.66, 1.66, 1.65, 1.67, 1.7, 1.74, 1.77, 1.8, 1.84, 2.35, 2.35, 2.34, 2.34, 2.33, 2.33, 2.33, 2.32, 2.32, 2.32, 2.31, 2.31, 2.31, 2.3, 2.3, 2.3, 2.29, 2.29, 2.29, 2.28, 2.28, 2.28, 2.27, 2.27, 2.27, 2.26, 2.26, 2.26, 2.25, 2.25, 2.25, 2.25, 2.24, 2.24, 2.24, 2.23, 2.23, 2.23, 2.22, 2.22, 2.22, 2.21, 1.11, 1.11, 1.11, 1.11, 1.11, 1.1, 1.1, 1.1, 1.1, 1.1, 1.1, 1.1, 1.09, 1.09, 1.09, 1.09, 1.09, 1.09, 1.08, 1.08, 1.08, 2.15, 2.15, 2.14, 2.14, 2.14, 2.13, 2.13, 2.13, 2.12, 2.12, 2.12, 2.12, 2.11, 2.11, 2.11, 2.1, 2.1, 2.1, 2.09, 2.09, 2.09, 2.08, 2.08, 2.08, 2.07, 2.07, 2.07, 2.07, 2.06, 2.06, 2.06, 2.05, 2.05, 2.04, 2.04, 2.04, 2.03, 2.03, 2.03, 2.02, 2.02, 2.02, 2.01, 2.01, 2.01, 2.0, 2.0, 1.99, 1.99, 1.99, 1.98, 1.98, 1.97, 1.97, 1.97, 1.96, 1.96, 1.95, 1.95, 1.95, 1.94, 1.94, 1.93, 1.93]
12 [1.49, 1.51, 1.53, 1.55, 1.57, 1.6, 1.62, 1.64, 1.66, 1.69, 1.71, 1.74, 1.76, 1.78, 1.81, 1.84, 1.86, 1.89, 1.91, 1.94, 1.97, 2.0, 2.02, 2.05, 2.08, 2.11, 2.14, 2.17, 2.21, 2.24, 2.27, 2.3, 2.34, 2.37, 2.41, 2.44, 2.48, 2.52, 2.53, 2.52, 2.51, 2.51, 2.5, 2.49, 2.49, 2.48, 1.72, 1.71, 1.71, 1.7, 1.7, 1.7, 1.69, 1.69, 1.68, 1.68, 1.69, 1.72, 1.75, 1.78, 1.81, 1.85, 2.38, 2.38, 2.37, 2.37, 2.36, 2.36, 2.35, 2.35, 2.34, 2.34, 2.33, 2.33, 2.32, 2.32, 2.31, 2.31, 2.3, 2.3, 2.29, 2.29, 2.29, 2.28, 2.28, 2.27, 2.27, 2.26, 2.26, 2.25, 2.25, 2.25, 2.24, 2.24, 2.23, 2.23, 2.22, 2.22, 2.21, 2.21, 2.21, 2.2, 2.2, 2.19, 2.19, 1.09, 1.09, 1.09, 1.09, 1.08, 1.08, 1.08, 1.08, 1.08, 1.07, 1.07, 1.07, 1.07, 1.07, 1.06, 1.06, 1.06, 1.06, 1.05, 1.05, 1.05, 2.1, 2.09, 2.09, 2.08, 2.08, 2.08, 2.07, 2.07, 2.06, 2.06, 2.05, 2.05, 2.05, 2.04, 2.04, 2.03, 2.03, 2.02, 2.02, 2.02, 2.01, 2.01, 2.0, 2.0, 1.99, 1.99, 1.98, 1.98, 1.97, 1.97, 1.97, 1.96, 1.96, 1.95, 1.95, 1.94, 1.94, 1.93, 1.93, 1.92, 1.92, 1.91, 1.91, 1.9, 1.9, 1.89, 1.88, 1.88, 1.87, 1.87, 1.86, 1.86, 1.85, 1.85, 1.84, 1.83]
13 [1.46, 1.48, 1.5, 1.52, 1.54, 1.56, 1.58, 1.61, 1.63, 1.65, 1.67, 1.7, 1.72, 1.74, 1.77, 1.79, 1.82, 1.84, 1.87, 1.89, 1.92, 1.94, 1.97, 2.0, 2.02, 2.05, 2.08, 2.11, 2.14, 2.17, 2.2, 2.23, 2.26, 2.29, 2.33, 2.36, 2.39, 2.43, 2.46, 2.5, 2.54, 2.55, 2.54, 2.54, 2.53, 2.52, 2.51, 2.51, 2.5, 1.72, 1.72, 1.71, 1.71, 1.71, 1.7, 1.7, 1.69, 1.69, 1.68, 1.69, 1.72, 1.75, 1.78, 1.81, 1.85, 2.39, 2.38, 2.38, 2.37, 2.37, 2.36, 2.35, 2.35, 2.34, 2.34, 2.33, 2.33, 2.32, 2.32, 2.31, 2.31, 2.3, 2.3, 2.29, 2.28, 2.28, 2.27, 2.27, 2.26, 2.26, 2.25, 2.25, 2.24, 2.24, 2.23, 2.23, 2.22, 2.22, 2.21, 2.21, 2.21, 2.2, 2.2, 2.19, 2.19, 2.18, 2.18, 2.17, 2.17, 1.08, 1.07, 1.07, 1.07, 1.07, 1.06, 1.06, 1.06, 1.06, 1.06, 1.05, 1.05, 1.05, 1.05, 1.04, 1.04, 1.04, 1.04, 1.03, 1.03, 1.03, 2.06, 2.06, 2.05, 2.05, 2.05, 2.04, 2.04, 2.03, 2.03, 2.02, 2.02, 2.01, 2.01, 2.0, 2.0, 1.99, 1.99, 1.98, 1.98, 1.97, 1.97, 1.96, 1.96, 1.95, 1.95, 1.94, 1.94, 1.93, 1.93, 1.92, 1.92, 1.91, 1.91, 1.9, 1.89, 1.89, 1.88, 1.88, 1.87, 1.87, 1.86, 1.86, 1.85, 1.84, 1.84, 1.83, 1.83, 1.82, 1.81, 1.81, 1.8, 1.79]
14 [1.42, 1.44, 1.46, 1.48, 1.5, 1.52, 1.54, 1.56, 1.58, 1.6, 1.62, 1.64, 1.66, 1.68, 1.71, 1.73, 1.75, 1.77, 1.8, 1.82, 1.85, 1.87, 1.89, 1.92, 1.94, 1.97, 2.0, 2.02, 2.05, 2.08, 2.1, 2.13, 2.16, 2.19, 2.22, 2.25, 2.28, 2.31, 2.34, 2.38, 2.41, 2.44, 2.48, 2.51, 2.55, 2.56, 2.55, 2.54, 2.54, 2.53, 2.52, 2.51, 2.5, 1.71, 1.71, 1.7, 1.7, 1.69, 1.69, 1.68, 1.68, 1.67, 1.67, 1.67, 1.7, 1.73, 1.76, 1.79, 1.82, 2.38, 2.37, 2.36, 2.36, 2.35, 2.34, 2.34, 2.33, 2.32, 2.32, 2.31, 2.31, 2.3, 2.29, 2.29, 2.28, 2.28, 2.27, 2.26, 2.26, 2.25, 2.25, 2.24, 2.23, 2.23, 2.22, 2.22, 2.21, 2.21, 2.2, 2.2, 2.19, 2.18, 2.18, 2.17, 2.17, 2.16, 2.16, 2.15, 2.15, 2.14, 2.14, 2.13, 2.12, 2.12, 1.04, 1.03, 1.03, 1.03, 1.03, 1.02, 1.02, 1.02, 1.02, 1.01, 1.01, 1.01, 1.0, 1.0, 1.0, 1.0, 0.99, 0.99, 0.99, 0.99, 0.98, 0.98, 2.0, 1.99, 1.99, 1.98, 1.97, 1.97, 1.96, 1.96, 1.95, 1.95, 1.94, 1.94, 1.93, 1.93, 1.92, 1.91, 1.91, 1.9, 1.9, 1.89, 1.89, 1.88, 1.87, 1.87, 1.86, 1.86, 1.85, 1.84, 1.84, 1.83, 1.83, 1.82, 1.81, 1.81, 1.8, 1.8, 1.79, 1.78, 1.78, 1.77, 1.76, 1.76, 1.75, 1.74, 1.74, 1.73]
15 [1.41, 1.43, 1.45, 1.47, 1.49, 1.51, 1.53, 1.55, 1.57, 1.6, 1.62, 1.64, 1.66, 1.68, 1.7, 1.73, 1.75, 1.77, 1.8, 1.82, 1.84, 1.87, 1.89, 1.92, 1.94, 1.97, 2.0, 2.02, 2.05, 2.08, 2.11, 2.13, 2.16, 2.19, 2.22, 2.25, 2.28, 2.32, 2.35, 2.38, 2.41, 2.45, 2.48, 2.52, 2.51, 2.5, 2.49, 2.48, 2.48, 2.47, 2.46, 1.67, 1.67, 1.66, 1.66, 1.65, 1.65, 1.64, 1.64, 1.63, 1.63, 1.62, 1.64, 1.67, 1.7, 1.73, 1.76, 1.79, 2.33, 2.33, 2.32, 2.31, 2.31, 2.3, 2.29, 2.29, 2.28, 2.28, 2.27, 2.26, 2.26, 2.25, 2.25, 2.24, 2.24, 2.23, 2.22, 2.22, 2.21, 2.21, 2.2, 2.2, 2.19, 2.19, 2.18, 2.17, 2.17, 2.16, 2.16, 2.15, 2.15, 2.14, 2.14, 2.13, 2.13, 2.12, 2.12, 2.11, 2.11, 2.1, 2.1, 2.09, 2.09, 2.08, 1.0, 1.0, 0.99, 0.99, 0.99, 0.99, 0.98, 0.98, 0.98, 0.98, 0.97, 0.97, 0.97, 0.97, 0.96, 0.96, 0.96, 0.96, 0.95, 0.95, 0.95, 0.95, 0.94, 1.96, 1.95, 1.95, 1.94, 1.94, 1.93, 1.93, 1.92, 1.92, 1.91, 1.91, 1.9, 1.89, 1.89, 1.88, 1.88, 1.87, 1.87, 1.86, 1.86, 1.85, 1.85, 1.84, 1.83, 1.83, 1.82, 1.82, 1.81, 1.81, 1.8, 1.79, 1.79, 1.78, 1.78, 1.77, 1.76, 1.76, 1.75, 1.74, 1.74, 1.73, 1.73, 1.72, 1.71, 1.71]
16 [1.46, 1.48, 1.5, 1.52, 1.55, 1.57, 1.59, 1.61, 1.64, 1.66, 1.68, 1.71, 1.73, 1.76, 1.78, 1.81, 1.83, 1.86, 1.88, 1.91, 1.94, 1.96, 1.99, 2.02, 2.05, 2.08, 2.11, 2.14, 2.17, 2.2, 2.23, 2.27, 2.3, 2.33, 2.37, 2.4, 2.4, 2.39, 2.39, 2.38, 2.37, 2.37, 2.36, 1.59, 1.59, 1.58, 1.58, 1.58, 1.57, 1.57, 1.57, 1.56, 1.56, 1.55, 1.57, 1.6, 1.63, 1.66, 1.69, 1.72, 2.26, 2.26, 2.25, 2.25, 2.24, 2.24, 2.23, 2.23, 2.22, 2.22, 2.21, 2.21, 2.2, 2.2, 2.2, 2.19, 2.19, 2.18, 2.18, 2.17, 2.17, 2.17, 2.16, 2.16, 2.15, 2.15, 2.14, 2.14, 2.14, 2.13, 2.13, 2.12, 2.12, 2.12, 2.11, 2.11, 2.1, 2.1, 2.1, 2.09, 2.09, 2.08, 2.08, 2.08, 2.07, 2.07, 2.06, 0.97, 0.97, 0.97, 0.97, 0.96, 0.96, 0.96, 0.96, 0.96, 0.95, 0.95, 0.95, 0.95, 0.95, 0.95, 0.94, 0.94, 0.94, 0.94, 0.94, 0.93, 0.93, 0.93, 0.93, 1.97, 1.96, 1.96, 1.95, 1.95, 1.95, 1.94, 1.94, 1.93, 1.93, 1.93, 1.92, 1.92, 1.91, 1.91, 1.9, 1.9, 1.9, 1.89, 1.89, 1.88, 1.88, 1.87, 1.87, 1.87, 1.86, 1.86, 1.85, 1.85, 1.84, 1.84, 1.83, 1.83, 1.83, 1.82, 1.82, 1.81, 1.81, 1.8, 1.8, 1.79, 1.79, 1.78, 1.78, 1.77, 1.77, 1.76, 1.76, 1.75, 1.74, 1.74]
17 [1.46, 1.48, 1.5, 1.52, 1.55, 1.57, 1.59, 1.61, 1.64, 1.66, 1.68, 1.71, 1.73, 1.76, 1.78, 1.81, 1.83, 1.86, 1.88, 1.91, 1.94, 1.96, 1.99, 2.02, 2.05, 2.08, 2.11, 2.14, 2.17, 2.2, 2.23, 2.27, 2.3, 2.33, 2.37, 2.4, 2.4, 2.39, 2.39, 2.38, 2.37, 2.37, 2.36, 1.59, 1.59, 1.58, 1.58, 1.58, 1.57, 1.57, 1.57, 1.56, 1.56, 1.55, 1.57, 1.6, 1.63, 1.66, 1.69, 1.72, 2.26, 2.26, 2.25, 2.25, 2.24, 2.24, 2.23, 2.23, 2.22, 2.22, 2.21, 2.21, 2.2, 2.2, 2.2, 2.19, 2.19, 2.18, 2.18, 2.17, 2.17, 2.17, 2.16, 2.16, 2.15, 2.15, 2.14, 2.14, 2.14, 2.13, 2.13, 2.12, 2.12, 2.12, 2.11, 2.11, 2.1, 2.1, 2.1, 2.09, 2.09, 2.08, 2.08, 2.08, 2.07, 2.07, 2.06, 0.97, 0.97, 0.97, 0.97, 0.96, 0.96, 0.96, 0.96, 0.96, 0.95, 0.95, 0.95, 0.95, 0.95, 0.95, 0.94, 0.94, 0.94, 0.94, 0.94, 0.93, 0.93, 0.93, 0.93, 1.97, 1.96, 1.96, 1.95, 1.95, 1.95, 1.94, 1.94, 1.93, 1.93, 1.93, 1.92, 1.92, 1.91, 1.91, 1.9, 1.9, 1.9, 1.89, 1.89, 1.88, 1.88, 1.87, 1.87, 1.87, 1.86, 1.86, 1.85, 1.85, 1.84, 1.84, 1.83, 1.83, 1.83, 1.82, 1.82, 1.81, 1.81, 1.8, 1.8, 1.79, 1.79, 1.78, 1.78, 1.77, 1.77, 1.76, 1.76, 1.75, 1.74, 1.74]
18 [1.55, 1.57, 1.6, 1.62, 1.65, 1.67, 1.7, 1.72, 1.75, 1.78, 1.81, 1.83, 1.86, 1.89, 1.92, 1.95, 1.98, 2.01, 2.04, 2.07, 2.11, 2.14, 2.17, 2.21, 2.24, 2.26, 2.25, 2.25, 2.24, 2.24, 2.24, 2.23, 1.5, 1.5, 1.49, 1.49, 1.49, 1.49, 1.48, 1.48, 1.48, 1.48, 1.47, 1.49, 1.52, 1.54, 1.57, 1.6, 1.63, 1.67, 2.17, 2.17, 2.16, 2.16, 2.16, 2.16, 2.15, 2.15, 2.15, 2.14, 2.14, 2.14, 2.14, 2.13, 2.13, 2.13, 2.13, 2.12, 2.12, 2.12, 2.11, 2.11, 2.11, 2.11, 2.1, 2.1, 2.1, 2.1, 2.09, 2.09, 2.09, 2.09, 2.08, 2.08, 2.08, 2.08, 2.08, 2.07, 2.07, 2.07, 2.07, 2.06, 2.06, 2.06, 2.06, 2.05, 2.05, 0.95, 0.95, 0.95, 0.95, 0.95, 0.95, 0.94, 0.94, 0.94, 0.94, 0.94, 0.94, 0.94, 0.94, 0.94, 0.94, 0.93, 0.93, 0.93, 0.93, 0.93, 0.93, 0.93, 0.93, 1.99, 1.99, 1.99, 1.99, 1.98, 1.98, 1.98, 1.98, 1.97, 1.97, 1.97, 1.97, 1.96, 1.96, 1.96, 1.96, 1.95, 1.95, 1.95, 1.95, 1.94, 1.94, 1.94, 1.94, 1.93, 1.93, 1.93, 1.92, 1.92, 1.92, 1.92, 1.91, 1.91, 1.91, 1.91, 1.9, 1.9, 1.9, 1.89, 1.89, 1.89, 1.89, 1.88, 1.88, 1.88, 1.87, 1.87, 1.87, 1.86, 1.86, 1.86, 1.85, 1.85, 1.85, 1.84, 1.84, 1.84, 1.83, 1.83, 1.83, 1.82]
19 [1.73, 1.76, 1.79, 1.82, 1.85, 1.88, 1.92, 1.95, 1.99, 2.02, 2.02, 2.02, 2.02, 2.02, 2.02, 2.02, 1.34, 1.34, 1.34, 1.34, 1.34, 1.34, 1.34, 1.34, 1.34, 1.34, 1.34, 1.36, 1.38, 1.41, 1.44, 1.47, 1.5, 1.53, 2.02, 2.02, 2.02, 2.02, 2.02, 2.02, 2.02, 2.02, 2.02, 2.02, 2.01, 2.01, 2.01, 2.01, 2.01, 2.01, 2.01, 2.01, 2.01, 2.01, 2.01, 2.01, 2.01, 2.01, 2.01, 2.01, 2.01, 2.01, 2.01, 2.01, 2.01, 2.01, 2.01, 2.01, 2.01, 2.01, 2.01, 2.01, 2.01, 2.01, 2.01, 2.01, 2.01, 2.01, 2.01, 2.01, 2.01, 2.01, 0.91, 0.91, 0.91, 0.91, 0.91, 0.91, 0.91, 0.91, 0.91, 0.91, 0.91, 0.91, 0.91, 0.91, 0.91, 0.91, 0.91, 0.91, 0.91, 0.91, 0.91, 0.91, 0.91, 0.91, 0.91, 2.01, 2.01, 2.01, 2.01, 2.01, 2.01, 2.01, 2.01, 2.01, 2.01, 2.01, 2.01, 2.01, 2.01, 2.01, 2.01, 2.01, 2.01, 2.01, 2.01, 2.01, 2.01, 2.0, 2.0, 2.0, 2.0, 2.0, 2.0, 2.0, 2.0, 2.0, 2.0, 2.0, 2.0, 2.0, 2.0, 2.0, 2.0, 2.0, 2.0, 2.0, 2.0, 2.0, 2.0, 2.0, 2.0, 2.0, 2.0, 2.0, 2.0, 2.0, 2.0, 2.0, 2.0, 2.0, 2.0, 2.0, 2.0, 2.0, 2.0, 2.0, 2.0, 2.0, 2.0, 2.0, 2.0, 2.0, 2.0, 2.0, 2.0, 2.0, 1.32, 1.3, 1.27, 1.25]
20 [1.81, 1.84, 1.88, 1.91, 1.93, 1.93, 1.93, 1.94, 1.94, 1.94, 1.29, 1.29, 1.29, 1.29, 1.29, 1.29, 1.29, 1.29, 1.29, 1.29, 1.29, 1.3, 1.32, 1.35, 1.38, 1.4, 1.43, 1.46, 1.49, 1.96, 1.96, 1.96, 1.96, 1.96, 1.96, 1.96, 1.96, 1.96, 1.96, 1.96, 1.97, 1.97, 1.97, 1.97, 1.97, 1.97, 1.97, 1.97, 1.97, 1.97, 1.97, 1.97, 1.97, 1.98, 1.98, 1.98, 1.98, 1.98, 1.98, 1.98, 1.98, 1.98, 1.98, 1.98, 1.98, 1.98, 1.98, 1.98, 1.99, 1.99, 1.99, 1.99, 1.99, 1.99, 1.99, 1.99, 1.99, 0.9, 0.9, 0.9, 0.9, 0.9, 0.9, 0.9, 0.9, 0.9, 0.9, 0.9, 0.9, 0.9, 0.9, 0.9, 0.9, 0.91, 0.91, 0.91, 0.91, 0.91, 0.91, 0.91, 0.91, 0.91, 2.01, 2.01, 2.01, 2.01, 2.01, 2.01, 2.01, 2.01, 2.01, 2.01, 2.01, 2.02, 2.02, 2.02, 2.02, 2.02, 2.02, 2.02, 2.02, 2.02, 2.02, 2.02, 2.02, 2.02, 2.02, 2.03, 2.03, 2.03, 2.03, 2.03, 2.03, 2.03, 2.03, 2.03, 2.03, 2.03, 2.03, 2.03, 2.04, 2.04, 2.04, 2.04, 2.04, 2.04, 2.04, 2.04, 2.04, 2.04, 2.04, 2.04, 2.05, 2.05, 2.05, 2.05, 2.05, 2.05, 2.05, 2.05, 2.05, 2.05, 2.06, 2.06, 2.06, 2.06, 2.06, 2.06, 2.06, 2.06, 2.06, 2.07, 2.07, 1.37, 1.35, 1.33, 1.3, 1.28, 1.26, 1.24, 1.22, 1.2]
21 [1.84, 1.84, 1.85, 1.85, 1.23, 1.23, 1.23, 1.23, 1.23, 1.23, 1.24, 1.24, 1.24, 1.24, 1.24, 1.24, 1.26, 1.29, 1.32, 1.35, 1.37, 1.4, 1.43, 1.89, 1.89, 1.89, 1.9, 1.9, 1.9, 1.9, 1.9, 1.91, 1.91, 1.91, 1.91, 1.91, 1.91, 1.92, 1.92, 1.92, 1.92, 1.92, 1.92, 1.93, 1.93, 1.93, 1.93, 1.93, 1.93, 1.94, 1.94, 1.94, 1.94, 1.94, 1.94, 1.94, 1.95, 1.95, 1.95, 1.95, 1.95, 1.95, 1.96, 1.96, 1.96, 1.96, 1.96, 1.96, 1.96, 1.97, 1.97, 0.89, 0.89, 0.89, 0.89, 0.89, 0.89, 0.89, 0.89, 0.89, 0.89, 0.89, 0.89, 0.89, 0.89, 0.89, 0.9, 0.9, 0.9, 0.9, 0.9, 0.9, 0.9, 0.9, 0.9, 0.9, 2.01, 2.01, 2.01, 2.01, 2.01, 2.01, 2.01, 2.02, 2.02, 2.02, 2.02, 2.02, 2.02, 2.02, 2.03, 2.03, 2.03, 2.03, 2.03, 2.03, 2.04, 2.04, 2.04, 2.04, 2.04, 2.04, 2.05, 2.05, 2.05, 2.05, 2.05, 2.05, 2.06, 2.06, 2.06, 2.06, 2.06, 2.06, 2.07, 2.07, 2.07, 2.07, 2.07, 2.08, 2.08, 2.08, 2.08, 2.08, 2.08, 2.09, 2.09, 2.09, 2.09, 2.1, 2.1, 2.1, 2.1, 2.1, 2.11, 2.11, 2.11, 2.11, 2.12, 2.12, 2.12, 2.12, 2.12, 2.13, 2.13, 2.13, 2.14, 2.14, 1.41, 1.39, 1.37, 1.35, 1.33, 1.3, 1.28, 1.26, 1.24, 1.22, 1.22, 1.22, 1.23, 1.23]
22 [1.12, 1.12, 1.13, 1.13, 1.15, 1.18, 1.2, 1.23, 1.26, 1.29, 1.32, 1.74, 1.75, 1.75, 1.75, 1.76, 1.76, 1.77, 1.77, 1.77, 1.78, 1.78, 1.79, 1.79, 1.79, 1.8, 1.8, 1.8, 1.81, 1.81, 1.81, 1.82, 1.82, 1.83, 1.83, 1.83, 1.84, 1.84, 1.84, 1.85, 1.85, 1.85, 1.86, 1.86, 1.86, 1.87, 1.87, 1.87, 1.88, 1.88, 1.88, 1.88, 1.89, 1.89, 1.89, 1.9, 1.9, 1.9, 1.91, 0.85, 0.85, 0.85, 0.86, 0.86, 0.86, 0.86, 0.86, 0.86, 0.86, 0.87, 0.87, 0.87, 0.87, 0.87, 0.87, 0.87, 0.88, 0.88, 0.88, 0.88, 0.88, 0.88, 0.88, 0.89, 0.89, 1.99, 1.99, 2.0, 2.0, 2.0, 2.01, 2.01, 2.01, 2.02, 2.02, 2.02, 2.03, 2.03, 2.03, 2.04, 2.04, 2.04, 2.05, 2.05, 2.05, 2.06, 2.06, 2.06, 2.07, 2.07, 2.07, 2.08, 2.08, 2.09, 2.09, 2.09, 2.1, 2.1, 2.1, 2.11, 2.11, 2.11, 2.12, 2.12, 2.13, 2.13, 2.13, 2.14, 2.14, 2.15, 2.15, 2.15, 2.16, 2.16, 2.17, 2.17, 2.18, 2.18, 2.18, 2.19, 2.19, 2.2, 2.2, 2.21, 2.21, 2.22, 2.22, 2.23, 2.23, 2.24, 2.24, 2.25, 2.25, 2.26, 2.27, 2.27, 2.28, 1.5, 1.48, 1.46, 1.44, 1.42, 1.4, 1.38, 1.36, 1.34, 1.32, 1.32, 1.32, 1.32, 1.33, 1.33, 1.34, 1.34, 1.35, 2.06, 2.03, 2.0, 1.97, 1.95, 1.92, 1.89]
23 [1.14, 1.17, 1.19, 1.22, 1.25, 1.66, 1.67, 1.67, 1.68, 1.68, 1.69, 1.69, 1.7, 1.7, 1.71, 1.71, 1.72, 1.72, 1.73, 1.73, 1.74, 1.74, 1.74, 1.75, 1.75, 1.76, 1.76, 1.77, 1.77, 1.78, 1.78, 1.78, 1.79, 1.79, 1.8, 1.8, 1.81, 1.81, 1.81, 1.82, 1.82, 1.83, 1.83, 1.83, 1.84, 1.84, 1.85, 1.85, 1.85, 1.86, 1.86, 1.87, 1.87, 0.83, 0.83, 0.84, 0.84, 0.84, 0.84, 0.84, 0.84, 0.85, 0.85, 0.85, 0.85, 0.85, 0.85, 0.86, 0.86, 0.86, 0.86, 0.86, 0.87, 0.87, 0.87, 0.87, 0.87, 0.87, 0.88, 1.98, 1.98, 1.98, 1.99, 1.99, 2.0, 2.0, 2.0, 2.01, 2.01, 2.02, 2.02, 2.02, 2.03, 2.03, 2.04, 2.04, 2.04, 2.05, 2.05, 2.06, 2.06, 2.07, 2.07, 2.07, 2.08, 2.08, 2.09, 2.09, 2.1, 2.1, 2.11, 2.11, 2.12, 2.12, 2.12, 2.13, 2.13, 2.14, 2.14, 2.15, 2.15, 2.16, 2.16, 2.17, 2.17, 2.18, 2.18, 2.19, 2.19, 2.2, 2.21, 2.21, 2.22, 2.22, 2.23, 2.23, 2.24, 2.25, 2.25, 2.26, 2.26, 2.27, 2.28, 2.28, 2.29, 2.3, 2.3, 2.31, 2.32, 2.32, 2.33, 2.34, 1.53, 1.51, 1.49, 1.47, 1.45, 1.43, 1.41, 1.39, 1.37, 1.35, 1.36, 1.36, 1.37, 1.37, 1.38, 1.38, 1.39, 1.39, 2.13, 2.1, 2.07, 2.05, 2.02, 1.99, 1.96, 1.93, 1.91, 1.88, 1.85, 1.83]
24 [1.59, 1.6, 1.6, 1.61, 1.62, 1.62, 1.63, 1.63, 1.64, 1.64, 1.65, 1.66, 1.66, 1.67, 1.67, 1.68, 1.68, 1.69, 1.69, 1.7, 1.7, 1.71, 1.71, 1.72, 1.72, 1.73, 1.73, 1.74, 1.74, 1.75, 1.75, 1.76, 1.76, 1.77, 1.77, 1.78, 1.78, 1.79, 1.79, 1.8, 1.8, 1.81, 1.81, 1.82, 1.82, 1.83, 1.83, 1.83, 0.81, 0.82, 0.82, 0.82, 0.82, 0.82, 0.83, 0.83, 0.83, 0.83, 0.83, 0.84, 0.84, 0.84, 0.84, 0.84, 0.85, 0.85, 0.85, 0.85, 0.85, 0.86, 0.86, 0.86, 0.86, 0.86, 1.96, 1.96, 1.97, 1.97, 1.98, 1.98, 1.99, 1.99, 2.0, 2.0, 2.01, 2.01, 2.01, 2.02, 2.02, 2.03, 2.03, 2.04, 2.04, 2.05, 2.05, 2.06, 2.06, 2.07, 2.07, 2.08, 2.08, 2.09, 2.09, 2.1, 2.11, 2.11, 2.12, 2.12, 2.13, 2.13, 2.14, 2.14, 2.15, 2.15, 2.16, 2.17, 2.17, 2.18, 2.18, 2.19, 2.2, 2.2, 2.21, 2.21, 2.22, 2.23, 2.23, 2.24, 2.25, 2.25, 2.26, 2.27, 2.27, 2.28, 2.29, 2.29, 2.3, 2.31, 2.32, 2.32, 2.33, 2.34, 2.35, 2.36, 2.36, 2.37, 2.38, 1.57, 1.55, 1.53, 1.51, 1.49, 1.47, 1.45, 1.43, 1.41, 1.39, 1.38, 1.39, 1.4, 1.4, 1.41, 1.42, 1.42, 1.43, 1.44, 2.18, 2.15, 2.12, 2.09, 2.07, 2.04, 2.01, 1.99, 1.96, 1.93, 1.91, 1.88, 1.86, 1.83, 1.81, 1.78]
25 [1.55, 1.56, 1.57, 1.57, 1.58, 1.59, 1.59, 1.6, 1.6, 1.61, 1.62, 1.62, 1.63, 1.64, 1.64, 1.65, 1.65, 1.66, 1.66, 1.67, 1.68, 1.68, 1.69, 1.69, 1.7, 1.7, 1.71, 1.72, 1.72, 1.73, 1.73, 1.74, 1.74, 1.75, 1.75, 1.76, 1.76, 1.77, 1.78, 1.78, 1.79, 1.79, 1.8, 0.79, 0.8, 0.8, 0.8, 0.8, 0.81, 0.81, 0.81, 0.81, 0.82, 0.82, 0.82, 0.82, 0.82, 0.83, 0.83, 0.83, 0.83, 0.84, 0.84, 0.84, 0.84, 0.85, 0.85, 0.85, 0.85, 1.94, 1.94, 1.95, 1.95, 1.96, 1.96, 1.97, 1.97, 1.98, 1.99, 1.99, 2.0, 2.0, 2.01, 2.01, 2.02, 2.02, 2.03, 2.03, 2.04, 2.05, 2.05, 2.06, 2.06, 2.07, 2.07, 2.08, 2.09, 2.09, 2.1, 2.1, 2.11, 2.12, 2.12, 2.13, 2.14, 2.14, 2.15, 2.15, 2.16, 2.17, 2.17, 2.18, 2.19, 2.19, 2.2, 2.21, 2.21, 2.22, 2.23, 2.24, 2.24, 2.25, 2.26, 2.26, 2.27, 2.28, 2.29, 2.3, 2.3, 2.31, 2.32, 2.33, 2.34, 2.34, 2.35, 2.36, 2.37, 2.38, 2.39, 2.4, 2.41, 2.42, 2.43, 1.59, 1.57, 1.55, 1.53, 1.51, 1.49, 1.47, 1.45, 1.43, 1.41, 1.42, 1.42, 1.43, 1.44, 1.44, 1.45, 1.46, 1.47, 2.25, 2.22, 2.2, 2.17, 2.14, 2.11, 2.09, 2.06, 2.03, 2.01, 1.98, 1.96, 1.93, 1.91, 1.88, 1.86, 1.84, 1.81, 1.79, 1.76, 1.74]
26 [1.52, 1.53, 1.53, 1.54, 1.55, 1.55, 1.56, 1.57, 1.57, 1.58, 1.59, 1.59, 1.6, 1.61, 1.61, 1.62, 1.63, 1.63, 1.64, 1.65, 1.65, 1.66, 1.66, 1.67, 1.68, 1.68, 1.69, 1.7, 1.7, 1.71, 1.71, 1.72, 1.73, 1.73, 1.74, 1.74, 1.75, 0.77, 0.77, 0.78, 0.78, 0.78, 0.78, 0.79, 0.79, 0.79, 0.79, 0.8, 0.8, 0.8, 0.81, 0.81, 0.81, 0.81, 0.82, 0.82, 0.82, 0.82, 0.83, 0.83, 0.83, 0.83, 0.84, 0.84, 1.91, 1.92, 1.92, 1.93, 1.94, 1.94, 1.95, 1.95, 1.96, 1.97, 1.97, 1.98, 1.98, 1.99, 2.0, 2.0, 2.01, 2.02, 2.02, 2.03, 2.03, 2.04, 2.05, 2.05, 2.06, 2.07, 2.07, 2.08, 2.09, 2.09, 2.1, 2.11, 2.11, 2.12, 2.13, 2.13, 2.14, 2.15, 2.15, 2.16, 2.17, 2.18, 2.18, 2.19, 2.2, 2.21, 2.21, 2.22, 2.23, 2.24, 2.24, 2.25, 2.26, 2.27, 2.28, 2.29, 2.29, 2.3, 2.31, 2.32, 2.33, 2.34, 2.35, 2.36, 2.37, 2.38, 2.38, 2.39, 2.4, 2.41, 2.42, 2.44, 2.45, 2.46, 2.47, 1.6, 1.58, 1.56, 1.54, 1.52, 1.5, 1.49, 1.47, 1.45, 1.44, 1.44, 1.45, 1.46, 1.47, 1.48, 1.48, 1.49, 1.5, 2.3, 2.27, 2.24, 2.21, 2.19, 2.16, 2.13, 2.11, 2.08, 2.06, 2.03, 2.01, 1.98, 1.96, 1.93, 1.91, 1.89, 1.86, 1.84, 1.82, 1.79, 1.77, 1.75, 10.0, 0.0]
27 [1.49, 1.5, 1.51, 1.52, 1.52, 1.53, 1.54, 1.55, 1.55, 1.56, 1.57, 1.57, 1.58, 1.59, 1.59, 1.6, 1.61, 1.61, 1.62, 1.63, 1.64, 1.64, 1.65, 1.65, 1.66, 1.67, 1.67, 1.68, 1.69, 1.69, 1.7, 1.71, 1.71, 0.75, 0.76, 0.76, 0.76, 0.76, 0.77, 0.77, 0.77, 0.78, 0.78, 0.78, 0.78, 0.79, 0.79, 0.79, 0.79, 0.8, 0.8, 0.8, 0.81, 0.81, 0.81, 0.81, 0.82, 0.82, 0.82, 0.83, 1.89, 1.9, 1.9, 1.91, 1.92, 1.92, 1.93, 1.93, 1.94, 1.95, 1.95, 1.96, 1.97, 1.97, 1.98, 1.99, 1.99, 2.0, 2.01, 2.01, 2.02, 2.03, 2.03, 2.04, 2.05, 2.05, 2.06, 2.07, 2.08, 2.08, 2.09, 2.1, 2.1, 2.11, 2.12, 2.13, 2.13, 2.14, 2.15, 2.16, 2.17, 2.17, 2.18, 2.19, 2.2, 2.2, 2.21, 2.22, 2.23, 2.24, 2.25, 2.26, 2.26, 2.27, 2.28, 2.29, 2.3, 2.31, 2.32, 2.33, 2.34, 2.35, 2.36, 2.37, 2.38, 2.39, 2.4, 2.41, 2.42, 2.43, 2.44, 2.45, 2.46, 2.47, 2.49, 1.63, 1.61, 1.59, 1.57, 1.55, 1.53, 1.51, 1.5, 1.48, 1.46, 1.46, 1.46, 1.47, 1.48, 1.49, 1.5, 1.51, 1.52, 2.35, 2.32, 2.3, 2.27, 2.24, 2.22, 2.19, 2.16, 2.14, 2.11, 2.09, 2.06, 2.04, 2.02, 1.99, 1.97, 1.94, 1.92, 1.9, 1.88, 1.85, 1.83, 1.81, 1.79, 1.77, 1.74, 1.72, 1.7, 1.68]
28 [1.46, 1.47, 1.48, 1.49, 1.5, 1.5, 1.51, 1.52, 1.53, 1.53, 1.54, 1.55, 1.56, 1.56, 1.57, 1.58, 1.58, 1.59, 1.6, 1.61, 1.61, 1.62, 1.63, 1.63, 1.64, 1.65, 1.66, 1.66, 0.73, 0.73, 0.73, 0.74, 0.74, 0.74, 0.74, 0.75, 0.75, 0.75, 0.76, 0.76, 0.76, 0.77, 0.77, 0.77, 0.77, 0.78, 0.78, 0.78, 0.79, 0.79, 0.79, 0.79, 0.8, 0.8, 0.8, 1.85, 1.86, 1.87, 1.87, 1.88, 1.89, 1.9, 1.9, 1.91, 1.92, 1.92, 1.93, 1.94, 1.94, 1.95, 1.96, 1.97, 1.97, 1.98, 1.99, 1.99, 2.0, 2.01, 2.02, 2.02, 2.03, 2.04, 2.05, 2.05, 2.06, 2.07, 2.08, 2.09, 2.09, 2.1, 2.11, 2.12, 2.13, 2.13, 2.14, 2.15, 2.16, 2.17, 2.18, 2.19, 2.19, 2.2, 2.21, 2.22, 2.23, 2.24, 2.25, 2.26, 2.27, 2.28, 2.29, 2.3, 2.31, 2.32, 2.33, 2.34, 2.35, 2.36, 2.37, 2.38, 2.39, 2.4, 2.41, 2.42, 2.43, 2.45, 2.46, 2.47, 2.48, 2.49, 2.51, 1.64, 1.62, 1.6, 1.58, 1.57, 1.55, 1.53, 1.51, 1.49, 1.47, 1.47, 1.48, 1.49, 1.5, 1.5, 1.51, 1.52, 1.53, 1.54, 2.36, 2.34, 2.31, 2.28, 2.26, 2.23, 2.21, 2.18, 2.16, 2.13, 2.11, 2.08, 2.06, 2.04, 2.01, 1.99, 1.97, 1.95, 1.92, 1.9, 1.88, 1.86, 1.84, 1.82, 1.79, 1.77, 1.75, 1.73, 1.71, 1.69, 1.67, 1.65]
29 [1.46, 1.46, 1.47, 1.48, 1.49, 1.5, 1.5, 1.51, 1.52, 1.53, 1.53, 1.54, 1.55, 1.56, 1.56, 1.57, 1.58, 1.59, 1.59, 1.6, 1.61, 1.61, 1.62, 1.63, 1.64, 1.64, 1.65, 0.72, 0.72, 0.73, 0.73, 0.73, 0.73, 0.74, 0.74, 0.74, 0.75, 0.75, 0.75, 0.76, 0.76, 0.76, 0.76, 0.77, 0.77, 0.77, 0.78, 0.78, 0.78, 0.79, 0.79, 0.79, 0.79, 0.8, 1.85, 1.85, 1.86, 1.87, 1.87, 1.88, 1.89, 1.89, 1.9, 1.91, 1.92, 1.92, 1.93, 1.94, 1.94, 1.95, 1.96, 1.97, 1.97, 1.98, 1.99, 2.0, 2.0, 2.01, 2.02, 2.03, 2.03, 2.04, 2.05, 2.06, 2.07, 2.07, 2.08, 2.09, 2.1, 2.11, 2.11, 2.12, 2.13, 2.14, 2.15, 2.16, 2.17, 2.17, 2.18, 2.19, 2.2, 2.21, 2.22, 2.23, 2.24, 2.25, 2.26, 2.27, 2.28, 2.29, 2.3, 2.31, 2.32, 2.33, 2.34, 2.35, 2.36, 2.37, 2.38, 2.39, 2.4, 2.41, 2.43, 2.44, 2.45, 2.46, 2.47, 2.49, 2.5, 2.51, 1.64, 1.62, 1.61, 1.59, 1.57, 1.55, 1.53, 1.51, 1.49, 1.48, 1.47, 1.48, 1.49, 1.5, 1.51, 1.52, 1.53, 1.54, 1.55, 2.37, 2.35, 2.32, 2.29, 2.27, 2.24, 2.22, 2.19, 2.17, 2.14, 2.12, 2.09, 2.07, 2.05, 2.02, 2.0, 1.98, 1.96, 1.93, 1.91, 1.89, 1.87, 1.85, 1.83, 1.81, 1.78, 1.76, 1.74, 1.72, 1.7, 1.68, 1.66, 1.64]
30 [1.45, 1.46, 1.47, 1.48, 1.48, 1.49, 1.5, 1.51, 1.51, 1.52, 1.53, 1.54, 1.55, 1.55, 1.56, 1.57, 1.58, 1.58, 1.59, 1.6, 1.6, 1.61, 1.62, 1.63, 1.63, 1.64, 0.71, 0.72, 0.72, 0.72, 0.73, 0.73, 0.73, 0.74, 0.74, 0.74, 0.75, 0.75, 0.75, 0.75, 0.76, 0.76, 0.76, 0.77, 0.77, 0.77, 0.78, 0.78, 0.78, 0.79, 0.79, 0.79, 0.79, 1.84, 1.85, 1.85, 1.86, 1.87, 1.87, 1.88, 1.89, 1.9, 1.9, 1.91, 1.92, 1.92, 1.93, 1.94, 1.95, 1.95, 1.96, 1.97, 1.98, 1.98, 1.99, 2.0, 2.01, 2.01, 2.02, 2.03, 2.04, 2.05, 2.05, 2.06, 2.07, 2.08, 2.09, 2.09, 2.1, 2.11, 2.12, 2.13, 2.14, 2.15, 2.15, 2.16, 2.17, 2.18, 2.19, 2.2, 2.21, 2.22, 2.23, 2.24, 2.24, 2.25, 2.26, 2.27, 2.28, 2.29, 2.3, 2.31, 2.33, 2.34, 2.35, 2.36, 2.37, 2.38, 2.39, 2.4, 2.41, 2.43, 2.44, 2.45, 2.46, 2.47, 2.49, 2.5, 2.51, 2.53, 1.63, 1.61, 1.59, 1.57, 1.56, 1.54, 1.52, 1.5, 1.49, 1.47, 1.48, 1.49, 1.5, 1.51, 1.52, 1.53, 1.54, 1.55, 2.39, 2.36, 2.33, 2.31, 2.28, 2.26, 2.23, 2.21, 2.18, 2.16, 2.13, 2.11, 2.09, 2.06, 2.04, 2.02, 1.99, 1.97, 1.95, 1.93, 1.91, 1.88, 1.86, 1.84, 1.82, 1.8, 1.78, 1.76, 1.74, 1.72, 1.7, 1.68, 1.66, 1.64]
31 [1.45, 1.46, 1.47, 1.48, 1.48, 1.49, 1.5, 1.51, 1.51, 1.52, 1.53, 1.54, 1.54, 1.55, 1.56, 1.57, 1.57, 1.58, 1.59, 1.59, 1.6, 1.61, 1.62, 1.62, 1.63, 1.64, 1.64, 0.71, 0.72, 0.72, 0.72, 0.72, 0.73, 0.73, 0.73, 0.74, 0.74, 0.74, 0.75, 0.75, 0.75, 0.75, 0.76, 0.76, 0.76, 0.77, 0.77, 0.77, 0.78, 0.78, 0.78, 0.78, 0.79, 0.79, 1.84, 1.84, 1.85, 1.86, 1.86, 1.87, 1.88, 1.89, 1.89, 1.9, 1.91, 1.91, 1.92, 1.93, 1.94, 1.94, 1.95, 1.96, 1.96, 1.97, 1.98, 1.99, 1.99, 2.0, 2.01, 2.02, 2.02, 2.03, 2.04, 2.05, 2.05, 2.06, 2.07, 2.08, 2.09, 2.09, 2.1, 2.11, 2.12, 2.13, 2.14, 2.14, 2.15, 2.16, 2.17, 2.18, 2.19, 2.2, 2.21, 2.21, 2.22, 2.23, 2.24, 2.25, 2.26, 2.27, 2.28, 2.29, 2.3, 2.31, 2.32, 2.33, 2.34, 2.35, 2.36, 2.37, 2.39, 2.4, 2.41, 2.42, 2.43, 2.44, 2.46, 2.47, 2.48, 2.49, 2.51, 1.63, 1.61, 1.59, 1.57, 1.55, 1.53, 1.51, 1.49, 1.48, 1.46, 1.46, 1.47, 1.48, 1.49, 1.5, 1.51, 1.52, 1.53, 2.37, 2.35, 2.32, 2.29, 2.27, 2.24, 2.22, 2.19, 2.17, 2.14, 2.12, 2.1, 2.07, 2.05, 2.03, 2.0, 1.98, 1.96, 1.94, 1.91, 1.89, 1.87, 1.85, 1.83, 1.81, 1.78, 1.76, 1.74, 1.72, 1.7, 1.68, 1.66, 1.64]
32 [1.46, 1.46, 1.47, 1.48, 1.49, 1.49, 1.5, 1.51, 1.52, 1.52, 1.53, 1.54, 1.55, 1.55, 1.56, 1.57, 1.57, 1.58, 1.59, 1.6, 1.6, 1.61, 1.62, 1.62, 1.63, 1.64, 1.64, 1.65, 0.71, 0.72, 0.72, 0.72, 0.73, 0.73, 0.73, 0.73, 0.74, 0.74, 0.74, 0.75, 0.75, 0.75, 0.75, 0.76, 0.76, 0.76, 0.77, 0.77, 0.77, 0.77, 0.78, 0.78, 0.78, 0.79, 0.79, 1.84, 1.84, 1.85, 1.86, 1.86, 1.87, 1.88, 1.88, 1.89, 1.9, 1.9, 1.91, 1.92, 1.93, 1.93, 1.94, 1.95, 1.95, 1.96, 1.97, 1.97, 1.98, 1.99, 2.0, 2.0, 2.01, 2.02, 2.03, 2.03, 2.04, 2.05, 2.06, 2.06, 2.07, 2.08, 2.09, 2.09, 2.1, 2.11, 2.12, 2.13, 2.13, 2.14, 2.15, 2.16, 2.17, 2.18, 2.18, 2.19, 2.2, 2.21, 2.22, 2.23, 2.24, 2.25, 2.26, 2.27, 2.28, 2.29, 2.3, 2.31, 2.32, 2.33, 2.34, 2.35, 2.36, 2.37, 2.38, 2.39, 2.4, 2.41, 2.42, 2.43, 2.45, 2.46, 2.47, 2.48, 1.63, 1.61, 1.59, 1.57, 1.55, 1.53, 1.51, 1.49, 1.48, 1.46, 1.44, 1.45, 1.46, 1.47, 1.48, 1.49, 1.5, 1.51, 1.52, 2.34, 2.32, 2.29, 2.26, 2.24, 2.21, 2.19, 2.16, 2.14, 2.11, 2.09, 2.06, 2.04, 2.02, 1.99, 1.97, 1.95, 1.93, 1.9, 1.88, 1.86, 1.84, 1.82, 1.79, 1.77, 1.75, 1.73, 1.71, 1.69, 1.67, 1.65]
33 [1.47, 1.47, 1.48, 1.49, 1.5, 1.5, 1.51, 1.52, 1.52, 1.53, 1.54, 1.55, 1.55, 1.56, 1.57, 1.57, 1.58, 1.59, 1.59, 1.6, 1.61, 1.61, 1.62, 1.63, 1.63, 1.64, 1.65, 1.65, 1.66, 1.67, 0.72, 0.72, 0.72, 0.73, 0.73, 0.73, 0.73, 0.74, 0.74, 0.74, 0.75, 0.75, 0.75, 0.75, 0.76, 0.76, 0.76, 0.76, 0.77, 0.77, 0.77, 0.78, 0.78, 0.78, 0.78, 0.79, 0.79, 0.79, 1.85, 1.86, 1.86, 1.87, 1.88, 1.88, 1.89, 1.89, 1.9, 1.91, 1.91, 1.92, 1.93, 1.93, 1.94, 1.95, 1.95, 1.96, 1.97, 1.97, 1.98, 1.99, 1.99, 2.0, 2.01, 2.01, 2.02, 2.03, 2.04, 2.04, 2.05, 2.06, 2.06, 2.07, 2.08, 2.09, 2.09, 2.1, 2.11, 2.12, 2.13, 2.13, 2.14, 2.15, 2.16, 2.16, 2.17, 2.18, 2.19, 2.2, 2.21, 2.21, 2.22, 2.23, 2.24, 2.25, 2.26, 2.27, 2.28, 2.29, 2.3, 2.31, 2.32, 2.33, 2.34, 2.35, 2.36, 2.37, 2.38, 2.39, 2.4, 2.41, 2.42, 2.43, 2.44, 2.46, 2.47, 1.6, 1.58, 1.56, 1.54, 1.52, 1.5, 1.48, 1.47, 1.45, 1.43, 1.43, 1.44, 1.45, 1.45, 1.46, 1.47, 1.48, 1.49, 1.5, 2.29, 2.27, 2.24, 2.22, 2.19, 2.16, 2.14, 2.11, 2.09, 2.06, 2.04, 2.02, 1.99, 1.97, 1.95, 1.92, 1.9, 1.88, 1.86, 1.83, 1.81, 1.79, 1.77, 1.75, 1.73, 1.7, 10.0, 0.0]
34 [1.48, 1.48, 1.49, 1.5, 1.51, 1.51, 1.52, 1.53, 1.53, 1.54, 1.55, 1.55, 1.56, 1.57, 1.57, 1.58, 1.59, 1.59, 1.6, 1.6, 1.61, 1.62, 1.62, 1.63, 1.64, 1.64, 1.65, 1.65, 1.66, 1.67, 1.67, 1.68, 1.69, 0.72, 0.73, 0.73, 0.73, 0.73, 0.74, 0.74, 0.74, 0.74, 0.75, 0.75, 0.75, 0.75, 0.76, 0.76, 0.76, 0.76, 0.77, 0.77, 0.77, 0.77, 0.78, 0.78, 0.78, 0.78, 0.79, 0.79, 1.85, 1.86, 1.86, 1.87, 1.88, 1.88, 1.89, 1.89, 1.9, 1.91, 1.91, 1.92, 1.92, 1.93, 1.94, 1.94, 1.95, 1.96, 1.96, 1.97, 1.97, 1.98, 1.99, 1.99, 2.0, 2.01, 2.01, 2.02, 2.03, 2.03, 2.04, 2.05, 2.05, 2.06, 2.07, 2.07, 2.08, 2.09, 2.1, 2.1, 2.11, 2.12, 2.12, 2.13, 2.14, 2.15, 2.15, 2.16, 2.17, 2.18, 2.19, 2.19, 2.2, 2.21, 2.22, 2.23, 2.23, 2.24, 2.25, 2.26, 2.27, 2.28, 2.29, 2.3, 2.31, 2.32, 2.33, 2.33, 2.34, 2.35, 2.36, 2.37, 2.39, 2.4, 2.41, 2.42, 2.43, 2.44, 1.58, 1.56, 1.54, 1.52, 1.5, 1.48, 1.46, 1.44, 1.43, 1.41, 1.41, 1.41, 1.42, 1.43, 1.44, 1.45, 1.46, 1.46, 2.28, 2.25, 2.23, 2.2, 2.17, 2.15, 2.12, 2.1, 2.07, 2.05, 2.02, 2.0, 1.97, 1.95, 1.92, 1.9, 1.88, 1.86, 1.83, 1.81, 1.79, 1.77, 1.74, 1.72, 1.7, 1.68]
35 [1.49, 1.5, 1.5, 1.51, 1.52, 1.52, 1.53, 1.54, 1.54, 1.55, 1.56, 1.56, 1.57, 1.57, 1.58, 1.59, 1.59, 1.6, 1.61, 1.61, 1.62, 1.62, 1.63, 1.64, 1.64, 1.65, 1.65, 1.66, 1.66, 1.67, 1.68, 1.68, 1.69, 1.69, 1.7, 0.73, 0.73, 0.73, 0.73, 0.74, 0.74, 0.74, 0.74, 0.75, 0.75, 0.75, 0.75, 0.75, 0.76, 0.76, 0.76, 0.76, 0.77, 0.77, 0.77, 0.77, 0.78, 0.78, 0.78, 0.78, 0.79, 0.79, 0.79, 1.86, 1.87, 1.87, 1.88, 1.88, 1.89, 1.89, 1.9, 1.9, 1.91, 1.92, 1.92, 1.93, 1.93, 1.94, 1.95, 1.95, 1.96, 1.96, 1.97, 1.97, 1.98, 1.99, 1.99, 2.0, 2.0, 2.01, 2.02, 2.02, 2.03, 2.04, 2.04, 2.05, 2.05, 2.06, 2.07, 2.07, 2.08, 2.09, 2.09, 2.1, 2.11, 2.11, 2.12, 2.13, 2.13, 2.14, 2.15, 2.16, 2.16, 2.17, 2.18, 2.19, 2.19, 2.2, 2.21, 2.22, 2.23, 2.23, 2.24, 2.25, 2.26, 2.27, 2.27, 2.28, 2.29, 2.3, 2.31, 2.32, 2.33, 2.34, 2.35, 2.36, 2.37, 2.38, 2.39, 2.4, 2.41, 1.55, 1.53, 1.51, 1.5, 1.48, 1.46, 1.44, 1.42, 1.4, 1.39, 1.38, 1.39, 1.4, 1.4, 1.41, 1.42, 1.43, 1.43, 1.44, 2.21, 2.18, 2.16, 2.13, 2.1, 2.08, 2.05, 2.03, 2.0, 1.98, 1.95, 1.93, 1.9, 1.88, 1.86, 1.83, 1.81, 1.79, 1.77, 1.74, 1.72, 1.7]
36 [1.51, 1.51, 1.52, 1.53, 1.53, 1.54, 1.55, 1.55, 1.56, 1.56, 1.57, 1.58, 1.58, 1.59, 1.59, 1.6, 1.6, 1.61, 1.62, 1.62, 1.63, 1.63, 1.64, 1.64, 1.65, 1.65, 1.66, 1.67, 1.67, 1.68, 1.68, 1.69, 1.69, 1.7, 1.7, 1.71, 1.71, 1.72, 0.73, 0.73, 0.74, 0.74, 0.74, 0.74, 0.75, 0.75, 0.75, 0.75, 0.75, 0.76, 0.76, 0.76, 0.76, 0.76, 0.77, 0.77, 0.77, 0.77, 0.78, 0.78, 0.78, 0.78, 0.78, 0.79, 0.79, 0.79, 1.87, 1.87, 1.88, 1.88, 1.89, 1.89, 1.9, 1.9, 1.91, 1.91, 1.92, 1.92, 1.93, 1.93, 1.94, 1.95, 1.95, 1.96, 1.96, 1.97, 1.97, 1.98, 1.98, 1.99, 1.99, 2.0, 2.01, 2.01, 2.02, 2.02, 2.03, 2.03, 2.04, 2.05, 2.05, 2.06, 2.06, 2.07, 2.08, 2.08, 2.09, 2.09, 2.1, 2.11, 2.11, 2.12, 2.13, 2.13, 2.14, 2.15, 2.15, 2.16, 2.17, 2.17, 2.18, 2.19, 2.2, 2.2, 2.21, 2.22, 2.22, 2.23, 2.24, 2.25, 2.26, 2.26, 2.27, 2.28, 2.29, 2.3, 2.31, 2.32, 2.32, 2.33, 2.34, 2.35, 2.36, 2.37, 1.54, 1.52, 1.5, 1.48, 1.46, 1.44, 1.42, 1.4, 1.38, 1.37, 1.35, 1.36, 1.37, 1.37, 1.38, 1.39, 1.39, 1.4, 1.41, 2.17, 2.14, 2.12, 2.09, 2.06, 2.04, 2.01, 1.99, 1.96, 1.94, 1.91, 1.89, 1.86, 1.84, 1.81, 1.79, 1.77, 1.74, 1.72]
37 [1.51, 1.51, 1.52, 1.53, 1.53, 1.54, 1.55, 1.55, 1.56, 1.56, 1.57, 1.58, 1.58, 1.59, 1.59, 1.6, 1.6, 1.61, 1.62, 1.62, 1.63, 1.63, 1.64, 1.64, 1.65, 1.65, 1.66, 1.67, 1.67, 1.68, 1.68, 1.69, 1.69, 1.7, 1.7, 1.71, 1.71, 1.72, 0.73, 0.73, 0.74, 0.74, 0.74, 0.74, 0.75, 0.75, 0.75, 0.75, 0.75, 0.76, 0.76, 0.76, 0.76, 0.76, 0.77, 0.77, 0.77, 0.77, 0.78, 0.78, 0.78, 0.78, 0.78, 0.79, 0.79, 0.79, 1.87, 1.87, 1.88, 1.88, 1.89, 1.89, 1.9, 1.9, 1.91, 1.91, 1.92, 1.92, 1.93, 1.93, 1.94, 1.95, 1.95, 1.96, 1.96, 1.97, 1.97, 1.98, 1.98, 1.99, 1.99, 2.0, 2.01, 2.01, 2.02, 2.02, 2.03, 2.03, 2.04, 2.05, 2.05, 2.06, 2.06, 2.07, 2.08, 2.08, 2.09, 2.09, 2.1, 2.11, 2.11, 2.12, 2.13, 2.13, 2.14, 2.15, 2.15, 2.16, 2.17, 2.17, 2.18, 2.19, 2.2, 2.2, 2.21, 2.22, 2.22, 2.23, 2.24, 2.25, 2.26, 2.26, 2.27, 2.28, 2.29, 2.3, 2.31, 2.32, 2.32, 2.33, 2.34, 2.35, 2.36, 2.37, 1.54, 1.52, 1.5, 1.48, 1.46, 1.44, 1.42, 1.4, 1.38, 1.37, 1.35, 1.36, 1.37, 1.37, 1.38, 1.39, 1.39, 1.4, 1.41, 2.17, 2.14, 2.12, 2.09, 2.06, 2.04, 2.01, 1.99, 1.96, 1.94, 1.91, 1.89, 1.86, 1.84, 1.81, 1.79, 1.77, 10.0, 0.0]
38 [1.53, 1.54, 1.54, 1.55, 1.56, 1.56, 1.57, 1.57, 1.58, 1.58, 1.59, 1.59, 1.6, 1.61, 1.61, 1.62, 1.62, 1.63, 1.63, 1.64, 1.64, 1.65, 1.65, 1.66, 1.66, 1.67, 1.67, 1.68, 1.68, 1.69, 1.69, 1.7, 1.7, 1.71, 1.71, 1.72, 1.72, 1.72, 1.73, 1.73, 1.74, 1.74, 0.74, 0.74, 0.74, 0.75, 0.75, 0.75, 0.75, 0.75, 0.75, 0.76, 0.76, 0.76, 0.76, 0.76, 0.77, 0.77, 0.77, 0.77, 0.77, 0.78, 0.78, 0.78, 0.78, 0.78, 0.79, 0.79, 0.79, 0.79, 1.87, 1.88, 1.88, 1.89, 1.89, 1.9, 1.9, 1.91, 1.91, 1.92, 1.92, 1.93, 1.93, 1.93, 1.94, 1.94, 1.95, 1.95, 1.96, 1.96, 1.97, 1.97, 1.98, 1.98, 1.99, 1.99, 2.0, 2.0, 2.01, 2.01, 2.02, 2.02, 2.03, 2.03, 2.04, 2.04, 2.05, 2.05, 2.06, 2.07, 2.07, 2.08, 2.08, 2.09, 2.09, 2.1, 2.1, 2.11, 2.12, 2.12, 2.13, 2.13, 2.14, 2.15, 2.15, 2.16, 2.17, 2.17, 2.18, 2.19, 2.19, 2.2, 2.21, 2.21, 2.22, 2.23, 2.23, 2.24, 2.25, 2.26, 2.26, 2.27, 2.28, 2.29, 2.3, 2.3, 2.31, 2.32, 2.33, 1.49, 1.47, 1.45, 1.43, 1.41, 1.39, 1.37, 1.35, 1.34, 1.32, 1.32, 1.33, 1.33, 1.34, 1.35, 1.35, 1.36, 1.37, 2.12, 2.09, 2.06, 2.03, 2.01, 1.98, 1.95, 1.93, 1.9, 1.88, 1.85, 1.83, 1.8, 1.78, 1.75]
39 [1.12, 1.15, 1.17, 1.2, 1.61, 1.62, 1.62, 1.63, 1.63, 1.64, 1.64, 1.65, 1.65, 1.65, 1.66, 1.66, 1.67, 1.67, 1.67, 1.68, 1.68, 1.69, 1.69, 1.69, 1.7, 1.7, 1.7, 1.71, 1.71, 1.72, 1.72, 1.72, 1.73, 1.73, 1.73, 1.74, 1.74, 1.74, 1.75, 1.75, 1.75, 1.76, 1.76, 1.76, 1.77, 1.77, 1.77, 1.78, 1.78, 1.78, 1.79, 0.75, 0.75, 0.75, 0.75, 0.75, 0.76, 0.76, 0.76, 0.76, 0.76, 0.76, 0.76, 0.77, 0.77, 0.77, 0.77, 0.77, 0.77, 0.77, 0.78, 0.78, 0.78, 0.78, 0.78, 0.78, 0.78, 0.78, 0.79, 0.79, 1.88, 1.89, 1.89, 1.89, 1.9, 1.9, 1.9, 1.91, 1.91, 1.91, 1.92, 1.92, 1.92, 1.93, 1.93, 1.93, 1.94, 1.94, 1.95, 1.95, 1.95, 1.96, 1.96, 1.96, 1.97, 1.97, 1.97, 1.98, 1.98, 1.98, 1.99, 1.99, 2.0, 2.0, 2.0, 2.01, 2.01, 2.01, 2.02, 2.02, 2.03, 2.03, 2.03, 2.04, 2.04, 2.05, 2.05, 2.05, 2.06, 2.06, 2.07, 2.07, 2.08, 2.08, 2.09, 2.09, 2.1, 2.1, 2.1, 2.11, 2.11, 2.12, 2.12, 2.13, 2.13, 2.14, 2.14, 2.15, 2.16, 2.16, 2.17, 2.17, 2.18, 2.18, 2.19, 2.2, 2.2, 2.21, 1.42, 1.4, 1.38, 1.36, 1.34, 1.32, 1.3, 1.28, 1.26, 1.25, 1.23, 1.23, 1.24, 1.24, 1.25, 1.25, 1.26, 1.26, 1.27, 1.95, 1.92, 1.89, 1.87, 1.84]
40 [1.07, 1.1, 1.12, 1.14, 1.17, 1.19, 1.22, 1.66, 1.66, 1.66, 1.67, 1.67, 1.67, 1.68, 1.68, 1.69, 1.69, 1.69, 1.7, 1.7, 1.7, 1.71, 1.71, 1.71, 1.72, 1.72, 1.72, 1.72, 1.73, 1.73, 1.73, 1.74, 1.74, 1.74, 1.75, 1.75, 1.75, 1.76, 1.76, 1.76, 1.76, 1.77, 1.77, 1.77, 1.78, 1.78, 1.78, 1.78, 1.79, 1.79, 1.79, 1.8, 1.8, 1.8, 0.75, 0.75, 0.75, 0.75, 0.76, 0.76, 0.76, 0.76, 0.76, 0.76, 0.76, 0.76, 0.77, 0.77, 0.77, 0.77, 0.77, 0.77, 0.77, 0.77, 0.77, 0.78, 0.78, 0.78, 0.78, 0.78, 0.78, 0.78, 0.78, 0.78, 1.88, 1.89, 1.89, 1.89, 1.9, 1.9, 1.9, 1.9, 1.91, 1.91, 1.91, 1.91, 1.92, 1.92, 1.92, 1.93, 1.93, 1.93, 1.93, 1.94, 1.94, 1.94, 1.95, 1.95, 1.95, 1.96, 1.96, 1.96, 1.96, 1.97, 1.97, 1.97, 1.98, 1.98, 1.98, 1.99, 1.99, 1.99, 2.0, 2.0, 2.0, 2.01, 2.01, 2.01, 2.02, 2.02, 2.02, 2.03, 2.03, 2.03, 2.04, 2.04, 2.04, 2.05, 2.05, 2.06, 2.06, 2.06, 2.07, 2.07, 2.08, 2.08, 2.08, 2.09, 2.09, 2.1, 2.1, 2.11, 2.11, 2.11, 2.12, 2.12, 2.13, 2.13, 2.14, 2.14, 2.15, 2.15, 1.38, 1.36, 1.34, 1.32, 1.3, 1.28, 1.26, 1.25, 1.23, 1.21, 1.19, 1.19, 1.2, 1.2, 1.21, 1.21, 1.21, 1.22, 1.22, 1.88]
41 [1.07, 1.07, 1.07, 1.09, 1.11, 1.13, 1.16, 1.18, 1.21, 1.23, 1.26, 1.7, 1.7, 1.71, 1.71, 1.71, 1.72, 1.72, 1.72, 1.72, 1.73, 1.73, 1.73, 1.73, 1.74, 1.74, 1.74, 1.74, 1.75, 1.75, 1.75, 1.76, 1.76, 1.76, 1.76, 1.76, 1.77, 1.77, 1.77, 1.77, 1.78, 1.78, 1.78, 1.78, 1.79, 1.79, 1.79, 1.79, 1.8, 1.8, 1.8, 1.8, 1.8, 1.81, 1.81, 1.81, 1.81, 1.82, 0.75, 0.75, 0.76, 0.76, 0.76, 0.76, 0.76, 0.76, 0.76, 0.76, 0.76, 0.76, 0.76, 0.77, 0.77, 0.77, 0.77, 0.77, 0.77, 0.77, 0.77, 0.77, 0.77, 0.77, 0.78, 0.78, 0.78, 0.78, 0.78, 0.78, 1.88, 1.88, 1.89, 1.89, 1.89, 1.89, 1.9, 1.9, 1.9, 1.9, 1.9, 1.91, 1.91, 1.91, 1.91, 1.91, 1.92, 1.92, 1.92, 1.92, 1.93, 1.93, 1.93, 1.93, 1.94, 1.94, 1.94, 1.94, 1.95, 1.95, 1.95, 1.95, 1.96, 1.96, 1.96, 1.96, 1.97, 1.97, 1.97, 1.97, 1.98, 1.98, 1.98, 1.98, 1.99, 1.99, 1.99, 1.99, 2.0, 2.0, 2.0, 2.01, 2.01, 2.01, 2.02, 2.02, 2.02, 2.02, 2.03, 2.03, 2.03, 2.04, 2.04, 2.04, 2.05, 2.05, 2.05, 2.06, 2.06, 2.07, 2.07, 2.07, 2.08, 2.08, 2.08, 2.09, 2.09, 2.1, 1.35, 1.33, 1.31, 1.29, 1.27, 1.25, 1.23, 1.21, 1.19, 1.17, 1.16, 1.15, 1.16, 1.16, 1.16, 1.16]
42 [1.09, 1.1, 1.1, 1.1, 1.1, 1.1, 1.1, 1.12, 1.14, 1.17, 1.19, 1.21, 1.24, 1.26, 1.29, 1.74, 1.75, 1.75, 1.75, 1.75, 1.75, 1.76, 1.76, 1.76, 1.76, 1.76, 1.77, 1.77, 1.77, 1.77, 1.77, 1.78, 1.78, 1.78, 1.78, 1.78, 1.79, 1.79, 1.79, 1.79, 1.79, 1.79, 1.8, 1.8, 1.8, 1.8, 1.8, 1.8, 1.81, 1.81, 1.81, 1.81, 1.81, 1.81, 1.82, 1.82, 1.82, 1.82, 1.82, 1.82, 1.82, 1.83, 0.75, 0.75, 0.76, 0.76, 0.76, 0.76, 0.76, 0.76, 0.76, 0.76, 0.76, 0.76, 0.76, 0.76, 0.76, 0.76, 0.76, 0.76, 0.77, 0.77, 0.77, 0.77, 0.77, 0.77, 0.77, 0.77, 0.77, 0.77, 0.77, 0.77, 1.87, 1.88, 1.88, 1.88, 1.88, 1.88, 1.88, 1.88, 1.89, 1.89, 1.89, 1.89, 1.89, 1.89, 1.9, 1.9, 1.9, 1.9, 1.9, 1.9, 1.91, 1.91, 1.91, 1.91, 1.91, 1.91, 1.92, 1.92, 1.92, 1.92, 1.92, 1.92, 1.93, 1.93, 1.93, 1.93, 1.93, 1.94, 1.94, 1.94, 1.94, 1.94, 1.94, 1.95, 1.95, 1.95, 1.95, 1.95, 1.96, 1.96, 1.96, 1.96, 1.96, 1.97, 1.97, 1.97, 1.97, 1.98, 1.98, 1.98, 1.98, 1.98, 1.99, 1.99, 1.99, 1.99, 2.0, 2.0, 2.0, 2.0, 2.01, 2.01, 2.01, 2.02, 2.02, 2.02, 2.02, 2.03, 2.03, 1.29, 1.27, 1.25, 1.23, 1.21, 1.19, 1.17, 1.16, 1.14, 1.12, 1.1]
43 [1.13, 1.13, 1.13, 1.13, 1.13, 1.13, 1.13, 1.13, 1.13, 1.14, 1.14, 1.14, 1.16, 1.18, 1.21, 1.23, 1.25, 1.28, 1.3, 1.33, 1.79, 1.79, 1.79, 1.8, 1.8, 1.8, 1.8, 1.8, 1.8, 1.8, 1.8, 1.8, 1.81, 1.81, 1.81, 1.81, 1.81, 1.81, 1.81, 1.81, 1.81, 1.81, 1.82, 1.82, 1.82, 1.82, 1.82, 1.82, 1.82, 1.82, 1.82, 1.82, 1.82, 1.83, 1.83, 1.83, 1.83, 1.83, 1.83, 1.83, 1.83, 1.83, 1.83, 1.83, 1.83, 1.84, 1.84, 0.75, 0.75, 0.75, 0.75, 0.75, 0.75, 0.75, 0.75, 0.76, 0.76, 0.76, 0.76, 0.76, 0.76, 0.76, 0.76, 0.76, 0.76, 0.76, 0.76, 0.76, 0.76, 0.76, 0.76, 0.76, 0.76, 0.76, 0.76, 0.76, 0.76, 1.86, 1.86, 1.86, 1.86, 1.87, 1.87, 1.87, 1.87, 1.87, 1.87, 1.87, 1.87, 1.87, 1.87, 1.87, 1.88, 1.88, 1.88, 1.88, 1.88, 1.88, 1.88, 1.88, 1.88, 1.88, 1.88, 1.89, 1.89, 1.89, 1.89, 1.89, 1.89, 1.89, 1.89, 1.89, 1.89, 1.89, 1.9, 1.9, 1.9, 1.9, 1.9, 1.9, 1.9, 1.9, 1.9, 1.9, 1.91, 1.91, 1.91, 1.91, 1.91, 1.91, 1.91, 1.91, 1.92, 1.92, 1.92, 1.92, 1.92, 1.92, 1.92, 1.92, 1.92, 1.93, 1.93, 1.93, 1.93, 1.93, 1.93, 1.93, 1.94, 1.94, 1.94, 1.94, 1.94, 1.94, 1.95, 1.95, 1.24, 1.22, 1.2, 1.18, 1.16, 1.15]
44 [1.78, 1.81, 1.84, 1.84, 1.84, 1.17, 1.17, 1.17, 1.17, 1.17, 1.17, 1.17, 1.17, 1.17, 1.17, 1.17, 1.17, 1.19, 1.21, 1.23, 1.26, 1.28, 1.3, 1.33, 1.35, 1.84, 1.84, 1.84, 1.84, 1.84, 1.84, 1.84, 1.84, 1.84, 1.84, 1.84, 1.84, 1.84, 1.84, 1.84, 1.84, 1.84, 1.84, 1.84, 1.84, 1.84, 1.84, 1.84, 1.84, 1.84, 1.84, 1.84, 1.85, 1.85, 1.85, 1.85, 1.85, 1.85, 1.85, 1.85, 1.85, 1.85, 1.85, 1.85, 1.85, 1.85, 1.85, 1.85, 1.85, 1.85, 1.85, 1.85, 1.85, 0.75, 0.75, 0.75, 0.75, 0.75, 0.75, 0.75, 0.75, 0.75, 0.75, 0.75, 0.75, 0.75, 0.75, 0.75, 0.75, 0.75, 0.75, 0.75, 0.75, 0.75, 0.75, 0.75, 0.75, 0.75, 0.75, 0.75, 0.75, 0.75, 0.75, 0.75, 1.85, 1.85, 1.85, 1.85, 1.85, 1.85, 1.85, 1.85, 1.85, 1.85, 1.85, 1.85, 1.85, 1.85, 1.85, 1.85, 1.85, 1.85, 1.85, 1.85, 1.85, 1.85, 1.85, 1.85, 1.85, 1.85, 1.85, 1.85, 1.85, 1.85, 1.85, 1.85, 1.85, 1.85, 1.85, 1.85, 1.85, 1.85, 1.85, 1.85, 1.85, 1.85, 1.85, 1.85, 1.85, 1.85, 1.85, 1.85, 1.85, 1.85, 1.85, 1.85, 1.85, 1.85, 1.85, 1.85, 1.85, 1.85, 1.85, 1.85, 1.85, 1.85, 1.85, 1.85, 1.85, 1.85, 1.85, 1.85, 1.85, 1.85, 1.85, 1.85, 1.85, 1.85, 1.85, 1.85, 1.85, 1.85]
45 [1.68, 1.71, 1.74, 1.77, 1.8, 1.83, 1.86, 1.89, 1.92, 1.93, 1.93, 1.93, 1.22, 1.22, 1.22, 1.22, 1.22, 1.22, 1.22, 1.22, 1.22, 1.21, 1.21, 1.22, 1.24, 1.27, 1.29, 1.31, 1.34, 1.36, 1.38, 1.41, 1.9, 1.9, 1.9, 1.9, 1.89, 1.89, 1.89, 1.89, 1.89, 1.89, 1.89, 1.89, 1.89, 1.88, 1.88, 1.88, 1.88, 1.88, 1.88, 1.88, 1.88, 1.88, 1.87, 1.87, 1.87, 1.87, 1.87, 1.87, 1.87, 1.87, 1.87, 1.87, 1.86, 1.86, 1.86, 1.86, 1.86, 1.86, 1.86, 1.86, 1.86, 1.86, 1.85, 1.85, 1.85, 1.85, 1.85, 1.85, 0.75, 0.75, 0.75, 0.74, 0.74, 0.74, 0.74, 0.74, 0.74, 0.74, 0.74, 0.74, 0.74, 0.74, 0.74, 0.74, 0.74, 0.74, 0.74, 0.74, 0.74, 0.74, 0.74, 0.74, 0.74, 0.74, 0.74, 0.74, 0.74, 0.74, 0.74, 1.82, 1.82, 1.82, 1.82, 1.82, 1.82, 1.82, 1.81, 1.81, 1.81, 1.81, 1.81, 1.81, 1.81, 1.81, 1.81, 1.81, 1.81, 1.8, 1.8, 1.8, 1.8, 1.8, 1.8, 1.8, 1.8, 1.8, 1.8, 1.79, 1.79, 1.79, 1.79, 1.79, 1.79, 1.79, 1.79, 1.79, 1.78, 1.78, 1.78, 1.78, 1.78, 1.78, 1.78, 1.78, 1.78, 1.77, 1.77, 1.77, 1.77, 1.77, 1.77, 1.77, 1.77, 1.76, 1.76, 1.76, 1.76, 1.76, 1.76, 1.76, 1.76, 1.75, 1.75, 1.75, 1.75, 1.75, 1.75, 1.74, 1.74, 1.74]
46 [1.68, 1.71, 1.74, 1.77, 1.8, 1.83, 1.86, 1.89, 1.92, 1.93, 1.93, 1.93, 1.22, 1.22, 1.22, 1.22, 1.22, 1.22, 1.22, 1.22, 1.22, 1.21, 1.21, 1.22, 1.24, 1.27, 1.29, 1.31, 1.34, 1.36, 1.38, 1.41, 1.9, 1.9, 1.9, 1.9, 1.89, 1.89, 1.89, 1.89, 1.89, 1.89, 1.89, 1.89, 1.89, 1.88, 1.88, 1.88, 1.88, 1.88, 1.88, 1.88, 1.88, 1.88, 1.87, 1.87, 1.87, 1.87, 1.87, 1.87, 1.87, 1.87, 1.87, 1.87, 1.86, 1.86, 1.86, 1.86, 1.86, 1.86, 1.86, 1.86, 1.86, 1.86, 1.85, 1.85, 1.85, 1.85, 1.85, 1.85, 0.75, 0.75, 0.75, 0.74, 0.74, 0.74, 0.74, 0.74, 0.74, 0.74, 0.74, 0.74, 0.74, 0.74, 0.74, 0.74, 0.74, 0.74, 0.74, 0.74, 0.74, 0.74, 0.74, 0.74, 0.74, 0.74, 0.74, 0.74, 0.74, 0.74, 0.74, 1.82, 1.82, 1.82, 1.82, 1.82, 1.82, 1.82, 1.81, 1.81, 1.81, 1.81, 1.81, 1.81, 1.81, 1.81, 1.81, 1.81, 1.81, 1.8, 1.8, 1.8, 1.8, 1.8, 1.8, 1.8, 1.8, 1.8, 1.8, 1.79, 1.79, 1.79, 1.79, 1.79, 1.79, 1.79, 1.79, 1.79, 1.78, 1.78, 1.78, 1.78, 1.78, 1.78, 1.78, 1.78, 1.78, 1.77, 1.77, 1.77, 1.77, 1.77, 1.77, 1.77, 1.77, 1.76, 1.76, 1.76, 1.76, 1.76, 1.76, 1.76, 1.76, 1.75, 1.75, 1.75, 1.75, 1.75, 1.75, 1.74, 1.74, 1.74]
47 [1.68, 1.71, 1.74, 1.77, 1.8, 1.83, 1.86, 1.89, 1.92, 1.93, 1.93, 1.93, 1.22, 1.22, 1.22, 1.22, 1.22, 1.22, 1.22, 1.22, 1.22, 1.21, 1.21, 1.22, 1.24, 1.27, 1.29, 1.31, 1.34, 1.36, 1.38, 1.41, 1.9, 1.9, 1.9, 1.9, 1.89, 1.89, 1.89, 1.89, 1.89, 1.89, 1.89, 1.89, 1.89, 1.88, 1.88, 1.88, 1.88, 1.88, 1.88, 1.88, 1.88, 1.88, 1.87, 1.87, 1.87, 1.87, 1.87, 1.87, 1.87, 1.87, 1.87, 1.87, 1.86, 1.86, 1.86, 1.86, 1.86, 1.86, 1.86, 1.86, 1.86, 1.86, 1.85, 1.85, 1.85, 1.85, 1.85, 1.85, 0.75, 0.75, 0.75, 0.74, 0.74, 0.74, 0.74, 0.74, 0.74, 0.74, 0.74, 0.74, 0.74, 0.74, 0.74, 0.74, 0.74, 0.74, 0.74, 0.74, 0.74, 0.74, 0.74, 0.74, 0.74, 0.74, 0.74, 0.74, 0.74, 0.74, 0.74, 1.82, 1.82, 1.82, 1.82, 1.82, 1.82, 1.82, 1.81, 1.81, 1.81, 1.81, 1.81, 1.81, 1.81, 1.81, 1.81, 1.81, 1.81, 1.8, 1.8, 1.8, 1.8, 1.8, 1.8, 1.8, 1.8, 1.8, 1.8, 1.79, 1.79, 1.79, 1.79, 1.79, 1.79, 1.79, 1.79, 1.79, 1.78, 1.78, 1.78, 1.78, 1.78, 1.78, 1.78, 1.78, 1.78, 1.77, 1.77, 1.77, 1.77, 1.77, 1.77, 1.77, 1.77, 1.76, 1.76, 1.76, 1.76, 1.76, 1.76, 1.76, 1.76, 1.75, 1.75, 1.75, 1.75, 1.75, 1.75, 1.74, 1.74, 1.74]
48 [1.59, 1.62, 1.64, 1.67, 1.7, 1.72, 1.75, 1.78, 1.8, 1.83, 1.86, 1.89, 1.92, 1.95, 1.98, 2.01, 2.03, 2.02, 2.02, 1.28, 1.27, 1.27, 1.27, 1.27, 1.27, 1.26, 1.26, 1.26, 1.26, 1.26, 1.26, 1.28, 1.3, 1.32, 1.35, 1.37, 1.39, 1.42, 1.44, 1.96, 1.95, 1.95, 1.95, 1.95, 1.94, 1.94, 1.94, 1.93, 1.93, 1.93, 1.93, 1.93, 1.92, 1.92, 1.92, 1.92, 1.91, 1.91, 1.91, 1.91, 1.9, 1.9, 1.9, 1.9, 1.9, 1.89, 1.89, 1.89, 1.89, 1.88, 1.88, 1.88, 1.88, 1.88, 1.87, 1.87, 1.87, 1.87, 1.87, 1.86, 1.86, 1.86, 1.86, 1.86, 1.85, 1.85, 1.85, 1.85, 0.74, 0.74, 0.74, 0.74, 0.74, 0.74, 0.73, 0.73, 0.73, 0.73, 0.73, 0.73, 0.73, 0.73, 0.73, 0.73, 0.73, 0.73, 0.73, 0.72, 0.72, 0.72, 0.72, 0.72, 0.72, 0.72, 0.72, 0.72, 0.72, 0.72, 0.72, 1.79, 1.78, 1.78, 1.78, 1.78, 1.78, 1.78, 1.77, 1.77, 1.77, 1.77, 1.77, 1.76, 1.76, 1.76, 1.76, 1.75, 1.75, 1.75, 1.75, 1.75, 1.74, 1.74, 1.74, 1.74, 1.74, 1.73, 1.73, 1.73, 1.73, 1.73, 1.72, 1.72, 1.72, 1.72, 1.71, 1.71, 1.71, 1.71, 1.7, 1.7, 1.7, 1.7, 1.69, 1.69, 1.69, 1.69, 1.68, 1.68, 1.68, 1.68, 1.67, 1.67, 1.67, 1.67, 1.66, 1.66, 1.66, 1.65, 1.65, 1.65, 1.65, 1.64]
49 [1.45, 1.47, 1.49, 1.51, 1.53, 1.55, 1.57, 1.59, 1.61, 1.64, 1.66, 1.68, 1.7, 1.73, 1.75, 1.77, 1.8, 1.82, 1.85, 1.87, 1.9, 1.92, 1.95, 1.97, 2.0, 2.03, 2.06, 2.08, 2.11, 2.14, 2.17, 2.2, 2.21, 2.2, 1.38, 1.38, 1.37, 1.37, 1.36, 1.36, 1.35, 1.35, 1.34, 1.34, 1.34, 1.33, 1.34, 1.36, 1.38, 1.4, 1.42, 1.45, 1.47, 1.49, 1.52, 2.05, 2.05, 2.04, 2.04, 2.03, 2.03, 2.02, 2.01, 2.01, 2.0, 2.0, 1.99, 1.99, 1.98, 1.98, 1.97, 1.97, 1.96, 1.96, 1.95, 1.95, 1.94, 1.94, 1.94, 1.93, 1.93, 1.92, 1.92, 1.91, 1.91, 1.9, 1.9, 1.89, 1.89, 1.89, 1.88, 1.88, 1.87, 1.87, 1.86, 1.86, 1.86, 1.85, 1.85, 1.84, 1.84, 1.83, 1.83, 1.83, 1.82, 0.72, 0.72, 0.72, 0.72, 0.71, 0.71, 0.71, 0.71, 0.71, 0.71, 0.7, 0.7, 0.7, 0.7, 0.7, 0.7, 0.69, 0.69, 0.69, 0.69, 0.69, 0.69, 0.69, 0.68, 0.68, 0.68, 0.68, 0.68, 0.68, 0.67, 0.67, 1.69, 1.69, 1.68, 1.68, 1.68, 1.67, 1.67, 1.66, 1.66, 1.65, 1.65, 1.65, 1.64, 1.64, 1.63, 1.63, 1.62, 1.62, 1.62, 1.61, 1.61, 1.6, 1.6, 1.59, 1.59, 1.58, 1.58, 1.57, 1.57, 1.57, 1.56, 1.56, 1.55, 1.55, 1.54, 1.54, 1.53, 1.53, 1.52, 1.52, 1.51, 1.51, 1.5, 1.5, 1.49, 1.48]
