-0.0073189437 4.5775E-41
0.0 0.0
0.0 0.0
0.0 0.0
0.0 0.0
0.0 0.0
0.0 0.0
0.0 0.0
0.0 0.0
-9.382196E-5 -1.521564E-4
-1.1584013E-4 -5.211837E-4
-2.2901592E-4 -0.0014415917
-2.2901592E-4 -0.0014415917
-5.6451955E-4 -0.002582315
-5.6451955E-4 -0.002582315
0.0010384938 -0.0054941447
0.0010384938 -0.0054941447
0.0060707433 -0.0060737953
0.024863953 -0.0041941954
0.03934639 -0.0012642059
0.07485038 0.008957529
0.0935827 0.015197365
0.0935827 0.015197365
0.12990788 0.027544415
0.12990788 0.027544415
0.14570895 0.03282637
0.15762648 0.036656655
0.18082063 0.042520203
0.19291301 0.04470717
0.20256093 0.046505406
0.20256093 0.046505406
0.2179288 0.049200546
0.22474737 0.050446182
0.23192087 0.05113504
0.23829344 0.051369518
0.23829344 0.051369518
0.2447932 0.051265
0.25154072 0.050849963
0.25154072 0.050849963
0.25782815 0.049904328
0.26389372 0.048449077
0.27375358 0.045182265
0.27492738 0.044849675
0.27566668 0.04449721
0.27810127 0.043182764
0.2857131 0.039084766
0.2891479 0.036839195
0.2891479 0.036839195
0.29420823 0.033624537
0.29420823 0.033624537
0.302845 0.028030494
0.302845 0.028030494
0.302845 0.028030494
0.30735677 0.0250039
0.32014304 0.017960887
0.32014304 0.017960887
0.3252781 0.015434203
0.330357 0.0131920725
0.3377223 0.010678751
0.3377223 0.010678751
0.34629515 0.008313176
0.35526448 0.0060010976
0.35526448 0.0060010976
0.36455092 0.003817909
0.36455092 0.003817909
0.36455092 0.003817909
0.37397337 0.0018740824
0.37397337 0.0018740824
0.38967982 -0.001510966
0.38967982 -0.001510966
0.40515342 -0.0033958945
0.4128735 -0.004192124
0.427648 -0.0039169188
0.427648 -0.0039169188
0.45282325 0.0070962324
0.45282325 0.0070962324
0.4614399 0.01395688
0.46990332 0.02196002
0.46990332 0.02196002
0.47813368 0.0317448
0.48596305 0.042769108
0.49246082 0.052370112
0.49246082 0.052370112
0.49711448 0.059109516
0.50291336 0.06704126
0.50291336 0.06704126
0.5050513 0.06978427
0.5067861 0.072200835
0.5084752 0.076175526
0.5146194 0.0932795
0.5146194 0.0932795
0.5191356 0.106960274
0.5243304 0.12418642
0.5243304 0.12418642
0.5297134 0.14277098
0.53466606 0.16081613
0.53891623 0.17650665
0.54194045 0.18776797
0.54194045 0.18776797
0.5493247 0.21438654
0.5493247 0.21438654
0.55690056 0.23732524
0.5590252 0.24381988
0.5590252 0.24381988
0.55979645 0.24920003
0.5606887 0.25298452
0.5627121 0.2592769
0.5627121 0.2592769
0.5653917 0.26657227
0.5653917 0.26657227
0.5676498 0.2728728
0.5698106 0.27873996
0.5698106 0.27873996
0.5698106 0.27873996
0.57701707 0.29354918
0.57701707 0.29354918
0.5811883 0.30072895
0.5841738 0.30653298
0.5841738 0.30653298
0.5880528 0.31263283
0.59583515 0.32391283
0.600648 0.32960567
0.60807157 0.33699173
0.6269185 0.3531862
0.63733053 0.3611854
0.6612888 0.3761932
0.6752634 0.3834911
0.7058181 0.3971437
0.7186841 0.40249124
0.74843526 0.41359568
0.7651056 0.41924205
0.7819743 0.42449617
0.79900926 0.42947665
0.79900926 0.42947665
0.81615704 0.4343481
0.8332845 0.43919167
0.8332845 0.43919167
0.8600529 0.4468936
0.8600529 0.4468936
0.86921185 0.44942084
0.8762272 0.45124897
0.8762272 0.45124897
0.8821491 0.4528381
0.8935696 0.45727777
0.8935696 0.45727777
0.9067294 0.46511203
0.9067294 0.46511203
0.9255888 0.47843266
0.9394215 0.4889993
0.9547084 0.5010004
0.9547084 0.5010004
0.9547084 0.5010004
0.98593724 0.52562505
1.0016813 0.5379651
1.0173982 0.5499737
1.0312299 0.56054294
1.0414183 0.5682177
1.0507518 0.57519615
1.0585722 0.58135545
1.0667846 0.58774674
1.0782053 0.5964776
1.0782053 0.5964776
1.1082368 0.61846244
1.1410041 0.64132726
1.1569339 0.6524666
1.170502 0.66203254
1.1804384 0.66909796
1.1804384 0.66909796
1.2005379 0.6831559
1.214756 0.69277287
1.2466098 0.71454823
1.2466098 0.71454823
1.2626594 0.725536
1.2626594 0.725536
1.2880881 0.7432201
1.2880881 0.7432201
1.2880881 0.7432201
1.2960632 0.7487161
1.3027217 0.7534503
1.3050046 0.755188
1.3050046 0.755188
1.3105983 0.75888824
1.3175819 0.7636665
1.3300023 0.7727426
1.33392 0.77574724
1.3467212 0.7840293
1.3521686 0.7878171
1.3581245 0.7916931
1.3581245 0.7916931
1.3672569 0.79685384
1.3876653 0.80766046
1.388695 0.8094255
1.388695 0.8094255
