0 [0.0, 0.0, 0.0, 0.0, 0.0, 0.0, 0.0, 0.0]
1 [0.0, 0.0, 0.0, 0.0, 0.0, 0.0, 0.0, 0.0]
2 [0.0, 0.0, 0.0, 0.0, 0.0, 0.0, 0.0, 0.0]
3 [0.0, 0.0, 0.0, 0.0, 0.0, 0.0, 0.0, 0.0]
4 [0.375, 0.0, 0.0, 0.875, 0.375, 0.0, 0.0, 0.0]
5 [0.070450544, 0.052450553, 0.04754945, 0.10245055, 0.10245055, 0.045549452, 0.04454945, 0.043549452]
6 [0.14949268, 0.14749268, 0.05484065, 0.102159336, 1.020826, 0.18749267, 0.12549268, 0.11717401]
7 [0.44115934, 0.06415934, 0.05484065, 0.9771593, 0.47915936, 0.10415934, 0.04215934, 0.03384067]
8 [0.06192307, 0.8964102, 0.059076935, 0.053076915, 0.9372564, 0.9372564, 0.8782564, 0.86341023]
9 [0.0695, 0.0675, 0.0655, 0.05650001, 0.9933889, 0.9943889, 0.048499998, 0.048499998]
10 [0.81949997, 0.0675, 0.0655, 0.05650001, 0.8545, 0.105500005, 0.048499998, 0.048499998]
11 [0.062263742, 0.99993044, 0.07526373, 0.063263744, 1.021403, 1.024403, 0.052736267, 0.05673626]
12 [0.052999992, 1.0130769, 0.077999994, 0.068, 1.0280769, 1.0330769, 0.11, 0.061999995]
13 [0.553, 0.09, 0.077999994, 0.068, 0.605, 0.61, 0.11, 0.061999995]
14 [0.05081318, 0.89081323, 0.8798132, 0.8698132, 0.90518683, 0.5091868, 0.110186815, 0.86318684]
15 [0.05081318, 0.09081319, 0.079813175, 0.069813184, 0.10518681, 0.10918681, 0.110186815, 0.06318682]
16 [0.5508132, 0.09081319, 0.079813175, 0.069813184, 0.6051868, 0.6091868, 0.110186815, 0.06318682]
17 [0.050560433, 1.0481058, 0.39874226, 0.38874227, 1.0101058, 0.10943956, 0.11043956, 1.018985]
18 [0.5505604, 0.09356044, 0.08056043, 0.07056044, 0.5555604, 0.60943955, 0.11043956, 0.064439565]
19 [0.5515769, 0.96557695, 0.9555769, 0.9455769, 0.92957693, 0.6094231, 0.6104231, 0.9384231]
20 [0.061395615, 0.08539561, 0.0763956, 0.06539561, 0.10460439, 0.108604394, 0.108604394, 0.05860439]
21 [0.93639565, 0.08539561, 0.0763956, 0.06539561, 0.4796044, 0.4836044, 0.108604394, 0.05860439]
22 [0.19788462, 0.20188461, 0.1988846, 0.061884604, 0.10311538, 0.23111539, 0.98661536, 0.9896154]
23 [0.9478846, 0.07688461, 0.073884614, 0.061884604, 0.47811538, 0.4811154, 0.049115386, 0.05211538]
24 [0.81884617, 0.09306838, 0.067846164, 0.05884615, 0.85115385, 1.0809317, 1.0229316, 0.06937607]
25 [0.06724176, 0.06974725, 0.060252745, 0.054252747, 0.10174725, 1.0972527, 0.04724176, 0.04724176]
26 [0.56174725, 0.06425274, 0.060252745, 0.55425274, 0.6017473, 0.10274725, 0.041747253, 0.041747253]
27 [0.14153297, 0.1343132, 0.054390114, 0.09860989, 0.09960989, 1.0611483, 1.0039285, 0.11931318]
28 [0.06756594, 0.051434074, 0.050434075, 0.09956594, 0.09956594, 0.09956594, 0.047434054, 0.046434056]
29 [0.06756594, 0.051434074, 0.050434075, 0.8495659, 0.8495659, 0.09956594, 0.047434054, 0.046434056]
30 [1.0068241, 0.04967582, 0.04967582, 0.09932417, 0.09932417, 0.09932417, 0.047675822, 0.047675822]
31 [0.0681923, 0.05080769, 0.05080769, 0.09919231, 0.09919231, 0.09919231, 0.04880769, 0.04880769]
32 [1.026489, 0.05304945, 0.05204945, 0.84695053, 0.84695053, 1.058489, 1.0125879, 1.0125879]
33 [0.06495055, 0.05304945, 0.05204945, 0.09695055, 0.09695055, 0.09695055, 0.051049452, 0.051049452]
34 [0.06360439, 0.052395605, 0.051395603, 0.097604394, 0.097604394, 0.097604394, 0.050395604, 0.050395604]
35 [1.045207, 0.052126374, 0.052126374, 0.84687364, 0.84687364, 0.096873626, 0.16779304, 0.16779304]
36 [0.061873626, 0.052126374, 0.052126374, 0.096873626, 0.096873626, 0.096873626, 0.051126376, 0.051126376]
37 [14.549356, 13.560346, 13.560346, 14.310346, 14.162346, 13.561346, 13.748159, 2446.1353]
38 [0.059813187, 0.051186815, 0.051186815, 0.09681319, 0.09681319, 0.09681319, 0.052186813, 1.0466923]
39 [0.059813187, 0.051186815, 0.051186815, 0.09681319, 0.09681319, 0.09681319, 0.052186813, 0.052186813]
40 [0.9335824, 0.050417583, 0.050417583, 0.8475824, 0.8475824, 0.9725824, 0.8024176, 0.92841756]
41 [0.058582418, 0.050417583, 0.050417583, 0.09758242, 0.09758242, 0.09758242, 0.052417584, 0.053417582]
42 [0.05304395, 0.046956044, 0.098043956, 0.098043956, 0.097043954, 0.097043954, 0.057956044, 0.05995604]
43 [0.37543225, 0.0450989, 0.9312344, 0.9312344, 0.93023443, 0.8894322, 0.39543223, 0.39643222]
44 [0.042098902, 0.0450989, 0.0979011, 0.0979011, 0.0969011, 0.0560989, 0.062098894, 0.06309889]
45 [0.039675828, 0.043675825, 0.09832418, 0.8483242, 0.8473242, 0.80767584, 0.5666758, 0.8176758]
46 [0.039675828, 0.043675825, 0.09832418, 0.9733242, 0.9723242, 0.057675824, 0.06667581, 0.067675814]
47 [0.03265934, 0.040659346, 0.09834066, 0.09734066, 0.09534066, 0.06265934, 0.07965934, 0.06665933]
48 [0.027560435, 0.09943956, 1.0270109, 1.025011, 0.20941758, 0.23041758, 0.23541757, 0.048560437]
49 [0.027560435, 0.09943956, 0.09843956, 0.97143954, 0.06656043, 0.08756044, 0.09256043, 0.048560437]
