0 [0.0, 0.0, 0.0, 0.0, 0.0, 0.0, 0.0, 0.0]
1 [0.0, 0.0, 0.0, 0.0, 0.0, 0.0, 0.0, 0.0]
2 [0.0, 0.0, 0.0, 0.0, 0.0, 0.0, 0.0, 0.0]
3 [0.0, 0.0, 0.0, 0.0, 0.0, 0.0, 0.0, 0.0]
4 [0.375, 0.0, 0.0, 0.875, 0.375, 0.0, 0.0, 0.0]
5 [0.070450544, 0.052450553, 0.04754945, 0.10245055, 0.10245055, 0.045549452, 0.04454945, 0.043549452]
6 [0.14949268, 0.14749268, 0.05484065, 0.102159336, 1.020826, 0.18749267, 0.12549268, 0.11717401]
7 [0.44115934, 0.06415934, 0.05484065, 0.9771593, 0.47915936, 0.10415934, 0.04215934, 0.03384067]
8 [0.06192307, 0.8964102, 0.059076935, 0.053076915, 0.9372564, 0.9372564, 0.8782564, 0.86341023]
9 [0.0695, 0.0675, 0.0655, 0.05650001, 0.9933889, 0.9943889, 0.048499998, 0.048499998]
10 [0.81949997, 0.0675, 0.0655, 0.05650001, 0.8545, 0.105500005, 0.048499998, 0.048499998]
11 [0.062263742, 0.99993044, 0.07526373, 0.063263744, 1.021403, 1.024403, 0.052736267, 0.05673626]
12 [0.052999992, 1.0130769, 0.077999994, 0.068, 1.0280769, 1.0330769, 0.11, 0.061999995]
13 [0.553, 0.09, 0.077999994, 0.068, 0.605, 0.61, 0.11, 0.061999995]
14 [0.05081318, 0.8910215, 0.9627755, 1.4758592, 0.99054176, 0.50930583, 0.110186815, 0.86318684]
15 [0.05081318, 0.09083093, 0.086105466, 0.110481896, 0.1134795, 0.109208144, 0.110186815, 0.06318682]
16 [0.5508132, 0.09082671, 0.08462416, 0.10736851, 1.0630714, 0.6667047, 0.11021256, 0.06318682]
17 [0.050560433, 1.0482237, 0.4169269, 0.54996496, 1.6471174, 0.11811974, 0.11046124, 1.018985]
18 [0.5505604, 0.09356839, 0.0833346, 0.09269019, 0.8220769, 0.6462306, 0.11045606, 0.064439565]
19 [0.5515769, 0.965639, 0.980447, 1.1697402, 1.2668126, 0.6372462, 0.61049205, 0.9384231]
20 [0.061395615, 0.085399754, 0.07789682, 0.07710095, 0.13325818, 0.11234826, 0.10861366, 0.05860439]
21 [0.93639565, 0.08537585, 0.06926978, 0.022009358, 0.5722291, 0.83277667, 0.118844666, 0.058618076]
22 [0.19788462, 0.20184377, 0.18266319, 0.025795618, 0.11787911, 0.3713671, 1.0650936, 0.9898104]
23 [0.9478846, 0.0768907, 0.07622699, 0.07073309, 0.19331628, 0.6515092, 0.052076694, 0.052123196]
24 [0.81884617, 0.09307584, 0.070027165, 0.06810339, 0.40296587, 1.3577942, 1.0695001, 0.069383934]
25 [0.06724176, 0.06975155, 0.0617464, 0.060864333, 0.060784295, 1.3089156, 0.048867196, 0.047245808]
26 [0.56174725, 0.06425575, 0.061397508, 0.6576267, 0.8374387, 0.12740418, 0.042842608, 0.041749954]
27 [0.14153297, 0.13431795, 0.055171557, 0.113313615, 0.1351588, 1.2621988, 1.0238372, 0.119319014]
28 [0.06756594, 0.05143545, 0.050981786, 0.11080962, 0.116055086, 0.034566652, 0.043031782, 0.046423364]
29 [0.06756594, 0.05143511, 0.05084762, 0.9220031, 0.9458042, 0.0416753, 0.043541722, 0.046424605]
30 [0.0681923, 0.050795376, 0.04584239, 0.029139057, 0.09614085, 0.061580036, 0.046198882, 0.048801217]
31 [1.026489, 0.053039428, 0.048084192, 0.38033974, 0.8252421, 0.75537336, 0.9717141, 1.0124865]
32 [0.06495055, 0.053041853, 0.049034208, 0.048320197, 0.034776088, 0.0678087, 0.049481373, 0.05104559]
33 [0.06360439, 0.05239003, 0.04917768, 0.057389498, 0.022806974, 0.07197652, 0.049240474, 0.050392773]
34 [1.045207, 0.0521225, 0.050554316, 0.60045695, 0.37298295, 0.077899076, 0.16489299, 0.16778591]
35 [0.061873626, 0.052123446, 0.050938997, 0.075272754, 0.053591765, 0.08222883, 0.05045878, 0.05112474]
36 [14.549356, 13.559585, 13.251457, 11.119426, 7.8347964, 11.511221, 13.56864, 2446.057]
37 [0.059813187, 0.051184643, 0.05030589, 0.08073115, 0.06677421, 0.09296795, 0.05218168, 1.0466923]
38 [0.059813187, 0.051185172, 0.050521027, 0.084656835, 0.07339544, 0.088627726, 0.0517978, 0.05218586]
39 [0.9335824, 0.05041636, 0.04992245, 0.7672272, 0.69278765, 0.91049576, 0.79790145, 0.92840475]
40 [0.058582418, 0.05041666, 0.050043367, 0.090590425, 0.08411316, 0.09287437, 0.052194618, 0.053417023]
41 [0.05304395, 0.046955395, 0.09749451, 0.092739835, 0.0869304, 0.093508855, 0.05776991, 0.059955567]
42 [0.37543225, 0.0450989, 0.93121195, 0.9221686, 0.8633185, 0.8807733, 0.3954227, 0.39643222]
43 [0.042098902, 0.045098547, 0.09759051, 0.09490329, 0.09135874, 0.05568817, 0.06209777, 0.06309889]
44 [0.039675828, 0.043675825, 0.09832418, 0.8483242, 0.8473242, 0.80767584, 0.5666758, 0.8176758]
45 [0.039675828, 0.043675825, 0.09832316, 0.969262, 0.9423394, 0.057448596, 0.07296263, 0.11483132]
46 [0.03265934, 0.040659346, 0.09833989, 0.09703362, 0.093118556, 0.062473938, 0.08593888, 0.1054908]
47 [0.027560435, 0.09943956, 1.0270109, 1.025011, 0.20941758, 0.23041758, 0.23541757, 0.048560437]
48 [0.027560435, 0.09943956, 0.09843956, 0.97143954, 0.06656043, 0.087570295, 0.09676348, 0.06485376]
49 [0.027560435, 0.09943956, 0.8484396, 0.84643954, 0.06656043, 0.08756788, 0.09573401, 0.060862962]
