0 [1.0, 1.0, 1.0, 1.0, 1.0, 1.0, 1.0, 1.0]
1 [1.0, 1.0, 1.0, 1.0, 1.0, 1.0, 1.0, 1.0]
2 [1.0, 1.0, 1.0, 1.0, 1.0, 1.0, 1.0, 1.0]
3 [1.0, 1.0, 1.0, 1.0, 1.0, 1.0, 1.0, 1.0]
4 [1.0, 1.0, 1.0, 1.0, 1.0, 1.0, 1.0, 1.0]
5 [1.0, 1.0, 1.0, 1.0, 1.0, 1.0, 1.0, 1.0]
6 [1.0, 1.0, 1.0, 1.0, 1.0, 1.0, 1.0, 1.0]
7 [1.0, 1.0, 1.0, 1.0, 1.0, 1.0, 1.0, 1.0]
8 [1.0, 1.0, 1.0, 1.0, 1.0, 1.0, 1.0, 1.0]
9 [1.0, 1.0, 1.0, 1.0, 1.0, 1.0, 1.0, 1.0]
10 [1.0, 1.0, 1.0, 1.0, 1.0, 1.0001565, 1.0631418, 1.4665585]
11 [1.6799539, 1.0920217, 1.000228, 1.0, 1.0, 1.0002059, 1.0830646, 1.6137686]
12 [1.6132333, 1.0829921, 1.0002058, 1.0, 1.0, 1.0001575, 1.0635378, 1.4694846]
13 [1.4694846, 1.0635378, 1.0001575, 1.0, 1.0, 1.0001192, 1.0480703, 1.3551943]
14 [1.4188284, 1.5182655, 1.0637532, 1.0001577, 1.0, 1.00009, 1.0363338, 1.2684724]
15 [1.3198857, 1.6416091, 1.0825639, 1.0002044, 1.0, 1.0000602, 1.0242825, 1.1794246]
16 [1.2425236, 1.4905239, 1.0631591, 1.0001564, 1.0, 1.0000455, 1.0183523, 1.1356063]
17 [0.48220852, 1.2398212, 1.0425344, 1.0001059, 1.0, 0.9997795, 0.9110456, 0.3427111]
18 [0.37500092, 1.1496371, 1.0320693, 1.00008, 1.0, 0.9998286, 0.93084675, 0.48902273]
19 [0.5647082, 1.0991963, 1.0216433, 1.000054, 1.0, 1.0001153, 1.0464864, 1.3434904]
20 [0.5794247, 0.40024042, 0.9250478, 0.9998145, 1.0, 1.0000979, 1.0394975, 1.2918489]
21 [0.6495333, 0.3059315, 0.9107666, 0.99977905, 1.0, 1.0000746, 1.0301169, 1.2225354]
22 [0.7334056, 0.46131992, 0.9306452, 0.9998283, 1.0, 1.0000564, 1.0227553, 1.1681398]
23 [0.7983929, 0.59199286, 0.94746345, 0.9998699, 1.0, 1.0000427, 1.017199, 1.1270845]
24 [0.8476214, 0.69158125, 0.9602865, 0.99990165, 1.0, 1.0000322, 1.0129988, 1.0960488]
25 [0.8849493, 0.7671318, 0.9700147, 0.99992573, 1.0, 1.0000243, 1.0098145, 1.0725197]
26 [0.91313344, 0.82417774, 0.9773602, 0.9999439, 1.0, 0.9997502, 0.8992115, 0.25526822]
27 [0.9343477, 0.8671164, 0.98288924, 0.9999576, 1.0, 0.9997955, 0.9175047, 0.39043772]
28 [0.9504307, 0.8996691, 0.98708093, 0.999968, 1.0, 0.9998447, 0.9373294, 0.53692365]
29 [0.9625363, 0.9241715, 0.9902359, 0.9999758, 1.0, 0.9998825, 0.95261145, 0.64984345]
30 [0.9926275, 0.9455243, 0.9926275, 0.9999817, 1.0, 0.99991655, 0.96632516, 0.75117457]
31 [1.0, 1.0, 1.0, 1.0, 1.0, 0.999937, 0.97457445, 0.81212914]
32 [0.9961435, 0.9715042, 0.9961435, 0.99999046, 1.0, 0.9999563, 0.9823849, 0.8698412]
33 [0.99708825, 0.97848487, 0.99708825, 0.9999928, 1.0, 0.99996704, 0.9867001, 0.9017264]
34 [1.0, 1.0, 1.0, 1.0, 1.0, 1.0, 1.0, 1.0]
35 [1.0, 1.0, 1.0, 1.0, 1.0, 0.99998116, 0.992403, 0.94386524]
36 [1.0, 1.0, 1.0, 1.0, 1.0, 0.9999859, 0.9943097, 0.9579544]
37 [1.0, 1.0, 1.0, 1.0, 1.0, 0.99998933, 0.9956994, 0.9682226]
38 [1.0, 1.0, 1.0, 1.0, 1.0, 0.99999195, 0.9967529, 0.97600716]
39 [1.0, 1.0, 1.0, 1.0, 1.0, 1.0, 1.0, 1.0]
40 [1.0, 1.0, 1.0, 1.0, 1.0, 1.0, 1.0, 1.0]
41 [1.0, 1.0, 1.0, 1.0, 1.0, 1.0, 1.0, 1.0]
42 [1.0, 1.0, 1.0, 1.0, 1.0, 1.0, 1.0, 1.0]
43 [1.0, 1.0, 1.0, 1.0, 1.0, 1.0, 1.0, 1.0]
44 [1.0, 1.0, 1.0, 1.0, 1.0, 1.0, 1.0, 1.0]
45 [1.0, 1.0, 1.0, 1.0, 1.0, 1.0, 1.0, 1.0]
46 [1.0, 1.0, 1.0, 1.0, 1.0, 1.0, 1.0, 1.0]
47 [1.0, 1.0, 1.0, 1.0, 1.0, 1.0, 1.0, 1.0]
48 [1.0, 1.0, 1.0, 1.0, 1.0, 1.0002335, 1.0942252, 1.6962347]
49 [1.0, 1.0, 1.0, 1.0, 1.0, 1.000197, 1.0794941, 1.5873861]
