-0,094472751021385 0,70000076293945
-0,096000663936138 0,70013380050659
-0,10182075202465 0,70068591833115
-0,11103546619415 0,70151650905609
-0,12081705033779 0,70236241817474
-0,13050821423531 0,70321768522263
-0,14021453261375 0,70406967401505
-0,14992502331734 0,70493113994598
-0,15965175628662 0,705815076828
-0,16936275362968 0,70667958259583
-0,17903207242489 0,7075611948967
-0,18877151608467 0,70847105979919
-0,19850127398968 0,70929956436157
-0,20818662643433 0,71017646789551
-0,21783778071404 0,71118611097336
-0,22757498919964 0,71222186088562
-0,23706808686256 0,71322953701019
-0,2465419024229 0,71405410766602
-0,25631216168404 0,71495765447617
-0,26598212122917 0,71598345041275
-0,2757160961628 0,71720367670059
-0,28544974327087 0,71857893466949
-0,29508972167969 0,71982872486115
-0,30474764108658 0,72079300880432
-0,31440359354019 0,72157871723175
-0,3241254389286 0,7222512960434
-0,33376806974411 0,72290486097336
-0,34320530295372 0,72358191013336
-0,35246041417122 0,72424298524857
-0,36161854863167 0,72491908073425
-0,37069994211197 0,72559493780136
-0,37968119978905 0,72625595331192
-0,38855677843094 0,72689491510391
-0,39736187458038 0,72753715515137
-0,40609687566757 0,72813469171524
-0,41476640105247 0,72873258590698
-0,42336410284042 0,72928655147552
-0,43191295862198 0,72982513904572
-0,44038754701614 0,73034256696701
-0,44881162047386 0,73084253072739
-0,45716732740402 0,73128712177277
-0,46546736359596 0,73170280456543
-0,47371634840965 0,73210036754608
-0,48186182975769 0,73246848583221
-0,48999291658401 0,73279756307602
-0,49802738428116 0,73309051990509
-0,50603806972504 0,73333239555359
-0,51404368877411 0,73354583978653
-0,52191877365112 0,7336807847023
-0,52976822853088 0,73380386829376
-0,53767603635788 0,73388350009918
-0,54555428028107 0,73393499851227
-0,55351966619492 0,73392331600189
-0,56154727935791 0,73383563756943
-0,56958878040314 0,73368549346924
-0,57762360572815 0,7334857583046
-0,58560192584991 0,73319673538208
-0,59355014562607 0,73287272453308
-0,60146176815033 0,73249387741089
-0,60923492908478 0,7320608496666
-0,61700969934464 0,73155677318573
-0,62476170063019 0,73105192184448
-0,63161486387253 0,73066115379333
-0,6375390291214 0,7303951382637
-0,64293539524078 0,73034334182739
-0,64838862419128 0,73026007413864
-0,65379047393799 0,73019188642502
-0,65983039140701 0,72986972332001
-0,66626560688019 0,7293193936348
-0,67263448238373 0,72858130931854
-0,67899930477142 0,72778129577637
-0,68533742427826 0,7269007563591
-0,69171500205994 0,72596275806427
-0,69811099767685 0,72497648000717
-0,70443737506866 0,72394335269928
-0,71072232723236 0,72286754846573
-0,71697509288788 0,72172391414642
-0,72315913438797 0,72055578231812
-0,72931253910065 0,71933025121689
-0,73533952236176 0,71807771921158
-0,74123471975327 0,71680754423141
-0,74707967042923 0,7154997587204
-0,75281226634979 0,71417540311813
-0,75845211744308 0,71282738447189
-0,76402145624161 0,71145325899124
-0,76951569318771 0,71006870269775
-0,77492320537567 0,708664894104
-0,78027588129044 0,70724952220917
-0,78554439544678 0,70582348108292
-0,79075169563293 0,70439684391022
-0,79648464918137 0,70281744003296
-0,80228674411774 0,70120912790298
-0,80802929401398 0,69958770275116
-0,81377565860748 0,69795078039169
-0,81951922178268 0,69628727436066
-0,8252420425415 0,69461476802826
-0,83093535900116 0,69292443990707
-0,83665025234222 0,69121235609055
-0,84233605861664 0,68949836492538
-0,84801578521729 0,68776500225067
-0,85371464490891 0,68601834774017
-0,85936987400055 0,68426948785782
-0,86503028869629 0,68250757455826
-0,87068593502045 0,68073379993439
-0,8763233423233 0,67896729707718
-0,88197898864746 0,67718404531479
-0,88762301206589 0,6753945350647
-0,89379942417145 0,67329031229019
-0,900550365448 0,67094027996063
-0,90734452009201 0,66856223344803
-0,91413515806198 0,666224360466
-0,92094027996063 0,66396254301071
-0,9267390370369 0,66209882497787
-0,93158614635468 0,66034269332886
-0,93572932481766 0,65858286619186
-0,9398267865181 0,65679323673248
-0,94396066665649 0,65501344203949
-0,94740188121796 0,65346014499664
-0,95130717754364 0,65201556682587
-0,95599031448364 0,65066039562225
-0,96109521389008 0,64951795339584
-0,96630132198334 0,64856326580048
-0,97141343355179 0,64772778749466
-0,97637432813644 0,64691388607025
-0,98123329877853 0,64616703987122
-0,98596286773682 0,6454451084137
-0,99135798215866 0,6445939540863
-0,99713909626007 0,6435758471489
-1,0026812553406 0,64263421297073
-1,0081460475922 0,64175945520401
-1,0131742954254 0,6409210562706
-1,0179972648621 0,64012855291367
-1,0221172571182 0,63949906826019
-1,0254843235016 0,63912081718445
-1,02876329422 0,63878935575485
-1,0319757461548 0,63847184181213
-1,0350923538208 0,63818091154099
-1,0381252765656 0,63790762424469
-1,041074514389 0,63763868808746
-1,0439307689667 0,63738805055618
-1,046734213829 0,63714802265167
-1,0494607686996 0,63693445920944
-1,0521168708801 0,63672864437103
-1,0546922683716 0,63653439283371
-1,0572092533112 0,63637185096741
-1,0596749782562 0,63621479272842
-1,0620510578156 0,63606935739517
-1,0643808841705 0,635926425457
-1,0666548013687 0,63579440116882
-1,0688710212708 0,63569277524948
-1,0710363388062 0,6355904340744
-1,0731555223465 0,63551247119904
-1,0752246379852 0,63543540239334
-1,0772349834442 0,6353754401207
-1,0791825056076 0,63531541824341
-1,0811277627945 0,63526076078415
-1,0830265283585 0,63522452116013
-1,08487200737 0,63519614934921
-1,0866706371307 0,63517820835114
-1,0884430408478 0,63515913486481
-1,0901817083359 0,63515651226044
-1,0918872356415 0,63515758514404
-1,0944839715958 0,63532984256744
-1,0977846384048 0,63577449321747
-1,1016550064087 0,63646721839905
-1,1054960489273 0,6372355222702
-1,1092094182968 0,63796836137772
-1,1135839223862 0,63867682218552
-1,1182733774185 0,63928860425949
-1,1228892803192 0,63982307910919
-1,1272858381271 0,64032852649689
-1,1316447257996 0,64083576202393
-1,1358203887939 0,64130824804306
-1,1398820877075 0,64176118373871
-1,1438503265381 0,64221566915512
-1,1476956605911 0,64265495538712
-1,1513905525208 0,6430732011795
-1,1549937725067 0,64349341392517
-1,1585358381271 0,64390027523041
-1,1619392633438 0,64429658651352
-1,1652517318726 0,64467161893845
-1,1684622764587 0,64503121376038
-1,1715953350067 0,64538156986237
-1,1746188402176 0,64572751522064
-1,1775559186935 0,64605915546417
-1,1804115772247 0,64638268947601
-1,1831722259521 0,64669531583786
-1,1858829259872 0,64700073003769
-1,1884825229645 0,64729553461075
-1,1910006999969 0,64757716655731
-1,1934775114059 0,64786303043365
-1,1958848237991 0,64813071489334
-1,1982234716415 0,64839279651642
-1,2004688978195 0,64864814281464
-1,2026579380035 0,64889776706696
-1,2047848701477 0,64914405345917
-1,2068359851837 0,64937841892242
-1,2088207006454 0,64960426092148
-1,2107818126678 0,64982831478119
-1,2126485109329 0,65003955364227
-1,2145124673843 0,65025514364243
-1,2162756919861 0,65045809745789
-1,2179770469666 0,65065532922745
-1,2196303606033 0,65084207057953
-1,2212567329407 0,65103018283844
-1,2228848934174 0,6512166261673
-1,2243789434433 0,65138608217239
-1,225861787796 0,65155214071274
-1,2273652553558 0,65172725915909
-1,2287074327469 0,65187203884125
-1,2300988435745 0,65203684568405
-1,2314536571503 0,65219414234161
-1,2327420711517 0,65234249830246
-1,2339522838593 0,6524738073349
-1,2351317405701 0,65261429548264
-1,2363065481186 0,65274971723557
-1,2374494075775 0,6528827548027
-1,2385532855988 0,6530105471611
-1,2396903038025 0,65314084291458
-1,2407677173615 0,6532581448555
-1,2417266368866 0,65337163209915
-1,2428007125854 0,65349304676056
