0.024999999 -0.6249999
0.024999999 -0.6249999
0.024999999 -0.6249999
0.024999999 -0.6249999
0.024999999 -0.6249999
0.024999999 -0.6249999
0.024999999 -0.6249999
0.024888381 -0.62499154
0.025373036 -0.62485373
0.026078153 -0.6250873
0.027169848 -0.6253076
0.028789025 -0.6255271
0.028789025 -0.6255271
0.030630996 -0.62551504
0.032554127 -0.62488043
0.032554127 -0.62488043
0.033587836 -0.62185067
0.03393442 -0.6172177
0.03339448 -0.60919553
0.03313214 -0.6066168
0.03313214 -0.6066168
0.03286684 -0.6039773
0.03286684 -0.6039773
0.032602306 -0.60059106
0.032446466 -0.59692156
0.032151617 -0.5930835
0.031634938 -0.5897968
0.030435333 -0.5855402
0.028216964 -0.5788373
0.028216964 -0.5788373
0.02170626 -0.56270885
0.017045954 -0.5521627
0.003115228 -0.5259863
-0.005607302 -0.5120884
-0.024879657 -0.48327607
-0.034791417 -0.46873355
-0.034791417 -0.46873355
-0.05655346 -0.43942505
-0.066395916 -0.4266343
-0.07339497 -0.41750163
-0.08138204 -0.40766644
-0.090736195 -0.39641637
-0.10006758 -0.38504463
-0.10948907 -0.37410972
-0.11741737 -0.36467683
-0.12285562 -0.35788783
-0.12285562 -0.35788783
-0.12654701 -0.3529678
-0.1296803 -0.34892002
-0.1324808 -0.3453783
-0.1324808 -0.3453783
-0.13375968 -0.34272146
-0.13410753 -0.3409713
-0.13548183 -0.33877403
-0.13548183 -0.33877403
-0.13868183 -0.33566317
-0.14271699 -0.3321837
-0.14704312 -0.32848647
-0.14704312 -0.32848647
-0.14991213 -0.32542506
-0.14991213 -0.32542506
-0.15208432 -0.32271925
-0.15451346 -0.31984273
-0.15645865 -0.31745878
-0.15814254 -0.31558153
-0.16116162 -0.31338257
-0.16116162 -0.31338257
-0.16116162 -0.31338257
-0.16198315 -0.312867
-0.16209027 -0.31298104
-0.16239688 -0.3124513
-0.16305181 -0.31115547
-0.16335873 -0.31052202
-0.1650909 -0.3099394
-0.17592797 -0.30803207
-0.18567719 -0.3070037
-0.19912815 -0.30620474
-0.23573697 -0.30547553
-0.27281442 -0.30533603
-0.27281442 -0.30533603
-0.29848394 -0.30507353
-0.31042036 -0.30452847
-0.32243127 -0.30390516
-0.33635014 -0.303045
-0.35295978 -0.30229235
-0.3878339 -0.30238435
-0.3878339 -0.30238435
-0.40422216 -0.30298388
-0.41890487 -0.30376253
-0.4337093 -0.30490255
-0.4337093 -0.30490255
-0.44862348 -0.30567744
-0.46356517 -0.3062225
-0.46356517 -0.3062225
-0.47851864 -0.30647662
-0.4932832 -0.30669853
-0.4932832 -0.30669853
-0.5056635 -0.3069134
-0.5138054 -0.306767
-0.5138054 -0.306767
-0.52501744 -0.30630773
-0.53954613 -0.30697176
-0.5469328 -0.30730814
-0.5542993 -0.30751947
-0.5614722 -0.3077113
-0.56861776 -0.3082368
-0.5762253 -0.30981493
-0.58430916 -0.31272265
-0.58430916 -0.31272265
-0.592728 -0.316832
-0.6014408 -0.3216983
-0.6014408 -0.3216983
-0.61028945 -0.32737517
-0.61873627 -0.3334782
-0.626752 -0.33982375
-0.626752 -0.33982375
-0.63362545 -0.3447833
-0.639459 -0.34865114
-0.64436984 -0.35229748
-0.64436984 -0.35229748
-0.6520319 -0.35888284
-0.6520319 -0.35888284
-0.6569811 -0.3652364
-0.65858376 -0.36825746
-0.65858376 -0.36825746
-0.65963817 -0.37120155
-0.6602344 -0.37403497
-0.6599531 -0.37821156
-0.6585301 -0.38485274
-0.6572441 -0.39076525
-0.6572441 -0.39076525
-0.6511836 -0.40804735
-0.645347 -0.42112097
-0.6380281 -0.43533993
-0.6251559 -0.45783526
-0.6251559 -0.45783526
-0.6144761 -0.47453618
-0.6100261 -0.4808434
-0.60532624 -0.48708448
-0.6018175 -0.4916656
-0.5974131 -0.4964754
-0.59494483 -0.49818677
-0.58729285 -0.5068522
-0.58222973 -0.51470095
-0.57678294 -0.52517784
-0.5666375 -0.55057865
-0.5623489 -0.5643171
-0.55536807 -0.5887478
-0.55180657 -0.6040033
-0.54600513 -0.6385177
-0.54384035 -0.6546247
-0.54154503 -0.67687035
-0.5405764 -0.689926
-0.53740054 -0.7253682
-0.5354002 -0.7443129
-0.5333427 -0.76356447
-0.52912366 -0.8029418
-0.52696544 -0.8223171
-0.52369326 -0.8511311
-0.52276605 -0.8594489
-0.52067614 -0.8743615
-0.5196191 -0.88001096
-0.5181433 -0.8839177
-0.51784825 -0.88445425
-0.5175633 -0.8847884
-0.51631296 -0.8863751
-0.51609373 -0.886862
-0.51542765 -0.8939123
-0.5152665 -0.90057296
-0.5146779 -0.90941495
-0.5141086 -0.91388017
-0.51239306 -0.92344683
-0.51191986 -0.92703325
-0.5110167 -0.9301923
-0.51018584 -0.92964125
-0.50937796 -0.9295195
-0.50872606 -0.9287279
-0.5086882 -0.9287136
-0.50809324 -0.9274313
-0.5071488 -0.92710227
-0.50506175 -0.9277617
-0.5048512 -0.9307216
-0.504813 -0.9385107
-0.5055077 -0.9443323
-0.5096319 -0.958216
-0.51434 -0.9683587
-0.5207483 -0.9796182
-0.5376874 -1.0039414
-0.5476188 -1.0164485
-0.5687982 -1.0422843
-0.57991076 -1.0550152
-0.60327756 -1.079297
-0.61523014 -1.0903289
-0.63851964 -1.1081736
-0.6486341 -1.1144845
-0.65755045 -1.1195307
-0.6760348 -1.1271064
-0.6869751 -1.1298219
-0.711492 -1.1328164
-0.724785 -1.1334258
-0.75036716 -1.1336925
-0.7607757 -1.1336331
-0.78176874 -1.1304332
-0.7931637 -1.1271895
-0.81021535 -1.121531
-0.8167373 -1.1189642
-0.8243214 -1.1152912
-0.8464755 -1.101791
-0.85963106 -1.0921441
-0.8814348 -1.0751783
-0.8814348 -1.0751783
-0.8993331 -1.0603642
-0.91066873 -1.0501188
-0.9346914 -1.0259246
-0.9467004 -1.013099
-0.9571184 -1.0017065
-0.97530925 -0.98082924
-0.98451483 -0.9702175
-0.99881524 -0.9544239
-1.0056525 -0.94590455
-1.0156109 -0.93330336
-1.0181766 -0.930546
-1.0227413 -0.9272669
-1.0244398 -0.9261225
-1.0256593 -0.92864877
-1.0263783 -0.93052226
-1.0265988 -0.9326642
-1.0278466 -0.9321086
-1.0288482 -0.93010986
-1.0321814 -0.92456025
-1.0338409 -0.9205575
-1.0361085 -0.91158974
-1.0373559 -0.9036387
-1.0399536 -0.87744915
-1.0408483 -0.8590213
-1.0419383 -0.8196645
-1.0425317 -0.8007313
-1.0433099 -0.7845175
-1.0443382 -0.76341426
-1.0445232 -0.7563518
-1.0452049 -0.7363348
-1.0457278 -0.72544986
-1.046735 -0.71180934
-1.0470598 -0.70860225
-1.0476694 -0.694978
-1.0478241 -0.682758
-1.0478739 -0.6667535
-1.0475128 -0.62848467
-1.0475872 -0.6091376
-1.047585 -0.5784798
-1.0476525 -0.56871283
-1.0480357 -0.5581897
-1.0485492 -0.55356383
-1.0499504 -0.54370713
-1.050422 -0.5400096
-1.0508201 -0.53494585
-1.050707 -0.5332245
-1.0506774 -0.5330465
-1.0505012 -0.53323287
-1.0501679 -0.5340146
-1.0490893 -0.5374912
-1.0483629 -0.5403426
-1.046994 -0.5470169
-1.0462092 -0.54787254
-1.0437081 -0.54157335
-1.0421563 -0.5377921
-1.0405637 -0.5344492
-1.0378869 -0.52360785
-1.0369619 -0.51456326
-1.0375315 -0.48924556
-1.038451 -0.47809902
-1.0413984 -0.45708627
-1.0425075 -0.44782525
-1.042827 -0.4374094
-1.0426854 -0.43274444
-1.0422947 -0.42478442
-1.0429622 -0.42035833
-1.0449978 -0.41383058
-1.0503308 -0.40109658
-1.0534484 -0.39507976
-1.0664831 -0.37524205
-1.0664831 -0.37524205
-1.0786592 -0.35870802
-1.0811398 -0.35501316
-1.0840194 -0.35167378
-1.0840194 -0.35167378
-1.0887954 -0.3462953
-1.0931323 -0.34114808
-1.0931323 -0.34114808
-1.096431 -0.337172
-1.0987266 -0.3338006
-1.1003064 -0.33134228
-1.1003064 -0.33134228
-1.1021359 -0.32873806
-1.1021359 -0.32873806
-1.1035697 -0.32762617
-1.1046302 -0.32674867
-1.1046308 -0.32681394
-1.1046526 -0.32667175
-1.1047555 -0.32601312
-1.1053469 -0.32474846
-1.1053036 -0.32472557
-1.1052597 -0.3247099
-1.10526 -0.3247044
-1.1052346 -0.32471117
-1.1057442 -0.3241188
-1.1079211 -0.32158145
-1.10907 -0.31965873
-1.1102464 -0.31759506
-1.1120282 -0.3149585
-1.1123726 -0.3145166
-1.1123607 -0.31450626
-1.1137017 -0.31359455
-1.1230137 -0.30812746
-1.130251 -0.30413324
-1.1385982 -0.29931223
-1.1422317 -0.29759395
-1.14927 -0.29418936
-1.171724 -0.28333285
-1.183863 -0.27740425
-1.2081983 -0.26497298
-1.2203848 -0.2586699
-1.2431058 -0.24715745
-1.2546626 -0.24221961
-1.2728662 -0.23548062
-1.2816713 -0.23221858
-1.2992594 -0.22621706
-1.3074126 -0.22329183
-1.3152628 -0.22061983
-1.324138 -0.21948373
-1.3265889 -0.22030625
-1.3389139 -0.22318117
-1.3493928 -0.22611198
-1.3801891 -0.2368119
-1.398091 -0.24378534
-1.4352195 -0.25839505
-1.4542269 -0.26553744
-1.4734011 -0.2725507
-1.5117158 -0.2867346
-1.530381 -0.29414648
-1.5643951 -0.30892012
-1.5767496 -0.31488642
-1.5958581 -0.3249681
-1.604859 -0.33127314
-1.6234955 -0.3483364
-1.6326196 -0.35873118
-1.6509157 -0.38250613
-1.6587721 -0.3931941
-1.6646023 -0.40129495
-1.6743019 -0.41522855
-1.6791408 -0.42194757
-1.6879135 -0.4341131
-1.6911552 -0.4391176
-1.6960503 -0.45352173
-1.6972959 -0.4624939
-1.6975944 -0.48179284
-1.6970437 -0.4905018
-1.6958023 -0.5034886
-1.6950395 -0.5086459
-1.6934359 -0.5148031
-1.6850313 -0.5341738
-1.6776667 -0.5476068
-1.6594471 -0.5765096
-1.6493067 -0.59118676
-1.6302643 -0.6180486
-1.6317022 -0.62092495
-1.6317022 -0.62092495
