-0.10000025 0.07500021
-0.10000025 0.07500021
-0.10000025 0.07500021
-0.10000025 0.07500021
-0.10000025 0.07500021
-0.10000025 0.07500021
-0.09992863 0.07516552
-0.1000127 0.07491121
-0.09992901 0.076223396
-0.099813804 0.07725457
-0.099886194 0.08083369
-0.099886194 0.08083369
-0.102262996 0.08492555
-0.113073155 0.086645804
-0.12287279 0.08495264
-0.1443133 0.07800767
-0.15893185 0.07194589
-0.16901651 0.06652682
-0.17976879 0.060091626
-0.18996724 0.053368203
-0.20377946 0.043284126
-0.20832999 0.03995388
-0.21422529 0.036595546
-0.2224439 0.030556243
-0.22947815 0.024038961
-0.23735268 0.016240202
-0.24814352 0.005966374
-0.25722244 -0.0030993316
-0.25722244 -0.0030993316
-0.2690738 -0.016091043
-0.27404064 -0.021362396
-0.27800518 -0.025665576
-0.27800518 -0.025665576
-0.28365698 -0.03245445
-0.2856335 -0.034909133
-0.2877638 -0.038575787
-0.29080018 -0.045059517
-0.29080018 -0.045059517
-0.29601583 -0.05907761
-0.29985574 -0.07036991
-0.29985574 -0.07036991
-0.3023333 -0.076647446
-0.30487853 -0.08305916
-0.30487853 -0.08305916
-0.30487853 -0.08305916
-0.30755627 -0.08959085
-0.31029522 -0.09618549
-0.31573063 -0.108723246
-0.3183007 -0.11561501
-0.32068408 -0.122500226
-0.32068408 -0.122500226
-0.32529503 -0.13537326
-0.3272649 -0.14122255
-0.32950765 -0.14552125
-0.32950765 -0.14552125
-0.3314467 -0.1498548
-0.3314467 -0.1498548
-0.33296144 -0.15419383
-0.33387893 -0.15820263
-0.33387893 -0.15820263
-0.33412868 -0.16509826
-0.33382848 -0.16791725
-0.3309868 -0.17332649
-0.32643014 -0.17728786
-0.31433186 -0.18515995
-0.30757964 -0.18848912
-0.2979457 -0.19239675
-0.29134127 -0.19539326
-0.26745072 -0.20492885
-0.2511153 -0.21064472
-0.21442577 -0.2221034
-0.19541845 -0.2278492
-0.17634106 -0.23368514
-0.14705828 -0.24243101
-0.13923569 -0.24472773
-0.1346016 -0.24613313
-0.13132492 -0.24715564
-0.12816924 -0.24786107
-0.12133299 -0.24959664
-0.096937805 -0.25708526
-0.096937805 -0.25708526
-0.06217888 -0.26927662
-0.043527216 -0.2764032
-0.008470603 -0.28989017
0.0036203682 -0.2944966
0.011873601 -0.2977168
0.019619938 -0.30080202
0.020689929 -0.30140355
0.02324659 -0.3018523
0.025591293 -0.30259195
0.04135957 -0.30835393
0.054636043 -0.31352678
0.084633745 -0.32542858
0.084633745 -0.32542858
0.099791765 -0.33151165
0.11483352 -0.33749887
0.1388225 -0.3473088
0.14789774 -0.35084367
0.14789774 -0.35084367
0.15806946 -0.3532785
0.16246662 -0.35357207
0.17094779 -0.35340935
0.17667013 -0.3551818
0.18746915 -0.36250302
0.18746915 -0.36250302
0.19238374 -0.36707032
0.19741915 -0.3721695
0.19741915 -0.3721695
0.20242202 -0.37798366
0.20725158 -0.3839822
0.21187589 -0.390045
0.21187589 -0.390045
0.2159837 -0.39760682
0.21938494 -0.40606385
0.22149448 -0.4148356
0.22149448 -0.4148356
0.22237527 -0.4239447
0.22225146 -0.43324584
0.22225146 -0.43324584
0.22068954 -0.44439453
0.21747407 -0.45617357
0.21445008 -0.46563905
0.21445008 -0.46563905
0.20429099 -0.48528662
0.20429099 -0.48528662
0.19870427 -0.49380606
0.1932943 -0.50107086
0.1932943 -0.50107086
0.18810797 -0.5076005
0.1831038 -0.5134311
0.17829962 -0.5192536
0.17204276 -0.5254446
0.15696838 -0.5358787
0.15696838 -0.5358787
0.13888638 -0.54311675
0.13888638 -0.54311675
0.11963049 -0.5481888
0.11084284 -0.54961604
0.11084284 -0.54961604
0.093548946 -0.5513936
0.084574744 -0.5519015
0.06752428 -0.5513776
0.059674274 -0.55025256
0.04336174 -0.5468956
0.035272244 -0.54485637
0.020599693 -0.54139477
0.013761957 -0.54005635
8.3188585E-4 -0.53754526
-0.0053394753 -0.53553814
-0.011423504 -0.5335761
-0.024152484 -0.5299321
-0.03128199 -0.52822894
-0.04530405 -0.5213012
-0.050190073 -0.51512307
-0.06524663 -0.504337
-0.07101034 -0.49718016
-0.074600406 -0.48173016
-0.07487124 -0.47426933
-0.0744798 -0.4670475
-0.07238735 -0.4534239
-0.0693876 -0.44841957
-0.0605924 -0.44403687
-0.05562846 -0.44470635
-0.04686235 -0.44908342
-0.043422196 -0.45211178
-0.037368733 -0.45411858
-0.034187235 -0.45516363
-0.029303778 -0.4581593
-0.02826548 -0.4625958
-0.028591137 -0.46964008
-0.03412644 -0.48951966
-0.039558444 -0.5009952
-0.055141438 -0.5263778
-0.06430761 -0.53920877
-0.083680466 -0.5648004
-0.0943972 -0.57764536
-0.11871215 -0.60410666
-0.13059764 -0.6163541
-0.14002588 -0.62584627
-0.15655425 -0.6428723
-0.16325672 -0.65016395
-0.1684819 -0.6564277
-0.16868904 -0.6569917
-0.16720173 -0.6558572
-0.16757536 -0.65684074
-0.17229345 -0.6629981
-0.17320776 -0.66442764
-0.17338577 -0.6648546
-0.17332408 -0.66490716
-0.17334789 -0.66542405
-0.17330433 -0.6663536
-0.17321903 -0.66637045
-0.17317824 -0.66634685
-0.17438939 -0.66745555
-0.18335241 -0.6752405
-0.19178711 -0.68200403
-0.21817693 -0.7019834
-0.23364194 -0.7133182
-0.2489866 -0.7245564
-0.27698794 -0.74549073
-0.28711045 -0.7532401
-0.30466774 -0.7667082
-0.3115508 -0.7723447
-0.3287872 -0.7858034
-0.34039152 -0.7940954
-0.36398497 -0.8102123
-0.37577504 -0.8181305
-0.39913008 -0.8321689
-0.41059953 -0.83842564
-0.42182702 -0.8433734
-0.44406205 -0.85001504
-0.4559144 -0.85192716
-0.4831187 -0.8533861
-0.498144 -0.85291755
-0.5156306 -0.8518192
-0.54836404 -0.84805185
-0.578961 -0.843346
-0.578961 -0.843346
-0.5896924 -0.8416381
-0.5986792 -0.84028244
-0.5986792 -0.84028244
-0.61537915 -0.8378874
-0.61537915 -0.8378874
-0.623073 -0.8366882
-0.6302715 -0.8350706
-0.6302715 -0.8350706
-0.6374033 -0.83323085
-0.6440176 -0.8310024
-0.6440176 -0.8310024
-0.6500471 -0.8281525
-0.6608881 -0.8210851
-0.6663989 -0.8169409
-0.6775694 -0.8078675
-0.68304414 -0.8032299
-0.6933707 -0.7929212
-0.697807 -0.78664
-0.7048453 -0.7766493
-0.7077093 -0.77009594
-0.7104799 -0.7550806
-0.7106529 -0.7470227
-0.71036583 -0.7390826
-0.7077979 -0.72524345
-0.7054109 -0.71931946
-0.696085 -0.7066637
-0.6896957 -0.70079535
-0.67407525 -0.69037056
-0.6656982 -0.68589103
-0.6534586 -0.6798911
-0.6455344 -0.67717475
-0.63474363 -0.6740747
-0.6073893 -0.6689212
-0.59336436 -0.6669465
-0.5593287 -0.6643659
-0.5437306 -0.6641156
-0.52079105 -0.6645916
-0.50975376 -0.66476035
-0.48803908 -0.66542804
-0.47760448 -0.6660911
-0.45823678 -0.6683896
-0.44894308 -0.66980267
-0.4399663 -0.67123497
-0.42470974 -0.6748702
-0.41816846 -0.6774032
-0.4075539 -0.6826427
-0.40354437 -0.6842662
-0.39474893 -0.6877946
-0.39057162 -0.68909055
-0.38430303 -0.6910826
-0.38191932 -0.6920727
-0.37857157 -0.6943469
-0.37717664 -0.6940409
-0.37573776 -0.693025
-0.37273848 -0.696096
-0.37154287 -0.7012136
-0.37089258 -0.71902215
-0.3713995 -0.7299909
-0.37271404 -0.7478919
-0.37324283 -0.75422895
-0.37496227 -0.7654507
-0.37752536 -0.7738272
-0.38180143 -0.78464067
-0.39149088 -0.80558527
-0.39149088 -0.80558527
-0.3950823 -0.815207
-0.39638358 -0.8182193
-0.39794427 -0.820978
-0.39794427 -0.820978
-0.399168 -0.823795
-0.40099484 -0.82732457
-0.4029562 -0.8310054
-0.4029562 -0.8310054
-0.40624958 -0.8355522
-0.41180286 -0.842261
-0.41180286 -0.842261
-0.41867676 -0.8498677
-0.4262875 -0.8576991
-0.4355114 -0.86642015
-0.4355114 -0.86642015
-0.445036 -0.87477255
-0.4554388 -0.88309634
-0.4554388 -0.88309634
-0.46652508 -0.8912083
-0.47819066 -0.8991566
-0.49694404 -0.9114834
-0.50724256 -0.9169073
-0.5313749 -0.9266964
-0.5428679 -0.9303938
-0.5566106 -0.934859
-0.5609698 -0.9364149
-0.5700165 -0.9404396
-0.5757942 -0.94277155
-0.5818845 -0.944596
-0.58835435 -0.9479429
-0.5928025 -0.94926566
-0.60793144 -0.9497081
-0.61851317 -0.9481791
-0.6421043 -0.9425287
-0.6531118 -0.93933
-0.6688877 -0.9345175
-0.6688877 -0.9345175
-0.6940977 -0.920668
-0.7002946 -0.9167056
-0.7071825 -0.9114175
-0.7238086 -0.8953549
-0.73160595 -0.88657093
-0.7433714 -0.87358236
-0.74861914 -0.86663246
-0.7595708 -0.8467534
-0.7642643 -0.8347017
-0.77249366 -0.80593747
-0.77593803 -0.78970516
-0.77921206 -0.77281755
-0.784996 -0.73842335
-0.7872617 -0.72162074
-0.7893013 -0.6891432
-0.78951085 -0.67265284
-0.7882582 -0.63924444
-0.78671855 -0.6230148
-0.78193635 -0.5928746
-0.7788062 -0.57902265
-0.77002203 -0.55437267
-0.76418054 -0.54386556
-0.75741994 -0.534363
-0.7434013 -0.5191175
-0.7372097 -0.51320785
-0.72260034 -0.50179845
-0.7138432 -0.49695787
-0.69491965 -0.489252
-0.6828065 -0.48598403
-0.65612644 -0.48125514
-0.64028394 -0.4796636
-0.6231111 -0.47909313
-0.5894616 -0.48167485
-0.57296836 -0.48435146
-0.54036194 -0.49177718
-0.52450776 -0.49579048
-0.49429068 -0.5032391
-0.48386517 -0.50576407
-0.46626002 -0.50986993
-0.45754164 -0.51182497
-0.43771762 -0.518031
-0.4272743 -0.52257437
-0.4272743 -0.52257437
-0.40663996 -0.5346081
-0.38404328 -0.5521221
-0.3719569 -0.5630664
-0.35907927 -0.57551605
-0.34567508 -0.5892856
-0.31853527 -0.6178727
-0.2959295 -0.6410419
-0.2959295 -0.6410419
-0.27403748 -0.6627416
-0.27403748 -0.6627416
-0.27403748 -0.6627416
-0.25814074 -0.6781447
-0.25814074 -0.6781447
-0.25277677 -0.6832803
-0.24645403 -0.6899198
-0.2288146 -0.7115064
-0.2288146 -0.7115064
-0.2288146 -0.7115064
