0 [1.0, 1.0, 1.0, 1.0, 1.0, 1.0, 1.0, 1.0]
1 [1.0, 1.0, 1.0, 1.0, 1.0, 1.0, 1.0, 1.0]
2 [1.0, 1.0, 1.0, 1.0, 1.0, 1.0, 1.0, 1.0]
3 [1.0, 1.0, 1.0, 1.0, 1.0, 1.0, 1.0, 1.0]
4 [1.0, 1.0, 1.0, 1.0, 1.0, 1.0, 1.0, 1.0]
5 [1.0, 1.0, 1.0, 1.0, 1.0, 1.0, 1.0, 1.0]
6 [1.0, 1.0, 1.0, 1.0, 1.0, 1.0, 1.0, 1.0]
7 [1.0, 1.0, 1.0, 1.0, 1.0, 1.0, 1.0, 1.0]
8 [1.0, 1.0, 1.0, 1.0, 1.0, 1.0, 1.0, 1.0]
9 [1.0, 1.0, 1.0, 1.0, 1.0, 1.0, 1.0, 1.0]
10 [1.0, 1.0, 1.0, 1.0, 1.0, 1.0, 1.0, 1.0]
11 [1.0, 1.0002337, 1.0942686, 1.6965559, 1.0942686, 1.0002337, 1.0, 1.0]
12 [1.0, 1.0001961, 1.0791293, 1.5846909, 1.0791293, 1.0004297, 1.0942686, 1.6965559]
13 [1.0, 1.0001494, 1.0602837, 1.445439, 1.0602837, 1.0003457, 1.0792023, 1.5852299]
14 [1.0, 1.0001129, 1.045545, 1.3365343, 1.045545, 1.0002623, 1.0602837, 1.445439]
15 [1.0, 1.0000854, 1.034424, 1.2543601, 1.034424, 1.0001984, 1.0455905, 1.3368708]
16 [1.0, 1.0000644, 1.0259911, 1.1920499, 1.0259911, 1.0001497, 1.034424, 1.2543601]
17 [1.0, 1.0000486, 1.0196437, 1.1451482, 1.0196437, 1.0001131, 1.0260171, 1.192242]
18 [1.0, 0.99976915, 0.90687203, 0.31187218, 0.90687203, 0.9998179, 1.0196633, 1.1452935]
19 [1.0, 0.99979717, 0.9181707, 0.39535844, 0.9181707, 0.9995663, 0.90687203, 0.31187218]
20 [1.0, 1.0000786, 1.031699, 1.2342248, 1.031699, 0.99987555, 0.9180978, 0.3948202]
21 [1.0, 1.0000796, 1.0321132, 1.2372862, 1.0321132, 0.9999245, 0.93739927, 0.53743976]
22 [1.0, 1.0000613, 1.0247422, 1.1828216, 1.0247422, 0.99994403, 0.9526921, 0.65043926]
23 [1.0, 1.0000464, 1.0187296, 1.1383942, 1.0187296, 0.9999578, 0.9642429, 0.7357887]
24 [1.0, 1.000035, 1.0141432, 1.104505, 1.0141432, 1.0002017, 1.0672398, 1.4968386]
25 [1.0, 1.0000265, 1.0106894, 1.078984, 1.0106894, 1.0001727, 1.0590166, 1.436077]
26 [1.0, 1.00002, 1.0080788, 1.0596949, 1.0080788, 1.0001318, 1.0451024, 1.3332634]
27 [1.0, 0.99974775, 0.89825594, 0.24820721, 0.89825594, 0.9998323, 1.0340838, 1.2518473]
28 [1.0, 0.99978, 0.91123515, 0.34411144, 0.91123515, 0.99984384, 1.0257618, 1.1903555]
29 [1.0, 0.99983203, 0.9322584, 0.49945387, 0.9322584, 0.99988025, 1.019451, 1.1437247]
30 [1.0, 0.999873, 0.9487586, 0.62137437, 0.9487586, 0.9999094, 1.0147008, 1.1086248]
31 [1.0, 0.9999041, 0.9613086, 0.7141074, 0.9613086, 0.99966425, 0.9032557, 0.2851507]
32 [1.0, 0.9999329, 0.9729211, 0.7999125, 0.9729211, 0.99972934, 0.9178794, 0.39320636]
33 [1.0, 1.0, 1.0, 1.0, 1.0, 0.9998445, 0.93727505, 0.5365219]
34 [1.0, 0.99996173, 0.9845632, 0.8859365, 0.9845632, 0.99984425, 0.95259744, 0.64974]
35 [1.0, 0.9999711, 0.9883331, 0.91379267, 0.9883331, 0.9998823, 0.9641713, 0.73525983]
36 [1.0, 0.9999781, 0.9911823, 0.9348459, 0.9911823, 0.99991107, 0.9729482, 0.8001125]
37 [1.0, 0.9999835, 0.9933424, 0.9508068, 0.9933424, 0.9999328, 0.97955465, 0.8489282]
38 [1.0, 0.99998754, 0.99497336, 0.9628577, 0.99497336, 0.9999493, 0.9845632, 0.8859365]
39 [1.0, 0.9999906, 0.9962009, 0.9719285, 0.9962009, 0.9999617, 0.9883331, 0.91379267]
40 [1.0, 0.9999929, 0.9971287, 0.978784, 0.9971287, 0.99997103, 0.9911823, 0.9348459]
41 [1.0, 1.0, 1.0, 1.0, 1.0, 1.0, 1.0, 1.0]
42 [1.0, 1.0, 1.0, 1.0, 1.0, 0.99998754, 0.9949683, 0.9628206]
43 [1.0, 1.0, 1.0, 1.0, 1.0, 0.9999906, 0.9962009, 0.9719285]
44 [1.0, 1.0, 1.0, 1.0, 1.0, 0.9999929, 0.9971287, 0.978784]
45 [1.0, 1.0, 1.0, 1.0, 1.0, 1.0, 1.0, 1.0]
46 [1.0, 1.0, 1.0, 1.0, 1.0, 1.0, 1.0, 1.0]
47 [1.0, 1.0, 1.0, 1.0, 1.0, 1.0, 1.0, 1.0]
48 [1.0, 1.0, 1.0, 1.0, 1.0, 1.0, 1.0, 1.0]
49 [1.0, 1.0, 1.0, 1.0, 1.0, 1.0, 1.0, 1.0]
