0 [0.0, 0.0, 0.0, 0.0, 0.0, 0.0, 0.0, 0.0]
1 [0.0, 0.0, 0.0, 0.0, 0.0, 0.0, 0.0, 0.0]
2 [0.0, 0.0, 0.6666667, 0.875, 0.6666667, 0.6666667, 0.0, 0.375]
3 [0.0, 0.0, 0.0, 0.0, 0.0, 0.0, 0.0, 0.0]
4 [0.0, 0.0, 0.0, 0.875, 0.8, 0.8, 0.0, 0.8]
5 [0.0, 0.0, 0.0, 0.0, 0.0, 0.0, 0.0, 0.0]
6 [0.0, 0.0, 0.0, 0.0, 0.0, 0.0, 0.0, 0.0]
7 [0.33333334, 0.6666667, 0.6666667, 0.6666667, 0.6666667, 0.6666667, 0.0, 0.875]
8 [0.0, 0.0, 0.0, 0.0, 0.0, 0.0, 0.0, 0.0]
9 [0.75, 0.75, 0.75, 0.75, 0.5, 0.5, 0.0, 0.875]
10 [0.14285715, 0.9285714, 0.14285715, 0.9285714, 0.375, 0.0, 0.0, 0.9285714]
11 [0.0, 0.0, 0.0, 0.0, 0.0, 0.0, 0.0, 0.0]
12 [0.08791209, 0.08791209, 0.08791209, 0.375, 0.375, 0.0, 0.0, 0.989011]
13 [0.0, 0.0, 0.0, 0.0, 0.0, 0.0, 0.0, 0.0]
14 [0.5555556, 0.5555556, 0.0, 0.375, 0.375, 0.0, 0.8888889, 0.8888889]
15 [0.0, 0.0, 0.0, 0.0, 0.0, 0.0, 0.0, 0.0]
16 [0.0, 0.0, 0.0, 0.375, 0.375, 0.0, 0.0, 0.875]
17 [0.8333333, 0.8333333, 0.0, 0.0, 0.8333333, 0.6666667, 0.6666667, 0.8333333]
18 [0.0, 0.0, 0.0, 0.0, 0.0, 0.0, 0.0, 0.0]
19 [0.0, 0.0, 0.0, 0.375, 0.375, 0.0, 0.0, 0.875]
20 [0.9444444, 0.16666667, 0.0, 0.0, 0.16666667, 0.0, 0.9444444, 0.16666667]
21 [0.0, 0.0, 0.0, 0.375, 0.375, 0.0, 0.0, 0.875]
22 [0.3, 0.3, 0.0, 0.375, 0.375, 0.9, 0.9, 0.875]
23 [0.93333334, 0.2, 0.0, 0.0, 0.2, 0.93333334, 0.93333334, 0.93333334]
24 [0.0, 0.0, 0.0, 0.375, 0.375, 0.0, 0.0, 0.875]
25 [0.96153843, 0.65384614, 0.0, 0.0, 0.65384614, 0.0, 0.96153843, 0.96153843]
26 [0.0, 0.0, 0.0, 0.0, 0.0, 0.0, 0.0, 0.0]
27 [0.0, 0.0, 0.0, 0.5, 0.5, 0.0, 0.0, 0.5]
28 [0.96666664, 0.0, 0.0, 0.0, 0.0, 0.0, 0.0, 0.96666664]
29 [0.0, 0.0, 0.0, 0.75, 0.75, 0.0, 0.0, 0.0]
30 [0.96153843, 0.0, 0.0, 0.75, 0.75, 0.0, 0.0, 0.96153843]
31 [0.96153843, 0.0, 0.0, 0.0, 0.0, 0.0, 0.0, 0.96153843]
32 [0.0, 0.0, 0.0, 0.75, 0.75, 0.0, 0.0, 0.0]
33 [0.96153843, 0.0, 0.0, 0.0, 0.0, 0.0, 0.0, 0.96153843]
34 [0.0, 0.0, 0.0, 0.0, 0.0, 0.0, 0.0, 0.0]
35 [0.0, 0.0, 0.0, 0.75, 0.75, 0.0, 0.0, 0.0]
36 [0.9777778, 0.0, 0.0, 0.0, 0.0, 0.0, 0.0, 0.9777778]
37 [0.0, 0.0, 0.0, 0.75, 0.75, 0.0, 0.0, 0.0]
38 [0.9722222, 0.0, 0.0, 0.75, 0.75, 0.0, 0.0, 0.9722222]
39 [0.99450547, 0.0, 0.0, 0.0, 0.0, 0.0, 0.0, 0.0]
40 [0.0, 0.0, 0.0, 0.75, 0.75, 0.0, 0.0, 0.0]
41 [0.989011, 0.0, 0.0, 0.0, 0.0, 0.0, 0.0, 0.0]
42 [0.0, 0.0, 0.0, 0.0, 0.0, 0.0, 0.0, 0.0]
43 [0.0, 0.0, 0.0, 0.75, 0.75, 0.0, 0.0, 0.0]
44 [0.989011, 0.0, 0.0, 0.0, 0.0, 0.0, 0.0, 0.0]
45 [0.0, 0.0, 0.5, 0.5, 0.5, 0.0, 0.0, 0.0]
46 [0.0, 0.0, 0.5, 0.5, 0.5, 0.0, 0.0, 0.0]
47 [0.0, 0.0, 0.0, 0.0, 0.0, 0.0, 0.0, 0.0]
48 [0.0, 0.0, 0.0, 0.0, 0.0, 0.0, 0.0, 0.0]
49 [0.0, 0.0, 0.75, 0.75, 0.0, 0.0, 0.0, 0.0]
