0 -3.1415925
0 -3.1415925
0 -3.1415925
0 3.1415925
0 -0.0
0 -0.0
0 -0.0
0 -0.0
0 -0.0
1 -3.1415925
1 -3.1415925
1 -3.1415925
1 3.1415925
1 -0.0
1 -0.0
1 -0.0
1 -0.0
1 -0.0
2 -3.1415925
2 -3.1415925
2 -3.1415925
2 3.1415925
2 -0.0
2 -0.0
2 -0.0
2 -0.0
2 -0.0
3 -3.1415925
3 -3.1415925
3 -3.1415925
3 3.1415925
3 -0.0
3 -0.0
3 -0.0
3 -0.0
3 -0.0
4 -3.1415925
4 -3.1415925
4 -3.1415925
4 3.1415925
4 -0.0
4 -0.0
4 -0.0
4 -0.0
4 -0.0
5 -3.1415925
5 -3.1415925
5 -3.1415925
5 3.1415925
5 -0.0
5 -0.0
5 -0.0
5 -0.0
5 -0.0
6 -3.1415925
6 -3.1415925
6 -3.1415925
6 3.1415925
6 -0.0
6 -0.0
6 -0.0
6 -0.0
6 -0.0
7 -3.1415925
7 -3.1415925
7 -3.1415925
7 3.1415925
7 -0.0
7 -0.0
7 -0.0
7 -0.0
7 -0.0
8 -3.1415925
8 -3.1415925
8 -3.1415925
8 3.1415925
8 -0.0
8 -0.0
8 -0.0
8 -0.0
8 -0.0
9 -3.1415925
9 -3.1415925
9 -3.1415925
9 3.1415925
9 -0.0
9 -0.0
9 -0.0
9 -0.0
9 -0.0
10 -3.1415925
10 -3.1415925
10 -3.1415925
10 3.1415925
10 -0.0
10 -0.0
10 -0.0
10 -0.0
10 -0.0
11 -3.1415925
11 -3.1415925
11 -3.1415925
11 3.1415925
11 -0.0
11 -0.0
11 -0.0
11 -0.0
11 -0.0
12 -3.1415925
12 -3.1415925
12 -3.1415925
12 3.1415925
12 -0.0
12 -0.0
12 -0.0
12 -0.0
12 -0.0
13 -3.1415925
13 -3.1415925
13 -3.1415925
13 3.1415925
13 -0.0
13 -0.0
13 -0.0
13 -0.0
13 -0.0
14 -3.1415925
14 -3.1415925
14 -3.1415925
14 3.1415925
14 -0.0
14 -0.0
14 -0.0
14 -0.0
14 -0.0
15 -3.1415925
15 -3.1415925
15 -3.1415925
15 3.1415925
15 -0.0
15 -0.0
15 -0.0
15 -0.0
15 -0.0
16 -3.1415925
16 -3.1415925
16 -3.1415925
16 3.1415925
16 -0.0
16 -0.0
16 -0.0
16 -0.0
16 -0.0
17 -3.1415925
17 -3.1415925
17 -3.1415925
17 3.1415925
17 -0.0
17 -0.0
17 -0.0
17 -0.0
17 -0.0
18 -3.1415925
18 -3.1415925
18 -3.1415925
18 3.1415925
18 -0.0
18 -0.0
18 -0.0
18 -0.0
18 -0.0
19 -3.1415925
19 -3.1415925
19 -3.1415925
19 3.1415925
19 -0.0
19 -0.0
19 -0.0
19 -0.0
19 -0.0
20 -3.1415925
20 -3.1415925
20 -3.1415925
20 3.1415925
20 -0.0
20 -0.0
20 -0.0
20 -0.0
20 -0.0
21 -3.1415925
21 -3.1415925
21 -3.1415925
21 3.1415925
21 -0.0
21 -0.0
21 -0.0
21 -0.0
21 -0.0
22 -3.1415925
22 -3.1415925
22 -3.1415925
22 3.1415925
22 -0.0
22 -0.0
22 -0.0
22 -0.0
22 -0.0
23 -3.1415925
23 -3.1415925
23 -3.1415925
23 3.1415925
23 -0.0
23 -0.0
23 -0.0
23 -0.0
23 -0.0
24 -3.1415925
24 -3.1415925
24 -3.1415925
24 3.1415925
24 -0.0
24 -0.0
24 -0.0
24 -0.0
24 -0.0
25 -3.1415925
25 -3.1415925
25 -3.1415925
25 3.1415925
25 -0.0
25 -0.0
25 -0.0
25 -0.0
25 -0.0
26 3.1360815
26 3.1343982
26 3.1305704
26 3.1098645
26 0.031728532
26 0.011022424
26 0.0071945
26 0.005511335
26 9.502993E-7
27 3.128872
27 3.1249876
27 3.116156
27 3.0684688
27 0.073134206
27 0.025438031
27 0.016605355
27 0.0127207935
27 1.3495894E-5
28 3.128872
28 3.1249876
28 3.116156
28 3.0684688
28 0.073134206
28 0.025438031
28 0.016605355
28 0.0127207935
28 1.3495894E-5
29 3.129872
29 3.1262932
29 3.1181555
29 3.0742013
29 0.067402065
29 0.023438497
29 0.015299808
29 0.011720556
29 1.45363565E-5
30 3.129872
30 3.1262932
30 3.1181555
30 3.0742013
30 0.067402065
30 0.023438497
30 0.015299808
30 0.011720556
30 1.45363565E-5
31 3.1295955
31 3.1259322
31 3.117602
31 3.0726123
31 0.06898396
31 0.023990842
31 0.015660621
31 0.011997108
31 4.230777E-6
32 3.1295955
32 3.1259322
32 3.117602
32 3.0726123
32 0.06898396
32 0.023990842
32 0.015660621
32 0.011997108
32 4.230777E-6
33 3.1283216
33 3.1242642
33 3.115039
33 3.065159
33 0.07612867
33 0.026521234
33 0.017318202
33 0.013271068
33 -3.545825E-4
34 3.1283216
34 3.1242642
34 3.115039
34 3.065159
34 0.07612867
34 0.026521234
34 0.017318202
34 0.013271068
34 -3.545825E-4
35 3.130443
35 3.1270328
35 3.1192787
35 3.077304
35 0.06395731
35 0.022278918
35 0.014548851
35 0.011149617
35 -4.5739353E-4
36 3.1296988
36 3.126113
36 3.1179533
36 3.0745473
36 0.069791295
36 0.023931812
36 0.015572417
36 0.011893884
36 0.0035483765
37 3.129475
37 3.1259534
37 3.1179204
37 3.0769157
37 0.07551229
37 0.024820488
37 0.01600222
37 0.012117716
37 0.013671604
38 3.1297977
38 3.126574
38 3.119173
38 3.0836346
38 0.081745744
38 0.024886793
38 0.015797388
38 0.011794988
38 0.030109165
39 3.1304662
39 3.1275842
39 3.1209168
39 3.0903642
39 0.08523167
39 0.024091879
39 0.015084065
39 0.0111265825
39 0.044035975
40 3.1303527
40 3.1275196
40 3.1209352
40 3.0914114
40 0.09081795
40 0.024657303
40 0.01533054
40 0.011240047
40 0.050929703
41 3.1300695
41 3.1272132
41 3.120554
41 3.091073
41 0.09627632
41 0.02548
41 0.015774488
41 0.011523265
41 0.055084355
42 3.1300695
42 3.1272132
42 3.120554
42 3.091073
42 0.09627632
42 0.02548
42 0.015774488
42 0.011523265
42 0.055084355
43 3.1294696
43 3.1264832
43 3.119512
43 3.0887933
43 0.10252669
43 0.026883893
43 0.016617386
43 0.012123024
43 0.05659425
44 3.1294696
44 3.1264832
44 3.119512
44 3.0887933
44 0.10252669
44 0.026883893
44 0.016617386
44 0.012123024
44 0.05659425
45 3.1294696
45 3.1264832
45 3.119512
45 3.0887933
45 0.10252669
45 0.026883893
45 0.016617386
45 0.012123024
45 0.05659425
46 3.1294696
46 3.1264832
46 3.119512
46 3.0887933
46 0.10252669
46 0.026883893
46 0.016617386
46 0.012123024
46 0.05659425
47 3.1314824
47 3.129105
47 3.123502
47 3.0996025
47 0.09459243
47 0.022926511
47 0.0140007995
47 0.010110313
47 0.06798422
48 3.1314824
48 3.129105
48 3.123502
48 3.0996025
48 0.09459243
48 0.022926511
48 0.0140007995
48 0.010110313
48 0.06798422
49 3.1324124
49 3.1303585
49 3.125461
49 3.1052208
49 0.09645142
49 0.021316055
49 0.012849573
49 0.00918033
49 0.079773925
