0 [0.0, 0.0, 0.0, 0.0, 0.0, 0.0, 0.0, 0.0]
1 [0.0, 0.0, 0.0, 0.0, 0.0, 0.0, 0.0, 0.0]
2 [0.0, 0.0, 0.0, 0.0, 0.0, 0.0, 0.0, 0.0]
3 [0.041280225, 0.041280225, 0.025719782, 0.08328022, 0.08328022, 0.025719782, 0.025719782, 0.061280217]
4 [1.0304451, 1.0304451, 0.025565935, 0.17234616, 0.17234616, 0.025565935, 0.025565935, 0.061434064]
5 [0.041434072, 0.041434072, 0.025565935, 0.45943406, 0.45943406, 0.025565935, 0.025565935, 0.9364341]
6 [0.09085165, 0.09085165, 0.025598904, 0.0834011, 0.0834011, 0.026598902, 0.026598902, 1.0549066]
7 [0.041401103, 0.041401103, 0.025598904, 0.5834011, 0.5834011, 0.026598902, 0.026598902, 0.5604011]
8 [0.043280218, 0.042280216, 0.02571979, 0.5832802, 0.5832802, 0.028719787, 0.029719785, 0.5582802]
9 [0.54553294, 0.916533, 0.025467025, 0.58253294, 0.58253294, 0.906467, 0.90946704, 0.92853296]
10 [0.34759343, 0.3305934, 0.082593404, 0.082593404, 0.33240658, 0.93540657, 0.94040656, 0.94959337]
11 [0.047593404, 0.030593406, 0.082593404, 0.5825934, 0.53240657, 0.0354066, 0.040406596, 0.5495934]
12 [0.051664837, 0.020335166, 0.083664834, 0.83366483, 0.033335153, 0.03833517, 0.044335168, 0.7976648]
13 [0.094910264, 0.04675641, 0.12191026, 1.0532435, 1.0020897, 0.044423077, 0.085756406, 1.0092436]
14 [0.06157693, 0.013423072, 0.08857692, 0.83657694, 0.035423085, 0.044423077, 0.05242307, 0.7925769]
15 [0.06753846, 0.01743956, 1.0845604, 0.59054947, 0.039450552, 0.05345054, 1.0474615, 0.54545057]
16 [0.023252744, 0.09925275, 1.0572528, 0.029747264, 0.044747252, 0.06474725, 1.0127472, 0.041747253]
17 [0.023252744, 0.09925275, 0.09725275, 0.029747264, 0.044747252, 0.06474725, 0.052747242, 0.041747253]
18 [0.026340654, 0.97534066, 0.97234064, 0.40765935, 0.050659332, 0.06765934, 0.93465936, 0.40965936]
19 [0.026340654, 0.100340664, 0.09734066, 0.032659348, 0.050659332, 0.06765934, 0.059659347, 0.03465935]
20 [0.027148345, 0.10114835, 0.09714835, 0.032851655, 0.05085164, 0.066851646, 0.060851652, 0.032851655]
21 [0.5259011, 0.6009011, 0.5979011, 0.5320989, 0.5500989, 0.5660989, 0.5600989, 0.5350989]
22 [0.025901094, 0.1009011, 0.5979011, 0.5320989, 0.050098892, 0.0660989, 0.060098905, 0.5350989]
23 [0.025901094, 0.1009011, 0.0979011, 0.032098908, 0.050098892, 0.0660989, 0.060098905, 0.035098907]
24 [0.025159337, 0.10015934, 0.5971593, 0.53284067, 0.04984065, 0.066840656, 0.058840666, 0.5358407]
25 [0.77564836, 0.85064834, 0.8476484, 0.7813517, 0.79835165, 0.81635165, 0.80635166, 0.7863517]
26 [0.025648346, 0.10064835, 0.9726484, 0.40635166, 0.04835164, 0.06635165, 0.056351658, 0.41135165]
27 [0.02225824, 0.97325826, 0.9712582, 0.90474176, 0.044741757, 0.062741764, 0.06374176, 0.042741757]
28 [0.05842857, 0.0065714275, 1.0658572, 0.09042857, 0.038571432, 0.05257142, 1.029, 0.043571427]
29 [0.05842857, 0.0065714275, 0.59442854, 0.5904286, 0.038571432, 0.05257142, 0.057571437, 0.5435714]
30 [0.09685531, 0.044811353, 1.0561886, 1.0541886, 0.03647803, 0.046478022, 0.08681135, 0.075855315]
31 [0.06352198, 0.011478018, 0.089521974, 0.837522, 0.03647803, 0.046478022, 0.053478014, 0.79252195]
32 [0.059390105, 0.014609896, 0.08739011, 0.8353901, 0.0356099, 0.04360989, 0.051609885, 0.7933901]
33 [0.559511, 0.514489, 0.587511, 0.58551097, 0.53448904, 0.542489, 0.549489, 0.54451096]
34 [0.059510984, 0.0144890165, 0.08751099, 0.96051097, 0.03448902, 0.042489015, 0.049489006, 0.91951096]
35 [0.91282415, 0.16017583, 0.9428242, 0.9418242, 0.03431867, 0.040318687, 0.19117583, 0.9018242]
36 [0.055681314, 0.017318686, 0.08568132, 0.95968133, 0.03431867, 0.040318687, 0.04831868, 0.9196813]
37 [0.052472524, 0.019527478, 0.08447252, 0.95847255, 0.033527464, 0.039527483, 0.045527477, 0.9215275]
38 [0.9702143, 0.9459396, 1.0062143, 0.08313736, 0.08113736, 0.033862635, 0.03786263, 0.9742143]
39 [0.04713736, 0.022862645, 0.08313736, 0.8331374, 0.08113736, 0.033862635, 0.03786263, 0.8011373]
40 [0.95376676, 0.94176674, 0.9344151, 0.5836758, 0.5826758, 0.029324174, 0.030324174, 0.9657668]
41 [0.89902747, 0.32159892, 0.8832582, 0.9400275, 0.5828846, 0.027115386, 0.028115384, 0.6708846]
42 [0.087025985, 0.087025985, 0.07088312, 1.0401169, 0.46057144, 0.023428572, 0.023428572, 0.9265714]
43 [0.041571435, 0.041571435, 0.02542857, 0.08557143, 0.08557143, 0.023428572, 0.023428572, 0.051571425]
44 [0.8974835, 0.32605496, 0.8838022, 0.94348353, 0.94348353, 0.5216594, 0.019659335, 0.30337363]
45 [0.040340655, 0.040340655, 0.02665934, 0.08634066, 0.08634066, 0.021659344, 0.019659335, 0.017659336]
46 [0.92490536, 0.25920573, 0.2532387, 0.9738724, 0.9748724, 0.52201647, 0.01901648, 0.016016483]
47 [0.036016475, 0.036983512, 0.03101648, 0.08498351, 0.085983515, 0.02201649, 0.01901648, 0.016016483]
48 [0.039000012, 0.037, 0.030999996, 0.088, 0.089999996, 0.017999995, 0.0139999995, 0.825]
49 [0.15705618, 0.16005617, 0.15105616, 0.90794504, 0.9749438, 0.46205494, 0.014945057, 0.12005617]
