0 [0.0, 0.0, 0.0, 0.0, 0.0, 0.0, 0.0, 0.0]
1 [0.0, 0.0, 0.0, 0.0, 0.0, 0.0, 0.0, 0.0]
2 [0.0, 0.0, 0.0, 0.0, 0.0, 0.0, 0.0, 0.0]
3 [0.20243956, 0.09843956, 0.020439561, 0.032560438, 0.06856045, 0.11756045, 0.11256043, 0.099439554]
4 [0.9533736, 0.8473736, 0.7713736, 0.030626372, 0.06562636, 0.86562634, 0.86562634, 0.84937364]
5 [1.034174, 0.92917395, 0.853174, 0.029159341, 0.06315933, 0.109159335, 0.44749266, 0.430174]
6 [0.20084067, 0.095840655, 0.01984066, 0.029159341, 0.06315933, 0.109159335, 0.11415933, 0.09684066]
7 [0.20084067, 0.47084066, 0.39484066, 0.029159341, 0.06315933, 0.109159335, 0.11415933, 0.9718407]
8 [1.1454506, 1.0374506, 0.015450548, 0.028549457, 0.056549456, 0.09554944, 1.0625495, 0.23845056]
9 [0.19545054, 0.08745055, 0.015450548, 0.028549457, 0.056549456, 0.09554944, 0.11254945, 0.08845055]
10 [0.1910055, 0.4560055, 0.38700548, 0.026994495, 0.051994495, 0.08499451, 0.10799451, 0.92499447]
11 [0.18676373, 0.45076373, 0.38376373, 0.027236257, 0.05023626, 0.079236254, 0.10723625, 0.9212363]
12 [0.18178022, 1.1314468, 0.5637802, 0.02721978, 0.047219783, 0.07221978, 1.0698864, 0.5942198]
13 [1.1072032, 1.0932033, 0.060631864, 0.028368134, 0.04636814, 0.068368144, 0.67179674, 1.0289395]
14 [0.17863187, 0.53963184, 0.43563187, 0.028368134, 0.04636814, 0.068368144, 0.100368135, 0.97536814]
15 [1.159003, 0.4501142, 0.35211417, 0.025774729, 0.043774735, 0.06677471, 1.0775526, 0.09977473]
16 [0.18122527, 0.53622526, 0.43822527, 0.025774729, 0.043774735, 0.06677471, 0.09977473, 0.9747747]
17 [0.18343957, 0.44543958, 0.44043958, 0.023560444, 0.04256045, 0.06556043, 0.09756044, 0.97256047]
18 [1.1067967, 0.07171978, 0.83595055, 0.022280227, 0.03928021, 0.06228021, 0.09428023, 1.0183572]
19 [0.18371978, 0.44671977, 0.9417198, 0.022280227, 0.03928021, 0.06228021, 0.09428023, 0.47028023]
20 [1.1465824, 0.07404395, 0.45365936, 0.019956054, 0.037956037, 0.05995604, 0.091956034, 1.0554945]
21 [0.18490659, 0.5779066, 0.57190657, 0.016093396, 0.034093402, 0.056093406, 0.0870934, 0.5890934]
22 [0.18490659, 0.0779066, 0.07190659, 0.016093396, 0.034093402, 0.056093406, 0.0870934, 0.089093395]
23 [1.1428626, 0.8253242, 0.82132417, 0.014675818, 0.030675827, 0.049675833, 0.07767583, 0.54721427]
24 [1.1626905, 0.82335716, 0.82035714, 0.011642857, 0.025642868, 0.04264285, 0.064642854, 0.24430954]
25 [0.17935714, 0.07335714, 0.07035715, 0.011642857, 0.025642868, 0.04264285, 0.064642854, 0.077642865]
26 [1.1111795, 0.82384616, 0.82084614, 0.011153849, 0.024153836, 0.040153846, 0.061153848, 1.0074872]
27 [0.17784615, 0.073846154, 0.070846155, 0.011153849, 0.024153836, 0.040153846, 0.061153848, 0.07415383]
28 [1.1102784, 1.0072784, 0.820945, 0.01005495, 0.022054939, 0.03705495, 0.05705495, 1.0053883]
29 [0.17694506, 0.07394505, 0.070945054, 0.01005495, 0.022054939, 0.03705495, 0.05705495, 0.07205494]
30 [0.17552747, 0.07452747, 0.072527476, 0.0074725347, 0.019472523, 0.033472534, 0.05247254, 0.06847253]
31 [1.1363461, 0.8258077, 0.8238077, 0.0061923168, 0.017192306, 0.031192316, 0.0491923, 1.0267308]
32 [0.1748077, 0.07580769, 0.073807694, 0.0061923168, 0.017192306, 0.031192316, 0.0491923, 0.065192305]
33 [1.1407875, 0.95112085, 0.07412088, 0.0051208828, 0.01587912, 0.028879132, 0.045879114, 1.0295458]
34 [1.0108541, 0.9536319, 1.0488541, 0.006631871, 0.013368133, 0.02636812, 0.043368127, 1.0335903]
35 [0.037862632, 0.95386267, 1.070368, 0.006862638, 0.013137367, 0.026137354, 0.04313736, 0.30189562]
36 [0.037862632, 0.078862645, 0.07586263, 0.006862638, 0.013137367, 0.026137354, 0.04313736, 0.06013737]
37 [1.0255715, 0.07756044, 0.07556044, 0.0065604383, 0.012439568, 0.025439555, 0.041439563, 0.44305497]
38 [0.9115604, 0.9525604, 0.07556044, 0.0065604383, 0.012439568, 0.025439555, 0.041439563, 0.05843957]
39 [0.9115604, 0.9525604, 0.07556044, 0.0065604383, 0.012439568, 0.025439555, 0.041439563, 0.05843957]
40 [1.0215219, 0.72286266, 0.07351099, 0.0045109848, 0.012489023, 0.022489013, 0.037489023, 0.7038407]
41 [0.907511, 0.949511, 0.07351099, 0.0045109848, 0.012489023, 0.022489013, 0.037489023, 0.055489007]
42 [0.77695054, 0.82195055, 0.070950545, 0.004049452, 0.012049444, 0.02104946, 0.03304945, 0.050049454]
43 [0.94880766, 0.99580765, 0.06723626, 0.004763742, 0.010763736, 0.01776373, 0.026763745, 0.038763735]
44 [0.77023625, 0.81723624, 0.06723626, 0.004763742, 0.010763736, 0.01776373, 0.026763745, 0.038763735]
45 [0.9213327, 0.9163327, 0.60869634, 0.0057582404, 0.009758249, 0.014758244, 0.020758238, 0.028758254]
46 [0.012241755, 0.007241759, 0.06324175, 0.0057582404, 0.009758249, 0.014758244, 0.020758238, 0.028758254]
47 [0.7593297, 0.7543297, 0.062329672, 0.006670332, 0.009670329, 0.013670325, 0.018670332, 0.025670325]
48 [0.008807698, 0.003807691, 0.061807696, 0.0061923116, 0.010192308, 0.014192304, 0.018192312, 0.025192305]
49 [0.008807698, 0.003807691, 0.061807696, 0.0061923116, 0.010192308, 0.014192304, 0.018192312, 0.025192305]
