0 -1
1 -1
2 -1
3 234460
4 234460
5 234460
6 234435
7 234435
8 234435
9 234435
10 234435
11 234435
12 234435
13 234435
14 234410
15 234410
16 312530
17 312555
18 312555
19 312555
20 312555
21 55
22 55
23 55
24 55
25 55
26 55
27 30
28 30
29 5
30 5
31 6
32 6
33 6
34 6
35 6
36 6
37 5
38 5
39 -1
40 5
41 5
42 5
43 0
44 20
45 520
46 520
47 520
48 520
49 520
50 520
51 520
52 520
53 520
54 520
55 521
56 521
57 521
58 2896
59 2271
60 2271
61 2271
62 2271
63 2271
64 2371
65 14496
66 11346
67 -1
68 11345
69 11345
70 56700
71 56730
72 49126
73 49126
74 245650
75 246375
76 290755
77 290755
78 290755
79 47525
80 47525
81 47525
82 46875
83 46875
84 46875
85 237625
86 237625
87 237625
88 237625
89 234375
90 250625
91 250625
92 250625
93 250625
94 -1
