0 [1.0, 1.0, 1.0, 1.0, 1.0, 1.0, 1.0, 1.0]
1 [1.0, 1.0, 1.0, 1.0, 1.0, 1.0, 1.0, 1.0]
2 [1.0, 1.0, 1.0, 1.0, 1.0, 1.0, 1.0, 1.0]
3 [1.0, 1.0, 1.0, 1.0, 1.0, 1.0, 1.0, 1.0]
4 [1.0, 1.0, 1.0, 1.0, 1.0, 1.0, 1.0, 1.0]
5 [1.0, 1.0, 1.0, 1.0, 1.0, 1.0, 1.0, 1.0]
6 [1.0, 1.0, 1.0, 1.0, 1.0, 1.0, 1.0, 1.0]
7 [1.0, 1.0, 1.0, 1.0, 1.0, 1.0, 1.0, 1.0]
8 [1.0, 1.0, 1.0, 1.0, 1.0, 1.0, 1.0, 1.0]
9 [1.0, 1.0, 1.0, 1.0, 1.0, 1.0, 1.0, 1.0]
10 [1.0522535, 1.0070717, 1.0000175, 1.0, 1.0, 1.0, 1.0, 1.0]
11 [1.6938128, 1.0938973, 1.0002327, 1.0, 1.0, 1.0, 1.0, 1.0]
12 [1.5708485, 1.1285523, 1.0072609, 1.0000175, 1.0, 1.0, 1.0, 1.0]
13 [1.9712276, 1.7878337, 1.090786, 1.0002244, 1.0, 1.0, 1.0, 1.0]
14 [2.038817, 1.65409, 1.0711162, 1.0001755, 1.0, 1.0, 1.0, 1.0]
15 [1.8035183, 1.4979188, 1.0539032, 1.000133, 1.0, 1.0, 1.0, 1.0]
16 [1.6084048, 1.3765359, 1.0407486, 1.0001005, 1.0, 1.0, 1.0, 1.0]
17 [1.0012242, 1.2222968, 1.0306132, 1.0000759, 1.0, 1.0, 1.0, 1.0]
18 [0.5665691, 1.1092249, 1.0229913, 1.0000573, 1.0, 1.0, 1.0, 1.0]
19 [0.5780966, 0.31305873, 0.91305727, 0.99978477, 1.0, 1.0, 1.0, 1.0]
20 [-0.09631264, 0.22787488, 0.91366994, 0.99978685, 1.0, 1.0, 1.0, 1.0]
21 [0.10183209, 0.442034, 0.9395549, 0.99985087, 1.0, 1.0, 1.0, 1.0]
22 [0.40722805, 1.234942, 1.0432353, 1.0001078, 1.0, 1.0, 1.0, 1.0]
23 [0.56966335, 1.3096657, 1.0505582, 1.0001256, 1.0, 1.0, 1.0, 1.0]
24 [0.67583305, 1.2420733, 1.0392984, 1.0000978, 1.0, 1.0, 1.0, 1.0]
25 [0.7553101, 1.1832606, 1.0297375, 1.0000739, 1.0, 1.0, 1.0, 1.0]
26 [0.8150713, 1.1385348, 1.022479, 1.0000559, 1.0, 1.0, 1.0, 1.0]
27 [0.86023414, 1.1047041, 1.0169896, 1.0000422, 1.0, 1.0, 1.0, 1.0]
28 [0.89447284, 1.0790546, 1.0128276, 1.0000318, 1.0, 1.0, 1.0, 1.0]
29 [0.8226822, 0.338857, 0.91213286, 0.99978226, 1.0, 1.0, 1.0, 1.0]
30 [0.845451, 0.3293485, 0.9104055, 0.999778, 1.0, 1.0, 1.0, 1.0]
31 [0.90042245, 0.5131706, 0.9347319, 0.99983823, 1.0, 1.0, 1.0, 1.0]
32 [0.92210346, 0.6123859, 0.94800806, 0.99987113, 1.0, 1.0, 1.0, 1.0]
33 [0.9627092, 0.7244563, 0.9627092, 0.99990755, 1.0, 1.0, 1.0, 1.0]
34 [1.0, 1.0, 1.0, 1.0, 1.0, 1.0, 1.0, 1.0]
35 [0.97872025, 0.8427628, 0.97872025, 0.99994725, 1.0, 1.0, 1.0, 1.0]
36 [0.9839171, 0.8811627, 0.9839171, 0.9999601, 1.0, 1.0, 1.0, 1.0]
37 [0.9878448, 0.9101847, 0.9878448, 0.9999699, 1.0, 1.0, 1.0, 1.0]
38 [0.9908225, 0.9321869, 0.9908225, 0.99997723, 1.0, 1.0, 1.0, 1.0]
39 [0.9930638, 0.948748, 0.9930638, 0.99998283, 1.0, 1.0, 1.0, 1.0]
40 [0.9947577, 0.96126455, 0.9947577, 0.999987, 1.0, 1.0, 1.0, 1.0]
41 [0.99604195, 0.9707536, 0.99604195, 0.99999017, 1.0, 1.0, 1.0, 1.0]
42 [0.99700856, 0.9778961, 0.99700856, 0.9999926, 1.0, 1.0, 1.0, 1.0]
43 [1.0, 1.0, 1.0, 1.0, 1.0, 1.0, 1.0, 1.0]
44 [1.0, 1.0, 1.0, 1.0, 1.0, 1.0, 1.0, 1.0]
45 [1.0, 1.0, 1.0, 1.0, 1.0, 1.0, 1.0, 1.0]
46 [1.0, 1.0, 1.0, 1.0, 1.0, 1.0, 1.0, 1.0]
47 [1.0, 1.0, 1.0, 1.0, 1.0, 1.0, 1.0, 1.0]
48 [1.0, 1.0, 1.0, 1.0, 1.0, 1.0, 1.0, 1.0]
49 [1.0, 1.0, 1.0, 1.0, 1.0, 1.0, 1.0, 1.0]
