0 -1
1 -1
2 -1
3 194389
4 387624
5 156295
6 93774
7 156360
8 156374
9 375000
10 312621
11 189039
12 18769
13 171998
14 125071
15 96884
16 96884
17 312501
18 81272
19 312505
20 312510
21 331271
22 234395
23 96879
24 4
25 312520
26 312500
27 62504
28 312500
29 62504
30 62500
31 115629
32 325000
33 12500
34 65000
35 15000
36 2500
37 100
38 3000
39 500
40 4
41 -1
42 312546
43 156800
44 100
45 312800
46 600
47 375031
48 600
49 312604
50 600
51 109
52 600
53 500
54 20
55 3000
56 2620
57 2500
58 13000
59 15000
60 500
61 15000
62 12500
63 75000
64 75000
65 62500
66 390000
67 75000
68 375006
69 -1
70 387500
71 15600
72 312500
73 312500
74 14875
75 77780
76 77805
77 312500
78 2600
79 86721
80 3000
81 3000
82 2655
83 3100
84 2500
85 76614
86 6249
87 158604
88 5498
89 5498
90 2374
91 8748
92 8748
93 2395
94 12492
95 12492
96 62492
97 -1
98 62492
99 11975
100 78117
101 14875
102 388750
103 249895
104 71350
105 77520
106 343755
107 343755
108 350000
109 368750
110 328280
111 153129
112 313305
113 313275
114 62603
115 314231
116 296879
117 296879
118 236852
119 388254
120 86852
121 78004
122 86827
123 109251
124 78004
125 86852
126 -1
127 86852
128 351627
129 314977
130 359379
131 314226
132 388104
133 314231
134 375000
135 218754
136 140625
137 153625
138 231270
139 368750
140 153145
141 153145
142 77500
143 62520
144 75000
145 62500
146 20
147 120
148 312500
149 4
150 387604
151 390604
152 62600
153 375000
154 375020
155 -1
156 140645
157 75000
158 324350
159 68760
160 371875
161 62520
162 75000
163 20
164 140625
165 62500
166 4
167 363250
168 4
169 312619
170 77250
171 78249
172 2500
173 78147
174 312513
175 78139
176 313000
177 312504
178 75500
179 312504
180 12500
181 312504
182 312500
183 2504
184 -1
185 65000
186 62520
187 312500
188 312500
189 312500
190 63000
191 312500
192 3000
193 314000
194 2600
195 312812
196 500
197 15500
198 500
199 12500
200 77500
201 65000
202 2504
203 300775
204 2504
205 388250
206 100
207 2504
208 388004
209 2504
210 249998
211 93605
212 2500
213 -1
214 2500
215 93610
216 315100
217 93610
218 90330
219 93610
220 93610
221 315004
222 249860
223 314625
224 360875
225 81246
226 65500
227 1243
228 1122
229 93600
230 169370
231 124
232 272499
233 93774
234 78149
235 93844
236 156349
237 80488
238 314364
239 313104
240 234474
241 109679
242 -1
243 344109
244 112471
245 874
246 34074
247 4123
248 4999
249 13100
250 1249
251 361500
252 168741
253 314500
254 155580
255 15004
256 389930
257 77524
258 77524
259 234180
260 211968
261 305275
262 71875
263 383400
264 388120
265 387620
266 390430
267 38870
268 389955
269 73754
270 77490
271 -1
272 3000
273 5624
274 13100
275 2520
276 65120
277 93774
278 31814
279 31360
280 347504
281 272504
282 78745
283 388757
284 153756
285 68762
286 76257
287 146899
288 154382
289 154382
290 240647
291 306882
292 306882
293 75024
294 346882
295 78129
296 63106
297 500
298 120
299 4099
300 -1
301 12524
302 313100
303 153370
304 375020
305 315600
306 7824
307 312500
308 312500
309 359843
310 315604
311 500
312 312600
313 4534
