0 [0.0, 0.0, 0.0, 0.0, 0.0, 0.0, 0.0, 0.0]
1 [0.0, 0.0, 0.0, 0.0, 0.0, 0.0, 0.0, 0.0]
2 [0.0, 0.0, 0.0, 0.0, 0.0, 0.0, 0.0, 0.0]
3 [0.0, 0.0, 0.0, 0.0, 0.0, 0.0, 0.0, 0.0]
4 [0.0, 0.0, 0.0, 0.0, 0.0, 0.0, 0.0, 0.0]
5 [0.0, 0.0, 0.0, 0.0, 0.0, 0.0, 0.0, 0.0]
6 [0.0, 0.0, 0.0, 0.0, 0.0, 0.0, 0.0, 0.0]
7 [0.0, 0.0, 0.0, 0.0, 0.0, 0.0, 0.0, 0.0]
8 [0.0, 0.0, 0.0, 0.0, 0.0, 0.0, 0.0, 0.0]
9 [0.0, 0.0, 0.0, 0.0, 0.0, 0.0, 0.0, 0.0]
10 [0.0, 0.0, 0.0, 0.0, 0.0, 0.0, 0.0, 0.0]
11 [0.0, 0.0, 0.0, 0.0, 0.0, 0.0, 0.0, 0.0]
12 [0.0, 0.0, 0.0, 0.0, 0.0, 0.0, 0.0, 0.0]
13 [0.0, 0.0, 0.0, 0.0, 0.0, 0.0, 0.0, 0.0]
14 [0.0, 0.0, 0.0, 0.0, 0.0, 0.0, 0.0, 0.0]
15 [0.0, 0.0, 0.0, 0.0, 0.0, 0.0, 0.0, 0.0]
16 [0.0, 0.0, 0.0, 0.0, 0.0, 0.0, 0.0, 0.0]
17 [0.0, 0.0, 0.0, 0.0, 0.0, 0.0, 0.0, 0.0]
18 [0.0, 0.0, 0.0, 0.0, 0.0, 0.0, 0.0, 0.0]
19 [0.0, 0.0, 0.0, 0.0, 0.0, 0.0, 0.0, 0.0]
20 [0.0, 0.0, 0.0, 0.0, 0.0, 0.0, 0.0, 0.0]
21 [0.0, 0.0, 0.0, 0.0, 0.0, 0.0, 0.0, 0.0]
22 [0.0, 0.0, 0.0, 0.0, 0.0, 0.0, 0.0, 0.0]
23 [0.0, 0.0, 0.0, 0.0, 0.0, 0.0, 0.0, 0.0]
24 [0.0, 0.0, 0.0, 0.0, 0.0, 0.0, 0.0, 0.0]
25 [0.0, 0.0, 0.0, 0.0, 0.0, 0.0, 0.0, 0.0]
26 [0.0, 0.0, 0.0, 0.0, 0.0, 0.0, 0.0, 0.0]
27 [0.0, 0.0, 0.0, 0.0, 0.0, 0.0, 0.0, 0.0]
28 [0.0, 0.0, 0.0, 0.0, 0.0, 0.0, 0.0, 0.0]
29 [0.0, 0.0, 0.0, 0.0, 0.0, 0.0, 0.0, 0.0]
30 [0.0, 0.0, 0.0, 0.96544415, 0.95701545, 0.0, 0.0, 0.0]
31 [0.95082927, 0.0, 0.0, 0.0, 0.9607105, 0.0, 0.0, 0.0]
32 [0.93273085, 0.0, 0.0, 0.0, 0.9572915, 0.0, 0.0, 0.0]
33 [0.9114118, 0.0, 0.0, 0.0, 0.9333992, 0.921559, 0.0, 0.0]
34 [0.9070068, 0.0, 0.0, 0.0, 0.91357476, 0.9230938, 0.0, 0.0]
35 [0.92057425, 0.0, 0.0, 0.0, 0.0, 0.913726, 0.0, 0.0]
36 [0.92352134, 0.0, 0.0, 0.0, 0.0, 0.9052308, 0.0, 0.0]
37 [0.9243493, 0.0, 0.0, 0.0, 0.0, 0.8977275, 0.9556693, 0.0]
38 [0.9234757, 0.0, 0.0, 0.0, 0.0, 0.880466, 0.8927685, 0.0]
39 [0.9203376, 0.0, 0.0, 0.0, 0.0, 0.85950136, 0.8548903, 0.0]
40 [0.9175854, 0.0, 0.0, 0.0, 0.0, 0.84731144, 0.8536499, 0.0]
41 [0.9119403, 0.9593001, 0.0, 0.0, 0.0, 0.0, 0.8535032, 0.0]
42 [0.91027194, 0.9546512, 0.0, 0.0, 0.0, 0.0, 0.8485603, 0.0]
43 [0.9078413, 0.94965583, 0.0, 0.0, 0.0, 0.0, 0.8423668, 0.0]
44 [0.90686095, 0.94996446, 0.0, 0.0, 0.0, 0.97867155, 0.83123904, 0.0]
45 [0.90686095, 0.94996446, 0.0, 0.0, 0.0, 0.97867155, 0.83123904, 0.0]
46 [0.9102413, 0.9655706, 0.0, 0.0, 0.0, 0.9703248, 0.8172089, 0.0]
47 [0.9142208, 0.0, 0.0, 0.9950689, 0.0, 0.95762277, 0.79554856, 0.0]
48 [0.915583, 0.0, 0.0, 0.98293614, 0.0, 0.7766832, 0.7825598, 0.0]
49 [0.9167242, 0.0, 0.0, 0.9701073, 0.0, 0.76882917, 0.77018267, 0.0]
