0 -1
1 -1
2 -1
3 -1
4 -1
5 -1
6 -1
7 -1
8 -1
9 1329384
10 1174975
11 1329379
12 1174875
13 1328754
14 1174375
15 1328754
16 1174379
17 1173389
18 1254379
19 1174751
20 1174784
21 1175784
22 1493750
23 1484376
24 1184479
25 1175194
26 1179179
27 1176779
28 1178449
29 1186279
30 1210324
31 1226722
32 1184395
33 1418770
34 1484375
35 1236875
36 1414991
37 1468850
38 1546875
39 1546975
40 1418576
41 1418576
42 1093750
43 -1
44 1311634
45 1174375
46 1480143
47 1173853
48 1497621
49 1484375
50 1184499
51 1550061
52 703125
53 522184
54 765779
55 391225
56 484980
57 465629
58 1484875
59 1234376
60 1484525
61 1484531
62 736186
63 703906
64 703282
65 703125
66 703125
67 703277
68 703277
69 703276
70 718149
71 703125
72 750151
73 759753
74 734525
75 391229
76 734400
77 390629
78 468770
79 1184379
80 1250605
81 1234879
82 781795
83 784250
84 1234875
85 1177984
86 1184289
87 449763
88 703125
89 703125
90 -1
91 703125
92 312500
93 312500
94 1165663
95 1162524
96 1128137
97 1093750
98 1143756
99 1159412
100 1093750
101 1096877
102 1159413
103 1093750
104 1028129
105 1006289
106 1084413
107 1012502
108 1084413
109 1006877
110 1162538
111 1015002
112 1162538
113 1084413
114 1099200
115 1093750
116 -1
117 946718
118 1109374
119 934414
120 919419
121 749149
122 763794
123 741149
124 724204
125 726257
126 726882
127 703125
128 1484375
129 1543638
130 1556253
131 1325375
132 1249364
133 1247250
134 1249364
135 1247250
136 1249709
137 1247350
138 1249408
139 1421750
140 1186878
141 1186878
142 1186893
143 1281127
144 1187394
145 -1
146 1187394
147 1507750
148 1524876
149 1187493
150 1540501
151 1561899
152 1540600
153 1485931
154 1521075
155 1521075
156 1484387
157 1485006
158 1540631
159 1521100
160 1500001
161 1484375
162 1234375
163 1171999
164 1384350
165 1172499
166 1171879
167 1172499
168 1484379
169 1172249
170 1547475
171 1174905
172 1174495
173 1546875
174 1174465
175 1546875
176 1546875
177 793850
178 1096250
179 1156425
180 1109379
181 1106250
182 1093750
183 1093812
184 1093825
185 781374
186 1093750
187 1151968
188 1093780
189 1171309
