0.14999999 1.0499998
0.14982545 1.0501714
0.14970954 1.0500226
0.14912365 1.0502297
0.14651033 1.0508305
0.1447612 1.0508053
0.14304784 1.0446784
0.1422703 1.0402769
0.14167355 1.027255
0.14345431 1.0168862
0.14345431 1.0168862
0.15659997 0.98159444
0.15659997 0.98159444
0.1763355 0.9475662
0.18404546 0.9352708
0.20189634 0.9054306
0.20189634 0.9054306
0.22856534 0.8546669
0.23653097 0.839534
0.24851783 0.8165417
0.24851783 0.8165417
0.26900294 0.7710934
0.26900294 0.7710934
0.28219712 0.7399382
0.28770903 0.726208
0.2917452 0.7161385
0.2917452 0.7161385
0.29528672 0.70631194
0.2984089 0.69550884
0.30089256 0.68446124
0.30299583 0.6732879
0.3046046 0.66209733
0.30557528 0.65238315
0.30557528 0.65238315
0.3058676 0.6424513
0.30555308 0.6332488
0.3054297 0.6264611
0.3054297 0.6264611
0.3054297 0.6264611
0.3054084 0.6205177
0.3054084 0.6205177
0.30558842 0.608311
0.30586773 0.602774
0.30586773 0.602774
0.3059809 0.5982861
0.30514604 0.5933124
0.30244297 0.5868274
0.29040444 0.5693519
0.29040444 0.5693519
0.27245742 0.55066884
0.26206177 0.5410841
0.2440999 0.5258335
0.23550434 0.51976234
0.22577147 0.51399726
0.20388968 0.5035203
0.19216299 0.4986969
0.16962272 0.4915259
0.15885526 0.48935127
0.13637339 0.48597926
0.123127 0.48546743
0.107614316 0.48681015
0.09091562 0.490342
0.053783208 0.50473785
0.053783208 0.50473785
0.053783208 0.50473785
0.017173529 0.5261923
0.017173529 0.5261923
-0.01225493 0.54714406
-0.031406 0.5627702
-0.031406 0.5627702
-0.04603201 0.5782107
-0.059123278 0.5949812
-0.065183 0.6034135
-0.07592166 0.6200342
-0.07592166 0.6200342
-0.08464328 0.6364578
-0.08834889 0.6444799
-0.091687 0.6520575
-0.09484549 0.65923053
-0.09484549 0.65923053
-0.09824801 0.66594785
-0.10259489 0.67195284
-0.10259489 0.67195284
-0.10616086 0.67836857
-0.10821271 0.6854232
-0.109779 0.69214326
-0.109779 0.69214326
-0.11113582 0.6982766
-0.11229205 0.704404
-0.11291313 0.71035016
-0.11291313 0.71035016
-0.11290618 0.7159372
-0.11097089 0.72057706
-0.10746469 0.7238933
-0.10238 0.72561574
-0.096707866 0.72596186
-0.09091458 0.7249696
-0.09091458 0.7249696
-0.085310094 0.7229976
-0.08019237 0.720226
-0.08019237 0.720226
-0.07516052 0.71684784
-0.07020654 0.71296126
-0.065836504 0.7087296
-0.061715074 0.7041071
-0.061715074 0.7041071
-0.057632722 0.69895875
-0.05343335 0.6934637
-0.04961521 0.6880095
-0.04961521 0.6880095
-0.046445385 0.68400097
-0.040504802 0.67709917
-0.038354512 0.6711001
-0.036581486 0.65769655
-0.037004963 0.6507597
-0.039119802 0.6353897
-0.041558396 0.62734705
-0.04987807 0.6109656
-0.05585743 0.6025946
-0.06995428 0.58660734
-0.07530267 0.5811601
-0.08012079 0.57693297
-0.088634446 0.5697411
-0.0959683 0.56471467
-0.112065434 0.55467683
-0.11626117 0.55155903
-0.12376517 0.5459891
-0.12737429 0.5429009
-0.13358504 0.53601265
-0.13606963 0.53244185
-0.13806583 0.5287808
-0.14038666 0.52021515
-0.1408871 0.5149876
-0.14149328 0.50247484
-0.1425052 0.49514556
-0.14710543 0.481203
-0.15059549 0.47598094
-0.15988478 0.47079292
-0.16479109 0.47111344
-0.1732296 0.4765412
-0.17654814 0.4811905
-0.17977646 0.48652428
-0.18481876 0.49881926
-0.18629278 0.5046252
-0.18746963 0.5151738
-0.18702605 0.5199067
-0.18449059 0.5281875
-0.18254465 0.53182185
-0.17754893 0.5378792
-0.17475165 0.5412764
-0.17172185 0.5447452
-0.16148886 0.5523748
-0.15558174 0.55566764
-0.14210111 0.5621161
-0.1350808 0.56514204
-0.11761783 0.5695997
-0.108368255 0.5702446
-0.09076029 0.5686773
-0.083074704 0.56712735
-0.070638224 0.56368893
-0.06564473 0.56190854
-0.06109191 0.5598011
-0.04793071 0.55145484
-0.041079637 0.54671234
-0.034343258 0.5420249
-0.02948844 0.5378188
-0.017884193 0.52685404
-0.014071648 0.52267206
-0.010509556 0.518221
-0.005377027 0.5129522
0.011983203 0.49667054
0.021345612 0.48782247
0.02927408 0.48022002
0.03869153 0.47067994
0.044576373 0.46515575
0.058423586 0.4532806
0.06540711 0.4474462
0.07855221 0.43647337
0.08446995 0.43149853
0.090122595 0.4230648
0.09115895 0.41866964
0.091446646 0.4137822
0.09272675 0.40412775
0.09510811 0.40046534
0.10195382 0.39415258
0.105696104 0.3920505
0.11200915 0.38779467
0.11499629 0.38564235
0.122456156 0.38235444
0.12651047 0.3810836
0.13384913 0.37889516
0.13690025 0.37808365
0.1396712 0.37879556
0.14530338 0.38252276
0.14842297 0.38498968
0.15389597 0.39083737
0.15509361 0.39526427
0.15518609 0.40656787
0.15451309 0.41326275
0.151465 0.42605647
0.14858551 0.43188366
0.14435323 0.43770033
0.13360369 0.44914323
0.12761775 0.4546364
0.1153267 0.46479654
0.11029676 0.46952596
0.104314014 0.47892517
0.104113735 0.48452538
0.10136974 0.49420485
0.09889326 0.49912184
0.09102756 0.5068418
0.08609373 0.50889695
0.08082304 0.5094019
0.070423245 0.5041756
0.06572823 0.4991526
0.056999743 0.49227437
0.05374617 0.487523
0.050616045 0.47370702
0.051219545 0.465443
0.056681354 0.44815937
0.062266827 0.4382801
0.0695339 0.42776638
0.080523625 0.41220087
0.086080074 0.4050985
0.096992716 0.391982
0.10201313 0.38586366
0.11130043 0.3761478
0.1157261 0.37259665
0.12394251 0.36741698
0.12810485 0.36568803
0.13733433 0.36280546
0.14237204 0.3613663
0.14754425 0.36000633
0.1578245 0.35769582
0.16370001 0.3582819
0.17798214 0.36229774
0.18620834 0.36656958
0.20297596 0.37952
0.21116975 0.3881372
0.22744367 0.4096114
0.23410806 0.41971812
0.24150541 0.43133345
0.24390459 0.4349764
0.24660611 0.43881994
0.25518256 0.4527127
0.26009244 0.46223363
0.26603353 0.47403294
0.2675604 0.47653866
0.27178973 0.48690128
0.27420276 0.49485427
0.27720323 0.50507545
0.27886215 0.51021343
0.28029495 0.51389134
0.28208417 0.5171135
0.28241795 0.51755273
0.28330877 0.5195953
0.28394952 0.5209942
0.28424352 0.52155197
0.28424165 0.52153945
0.28425235 0.5215418
0.28463122 0.5232297
0.28587535 0.5319768
0.28599977 0.5327616
0.28571066 0.5332943
0.28632534 0.5334948
0.2866631 0.53207445
0.28784364 0.5305769
0.28896093 0.5300865
0.29221776 0.5286676
0.29368812 0.527212
0.29590195 0.527281
0.2975395 0.52592325
0.30054194 0.5218581
0.3014564 0.5201457
0.30242622 0.5186671
0.30502275 0.51655954
0.30533338 0.51827306
0.30375344 0.5270437
0.30300072 0.53018534
0.2991914 0.54150486
0.2960524 0.54987544
0.28870156 0.5689199
0.2845189 0.5792762
0.28015757 0.58997345
0.27102712 0.61191165
0.26627904 0.6226975
0.25917947 0.63928616
0.25502127 0.64718795
0.2462279 0.662479
0.24191931 0.6696127
0.23370366 0.6826774
0.23223834 0.68828714
0.23292789 0.69894373
0.23241277 0.7040326
0.23079327 0.7087163
0.22259803 0.7150498
0.21766417 0.7177648
0.20965604 0.7248281
0.2062346 0.728502
0.1974313 0.7308182
0.19250585 0.7298254
0.18314736 0.7276234
0.17906104 0.7270493
0.17539524 0.7269412
0.16788116 0.72675604
0.16368444 0.7260736
0.15566245 0.7218503
0.15177353 0.7184256
0.1441847 0.7102822
0.14030714 0.70645255
0.13649236 0.69731367
0.1351698 0.69223005
0.1333072 0.68152624
0.13352361 0.6765585
0.13462582 0.67209727
0.13911815 0.6653831
0.14390332 0.6636609
0.15515366 0.66374713
0.16203596 0.66603935
0.17753103 0.6749755
0.18573138 0.6810355
0.20261662 0.6957495
0.2106371 0.70392287
0.2177486 0.71221924
0.22838208 0.7284251
0.23206489 0.7367128
0.23684752 0.7556959
0.23785312 0.76687324
0.23671171 0.79257095
0.23453906 0.80731356
0.22782418 0.8390918
0.2245233 0.8532317
0.21981534 0.8727263
0.21657705 0.8839
0.21379706 0.8935009
0.21041282 0.90625143
0.208517 0.91283834
0.20412743 0.9266449
0.20027713 0.9345875
0.18892698 0.95055467
0.18350363 0.95683306
0.17245188 0.968579
0.1686177 0.9734374
0.16266799 0.98092306
0.15998392 0.9846228
0.1574963 0.9882695
0.15171696 0.99415016
0.14701056 0.99709666
0.13651088 1.0016549
0.12962818 1.002998
0.10938039 1.0036801
0.097453095 1.0027936
0.07307543 0.9987151
0.061065443 0.9952046
0.051066615 0.99214953
0.03951428 0.9890254
0.034866255 0.98768187
0.025501067 0.9854743
0.021615867 0.9844961
0.014376575 0.982479
0.010701187 0.9815854
0.005753069 0.98000956
0.003724334 0.9792951
1.9553646E-4 0.97765845
-5.5384065E-4 0.97712755
-5.5384065E-4 0.97712755
-0.0019457048 0.976651
-0.0032584306 0.9764334
-0.0048318747 0.97626257
-0.009621934 0.9752594
-0.0124208275 0.97360003
-0.0124208275 0.97360003
-0.0148392515 0.9719021
-0.016782884 0.96997845
-0.016782884 0.96997845
-0.018651808 0.9680564
-0.020974029 0.96606934
-0.023462795 0.96385604
-0.023462795 0.96385604
-0.026271045 0.961517
-0.029320028 0.959185
-0.03207505 0.95902425
-0.03207505 0.95902425
-0.037854176 0.95493907
-0.037854176 0.95493907
-0.037854176 0.95493907
-0.04322327 0.9408552
-0.04322327 0.9408552
-0.045423888 0.9188709
-0.045233462 0.9062017
-0.044581275 0.8950497
-0.043216463 0.8833494
-0.03709785 0.85353154
-0.03268261 0.8378025
-0.027807126 0.82197094
-0.016022846 0.79121935
-0.009090282 0.77691495
0.0071776486 0.752113
0.016203377 0.7413134
0.036163036 0.7221663
0.047521804 0.713462
0.07234945 0.6967727
0.08133609 0.69111526
0.09805089 0.68107045
0.10641835 0.67580485
0.114748694 0.6703659
0.13079485 0.65976703
0.13829777 0.6547425
0.1516141 0.64590764
0.1579953 0.6423272
0.17118534 0.63631696
0.17637758 0.6333722
0.18695763 0.6288847
0.19347015 0.62786365
0.20930937 0.6299688
0.21817322 0.63302875
0.22765048 0.63763815
0.24752171 0.6512118
0.25797588 0.660034
0.27964854 0.68026996
0.29043964 0.69125265
0.3075528 0.7099015
0.31510657 0.71997315
0.3292702 0.7432416
0.3356447 0.75555974
0.34099588 0.76677763
0.3483329 0.787778
0.350877 0.7995459
0.35357386 0.82399064
0.35381097 0.83619344
0.35225612 0.8592353
0.35107574 0.8693608
0.3472939 0.8880029
0.34455737 0.8967527
0.33905837 0.9128343
0.33625594 0.91973484
0.3330397 0.92590445
0.32495758 0.9357045
0.32072988 0.9395526
0.3132876 0.94594157
0.30988988 0.94850314
0.30292955 0.95141953
0.2983167 0.94924414
0.28915167 0.93769616
0.28546506 0.92994815
0.28195867 0.92112637
0.27582678 0.90370214
0.27321613 0.8976461
0.27060312 0.8855187
0.27001685 0.8799308
0.26907724 0.86822253
0.26887405 0.8620884
0.26815015 0.8500865
0.26752415 0.8443386
0.26532033 0.8326434
0.26381582 0.82647276
0.26213187 0.8199045
0.26445234 0.8076682
0.26752397 0.80164325
0.2751055 0.7894114
0.27952698 0.78387964
0.28998548 0.77655995
0.29621574 0.775715
0.30851388 0.77646327
0.31410295 0.77747786
0.31879848 0.77907896
0.3277534 0.7841266
0.33213454 0.78749955
0.3395164 0.7944335
0.34335268 0.79833466
0.35204488 0.80752337
0.35618526 0.81322765
0.36189467 0.82742465
0.36292967 0.83547276
0.36239672 0.8538067
0.36032957 0.86382914
0.35609025 0.87401086
0.3417017 0.89384997
0.33192077 0.89973754
0.31161088 0.90039366
0.30300763 0.89739484
0.28893816 0.88610315
0.28416574 0.87888324
0.28136855 0.8629856
0.28149927 0.85431385
0.2826979 0.8450519
0.28782788 0.82573235
0.2917019 0.8162921
0.30303198 0.7995403
0.31014138 0.7929037
0.32519907 0.7852761
0.3331726 0.78324217
0.35103667 0.782612
0.3582062 0.7858728
0.36979032 0.7960358
0.37357873 0.80205595
0.37579045 0.8087651
0.37527665 0.823156
0.37260512 0.82997644
0.36565953 0.8421817
0.36222684 0.8477864
0.35534683 0.85818243
0.351483 0.8629567
0.34111392 0.87183475
0.33472914 0.8759964
0.31850785 0.88363135
0.30935174 0.8857273
0.30076006 0.8859086
0.2871099 0.88126564
0.28183684 0.8772731
0.2724834 0.86777145
0.2683135 0.8627741
0.26035267 0.84966993
0.25734922 0.8420488
0.25485036 0.82696104
0.25504327 0.818771
0.25631273 0.81003463
0.26280397 0.7933078
0.26748338 0.78702426
0.2786197 0.7814961
0.2843332 0.7822163
0.2958496 0.7874264
0.30138224 0.7915339
0.3124512 0.80174315
0.3183799 0.8078251
0.3299095 0.823246
0.33354613 0.8328022
0.33627272 0.8438347
0.3379513 0.8708869
0.33561176 0.8851676
0.32475024 0.91223085
0.3161605 0.9258068
0.29436547 0.9457704
0.28169593 0.9530527
0.25579756 0.96058863
0.24179015 0.96070814
0.22943337 0.95811355
0.20973682 0.9473426
0.2019969 0.94058836
0.1924991 0.925341
0.18993032 0.91785973
0.18754521 0.9039019
0.1882168 0.8983572
0.19339341 0.89001465
0.1983464 0.8895159
0.21048513 0.89761627
0.21655591 0.90491694
0.22223529 0.9134086
0.23144412 0.9277385
0.23512764 0.93369406
0.24258256 0.94442713
0.2463239 0.94991124
0.2520799 0.9615779
0.25417596 0.96689737
0.2573226 0.9768707
0.2573946 0.9815361
0.25436872 0.99083006
0.25191563 0.9955572
0.24801424 0.99930507
0.23705189 1.0031865
0.23059721 1.0034872
0.21699412 1.002603
0.21072976 1.0012372
0.19705178 0.99244374
0.19058475 0.98609227
0.1805432 0.9714223
0.17703637 0.9637173
0.17444989 0.95576745
0.17188466 0.9383591
0.17178878 0.9266445
0.17472503 0.9001651
0.17767319 0.88561857
0.1848006 0.8553673
0.18912412 0.84015846
0.20199856 0.80477107
0.20826463 0.78858334
0.21697381 0.76670754
0.22208214 0.7553242
0.22608884 0.74554724
0.23029888 0.73371994
0.23202094 0.72946745
0.23515768 0.72169334
0.23668067 0.7176979
0.2392577 0.7103773
0.24028616 0.7065153
0.24156478 0.698907
0.24137458 0.6951298
0.24050446 0.6913599
0.23706701 0.68328726
0.23484471 0.6783763
0.23042306 0.66656995
0.22856784 0.659493
0.22560188 0.643915
0.22485344 0.636104
0.22501239 0.62081844
0.22640736 0.61276317
0.2324918 0.59593815
0.23652348 0.58772504
0.24127476 0.57954895
0.2546876 0.563616
0.26358104 0.55658615
0.2872498 0.5427353
0.30001593 0.5376725
0.32718167 0.53323996
0.341801 0.5344223
0.3630312 0.5444387
0.36942795 0.5515743
0.37470266 0.55901897
0.38215584 0.57474387
0.38339978 0.58171415
0.37842375 0.5905873
0.37352937 0.59178346
0.3621806 0.5886907
0.355819 0.58399105
0.34551328 0.57734907
0.34083968 0.5727716
0.33174688 0.5637826
0.3275613 0.5594692
0.3239357 0.55555815
0.3182489 0.54848003
0.3182489 0.54848003
0.3196126 0.53043926
0.32332847 0.52311707
0.33551425 0.50804603
0.3451716 0.49945623
0.37037268 0.48190865
0.38431424 0.47402978
0.3986428 0.4669439
0.4292221 0.45372233
0.4450968 0.44759122
0.47686425 0.4378933
0.4924504 0.43469462
0.523769 0.43101197
0.53858846 0.43044916
0.5659276 0.43196592
0.5785545 0.43391505
0.6017796 0.44068137
0.61228573 0.4452319
0.6218401 0.44988808
0.6389891 0.46008125
0.64644736 0.4662466
0.65784085 0.47824946
0.6625205 0.4840088
0.6693496 0.4956754
0.6714848 0.50163335
0.67557526 0.51472664
0.6779772 0.5223574
0.68139946 0.5387161
0.6816706 0.5470762
0.6809925 0.55602866
0.6765429 0.57750696
0.6715363 0.5893591
0.6545274 0.61034095
0.64348656 0.61943144
0.6192619 0.62917376
0.6083116 0.6287557
0.5873159 0.62356067
0.57646096 0.619477
0.56597465 0.6141468
0.54618704 0.5979625
0.53799736 0.5868429
0.5247451 0.5566975
0.52112734 0.5390512
0.5254962 0.50959975
0.5317935 0.49728355
0.5519709 0.47441736
0.5648424 0.4671622
0.59183884 0.46197337
0.6063494 0.4620692
0.62058383 0.4640676
0.64381874 0.474226
0.6540981 0.482659
0.6710013 0.50404507
0.6769205 0.5160286
0.68020505 0.53710526
0.6774567 0.54439473
0.6730641 0.5502012
0.6604365 0.5590497
0.6604365 0.5590497
0.63801026 0.5643809
0.6307489 0.5652355
0.6182797 0.5627415
0.6136521 0.5598601
0.6077837 0.5527266
0.60818267 0.5478176
0.6172187 0.53688276
0.6243466 0.5315161
0.64115137 0.52245855
0.6500739 0.5188248
0.65948 0.5159832
0.6780861 0.5125001
0.68691504 0.5112199
0.7007967 0.50450003
0.70783716 0.50215304
0.7213242 0.4978233
0.72821146 0.49555713
0.74079895 0.49446648
0.746035 0.49588996
0.75476515 0.5002254
0.7591227 0.50317454
0.763605 0.5066313
0.7737365 0.5153848
0.7800995 0.52086365
0.7893343 0.5339217
0.79065263 0.54046917
0.78551537 0.55068356
0.78124744 0.5548084
0.7717753 0.56044924
0.7665429 0.56281507
0.76128685 0.56626683
0.7511767 0.57397336
0.7458721 0.57607377
0.7345411 0.5778197
0.72833985 0.57763106
0.718857 0.57259464
0.7160261 0.56839424
0.7152478 0.557614
0.71697986 0.5517754
0.72461015 0.54082817
0.73142695 0.5350194
0.73735225 0.5299435
0.749493 0.5219045
0.7550161 0.51912856
0.7628583 0.51506585
0.76428294 0.5133342
0.764428 0.50984585
0.764428 0.50984585
0.7655579 0.5037008
0.76617825 0.5011454
0.7666861 0.4981193
0.7678291 0.49205136
0.7685919 0.4892022
0.7709712 0.48245746
0.7728052 0.4787971
0.77811867 0.47079405
0.7816222 0.466532
0.79052585 0.4572124
0.79626256 0.45275688
0.8113879 0.4453157
0.82047826 0.4430541
0.8307288 0.44165516
0.8550688 0.44256645
0.8680452 0.4462951
0.88605577 0.46155414
0.8910788 0.47157827
0.893627 0.4941238
0.8915914 0.5065222
0.87917787 0.5283784
0.86960536 0.53349566
0.8591418 0.5337692
0.83512574 0.5337559
0.8243123 0.5297452
0.81127846 0.5147972
0.80864125 0.50417745
0.80474293 0.48009714
0.80030185 0.4661799
0.8042714 0.4381164
0.8106941 0.42580944
0.82860154 0.40941328
0.8387183 0.40225992
0.8507457 0.396281
0.8781065 0.3815828
0.8922135 0.3820188
0.92122304 0.3926618
0.93369687 0.40255317
0.9511169 0.4302141
0.9569691 0.44735163
0.9584977 0.48144087
0.953941 0.49404567
0.9468347 0.5057355
0.9277693 0.5234477
0.91685045 0.52832854
0.88932 0.53191024
0.8742713 0.5297499
0.846491 0.5151507
0.8359577 0.50385034
0.82130796 0.47587723
0.8197557 0.46263257
0.8280856 0.43581218
0.8367859 0.42211905
0.8427045 0.40447602
0.8685055 0.38512665
0.8845848 0.3816929
0.90820456 0.39020893
0.9172435 0.39843622
0.938124 0.4225065
0.9476671 0.4376789
0.95855415 0.46958408
0.95787394 0.48569837
0.9530225 0.5176164
0.9453821 0.52877414
0.9344897 0.5388541
0.9215609 0.5474516
0.89460915 0.5522059
0.88235474 0.54999614
0.8700899 0.54637283
0.8700899 0.54637283
0.8554416 0.5417665
0.840802 0.53479135
0.840802 0.53479135
0.82686484 0.5258389
0.80751497 0.5030514
0.80751497 0.5030514
0.79996514 0.47734746
0.8000123 0.4652297
0.8017675 0.45365587
0.80475396 0.4421226
0.80475396 0.4421226
0.80854833 0.43053317
0.8188054 0.40923554
0.8188054 0.40923554
0.8251358 0.40126157
0.83202916 0.3943436
0.83202916 0.3943436
0.846056 0.38255116
0.846056 0.38255116
0.85314196 0.37722534
0.8601413 0.37216154
0.8601413 0.37216154
0.8672358 0.36730066
0.8741906 0.36252588
0.8741906 0.36252588
0.88001853 0.35905746
0.8838453 0.35758787
0.88527966 0.36047667
0.8823922 0.3647003
0.8823922 0.3647003
0.87297344 0.37406567
0.8658511 0.3795548
0.8419913 0.3958051
0.8286408 0.40411392
0.81864166 0.41017604
0.8065812 0.41662884
0.8014075 0.4188451
0.7890961 0.42386514
0.7798959 0.42850685
0.76015735 0.43981495
0.7505977 0.4460461
0.7323038 0.46025315
0.72523797 0.466237
0.7190684 0.47152415
0.70654166 0.4821642
0.7004276 0.48726755
0.689204 0.49644217
0.68385303 0.50000554
0.67350924 0.5055324
0.66822374 0.50752443
0.65916604 0.51556563
0.65544957 0.52005535
0.6473051 0.5281623
0.64229566 0.5323125
0.6382902 0.5375566
0.6351073 0.54952705
0.6352849 0.5551995
0.6392627 0.5649297
0.64255726 0.5687436
0.6529516 0.5732621
0.65934557 0.5738111
0.67154396 0.5735958
0.6778722 0.57287115
0.6887131 0.5700926
0.69431794 0.5667709
0.7008358 0.5612852
0.71153796 0.54952633
0.7154737 0.5445008
0.7248801 0.5298859
0.72850186 0.5233021
0.733909 0.5118886
0.7366076 0.5059851
0.74133694 0.48871312
0.7425617 0.4787836
0.74325883 0.46942583
0.7434155 0.45443106
0.7425161 0.44632754
0.7369995 0.42343488
0.7330179 0.41074523
0.72338736 0.3846318
0.71787983 0.37182683
0.7052778 0.3474844
0.6985551 0.33648604
0.6852794 0.31752384
0.67905766 0.30940998
0.6729632 0.30200124
0.65958625 0.2887637
0.65292525 0.28291607
0.6408401 0.27145946
0.6344635 0.26580206
0.62034756 0.25827655
0.61346316 0.2553143
0.5983563 0.24928065
0.5894636 0.24722007
0.5796865 0.2465579
0.55766046 0.24943364
0.54557 0.25333816
0.52385557 0.2692232
0.5145932 0.28024828
0.49875623 0.30747375
0.49433655 0.3224399
0.4910038 0.35478076
0.49208063 0.37211198
0.5005419 0.4003939
0.50731164 0.40837136
0.5142723 0.41206965
0.52638656 0.41119823
0.53109854 0.40858418
0.53845775 0.40257627
0.54104775 0.3993694
0.5445179 0.393117
0.54538625 0.39047912
0.54669464 0.3860967
0.5470525 0.38457358
0.5471256 0.38339317
0.54201996 0.3802725
0.5360248 0.37822837
0.5168561 0.37358695
0.50572854 0.3718247
0.48282695 0.36949882
0.47149786 0.36887795
0.45018142 0.3680803
0.44179338 0.36802673
0.4286034 0.3675118
0.42341763 0.36683357
0.4086988 0.3623957
0.39908892 0.3583979
0.38778108 0.35299593
0.36365727 0.33842048
0.35377115 0.33154565
0.3416945 0.32229698
0.33444458 0.31621563
0.31453967 0.29901236
0.30762383 0.2928053
0.29436645 0.281235
0.28723067 0.27502102
0.28135467 0.26997176
0.27440184 0.26463145
0.27286035 0.26360306
0.27181554 0.26287958
0.2694356 0.26056486
0.257997 0.2487799
0.24912271 0.23874883
0.22574091 0.21097684
0.21361485 0.19612528
0.19445659 0.17271796
0.18843468 0.16537547
0.18342802 0.15946952
0.16874094 0.14126961
0.15911749 0.12951334
0.14013252 0.105911635
0.1306286 0.09445391
0.11228361 0.07255487
0.10323866 0.0626901
0.0850697 0.04656779
0.07526867 0.038796008
0.05858659 0.026425341
0.05130186 0.021921035
0.044367287 0.017916452
0.030261084 0.010775446
0.023277996 0.0073520727
0.014070424 7.339837E-4
0.01037839 -0.002399222
0.0020699059 -0.0076680095
-0.0020728074 -0.010055406
-0.010238233 -0.014057857
-0.013922134 -0.015575905
-0.017225865 -0.016656402
-0.023490038 -0.018072885
-0.026082013 -0.018134924
-0.03228481 -0.018503543
-0.03585187 -0.018802904
-0.044104956 -0.019420873
-0.048731297 -0.017820915
-0.05597924 -0.010590937
-0.05826546 -0.0042479117
-0.062358312 0.0058844984
-0.06347524 0.011600511
-0.063166514 0.018570032
-0.06161211 0.03195498
-0.059266496 0.039803173
-0.050716907 0.05511694
-0.045704283 0.062242668
-0.03725409 0.074747264
-0.03332243 0.080335446
-0.024614159 0.0894264
-0.019534597 0.09259124
-0.015398075 0.09537185
-0.0080672335 0.10077144
-0.0022462762 0.10220967
0.012664924 0.10115103
0.020873671 0.09879785
0.038510907 0.09210604
0.046393514 0.08861776
0.06011956 0.080946214
0.06580699 0.076754004
0.075901605 0.06459623
0.079761006 0.05769707
0.08265379 0.052421004
0.08812687 0.04061539
0.09072959 0.0327294
0.094170064 0.022068616
0.09600173 0.016376194
0.09998404 0.0053612143
0.10209882 -1.4154753E-4
0.10655967 -0.010203766
0.109224245 -0.014863817
0.11122652 -0.020285675
0.11307202 -0.030885136
0.11237977 -0.03617196
0.108697966 -0.0472238
0.10664854 -0.052734572
0.10343081 -0.06344445
0.10269805 -0.06820495
0.10208464 -0.07665051
0.10179601 -0.080092564
0.100575015 -0.08640445
0.09880951 -0.088410266
0.09483757 -0.0886984
0.081841074 -0.0838132
0.075384036 -0.07981248
0.06553175 -0.07267813
0.06282474 -0.07113899
0.058134682 -0.069311
0.05635009 -0.06966845
0.053176183 -0.07087204
0.051802445 -0.07118728
0.050939105 -0.07142784
0.050091624 -0.07184134
0.04984507 -0.07191661
0.04787059 -0.07107177
0.046518963 -0.06938711
0.042678505 -0.060890634
0.039553624 -0.052932054
0.031129286 -0.026923096
0.026014 -0.008709637
0.016158286 0.028721219
0.010829287 0.04788138
0.0052201324 0.06710954
-0.0060606194 0.1048504
-0.011549832 0.12336522
-0.021654857 0.15801953
-0.025358435 0.17083266
-0.032185026 0.19538653
-0.036693573 0.21025929
-0.043558635 0.23243022
-0.045227252 0.23816136
-0.045695804 0.24031214
-0.045681044 0.24008854
-0.045803726 0.23964563
-0.04676143 0.23826003
-0.047720782 0.23742178
-0.049881425 0.23535168
-0.050619226 0.23325273
-0.051002372 0.22733085
-0.05066496 0.22412987
-0.049023468 0.2200937
-0.048337117 0.22163
-0.0475894 0.22408143
-0.04534904 0.22779481
-0.04408729 0.22819003
-0.0418428 0.23069258
-0.04028058 0.23136267
-0.037473097 0.23224142
-0.036435243 0.23279202
-0.0375861 0.23905747
-0.038881965 0.24322467
-0.041357554 0.25147825
-0.042433254 0.25578776
-0.043749686 0.26099125
-0.052918535 0.27743647
-0.0610272 0.28751323
-0.086353414 0.3117811
-0.09890498 0.32302243
-0.11322131 0.3362307
-0.116867885 0.33935717
-0.12560669 0.34532577
-0.12988614 0.3489238
-0.13398285 0.35263094
-0.14071554 0.36029655
-0.14263418 0.3639443
-0.14333746 0.37140602
-0.14047542 0.37545386
-0.13217682 0.3837462
-0.12907642 0.38830915
-0.12867156 0.39618045
-0.13288514 0.39812154
-0.14744213 0.39606565
-0.1561853 0.39206034
-0.16524439 0.3863663
-0.18471311 0.36908072
-0.19553638 0.35699937
-0.21692841 0.32983053
-0.2268981 0.31536
-0.24463084 0.28539455
-0.25129288 0.27049452
-0.2602915 0.24057703
-0.26291615 0.22797546
-0.26503903 0.21973701
-0.26765385 0.20753396
-0.26856476 0.20181951
-0.27062315 0.19133271
-0.27192625 0.18849328
-0.2740329 0.18449298
-0.27576226 0.18430382
-0.27966136 0.18598676
-0.28119072 0.1874923
-0.28481 0.19040258
-0.28631657 0.19095649
-0.2864728 0.18966384
-0.28392178 0.18259117
-0.2823181 0.17856194
-0.2793622 0.17172757
-0.27646217 0.16672908
-0.26854143 0.15413603
-0.26399684 0.14702843
-0.25373724 0.13213143
-0.24831541 0.12459602
-0.24284737 0.11761186
-0.22888884 0.10448843
-0.2203553 0.09837036
-0.20464936 0.08898098
-0.1932498 0.083804086
-0.16623637 0.074672796
-0.14933679 0.07059159
-0.111060485 0.06341295
-0.09147491 0.06017189
-0.052141868 0.05473577
-0.032701157 0.053103693
-0.013623586 0.05247735
0.023297759 0.054208435
0.040414654 0.05654735
0.06741303 0.062261038
0.078794256 0.06601594
0.09980231 0.07531555
0.10897058 0.080145
0.12354906 0.08511169
0.12975681 0.088886544
0.13546675 0.093920715
0.1458515 0.10555621
0.15053736 0.11133436
0.15762629 0.12254761
0.15969399 0.12832445
0.16141722 0.13914046
0.1615013 0.14418103
0.16126701 0.15525436
0.16095737 0.16136901
0.15910491 0.17357291
0.15709493 0.17888251
0.1546258 0.18469597
0.14848946 0.19772829
0.1443968 0.2052464
0.13184233 0.21974473
0.12319201 0.22656532
0.09943013 0.240307
0.08369289 0.24711268
0.050139636 0.2530764
0.031408146 0.2533878
-0.007417391 0.24741451
-0.025797948 0.24111888
-0.04356774 0.23287602
-0.07281908 0.21327241
-0.08483909 0.20200571
-0.10571295 0.1778312
-0.11499844 0.16523996
-0.13188167 0.13947439
-0.14006081 0.12628038
-0.15477434 0.1009289
-0.15948601 0.09167066
-0.16317295 0.0837218
-0.17066924 0.068319425
-0.174431 0.060874887
-0.18326281 0.04671534
-0.1873131 0.041630052
-0.19089672 0.03905976
-0.19276032 0.038536213
-0.19353856 0.041863244
-0.19394961 0.042998202
-0.19579475 0.04489634
-0.1968851 0.046397254
-0.1979759 0.04846684
-0.200123 0.053864986
-0.20046833 0.056589354
-0.19976577 0.0609757
-0.19891226 0.06246213
-0.19685127 0.066169515
-0.19438325 0.06894632
-0.18754679 0.073923744
-0.184927 0.07556854
-0.1810128 0.077492416
-0.1685406 0.08219354
-0.16565886 0.08352599
-0.15849164 0.08648167
-0.1544334 0.088428564
-0.146085 0.09273132
-0.14219585 0.094973125
-0.13559584 0.100839935
-0.1331189 0.104217626
-0.12991156 0.11209337
-0.1289683 0.117031574
-0.12802634 0.12268885
-0.12186388 0.13138369
-0.11731292 0.13339451
-0.107276954 0.13350776
-0.10195106 0.13300931
-0.09227296 0.13153501
-0.087965176 0.1307067
-0.078173086 0.12876406
-0.072807655 0.1272453
-0.067128345 0.12522507
-0.05473668 0.119601466
-0.047660682 0.115957044
-0.03259248 0.10558373
-0.02606608 0.09824933
-0.014544003 0.08160525
-0.009281193 0.07249451
-0.005294353 0.05497077
-0.006787083 0.047831815
-0.012176406 0.036165025
-0.015337722 0.031071072
-0.018474203 0.02666077
-0.024654172 0.018400133
-0.027797934 0.014755135
-0.03483724 0.013441021
-0.03773292 0.017463611
-0.039793126 0.03288845
-0.0385603 0.04289714
-0.031442173 0.06581587
-0.026465645 0.077407196
-0.022161255 0.087092675
-0.009720507 0.10907553
-0.002159441 0.12042607
0.013788799 0.14284064
0.022424925 0.15412971
0.04435077 0.17730477
0.05617979 0.18749142
0.07933751 0.20405617
0.08691993 0.2093316
0.102037445 0.21889997
0.1099094 0.22379875
0.117596135 0.2284939
0.13192499 0.23745327
0.13816425 0.24142702
0.1494788 0.24671873
0.15691903 0.24813041
0.17092654 0.25004575
0.17670092 0.25099617
0.18613346 0.2538745
0.190797 0.25528345
0.20294046 0.25411266
0.20939 0.2524038
0.21542656 0.25056824
0.2257044 0.24518616
0.23019247 0.24096784
0.23856044 0.2299544
0.24262038 0.22347946
0.25015754 0.21255445
0.25411448 0.20933807
0.26150444 0.20527372
0.2641629 0.20258658
0.26663494 0.19978732
0.2659923 0.19039616
0.26324505 0.18414553
0.25495738 0.17053474
0.24977636 0.16377577
0.24257414 0.15206985
0.24150369 0.14749375
0.23736696 0.13911423
0.23388314 0.13566919
0.22569124 0.13127615
0.22153184 0.13011529
0.21738267 0.12969829
0.21274257 0.12751326
0.20928736 0.127201
0.20212457 0.1280809
0.19790715 0.13003077
0.18745866 0.13619074
0.18069217 0.14132479
0.16914335 0.15149245
0.1646017 0.15538415
0.15977946 0.15986635
0.15034257 0.16819623
0.14560178 0.17181805
0.13727058 0.18051377
0.13402952 0.1864604
0.12977596 0.20005825
0.12913445 0.20856437
0.1294456 0.22728077
0.13004997 0.23617503
0.13131121 0.25280577
0.13161911 0.25970176
0.13247678 0.26654258
0.1355609 0.27888158
0.1389476 0.2851195
0.1488273 0.2984087
0.15489951 0.3051898
0.16589919 0.31705076
0.16921803 0.32212657
0.17323086 0.330669
0.17460924 0.33437774
0.1758395 0.33740765
0.1778337 0.34228194
0.17872831 0.3441386
0.1803967 0.3468085
0.18107775 0.34750038
0.1820836 0.3478429
0.1824958 0.3474857
0.18412551 0.34501487
0.18594316 0.3430265
0.18753123 0.33948156
0.18674982 0.3378418
0.18425953 0.3367544
0.18078505 0.3345924
0.1786906 0.33372295
0.17939869 0.33128133
0.18161204 0.32967755
0.18470581 0.32773727
0.18632737 0.326563
0.19143382 0.323076
0.19729981 0.3211147
0.20225482 0.31937048
0.20558636 0.31662413
0.20737962 0.31601787
0.20989046 0.3153834
0.21206145 0.3155051
0.22427352 0.31680495
0.23483317 0.31828618
0.2668846 0.32438308
0.2838415 0.3279446
0.3061569 0.33272558
0.31518075 0.33473137
0.32534635 0.3370821
0.35252717 0.34295613
0.36273143 0.34491366
0.38271353 0.3483614
0.39735708 0.35095122
0.4222672 0.3559102
0.42996365 0.35737973
0.44219995 0.35925832
0.44669515 0.35953054
0.45090213 0.3595336
0.45746356 0.35815746
0.45892516 0.35642132
0.45916882 0.3520541
0.45973286 0.35052133
0.46175575 0.3476879
0.4626983 0.3457631
0.4639116 0.34195337
0.46526012 0.341499
0.47252974 0.34628183
0.47860605 0.35210475
0.48515972 0.35979372
0.49368793 0.3701068
0.4951857 0.37154907
0.49787074 0.37585068
0.49993372 0.3780871
0.5045518 0.38188106
0.50652444 0.38249344
0.510643 0.38175175
0.5124928 0.37944838
0.51638293 0.37671253
0.51885307 0.37778533
0.5212362 0.3798595
0.52474326 0.38610056
0.5262724 0.39302158
0.52728945 0.4159391
0.526912 0.42782927
0.526476 0.44132814
0.5262566 0.44496122
0.527099 0.44687897
0.52715194 0.44841948
0.5266442 0.45237368
0.5251447 0.4602961
0.5243476 0.46373162
0.5195621 0.4803616
0.5151507 0.49366492
0.5051085 0.52092904
0.50193036 0.5295934
0.49928427 0.536321
0.49912778 0.5364232
0.4959128 0.54388756
0.49382657 0.5492452
0.49229604 0.55308855
0.4901031 0.5613357
0.48942477 0.56582654
0.4892477 0.5731231
0.48999745 0.57543164
0.4917137 0.5777399
0.49286976 0.5788937
0.49501085 0.5828496
0.4943275 0.586842
0.49294192 0.59119403
0.48981443 0.59843737
0.48558196 0.604087
0.47812548 0.6131313
0.47359124 0.61773396
0.4599765 0.62960637
0.45674604 0.632933
0.45034832 0.63848233
0.44793528 0.6408801
0.44501632 0.6437457
0.44457656 0.6441103
0.44401827 0.6445521
0.43606606 0.6491169
0.429705 0.6525754
0.41493115 0.66039395
0.40491146 0.66509545
0.3917138 0.67081434
0.3876827 0.6725268
0.37995967 0.67658865
0.37680516 0.6787263
0.3747088 0.6808032
0.3768497 0.68397915
0.37783805 0.6853959
0.3761583 0.6884109
0.37569183 0.69030356
0.37499607 0.6949078
0.37455028 0.6978211
0.37236026 0.70436984
0.36809182 0.706321
0.35637063 0.706763
0.34887996 0.70462406
0.33984947 0.70046586
0.3212712 0.6878172
0.31388077 0.68180597
0.3013821 0.66977656
0.2955715 0.66329175
0.28545457 0.64987236
0.28545457 0.64987236
0.27437258 0.6346535
0.25972548 0.6151632
0.25972548 0.6151632
0.24546564 0.59557575
0.24546564 0.59557575
0.23177016 0.57711756
0.2239753 0.56729305
0.2068762 0.54993975
0.2068762 0.54993975
0.19795838 0.542945
0.18819293 0.5364769
0.17766136 0.53046453
0.17766136 0.53046453
0.16650352 0.52460515
0.15323561 0.51844287
0.15323561 0.51844287
0.13816205 0.5125407
0.122594535 0.5073317
0.1048259 0.50288796
0.1048259 0.50288796
0.0878175 0.49971366
0.071537524 0.49777976
0.071537524 0.49777976
0.054973274 0.496754
0.040927213 0.4962185
0.0152152525 0.49737912
0.0018497367 0.5003022
-0.02354359 0.50974077
-0.02354359 0.50974077
-0.045177706 0.5208322
-0.05421657 0.52682847
-0.062307976 0.5335213
-0.06929992 0.54085135
-0.06929992 0.54085135
-0.0793892 0.55762124
-0.08274693 0.5666189
-0.08502246 0.57570714
-0.08502246 0.57570714
-0.08622815 0.5850252
-0.08684616 0.5938901
-0.087169394 0.6027062
-0.087169394 0.6027062
-0.08653356 0.61311364
-0.085010506 0.62354666
-0.085010506 0.62354666
-0.08306411 0.63306653
-0.080479115 0.6418944
-0.07767971 0.6495501
-0.07767971 0.6495501
-0.075085014 0.6559484
-0.07238044 0.6616263
-0.0694266 0.66687024
-0.0694266 0.66687024
-0.066393115 0.6724564
-0.06315763 0.6783088
-0.06315763 0.6783088
-0.0586781 0.68528837
-0.053316075 0.69210804
-0.04763334 0.6985131
-0.041600566 0.70486826
-0.041600566 0.70486826
-0.035310052 0.7109128
-0.020679686 0.7211338
-0.020679686 0.7211338
-0.011095655 0.72630274
-6.307337E-4 0.7313151
-6.307337E-4 0.7313151
0.021997562 0.74041015
0.033377394 0.74391687
0.044147395 0.7465488
0.054813784 0.7487124
0.07520418 0.7519828
0.07520418 0.7519828
0.07520418 0.7519828
0.09292417 0.75280714
0.09292417 0.75280714
0.10866003 0.7499153
0.10866003 0.7499153
0.12256744 0.74404514
0.12256744 0.74404514
0.13556057 0.7372942
0.14157158 0.73360926
0.15215129 0.7241272
0.15669599 0.71753204
0.16069455 0.70963126
0.16667742 0.6918384
0.16852774 0.680529
0.16965744 0.6544096
0.16891989 0.6406181
0.16617525 0.6125816
0.16441102 0.5983389
0.1619863 0.5777027
0.16063015 0.56895113
0.15820548 0.55907345
0.14958853 0.5379554
0.1436316 0.52693045
0.12957998 0.5040455
0.12192489 0.492898
0.10574458 0.473348
0.09736407 0.46493682
0.07899006 0.4503858
0.07113105 0.4448948
0.059669524 0.43734345
0.052780114 0.43389636
0.046522155 0.43082494
0.037703134 0.42659292
0.033269037 0.42437473
0.02468702 0.4193235
0.020987015 0.4168209
0.015263058 0.4132318
0.011156218 0.41224456
6.407344E-4 0.41087922
-0.0052786004 0.4100043
-0.011651929 0.40948185
-0.024565125 0.40866232
-0.030948106 0.40847364
-0.043364026 0.40795675
-0.049108226 0.4074819
-0.059760153 0.40615216
-0.06451565 0.40661708
-0.07341271 0.4111336
-0.07710455 0.4146057
-0.083429426 0.42262822
-0.08660193 0.4272282
-0.089748666 0.43214995
-0.09606679 0.44163218
-0.09849991 0.44620126
-0.10025509 0.45608783
-0.09975017 0.46094903
-0.09700229 0.46998698
-0.09496775 0.47382864
-0.08997072 0.47997332
-0.08721577 0.48221445
-0.08283734 0.4847459
-0.071266204 0.49091324
-0.065706715 0.49368292
-0.05734862 0.4979585
-0.05304259 0.50031686
-0.043982442 0.50555086
-0.03946566 0.5083341
-0.031573124 0.51444197
-0.0281585 0.51777554
-0.022463137 0.5256523
-0.020075936 0.5301977
-0.017800802 0.5354441
-0.012627579 0.5482128
-0.008607666 0.5548503
0.0019916333 0.5669788
0.007764548 0.5752022
0.023082225 0.5926143
0.03167676 0.5971911
0.047202297 0.5980293
0.05312103 0.59520745
0.05811345 0.59203327
0.066430025 0.5852017
0.069808714 0.5818721
0.074782066 0.57515424
0.07673608 0.5721711
0.078320995 0.56708306
0.07717299 0.56497407
0.07438893 0.5621573
0.07119243 0.5616713
0.06436666 0.5614864
0.062439956 0.5614191
0.06158622 0.56137913
0.055013012 0.56286895
0.04943201 0.5640298
0.044914298 0.56439364
0.044775527 0.5643213
0.043454465 0.56370544
0.044017024 0.5634872
0.044695985 0.5624347
0.044366427 0.561391
0.042498536 0.56071895
0.03811071 0.5600273
0.035785787 0.5595361
0.030720312 0.55776215
0.02801316 0.5562321
0.022490725 0.55236137
0.019489503 0.5499949
0.012859164 0.544092
0.008541217 0.54202163
-0.0011126108 0.54276013
-0.0056075305 0.54548883
-0.009834806 0.5492672
-0.017464796 0.560649
-0.019650899 0.56893176
-0.020041067 0.5859622
-0.01848238 0.5943517
-0.013237377 0.610108
-0.009547345 0.6181338
-5.6962075E-4 0.63315046
0.00333587 0.6387893
0.0068869367 0.6438421
0.014083765 0.6540736
0.018102217 0.65895844
0.029132897 0.66774356
0.035135638 0.6708198
0.04295961 0.6759298
0.047047608 0.6784894
0.05460444 0.6843141
0.058158677 0.6875123
0.06555359 0.69457716
0.06937946 0.6986201
0.07315339 0.7031255
0.0826814 0.71235406
0.08885043 0.71419966
0.10159197 0.7141659
0.10825054 0.7136278
0.120566286 0.71206474
0.12615512 0.7105111
0.13607924 0.70459855
0.14092742 0.7007832
0.14552048 0.69705987
0.15270282 0.6892383
0.15418144 0.6845964
0.15460546 0.6765231
0.15380488 0.6730937
0.14659803 0.6686117
0.13901182 0.6679255
0.11966562 0.6708196
0.10801147 0.67467034
0.08357743 0.68655586
0.07140817 0.69381446
0.061142445 0.69991714
0.04160455 0.7134092
0.029672954 0.72233593
0.0074041 0.73990965
-2.758898E-4 0.7459525
-0.013437417 0.7557732
-0.019864801 0.76063883
-0.032197047 0.7692438
-0.03774835 0.7729448
-0.04805619 0.7781187
-0.053020008 0.7800519
-0.05801832 0.78200316
-0.0687512 0.78548473
-0.0687512 0.78548473
-0.083876014 0.7912203
-0.087741986 0.794155
-0.09577611 0.80196536
-0.09962194 0.8069641
-0.106515825 0.8189316
-0.11038108 0.8257817
-0.11444907 0.83383846
-0.1156009 0.85062504
-0.12025978 0.85793114
-0.12762333 0.8630439
-0.12702172 0.86369354
-0.124411784 0.8640479
-0.12265164 0.8621522
-0.11995916 0.8583803
-0.11906856 0.8562973
-0.12027396 0.85558015
-0.119747624 0.8543412
-0.11773707 0.8512886
-0.11170695 0.84348756
-0.107738316 0.8391302
-0.102766156 0.8341651
-0.099692315 0.8304426
-0.09613958 0.82639265
-0.0964294 0.826898
-0.09626897 0.8283142
-0.09544321 0.8288576
-0.09343157 0.82820237
-0.089804396 0.8257952
-0.08882513 0.8248604
-0.08856329 0.824605
-0.08731275 0.8220174
-0.0814908 0.8106669
-0.0814908 0.8106669
-0.07708655 0.80212134
-0.07237488 0.792646
-0.0672498 0.78206104
-0.0672498 0.78206104
-0.061687194 0.7700308
-0.055073798 0.7557595
-0.04759928 0.7401118
-0.036102213 0.7176375
-0.036102213 0.7176375
-0.026891667 0.7012476
-0.021849016 0.69348466
-0.01036774 0.6770507
-0.01036774 0.6770507
-0.0032409232 0.66652215
0.0029434054 0.6578375
0.0029434054 0.6578375
0.011058914 0.64770406
0.014533629 0.64403826
0.017590279 0.6409822
0.017590279 0.6409822
0.020201143 0.6384831
0.022968108 0.63622004
0.026267856 0.63287914
0.026267856 0.63287914
0.029255887 0.630173
0.03178216 0.62821025
0.03178216 0.62821025
0.033797342 0.62660867
0.035599317 0.62390804
0.03743339 0.6188973
0.03743339 0.6188973
0.039011247 0.6151034
0.040509425 0.61188215
0.040509425 0.61188215
0.041933667 0.6070278
0.043091085 0.6026738
0.04401194 0.5982097
0.04401194 0.5982097
0.044565633 0.5934922
0.044705562 0.5888947
0.044253986 0.5828258
0.044253986 0.5828258
0.04339404 0.5752847
0.042310536 0.5671621
0.04117846 0.55841815
0.03846627 0.5398612
0.036884703 0.53041875
0.033248838 0.5124372
0.031275664 0.5049843
0.026450124 0.49097976
0.022596318 0.48297462
0.011884886 0.46746364
0.005308953 0.46047387
-0.0034938932 0.45263624
-0.023681734 0.43861374
-0.03231178 0.433647
-0.053959318 0.42443195
-0.063990995 0.42084855
-0.078838505 0.41607362
-0.08799009 0.4141919
-0.11567422 0.4113378
-0.13085452 0.4107844
-0.15565176 0.4104639
-0.16913979 0.41101804
-0.18202943 0.41179562
-0.19609016 0.4123121
-0.19837067 0.41220278
-0.20345445 0.4126057
-0.2062684 0.41297215
-0.20578368 0.41285935
-0.20493853 0.41259235
-0.20414314 0.41125685
-0.20424435 0.41010872
-0.20441084 0.40864435
-0.20358546 0.40405193
-0.20215258 0.40079746
-0.20198636 0.39462298
-0.20475443 0.39299303
-0.21666539 0.39604595
-0.22498253 0.40072855
-0.24359664 0.4152542
-0.2533938 0.4245483
-0.27214342 0.44568235
-0.2800562 0.45682707
-0.28663474 0.46809822
-0.29635212 0.4908131
-0.30055958 0.5022065
-0.30820364 0.5309888
-0.3104729 0.5444025
-0.31362444 0.5705946
-0.31481522 0.5837902
-0.3158024 0.60929793
-0.3156746 0.62107193
-0.31423172 0.64253604
-0.31233674 0.65187716
-0.30982262 0.6604794
-0.3024973 0.67533344
-0.2979729 0.6816965
-0.28764015 0.6921502
-0.2832066 0.6960812
-0.2759806 0.702194
-0.2720283 0.7054198
-0.26417583 0.71118057
-0.26042494 0.71344984
-0.25739154 0.71507704
-0.25087297 0.7176162
-0.24572356 0.7190083
-0.23420277 0.7224488
-0.22767285 0.724264
-0.2076281 0.728645
-0.19517612 0.73019147
-0.17702155 0.7323519
-0.17040408 0.73295003
-0.16093557 0.73353314
-0.1593908 0.7340531
-0.15866908 0.734783
-0.15740302 0.73619723
-0.15726092 0.73673815
-0.15604629 0.73869413
-0.15543272 0.7403439
-0.15437819 0.74509776
-0.15273365 0.74749887
-0.14971353 0.7518789
-0.14943437 0.75481635
-0.14802769 0.75728935
-0.14181307 0.75781715
-0.13856801 0.7568049
-0.13162562 0.75359017
-0.12702778 0.75044787
-0.11543335 0.7363161
-0.109766945 0.7263479
-0.099256404 0.7023586
-0.09458137 0.68906826
-0.087986924 0.66375434
-0.0859068 0.65535605
-0.084412344 0.64991635
-0.08223404 0.6445567
-0.08117144 0.64435446
-0.07899729 0.63853514
-0.07847625 0.6323386
-0.079131536 0.6133458
-0.07962226 0.60458964
-0.0815403 0.5872856
-0.08317702 0.5773722
-0.08584733 0.5667178
-0.09446236 0.54393
-0.098667875 0.5341016
-0.10675399 0.5161739
-0.11189161 0.5063085
-0.12518695 0.4873596
-0.1337145 0.4782074
-0.15342689 0.45999584
-0.16417219 0.4510313
-0.18675293 0.43426576
-0.1981178 0.42750248
-0.20932989 0.42206597
-0.23223373 0.41374436
-0.24446027 0.41015434
-0.26996046 0.40395847
-0.28277546 0.40156236
-0.30806595 0.39867273
-0.32040784 0.39840007
-0.34435245 0.40030503
-0.35632443 0.4035336
-0.36750036 0.40832123
-0.38860986 0.42097527
-0.39804333 0.42857137
-0.4140563 0.4445599
-0.42060214 0.45224172
-0.43095192 0.4670232
-0.43417722 0.47501427
-0.43764123 0.4896583
-0.43888122 0.4969359
-0.4404214 0.5120741
-0.44023538 0.5203081
-0.4394269 0.52896583
-0.4371473 0.5476712
-0.43514103 0.5573139
-0.42771855 0.5746733
-0.42262092 0.5816738
-0.41043562 0.5919143
-0.40371758 0.59537816
-0.3877976 0.599737
-0.37844127 0.60072243
-0.36926463 0.59993106
-0.35305187 0.59340966
-0.34581357 0.5880121
-0.33265787 0.5728179
-0.32880926 0.5635796
-0.326557 0.5444652
-0.32790527 0.5357641
-0.33397385 0.51782566
-0.33893725 0.5075375
-0.35476947 0.48865023
-0.36493617 0.4833649
-0.375351 0.48150834
-0.3937531 0.4874472
-0.39927104 0.49451667
-0.40535063 0.50996387
-0.4079658 0.5176507
-0.41116667 0.532905
-0.41145736 0.54029906
-0.40988833 0.5544561
-0.4084943 0.5624374
-0.40635768 0.5709647
-0.39991575 0.5868829
-0.3959818 0.5942026
-0.38679335 0.60365814
-0.38105232 0.6075114
-0.36816365 0.6138681
-0.36187762 0.6162748
-0.3484922 0.61966676
-0.34082493 0.6201757
-0.32388073 0.6184357
-0.31537673 0.6167194
-0.30696863 0.61451876
-0.29261214 0.6086452
-0.28947118 0.6050066
-0.29385102 0.59804785
-0.3007626 0.59599763
-0.320036 0.5960468
-0.3314802 0.5977776
-0.35781485 0.6063676
-0.37000576 0.6122449
-0.38171524 0.6193378
-0.3991832 0.6317124
-0.40489563 0.6354306
-0.4138936 0.64069885
-0.41738057 0.64263546
-0.4223833 0.64585465
-0.42424464 0.6473862
-0.42613873 0.65011775
-0.42717752 0.65273035
-0.43197313 0.6655118
-0.4353594 0.6747255
-0.4389461 0.68464947
-0.4471107 0.7060865
-0.4514194 0.7173533
-0.46017146 0.74013984
-0.46427792 0.75152206
-0.47168702 0.77349466
-0.47404423 0.78341067
-0.47620028 0.8012018
-0.47649297 0.8085906
-0.47675747 0.8154125
-0.47687092 0.82268155
-0.47708774 0.83780366
-0.47652808 0.8465786
-0.47467113 0.8556215
-0.46990198 0.87196386
-0.46713215 0.88020694
-0.4610042 0.8961542
-0.45790395 0.9036334
-0.44825277 0.9185276
-0.44195014 0.9245657
-0.4350094 0.9296503
-0.42002732 0.93666744
-0.4122497 0.938728
-0.39585707 0.9414385
-0.38705796 0.94232595
-0.37001845 0.9430806
-0.36242798 0.9428741
-0.34793818 0.9394714
-0.33979923 0.93556434
-0.32277757 0.9231502
-0.31378323 0.9144081
-0.30480248 0.90449065
-0.28662285 0.8821952
-0.2778285 0.8702747
-0.2618264 0.8456898
-0.25515455 0.83355856
-0.24590138 0.81510293
-0.24205339 0.80677146
-0.23492484 0.791601
-0.2316385 0.78497815
-0.2290912 0.7775121
-0.22764239 0.76167095
-0.22869308 0.75376695
-0.23017934 0.7418272
-0.23054779 0.7361387
-0.22969382 0.72541296
-0.22874455 0.7197359
-0.22805443 0.7136106
-0.22864768 0.70270276
-0.23080666 0.69209427
-0.23229451 0.6859294
-0.23399225 0.67950964
-0.24021545 0.6650024
-0.24514978 0.6577005
-0.25959957 0.64401054
-0.26920444 0.63739157
-0.29370853 0.6278161
-0.3067655 0.6276621
-0.32759798 0.6367676
-0.334999 0.6443108
-0.34095213 0.65269816
-0.3505432 0.671139
-0.35455367 0.6813543
-0.35487273 0.6994533
-0.35298443 0.70788014
-0.3455506 0.7243566
-0.3400077 0.7308785
-0.32694647 0.74416447
-0.31918147 0.7491802
-0.30280194 0.75665426
-0.29338533 0.75949156
-0.28401744 0.76053226
-0.26828432 0.7568984
-0.2605443 0.7542691
-0.24282856 0.74688697
-0.23338571 0.7408711
-0.22556365 0.733677
-0.21542001 0.71751106
-0.21230698 0.7093004
-0.21230698 0.7093004
-0.20992692 0.70116746
-0.20829177 0.6930024
-0.20829177 0.6930024
-0.20723501 0.67419505
-0.20723501 0.67419505
-0.20846918 0.6634298
-0.21131063 0.6521351
-0.22228196 0.63555205
-0.22228196 0.63555205
-0.2290208 0.62995106
-0.23561199 0.6268257
-0.23561199 0.6268257
-0.24203174 0.62520146
-0.24843669 0.62445116
-0.25503236 0.62447476
-0.26124048 0.62516755
-0.27223095 0.62760437
-0.2758301 0.63004434
-0.28078336 0.6371832
-0.282714 0.64157003
-0.28456798 0.6464884
-0.28787285 0.656877
-0.28895578 0.661819
-0.2914837 0.67157954
-0.2938914 0.67739564
-0.29564565 0.6884968
-0.29495454 0.69266546
-0.2873388 0.6946247
-0.2816307 0.69239753
-0.26994807 0.6843962
-0.26348466 0.6788182
-0.25716162 0.67262614
-0.24583611 0.65471816
-0.24175286 0.6445138
-0.23620644 0.62307227
-0.23521182 0.612887
-0.23677173 0.5932071
-0.23918998 0.58358264
-0.24667633 0.5663923
-0.2522384 0.55763847
-0.2679108 0.5390744
-0.27568963 0.5312944
-0.28025603 0.5262624
-0.29092592 0.5167316
-0.29666853 0.51166546
-0.30728438 0.50120485
-0.31201932 0.4961485
-0.32002765 0.48669186
-0.32317886 0.48290166
-0.32597238 0.47981578
-0.33502933 0.47508985
-0.34017467 0.47390088
-0.35248932 0.47376123
-0.3624496 0.4753293
-0.38514072 0.48189425
-0.39272934 0.4841873
-0.40893292 0.49108586
-0.41937408 0.49614605
-0.4358403 0.50445634
-0.44384927 0.50838125
-0.4586236 0.5155885
-0.46417457 0.5182863
-0.46868554 0.52077913
-0.47484294 0.5243187
-0.47652513 0.52543575
-0.4774347 0.5259868
-0.47743917 0.5259966
-0.47821054 0.5258487
-0.47898984 0.52587515
-0.47938824 0.52559084
-0.47998896 0.5254029
-0.48178124 0.52643096
-0.4862904 0.53026706
-0.49054533 0.5350153
-0.50385576 0.55313754
-0.5122588 0.56593984
-0.529396 0.5939124
-0.538118 0.60844654
-0.5549926 0.6380874
-0.5626115 0.65262145
-0.5754195 0.68051636
-0.580418 0.6938357
-0.584359 0.70694774
-0.58805215 0.7321609
-0.5881806 0.7439428
-0.58563507 0.7673036
-0.58284324 0.77999085
-0.57438266 0.80333394
-0.5692823 0.81316936
-0.55668616 0.8320567
-0.54949296 0.84084857
-0.5421263 0.8484384
-0.5265652 0.86039764
-0.51709664 0.86567324
-0.49374443 0.87517184
-0.4802503 0.8790283
-0.4504598 0.8857666
-0.4367991 0.88856095
-0.4177282 0.89260274
-0.409237 0.8945236
-0.39339894 0.8983011
-0.38645595 0.9002594
-0.38033968 0.9023694
-0.37009698 0.90745354
-0.3654825 0.91049325
-0.35661745 0.9161941
-0.35208073 0.91775143
-0.34162164 0.91609466
-0.33680704 0.91365355
-0.32747555 0.9032427
-0.32354227 0.8959449
-0.32035017 0.8872312
-0.31567374 0.86855716
-0.31408304 0.8567688
-0.3137664 0.83271587
-0.31459463 0.82193995
-0.31770876 0.80116785
-0.32053742 0.7911915
-0.32914248 0.76997757
-0.33438784 0.7589423
-0.34802547 0.7349409
-0.3571173 0.7221462
-0.3655429 0.71161884
-0.37699723 0.6975944
-0.38147864 0.69243443
-0.3879865 0.68530494
-0.39050722 0.6827805
-0.3998923 0.6766229
-0.40379086 0.6735939
-0.40866312 0.6696187
-0.40872678 0.6688579
-0.4077962 0.66848457
-0.40617448 0.6663688
-0.40482807 0.6647232
-0.40059716 0.66016793
-0.39742047 0.6571814
-0.39570248 0.6512315
-0.3988695 0.64885217
-0.4129323 0.64683425
-0.42207924 0.6472993
-0.4450524 0.65255153
-0.4544653 0.6555045
-0.46330056 0.6587728
-0.4799274 0.6669869
-0.4871356 0.67195034
-0.4990875 0.68256354
-0.50360906 0.68717086
-0.5115986 0.69772357
-0.5166214 0.7066876
-0.52762175 0.73139155
-0.53243244 0.7442781
-0.5371754 0.7578297
-0.54481685 0.7814074
-0.54787076 0.79392993
-0.5523076 0.8167842
-0.55388236 0.82360685
-0.5566345 0.8355094
-0.5583753 0.84123194
-0.5623982 0.8510216
-0.5648164 0.8550297
-0.569989 0.86339873
-0.5713454 0.8685533
-0.5717737 0.8736904
-0.5674697 0.88665026
-0.5624538 0.8939163
-0.5477005 0.90801156
-0.5383743 0.9146916
-0.5170282 0.92770517
-0.5058167 0.9330279
-0.48913226 0.94003975
-0.48315874 0.9425498
-0.46559572 0.94698536
-0.4527526 0.9487381
-0.43900427 0.9498407
-0.40983558 0.9508403
-0.39738733 0.95105064
-0.3755639 0.9498302
-0.3639472 0.94792145
-0.33850136 0.9409461
-0.32446462 0.9358219
-0.29489595 0.92328435
-0.2798006 0.91659343
-0.26475912 0.90962857
-0.250132 0.9024237
-0.22288251 0.8873851
-0.21115243 0.87946415
-0.2003195 0.8708456
-0.18037722 0.85157645
-0.17060934 0.8408286
-0.15626979 0.8248752
-0.15136671 0.8194319
-0.14395268 0.8105707
-0.14033349 0.80639184
-0.1361176 0.80080795
-0.12750995 0.7840587
-0.12362788 0.77448905
-0.117929794 0.754462
-0.11630736 0.7447738
-0.11409527 0.7250905
-0.11343902 0.7151056
-0.11276968 0.6962935
-0.11276239 0.6876311
-0.11298521 0.6792475
-0.113696635 0.66365534
-0.11443283 0.655988
-0.11512703 0.64142
-0.11511781 0.6339799
-0.11942843 0.61929554
-0.1240924 0.613346
-0.13484314 0.60451686
-0.14008096 0.60112154
-0.1493248 0.59211326
-0.15464595 0.58739436
-0.16017042 0.58367527
-0.17162949 0.5781666
-0.17747764 0.57596946
-0.19170609 0.5726177
-0.19979395 0.57214755
-0.21442974 0.5756947
-0.21959603 0.5793978
-0.22585055 0.5889368
-0.22850576 0.5945419
-0.23094575 0.6005856
-0.23453812 0.6150329
-0.23580289 0.62372977
-0.23638014 0.6430962
-0.23521653 0.65255105
-0.22818916 0.6671576
-0.22277279 0.6738447
-0.20795384 0.6864573
-0.19859871 0.69187105
-0.17913295 0.69431144
-0.16975598 0.69281167
-0.15931967 0.690174
-0.14215767 0.6792671
-0.1381066 0.67168534
-0.13323334 0.6556808
-0.12861009 0.64547575
-0.1271322 0.6248266
-0.12968804 0.614396
-0.14059511 0.59596264
-0.14779171 0.5881257
-0.16358599 0.5818113
-0.17078634 0.5836976
-0.1812699 0.5924269
-0.1845986 0.5977503
-0.18675902 0.60326916
-0.1879696 0.61396277
-0.18791068 0.61881316
-0.18684728 0.62729406
-0.18600541 0.6309706
-0.18279563 0.6365913
-0.1777847 0.63811415
-0.16236088 0.63803506
-0.1539914 0.6371571
-0.14377116 0.6346772
-0.12196722 0.6253664
-0.11170061 0.618979
-0.09168849 0.6027432
-0.08141215 0.59256274
-0.061822154 0.56980366
-0.052628733 0.55789965
-0.038285844 0.5381402
-0.031532943 0.52903086
-0.017264117 0.5115826
-0.010400346 0.50293916
-0.004981748 0.49581918
-0.0013479275 0.49069914
-0.001179362 0.4904801
-0.0033058939 0.49209842
-0.0031361734 0.4911849
-0.0018450158 0.4876648
-0.0013380165 0.48543614
1.3492949E-4 0.47924805
0.0014926256 0.47530478
0.002400856 0.47163525
0.0028516897 0.46434087
0.0035499402 0.46001214
0.0064481264 0.45217723
0.00836794 0.44901124
0.012962274 0.443992
0.015497221 0.4422236
0.026106745 0.4383886
0.03413125 0.43638796
0.052958988 0.43239993
0.06340354 0.4307235
0.07208178 0.4291734
0.08487521 0.427286
0.08976852 0.42667586
0.10416851 0.42714733
0.1158671 0.42913157
0.14317961 0.43606034
0.15691501 0.44091994
0.18967481 0.45499802
0.20705788 0.46329445
0.2424095 0.48271292
0.26139897 0.49434653
0.2785087 0.5045658
0.2785087 0.5045658
