0 [1.0, 1.0, 1.0, 1.0, 1.0, 1.0, 1.0, 1.0]
1 [1.0, 1.0, 1.0, 1.0, 1.0, 1.0, 1.0, 1.0]
2 [1.0, 1.0, 1.0, 1.0, 1.0, 1.0, 1.0, 1.0]
3 [1.0, 1.0, 1.0, 1.0, 1.0, 1.0, 1.0, 1.0]
4 [1.0, 1.0, 1.0, 1.0, 1.0, 1.0, 1.0, 1.0]
5 [1.0, 1.0, 1.0, 1.0, 1.0, 1.0, 1.0, 1.0]
6 [1.0, 1.0, 1.0, 1.0, 1.0, 1.0, 1.0, 1.0]
7 [1.0, 1.0, 1.0, 1.0, 1.0, 1.0, 1.0, 1.0]
8 [1.0, 1.0, 1.0, 1.0, 1.0, 1.0, 1.0, 1.0]
9 [1.0, 1.0, 1.0, 1.0, 1.0, 1.0, 1.0, 1.0]
10 [1.0, 1.0, 1.0, 1.0, 1.0, 1.0, 1.0, 1.0]
11 [1.0, 1.0, 1.0, 1.0, 1.0, 1.0, 1.0, 1.0]
12 [1.0, 1.0, 1.0, 1.0, 1.0, 1.0, 1.0, 1.0]
13 [1.0, 1.0, 1.0, 1.0, 1.0, 1.0, 1.0, 1.0]
14 [1.0, 1.0, 1.0, 1.0, 1.0, 1.0, 1.0, 1.0]
15 [1.0, 1.0, 1.0, 1.0, 1.0, 1.0, 1.0, 1.0]
16 [1.0, 1.0, 1.0, 1.0, 1.0, 1.0, 1.0, 1.0]
17 [1.0, 1.0, 1.0, 1.0, 1.0, 1.0, 1.0, 1.0]
18 [1.0393108, 1.2904694, 1.0393108, 1.0000974, 1.0, 1.0, 1.0, 1.0]
19 [1.0927137, 1.6850667, 1.0927137, 1.0002298, 1.0, 1.0, 1.0, 1.0]
20 [1.0738672, 1.545809, 1.0738672, 1.0001831, 1.0, 1.0, 1.0, 1.0]
21 [1.0560584, 1.4142191, 1.0560584, 1.000139, 1.0, 1.0, 1.0, 1.0]
22 [1.0423398, 1.3128508, 1.0423398, 1.0001049, 1.0, 1.0, 1.0, 1.0]
23 [1.0320005, 1.2364538, 1.0320005, 1.0000793, 1.0, 1.0, 1.0, 1.0]
24 [1.0220377, 1.1628379, 1.0222658, 1.0920674, 1.6798878, 1.0920128, 1.000228, 1.0]
25 [0.9288717, 0.4744289, 0.929052, 1.0725622, 1.5374694, 1.0727385, 1.0001802, 1.0]
26 [0.96088964, 0.7110115, 0.9610264, 1.0550743, 1.4076641, 1.0551714, 1.0001367, 1.0]
27 [1.0219759, 1.1623808, 1.0220792, 1.041764, 1.3081942, 1.0417095, 1.0001034, 1.0]
28 [1.0197256, 1.1457531, 1.0198036, 1.0315415, 1.2327007, 1.0314926, 1.0000781, 1.0]
29 [1.0150969, 1.111552, 1.0151559, 1.023839, 1.1758717, 1.0238017, 1.000059, 1.0]
30 [1.0102221, 1.0755316, 1.0100195, 0.918323, 0.3962968, 0.91829765, 0.99979746, 1.0]
31 [1.0077182, 1.0570302, 1.0075011, 0.91244674, 0.35292244, 0.91242754, 0.9997829, 1.0]
32 [1.0058333, 1.0431026, 1.0056654, 0.93226993, 0.49943173, 0.93225545, 0.9998321, 1.0]
33 [0.9066074, 0.30991685, 0.90648025, 0.94847345, 0.62097824, 0.94870496, 0.99987286, 1.0]
34 [0.90360105, 0.28770316, 0.9035051, 0.9610261, 0.7137853, 0.961265, 0.999904, 1.0]
35 [0.92558455, 0.45014006, 0.925512, 0.97054, 0.783681, 0.9707244, 0.99992746, 1.0]
36 [0.9436632, 0.5837244, 0.94360834, 0.9777343, 0.83650947, 0.977874, 0.99994516, 1.0]
37 [0.9574584, 0.6856575, 0.95741695, 0.98318875, 0.87656, 0.9832942, 0.9999586, 1.0]
38 [0.97064406, 0.78308743, 0.9706155, 0.9883995, 0.91482097, 0.9884723, 0.99997145, 1.0]
39 [0.9798187, 0.85087943, 0.9798187, 0.99995, 1.0, 1.0, 1.0, 1.0]
40 [0.9847473, 0.8872971, 0.98473096, 0.99338406, 0.9513936, 0.99342185, 0.99998367, 1.0]
41 [0.9884723, 0.91482097, 0.98845994, 0.99499977, 0.96326405, 0.9950283, 0.99998766, 1.0]
42 [0.9912875, 0.93562305, 0.99127823, 0.99622095, 0.97223556, 0.9962425, 0.9999907, 1.0]
43 [0.99341524, 0.95134497, 0.9934082, 0.9971438, 0.9790161, 0.99716014, 0.99999297, 1.0]
44 [1.0, 1.0, 1.0, 1.0, 1.0, 1.0, 1.0, 1.0]
45 [0.9962425, 0.97223556, 0.9962425, 0.9999907, 1.0, 1.0, 1.0, 1.0]
46 [0.99716014, 0.9790161, 0.99716014, 0.99999297, 1.0, 1.0, 1.0, 1.0]
47 [1.0, 1.0, 1.0, 1.0, 1.0, 1.0, 1.0, 1.0]
48 [1.0, 1.0, 1.0, 1.0, 1.0, 1.0, 1.0, 1.0]
49 [1.0, 1.0, 1.0, 1.0, 1.0, 1.0, 1.0, 1.0]
