0 [0.0, 0.0, 0.0, 0.0, 0.0, 0.0, 0.0, 0.0]
1 [0.0, 0.0, 0.0, 0.0, 0.0, 0.0, 0.0, 0.0]
2 [0.0, 0.0, 0.0, 0.0, 0.0, 0.0, 0.0, 0.0]
3 [0.0, 0.0, 0.0, 0.0, 0.0, 0.0, 0.0, 0.0]
4 [0.0, 0.0, 0.0, 0.0, 0.0, 0.0, 0.0, 0.0]
5 [0.0, 0.0, 0.0, 0.0, 0.0, 0.0, 0.0, 0.0]
6 [0.0, 0.0, 0.0, 0.0, 0.0, 0.0, 0.0, 0.0]
7 [0.0, 0.0, 0.0, 0.0, 0.0, 0.0, 0.0, 0.0]
8 [0.0, 0.0, 0.0, 0.0, 0.0, 0.0, 0.0, 0.0]
9 [0.0, 0.0, 0.0, 0.0, 0.0, 0.0, 0.0, 0.0]
10 [0.0, 0.0, 0.0, 0.0, 0.0, 0.0, 0.0, 0.0]
11 [0.013197812, 0.055802193, 0.0388022, 0.006197795, 0.005197796, 0.0031977978, 0.0021977988, 0.0028021964]
12 [0.85132235, 0.930011, 0.048010983, 0.84132236, 0.83832234, 0.0019890056, 0.0030109896, 0.0070109856]
13 [0.017989013, 0.05501099, 0.048010983, 0.007989024, 0.004989003, 0.0019890056, 0.0030109896, 0.0070109856]
14 [0.12023626, 0.08723627, 0.08823627, 0.05068682, 0.9687637, 0.0047747246, 0.010774719, 0.018774735]
15 [0.08177473, 0.04877473, 0.04977473, 0.012225283, 0.007225264, 0.0047747246, 0.010774719, 0.018774735]
16 [0.08177473, 0.04877473, 0.04977473, 0.012225283, 0.007225264, 0.0047747246, 0.010774719, 0.018774735]
17 [0.14293407, 0.91506594, 0.04493406, 0.018065937, 0.9386374, 0.9335055, 0.013934055, 0.022934072]
18 [0.14293407, 0.04006594, 0.04493406, 0.018065937, 0.010065945, 0.0049340646, 0.013934055, 0.022934072]
19 [0.14507693, 0.92592305, 0.04307692, 0.021923076, 0.9404945, 0.9356483, 0.017076934, 0.77192307]
20 [0.14207143, 0.93892854, 0.047928575, 0.030928569, 0.9485, 0.93649995, 0.015071436, 0.028071422]
21 [0.14014286, 0.17185715, 0.15685715, 0.13485715, 0.92385715, 0.91085714, 0.014142862, 0.02914286]
22 [0.14014286, 0.94685715, 0.056857143, 0.03485714, 0.02385715, 0.010857138, 0.014142862, 0.02914286]
23 [0.13768132, 0.082318686, 0.069318675, 0.03831868, 0.029318687, 0.014318677, 0.01468132, 0.030681316]
24 [0.80321616, 0.83445054, 0.82345057, 0.040450543, 0.69811726, 0.6821172, 0.6812161, 0.030549448]
25 [0.80321616, 0.83445054, 0.82345057, 0.040450543, 0.69811726, 0.6821172, 0.6812161, 0.030549448]
26 [0.13447252, 0.08852747, 0.07752748, 0.04052747, 0.033527475, 0.017527467, 0.0144725265, 0.031472523]
27 [0.9654322, 0.8640989, 0.8349011, 0.8912344, 0.87023443, 0.8522344, 0.8474322, 0.032098904]
28 [1.0070989, 0.9890989, 0.9599011, 0.057901103, 0.0369011, 0.8939011, 0.8890989, 0.032098904]
29 [0.12842858, 0.11442857, 0.09457143, 0.06357143, 0.04057143, 0.021571422, 0.013428569, 0.032428574]
30 [1.0574175, 0.12084615, 0.9741539, 0.06815384, 0.040153842, 0.9487252, 0.94741756, 0.78615385]
31 [0.12884615, 0.12084615, 0.09915386, 0.06815384, 0.040153842, 0.020153837, 0.018846149, 0.78615385]
32 [0.12528022, 0.11728022, 0.10271979, 0.07171977, 0.043719776, 0.023719773, 0.015280215, 0.03528022]
33 [1.0240879, 0.11908791, 0.9819121, 0.1789121, 0.14291209, 0.92491204, 0.91608787, 0.03708791]
34 [0.12408791, 0.11908791, 0.1069121, 0.0789121, 0.042912085, 0.02491208, 0.016087918, 0.03708791]
35 [0.12408791, 0.11908791, 0.9819121, 0.0789121, 0.042912085, 0.02491208, 0.016087918, 0.03708791]
36 [0.121214285, 0.12021428, 0.11078572, 0.08978572, 0.042785715, 0.028785704, 0.016214289, 0.03921429]
37 [0.20696953, 1.0281514, 0.20484866, 0.18884864, 0.9500305, 0.9410305, 0.92515135, 0.039060444]
38 [0.11606044, 0.11906044, 0.9889396, 0.09793956, 0.040939562, 0.031939574, 0.016060442, 0.039060444]
39 [0.16961539, 1.0546154, 0.17938462, 0.17438462, 0.13138461, 0.9733846, 0.95361537, 0.041115385]
40 [0.44044873, 0.45044872, 0.11688462, 0.44521797, 0.9577735, 0.9247735, 0.016115384, 0.041115385]
41 [0.03218131, 0.116181314, 0.8648187, 0.8698187, 0.07481868, 0.036818694, 0.015181317, 0.041181315]
42 [0.030829675, 1.0229206, 0.10482967, 0.30398852, 0.9922613, 0.94326127, 0.9229206, 0.040829666]
43 [0.030829675, 0.11382967, 0.10482967, 0.12217034, 0.083170325, 0.034170322, 0.013829667, 0.040829666]
44 [0.029423079, 0.11342308, 0.10542308, 0.12257693, 0.08857691, 0.031576924, 0.015576914, 0.039423082]
45 [0.028527472, 0.29334566, 0.85652745, 0.87447256, 0.27929074, 0.9396184, 0.9275634, 0.038527474]
46 [0.027945055, 0.10994505, 0.10594506, 0.12505496, 0.10205495, 0.05605495, 0.020054936, 0.03794506]
47 [0.027945055, 0.10994505, 0.10594506, 0.12505496, 0.10205495, 0.05605495, 0.020054936, 0.03794506]
48 [0.026999999, 1.0330769, 0.858, 0.874, 0.19292307, 0.14092308, 0.9460769, 0.9600769]
49 [0.02652747, 0.10652747, 0.108527474, 0.12047252, 0.124472514, 0.07047252, 0.036527473, 0.036527473]
