0 -1.5707963
0 -3.1415923
0 -3.1415923
0 -3.1415925
0 -3.1415927
0 3.1415925
0 3.1415925
0 1.5707964
0 1.5707976
1 -1.5707963
1 -3.1415923
1 -3.1415923
1 -3.1415925
1 -3.1415927
1 3.1415925
1 3.1415925
1 1.5707964
1 1.5707976
2 -1.5707963
2 -3.1415923
2 -3.1415923
2 -3.1415925
2 -3.1415927
2 3.1415925
2 3.1415925
2 1.5707964
2 1.5707976
3 -1.5707963
3 -3.1415923
3 -3.1415923
3 -3.1415925
3 -3.1415927
3 3.1415925
3 3.1415925
3 1.5707964
3 1.5707976
4 -1.5707963
4 -3.1415923
4 -3.1415923
4 -3.1415925
4 -3.1415927
4 3.1415925
4 3.1415925
4 1.5707964
4 1.5707976
5 -1.5707963
5 -3.1415923
5 -3.1415923
5 -3.1415925
5 -3.1415927
5 3.1415925
5 3.1415925
5 1.5707964
5 1.5707976
6 -1.5707963
6 -3.1415923
6 -3.1415923
6 -3.1415925
6 -3.1415927
6 3.1415925
6 3.1415925
6 1.5707964
6 1.5707976
7 -1.5707963
7 -3.1415923
7 -3.1415923
7 -3.1415925
7 -3.1415927
7 3.1415925
7 3.1415925
7 1.5707964
7 1.5707976
8 -1.5707963
8 -3.1415923
8 -3.1415923
8 -3.1415925
8 -3.1415927
8 3.1415925
8 3.1415925
8 1.5707964
8 1.5707976
9 -1.5707963
9 -3.1415923
9 -3.1415923
9 -3.1415925
9 -3.1415927
9 3.1415925
9 3.1415925
9 1.5707964
9 1.5707976
10 -1.5707963
10 -3.1415923
10 -3.1415923
10 -3.1415925
10 -3.1415927
10 3.1415925
10 3.1415925
10 1.5707964
10 1.5707976
11 0.002569975
11 3.1415155
11 3.1415355
11 3.1415424
11 3.1415424
11 3.1415353
11 3.1415157
11 3.1390648
11 1.5757364
12 -0.009154473
12 -3.1411617
12 -3.1412795
12 -3.141321
12 -3.1413243
12 -3.1412916
12 -3.1411948
12 -3.1324356
12 1.6038643
13 -0.009154473
13 -3.1411617
13 -3.1412795
13 -3.141321
13 -3.1413243
13 -3.1412916
13 -3.1411948
13 -3.1324356
13 1.6038643
14 -0.011113993
14 -3.1406279
14 -3.1409016
14 -3.1409988
14 -3.1410105
14 -3.1409452
14 -3.1407478
14 -3.1304739
14 1.62615
15 -0.011113993
15 -3.1406279
15 -3.1409016
15 -3.1409988
15 -3.1410105
15 -3.1409452
15 -3.1407478
15 -3.1304739
15 1.62615
16 -0.010687538
16 -3.139351
16 -3.1400595
16 -3.1403103
16 -3.1403632
16 -3.1402574
16 -3.1399086
16 -3.1309037
16 1.6893556
17 -0.010687538
17 -3.139351
17 -3.1400595
17 -3.1403103
17 -3.1403632
17 -3.1402574
17 -3.1399086
17 -3.1309037
17 1.6893556
18 -0.010687538
18 -3.139351
18 -3.1400595
18 -3.1403103
18 -3.1403632
18 -3.1402574
18 -3.1399086
18 -3.1309037
18 1.6893556
19 -0.010687538
19 -3.139351
19 -3.1400595
19 -3.1403103
19 -3.1403632
19 -3.1402574
19 -3.1399086
19 -3.1309037
19 1.6893556
20 -0.010210256
20 -3.1384666
20 -3.1395276
20 -3.1398985
20 -3.139993
20 -3.139882
20 -3.13948
20 -3.1313806
20 1.7317123
21 -0.009482237
21 -3.1376553
21 -3.1390886
21 -3.139579
21 -3.13972
21 -3.13962
21 -3.1392043
21 -3.1321099
21 1.7734183
22 -0.009482237
22 -3.1376553
22 -3.1390886
22 -3.139579
22 -3.13972
22 -3.13962
22 -3.1392043
22 -3.1321099
22 1.7734183
23 -0.009482237
23 -3.1376553
23 -3.1390886
23 -3.139579
23 -3.13972
23 -3.13962
23 -3.1392043
23 -3.1321099
23 1.7734183
24 -0.009361291
24 -3.13664
24 -3.1385605
24 -3.1392
24 -3.139398
24 -3.1393118
24 -3.1388774
24 -3.1322305
24 1.8108574
25 -0.009361291
25 -3.13664
25 -3.1385605
25 -3.1392
25 -3.139398
25 -3.1393118
25 -3.1388774
25 -3.1322305
25 1.8108574
26 -0.007487764
26 -3.1368287
26 -3.138777
26 -3.1394072
26 -3.1396117
26 -3.1395566
26 -3.1392016
26 -3.1341043
26 1.8421769
27 -0.00629531
27 -3.1370258
27 -3.1389692
27 -3.1395824
27 -3.1397867
27 -3.139752
27 -3.139452
27 -3.1352963
27 1.8654387
28 -0.0054241954
28 -3.137239
28 -3.1391513
28 -3.1397414
28 -3.1399415
28 -3.1399205
28 -3.139663
28 -3.1361678
28 1.8838388
29 -0.0054241954
29 -3.137239
29 -3.1391513
29 -3.1397414
29 -3.1399415
29 -3.1399205
29 -3.139663
29 -3.1361678
29 1.8838388
30 -0.004733316
30 -3.1375096
30 -3.1393454
30 -3.1399019
30 -3.1400926
30 -3.1400807
30 -3.1398573
30 -3.136859
30 1.8972309
31 -0.004733316
31 -3.1375096
31 -3.1393454
31 -3.1399019
31 -3.1400926
31 -3.1400807
31 -3.1398573
31 -3.136859
31 1.8972309
32 -0.004521827
32 -3.1373746
32 -3.1393192
32 -3.1398966
32 -3.1400962
32 -3.140092
32 -3.1398802
32 -3.1370704
32 1.9114227
33 -0.004521827
33 -3.1373746
33 -3.1393192
33 -3.1398966
33 -3.1400962
33 -3.140092
33 -3.1398802
33 -3.1370704
33 1.9114227
34 -0.0032409574
34 -3.1382294
34 -3.1398377
34 -3.1403003
34 -3.1404617
34 -3.1404667
34 -3.1403184
34 -3.1383512
34 1.932129
35 -0.0032409574
35 -3.1382294
35 -3.1398377
35 -3.1403003
35 -3.1404617
35 -3.1404667
35 -3.1403184
35 -3.1383512
35 1.932129
36 -0.002103961
36 -3.1390734
36 -3.1403408
36 -3.1406872
36 -3.1408098
36 -3.140821
36 -3.140729
36 -3.139488
36 1.9603481
37 -0.002103961
37 -3.1390734
37 -3.1403408
37 -3.1406872
37 -3.1408098
37 -3.140821
37 -3.140729
37 -3.139488
37 1.9603481
38 -1.0879565E-4
38 -3.1415448
38 -3.141571
38 -3.1415775
38 -3.1415799
38 -3.1415803
38 -3.1415792
38 -3.1414835
38 2.0047724
39 -1.0879565E-4
39 -3.1415448
39 -3.141571
39 -3.1415775
39 -3.1415799
39 -3.1415803
39 -3.1415792
39 -3.1414835
39 2.0047724
40 -1.0879565E-4
40 -3.1415448
40 -3.141571
40 -3.1415775
40 -3.1415799
40 -3.1415803
40 -3.1415792
40 -3.1414835
40 2.0047724
41 -1.0879565E-4
41 -3.1415448
41 -3.141571
41 -3.1415775
41 -3.1415799
41 -3.1415803
41 -3.1415792
41 -3.1414835
41 2.0047724
42 9.6176896E-4
42 3.13959
42 3.1407502
42 3.1410148
42 3.1411088
42 3.1411278
42 3.1410873
42 3.1406314
42 2.0352995
43 9.6176896E-4
43 3.13959
43 3.1407502
43 3.1410148
43 3.1411088
43 3.1411278
43 3.1410873
43 3.1406314
43 2.0352995
44 0.0014982531
44 3.138136
44 3.1402209
44 3.1406674
44 3.1408248
44 3.1408608
44 3.1408026
44 3.140095
44 2.0558703
45 0.0016512419
45 3.1370463
45 3.1399434
45 3.140505
45 3.140701
45 3.1407514
45 3.1406937
45 3.1399417
45 2.0828617
46 0.0016512419
46 3.1370463
46 3.1399434
46 3.140505
46 3.140701
46 3.1407514
46 3.1406937
46 3.1399417
46 2.0828617
47 5.355459E-4
47 3.1396203
47 3.1409578
47 3.141185
47 3.141263
47 3.141285
47 3.1412673
47 3.1410575
47 2.1123548
48 -9.169244E-4
48 -3.1379485
48 -3.1405814
48 -3.1409614
48 -3.1410897
48 -3.1411283
48 -3.1411066
48 -3.1406755
48 2.1411903
49 -0.0035140016
49 -3.1231997
49 -3.1371884
49 -3.138907
49 -3.1394775
49 -3.1396554
49 -3.1395817
49 -3.1380785
49 2.1636481
