0 [0.0, 0.0, 0.0, 0.0, 0.0, 0.0, 0.0, 0.0]
1 [0.0, 0.0, 0.0, 0.0, 0.0, 0.0, 0.0, 0.0]
2 [0.0, 0.0, 0.0, 0.0, 0.0, 0.0, 0.0, 0.0]
3 [0.0, 0.0, 0.0, 0.0, 0.0, 0.0, 0.0, 0.0]
4 [0.0, 0.0, 0.0, 0.0, 0.0, 0.0, 0.0, 0.0]
5 [0.0, 0.0, 0.0, 0.0, 0.0, 0.0, 0.0, 0.0]
6 [0.0, 0.96213037, 0.0, 0.0, 0.0, 0.0, 0.0, 0.0]
7 [0.0, 0.96582264, 0.0, 0.0, 0.0, 0.0, 0.0, 0.0]
8 [0.0, 0.9735494, 0.0, 0.0, 0.0, 0.0, 0.0, 0.0]
9 [0.0, 0.9735494, 0.0, 0.0, 0.0, 0.0, 0.0, 0.0]
10 [0.0, 0.9760558, 0.0, 0.0, 0.0, 0.0, 0.0, 0.0]
11 [0.0, 0.9763351, 0.0, 0.0, 0.0, 0.0, 0.0, 0.0]
12 [0.0, 0.9732623, 0.0, 0.0, 0.0, 0.0, 0.0, 0.0]
13 [0.0, 0.96821356, 0.0, 0.0, 0.0, 0.0, 0.0, 0.0]
14 [0.0, 0.9585403, 0.9586826, 0.0, 0.0, 0.0, 0.0, 0.0]
15 [0.0, 0.9550481, 0.94937986, 0.0, 0.0, 0.0, 0.0, 0.0]
16 [0.0, 0.95125717, 0.93990046, 0.0, 0.0, 0.0, 0.0, 0.0]
17 [0.0, 0.94566065, 0.9378792, 0.0, 0.0, 0.0, 0.0, 0.0]
18 [0.0, 0.9379614, 0.94042784, 0.0, 0.0, 0.0, 0.0, 0.0]
19 [0.0, 0.0, 0.94165653, 0.0, 0.0, 0.0, 0.0, 0.0]
20 [0.0, 0.0, 0.94165653, 0.0, 0.0, 0.0, 0.0, 0.0]
21 [0.0, 0.0, 0.9357594, 0.0, 0.0, 0.0, 0.0, 0.0]
22 [0.0, 0.0, 0.92485607, 0.0, 0.0, 0.0, 0.0, 0.0]
23 [0.0, 0.0, 0.92485607, 0.0, 0.0, 0.0, 0.0, 0.0]
24 [0.0, 0.0, 0.9051534, 0.0, 0.0, 0.0, 0.0, 0.0]
25 [0.0, 0.0, 0.8782399, 0.9396348, 0.0, 0.0, 0.0, 0.0]
26 [0.0, 0.0, 0.8475909, 0.8925451, 0.0, 0.0, 0.0, 0.0]
27 [0.0, 0.0, 0.7987201, 0.8287115, 0.0, 0.0, 0.0, 0.0]
28 [0.0, 0.0, 0.7726258, 0.7917626, 0.0, 0.0, 0.0, 0.0]
29 [0.0, 0.0, 0.7606127, 0.7753494, 0.0, 0.0, 0.0, 0.0]
30 [0.0, 0.0, 0.7311916, 0.734278, 0.0, 0.0, 0.0, 0.0]
31 [0.0, 0.0, 0.7144642, 0.7103807, 0.0, 0.0, 0.0, 0.0]
32 [0.0, 0.0, 0.88189715, 0.6986006, 0.0, 0.0, 0.0, 0.0]
33 [0.0, 0.0, 0.88189715, 0.6986006, 0.0, 0.0, 0.0, 0.0]
34 [0.0, 0.0, 0.8703026, 0.6963926, 0.0, 0.0, 0.0, 0.0]
35 [0.0, 0.0, 0.0, 0.69370425, 0.0, 0.0, 0.0, 0.0]
36 [0.0, 0.0, 0.0, 0.69086635, 0.7511165, 0.0, 0.0, 0.0]
37 [0.0, 0.0, 0.0, 0.68888706, 0.7308308, 0.0, 0.0, 0.0]
38 [0.0, 0.0, 0.0, 0.6873764, 0.71600056, 0.0, 0.0, 0.0]
39 [0.0, 0.0, 0.0, 0.68423796, 0.7029059, 0.0, 0.0, 0.0]
40 [0.0, 0.0, 0.0, 0.6784593, 0.68841636, 0.0, 0.0, 0.0]
41 [0.0, 0.0, 0.0, 0.67070633, 0.672206, 0.0, 0.0, 0.0]
42 [0.0, 0.0, 0.0, 0.66091305, 0.6545905, 0.0, 0.0, 0.0]
43 [0.0, 0.0, 0.0, 0.6509405, 0.6566183, 0.0, 0.0, 0.0]
44 [0.0, 0.0, 0.0, 0.8385402, 0.6588476, 0.0, 0.0, 0.0]
45 [0.0, 0.0, 0.0, 0.0, 0.65892875, 0.0, 0.0, 0.0]
46 [0.0, 0.0, 0.0, 0.0, 0.6561601, 0.694509, 0.0, 0.0]
47 [0.0, 0.0, 0.0, 0.0, 0.65238774, 0.6774427, 0.0, 0.0]
48 [0.0, 0.0, 0.0, 0.0, 0.65238774, 0.6774427, 0.0, 0.0]
49 [0.0, 0.0, 0.0, 0.0, 0.65136814, 0.6743746, 0.0, 0.0]
