1 114 71.0 71.0
2 1 1.0 72.0
3 102 97.0 169.0
4 104 96.5 265.5
5 48 47.5 313.0
6 154 132.0 445.0
7 96 87.0 532.0
8 103 96.5 628.5
9 572 427.0 1055.5
10 1 0.5 1056.0
11 224 172.0 1228.0
12 1 1.0 1229.0
13 700 554.5 1783.5
14 446 310.5 2094.0
15 1 1.0 2095.0
16 700 540.0 2635.0
17 286 228.5 2863.5
18 1 1.0 2864.5
19 700 562.0 3426.5
20 201 176.0 3602.5
21 247 210.5 3813.0
22 1 1.0 3814.0
23 600 480.5 4294.5
24 1 0.5 4295.0
25 269 221.5 4516.5
26 1 0.5 4517.0
27 1 1.0 4518.0
28 1 1.0 4519.0
29 396 354.5 4873.5
30 1 1.0 4874.5
31 700 601.0 5475.5
32 508 339.5 5815.0
33 1 1.0 5816.0
34 360 271.5 6087.5
35 1 1.0 6088.5
36 429 351.5 6440.0
37 1 0.5 6440.5
38 596 471.0 6911.5
39 1 1.0 6912.5
40 1 1.0 6913.5
41 299 248.5 7162.0
42 1 1.0 7163.0
43 202 189.5 7352.5
44 1 1.0 7353.5
45 1 1.0 7354.5
46 1 1.0 7355.5
47 642 524.0 7879.5
48 1 1.0 7880.5
49 159 128.5 8009.0
50 1 1.0 8010.0
51 497 399.0 8409.0
52 1 1.0 8410.0
53 1 1.0 8411.0
54 188 156.0 8567.0
55 1 1.0 8568.0
56 700 545.5 9113.5
57 135 122.0 9235.5
58 1 1.0 9236.5
59 339 285.5 9522.0
60 1 0.5 9522.5
61 595 461.5 9984.0
62 1 1.0 9985.0
63 645 524.0 10509.0
64 1 1.0 10510.0
65 700 563.0 11073.0
66 389 281.0 11354.0
67 1 1.0 11355.0
68 1 1.0 11356.0
69 700 491.5 11847.5
70 586 475.0 12322.5
71 585 471.0 12793.5
72 1 0.5 12794.0
73 578 445.5 13239.5
74 1 1.0 13240.5
75 439 268.5 13509.0
76 1 1.0 13510.0
77 627 533.0 14043.0
78 1 1.0 14044.0
79 546 439.0 14483.0
80 1 0.0 14483.0
81 1 0.0 14483.0
82 315 259.0 14742.0
83 1 0.0 14742.0
84 700 535.0 15277.0
85 276 236.5 15513.5
86 1 1.0 15514.5
87 700 505.0 16019.5
88 698 604.5 16624.0
89 1 1.0 16625.0
90 660 478.0 17103.0
91 1 1.0 17104.0
92 591 490.5 17594.5
93 1 0.5 17595.0
94 242 177.0 17772.0
95 700 499.0 18271.0
96 362 288.0 18559.0
97 1 1.0 18560.0
98 603 451.5 19011.5
99 1 1.0 19012.5
100 461 391.5 19404.0
101 1 0.5 19404.5
102 1 0.5 19405.0
103 508 417.0 19822.0
104 1 1.0 19823.0
105 1 1.0 19824.0
106 1 1.0 19825.0
107 667 478.0 20303.0
108 1 0.5 20303.5
109 1 0.5 20304.0
110 643 493.5 20797.5
111 1 0.5 20798.0
112 477 362.0 21160.0
113 1 1.0 21161.0
114 700 538.5 21699.5
115 348 279.0 21978.5
116 1 1.0 21979.5
117 355 295.5 22275.0
118 1 1.0 22276.0
119 217 144.5 22420.5
120 1 0.0 22420.5
121 507 397.0 22817.5
122 1 0.0 22817.5
123 482 380.5 23198.0
124 1 1.0 23199.0
125 1 1.0 23200.0
126 700 497.5 23697.5
127 469 416.5 24114.0
128 1 1.0 24115.0
129 239 198.0 24313.0
130 1 0.5 24313.5
131 1 0.5 24314.0
132 700 434.5 24748.5
133 352 242.5 24991.0
134 1 1.0 24992.0
135 700 586.0 25578.0
136 559 496.0 26074.0
137 1 1.0 26075.0
138 287 218.5 26293.5
139 700 530.5 26824.0
140 700 569.0 27393.0
141 116 105.0 27498.0
142 1 1.0 27499.0
143 617 520.5 28019.5
144 1 0.5 28020.0
145 1 0.5 28020.5
146 335 212.5 28233.0
147 680 559.0 28792.0
148 1 0.5 28792.5
149 313 240.0 29032.5
150 1 1.0 29033.5
151 633 496.5 29530.0
152 1 1.0 29531.0
153 1 1.0 29532.0
154 1 1.0 29533.0
155 1 1.0 29534.0
156 1 1.0 29535.0
157 483 325.0 29860.0
158 1 1.0 29861.0
159 494 417.0 30278.0
160 1 1.0 30279.0
161 400 291.5 30570.5
162 1 1.0 30571.5
163 526 385.5 30957.0
164 1 0.0 30957.0
165 200 170.5 31127.5
166 1 0.5 31128.0
167 284 225.0 31353.0
168 1 0.0 31353.0
169 700 548.5 31901.5
170 700 504.5 32406.0
171 305 248.0 32654.0
172 1 0.5 32654.5
173 1 0.5 32655.0
174 700 548.0 33203.0
175 552 405.5 33608.5
176 1 1.0 33609.5
177 691 484.5 34094.0
178 1 1.0 34095.0
179 570 414.0 34509.0
180 1 1.0 34510.0
181 508 394.0 34904.0
182 1 0.5 34904.5
183 582 397.0 35301.5
184 1 1.0 35302.5
185 700 546.0 35848.5
186 190 169.5 36018.0
187 1 0.5 36018.5
188 700 502.5 36521.0
189 627 499.0 37020.0
190 1 1.0 37021.0
191 612 467.5 37488.5
192 1 1.0 37489.5
193 1 1.0 37490.5
194 436 367.0 37857.5
195 1 1.0 37858.5
196 598 450.0 38308.5
197 1 1.0 38309.5
198 504 418.5 38728.0
199 1 1.0 38729.0
200 632 524.0 39253.0
201 1 1.0 39254.0
202 464 353.0 39607.0
203 1 1.0 39608.0
204 242 205.5 39813.5
205 1 1.0 39814.5
206 1 1.0 39815.5
207 304 243.5 40059.0
208 1 0.5 40059.5
209 607 463.5 40523.0
210 1 1.0 40524.0
211 356 281.0 40805.0
212 1 1.0 40806.0
213 700 478.5 41284.5
214 700 488.0 41772.5
215 700 521.5 42294.0
216 417 273.0 42567.0
217 1 1.0 42568.0
218 607 488.5 43056.5
219 1 1.0 43057.5
220 700 532.0 43589.5
221 302 259.5 43849.0
222 1 1.0 43850.0
223 380 272.0 44122.0
224 1 0.0 44122.0
225 700 485.5 44607.5
226 317 264.5 44872.0
227 1 1.0 44873.0
228 700 543.0 45416.0
229 323 268.5 45684.5
230 1 1.0 45685.5
231 1 1.0 45686.5
232 591 478.0 46164.5
233 1 1.0 46165.5
234 1 1.0 46166.5
235 300 242.0 46408.5
236 700 528.5 46937.0
237 700 424.0 47361.0
238 381 321.0 47682.0
239 1 0.5 47682.5
240 700 490.0 48172.5
241 340 294.5 48467.0
242 1 1.0 48468.0
243 1 0.0 48468.0
244 1 0.0 48468.0
245 1 0.0 48468.0
246 700 564.5 49032.5
247 700 539.5 49572.0
248 700 555.0 50127.0
249 348 284.0 50411.0
250 1 1.0 50412.0
251 700 574.0 50986.0
252 632 485.5 51471.5
253 1 1.0 51472.5
254 700 578.0 52050.5
255 529 429.5 52480.0
256 1 1.0 52481.0
257 575 424.0 52905.0
258 1 1.0 52906.0
259 429 285.5 53191.5
260 1 0.0 53191.5
261 464 257.5 53449.0
262 1 0.0 53449.0
263 426 319.0 53768.0
264 1 1.0 53769.0
265 700 515.0 54284.0
266 414 272.0 54556.0
267 1 1.0 54557.0
268 203 155.0 54712.0
269 1 0.5 54712.5
270 677 505.0 55217.5
271 1 1.0 55218.5
272 1 1.0 55219.5
273 700 564.5 55784.0
274 272 235.0 56019.0
275 1 0.0 56019.0
276 700 565.5 56584.5
277 700 501.0 57085.5
278 396 317.5 57403.0
279 1 1.0 57404.0
280 693 501.5 57905.5
281 700 521.0 58426.5
282 603 443.5 58870.0
283 1 1.0 58871.0
284 700 514.5 59385.5
285 700 535.5 59921.0
286 594 438.5 60359.5
287 1 0.5 60360.0
288 594 410.0 60770.0
289 1 1.0 60771.0
290 700 516.0 61287.0
291 201 139.5 61426.5
292 1 1.0 61427.5
293 1 1.0 61428.5
294 347 223.0 61651.5
295 1 1.0 61652.5
296 700 439.0 62091.5
297 282 245.5 62337.0
298 1 1.0 62338.0
299 366 263.5 62601.5
300 1 0.5 62602.0
301 423 285.0 62887.0
302 1 0.0 62887.0
303 495 336.5 63223.5
304 1 0.5 63224.0
305 1 0.5 63224.5
306 649 397.0 63621.5
307 255 205.0 63826.5
308 1 1.0 63827.5
309 700 538.5 64366.0
310 475 279.0 64645.0
311 1 0.5 64645.5
312 700 446.0 65091.5
313 700 453.0 65544.5
314 440 323.0 65867.5
315 1 1.0 65868.5
316 700 482.0 66350.5
317 285 202.0 66552.5
318 1 1.0 66553.5
319 1 1.0 66554.5
320 700 523.5 67078.0
321 700 530.0 67608.0
322 700 472.5 68080.5
323 680 454.0 68534.5
324 1 0.0 68534.5
325 604 473.5 69008.0
326 1 1.0 69009.0
327 1 1.0 69010.0
328 627 466.5 69476.5
329 700 571.5 70048.0
330 559 501.5 70549.5
331 1 1.0 70550.5
332 1 1.0 70551.5
333 700 510.0 71061.5
334 612 472.5 71534.0
335 1 1.0 71535.0
336 591 501.0 72036.0
337 1 1.0 72037.0
338 326 222.0 72259.0
339 1 1.0 72260.0
340 450 311.0 72571.0
341 1 0.5 72571.5
342 532 410.0 72981.5
343 1 1.0 72982.5
344 700 486.5 73469.0
345 700 565.5 74034.5
346 511 459.5 74494.0
347 1 0.5 74494.5
348 1 0.5 74495.0
349 700 530.5 75025.5
350 604 411.0 75436.5
351 1 1.0 75437.5
352 676 562.5 76000.0
353 1 1.0 76001.0
354 700 478.5 76479.5
355 700 491.0 76970.5
356 363 279.5 77250.0
357 1 1.0 77251.0
358 700 485.5 77736.5
359 700 456.0 78192.5
360 331 232.0 78424.5
361 1 0.5 78425.0
362 549 372.0 78797.0
363 1 0.5 78797.5
364 260 212.0 79009.5
365 1 1.0 79010.5
366 700 538.5 79549.0
367 283 174.5 79723.5
368 1 1.0 79724.5
369 524 384.0 80108.5
370 1 0.0 80108.5
371 700 474.0 80582.5
372 655 476.0 81058.5
373 1 0.0 81058.5
374 1 0.0 81058.5
375 700 539.0 81597.5
376 700 444.5 82042.0
377 700 551.0 82593.0
378 273 242.0 82835.0
379 1 1.0 82836.0
380 700 532.5 83368.5
381 634 459.0 83827.5
382 1 1.0 83828.5
383 700 528.5 84357.0
384 700 498.0 84855.0
385 380 270.5 85125.5
386 1 1.0 85126.5
387 700 538.0 85664.5
388 530 374.0 86038.5
389 1 0.0 86038.5
390 700 493.0 86531.5
391 260 161.0 86692.5
392 1 0.5 86693.0
393 700 509.0 87202.0
394 414 323.5 87525.5
395 1 1.0 87526.5
396 700 527.0 88053.5
397 700 462.5 88516.0
398 427 307.0 88823.0
399 1 1.0 88824.0
400 700 514.0 89338.0
401 414 302.0 89640.0
402 1 0.5 89640.5
403 1 0.5 89641.0
404 700 509.5 90150.5
405 665 490.5 90641.0
406 1 0.5 90641.5
407 700 483.5 91125.0
408 700 462.0 91587.0
409 450 338.5 91925.5
410 1 1.0 91926.5
411 700 545.0 92471.5
412 370 213.0 92684.5
413 1 0.5 92685.0
414 487 427.5 93112.5
415 276 189.5 93302.0
416 700 546.0 93848.0
417 700 530.0 94378.0
418 700 437.0 94815.0
419 700 532.5 95347.5
420 581 456.5 95804.0
421 1 1.0 95805.0
422 242 209.5 96014.5
423 1 0.5 96015.0
424 700 591.5 96606.5
425 700 562.5 97169.0
426 375 293.0 97462.0
427 1 1.0 97463.0
428 238 207.5 97670.5
429 1 1.0 97671.5
430 611 531.5 98203.0
431 1 0.5 98203.5
432 203 168.5 98372.0
433 1 1.0 98373.0
434 700 521.5 98894.5
435 459 319.0 99213.5
436 1 1.0 99214.5
437 1 1.0 99215.5
438 1 1.0 99216.5
439 1 1.0 99217.5
440 1 1.0 99218.5
441 600 424.5 99643.0
442 1 1.0 99644.0
443 700 479.0 100123.0
444 700 461.0 100584.0
445 666 438.5 101022.5
446 1 1.0 101023.5
447 1 1.0 101024.5
448 700 470.5 101495.0
449 700 576.5 102071.5
450 424 322.0 102393.5
451 1 0.0 102393.5
452 1 0.0 102393.5
453 700 557.0 102950.5
454 700 521.5 103472.0
455 700 480.5 103952.5
456 560 456.5 104409.0
457 1 1.0 104410.0
458 597 380.0 104790.0
459 1 1.0 104791.0
460 1 0.0 104791.0
461 700 538.5 105329.5
462 305 201.5 105531.0
463 1 1.0 105532.0
464 559 405.5 105937.5
465 79 66.0 106003.5
466 477 416.0 106419.5
467 1 1.0 106420.5
468 162 118.0 106538.5
469 1 0.5 106539.0
470 303 198.5 106737.5
471 1 1.0 106738.5
472 700 461.5 107200.0
473 527 390.0 107590.0
474 1 1.0 107591.0
475 117 94.0 107685.0
476 1 1.0 107686.0
477 1 1.0 107687.0
478 1 1.0 107688.0
479 700 495.0 108183.0
480 700 553.5 108736.5
481 700 545.5 109282.0
482 700 484.5 109766.5
483 494 329.0 110095.5
484 1 0.5 110096.0
485 700 484.0 110580.0
486 621 482.0 111062.0
487 1 1.0 111063.0
488 700 491.5 111554.5
489 700 581.5 112136.0
490 700 545.5 112681.5
491 458 353.0 113034.5
492 1 1.0 113035.5
493 1 1.0 113036.5
494 521 423.0 113459.5
495 113 93.0 113552.5
496 1 0.0 113552.5
497 235 190.0 113742.5
498 1 0.5 113743.0
499 700 477.5 114220.5
500 460 307.5 114528.0
501 1 0.0 114528.0
502 657 468.5 114996.5
503 1 0.5 114997.0
504 698 513.0 115510.0
505 1 1.0 115511.0
506 448 323.0 115834.0
507 1 1.0 115835.0
508 700 479.0 116314.0
509 363 314.5 116628.5
510 1 0.5 116629.0
511 700 506.5 117135.5
512 700 427.5 117563.0
513 557 368.5 117931.5
514 1 1.0 117932.5
515 568 434.5 118367.0
516 1 0.5 118367.5
517 525 418.0 118785.5
518 1 1.0 118786.5
519 700 471.5 119258.0
520 664 464.0 119722.0
521 1 1.0 119723.0
522 1 1.0 119724.0
523 1 1.0 119725.0
524 502 381.5 120106.5
525 525 333.5 120440.0
526 1 1.0 120441.0
527 700 501.0 120942.0
528 700 491.5 121433.5
529 700 435.0 121868.5
530 559 436.0 122304.5
531 1 1.0 122305.5
532 189 149.5 122455.0
533 1 1.0 122456.0
534 424 274.0 122730.0
535 300 215.0 122945.0
536 1 0.5 122945.5
537 700 560.0 123505.5
538 387 283.5 123789.0
539 1 0.0 123789.0
540 700 451.5 124240.5
541 412 296.0 124536.5
542 1 1.0 124537.5
543 469 359.5 124897.0
544 1 1.0 124898.0
545 700 510.5 125408.5
546 700 391.0 125799.5
547 700 523.5 126323.0
548 700 507.0 126830.0
549 197 142.5 126972.5
550 1 1.0 126973.5
551 700 598.0 127571.5
552 700 539.5 128111.0
553 700 551.5 128662.5
554 700 499.0 129161.5
555 602 400.5 129562.0
556 634 538.0 130100.0
557 1 0.0 130100.0
558 700 479.5 130579.5
559 352 302.5 130882.0
560 1 0.0 130882.0
561 251 210.0 131092.0
562 1 1.0 131093.0
563 700 477.5 131570.5
564 700 453.5 132024.0
565 700 477.0 132501.0
566 592 428.5 132929.5
567 1 1.0 132930.5
568 474 365.0 133295.5
569 1 1.0 133296.5
570 1 1.0 133297.5
571 700 504.5 133802.0
572 700 436.5 134238.5
573 700 477.0 134715.5
574 638 519.5 135235.0
575 1 0.5 135235.5
576 1 0.5 135236.0
577 700 498.5 135734.5
578 331 283.5 136018.0
579 1 1.0 136019.0
580 700 502.5 136521.5
581 700 459.0 136980.5
582 700 465.0 137445.5
583 700 498.5 137944.0
584 601 470.0 138414.0
585 1 1.0 138415.0
586 1 1.0 138416.0
587 229 171.5 138587.5
588 1 0.0 138587.5
589 700 521.0 139108.5
590 700 491.5 139600.0
591 700 481.0 140081.0
592 700 569.5 140650.5
593 700 456.5 141107.0
594 700 536.5 141643.5
595 700 546.5 142190.0
596 296 228.0 142418.0
597 1 1.0 142419.0
598 700 496.5 142915.5
599 700 504.5 143420.0
600 700 457.5 143877.5
601 127 105.5 143983.0
602 1 0.5 143983.5
603 1 0.5 143984.0
604 467 340.0 144324.0
605 1 0.0 144324.0
606 1 0.0 144324.0
607 628 435.0 144759.0
608 700 439.5 145198.5
609 700 468.5 145667.0
610 700 572.0 146239.0
611 676 437.0 146676.0
612 1 0.5 146676.5
613 653 485.0 147161.5
614 1 0.5 147162.0
615 1 0.5 147162.5
616 700 530.0 147692.5
617 345 279.0 147971.5
618 1 0.0 147971.5
619 700 483.0 148454.5
620 700 560.5 149015.0
621 700 521.5 149536.5
622 700 521.0 150057.5
623 587 445.5 150503.0
624 700 533.5 151036.5
625 700 527.0 151563.5
626 339 263.0 151826.5
627 1 0.5 151827.0
628 700 556.0 152383.0
629 700 448.0 152831.0
630 506 366.0 153197.0
631 1 0.5 153197.5
632 700 514.5 153712.0
633 700 515.5 154227.5
634 650 522.0 154749.5
635 1 1.0 154750.5
636 546 335.5 155086.0
637 1 0.5 155086.5
638 1 0.5 155087.0
639 1 0.5 155087.5
640 700 576.0 155663.5
641 431 308.5 155972.0
642 1 0.5 155972.5
643 700 488.5 156461.0
644 700 504.0 156965.0
645 700 554.0 157519.0
646 436 294.0 157813.0
647 1 1.0 157814.0
648 1 1.0 157815.0
649 700 588.0 158403.0
650 700 524.0 158927.0
651 700 509.5 159436.5
652 399 290.0 159726.5
653 1 1.0 159727.5
654 1 1.0 159728.5
655 700 485.0 160213.5
656 700 453.5 160667.0
657 700 452.5 161119.5
658 512 420.5 161540.0
659 1 1.0 161541.0
660 201 156.5 161697.5
661 1 1.0 161698.5
662 700 457.5 162156.0
663 700 500.0 162656.0
664 700 486.5 163142.5
665 700 494.5 163637.0
666 700 485.5 164122.5
667 694 526.0 164648.5
668 1 1.0 164649.5
669 1 1.0 164650.5
670 1 1.0 164651.5
671 700 496.0 165147.5
672 700 449.0 165596.5
673 700 486.0 166082.5
674 681 504.0 166586.5
675 560 417.5 167004.0
676 98 58.0 167062.0
677 187 128.5 167190.5
678 238 159.5 167350.0
679 511 366.0 167716.0
680 1 1.0 167717.0
681 700 486.5 168203.5
682 682 557.5 168761.0
683 1 1.0 168762.0
684 700 522.0 169284.0
685 700 514.5 169798.5
686 700 519.5 170318.0
687 700 520.0 170838.0
688 700 473.5 171311.5
689 387 335.5 171647.0
690 1 1.0 171648.0
691 289 224.0 171872.0
692 1 0.0 171872.0
693 700 482.5 172354.5
694 700 577.0 172931.5
695 700 437.0 173368.5
696 700 516.5 173885.0
697 700 450.0 174335.0
698 700 568.0 174903.0
699 700 485.5 175388.5
700 650 421.0 175809.5
701 1 1.0 175810.5
702 700 549.5 176360.0
703 700 488.0 176848.0
704 470 346.5 177194.5
705 1 1.0 177195.5
706 700 529.5 177725.0
707 589 409.0 178134.0
708 1 1.0 178135.0
709 289 226.5 178361.5
710 1 0.5 178362.0
711 276 223.5 178585.5
712 1 1.0 178586.5
713 700 544.0 179130.5
714 700 447.5 179578.0
715 347 289.5 179867.5
716 1 1.0 179868.5
717 178 113.5 179982.0
718 1 0.0 179982.0
719 536 418.0 180400.0
720 1 1.0 180401.0
721 393 257.0 180658.0
722 1 0.5 180658.5
723 700 577.0 181235.5
724 105 73.0 181308.5
725 700 529.5 181838.0
726 700 420.0 182258.0
727 700 440.5 182698.5
728 700 442.0 183140.5
729 700 416.5 183557.0
730 336 258.0 183815.0
731 1 0.5 183815.5
732 700 518.0 184333.5
733 700 571.5 184905.0
734 700 561.5 185466.5
735 700 477.5 185944.0
736 687 501.5 186445.5
737 1 1.0 186446.5
738 700 542.5 186989.0
739 609 467.5 187456.5
740 1 0.0 187456.5
741 298 214.0 187670.5
742 700 532.0 188202.5
743 238 183.5 188386.0
744 1 0.5 188386.5
745 681 558.5 188945.0
746 1 0.5 188945.5
747 700 495.5 189441.0
748 587 393.0 189834.0
749 1 0.5 189834.5
750 1 0.5 189835.0
751 700 532.0 190367.0
752 700 472.5 190839.5
753 700 504.0 191343.5
754 305 210.0 191553.5
755 1 1.0 191554.5
756 1 1.0 191555.5
757 1 1.0 191556.5
758 700 523.5 192080.0
759 388 294.0 192374.0
760 1 0.0 192374.0
761 531 413.5 192787.5
762 1 0.0 192787.5
763 572 437.0 193224.5
764 1 1.0 193225.5
765 700 565.0 193790.5
766 700 523.0 194313.5
767 700 481.5 194795.0
768 700 469.5 195264.5
769 700 498.0 195762.5
770 700 545.5 196308.0
771 700 425.5 196733.5
772 700 510.5 197244.0
773 700 547.5 197791.5
774 700 533.0 198324.5
775 423 264.5 198589.0
776 700 477.0 199066.0
777 248 207.5 199273.5
778 1 0.0 199273.5
779 642 473.0 199746.5
780 700 589.5 200336.0
781 700 503.0 200839.0
782 700 447.0 201286.0
783 522 414.0 201700.0
784 1 1.0 201701.0
785 1 1.0 201702.0
786 1 0.5 201702.5
787 700 500.5 202203.0
788 311 205.5 202408.5
789 1 0.5 202409.0
790 700 562.0 202971.0
791 700 549.5 203520.5
792 682 530.0 204050.5
793 700 524.5 204575.0
794 700 449.5 205024.5
795 518 350.5 205375.0
796 1 0.0 205375.0
797 700 486.5 205861.5
798 700 553.0 206414.5
799 462 322.5 206737.0
800 700 557.0 207294.0
801 700 554.0 207848.0
802 700 558.0 208406.0
803 700 380.5 208786.5
804 700 471.0 209257.5
805 700 588.0 209845.5
806 700 466.0 210311.5
807 558 402.5 210714.0
808 1 1.0 210715.0
809 700 478.0 211193.0
810 700 541.5 211734.5
811 700 553.0 212287.5
812 700 509.0 212796.5
813 700 507.5 213304.0
814 700 561.5 213865.5
815 700 543.5 214409.0
816 700 538.5 214947.5
817 700 529.0 215476.5
818 700 486.5 215963.0
819 700 511.0 216474.0
820 447 349.0 216823.0
821 1 0.5 216823.5
822 700 536.5 217360.0
823 700 577.5 217937.5
824 700 475.0 218412.5
825 700 460.5 218873.0
826 700 501.0 219374.0
827 700 431.5 219805.5
828 559 430.5 220236.0
829 1 0.5 220236.5
830 700 503.0 220739.5
831 700 502.0 221241.5
832 700 431.5 221673.0
833 700 532.0 222205.0
834 700 472.0 222677.0
835 700 465.5 223142.5
836 700 479.0 223621.5
837 700 492.5 224114.0
838 700 413.0 224527.0
839 700 497.5 225024.5
840 700 554.5 225579.0
841 700 520.5 226099.5
842 700 499.5 226599.0
843 700 467.5 227066.5
844 700 539.5 227606.0
845 700 501.0 228107.0
846 700 514.5 228621.5
847 700 438.5 229060.0
848 700 480.5 229540.5
849 700 495.5 230036.0
850 312 230.0 230266.0
851 1 1.0 230267.0
852 1 0.0 230267.0
853 1 0.0 230267.0
854 1 0.0 230267.0
855 1 0.0 230267.0
856 700 440.0 230707.0
857 700 467.5 231174.5
858 700 561.5 231736.0
859 700 468.5 232204.5
860 700 504.5 232709.0
861 700 525.5 233234.5
862 700 534.0 233768.5
863 700 512.5 234281.0
864 700 595.5 234876.5
865 700 538.5 235415.0
866 700 505.5 235920.5
867 700 578.0 236498.5
868 700 466.5 236965.0
869 700 475.0 237440.0
870 244 205.5 237645.5
871 1 1.0 237646.5
872 388 273.0 237919.5
873 1 0.0 237919.5
874 497 383.0 238302.5
875 1 0.0 238302.5
876 700 549.5 238852.0
877 700 494.0 239346.0
878 700 452.0 239798.0
879 700 424.0 240222.0
880 700 473.5 240695.5
881 700 457.0 241152.5
882 700 614.5 241767.0
883 700 570.0 242337.0
884 700 354.0 242691.0
885 700 522.5 243213.5
886 700 508.5 243722.0
887 700 565.0 244287.0
888 692 547.0 244834.0
889 531 396.5 245230.5
890 1 1.0 245231.5
891 700 471.0 245702.5
892 700 533.5 246236.0
893 700 494.0 246730.0
894 653 509.0 247239.0
895 1 0.0 247239.0
896 691 546.0 247785.0
897 1 1.0 247786.0
898 700 575.0 248361.0
899 700 583.5 248944.5
900 700 528.0 249472.5
901 700 474.5 249947.0
902 700 595.0 250542.0
903 432 352.0 250894.0
904 1 1.0 250895.0
905 700 525.5 251420.5
906 700 512.5 251933.0
907 700 480.0 252413.0
908 619 461.0 252874.0
909 1 1.0 252875.0
910 700 471.0 253346.0
911 700 512.5 253858.5
912 700 508.0 254366.5
913 700 509.5 254876.0
914 700 528.5 255404.5
915 700 445.5 255850.0
916 506 391.0 256241.0
917 1 0.5 256241.5
918 1 0.5 256242.0
919 700 453.0 256695.0
920 700 496.5 257191.5
921 700 487.0 257678.5
922 700 534.5 258213.0
923 700 465.0 258678.0
924 700 522.5 259200.5
925 677 580.0 259780.5
926 1 1.0 259781.5
927 700 531.5 260313.0
928 700 546.0 260859.0
929 700 511.5 261370.5
930 656 450.5 261821.0
931 1 0.5 261821.5
932 700 365.5 262187.0
933 700 492.5 262679.5
934 700 459.0 263138.5
935 700 533.5 263672.0
936 700 562.0 264234.0
937 700 487.0 264721.0
938 700 520.5 265241.5
939 700 567.0 265808.5
940 700 530.0 266338.5
941 700 456.5 266795.0
942 700 517.5 267312.5
943 700 522.5 267835.0
944 434 339.0 268174.0
945 1 1.0 268175.0
946 700 527.5 268702.5
947 700 501.5 269204.0
948 700 491.5 269695.5
949 396 288.0 269983.5
950 1 1.0 269984.5
951 666 466.0 270450.5
952 1 1.0 270451.5
953 700 530.5 270982.0
954 700 556.5 271538.5
955 700 468.0 272006.5
956 281 219.0 272225.5
957 501 339.0 272564.5
958 1 1.0 272565.5
959 700 449.5 273015.0
960 586 446.5 273461.5
961 1 0.5 273462.0
962 700 562.0 274024.0
963 595 422.0 274446.0
964 1 0.0 274446.0
965 1 0.0 274446.0
966 1 0.0 274446.0
967 700 408.0 274854.0
968 700 481.0 275335.0
969 700 423.0 275758.0
970 700 455.5 276213.5
971 700 598.0 276811.5
972 700 514.0 277325.5
973 700 516.0 277841.5
974 700 490.0 278331.5
975 700 536.0 278867.5
976 700 466.5 279334.0
977 700 492.5 279826.5
978 700 539.0 280365.5
979 700 501.5 280867.0
980 700 481.0 281348.0
981 700 439.5 281787.5
982 700 475.0 282262.5
983 700 498.5 282761.0
984 661 486.0 283247.0
985 1 0.5 283247.5
986 700 458.5 283706.0
987 700 539.5 284245.5
988 700 509.0 284754.5
989 700 489.0 285243.5
990 700 530.0 285773.5
991 700 597.0 286370.5
992 700 503.0 286873.5
993 614 433.5 287307.0
994 1 1.0 287308.0
995 700 444.0 287752.0
996 700 405.5 288157.5
997 700 566.0 288723.5
998 700 528.5 289252.0
999 700 511.5 289763.5
1000 700 480.5 290244.0
1001 700 459.0 290703.0
1002 104 75.5 290778.5
1003 700 550.5 291329.0
1004 700 452.0 291781.0
1005 700 474.0 292255.0
1006 346 260.5 292515.5
1007 1 0.5 292516.0
1008 700 536.5 293052.5
1009 700 461.0 293513.5
1010 700 449.5 293963.0
1011 700 489.0 294452.0
1012 700 541.0 294993.0
1013 700 523.0 295516.0
1014 700 516.0 296032.0
1015 700 425.0 296457.0
1016 700 448.0 296905.0
1017 700 510.0 297415.0
1018 700 450.5 297865.5
1019 700 450.5 298316.0
1020 700 446.5 298762.5
1021 539 362.0 299124.5
1022 1 0.5 299125.0
1023 700 384.0 299509.0
1024 700 506.0 300015.0
1025 679 473.0 300488.0
1026 1 1.0 300489.0
1027 700 535.0 301024.0
1028 700 440.0 301464.0
1029 700 428.5 301892.5
1030 700 535.5 302428.0
1031 700 498.5 302926.5
1032 700 511.0 303437.5
1033 700 523.5 303961.0
1034 700 523.0 304484.0
1035 573 425.0 304909.0
1036 1 0.5 304909.5
1037 700 448.0 305357.5
1038 402 334.0 305691.5
1039 1 1.0 305692.5
1040 700 494.0 306186.5
1041 700 440.5 306627.0
1042 580 473.5 307100.5
1043 1 1.0 307101.5
1044 700 510.0 307611.5
1045 700 494.0 308105.5
1046 700 525.0 308630.5
1047 495 364.0 308994.5
1048 1 0.5 308995.0
1049 1 0.5 308995.5
1050 1 0.5 308996.0
1051 700 475.0 309471.0
1052 700 421.5 309892.5
1053 700 502.0 310394.5
1054 700 476.5 310871.0
1055 700 502.5 311373.5
1056 700 507.0 311880.5
1057 700 553.0 312433.5
1058 700 478.0 312911.5
1059 348 278.0 313189.5
1060 1 0.5 313190.0
1061 590 395.5 313585.5
1062 474 385.0 313970.5
1063 1 1.0 313971.5
1064 700 501.0 314472.5
1065 700 428.0 314900.5
1066 700 573.5 315474.0
1067 700 502.0 315976.0
1068 700 589.5 316565.5
1069 700 481.0 317046.5
1070 700 422.5 317469.0
1071 700 440.0 317909.0
1072 558 468.5 318377.5
1073 1 1.0 318378.5
1074 700 550.0 318928.5
1075 700 419.5 319348.0
1076 393 317.5 319665.5
1077 1 1.0 319666.5
1078 700 496.0 320162.5
1079 700 475.5 320638.0
1080 700 405.0 321043.0
1081 700 437.5 321480.5
1082 700 525.0 322005.5
1083 700 576.0 322581.5
1084 700 500.5 323082.0
1085 700 487.0 323569.0
1086 700 469.5 324038.5
1087 700 555.5 324594.0
1088 700 505.5 325099.5
1089 700 499.5 325599.0
1090 700 521.0 326120.0
1091 700 434.5 326554.5
1092 700 464.5 327019.0
1093 700 545.5 327564.5
1094 700 574.0 328138.5
1095 700 536.5 328675.0
1096 638 433.5 329108.5
1097 1 0.5 329109.0
1098 1 1.0 329110.0
1099 233 171.0 329281.0
1100 199 159.5 329440.5
1101 700 446.0 329886.5
1102 700 581.5 330468.0
1103 700 538.0 331006.0
1104 404 266.5 331272.5
1105 1 1.0 331273.5
1106 700 428.5 331702.0
1107 700 558.5 332260.5
1108 700 527.0 332787.5
1109 680 490.5 333278.0
1110 1 1.0 333279.0
1111 700 510.5 333789.5
1112 700 483.5 334273.0
1113 700 476.5 334749.5
1114 700 512.0 335261.5
1115 700 437.0 335698.5
1116 700 476.0 336174.5
1117 700 519.0 336693.5
1118 700 509.0 337202.5
1119 700 436.5 337639.0
1120 700 433.0 338072.0
1121 700 560.5 338632.5
1122 700 430.5 339063.0
1123 700 546.5 339609.5
1124 700 439.5 340049.0
1125 700 500.0 340549.0
1126 700 535.5 341084.5
1127 700 564.0 341648.5
1128 626 500.0 342148.5
1129 1 1.0 342149.5
1130 700 512.5 342662.0
1131 700 453.5 343115.5
1132 700 460.5 343576.0
1133 700 531.0 344107.0
1134 700 531.0 344638.0
1135 700 497.0 345135.0
1136 700 533.0 345668.0
1137 700 443.5 346111.5
1138 700 511.0 346622.5
1139 700 495.0 347117.5
1140 700 531.0 347648.5
1141 700 485.0 348133.5
1142 700 506.5 348640.0
1143 700 469.5 349109.5
1144 700 503.0 349612.5
1145 700 412.5 350025.0
1146 700 515.5 350540.5
1147 700 551.5 351092.0
1148 700 482.0 351574.0
1149 700 495.5 352069.5
1150 700 535.5 352605.0
1151 700 418.0 353023.0
1152 700 489.0 353512.0
1153 700 537.5 354049.5
1154 700 487.0 354536.5
1155 700 548.0 355084.5
1156 700 511.0 355595.5
1157 700 563.0 356158.5
1158 700 472.5 356631.0
1159 700 437.0 357068.0
1160 700 482.0 357550.0
1161 700 446.5 357996.5
1162 700 531.5 358528.0
1163 700 489.0 359017.0
1164 700 431.5 359448.5
1165 700 578.5 360027.0
1166 588 485.5 360512.5
1167 1 1.0 360513.5
1168 700 532.0 361045.5
1169 700 404.0 361449.5
1170 700 499.5 361949.0
1171 700 504.5 362453.5
1172 700 569.5 363023.0
1173 700 528.0 363551.0
1174 700 468.5 364019.5
1175 700 497.5 364517.0
1176 700 488.0 365005.0
1177 700 420.5 365425.5
1178 700 490.0 365915.5
1179 700 504.0 366419.5
1180 700 509.0 366928.5
1181 607 456.0 367384.5
1182 1 1.0 367385.5
1183 700 481.0 367866.5
1184 700 442.0 368308.5
1185 700 532.5 368841.0
1186 700 518.0 369359.0
1187 700 484.5 369843.5
1188 700 494.5 370338.0
1189 700 463.5 370801.5
1190 700 538.5 371340.0
1191 700 535.0 371875.0
1192 700 401.0 372276.0
1193 215 180.0 372456.0
1194 700 469.5 372925.5
1195 549 420.0 373345.5
1196 1 1.0 373346.5
1197 700 510.5 373857.0
1198 700 531.5 374388.5
1199 700 445.0 374833.5
1200 700 513.5 375347.0
