0 [1.0, 1.0, 1.0, 1.0, 1.0, 1.0, 1.0, 1.0]
1 [1.0, 1.0, 1.0, 1.0, 1.0, 1.0, 1.0, 1.0]
2 [1.0, 1.0, 1.0, 1.0, 1.0, 1.0, 1.0, 1.0]
3 [1.0, 1.0, 1.0, 1.0, 1.0, 1.0, 1.0, 1.0]
4 [1.0, 1.0, 1.0, 1.0, 1.0, 1.0, 1.0, 1.0]
5 [1.0, 1.0, 1.0, 1.0, 1.0, 1.0, 1.0, 1.0]
6 [1.0, 1.0, 1.0, 1.0, 1.0, 1.0, 1.0, 1.0]
7 [1.0, 1.0, 1.0, 1.0, 1.0, 1.0, 1.0, 1.0]
8 [1.0, 1.0, 1.0, 1.0, 1.0, 1.0, 1.0, 1.0]
9 [1.0, 1.0, 1.0, 1.0, 1.0, 1.0, 1.0, 1.0]
10 [1.0, 1.0000204, 1.0082054, 1.0606307, 1.0082054, 1.0000204, 1.0, 1.0]
11 [1.0, 1.0002327, 1.0938722, 1.6936269, 1.0938722, 1.0002502, 1.0070717, 1.0522535]
12 [1.0522535, 1.0072607, 1.0762444, 1.5632441, 1.0762268, 1.0004218, 1.0939219, 1.6939938]
13 [1.6716167, 1.0910271, 1.0541991, 1.3988156, 1.0539738, 1.0003105, 1.0713439, 1.5271645]
14 [1.5271645, 1.071445, 1.0409789, 1.3014894, 1.0408021, 1.0003186, 1.087728, 1.6482271]
15 [1.3992138, 1.0541041, 1.0309412, 1.2276373, 1.0308074, 1.0004082, 1.1338503, 1.9890273]
16 [1.301791, 1.0409007, 1.0233849, 1.1720449, 1.0232837, 1.0003185, 1.1052333, 1.7775754]
17 [1.2278651, 1.0307388, 0.95999295, 0.7038211, 0.95991653, 1.0000982, 1.0797018, 1.5889206]
18 [1.172217, 1.0230772, 0.90734404, 0.31493336, 0.9072863, 0.99978036, 1.004108, 1.030354]
19 [0.71530616, 0.9612878, 0.9260373, 0.45419097, 0.9261328, 0.99966675, 0.9394254, 0.5524111]
20 [0.31461316, 0.90710413, 0.9437675, 0.58619356, 0.9439974, 0.9997382, 0.95039296, 0.6334509]
21 [0.4536671, 0.9259569, 0.957477, 0.68714917, 0.95766026, 0.9998015, 0.9622747, 0.7212455]
22 [0.58578086, 0.9438623, 0.96789247, 0.7637825, 0.9680314, 0.9995824, 0.86350673, -0.008556247]
23 [0.6902613, 0.9580222, 0.97599906, 0.8234233, 0.97610295, 0.99967325, 0.8920911, 0.20265484]
24 [0.7658989, 0.9682731, 0.98186046, 0.8665462, 0.981939, 0.9997523, 0.91812307, 0.39500678]
25 [0.8230698, 0.97602123, 0.9862904, 0.8991378, 0.98634976, 0.99981266, 0.9380992, 0.54261166]
26 [0.8664127, 0.9818953, 0.9896489, 0.9238462, 0.9896937, 0.9998586, 0.953262, 0.6546501]
27 [0.8990369, 0.9863168, 0.99217683, 0.9424442, 0.9922107, 0.9998931, 0.9646761, 0.7389896]
28 [0.92377, 0.9896688, 0.99409324, 0.95654374, 0.9941188, 0.9999193, 0.9733294, 0.8029297]
29 [0.94238657, 0.99219185, 0.9955358, 0.96715647, 0.9955551, 0.999939, 0.97984284, 0.8510575]
30 [0.9564567, 0.9940987, 0.996626, 0.9751774, 0.9966406, 0.9999539, 0.9847655, 0.8874317]
31 [0.96712357, 0.99554443, 0.99745256, 0.9812582, 0.9974636, 0.9999652, 0.98849756, 0.9150077]
32 [0.97515255, 0.9966373, 0.99999166, 1.0, 1.0, 0.99998474, 0.99384815, 0.95454353]
33 [1.0, 1.0, 1.0, 1.0, 1.0, 0.9999885, 0.9953552, 0.96567905]
34 [1.0, 1.0, 1.0, 1.0, 1.0, 1.0, 1.0, 1.0]
35 [1.0, 1.0, 1.0, 1.0, 1.0, 0.99999344, 0.9973468, 0.98039556]
36 [1.0, 1.0, 1.0, 1.0, 1.0, 1.0, 1.0, 1.0]
37 [1.0, 1.0, 1.0, 1.0, 1.0, 1.0, 1.0, 1.0]
38 [1.0, 1.0, 1.0, 1.0, 1.0, 1.0, 1.0, 1.0]
39 [1.0, 1.0, 1.0, 1.0, 1.0, 1.0, 1.0, 1.0]
40 [1.0, 1.0, 1.0, 1.0, 1.0, 1.0, 1.0, 1.0]
41 [1.0, 1.0, 1.0, 1.0, 1.0, 1.0, 1.0, 1.0]
42 [1.0, 1.0, 1.0, 1.0, 1.0, 1.0, 1.0, 1.0]
43 [1.0, 1.0, 1.0, 1.0, 1.0, 1.0, 1.0, 1.0]
44 [1.0, 1.0, 1.0, 1.0, 1.0, 1.0, 1.0, 1.0]
45 [1.0, 1.0, 1.0, 1.0, 1.0, 1.0002335, 1.0942252, 1.6962347]
46 [1.0, 1.0, 1.0, 1.0, 1.0, 1.000197, 1.0794941, 1.5873861]
47 [1.0, 1.0, 1.0, 1.0, 1.0, 1.0001502, 1.0605838, 1.4476575]
48 [1.0, 1.0, 1.0, 1.0, 1.0, 1.0001135, 1.0457731, 1.3382202]
49 [1.0, 1.0, 1.0, 1.0, 1.0, 1.0000857, 1.0345964, 1.255635]
