0 [0.0, 0.0, 0.0, 0.0, 0.0, 0.0, 0.0, 0.0]
1 [0.0, 0.0, 0.0, 0.0, 0.0, 0.0, 0.0, 0.0]
2 [0.0, 0.0, 0.0, 0.0, 0.0, 0.0, 0.0, 0.0]
3 [0.041280225, 0.041280225, 0.025719782, 0.08328022, 0.08328022, 0.025719782, 0.025719782, 0.061280217]
4 [0.041280225, 0.041280225, 0.025719782, 0.4582802, 0.4582802, 0.025719782, 0.025719782, 0.9362802]
5 [0.99063736, 0.99063736, 0.026362639, 0.083637364, 0.083637364, 0.026362639, 0.026362639, 0.6606374]
6 [0.04063737, 0.04063737, 0.026362639, 0.58363736, 0.58363736, 0.026362639, 0.026362639, 0.56063735]
7 [0.9959465, 0.58685565, 0.025598904, 0.0834011, 0.0834011, 0.026598902, 0.026598902, 1.0149466]
8 [0.041401103, 0.041401103, 0.025598904, 0.0834011, 0.0834011, 0.026598902, 0.026598902, 0.060401108]
9 [0.9424725, 0.9424725, 0.025527477, 0.58347255, 0.9834725, 0.027527476, 0.5285275, 0.5584725]
10 [0.04247253, 0.04247253, 0.025527477, 0.083472535, 0.083472535, 0.027527476, 0.028527474, 0.058472537]
11 [0.92342305, 0.9234419, 0.020745775, 0.62409955, 0.97032017, 0.5245876, 0.52557695, 1.6825769]
12 [0.046247255, 0.041256856, 0.027076332, 0.9878032, 0.63690406, 0.0317607, 0.036005586, 0.58215636]
13 [0.048663836, 0.041546743, 0.026639994, 0.9117578, 0.6266301, 0.031766146, 0.039110716, 0.93719745]
14 [0.7473045, 0.4768388, 0.026297046, 1.235231, 0.9296628, 0.8342041, 0.8977273, 0.8430787]
15 [0.071860634, 0.03970233, 0.025967268, 0.108095124, 0.085402966, 0.03395588, 0.041273903, 0.08579838]
16 [0.065839924, 0.039059766, 0.025716878, 0.101961344, 0.08458285, 0.033958916, 0.04302402, 0.10353872]
17 [0.061255697, 0.038570516, 0.025528384, 0.09734412, 0.083965495, 0.033955872, 0.04193814, 0.0925316]
18 [0.06445618, 0.01907433, 0.08111413, 0.0587652, 0.95272243, 0.03850928, 0.048052657, 0.07546499]
19 [0.06684213, 0.017369827, 0.07714418, 0.31515023, 0.8634142, 0.041968804, 0.049179215, 0.8181237]
20 [0.040788174, 0.016320765, 0.07873352, 0.038162023, 0.0323943, 0.041964035, 0.04601119, 0.02431823]
21 [0.0205069, 0.008906572, 0.08699773, 0.051691324, 0.03570074, 0.04980563, 0.05304969, 0.027756983]
22 [0.029570619, 0.009091681, 0.08826149, 0.060593724, 0.03621745, 0.049808785, 0.053712912, 0.031604026]
23 [0.015542505, 0.09772087, 0.098272994, 0.7817062, 0.041588113, 0.060936082, 0.058248747, -4.0604558E-4]
24 [0.0145220375, 0.093923025, 0.581733, 0.43555927, 0.04193488, 0.06094162, 0.055275336, 0.10983113]
25 [0.019538837, 0.097322084, 1.043892, 0.86581457, 0.081326485, 0.099797614, 0.08522234, 0.21073176]
26 [0.020997323, 0.098100856, 0.095187865, 0.029212102, 0.048813466, 0.06647655, 0.0558066, 0.01817153]
27 [0.023931077, 0.9180271, 0.9213178, 0.8016328, 0.05282899, 0.06836945, 0.8538486, 0.59205186]
28 [0.024832185, 0.10023038, 0.096857175, 0.032400407, 0.052963343, 0.06837181, 0.060175646, 0.021710873]
29 [0.02848968, 0.102767855, 0.09726274, 0.034587994, 0.057817303, 0.070153676, 0.06536816, 0.019398244]
30 [0.10146189, 1.0281452, 0.9436749, 0.03804326, 0.06404921, 0.07133081, 0.06989724, 0.7682197]
31 [0.102976754, 0.10702947, 0.019269923, 0.038358763, 0.06411904, 0.07133187, 0.0702484, 0.024550647]
32 [0.10665544, 1.0347021, 0.95259744, 0.04435985, 0.07324213, 0.07548552, 0.06252179, 0.8026917]
33 [1.0086887, 1.0323577, 0.8982992, 0.050626468, 0.075401664, 0.07859068, 0.051988464, 0.830284]
34 [0.11156388, 0.108042054, 0.025593182, 0.05159342, 0.0755934, 0.07859222, 0.05226987, 0.030933509]
35 [0.11912088, 0.11012088, 0.02787913, 0.057879128, 0.07687913, 0.081878185, 0.043675303, 0.0339155]
36 [0.12343407, 0.02243407, 0.02956594, 0.06256593, 0.07456595, 0.08156594, 0.034565937, 0.039434064]
37 [1.0144439, 0.9124439, 0.906445, 0.06844504, 0.96933395, 0.07344458, 0.40037996, 0.041720677]
38 [0.12555495, 0.023554951, 0.031445056, 0.06844504, 0.08044506, 0.07344507, 0.026445061, 0.042554945]
39 [1.0628333, 0.9598333, 0.034499995, 0.06850001, 0.079500005, 0.059499998, 0.017499989, 0.046499997]
40 [0.5548901, 0.5248901, 0.5511099, 0.57810986, 0.5761099, 0.035109885, 0.023890108, 0.04989011]
41 [0.054890115, 0.7748901, 0.05110989, 0.07810989, 0.07610989, 0.035109885, 0.77389014, 0.04989011]
42 [0.049609885, 0.04237912, 0.05837913, 0.086379126, 0.051884625, 0.024884626, 0.01811538, 1.1246209]
43 [0.04411538, 0.036884613, 0.052884623, 0.08088462, 0.051884625, 0.024884626, 0.8931154, 0.13011539]
44 [0.7733901, 0.041390117, 0.0763901, 0.0573901, 0.040390115, 0.7743901, 0.10860989, 0.113609895]
45 [0.55573076, 0.5472692, 0.54026926, 0.03426922, 0.029269228, 0.09873077, 0.5997308, 0.51426923]
46 [0.505555, 0.00844505, 0.014445056, 0.10055495, 0.97955495, 0.6025549, 0.54244506, 0.5544451]
47 [0.033280224, 0.017280215, 0.11228022, 0.6102802, 0.5477198, 0.5728535, 0.6562285, 0.98842955]
48 [0.033280224, 0.017280215, 0.11228022, 0.9852802, 0.04771977, 0.072734095, 0.10764693, 0.13130824]
49 [0.6419835, 0.6389835, 0.028016476, 0.072016485, 0.12701647, 0.6171092, 0.5928838, 0.7571487]
