0 [1.0, 1.0, 1.0, 1.0, 1.0, 1.0, 1.0, 1.0]
1 [1.0, 1.0, 1.0, 1.0, 1.0, 1.0, 1.0, 1.0]
2 [1.0, 1.0, 1.0, 1.0, 1.0, 1.0, 1.0, 1.0]
3 [1.0, 1.0, 1.0, 1.0, 1.0, 1.0, 1.0, 1.0]
4 [1.0, 1.0, 1.0, 1.0, 1.0, 1.0, 1.0, 1.0]
5 [1.0, 1.0, 1.0, 1.0, 1.0, 1.0, 1.0, 1.0]
6 [1.0, 1.0, 1.0, 1.0, 1.0, 1.0, 1.0, 1.0]
7 [1.0, 1.0, 1.0, 1.0, 1.0, 1.0, 1.0, 1.0]
8 [1.0, 1.0, 1.0, 1.0, 1.0, 1.0, 1.0, 1.0]
9 [1.0, 1.0, 1.0, 1.0, 1.0, 1.0, 1.0, 1.0]
10 [1.0, 1.0, 1.0, 1.0, 1.0, 1.0, 1.0, 1.0]
11 [1.0, 1.0, 1.0, 1.0, 1.0, 1.0, 1.0, 1.0]
12 [1.0942376, 1.6963267, 1.0942376, 1.0002337, 1.0, 1.0, 1.0, 1.0]
13 [1.079421, 1.586847, 1.079421, 1.0001968, 1.0, 1.0, 1.0, 1.0]
14 [1.0605237, 1.4472129, 1.0605237, 1.00015, 1.0, 1.0, 1.0, 1.0]
15 [1.7420542, 1.43212, 1.045961, 1.0001134, 1.0, 1.0, 1.0, 1.0]
16 [1.6214088, 1.3348005, 1.0347587, 1.0000857, 1.0, 1.0, 1.0, 1.0]
17 [1.4728642, 1.2532831, 1.0262451, 1.0000647, 1.0, 1.0, 1.0, 1.0]
18 [1.3576049, 1.1914573, 1.0198358, 1.0000489, 1.0, 1.0, 1.0, 1.0]
19 [1.086969, 0.5346658, 0.93427753, 0.999837, 1.0, 1.0, 1.0, 1.0]
20 [0.29782552, 0.54495454, 0.9501491, 0.999877, 1.0, 1.0, 1.0, 1.0]
21 [0.33401316, 0.63883007, 0.9624237, 0.9999074, 1.0, 1.0, 1.0, 1.0]
22 [0.48912704, 0.72621745, 0.9716259, 0.9999301, 1.0, 1.0, 1.0, 1.0]
23 [0.6134068, 0.793014, 0.97855514, 0.99994713, 1.0, 1.0, 1.0, 1.0]
24 [0.7080817, 0.8437157, 0.9838085, 0.99996006, 1.0, 1.0, 1.0, 1.0]
25 [0.77937114, 0.88188267, 0.98776275, 0.99996984, 1.0, 1.0, 1.0, 1.0]
26 [0.8332522, 0.9107288, 0.99075127, 0.99997723, 1.0, 1.0, 1.0, 1.0]
27 [0.8742265, 0.9326651, 0.99302393, 0.99998283, 1.0, 1.0, 1.0, 1.0]
28 [0.9050374, 0.9491602, 0.99473286, 0.999987, 1.0, 1.0, 1.0, 1.0]
29 [0.92948186, 0.9620598, 0.9960629, 0.9999903, 1.0, 1.0, 1.0, 1.0]
30 [0.9470429, 0.9716485, 0.9970627, 0.9999928, 1.0, 1.0, 1.0, 1.0]
31 [1.0, 1.0, 1.0, 1.0, 1.0, 1.0, 1.0, 1.0]
32 [0.97144717, 0.9961358, 0.9999904, 1.0, 1.0, 1.0, 1.0, 1.0]
33 [0.97844183, 0.9970824, 0.9999928, 1.0, 1.0, 1.0, 1.0, 1.0]
34 [1.0, 1.0, 1.0, 1.0, 1.0, 1.0, 1.0, 1.0]
35 [1.0, 1.0, 1.0, 1.0, 1.0, 1.0, 1.0, 1.0]
36 [1.0, 1.0, 1.0, 1.0, 1.0, 1.0, 1.0, 1.0]
37 [1.0, 1.0, 1.0, 1.0, 1.0, 1.0, 1.0, 1.0]
38 [1.0, 1.0, 1.0, 1.0, 1.0, 1.0, 1.0, 1.0]
39 [1.0, 1.0, 1.0, 1.0, 1.0, 1.0, 1.0, 1.0]
40 [1.0, 1.0, 1.0, 1.0, 1.0, 1.0, 1.0, 1.0]
41 [1.0, 1.0, 1.0, 1.0, 1.0, 1.0, 1.0, 1.0]
42 [1.0, 1.0, 1.0, 1.0, 1.0, 1.0, 1.0, 1.0]
43 [1.6962347, 1.0942252, 1.0002335, 1.0, 1.0, 1.0, 1.0, 1.0]
44 [1.5873861, 1.0794941, 1.000197, 1.0, 1.0, 1.0, 1.0, 1.0]
45 [1.4472129, 1.0605237, 1.00015, 1.0, 1.0, 1.0, 1.0, 1.0]
46 [1.3382202, 1.0457731, 1.0001135, 1.0, 1.0, 1.0, 1.0, 1.0]
47 [1.2553794, 1.0345619, 1.0000857, 1.0, 1.0, 1.0, 1.0, 1.0]
48 [1.1928196, 1.0260953, 1.0000647, 1.0, 1.0, 1.0, 1.0, 1.0]
49 [1.1457299, 1.0197225, 1.0000489, 1.0, 1.0, 1.0, 1.0, 1.0]
