0 [10.0, 10.0, 10.0, 10.0, 10.0, 10.0, 10.0, 10.0, 10.0, 10.0, 10.0, 10.0, 10.0, 10.0, 10.0, 10.0, 10.0, 10.0, 10.0, 10.0, 10.0, 10.0, 10.0, 10.0, 10.0, 10.0, 10.0, 10.0, 10.0, 10.0, 10.0, 10.0, 10.0, 10.0, 10.0, 10.0, 10.0, 10.0, 10.0, 10.0, 10.0, 10.0, 10.0, 10.0, 10.0, 10.0, 10.0, 10.0, 10.0, 10.0, 10.0, 10.0, 10.0, 10.0, 10.0, 10.0, 10.0, 10.0, 10.0, 10.0, 10.0, 10.0, 10.0, 10.0, 10.0, 10.0, 10.0, 10.0, 10.0, 10.0, 10.0, 10.0, 10.0, 10.0, 10.0, 10.0, 10.0, 10.0, 10.0, 10.0, 10.0, 10.0, 10.0, 10.0, 10.0, 10.0, 10.0, 10.0, 10.0, 10.0, 10.0, 10.0, 10.0, 10.0, 10.0, 10.0, 10.0, 10.0, 10.0, 10.0, 10.0, 10.0, 10.0, 10.0, 10.0, 10.0, 10.0, 10.0, 10.0, 10.0, 10.0, 10.0, 10.0, 10.0, 10.0, 10.0, 10.0, 10.0, 10.0, 10.0, 10.0, 10.0, 10.0, 10.0, 10.0, 10.0, 10.0, 10.0, 10.0, 10.0, 10.0, 10.0, 10.0, 10.0, 10.0, 10.0, 10.0, 10.0, 10.0, 10.0, 10.0, 10.0, 10.0, 10.0, 10.0, 10.0, 10.0, 10.0, 10.0, 10.0, 10.0, 10.0, 10.0, 10.0, 10.0, 10.0, 10.0, 10.0, 10.0, 10.0, 10.0, 10.0, 10.0, 10.0, 10.0, 10.0, 10.0, 10.0, 10.0, 10.0, 10.0, 10.0, 10.0, 10.0, 10.0, 10.0, 10.0, 10.0, 10.0, 10.0, 10.0, 10.0]
1 [2.36, 2.4, 2.43, 2.43, 2.43, 2.43, 2.43, 2.42, 2.42, 2.42, 2.42, 2.42, 2.42, 2.42, 2.42, 2.41, 2.41, 2.41, 2.41, 2.41, 2.41, 2.41, 2.41, 2.4, 2.4, 2.4, 2.4, 2.4, 2.4, 2.4, 2.4, 1.74, 1.74, 1.74, 1.74, 1.74, 1.74, 1.74, 1.74, 1.74, 1.74, 1.74, 1.78, 1.82, 1.86, 1.9, 2.38, 2.38, 2.38, 2.38, 2.38, 2.38, 2.38, 2.38, 2.38, 2.38, 2.37, 2.37, 2.37, 2.37, 2.37, 2.37, 2.37, 2.37, 2.37, 2.37, 2.37, 2.37, 2.37, 2.36, 2.36, 2.36, 2.36, 2.36, 2.36, 2.36, 2.36, 2.36, 2.36, 2.36, 2.36, 2.36, 2.36, 2.35, 2.35, 2.35, 2.35, 2.35, 2.35, 2.35, 2.35, 2.35, 2.35, 2.35, 2.35, 2.35, 2.35, 2.34, 2.34, 2.34, 2.34, 2.34, 2.34, 2.34, 2.34, 2.34, 2.34, 2.34, 2.34, 2.34, 2.34, 2.33, 2.33, 2.33, 2.33, 2.33, 2.33, 2.33, 2.33, 2.33, 2.33, 2.33, 2.33, 2.33, 2.32, 2.32, 2.32, 2.32, 2.32, 2.32, 2.32, 2.32, 2.32, 2.32, 2.32, 2.32, 2.32, 2.31, 2.31, 2.31, 2.31, 2.31, 2.31, 2.31, 2.31, 2.31, 2.31, 2.31, 2.31, 2.3, 2.3, 2.3, 2.3, 2.3, 2.3, 2.3, 2.3, 2.3, 2.3, 2.29, 2.29, 2.29, 2.29, 2.29, 2.29, 2.29, 2.29, 2.29, 2.29, 2.28, 2.28, 2.28, 2.28, 2.28, 2.28, 2.28, 2.28, 2.27, 2.27, 2.27, 2.27, 2.27]
2 [2.31, 2.35, 2.39, 2.43, 2.47, 2.48, 2.48, 2.48, 2.48, 2.48, 2.47, 2.47, 2.47, 2.47, 2.46, 2.46, 2.46, 2.46, 2.46, 2.45, 2.45, 2.45, 2.45, 2.45, 2.44, 2.44, 2.44, 2.44, 2.44, 2.44, 2.43, 2.43, 2.43, 2.43, 1.77, 1.76, 1.76, 1.76, 1.76, 1.76, 1.76, 1.76, 1.76, 1.76, 1.77, 1.81, 1.85, 1.89, 1.94, 2.4, 2.4, 2.4, 2.4, 2.4, 2.4, 2.4, 2.39, 2.39, 2.39, 2.39, 2.39, 2.39, 2.39, 2.39, 2.38, 2.38, 2.38, 2.38, 2.38, 2.38, 2.38, 2.38, 2.37, 2.37, 2.37, 2.37, 2.37, 2.37, 2.37, 2.37, 2.36, 2.36, 2.36, 2.36, 2.36, 2.36, 2.36, 2.36, 2.36, 2.35, 2.35, 2.35, 2.35, 2.35, 2.35, 2.35, 2.35, 2.34, 2.34, 2.34, 2.34, 2.34, 2.34, 2.34, 2.34, 2.34, 2.33, 2.33, 2.33, 2.33, 2.33, 2.33, 2.33, 2.33, 2.32, 2.32, 2.32, 2.32, 2.32, 2.32, 2.32, 2.32, 2.31, 2.31, 2.31, 2.31, 2.31, 2.31, 2.31, 2.31, 2.3, 2.3, 2.3, 2.3, 2.3, 2.3, 2.3, 2.3, 2.29, 2.29, 2.29, 2.29, 2.29, 2.29, 2.29, 2.28, 2.28, 2.28, 2.28, 2.28, 2.28, 2.28, 2.27, 2.27, 2.27, 2.27, 2.27, 2.27, 2.27, 2.26, 2.26, 2.26, 2.26, 2.26, 2.26, 2.25, 2.25, 2.25, 2.25, 2.25, 2.25, 2.24, 2.24, 2.24, 2.24, 2.24, 2.23, 2.23, 2.23, 2.23, 2.23, 2.22]
3 [1.48, 1.5, 1.52, 2.3, 2.33, 2.37, 2.4, 2.44, 2.48, 2.52, 2.56, 2.6, 2.63, 2.62, 2.62, 2.61, 2.61, 2.6, 2.6, 2.6, 2.59, 2.59, 2.58, 2.58, 2.57, 2.57, 2.56, 2.56, 2.56, 2.55, 2.55, 2.54, 2.54, 2.54, 2.53, 2.53, 2.53, 2.52, 2.52, 2.52, 2.51, 1.82, 1.82, 1.82, 1.82, 1.81, 1.81, 1.81, 1.81, 1.81, 1.8, 1.8, 1.84, 1.88, 1.92, 1.96, 2.46, 2.46, 2.45, 2.45, 2.45, 2.45, 2.44, 2.44, 2.44, 2.43, 2.43, 2.43, 2.43, 2.42, 2.42, 2.42, 2.42, 2.41, 2.41, 2.41, 2.4, 2.4, 2.4, 2.4, 2.39, 2.39, 2.39, 2.39, 2.38, 2.38, 2.38, 2.38, 2.37, 2.37, 2.37, 2.37, 2.36, 2.36, 2.36, 2.36, 2.35, 2.35, 2.35, 2.35, 2.34, 2.34, 2.34, 2.34, 2.33, 2.33, 2.33, 2.33, 2.32, 2.32, 2.32, 2.32, 2.31, 2.31, 2.31, 2.31, 2.3, 2.3, 2.3, 2.3, 2.29, 2.29, 2.29, 2.29, 2.28, 2.28, 2.28, 2.28, 2.27, 2.27, 2.27, 2.27, 2.26, 2.26, 2.26, 2.25, 2.25, 2.25, 2.25, 2.24, 2.24, 2.24, 2.24, 2.23, 2.23, 2.23, 2.22, 2.22, 2.22, 2.22, 2.21, 2.21, 2.21, 2.2, 2.2, 2.2, 2.2, 2.19, 2.19, 2.19, 2.18, 2.18, 2.18, 2.17, 2.17, 2.17, 2.16, 2.16, 2.16, 2.15, 2.15, 2.15, 2.14, 2.14, 2.14, 2.13, 2.13, 2.12, 2.12, 2.12, 2.11, 2.11]
4 [0.82, 0.83, 0.84, 0.85, 0.87, 0.88, 0.89, 1.52, 1.54, 1.57, 1.59, 1.61, 1.63, 1.66, 2.5, 2.53, 2.57, 2.6, 2.64, 2.68, 2.72, 2.75, 2.79, 2.82, 2.81, 2.8, 2.79, 2.79, 2.78, 2.77, 2.76, 2.75, 2.74, 2.74, 2.73, 2.72, 2.71, 2.71, 2.7, 2.69, 2.68, 2.68, 2.67, 2.66, 2.66, 2.65, 2.64, 2.64, 2.63, 2.62, 2.62, 2.61, 1.9, 1.89, 1.89, 1.88, 1.88, 1.87, 1.87, 1.87, 1.86, 1.86, 1.85, 1.89, 1.93, 1.97, 2.01, 2.52, 2.52, 2.51, 2.51, 2.5, 2.5, 2.49, 2.49, 2.48, 2.48, 2.47, 2.47, 2.46, 2.46, 2.45, 2.45, 2.44, 2.44, 2.43, 2.43, 2.42, 2.42, 2.41, 2.41, 2.4, 2.4, 2.4, 2.39, 2.39, 2.38, 2.38, 2.37, 2.37, 2.36, 2.36, 2.35, 2.35, 2.35, 2.34, 2.34, 2.33, 2.33, 2.32, 2.32, 2.32, 2.31, 2.31, 2.3, 2.3, 2.29, 2.29, 2.28, 2.28, 2.28, 2.27, 2.27, 2.26, 2.26, 2.25, 2.25, 2.24, 2.24, 2.24, 2.23, 2.23, 2.22, 2.22, 2.21, 2.21, 2.2, 2.2, 2.2, 2.19, 2.19, 2.18, 2.18, 2.17, 2.17, 2.16, 2.16, 2.15, 2.15, 2.14, 2.14, 2.13, 2.13, 2.13, 2.12, 2.12, 2.11, 2.11, 2.1, 2.1, 2.09, 2.09, 2.08, 2.07, 2.07, 2.06, 2.06, 2.05, 2.05, 2.04, 2.04, 2.03, 2.03, 2.02, 2.01, 2.01, 2.0, 2.0, 1.99, 1.99, 1.98, 1.97]
5 [0.79, 0.78, 0.79, 0.8, 0.81, 0.82, 0.83, 0.84, 0.85, 0.87, 0.88, 0.89, 0.9, 0.91, 0.92, 0.93, 0.95, 0.96, 0.97, 1.66, 1.68, 1.7, 1.72, 1.75, 1.77, 2.66, 2.7, 2.73, 2.77, 2.8, 2.84, 2.88, 2.92, 2.95, 2.99, 2.98, 2.96, 2.95, 2.94, 2.93, 2.91, 2.9, 2.89, 2.88, 2.87, 2.86, 2.85, 2.84, 2.83, 2.81, 2.8, 2.79, 2.78, 2.77, 2.76, 2.75, 2.75, 2.74, 2.73, 2.72, 2.71, 2.7, 2.69, 2.68, 1.94, 1.94, 1.93, 1.92, 1.92, 1.91, 1.91, 1.9, 1.89, 1.89, 1.91, 1.94, 1.98, 2.02, 2.06, 2.55, 2.54, 2.54, 2.53, 2.52, 2.51, 2.51, 2.5, 2.49, 2.49, 2.48, 2.47, 2.47, 2.46, 2.45, 2.44, 2.44, 2.43, 2.42, 2.42, 2.41, 2.4, 2.4, 2.39, 2.38, 2.38, 2.37, 2.36, 2.36, 2.35, 2.34, 2.34, 2.33, 2.33, 2.32, 2.31, 2.31, 2.3, 2.29, 2.29, 2.28, 2.27, 2.27, 2.26, 2.26, 2.25, 2.24, 2.24, 2.23, 2.22, 2.22, 2.21, 2.21, 2.2, 2.19, 2.19, 2.18, 2.17, 2.17, 2.16, 2.15, 2.15, 2.14, 2.14, 2.13, 2.12, 2.12, 2.11, 2.1, 2.1, 2.09, 2.08, 2.08, 2.07, 2.06, 2.06, 2.05, 2.04, 2.04, 2.03, 2.02, 2.02, 2.01, 2.0, 2.0, 1.99, 1.98, 1.97, 1.97, 1.96, 1.95, 1.95, 1.94, 1.93, 1.92, 1.92, 1.91, 1.9, 1.89, 1.89, 1.88, 1.87, 1.86]
6 [1.85, 1.87, 1.9, 0.9, 0.89, 0.88, 0.87, 0.86, 0.85, 0.84, 0.84, 0.84, 0.85, 0.86, 0.87, 0.88, 0.89, 0.9, 0.91, 0.92, 0.93, 0.94, 0.95, 0.96, 0.97, 0.98, 1.0, 1.01, 1.73, 1.75, 1.77, 1.79, 1.81, 1.83, 1.85, 2.79, 2.83, 2.86, 2.89, 2.93, 2.96, 3.0, 3.03, 3.07, 3.1, 3.09, 3.07, 3.06, 3.04, 3.02, 3.01, 2.99, 2.98, 2.96, 2.95, 2.94, 2.92, 2.91, 2.9, 2.88, 2.87, 2.86, 2.84, 2.83, 2.82, 2.81, 2.79, 2.78, 2.77, 2.76, 2.75, 2.74, 2.73, 2.71, 1.96, 1.95, 1.94, 1.94, 1.93, 1.92, 1.91, 1.91, 1.9, 1.89, 1.9, 1.94, 1.97, 2.01, 2.05, 2.55, 2.54, 2.53, 2.52, 2.51, 2.5, 2.5, 2.49, 2.48, 2.47, 2.46, 2.45, 2.44, 2.43, 2.42, 2.42, 2.41, 2.4, 2.39, 2.38, 2.37, 2.36, 2.36, 2.35, 2.34, 2.33, 2.32, 2.31, 2.31, 2.3, 2.29, 2.28, 2.27, 2.27, 2.26, 2.25, 2.24, 2.23, 2.23, 2.22, 2.21, 2.2, 2.19, 2.19, 2.18, 2.17, 2.16, 2.15, 2.15, 2.14, 2.13, 2.12, 2.11, 2.11, 2.1, 2.09, 2.08, 2.07, 2.07, 2.06, 2.05, 2.04, 2.03, 2.03, 2.02, 2.01, 2.0, 1.99, 1.99, 1.98, 1.97, 1.96, 1.95, 1.94, 1.94, 1.93, 1.92, 1.91, 1.9, 1.89, 1.88, 1.88, 1.87, 1.86, 1.85, 1.84, 1.83, 1.82, 1.81, 1.81, 1.8, 1.79, 1.78]
7 [1.8, 1.82, 1.84, 1.86, 1.88, 1.9, 1.92, 1.94, 1.97, 0.94, 0.93, 0.92, 0.9, 0.89, 0.88, 0.87, 0.86, 0.85, 0.86, 0.87, 0.88, 0.89, 0.9, 0.91, 0.92, 0.93, 0.94, 0.95, 0.96, 0.97, 0.98, 0.99, 1.0, 1.01, 1.02, 1.76, 1.78, 1.8, 1.82, 1.84, 1.86, 1.88, 2.84, 2.87, 2.9, 2.94, 2.97, 3.0, 3.03, 3.07, 3.1, 3.14, 3.16, 3.14, 3.12, 3.1, 3.08, 3.07, 3.05, 3.03, 3.02, 3.0, 2.98, 2.97, 2.95, 2.93, 2.92, 2.9, 2.89, 2.87, 2.86, 2.84, 2.83, 2.82, 2.8, 2.79, 2.78, 2.76, 2.75, 2.74, 2.72, 2.71, 1.95, 1.94, 1.93, 1.92, 1.91, 1.9, 1.9, 1.89, 1.88, 1.87, 1.87, 1.9, 1.94, 1.97, 2.01, 2.52, 2.51, 2.5, 2.49, 2.48, 2.47, 2.46, 2.45, 2.44, 2.43, 2.42, 2.41, 2.4, 2.39, 2.38, 2.37, 2.36, 2.35, 2.34, 2.33, 2.32, 2.31, 2.3, 2.29, 2.28, 2.27, 2.26, 2.25, 2.24, 2.23, 2.22, 2.21, 2.2, 2.19, 2.18, 2.18, 2.17, 2.16, 2.15, 2.14, 2.13, 2.12, 2.11, 2.1, 2.09, 2.08, 2.07, 2.07, 2.06, 2.05, 2.04, 2.03, 2.02, 2.01, 2.0, 1.99, 1.98, 1.97, 1.96, 1.96, 1.95, 1.94, 1.93, 1.92, 1.91, 1.9, 1.89, 1.88, 1.87, 1.86, 1.85, 1.84, 1.83, 1.82, 1.81, 1.8, 1.8, 1.79, 1.78, 1.77, 1.76, 1.75, 1.74, 1.73, 1.72]
8 [1.76, 1.78, 1.8, 1.82, 1.84, 1.86, 1.88, 1.9, 1.93, 1.95, 1.97, 1.99, 2.01, 0.95, 0.94, 0.93, 0.91, 0.9, 0.89, 0.88, 0.87, 0.86, 0.87, 0.88, 0.89, 0.89, 0.9, 0.91, 0.92, 0.93, 0.94, 0.95, 0.96, 0.97, 0.98, 0.99, 1.0, 1.01, 1.02, 1.03, 1.79, 1.81, 1.82, 1.84, 1.86, 1.88, 1.9, 2.88, 2.91, 2.94, 2.97, 3.0, 3.04, 3.07, 3.1, 3.14, 3.17, 3.18, 3.16, 3.14, 3.12, 3.1, 3.08, 3.06, 3.05, 3.03, 3.01, 2.99, 2.97, 2.96, 2.94, 2.92, 2.91, 2.89, 2.88, 2.86, 2.84, 2.83, 2.81, 2.8, 2.78, 2.77, 2.75, 2.74, 2.73, 2.71, 2.7, 1.93, 1.92, 1.92, 1.91, 1.9, 1.89, 1.88, 1.87, 1.86, 1.85, 1.84, 1.87, 1.91, 1.94, 1.98, 2.01, 2.48, 2.47, 2.46, 2.45, 2.44, 2.43, 2.42, 2.4, 2.39, 2.38, 2.37, 2.36, 2.35, 2.34, 2.33, 2.32, 2.31, 2.3, 2.29, 2.28, 2.26, 2.25, 2.24, 2.23, 2.22, 2.21, 2.2, 2.19, 2.18, 2.17, 2.16, 2.15, 2.14, 2.13, 2.12, 2.11, 2.1, 2.09, 2.08, 2.07, 2.06, 2.05, 2.04, 2.03, 2.02, 2.01, 2.0, 1.99, 1.98, 1.97, 1.96, 1.95, 1.94, 1.93, 1.92, 1.92, 1.91, 1.9, 1.89, 1.88, 1.87, 1.86, 1.85, 1.84, 1.83, 1.82, 1.81, 1.8, 1.78, 1.77, 1.76, 1.75, 1.74, 1.73, 1.72, 1.71, 1.7, 1.69, 1.68]
9 [1.75, 1.77, 1.79, 1.8, 1.82, 1.84, 1.86, 1.88, 1.9, 1.92, 1.94, 1.96, 1.98, 2.0, 2.02, 2.04, 2.07, 0.96, 0.95, 0.94, 0.92, 0.91, 0.9, 0.89, 0.87, 0.88, 0.89, 0.89, 0.9, 0.91, 0.92, 0.93, 0.94, 0.95, 0.96, 0.97, 0.98, 0.99, 1.0, 1.01, 1.02, 1.03, 1.04, 1.8, 1.82, 1.83, 1.85, 1.87, 1.89, 1.91, 2.89, 2.92, 2.95, 2.98, 3.01, 3.05, 3.08, 3.11, 3.14, 3.18, 3.21, 3.2, 3.17, 3.15, 3.13, 3.11, 3.09, 3.07, 3.05, 3.03, 3.02, 3.0, 2.98, 2.96, 2.94, 2.93, 2.91, 2.89, 2.88, 2.86, 2.84, 2.83, 2.81, 2.79, 2.78, 2.76, 2.75, 2.73, 2.72, 2.7, 2.69, 1.93, 1.92, 1.91, 1.9, 1.89, 1.88, 1.87, 1.86, 1.85, 1.84, 1.84, 1.87, 1.91, 1.94, 1.97, 2.48, 2.47, 2.45, 2.44, 2.43, 2.42, 2.41, 2.39, 2.38, 2.37, 2.36, 2.35, 2.34, 2.32, 2.31, 2.3, 2.29, 2.28, 2.27, 2.26, 2.25, 2.24, 2.22, 2.21, 2.2, 2.19, 2.18, 2.17, 2.16, 2.15, 2.14, 2.13, 2.12, 2.11, 2.1, 2.09, 2.07, 2.06, 2.05, 2.04, 2.03, 2.02, 2.01, 2.0, 1.99, 1.98, 1.97, 1.96, 1.95, 1.94, 1.93, 1.92, 1.91, 1.9, 1.89, 1.88, 1.87, 1.86, 1.85, 1.84, 1.83, 1.81, 1.8, 1.79, 1.78, 1.77, 1.76, 1.75, 1.74, 1.73, 1.72, 1.71, 1.7, 1.69, 1.68, 1.66]
10 [1.75, 1.77, 1.79, 1.81, 1.83, 1.85, 1.87, 1.89, 1.91, 1.93, 1.95, 1.97, 1.99, 2.01, 2.03, 0.96, 0.95, 0.93, 0.92, 0.91, 0.9, 0.88, 0.87, 0.86, 0.87, 0.88, 0.89, 0.9, 0.91, 0.91, 0.92, 0.93, 0.94, 0.95, 0.96, 0.97, 0.98, 0.99, 1.0, 1.01, 1.02, 1.03, 1.79, 1.81, 1.83, 1.84, 1.86, 1.88, 1.9, 2.88, 2.91, 2.94, 2.97, 3.0, 3.04, 3.07, 3.1, 3.13, 3.17, 3.2, 3.18, 3.16, 3.14, 3.12, 3.1, 3.08, 3.06, 3.04, 3.02, 3.0, 2.99, 2.97, 2.95, 2.93, 2.92, 2.9, 2.88, 2.87, 2.85, 2.83, 2.82, 2.8, 2.79, 2.77, 2.76, 2.74, 2.73, 2.71, 2.7, 2.68, 1.92, 1.91, 1.9, 1.89, 1.88, 1.87, 1.86, 1.85, 1.84, 1.84, 1.84, 1.87, 1.9, 1.94, 1.97, 2.48, 2.46, 2.45, 2.44, 2.43, 2.42, 2.4, 2.39, 2.38, 2.37, 2.36, 2.35, 2.34, 2.32, 2.31, 2.3, 2.29, 2.28, 2.27, 2.26, 2.25, 2.24, 2.23, 2.22, 2.21, 2.19, 2.18, 2.17, 2.16, 2.15, 2.14, 2.13, 2.12, 2.11, 2.1, 2.09, 2.08, 2.07, 2.06, 2.05, 2.04, 2.03, 2.02, 2.01, 2.0, 1.99, 1.98, 1.97, 1.96, 1.95, 1.94, 1.93, 1.92, 1.91, 1.9, 1.89, 1.88, 1.87, 1.86, 1.84, 1.83, 1.82, 1.81, 1.8, 1.79, 1.78, 1.77, 1.76, 1.75, 1.74, 1.73, 1.72, 1.71, 1.7, 1.69, 1.68, 1.67]
11 [1.75, 1.77, 1.79, 1.81, 1.83, 1.85, 1.87, 1.89, 1.91, 1.93, 1.95, 1.97, 0.93, 0.92, 0.9, 0.89, 0.88, 0.87, 0.85, 0.84, 0.84, 0.84, 0.85, 0.86, 0.87, 0.88, 0.89, 0.9, 0.91, 0.92, 0.92, 0.93, 0.94, 0.95, 0.96, 0.97, 0.98, 0.99, 1.0, 1.75, 1.77, 1.78, 1.8, 1.82, 1.84, 1.86, 1.88, 2.85, 2.88, 2.91, 2.94, 2.97, 3.01, 3.04, 3.07, 3.1, 3.14, 3.17, 3.15, 3.13, 3.11, 3.09, 3.07, 3.05, 3.03, 3.01, 2.99, 2.97, 2.96, 2.94, 2.92, 2.91, 2.89, 2.87, 2.86, 2.84, 2.83, 2.81, 2.8, 2.78, 2.77, 2.75, 2.74, 2.72, 2.71, 2.69, 2.68, 2.67, 1.9, 1.89, 1.88, 1.88, 1.87, 1.86, 1.85, 1.84, 1.83, 1.82, 1.82, 1.85, 1.89, 1.92, 1.96, 2.46, 2.45, 2.44, 2.43, 2.42, 2.41, 2.4, 2.38, 2.37, 2.36, 2.35, 2.34, 2.33, 2.32, 2.31, 2.3, 2.29, 2.28, 2.27, 2.26, 2.24, 2.23, 2.22, 2.21, 2.2, 2.19, 2.18, 2.17, 2.16, 2.15, 2.14, 2.13, 2.12, 2.11, 2.1, 2.09, 2.08, 2.07, 2.06, 2.05, 2.04, 2.03, 2.02, 2.01, 2.0, 1.99, 1.98, 1.97, 1.96, 1.95, 1.94, 1.93, 1.92, 1.92, 1.91, 1.9, 1.89, 1.88, 1.87, 1.86, 1.85, 1.84, 1.83, 1.82, 1.81, 1.8, 1.79, 1.78, 1.77, 1.76, 1.75, 1.73, 1.72, 1.71, 1.7, 1.69, 1.68, 1.67, 1.66]
12 [1.75, 1.77, 1.79, 1.81, 1.83, 1.85, 1.87, 1.89, 0.88, 0.87, 0.86, 0.84, 0.83, 0.82, 0.81, 0.8, 0.8, 0.8, 0.81, 0.82, 0.83, 0.84, 0.85, 0.86, 0.86, 0.87, 0.88, 0.89, 0.9, 0.91, 0.92, 0.93, 0.94, 0.95, 0.96, 1.68, 1.7, 1.72, 1.74, 1.75, 1.77, 1.79, 1.81, 1.83, 2.79, 2.82, 2.85, 2.88, 2.91, 2.94, 2.97, 3.0, 3.04, 3.07, 3.1, 3.11, 3.09, 3.07, 3.05, 3.03, 3.01, 2.99, 2.98, 2.96, 2.94, 2.92, 2.91, 2.89, 2.88, 2.86, 2.84, 2.83, 2.81, 2.8, 2.78, 2.77, 2.75, 2.74, 2.72, 2.71, 2.7, 2.68, 2.67, 2.66, 2.64, 1.88, 1.87, 1.86, 1.85, 1.84, 1.83, 1.82, 1.82, 1.81, 1.8, 1.79, 1.79, 1.82, 1.86, 1.89, 1.93, 2.44, 2.43, 2.42, 2.4, 2.39, 2.38, 2.37, 2.36, 2.35, 2.34, 2.33, 2.32, 2.31, 2.3, 2.29, 2.28, 2.27, 2.26, 2.25, 2.24, 2.23, 2.22, 2.21, 2.2, 2.19, 2.18, 2.17, 2.16, 2.15, 2.14, 2.13, 2.12, 2.11, 2.1, 2.09, 2.08, 2.07, 2.06, 2.05, 2.04, 2.03, 2.03, 2.02, 2.01, 2.0, 1.99, 1.98, 1.97, 1.96, 1.95, 1.94, 1.93, 1.92, 1.91, 1.9, 1.89, 1.88, 1.87, 1.86, 1.86, 1.85, 1.84, 1.83, 1.82, 1.81, 1.8, 1.79, 1.78, 1.77, 1.76, 1.75, 1.74, 1.73, 1.72, 1.71, 1.7, 1.69, 1.68, 1.67, 1.66, 1.65]
13 [1.73, 1.75, 1.77, 1.79, 1.81, 0.82, 0.81, 0.79, 0.78, 0.77, 0.75, 0.74, 0.74, 0.75, 0.76, 0.77, 0.77, 0.78, 0.79, 0.8, 0.81, 0.82, 0.82, 0.83, 0.84, 0.85, 0.86, 0.87, 0.88, 0.89, 0.9, 0.91, 1.61, 1.62, 1.64, 1.66, 1.68, 1.69, 1.71, 1.73, 1.75, 1.77, 1.78, 2.73, 2.76, 2.79, 2.82, 2.85, 2.88, 2.91, 2.95, 2.98, 3.01, 3.04, 3.06, 3.04, 3.02, 3.0, 2.98, 2.96, 2.94, 2.93, 2.91, 2.89, 2.88, 2.86, 2.84, 2.83, 2.81, 2.8, 2.78, 2.76, 2.75, 2.74, 2.72, 2.71, 2.69, 2.68, 2.66, 2.65, 2.64, 2.62, 2.61, 2.6, 2.59, 1.82, 1.81, 1.8, 1.8, 1.79, 1.78, 1.77, 1.76, 1.75, 1.74, 1.74, 1.75, 1.78, 1.81, 1.84, 1.88, 2.39, 2.37, 2.36, 2.35, 2.34, 2.33, 2.32, 2.31, 2.3, 2.29, 2.28, 2.27, 2.26, 2.25, 2.24, 2.23, 2.22, 2.21, 2.2, 2.19, 2.18, 2.17, 2.16, 2.15, 2.14, 2.13, 2.12, 2.11, 2.1, 2.09, 2.09, 2.08, 2.07, 2.06, 2.05, 2.04, 2.03, 2.02, 2.01, 2.0, 1.99, 1.98, 1.97, 1.97, 1.96, 1.95, 1.94, 1.93, 1.92, 1.91, 1.9, 1.89, 1.88, 1.87, 1.86, 1.86, 1.85, 1.84, 1.83, 1.82, 1.81, 1.8, 1.79, 1.78, 1.77, 1.76, 1.75, 1.74, 1.73, 1.72, 1.71, 1.71, 1.7, 1.69, 1.68, 1.67, 1.66, 1.65, 1.64, 1.63, 1.62]
14 [1.73, 1.75, 1.77, 1.79, 0.81, 0.8, 0.78, 0.77, 0.76, 0.74, 0.73, 0.73, 0.74, 0.74, 0.75, 0.76, 0.77, 0.78, 0.78, 0.79, 0.8, 0.81, 0.82, 0.83, 0.83, 0.84, 0.85, 0.86, 0.87, 0.88, 0.89, 0.9, 1.6, 1.61, 1.63, 1.65, 1.67, 1.68, 1.7, 1.72, 1.74, 1.76, 2.69, 2.72, 2.75, 2.78, 2.81, 2.84, 2.87, 2.9, 2.93, 2.96, 3.0, 3.03, 3.05, 3.03, 3.01, 2.99, 2.97, 2.95, 2.93, 2.92, 2.9, 2.88, 2.86, 2.85, 2.83, 2.82, 2.8, 2.78, 2.77, 2.75, 2.74, 2.72, 2.71, 2.69, 2.68, 2.67, 2.65, 2.64, 2.63, 2.61, 2.6, 2.59, 2.57, 1.81, 1.8, 1.79, 1.78, 1.77, 1.77, 1.76, 1.75, 1.74, 1.73, 1.72, 1.72, 1.75, 1.78, 1.82, 1.85, 1.89, 2.36, 2.35, 2.34, 2.33, 2.32, 2.31, 2.3, 2.29, 2.28, 2.27, 2.26, 2.25, 2.24, 2.23, 2.22, 2.21, 2.2, 2.19, 2.18, 2.17, 2.16, 2.15, 2.14, 2.13, 2.12, 2.11, 2.1, 2.09, 2.08, 2.07, 2.06, 2.06, 2.05, 2.04, 2.03, 2.02, 2.01, 2.0, 1.99, 1.98, 1.97, 1.96, 1.95, 1.94, 1.94, 1.93, 1.92, 1.91, 1.9, 1.89, 1.88, 1.87, 1.86, 1.85, 1.84, 1.83, 1.83, 1.82, 1.81, 1.8, 1.79, 1.78, 1.77, 1.76, 1.75, 1.74, 1.73, 1.72, 1.71, 1.7, 1.69, 1.69, 1.68, 1.67, 1.66, 1.65, 1.64, 1.63, 1.62, 1.61]
15 [1.71, 1.73, 0.78, 0.77, 0.75, 0.74, 0.73, 0.71, 0.7, 0.7, 0.7, 0.71, 0.72, 0.73, 0.73, 0.74, 0.75, 0.76, 0.77, 0.77, 0.78, 0.79, 0.8, 0.81, 0.82, 0.82, 0.83, 0.84, 0.85, 0.86, 0.87, 1.58, 1.57, 1.59, 1.61, 1.62, 1.64, 1.66, 1.67, 1.69, 1.71, 1.73, 2.66, 2.69, 2.72, 2.74, 2.77, 2.8, 2.83, 2.86, 2.89, 2.92, 2.96, 2.99, 3.02, 3.01, 2.99, 2.97, 2.95, 2.93, 2.91, 2.89, 2.88, 2.86, 2.84, 2.82, 2.81, 2.79, 2.78, 2.76, 2.74, 2.73, 2.71, 2.7, 2.69, 2.67, 2.66, 2.64, 2.63, 2.61, 2.6, 2.59, 2.57, 2.56, 2.55, 2.54, 1.77, 1.76, 1.75, 1.75, 1.74, 1.73, 1.72, 1.71, 1.7, 1.7, 1.69, 1.69, 1.72, 1.75, 1.78, 1.81, 1.85, 2.33, 2.31, 2.3, 2.29, 2.28, 2.27, 2.26, 2.25, 2.24, 2.23, 2.22, 2.21, 2.2, 2.19, 2.18, 2.17, 2.16, 2.15, 2.14, 2.13, 2.12, 2.11, 2.1, 2.09, 2.08, 2.08, 2.07, 2.06, 2.05, 2.04, 2.03, 2.02, 2.01, 2.0, 1.99, 1.98, 1.97, 1.96, 1.95, 1.95, 1.94, 1.93, 1.92, 1.91, 1.9, 1.89, 1.88, 1.87, 1.86, 1.85, 1.84, 1.84, 1.83, 1.82, 1.81, 1.8, 1.79, 1.78, 1.77, 1.76, 1.75, 1.74, 1.73, 1.72, 1.72, 1.71, 1.7, 1.69, 1.68, 1.67, 1.66, 1.65, 1.64, 1.63, 1.62, 1.61, 1.6, 1.59, 1.58]
16 [1.7, 0.76, 0.75, 0.73, 0.72, 0.7, 0.69, 0.68, 0.68, 0.69, 0.69, 0.7, 0.71, 0.71, 0.72, 0.73, 0.74, 0.75, 0.75, 0.76, 0.77, 0.78, 0.78, 0.79, 0.8, 0.81, 0.82, 0.83, 0.83, 0.84, 1.57, 1.56, 1.56, 1.57, 1.59, 1.6, 1.62, 1.64, 1.65, 1.67, 1.69, 1.71, 2.63, 2.66, 2.69, 2.72, 2.75, 2.77, 2.8, 2.83, 2.86, 2.89, 2.92, 2.96, 2.99, 3.0, 2.98, 2.96, 2.94, 2.92, 2.9, 2.88, 2.86, 2.85, 2.83, 2.81, 2.8, 2.78, 2.76, 2.75, 2.73, 2.72, 2.7, 2.69, 2.67, 2.66, 2.64, 2.63, 2.61, 2.6, 2.59, 2.57, 2.56, 2.55, 2.53, 2.52, 1.75, 1.74, 1.74, 1.73, 1.72, 1.71, 1.7, 1.69, 1.69, 1.68, 1.67, 1.66, 1.67, 1.7, 1.73, 1.76, 1.79, 1.83, 2.3, 2.29, 2.28, 2.27, 2.26, 2.24, 2.23, 2.22, 2.21, 2.2, 2.19, 2.18, 2.17, 2.16, 2.15, 2.14, 2.13, 2.12, 2.11, 2.1, 2.1, 2.09, 2.08, 2.07, 2.06, 2.05, 2.04, 2.03, 2.02, 2.01, 2.0, 1.99, 1.98, 1.97, 1.96, 1.95, 1.95, 1.94, 1.93, 1.92, 1.91, 1.9, 1.89, 1.88, 1.87, 1.86, 1.85, 1.84, 1.84, 1.83, 1.82, 1.81, 1.8, 1.79, 1.78, 1.77, 1.76, 1.75, 1.74, 1.73, 1.72, 1.72, 1.71, 1.7, 1.69, 1.68, 1.67, 1.66, 1.65, 1.64, 1.63, 1.62, 1.61, 1.6, 1.59, 1.58, 1.57, 1.56]
17 [0.71, 0.69, 0.68, 0.66, 0.65, 0.64, 0.65, 0.66, 0.66, 0.67, 0.68, 0.68, 0.69, 0.7, 0.71, 0.71, 0.72, 0.73, 0.74, 0.74, 0.75, 0.76, 0.77, 0.77, 0.78, 0.79, 0.8, 0.81, 1.56, 1.55, 1.53, 1.52, 1.53, 1.55, 1.57, 1.58, 1.6, 1.61, 1.63, 1.65, 1.66, 1.68, 2.61, 2.63, 2.66, 2.69, 2.72, 2.74, 2.77, 2.8, 2.83, 2.86, 2.89, 2.92, 2.96, 2.96, 2.94, 2.93, 2.91, 2.89, 2.87, 2.85, 2.83, 2.82, 2.8, 2.78, 2.77, 2.75, 2.73, 2.72, 2.7, 2.69, 2.67, 2.66, 2.64, 2.63, 2.61, 2.6, 2.58, 2.57, 2.56, 2.54, 2.53, 2.52, 2.5, 2.49, 2.48, 1.71, 1.7, 1.7, 1.69, 1.68, 1.67, 1.66, 1.65, 1.65, 1.64, 1.63, 1.62, 1.64, 1.67, 1.7, 1.73, 1.77, 2.27, 2.26, 2.25, 2.24, 2.23, 2.22, 2.21, 2.2, 2.19, 2.17, 2.16, 2.15, 2.14, 2.13, 2.13, 2.12, 2.11, 2.1, 2.09, 2.08, 2.07, 2.06, 2.05, 2.04, 2.03, 2.02, 2.01, 2.0, 1.99, 1.98, 1.97, 1.96, 1.95, 1.95, 1.94, 1.93, 1.92, 1.91, 1.9, 1.89, 1.88, 1.87, 1.86, 1.85, 1.85, 1.84, 1.83, 1.82, 1.81, 1.8, 1.79, 1.78, 1.77, 1.76, 1.75, 1.75, 1.74, 1.73, 1.72, 1.71, 1.7, 1.69, 1.68, 1.67, 1.66, 1.65, 1.64, 1.63, 1.63, 1.62, 1.61, 1.6, 1.59, 1.58, 1.57, 1.56, 1.55, 1.54]
18 [0.63, 0.62, 0.61, 0.62, 0.62, 0.63, 0.64, 0.64, 0.65, 0.66, 0.67, 0.67, 0.68, 0.69, 0.69, 0.7, 0.71, 0.72, 0.72, 0.73, 0.74, 0.75, 0.75, 0.76, 0.77, 0.78, 1.54, 1.53, 1.51, 1.5, 1.49, 1.5, 1.52, 1.53, 1.55, 1.57, 1.58, 1.6, 1.61, 1.63, 1.65, 2.56, 2.59, 2.62, 2.64, 2.67, 2.7, 2.73, 2.76, 2.79, 2.82, 2.85, 2.88, 2.91, 2.94, 2.92, 2.9, 2.89, 2.87, 2.85, 2.83, 2.81, 2.79, 2.78, 2.76, 2.74, 2.73, 2.71, 2.7, 2.68, 2.66, 2.65, 2.63, 2.62, 2.61, 2.59, 2.58, 2.56, 2.55, 2.54, 2.52, 2.51, 2.5, 2.48, 2.47, 2.46, 2.44, 1.68, 1.67, 1.66, 1.66, 1.65, 1.64, 1.63, 1.62, 1.62, 1.61, 1.6, 1.59, 1.61, 1.64, 1.67, 1.7, 1.73, 2.24, 2.23, 2.22, 2.21, 2.2, 2.19, 2.18, 2.17, 2.16, 2.15, 2.14, 2.13, 2.12, 2.11, 2.1, 2.09, 2.08, 2.07, 2.06, 2.05, 2.04, 2.03, 2.02, 2.01, 2.0, 1.99, 1.98, 1.98, 1.97, 1.96, 1.95, 1.94, 1.93, 1.92, 1.91, 1.9, 1.89, 1.88, 1.88, 1.87, 1.86, 1.85, 1.84, 1.83, 1.82, 1.81, 1.8, 1.79, 1.79, 1.78, 1.77, 1.76, 1.75, 1.74, 1.73, 1.72, 1.71, 1.71, 1.7, 1.69, 1.68, 1.67, 1.66, 1.65, 1.64, 1.63, 1.62, 1.61, 1.6, 1.6, 1.59, 1.58, 1.57, 1.56, 1.55, 1.54, 1.53, 1.52]
19 [0.59, 0.6, 0.6, 0.61, 0.62, 0.62, 0.63, 0.64, 0.64, 0.65, 0.66, 0.67, 0.67, 0.68, 0.69, 0.69, 0.7, 0.71, 0.72, 0.72, 0.73, 0.74, 0.75, 1.52, 1.5, 1.48, 1.47, 1.45, 1.46, 1.47, 1.49, 1.5, 1.52, 1.53, 1.55, 1.57, 1.58, 1.6, 1.62, 2.52, 2.55, 2.57, 2.6, 2.63, 2.66, 2.69, 2.71, 2.74, 2.77, 2.8, 2.83, 2.86, 2.89, 2.89, 2.87, 2.85, 2.83, 2.82, 2.8, 2.78, 2.76, 2.75, 2.73, 2.71, 2.7, 2.68, 2.67, 2.65, 2.64, 2.62, 2.61, 2.59, 2.58, 2.56, 2.55, 2.54, 2.52, 2.51, 2.5, 2.48, 2.47, 2.46, 2.45, 2.43, 2.42, 1.66, 1.65, 1.64, 1.63, 1.63, 1.62, 1.61, 1.6, 1.59, 1.59, 1.58, 1.57, 1.57, 1.6, 1.63, 1.66, 1.69, 1.72, 2.21, 2.2, 2.19, 2.18, 2.17, 2.16, 2.15, 2.14, 2.13, 2.12, 2.11, 2.1, 2.1, 2.09, 2.08, 2.07, 2.06, 2.05, 2.04, 2.03, 2.02, 2.01, 2.0, 1.99, 1.99, 1.98, 1.97, 1.96, 1.95, 1.94, 1.93, 1.92, 1.91, 1.91, 1.9, 1.89, 1.88, 1.87, 1.86, 1.85, 1.84, 1.84, 1.83, 1.82, 1.81, 1.8, 1.79, 1.78, 1.78, 1.77, 1.76, 1.75, 1.74, 1.73, 1.72, 1.71, 1.71, 1.7, 1.69, 1.68, 1.67, 1.66, 1.65, 1.64, 1.64, 1.63, 1.62, 1.61, 1.6, 1.59, 1.58, 1.57, 1.56, 1.56, 1.55, 1.54, 1.53, 1.52, 1.51]
20 [0.58, 0.59, 0.6, 0.6, 0.61, 0.62, 0.62, 0.63, 0.64, 0.64, 0.65, 0.66, 0.67, 0.67, 0.68, 0.69, 0.69, 2.02, 1.47, 1.46, 1.44, 1.43, 1.41, 1.4, 1.4, 1.42, 1.43, 1.45, 1.46, 1.48, 1.49, 1.51, 1.52, 1.54, 1.56, 2.44, 2.47, 2.49, 2.52, 2.55, 2.57, 2.6, 2.63, 2.66, 2.69, 2.72, 2.75, 2.78, 2.81, 2.84, 2.83, 2.81, 2.79, 2.77, 2.76, 2.74, 2.72, 2.71, 2.69, 2.68, 2.66, 2.65, 2.63, 2.62, 2.6, 2.59, 2.57, 2.56, 2.55, 2.53, 2.52, 2.51, 2.49, 2.48, 2.47, 2.46, 2.44, 2.43, 2.42, 2.41, 2.4, 2.38, 1.62, 1.61, 1.6, 1.6, 1.59, 1.58, 1.58, 1.57, 1.56, 1.55, 1.55, 1.54, 1.53, 1.55, 1.58, 1.61, 1.64, 1.67, 1.7, 2.18, 2.17, 2.16, 2.15, 2.14, 2.13, 2.12, 2.11, 2.1, 2.09, 2.08, 2.08, 2.07, 2.06, 2.05, 2.04, 2.03, 2.02, 2.01, 2.01, 2.0, 1.99, 1.98, 1.97, 1.96, 1.95, 1.95, 1.94, 1.93, 1.92, 1.91, 1.9, 1.9, 1.89, 1.88, 1.87, 1.86, 1.85, 1.85, 1.84, 1.83, 1.82, 1.81, 1.81, 1.8, 1.79, 1.78, 1.77, 1.77, 1.76, 1.75, 1.74, 1.73, 1.72, 1.72, 1.71, 1.7, 1.69, 1.68, 1.67, 1.67, 1.66, 1.65, 1.64, 1.63, 1.63, 1.62, 1.61, 1.6, 1.59, 1.58, 1.57, 1.57, 1.56, 1.55, 1.54, 1.53, 1.52, 1.51, 1.5, 1.5]
21 [0.58, 0.58, 0.59, 0.6, 0.61, 0.61, 0.62, 0.63, 0.63, 0.64, 0.65, 0.66, 1.92, 1.94, 1.42, 1.4, 1.39, 1.37, 1.36, 1.34, 1.35, 1.36, 1.38, 1.39, 1.41, 1.43, 1.44, 1.46, 1.47, 1.49, 1.5, 2.37, 2.39, 2.42, 2.44, 2.47, 2.5, 2.53, 2.55, 2.58, 2.61, 2.64, 2.67, 2.7, 2.73, 2.76, 2.78, 2.77, 2.75, 2.73, 2.72, 2.7, 2.68, 2.67, 2.65, 2.64, 2.62, 2.61, 2.6, 2.58, 2.57, 2.55, 2.54, 2.53, 2.51, 2.5, 2.49, 2.48, 2.46, 2.45, 2.44, 2.43, 2.42, 2.41, 2.39, 2.38, 2.37, 2.36, 2.35, 1.59, 1.58, 1.57, 1.57, 1.56, 1.55, 1.55, 1.54, 1.53, 1.53, 1.52, 1.51, 1.51, 1.52, 1.55, 1.58, 1.61, 1.64, 1.68, 2.15, 2.15, 2.14, 2.13, 2.12, 2.11, 2.1, 2.09, 2.08, 2.08, 2.07, 2.06, 2.05, 2.04, 2.03, 2.03, 2.02, 2.01, 2.0, 1.99, 1.99, 1.98, 1.97, 1.96, 1.95, 1.95, 1.94, 1.93, 1.92, 1.91, 1.91, 1.9, 1.89, 1.88, 1.88, 1.87, 1.86, 1.85, 1.84, 1.84, 1.83, 1.82, 1.81, 1.81, 1.8, 1.79, 1.78, 1.78, 1.77, 1.76, 1.75, 1.74, 1.74, 1.73, 1.72, 1.71, 1.71, 1.7, 1.69, 1.68, 1.68, 1.67, 1.66, 1.65, 1.64, 1.64, 1.63, 1.62, 1.61, 1.6, 1.6, 1.59, 1.58, 1.57, 1.56, 1.56, 1.55, 1.54, 1.53, 1.52, 1.51, 1.51, 1.5, 1.49]
22 [0.57, 0.58, 0.59, 0.59, 0.6, 0.61, 0.62, 1.82, 1.84, 1.86, 1.36, 1.35, 1.33, 1.32, 1.3, 1.29, 1.29, 1.31, 1.32, 1.34, 1.35, 1.37, 1.38, 1.4, 1.42, 1.43, 1.45, 1.46, 2.31, 2.34, 2.36, 2.39, 2.41, 2.44, 2.47, 2.5, 2.53, 2.55, 2.58, 2.61, 2.64, 2.67, 2.7, 2.73, 2.71, 2.69, 2.68, 2.66, 2.65, 2.63, 2.62, 2.6, 2.59, 2.57, 2.56, 2.55, 2.53, 2.52, 2.51, 2.5, 2.48, 2.47, 2.46, 2.45, 2.43, 2.42, 2.41, 2.4, 2.39, 2.38, 2.37, 2.36, 2.35, 2.34, 2.33, 2.31, 1.55, 1.55, 1.54, 1.53, 1.53, 1.52, 1.51, 1.51, 1.5, 1.49, 1.49, 1.48, 1.48, 1.48, 1.51, 1.54, 1.57, 1.6, 1.63, 2.13, 2.12, 2.11, 2.1, 2.1, 2.09, 2.08, 2.07, 2.06, 2.06, 2.05, 2.04, 2.03, 2.02, 2.02, 2.01, 2.0, 1.99, 1.99, 1.98, 1.97, 1.96, 1.95, 1.95, 1.94, 1.93, 1.93, 1.92, 1.91, 1.9, 1.9, 1.89, 1.88, 1.87, 1.87, 1.86, 1.85, 1.84, 1.84, 1.83, 1.82, 1.82, 1.81, 1.8, 1.79, 1.79, 1.78, 1.77, 1.77, 1.76, 1.75, 1.74, 1.74, 1.73, 1.72, 1.71, 1.71, 1.7, 1.69, 1.69, 1.68, 1.67, 1.66, 1.66, 1.65, 1.64, 1.63, 1.63, 1.62, 1.61, 1.6, 1.6, 1.59, 1.58, 1.57, 1.57, 1.56, 1.55, 1.54, 1.53, 1.53, 1.52, 1.51, 1.5, 1.5, 1.49, 1.48]
23 [0.57, 0.58, 0.59, 1.75, 1.77, 1.79, 1.81, 1.32, 1.31, 1.29, 1.28, 1.27, 1.25, 1.26, 1.27, 1.29, 1.3, 1.32, 1.33, 1.35, 1.36, 1.38, 1.4, 1.41, 1.43, 2.26, 2.28, 2.31, 2.33, 2.36, 2.39, 2.42, 2.44, 2.47, 2.5, 2.53, 2.56, 2.59, 2.62, 2.65, 2.68, 2.68, 2.66, 2.65, 2.63, 2.62, 2.6, 2.59, 2.57, 2.56, 2.55, 2.53, 2.52, 2.51, 2.5, 2.48, 2.47, 2.46, 2.45, 2.44, 2.42, 2.41, 2.4, 2.39, 2.38, 2.37, 2.36, 2.35, 2.34, 2.33, 2.32, 2.31, 2.3, 2.29, 1.53, 1.52, 1.52, 1.51, 1.5, 1.5, 1.49, 1.49, 1.48, 1.47, 1.47, 1.46, 1.46, 1.47, 1.5, 1.53, 1.56, 1.59, 1.62, 2.11, 2.1, 2.1, 2.09, 2.08, 2.07, 2.06, 2.06, 2.05, 2.04, 2.03, 2.03, 2.02, 2.01, 2.0, 2.0, 1.99, 1.98, 1.98, 1.97, 1.96, 1.95, 1.95, 1.94, 1.93, 1.93, 1.92, 1.91, 1.9, 1.9, 1.89, 1.88, 1.88, 1.87, 1.86, 1.86, 1.85, 1.84, 1.83, 1.83, 1.82, 1.81, 1.81, 1.8, 1.79, 1.79, 1.78, 1.77, 1.77, 1.76, 1.75, 1.75, 1.74, 1.73, 1.73, 1.72, 1.71, 1.7, 1.7, 1.69, 1.68, 1.68, 1.67, 1.66, 1.66, 1.65, 1.64, 1.63, 1.63, 1.62, 1.61, 1.61, 1.6, 1.59, 1.58, 1.58, 1.57, 1.56, 1.55, 1.55, 1.54, 1.53, 1.52, 1.52, 1.51, 1.5, 1.49, 1.49, 1.48]
24 [1.7, 1.72, 1.74, 1.28, 1.26, 1.25, 1.23, 1.22, 1.21, 1.21, 1.23, 1.24, 1.26, 1.27, 1.29, 1.3, 1.32, 1.34, 1.35, 1.37, 1.38, 2.19, 2.21, 2.24, 2.27, 2.29, 2.32, 2.35, 2.38, 2.4, 2.43, 2.46, 2.49, 2.52, 2.55, 2.58, 2.61, 2.63, 2.62, 2.6, 2.59, 2.58, 2.56, 2.55, 2.54, 2.52, 2.51, 2.5, 2.49, 2.47, 2.46, 2.45, 2.44, 2.43, 2.42, 2.41, 2.39, 2.38, 2.37, 2.36, 2.35, 2.34, 2.33, 2.32, 2.31, 2.3, 2.29, 2.28, 2.28, 2.27, 1.51, 1.5, 1.5, 1.49, 1.49, 1.48, 1.47, 1.47, 1.46, 1.46, 1.45, 1.45, 1.44, 1.44, 1.47, 1.49, 1.52, 1.55, 1.58, 1.62, 2.09, 2.09, 2.08, 2.07, 2.06, 2.06, 2.05, 2.04, 2.04, 2.03, 2.02, 2.02, 2.01, 2.0, 1.99, 1.99, 1.98, 1.97, 1.97, 1.96, 1.95, 1.95, 1.94, 1.93, 1.93, 1.92, 1.91, 1.91, 1.9, 1.89, 1.89, 1.88, 1.88, 1.87, 1.86, 1.86, 1.85, 1.84, 1.84, 1.83, 1.82, 1.82, 1.81, 1.8, 1.8, 1.79, 1.79, 1.78, 1.77, 1.77, 1.76, 1.75, 1.75, 1.74, 1.73, 1.73, 1.72, 1.72, 1.71, 1.7, 1.7, 1.69, 1.68, 1.68, 1.67, 1.66, 1.66, 1.65, 1.64, 1.64, 1.63, 1.62, 1.62, 1.61, 1.6, 1.6, 1.59, 1.58, 1.58, 1.57, 1.56, 1.56, 1.55, 1.54, 1.53, 1.53, 1.52, 1.51, 1.51, 1.5, 1.49, 1.48]
25 [1.12, 1.14, 1.15, 1.17, 1.18, 1.2, 1.21, 1.23, 1.24, 1.26, 2.0, 2.03, 2.05, 2.08, 2.11, 2.13, 2.16, 2.19, 2.22, 2.25, 2.27, 2.3, 2.33, 2.36, 2.39, 2.43, 2.46, 2.49, 2.47, 2.46, 2.45, 2.44, 2.43, 2.42, 2.41, 2.4, 2.39, 2.38, 2.37, 2.36, 2.35, 2.34, 2.33, 2.32, 2.31, 2.3, 2.29, 2.29, 2.28, 2.27, 2.26, 2.25, 2.25, 2.24, 2.23, 2.22, 2.21, 2.21, 2.2, 2.19, 1.45, 1.44, 1.44, 1.43, 1.43, 1.42, 1.42, 1.42, 1.41, 1.41, 1.4, 1.4, 1.39, 1.39, 1.41, 1.43, 1.46, 1.49, 1.52, 1.56, 2.06, 2.05, 2.04, 2.04, 2.03, 2.03, 2.02, 2.01, 2.01, 2.0, 2.0, 1.99, 1.99, 1.98, 1.98, 1.97, 1.97, 1.96, 1.95, 1.95, 1.94, 1.94, 1.93, 1.93, 1.92, 1.92, 1.91, 1.91, 1.9, 1.9, 1.89, 1.89, 1.88, 1.88, 1.87, 1.87, 1.86, 1.86, 1.85, 1.85, 1.84, 1.84, 1.83, 1.83, 1.82, 1.82, 1.81, 1.81, 1.8, 1.8, 1.79, 1.79, 1.78, 1.78, 1.77, 1.77, 1.76, 1.76, 1.75, 1.75, 1.74, 1.74, 1.73, 1.72, 1.72, 1.71, 1.71, 1.7, 1.7, 1.69, 1.69, 1.68, 1.68, 1.67, 1.67, 1.66, 1.66, 1.65, 1.65, 1.64, 1.64, 1.63, 1.62, 1.62, 1.61, 1.61, 1.6, 1.6, 1.59, 1.58, 1.58, 1.57, 1.57, 1.56, 1.55, 1.55, 1.54, 1.54, 1.53, 1.52, 1.52, 1.51]
26 [1.83, 1.86, 1.89, 1.91, 1.94, 1.97, 1.99, 2.02, 2.05, 2.08, 2.11, 2.14, 2.17, 2.2, 2.23, 2.26, 2.29, 2.31, 2.3, 2.29, 2.29, 2.28, 2.27, 2.26, 2.25, 2.25, 2.24, 2.23, 2.22, 2.22, 2.21, 2.2, 2.2, 2.19, 2.18, 2.18, 2.17, 2.16, 2.16, 2.15, 2.15, 2.14, 2.13, 2.13, 2.12, 2.12, 2.11, 2.11, 2.1, 2.1, 1.37, 1.37, 1.36, 1.36, 1.36, 1.35, 1.35, 1.35, 1.34, 1.34, 1.34, 1.34, 1.33, 1.33, 1.35, 1.38, 1.41, 1.44, 1.47, 1.5, 2.0, 1.99, 1.99, 1.98, 1.98, 1.97, 1.97, 1.97, 1.96, 1.96, 1.95, 1.95, 1.95, 1.94, 1.94, 1.93, 1.93, 1.93, 1.92, 1.92, 1.91, 1.91, 1.91, 1.9, 1.9, 1.89, 1.89, 1.89, 1.88, 1.88, 1.88, 1.87, 1.87, 1.86, 1.86, 1.86, 1.85, 1.85, 1.85, 1.84, 1.84, 1.84, 1.83, 1.83, 1.82, 1.82, 1.82, 1.81, 1.81, 1.81, 1.8, 1.8, 1.8, 1.79, 1.79, 1.78, 1.78, 1.78, 1.77, 1.77, 1.77, 1.76, 1.76, 1.75, 1.75, 1.75, 1.74, 1.74, 1.74, 1.73, 1.73, 1.72, 1.72, 1.72, 1.71, 1.71, 1.71, 1.7, 1.7, 1.69, 1.69, 1.69, 1.68, 1.68, 1.67, 1.67, 1.67, 1.66, 1.66, 1.65, 1.65, 1.64, 1.64, 1.64, 1.63, 1.63, 1.62, 1.62, 1.61, 1.61, 1.6, 1.6, 1.6, 1.59, 1.59, 1.58, 1.58, 1.57, 1.57, 1.56, 1.56, 1.55]
27 [1.94, 1.97, 2.0, 2.04, 2.07, 2.1, 2.11, 2.11, 2.1, 2.1, 2.09, 2.09, 2.08, 2.08, 2.07, 2.07, 2.07, 2.06, 2.06, 2.05, 2.05, 2.04, 2.04, 2.04, 2.03, 2.03, 2.02, 2.02, 2.02, 2.01, 2.01, 2.01, 2.0, 2.0, 2.0, 1.99, 1.99, 1.99, 1.29, 1.29, 1.28, 1.28, 1.28, 1.28, 1.28, 1.27, 1.27, 1.27, 1.27, 1.27, 1.26, 1.26, 1.27, 1.29, 1.32, 1.35, 1.37, 1.4, 1.43, 1.92, 1.92, 1.92, 1.91, 1.91, 1.91, 1.91, 1.9, 1.9, 1.9, 1.9, 1.89, 1.89, 1.89, 1.89, 1.88, 1.88, 1.88, 1.88, 1.87, 1.87, 1.87, 1.87, 1.87, 1.86, 1.86, 1.86, 1.86, 1.85, 1.85, 1.85, 1.85, 1.85, 1.84, 1.84, 1.84, 1.84, 1.83, 1.83, 1.83, 1.83, 1.83, 1.82, 1.82, 1.82, 1.82, 1.81, 1.81, 1.81, 1.81, 1.81, 1.8, 1.8, 1.8, 1.8, 1.79, 1.79, 1.79, 1.79, 1.79, 1.78, 1.78, 1.78, 1.78, 1.77, 1.77, 1.77, 1.77, 1.77, 1.76, 1.76, 1.76, 1.76, 1.75, 1.75, 1.75, 1.75, 1.74, 1.74, 1.74, 1.74, 1.74, 1.73, 1.73, 1.73, 1.73, 1.72, 1.72, 1.72, 1.72, 1.71, 1.71, 1.71, 1.71, 1.7, 1.7, 1.7, 1.69, 1.69, 1.69, 1.69, 1.68, 1.68, 1.68, 1.68, 1.67, 1.67, 1.67, 1.66, 1.66, 1.66, 1.66, 1.65, 1.65, 1.65, 1.64, 1.64, 1.64, 1.63, 1.63, 1.63, 1.62, 1.62]
28 [1.91, 1.9, 1.9, 1.9, 1.9, 1.9, 1.89, 1.89, 1.89, 1.89, 1.89, 1.88, 1.88, 1.88, 1.88, 1.88, 1.88, 1.87, 1.87, 1.87, 1.87, 1.87, 1.87, 1.87, 1.86, 1.86, 1.86, 1.2, 1.19, 1.19, 1.19, 1.19, 1.19, 1.19, 1.19, 1.19, 1.19, 1.19, 1.19, 1.19, 1.19, 1.18, 1.21, 1.23, 1.26, 1.29, 1.31, 1.34, 1.37, 1.83, 1.83, 1.83, 1.83, 1.83, 1.83, 1.83, 1.83, 1.83, 1.82, 1.82, 1.82, 1.82, 1.82, 1.82, 1.82, 1.82, 1.82, 1.82, 1.82, 1.81, 1.81, 1.81, 1.81, 1.81, 1.81, 1.81, 1.81, 1.81, 1.81, 1.8, 1.8, 1.8, 1.8, 1.8, 1.8, 1.8, 1.8, 1.8, 1.8, 1.8, 1.79, 1.79, 1.79, 1.79, 1.79, 1.79, 1.79, 1.79, 1.79, 1.79, 1.79, 1.78, 1.78, 1.78, 1.78, 1.78, 1.78, 1.78, 1.78, 1.78, 1.78, 1.78, 1.78, 1.77, 1.77, 1.77, 1.77, 1.77, 1.77, 1.77, 1.77, 1.77, 1.77, 1.76, 1.76, 1.76, 1.76, 1.76, 1.76, 1.76, 1.76, 1.76, 1.76, 1.76, 1.75, 1.75, 1.75, 1.75, 1.75, 1.75, 1.75, 1.75, 1.75, 1.75, 1.74, 1.74, 1.74, 1.74, 1.74, 1.74, 1.74, 1.74, 1.74, 1.73, 1.73, 1.73, 1.73, 1.73, 1.73, 1.73, 1.73, 1.72, 1.72, 1.72, 1.72, 1.72, 1.72, 1.72, 1.72, 1.71, 1.71, 1.71, 1.71, 1.71, 1.71, 1.71, 1.7, 1.7, 1.7, 1.7, 1.7, 1.7]
29 [1.83, 1.83, 1.82, 1.82, 1.82, 1.82, 1.82, 1.82, 1.82, 1.82, 1.82, 1.82, 1.82, 1.82, 1.81, 1.81, 1.81, 1.81, 1.81, 1.81, 1.81, 1.81, 1.81, 1.16, 1.15, 1.15, 1.15, 1.15, 1.15, 1.15, 1.15, 1.15, 1.15, 1.15, 1.15, 1.15, 1.15, 1.15, 1.18, 1.2, 1.23, 1.25, 1.28, 1.31, 1.34, 1.8, 1.79, 1.79, 1.79, 1.79, 1.79, 1.79, 1.79, 1.79, 1.79, 1.79, 1.79, 1.79, 1.79, 1.79, 1.79, 1.79, 1.79, 1.79, 1.79, 1.79, 1.79, 1.78, 1.78, 1.78, 1.78, 1.78, 1.78, 1.78, 1.78, 1.78, 1.78, 1.78, 1.78, 1.78, 1.78, 1.78, 1.78, 1.78, 1.78, 1.78, 1.78, 1.78, 1.78, 1.77, 1.77, 1.77, 1.77, 1.77, 1.77, 1.77, 1.77, 1.77, 1.77, 1.77, 1.77, 1.77, 1.77, 1.77, 1.77, 1.77, 1.77, 1.77, 1.77, 1.77, 1.77, 1.77, 1.76, 1.76, 1.76, 1.76, 1.76, 1.76, 1.76, 1.76, 1.76, 1.76, 1.76, 1.76, 1.76, 1.76, 1.76, 1.76, 1.76, 1.76, 1.76, 1.76, 1.76, 1.76, 1.75, 1.75, 1.75, 1.75, 1.75, 1.75, 1.75, 1.75, 1.75, 1.75, 1.75, 1.75, 1.75, 1.75, 1.75, 1.75, 1.75, 1.75, 1.75, 1.74, 1.74, 1.74, 1.74, 1.74, 1.74, 1.74, 1.74, 1.74, 1.74, 1.74, 1.74, 1.74, 1.74, 1.74, 1.74, 1.73, 1.73, 1.73, 1.73, 1.73, 1.73, 1.73, 1.73, 1.73, 1.73, 1.73, 1.73, 1.73]
30 [1.77, 1.77, 1.77, 1.77, 1.77, 1.77, 1.77, 1.77, 1.77, 1.77, 1.77, 1.77, 1.77, 1.77, 1.77, 1.77, 1.77, 1.77, 1.77, 1.77, 1.12, 1.12, 1.12, 1.12, 1.12, 1.12, 1.12, 1.12, 1.12, 1.12, 1.12, 1.12, 1.12, 1.12, 1.13, 1.15, 1.17, 1.2, 1.22, 1.25, 1.28, 1.31, 1.76, 1.76, 1.76, 1.76, 1.76, 1.76, 1.76, 1.76, 1.76, 1.76, 1.76, 1.76, 1.76, 1.76, 1.76, 1.76, 1.76, 1.76, 1.76, 1.76, 1.76, 1.76, 1.76, 1.76, 1.76, 1.76, 1.76, 1.76, 1.76, 1.76, 1.76, 1.76, 1.76, 1.76, 1.76, 1.76, 1.76, 1.76, 1.76, 1.76, 1.76, 1.76, 1.76, 1.76, 1.76, 1.76, 1.76, 1.76, 1.76, 1.76, 1.76, 1.76, 1.76, 1.75, 1.75, 1.75, 1.75, 1.75, 1.75, 1.75, 1.75, 1.75, 1.75, 1.75, 1.75, 1.75, 1.75, 1.75, 1.75, 1.75, 1.75, 1.75, 1.75, 1.75, 1.75, 1.75, 1.75, 1.75, 1.75, 1.75, 1.75, 1.75, 1.75, 1.75, 1.75, 1.75, 1.75, 1.75, 1.75, 1.75, 1.75, 1.75, 1.75, 1.75, 1.75, 1.75, 1.75, 1.75, 1.75, 1.75, 1.75, 1.75, 1.75, 1.75, 1.75, 1.75, 1.75, 1.75, 1.75, 1.75, 1.75, 1.75, 1.75, 1.75, 1.75, 1.75, 1.75, 1.75, 1.75, 1.75, 1.75, 1.75, 1.75, 1.75, 1.74, 1.74, 1.74, 1.74, 1.74, 1.74, 1.74, 1.74, 1.74, 1.74, 1.74, 1.74, 1.74, 1.74, 1.74, 1.74]
31 [1.73, 1.73, 1.73, 1.73, 1.73, 1.73, 1.73, 1.73, 1.73, 1.73, 1.73, 1.73, 1.73, 1.73, 1.73, 1.73, 1.73, 1.73, 1.09, 1.09, 1.09, 1.09, 1.09, 1.09, 1.09, 1.09, 1.09, 1.09, 1.09, 1.09, 1.09, 1.09, 1.1, 1.12, 1.15, 1.17, 1.2, 1.22, 1.25, 1.28, 1.73, 1.73, 1.73, 1.73, 1.73, 1.73, 1.73, 1.73, 1.74, 1.74, 1.74, 1.74, 1.74, 1.74, 1.74, 1.74, 1.74, 1.74, 1.74, 1.74, 1.74, 1.74, 1.74, 1.74, 1.74, 1.74, 1.74, 1.74, 1.74, 1.74, 1.74, 1.74, 1.74, 1.74, 1.74, 1.74, 1.74, 1.74, 1.74, 1.74, 1.74, 1.74, 1.74, 1.74, 1.74, 1.74, 1.74, 1.74, 1.74, 1.74, 1.74, 1.74, 1.74, 1.74, 1.74, 1.74, 1.74, 1.74, 1.74, 1.74, 1.74, 1.74, 1.74, 1.74, 1.74, 1.74, 1.74, 1.74, 1.74, 1.74, 1.74, 1.74, 1.74, 1.74, 1.74, 1.74, 1.74, 1.74, 1.74, 1.74, 1.74, 1.74, 1.74, 1.74, 1.74, 1.74, 1.74, 1.74, 1.74, 1.74, 1.74, 1.74, 1.74, 1.74, 1.74, 1.74, 1.74, 1.74, 1.74, 1.74, 1.74, 1.74, 1.74, 1.74, 1.74, 1.74, 1.74, 1.74, 1.74, 1.74, 1.74, 1.74, 1.74, 1.74, 1.74, 1.74, 1.74, 1.74, 1.74, 1.74, 1.74, 1.74, 1.74, 1.74, 1.74, 1.74, 1.74, 1.74, 1.74, 1.74, 1.74, 1.74, 1.74, 1.74, 1.74, 1.74, 1.74, 1.74, 1.74, 1.74, 1.74, 1.74]
32 [1.71, 1.71, 1.71, 1.71, 1.71, 1.71, 1.71, 1.71, 1.71, 1.71, 1.71, 1.71, 1.71, 1.71, 1.71, 1.71, 1.07, 1.07, 1.07, 1.07, 1.07, 1.07, 1.07, 1.07, 1.07, 1.07, 1.07, 1.07, 1.07, 1.07, 1.07, 1.09, 1.11, 1.14, 1.16, 1.19, 1.21, 1.24, 1.27, 1.71, 1.71, 1.71, 1.71, 1.71, 1.71, 1.71, 1.71, 1.71, 1.71, 1.71, 1.71, 1.71, 1.71, 1.71, 1.72, 1.72, 1.72, 1.72, 1.72, 1.72, 1.72, 1.72, 1.72, 1.72, 1.72, 1.72, 1.72, 1.72, 1.72, 1.72, 1.72, 1.72, 1.72, 1.72, 1.72, 1.72, 1.72, 1.72, 1.72, 1.72, 1.72, 1.72, 1.72, 1.72, 1.72, 1.72, 1.72, 1.72, 1.72, 1.72, 1.72, 1.72, 1.72, 1.72, 1.72, 1.72, 1.72, 1.72, 1.72, 1.72, 1.72, 1.72, 1.72, 1.72, 1.72, 1.72, 1.72, 1.72, 1.72, 1.72, 1.72, 1.72, 1.72, 1.72, 1.72, 1.72, 1.72, 1.72, 1.72, 1.72, 1.72, 1.72, 1.72, 1.72, 1.72, 1.72, 1.72, 1.72, 1.72, 1.72, 1.72, 1.72, 1.72, 1.72, 1.73, 1.73, 1.73, 1.73, 1.73, 1.73, 1.73, 1.73, 1.73, 1.73, 1.73, 1.73, 1.73, 1.73, 1.73, 1.73, 1.73, 1.73, 1.73, 1.73, 1.73, 1.73, 1.73, 1.73, 1.73, 1.73, 1.73, 1.73, 1.73, 1.73, 1.73, 1.73, 1.73, 1.73, 1.73, 1.73, 1.73, 1.73, 1.73, 1.73, 1.73, 1.73, 1.73, 1.73, 1.73, 1.73, 1.73, 1.73]
33 [1.66, 1.66, 1.66, 1.66, 1.66, 1.66, 1.66, 1.66, 1.66, 1.66, 1.66, 1.66, 1.66, 1.03, 1.03, 1.03, 1.03, 1.03, 1.03, 1.03, 1.03, 1.03, 1.03, 1.03, 1.03, 1.03, 1.03, 1.03, 1.04, 1.06, 1.09, 1.11, 1.13, 1.16, 1.18, 1.21, 1.67, 1.67, 1.67, 1.67, 1.67, 1.67, 1.67, 1.67, 1.67, 1.67, 1.67, 1.67, 1.67, 1.67, 1.67, 1.67, 1.67, 1.67, 1.67, 1.67, 1.67, 1.67, 1.67, 1.68, 1.68, 1.68, 1.68, 1.68, 1.68, 1.68, 1.68, 1.68, 1.68, 1.68, 1.68, 1.68, 1.68, 1.68, 1.68, 1.68, 1.68, 1.68, 1.68, 1.68, 1.68, 1.68, 1.68, 1.68, 1.68, 1.68, 1.68, 1.68, 1.68, 1.68, 1.68, 1.68, 1.68, 1.68, 1.68, 1.68, 1.68, 1.68, 1.68, 1.68, 1.69, 1.69, 1.69, 1.69, 1.69, 1.69, 1.69, 1.69, 1.69, 1.69, 1.69, 1.69, 1.69, 1.69, 1.69, 1.69, 1.69, 1.69, 1.69, 1.69, 1.69, 1.69, 1.69, 1.69, 1.69, 1.69, 1.69, 1.69, 1.69, 1.69, 1.69, 1.69, 1.69, 1.69, 1.69, 1.69, 1.69, 1.69, 1.69, 1.7, 1.7, 1.7, 1.7, 1.7, 1.7, 1.7, 1.7, 1.7, 1.7, 1.7, 1.7, 1.7, 1.7, 1.7, 1.7, 1.7, 1.7, 1.7, 1.7, 1.7, 1.7, 1.7, 1.7, 1.7, 1.7, 1.7, 1.7, 1.7, 1.7, 1.71, 1.71, 1.71, 1.71, 1.71, 1.71, 1.71, 1.71, 1.71, 1.71, 1.71, 1.71, 1.71]
34 [1.66, 1.66, 1.66, 1.66, 1.66, 1.66, 1.66, 1.66, 1.66, 1.66, 1.66, 1.66, 1.66, 1.03, 1.03, 1.03, 1.03, 1.03, 1.03, 1.03, 1.03, 1.03, 1.03, 1.03, 1.03, 1.03, 1.03, 1.03, 1.04, 1.06, 1.09, 1.11, 1.13, 1.16, 1.18, 1.21, 1.67, 1.67, 1.67, 1.67, 1.67, 1.67, 1.67, 1.67, 1.67, 1.67, 1.67, 1.67, 1.67, 1.67, 1.67, 1.67, 1.67, 1.67, 1.67, 1.67, 1.67, 1.67, 1.67, 1.68, 1.68, 1.68, 1.68, 1.68, 1.68, 1.68, 1.68, 1.68, 1.68, 1.68, 1.68, 1.68, 1.68, 1.68, 1.68, 1.68, 1.68, 1.68, 1.68, 1.68, 1.68, 1.68, 1.68, 1.68, 1.68, 1.68, 1.68, 1.68, 1.68, 1.68, 1.68, 1.68, 1.68, 1.68, 1.68, 1.68, 1.68, 1.68, 1.68, 1.68, 1.69, 1.69, 1.69, 1.69, 1.69, 1.69, 1.69, 1.69, 1.69, 1.69, 1.69, 1.69, 1.69, 1.69, 1.69, 1.69, 1.69, 1.69, 1.69, 1.69, 1.69, 1.69, 1.69, 1.69, 1.69, 1.69, 1.69, 1.69, 1.69, 1.69, 1.69, 1.69, 1.69, 1.69, 1.69, 1.69, 1.69, 1.69, 1.69, 1.7, 1.7, 1.7, 1.7, 1.7, 1.7, 1.7, 1.7, 1.7, 1.7, 1.7, 1.7, 1.7, 1.7, 1.7, 1.7, 1.7, 1.7, 1.7, 1.7, 1.7, 1.7, 1.7, 1.7, 1.7, 1.7, 1.7, 1.7, 1.7, 1.7, 1.71, 1.71, 1.71, 1.71, 1.71, 1.71, 1.71, 1.71, 1.71, 1.71, 1.71, 1.71, 1.71]
35 [1.63, 1.63, 1.63, 1.63, 1.63, 1.63, 1.63, 1.63, 1.63, 1.63, 1.63, 1.01, 1.01, 1.01, 1.01, 1.01, 1.01, 1.01, 1.01, 1.01, 1.01, 1.01, 1.01, 1.01, 1.01, 1.01, 1.02, 1.04, 1.06, 1.08, 1.1, 1.13, 1.15, 1.18, 1.2, 1.65, 1.65, 1.65, 1.65, 1.65, 1.65, 1.65, 1.65, 1.65, 1.65, 1.65, 1.65, 1.65, 1.65, 1.65, 1.65, 1.65, 1.65, 1.65, 1.65, 1.65, 1.65, 1.65, 1.65, 1.65, 1.66, 1.66, 1.66, 1.66, 1.66, 1.66, 1.66, 1.66, 1.66, 1.66, 1.66, 1.66, 1.66, 1.66, 1.66, 1.66, 1.66, 1.66, 1.66, 1.66, 1.66, 1.66, 1.66, 1.66, 1.66, 1.66, 1.66, 1.66, 1.67, 1.67, 1.67, 1.67, 1.67, 1.67, 1.67, 1.67, 1.67, 1.67, 1.67, 1.67, 1.67, 1.67, 1.67, 1.67, 1.67, 1.67, 1.67, 1.67, 1.67, 1.67, 1.67, 1.67, 1.67, 1.67, 1.67, 1.67, 1.68, 1.68, 1.68, 1.68, 1.68, 1.68, 1.68, 1.68, 1.68, 1.68, 1.68, 1.68, 1.68, 1.68, 1.68, 1.68, 1.68, 1.68, 1.68, 1.68, 1.68, 1.68, 1.68, 1.68, 1.68, 1.69, 1.69, 1.69, 1.69, 1.69, 1.69, 1.69, 1.69, 1.69, 1.69, 1.69, 1.69, 1.69, 1.69, 1.69, 1.69, 1.69, 1.69, 1.69, 1.69, 1.69, 1.7, 1.7, 1.7, 1.7, 1.7, 1.7, 1.7, 1.7, 1.7, 1.7, 1.7, 1.7, 1.7, 1.7, 1.7, 1.7, 1.7, 1.71, 1.71, 1.71]
36 [1.59, 1.59, 1.59, 1.59, 1.59, 1.59, 1.59, 1.59, 1.59, 0.97, 0.97, 0.98, 0.98, 0.98, 0.98, 0.98, 0.98, 0.98, 0.98, 0.98, 0.98, 0.98, 0.98, 0.98, 1.0, 1.02, 1.04, 1.06, 1.09, 1.11, 1.13, 1.16, 1.61, 1.61, 1.61, 1.61, 1.62, 1.62, 1.62, 1.62, 1.62, 1.62, 1.62, 1.62, 1.62, 1.62, 1.62, 1.62, 1.62, 1.62, 1.62, 1.62, 1.63, 1.63, 1.63, 1.63, 1.63, 1.63, 1.63, 1.63, 1.63, 1.63, 1.63, 1.63, 1.63, 1.63, 1.63, 1.63, 1.63, 1.64, 1.64, 1.64, 1.64, 1.64, 1.64, 1.64, 1.64, 1.64, 1.64, 1.64, 1.64, 1.64, 1.64, 1.64, 1.64, 1.64, 1.64, 1.64, 1.65, 1.65, 1.65, 1.65, 1.65, 1.65, 1.65, 1.65, 1.65, 1.65, 1.65, 1.65, 1.65, 1.65, 1.65, 1.65, 1.65, 1.65, 1.66, 1.66, 1.66, 1.66, 1.66, 1.66, 1.66, 1.66, 1.66, 1.66, 1.66, 1.66, 1.66, 1.66, 1.66, 1.66, 1.66, 1.66, 1.67, 1.67, 1.67, 1.67, 1.67, 1.67, 1.67, 1.67, 1.67, 1.67, 1.67, 1.67, 1.67, 1.67, 1.67, 1.67, 1.68, 1.68, 1.68, 1.68, 1.68, 1.68, 1.68, 1.68, 1.68, 1.68, 1.68, 1.68, 1.68, 1.68, 1.69, 1.69, 1.69, 1.69, 1.69, 1.69, 1.69, 1.69, 1.69, 1.69, 1.69, 1.69, 1.7, 1.7, 1.7, 1.7, 1.7, 1.7, 1.7, 1.7, 1.7, 1.7, 1.71, 1.71, 1.71, 1.71, 1.71, 1.71]
37 [1.56, 1.57, 1.57, 1.57, 1.57, 1.57, 1.57, 0.96, 0.96, 0.96, 0.96, 0.96, 0.96, 0.96, 0.96, 0.96, 0.96, 0.97, 0.97, 0.97, 0.97, 0.97, 0.98, 1.0, 1.02, 1.04, 1.06, 1.09, 1.11, 1.13, 1.16, 1.6, 1.6, 1.6, 1.6, 1.6, 1.6, 1.6, 1.6, 1.6, 1.6, 1.61, 1.61, 1.61, 1.61, 1.61, 1.61, 1.61, 1.61, 1.61, 1.61, 1.61, 1.61, 1.61, 1.62, 1.62, 1.62, 1.62, 1.62, 1.62, 1.62, 1.62, 1.62, 1.62, 1.62, 1.62, 1.62, 1.62, 1.63, 1.63, 1.63, 1.63, 1.63, 1.63, 1.63, 1.63, 1.63, 1.63, 1.63, 1.63, 1.63, 1.63, 1.64, 1.64, 1.64, 1.64, 1.64, 1.64, 1.64, 1.64, 1.64, 1.64, 1.64, 1.64, 1.64, 1.64, 1.65, 1.65, 1.65, 1.65, 1.65, 1.65, 1.65, 1.65, 1.65, 1.65, 1.65, 1.65, 1.65, 1.65, 1.66, 1.66, 1.66, 1.66, 1.66, 1.66, 1.66, 1.66, 1.66, 1.66, 1.66, 1.66, 1.66, 1.66, 1.67, 1.67, 1.67, 1.67, 1.67, 1.67, 1.67, 1.67, 1.67, 1.67, 1.67, 1.67, 1.68, 1.68, 1.68, 1.68, 1.68, 1.68, 1.68, 1.68, 1.68, 1.68, 1.68, 1.69, 1.69, 1.69, 1.69, 1.69, 1.69, 1.69, 1.69, 1.69, 1.69, 1.7, 1.7, 1.7, 1.7, 1.7, 1.7, 1.7, 1.7, 1.7, 1.71, 1.71, 1.71, 1.71, 1.71, 1.71, 1.71, 1.71, 1.72, 1.72, 1.72, 1.72, 1.72, 1.72, 1.72, 1.73]
38 [1.53, 1.53, 1.54, 1.54, 0.94, 0.94, 0.94, 0.94, 0.94, 0.94, 0.94, 0.95, 0.95, 0.95, 0.95, 0.95, 0.95, 0.95, 0.95, 0.96, 0.98, 1.0, 1.02, 1.04, 1.06, 1.09, 1.11, 1.13, 1.57, 1.58, 1.58, 1.58, 1.58, 1.58, 1.58, 1.58, 1.58, 1.59, 1.59, 1.59, 1.59, 1.59, 1.59, 1.59, 1.59, 1.6, 1.6, 1.6, 1.6, 1.6, 1.6, 1.6, 1.6, 1.6, 1.61, 1.61, 1.61, 1.61, 1.61, 1.61, 1.61, 1.61, 1.61, 1.61, 1.62, 1.62, 1.62, 1.62, 1.62, 1.62, 1.62, 1.62, 1.62, 1.62, 1.63, 1.63, 1.63, 1.63, 1.63, 1.63, 1.63, 1.63, 1.63, 1.63, 1.64, 1.64, 1.64, 1.64, 1.64, 1.64, 1.64, 1.64, 1.64, 1.65, 1.65, 1.65, 1.65, 1.65, 1.65, 1.65, 1.65, 1.65, 1.65, 1.66, 1.66, 1.66, 1.66, 1.66, 1.66, 1.66, 1.66, 1.66, 1.66, 1.67, 1.67, 1.67, 1.67, 1.67, 1.67, 1.67, 1.67, 1.67, 1.68, 1.68, 1.68, 1.68, 1.68, 1.68, 1.68, 1.68, 1.69, 1.69, 1.69, 1.69, 1.69, 1.69, 1.69, 1.69, 1.7, 1.7, 1.7, 1.7, 1.7, 1.7, 1.7, 1.7, 1.71, 1.71, 1.71, 1.71, 1.71, 1.71, 1.71, 1.72, 1.72, 1.72, 1.72, 1.72, 1.72, 1.73, 1.73, 1.73, 1.73, 1.73, 1.73, 1.74, 1.74, 1.74, 1.74, 1.74, 1.74, 1.75, 1.75, 1.75, 1.75, 1.75, 1.76, 1.76, 1.76, 1.76, 1.77, 1.77]
39 [0.9, 0.9, 0.9, 0.9, 0.9, 0.9, 0.91, 0.91, 0.91, 0.91, 0.91, 0.91, 0.91, 0.92, 0.92, 0.94, 0.96, 0.98, 1.0, 1.02, 1.05, 1.07, 1.09, 1.53, 1.53, 1.53, 1.53, 1.54, 1.54, 1.54, 1.54, 1.54, 1.55, 1.55, 1.55, 1.55, 1.55, 1.55, 1.56, 1.56, 1.56, 1.56, 1.56, 1.56, 1.57, 1.57, 1.57, 1.57, 1.57, 1.57, 1.58, 1.58, 1.58, 1.58, 1.58, 1.58, 1.59, 1.59, 1.59, 1.59, 1.59, 1.59, 1.6, 1.6, 1.6, 1.6, 1.6, 1.6, 1.6, 1.61, 1.61, 1.61, 1.61, 1.61, 1.61, 1.62, 1.62, 1.62, 1.62, 1.62, 1.62, 1.62, 1.63, 1.63, 1.63, 1.63, 1.63, 1.63, 1.64, 1.64, 1.64, 1.64, 1.64, 1.64, 1.64, 1.65, 1.65, 1.65, 1.65, 1.65, 1.65, 1.66, 1.66, 1.66, 1.66, 1.66, 1.66, 1.67, 1.67, 1.67, 1.67, 1.67, 1.67, 1.68, 1.68, 1.68, 1.68, 1.68, 1.68, 1.69, 1.69, 1.69, 1.69, 1.69, 1.69, 1.7, 1.7, 1.7, 1.7, 1.7, 1.71, 1.71, 1.71, 1.71, 1.71, 1.72, 1.72, 1.72, 1.72, 1.72, 1.73, 1.73, 1.73, 1.73, 1.73, 1.74, 1.74, 1.74, 1.74, 1.74, 1.75, 1.75, 1.75, 1.75, 1.76, 1.76, 1.76, 1.76, 1.77, 1.77, 1.77, 1.77, 1.78, 1.78, 1.78, 1.79, 1.79, 1.79, 1.79, 1.8, 1.8, 1.8, 1.81, 1.81, 1.81, 1.82, 1.82, 1.82, 1.83, 1.83, 1.84, 1.84]
40 [0.84, 0.85, 0.85, 0.85, 0.85, 0.85, 0.86, 0.86, 0.88, 0.9, 0.92, 0.94, 0.96, 0.98, 1.01, 1.03, 1.05, 1.46, 1.46, 1.46, 1.46, 1.47, 1.47, 1.47, 1.47, 1.48, 1.48, 1.48, 1.48, 1.49, 1.49, 1.49, 1.5, 1.5, 1.5, 1.5, 1.5, 1.51, 1.51, 1.51, 1.51, 1.52, 1.52, 1.52, 1.52, 1.53, 1.53, 1.53, 1.53, 1.54, 1.54, 1.54, 1.54, 1.54, 1.55, 1.55, 1.55, 1.55, 1.56, 1.56, 1.56, 1.56, 1.56, 1.57, 1.57, 1.57, 1.57, 1.58, 1.58, 1.58, 1.58, 1.58, 1.59, 1.59, 1.59, 1.59, 1.6, 1.6, 1.6, 1.6, 1.6, 1.61, 1.61, 1.61, 1.61, 1.62, 1.62, 1.62, 1.62, 1.62, 1.63, 1.63, 1.63, 1.63, 1.64, 1.64, 1.64, 1.64, 1.64, 1.65, 1.65, 1.65, 1.65, 1.66, 1.66, 1.66, 1.66, 1.67, 1.67, 1.67, 1.67, 1.67, 1.68, 1.68, 1.68, 1.68, 1.69, 1.69, 1.69, 1.7, 1.7, 1.7, 1.7, 1.71, 1.71, 1.71, 1.71, 1.72, 1.72, 1.72, 1.72, 1.73, 1.73, 1.73, 1.74, 1.74, 1.74, 1.75, 1.75, 1.75, 1.75, 1.76, 1.76, 1.76, 1.77, 1.77, 1.77, 1.78, 1.78, 1.78, 1.79, 1.79, 1.8, 1.8, 1.8, 1.81, 1.81, 1.81, 1.82, 1.82, 1.83, 1.83, 1.83, 1.84, 1.84, 1.85, 1.85, 1.86, 1.86, 1.87, 1.87, 1.88, 1.88, 1.89, 1.89, 1.9, 1.9, 1.91, 1.91, 1.92, 1.93, 1.93]
41 [0.82, 0.84, 0.86, 0.87, 0.89, 0.91, 0.94, 0.96, 1.34, 1.35, 1.35, 1.35, 1.36, 1.36, 1.37, 1.37, 1.37, 1.38, 1.38, 1.38, 1.39, 1.39, 1.39, 1.4, 1.4, 1.4, 1.41, 1.41, 1.41, 1.41, 1.42, 1.42, 1.42, 1.43, 1.43, 1.43, 1.44, 1.44, 1.44, 1.45, 1.45, 1.45, 1.45, 1.46, 1.46, 1.46, 1.47, 1.47, 1.47, 1.47, 1.48, 1.48, 1.48, 1.49, 1.49, 1.49, 1.49, 1.5, 1.5, 1.5, 1.51, 1.51, 1.51, 1.51, 1.52, 1.52, 1.52, 1.53, 1.53, 1.53, 1.53, 1.54, 1.54, 1.54, 1.55, 1.55, 1.55, 1.55, 1.56, 1.56, 1.56, 1.57, 1.57, 1.57, 1.57, 1.58, 1.58, 1.58, 1.59, 1.59, 1.59, 1.59, 1.6, 1.6, 1.6, 1.61, 1.61, 1.61, 1.62, 1.62, 1.62, 1.62, 1.63, 1.63, 1.63, 1.64, 1.64, 1.64, 1.65, 1.65, 1.65, 1.66, 1.66, 1.66, 1.67, 1.67, 1.67, 1.68, 1.68, 1.68, 1.69, 1.69, 1.69, 1.7, 1.7, 1.7, 1.71, 1.71, 1.72, 1.72, 1.72, 1.73, 1.73, 1.74, 1.74, 1.74, 1.75, 1.75, 1.76, 1.76, 1.76, 1.77, 1.77, 1.78, 1.78, 1.79, 1.79, 1.8, 1.8, 1.81, 1.81, 1.82, 1.82, 1.83, 1.83, 1.84, 1.84, 1.85, 1.85, 1.86, 1.87, 1.87, 1.88, 1.88, 1.89, 1.9, 1.9, 1.91, 1.92, 1.92, 1.93, 1.94, 1.95, 1.95, 1.96, 1.97, 1.98, 1.99, 1.99, 2.0, 2.01, 2.02]
42 [0.83, 0.85, 0.87, 0.89, 0.91, 0.93, 1.32, 1.32, 1.32, 1.33, 1.33, 1.33, 1.34, 1.34, 1.35, 1.35, 1.35, 1.36, 1.36, 1.36, 1.37, 1.37, 1.37, 1.38, 1.38, 1.38, 1.39, 1.39, 1.39, 1.4, 1.4, 1.4, 1.41, 1.41, 1.41, 1.42, 1.42, 1.42, 1.42, 1.43, 1.43, 1.43, 1.44, 1.44, 1.44, 1.45, 1.45, 1.45, 1.45, 1.46, 1.46, 1.46, 1.47, 1.47, 1.47, 1.48, 1.48, 1.48, 1.48, 1.49, 1.49, 1.49, 1.5, 1.5, 1.5, 1.5, 1.51, 1.51, 1.51, 1.52, 1.52, 1.52, 1.52, 1.53, 1.53, 1.53, 1.54, 1.54, 1.54, 1.54, 1.55, 1.55, 1.55, 1.56, 1.56, 1.56, 1.57, 1.57, 1.57, 1.57, 1.58, 1.58, 1.58, 1.59, 1.59, 1.59, 1.6, 1.6, 1.6, 1.6, 1.61, 1.61, 1.61, 1.62, 1.62, 1.62, 1.63, 1.63, 1.63, 1.64, 1.64, 1.64, 1.65, 1.65, 1.65, 1.66, 1.66, 1.66, 1.67, 1.67, 1.68, 1.68, 1.68, 1.69, 1.69, 1.69, 1.7, 1.7, 1.71, 1.71, 1.71, 1.72, 1.72, 1.73, 1.73, 1.73, 1.74, 1.74, 1.75, 1.75, 1.76, 1.76, 1.76, 1.77, 1.77, 1.78, 1.78, 1.79, 1.79, 1.8, 1.8, 1.81, 1.81, 1.82, 1.83, 1.83, 1.84, 1.84, 1.85, 1.85, 1.86, 1.87, 1.87, 1.88, 1.89, 1.89, 1.9, 1.91, 1.91, 1.92, 1.93, 1.94, 1.94, 1.95, 1.96, 1.97, 1.98, 1.99, 1.99, 2.0, 2.01, 2.02]
43 [0.85, 0.87, 0.89, 1.28, 1.28, 1.29, 1.29, 1.29, 1.3, 1.3, 1.31, 1.31, 1.31, 1.32, 1.32, 1.32, 1.33, 1.33, 1.34, 1.34, 1.34, 1.35, 1.35, 1.35, 1.36, 1.36, 1.36, 1.37, 1.37, 1.37, 1.38, 1.38, 1.38, 1.39, 1.39, 1.39, 1.4, 1.4, 1.4, 1.4, 1.41, 1.41, 1.41, 1.42, 1.42, 1.42, 1.43, 1.43, 1.43, 1.44, 1.44, 1.44, 1.44, 1.45, 1.45, 1.45, 1.46, 1.46, 1.46, 1.47, 1.47, 1.47, 1.47, 1.48, 1.48, 1.48, 1.49, 1.49, 1.49, 1.5, 1.5, 1.5, 1.5, 1.51, 1.51, 1.51, 1.52, 1.52, 1.52, 1.53, 1.53, 1.53, 1.53, 1.54, 1.54, 1.54, 1.55, 1.55, 1.55, 1.56, 1.56, 1.56, 1.57, 1.57, 1.57, 1.58, 1.58, 1.58, 1.58, 1.59, 1.59, 1.59, 1.6, 1.6, 1.6, 1.61, 1.61, 1.61, 1.62, 1.62, 1.62, 1.63, 1.63, 1.64, 1.64, 1.64, 1.65, 1.65, 1.65, 1.66, 1.66, 1.66, 1.67, 1.67, 1.68, 1.68, 1.68, 1.69, 1.69, 1.7, 1.7, 1.71, 1.71, 1.71, 1.72, 1.72, 1.73, 1.73, 1.74, 1.74, 1.75, 1.75, 1.75, 1.76, 1.76, 1.77, 1.77, 1.78, 1.79, 1.79, 1.8, 1.8, 1.81, 1.81, 1.82, 1.82, 1.83, 1.84, 1.84, 1.85, 1.86, 1.86, 1.87, 1.88, 1.88, 1.89, 1.9, 1.9, 1.91, 1.92, 1.93, 1.94, 1.94, 1.95, 1.96, 1.97, 1.98, 1.99, 2.0, 2.01, 2.02, 2.03]
44 [0.87, 1.25, 1.26, 1.26, 1.26, 1.27, 1.27, 1.28, 1.28, 1.28, 1.29, 1.29, 1.3, 1.3, 1.3, 1.31, 1.31, 1.31, 1.32, 1.32, 1.33, 1.33, 1.33, 1.34, 1.34, 1.34, 1.35, 1.35, 1.35, 1.36, 1.36, 1.36, 1.37, 1.37, 1.37, 1.38, 1.38, 1.38, 1.39, 1.39, 1.39, 1.4, 1.4, 1.4, 1.41, 1.41, 1.41, 1.42, 1.42, 1.42, 1.43, 1.43, 1.43, 1.43, 1.44, 1.44, 1.44, 1.45, 1.45, 1.45, 1.46, 1.46, 1.46, 1.47, 1.47, 1.47, 1.48, 1.48, 1.48, 1.48, 1.49, 1.49, 1.49, 1.5, 1.5, 1.5, 1.51, 1.51, 1.51, 1.52, 1.52, 1.52, 1.53, 1.53, 1.53, 1.53, 1.54, 1.54, 1.54, 1.55, 1.55, 1.55, 1.56, 1.56, 1.56, 1.57, 1.57, 1.57, 1.58, 1.58, 1.58, 1.59, 1.59, 1.59, 1.6, 1.6, 1.61, 1.61, 1.61, 1.62, 1.62, 1.62, 1.63, 1.63, 1.63, 1.64, 1.64, 1.65, 1.65, 1.65, 1.66, 1.66, 1.67, 1.67, 1.67, 1.68, 1.68, 1.69, 1.69, 1.7, 1.7, 1.7, 1.71, 1.71, 1.72, 1.72, 1.73, 1.73, 1.74, 1.74, 1.75, 1.75, 1.76, 1.76, 1.77, 1.77, 1.78, 1.78, 1.79, 1.79, 1.8, 1.81, 1.81, 1.82, 1.82, 1.83, 1.84, 1.84, 1.85, 1.86, 1.86, 1.87, 1.88, 1.89, 1.89, 1.9, 1.91, 1.92, 1.92, 1.93, 1.94, 1.95, 1.96, 1.97, 1.98, 1.99, 2.0, 2.01, 2.02, 2.03, 2.04, 2.05]
45 [1.24, 1.25, 1.25, 1.26, 1.26, 1.26, 1.27, 1.27, 1.28, 1.28, 1.28, 1.29, 1.29, 1.3, 1.3, 1.3, 1.31, 1.31, 1.31, 1.32, 1.32, 1.33, 1.33, 1.33, 1.34, 1.34, 1.34, 1.35, 1.35, 1.35, 1.36, 1.36, 1.36, 1.37, 1.37, 1.37, 1.38, 1.38, 1.38, 1.39, 1.39, 1.39, 1.4, 1.4, 1.4, 1.41, 1.41, 1.41, 1.42, 1.42, 1.42, 1.43, 1.43, 1.43, 1.44, 1.44, 1.44, 1.45, 1.45, 1.45, 1.46, 1.46, 1.46, 1.46, 1.47, 1.47, 1.47, 1.48, 1.48, 1.48, 1.49, 1.49, 1.49, 1.5, 1.5, 1.5, 1.51, 1.51, 1.51, 1.52, 1.52, 1.52, 1.53, 1.53, 1.53, 1.54, 1.54, 1.54, 1.55, 1.55, 1.55, 1.56, 1.56, 1.56, 1.57, 1.57, 1.57, 1.58, 1.58, 1.58, 1.59, 1.59, 1.59, 1.6, 1.6, 1.6, 1.61, 1.61, 1.61, 1.62, 1.62, 1.63, 1.63, 1.63, 1.64, 1.64, 1.65, 1.65, 1.65, 1.66, 1.66, 1.67, 1.67, 1.67, 1.68, 1.68, 1.69, 1.69, 1.7, 1.7, 1.7, 1.71, 1.71, 1.72, 1.72, 1.73, 1.73, 1.74, 1.74, 1.75, 1.75, 1.76, 1.76, 1.77, 1.77, 1.78, 1.78, 1.79, 1.8, 1.8, 1.81, 1.81, 1.82, 1.83, 1.83, 1.84, 1.85, 1.85, 1.86, 1.87, 1.87, 1.88, 1.89, 1.9, 1.9, 1.91, 1.92, 1.93, 1.94, 1.94, 1.95, 1.96, 1.97, 1.98, 1.99, 2.0, 2.01, 2.02, 2.03, 2.04, 2.05, 2.05]
46 [1.24, 1.25, 1.25, 1.26, 1.26, 1.26, 1.27, 1.27, 1.28, 1.28, 1.28, 1.29, 1.29, 1.3, 1.3, 1.3, 1.31, 1.31, 1.31, 1.32, 1.32, 1.33, 1.33, 1.33, 1.34, 1.34, 1.34, 1.35, 1.35, 1.35, 1.36, 1.36, 1.36, 1.37, 1.37, 1.37, 1.38, 1.38, 1.38, 1.39, 1.39, 1.39, 1.4, 1.4, 1.4, 1.41, 1.41, 1.41, 1.42, 1.42, 1.42, 1.43, 1.43, 1.43, 1.44, 1.44, 1.44, 1.45, 1.45, 1.45, 1.46, 1.46, 1.46, 1.46, 1.47, 1.47, 1.47, 1.48, 1.48, 1.48, 1.49, 1.49, 1.49, 1.5, 1.5, 1.5, 1.51, 1.51, 1.51, 1.52, 1.52, 1.52, 1.53, 1.53, 1.53, 1.54, 1.54, 1.54, 1.54, 1.55, 1.55, 1.56, 1.56, 1.56, 1.57, 1.57, 1.57, 1.58, 1.58, 1.58, 1.59, 1.59, 1.59, 1.6, 1.6, 1.6, 1.61, 1.61, 1.61, 1.62, 1.62, 1.63, 1.63, 1.63, 1.64, 1.64, 1.65, 1.65, 1.65, 1.66, 1.66, 1.67, 1.67, 1.67, 1.68, 1.68, 1.69, 1.69, 1.7, 1.7, 1.7, 1.71, 1.71, 1.72, 1.72, 1.73, 1.73, 1.74, 1.74, 1.75, 1.75, 1.76, 1.76, 1.77, 1.77, 1.78, 1.78, 1.79, 1.8, 1.8, 1.81, 1.81, 1.82, 1.83, 1.83, 1.84, 1.85, 1.85, 1.86, 1.87, 1.87, 1.88, 1.89, 1.9, 1.9, 1.91, 1.92, 1.93, 1.94, 1.94, 1.95, 1.96, 1.97, 1.98, 1.99, 2.0, 2.01, 2.02, 2.03, 2.04, 2.05, 2.05]
47 [1.24, 1.25, 1.25, 1.26, 1.26, 1.26, 1.27, 1.27, 1.28, 1.28, 1.28, 1.29, 1.29, 1.3, 1.3, 1.3, 1.31, 1.31, 1.31, 1.32, 1.32, 1.33, 1.33, 1.33, 1.34, 1.34, 1.34, 1.35, 1.35, 1.35, 1.36, 1.36, 1.36, 1.37, 1.37, 1.37, 1.38, 1.38, 1.38, 1.39, 1.39, 1.39, 1.4, 1.4, 1.4, 1.41, 1.41, 1.41, 1.42, 1.42, 1.42, 1.43, 1.43, 1.43, 1.44, 1.44, 1.44, 1.45, 1.45, 1.45, 1.46, 1.46, 1.46, 1.46, 1.47, 1.47, 1.47, 1.48, 1.48, 1.48, 1.49, 1.49, 1.49, 1.5, 1.5, 1.5, 1.51, 1.51, 1.51, 1.52, 1.52, 1.52, 1.53, 1.53, 1.53, 1.54, 1.54, 1.54, 1.54, 1.55, 1.55, 1.55, 1.56, 1.56, 1.57, 1.57, 1.57, 1.58, 1.58, 1.58, 1.59, 1.59, 1.59, 1.6, 1.6, 1.6, 1.61, 1.61, 1.61, 1.62, 1.62, 1.63, 1.63, 1.63, 1.64, 1.64, 1.65, 1.65, 1.65, 1.66, 1.66, 1.67, 1.67, 1.67, 1.68, 1.68, 1.69, 1.69, 1.7, 1.7, 1.7, 1.71, 1.71, 1.72, 1.72, 1.73, 1.73, 1.74, 1.74, 1.75, 1.75, 1.76, 1.76, 1.77, 1.77, 1.78, 1.78, 1.79, 1.8, 1.8, 1.81, 1.81, 1.82, 1.83, 1.83, 1.84, 1.85, 1.85, 1.86, 1.87, 1.87, 1.88, 1.89, 1.9, 1.9, 1.91, 1.92, 1.93, 1.94, 1.94, 1.95, 1.96, 1.97, 1.98, 1.99, 2.0, 2.01, 2.02, 2.03, 2.04, 2.05, 2.05]
48 [1.24, 1.24, 1.25, 1.25, 1.26, 1.26, 1.27, 1.27, 1.27, 1.28, 1.28, 1.29, 1.29, 1.29, 1.3, 1.3, 1.3, 1.31, 1.31, 1.32, 1.32, 1.32, 1.33, 1.33, 1.33, 1.34, 1.34, 1.35, 1.35, 1.35, 1.36, 1.36, 1.36, 1.37, 1.37, 1.37, 1.38, 1.38, 1.38, 1.39, 1.39, 1.39, 1.4, 1.4, 1.4, 1.41, 1.41, 1.41, 1.42, 1.42, 1.42, 1.43, 1.43, 1.43, 1.44, 1.44, 1.44, 1.45, 1.45, 1.45, 1.46, 1.46, 1.46, 1.46, 1.47, 1.47, 1.47, 1.48, 1.48, 1.48, 1.49, 1.49, 1.49, 1.5, 1.5, 1.5, 1.51, 1.51, 1.51, 1.52, 1.52, 1.52, 1.53, 1.53, 1.53, 1.54, 1.54, 1.54, 1.55, 1.55, 1.55, 1.56, 1.56, 1.56, 1.57, 1.57, 1.57, 1.58, 1.58, 1.58, 1.59, 1.59, 1.6, 1.6, 1.6, 1.61, 1.61, 1.61, 1.62, 1.62, 1.62, 1.63, 1.63, 1.64, 1.64, 1.64, 1.65, 1.65, 1.66, 1.66, 1.66, 1.67, 1.67, 1.68, 1.68, 1.69, 1.69, 1.69, 1.7, 1.7, 1.71, 1.71, 1.72, 1.72, 1.73, 1.73, 1.74, 1.74, 1.75, 1.75, 1.76, 1.76, 1.77, 1.77, 1.78, 1.79, 1.79, 1.8, 1.8, 1.81, 1.81, 1.82, 1.83, 1.83, 1.84, 1.85, 1.85, 1.86, 1.87, 1.87, 1.88, 1.89, 1.9, 1.9, 1.91, 1.92, 1.93, 1.94, 1.95, 1.95, 1.96, 1.97, 1.98, 1.99, 2.0, 2.01, 2.02, 2.03, 2.04, 2.06, 2.07, 2.05]
49 [1.22, 1.23, 1.23, 1.24, 1.24, 1.24, 1.25, 1.25, 1.26, 1.26, 1.27, 1.27, 1.27, 1.28, 1.28, 1.29, 1.29, 1.3, 1.3, 1.3, 1.31, 1.31, 1.31, 1.32, 1.32, 1.33, 1.33, 1.33, 1.34, 1.34, 1.35, 1.35, 1.35, 1.36, 1.36, 1.36, 1.37, 1.37, 1.38, 1.38, 1.38, 1.39, 1.39, 1.39, 1.4, 1.4, 1.4, 1.41, 1.41, 1.41, 1.42, 1.42, 1.43, 1.43, 1.43, 1.44, 1.44, 1.44, 1.45, 1.45, 1.45, 1.46, 1.46, 1.46, 1.47, 1.47, 1.47, 1.48, 1.48, 1.48, 1.49, 1.49, 1.5, 1.5, 1.5, 1.51, 1.51, 1.51, 1.52, 1.52, 1.52, 1.53, 1.53, 1.53, 1.54, 1.54, 1.55, 1.55, 1.55, 1.56, 1.56, 1.56, 1.57, 1.57, 1.58, 1.58, 1.58, 1.59, 1.59, 1.59, 1.6, 1.6, 1.61, 1.61, 1.61, 1.62, 1.62, 1.63, 1.63, 1.64, 1.64, 1.64, 1.65, 1.65, 1.66, 1.66, 1.67, 1.67, 1.68, 1.68, 1.68, 1.69, 1.69, 1.7, 1.7, 1.71, 1.71, 1.72, 1.72, 1.73, 1.73, 1.74, 1.74, 1.75, 1.75, 1.76, 1.77, 1.77, 1.78, 1.78, 1.79, 1.79, 1.8, 1.81, 1.81, 1.82, 1.83, 1.83, 1.84, 1.85, 1.85, 1.86, 1.87, 1.87, 1.88, 1.89, 1.9, 1.91, 1.91, 1.92, 1.93, 1.94, 1.95, 1.96, 1.96, 1.97, 1.98, 1.99, 2.0, 2.01, 2.02, 2.03, 2.05, 2.06, 2.07, 2.08, 2.09, 2.11, 2.11, 2.08, 2.05, 2.02]
