0 -1
1 -1
2 -1
3 0
4 3
5 3
6 3
7 3
8 3
9 4
10 4
11 3
12 3
13 0
14 3
15 3
16 3
17 3
18 3
19 4
20 4
21 4
22 4
23 4
24 4
25 4
26 4
27 4
28 4
29 4
30 4
31 4
32 4
33 4
34 4
35 4
36 4
37 4
38 4
39 4
40 4
41 4
42 4
43 4
44 4
45 4
46 4
47 4
48 4
49 4
