0 [0.0, 0.0, 0.0, 0.0, 0.0, 0.0, 0.0, 0.0]
1 [0.0, 0.0, 0.0, 0.0, 0.0, 0.0, 0.0, 0.0]
2 [0.15482418, 0.10282418, 0.080175824, 0.14882419, 0.080175824, 0.07917583, 0.07917583, 0.07817583]
3 [0.15482418, 0.10282418, 0.080175824, 0.14882419, 0.080175824, 0.07917583, 0.07917583, 0.07817583]
4 [0.90175825, 0.85575825, 0.34524176, 1.0897583, 1.0897583, 0.08624177, 0.33124176, 0.07724175]
5 [0.15175825, 0.10575824, 0.095241755, 0.13975824, 0.13975824, 0.08624177, 0.08124175, 0.07724175]
6 [0.95976925, 0.85476923, 0.5198974, 1.0504359, 1.0504359, 0.09023078, 0.5008974, 0.07723077]
7 [0.95976925, 0.85476923, 0.10323077, 1.0883147, 1.0883147, 0.09023078, 0.3115035, 0.07723077]
8 [0.19959341, 0.1025934, 0.0754066, 0.120593406, 0.123593405, 0.10040661, 0.09040659, 0.07440659]
9 [0.19451098, 0.101510994, 0.057489023, 0.126489, 0.11851099, 0.105489, 0.09348901, 0.07348901]
10 [0.19451098, 0.101510994, 0.057489023, 0.126489, 0.11851099, 0.105489, 0.09348901, 0.07348901]
11 [0.19451098, 0.101510994, 0.057489023, 0.126489, 0.11851099, 0.105489, 0.09348901, 0.07348901]
12 [0.9339121, 0.096912086, 0.048912082, 1.0140879, 1.0080879, 0.8640879, 0.10008792, 0.9590879]
13 [0.6839121, 0.5969121, 0.5489121, 0.1390879, 0.1330879, 0.1140879, 0.10008792, 0.08408791]
14 [0.17948902, 0.09448901, 0.049489014, 0.7278443, 1.0571777, 1.0331776, 0.10451099, 1.0031776]
15 [0.679489, 0.594489, 0.549489, 0.14451098, 0.14051099, 0.11651098, 0.10451099, 0.086510986]
16 [0.17948902, 0.09448901, 0.049489014, 0.14451098, 0.14051099, 0.11651098, 0.10451099, 0.086510986]
17 [0.6699616, 0.6599615, 0.55696154, 0.098038465, 0.9873718, 0.11503847, 0.111038476, 1.6313717]
18 [1.0073022, 0.14215934, 0.050159346, 0.056840647, 1.154174, 1.146174, 0.11884066, 0.25284067]
19 [0.15015934, 0.14215934, 0.050159346, 0.056840647, 0.17084067, 0.16284066, 0.11884066, 0.102840655]
20 [1.085818, 0.8010403, 0.12437362, 0.043626383, 0.15962636, 1.1200708, 1.0640708, 0.11062637]
21 [0.14137363, 0.13437362, 0.12437362, 0.043626383, 0.15962636, 0.17562638, 0.11962638, 0.11062637]
22 [0.12378571, 0.11878572, 0.110785715, 0.03121429, 0.10621428, 0.18221428, 0.1632143, 0.11621429]
23 [1.084282, 0.113615386, 0.10661539, 0.026384618, 0.09138463, 0.35005128, 1.1370512, 1.0790513]
24 [0.11761539, 0.113615386, 0.10661539, 0.026384618, 0.09138463, 0.18338461, 0.17038462, 0.11238461]
25 [0.10743956, 0.10543956, 0.09843956, 0.024560442, 0.07556043, 0.18656044, 0.18456045, 0.10656045]
26 [0.9807088, 0.102708794, 0.09670879, 0.023291204, 0.4462912, 0.1732912, 1.1529579, 0.4782912]
27 [0.10570879, 0.102708794, 0.09670879, 0.023291204, 0.07129121, 0.1732912, 0.18629122, 0.1032912]
28 [0.9806813, 0.101681314, 1.0572197, 0.020318683, 0.4403187, 0.15731867, 1.1448572, 1.0268571]
29 [0.105681315, 0.101681314, 0.09568132, 0.020318683, 0.06531869, 0.15731867, 0.18331867, 0.06531869]
30 [0.105681315, 0.101681314, 0.09568132, 0.020318683, 0.06531869, 0.15731867, 0.18331867, 0.06531869]
31 [0.98281866, 0.10381868, 1.0710409, 0.017181322, 0.43718132, 0.1551813, 0.18118131, 1.0354035]
32 [0.10987362, 0.10487363, 0.5998736, 0.5171264, 0.5621264, 0.6601264, 0.68012637, 0.061873626]
33 [0.10987362, 0.10487363, 0.099873625, 0.017126376, 0.06212637, 0.16012639, 0.18012637, 0.061873626]
34 [0.98487365, 0.10487363, 0.099873625, 0.017126376, 0.43712637, 0.16012639, 0.18012637, 0.4368736]
35 [0.11267582, 0.10867582, 1.0370091, 0.9506575, 0.13399085, 0.24599084, 0.24399084, 0.06467582]
36 [0.77934253, 0.10867582, 0.10367583, 0.68399084, 0.73399085, 0.17932416, 0.17732416, 0.7313425]
37 [0.6175275, 0.6135275, 0.03652747, 0.019472523, 0.07747254, 0.67647254, 0.66747254, 0.5705275]
38 [0.14007327, 0.13607326, 1.0237399, 0.020593408, 0.0895934, 0.19026008, 0.17326008, 0.093073264]
39 [0.1234066, 0.119406596, 0.040406592, 0.8955934, 0.4645934, 0.17359342, 0.15659341, 0.4514066]
40 [0.22727472, 0.9632747, 0.9432747, 0.022725271, 0.10072528, 0.27072528, 0.25072527, 0.18127473]
41 [1.084467, 1.0184671, 0.047467034, 0.024532968, 0.11853297, 1.114533, 0.24053296, 0.18746704]
