0 1.5707965
0 2.3182125E-7
0 2.7530228E-7
0 8.3220726E-8
0 -0.0
0 -1.8927005E-7
0 -1.3909238E-7
0 -1.5707965
0 -1.5707958
1 1.5707965
1 2.3182125E-7
1 2.7530228E-7
1 8.3220726E-8
1 -0.0
1 -1.8927005E-7
1 -1.3909238E-7
1 -1.5707965
1 -1.5707958
2 -3.138435
2 -8.218652E-5
2 -6.0812337E-5
2 -5.346814E-5
2 -5.352472E-5
2 -6.099264E-5
2 -8.171576E-5
2 -0.0031161609
2 -1.5657754
3 -3.138435
3 -8.218652E-5
3 -6.0812337E-5
3 -5.346814E-5
3 -5.352472E-5
3 -6.099264E-5
3 -8.171576E-5
3 -0.0031161609
3 -1.5657754
4 3.129921
4 2.506512E-4
4 1.8422042E-4
4 1.6072481E-4
4 1.5969972E-4
4 1.8017976E-4
4 2.4038581E-4
4 0.011685922
4 -1.5541278
5 3.130382
5 5.5371295E-4
5 4.0225766E-4
5 3.488793E-4
5 3.4461002E-4
5 3.8638004E-4
5 5.102842E-4
5 0.011216784
5 -1.5370722
6 3.1323416
6 8.1677164E-4
6 5.843289E-4
6 5.0187495E-4
6 4.9185706E-4
6 5.467103E-4
6 7.12695E-4
6 0.009254155
6 -1.513988
7 3.1308062
7 0.0015515111
7 0.0010873531
7 9.2247437E-4
7 8.946766E-4
7 9.83633E-4
7 0.0012614599
7 0.010789553
7 -1.4846689
8 3.1308062
8 0.0015515111
8 0.0010873531
8 9.2247437E-4
8 8.946766E-4
8 9.83633E-4
8 0.0012614599
8 0.010789553
8 -1.4846689
9 3.1297386
9 0.0031966015
9 0.0021397437
9 0.001768269
9 0.0016793025
9 0.00180621
9 0.0022473496
9 0.011856033
9 -1.4256132
10 3.1297386
10 0.0031966015
10 0.0021397437
10 0.001768269
10 0.0016793025
10 0.00180621
10 0.0022473496
10 0.011856033
10 -1.4256132
11 3.1312838
11 0.0035124428
11 0.0022922263
11 0.00186839
11 0.0017554688
11 0.001867794
11 0.002291112
11 0.010310196
11 -1.3961053
12 3.1312838
12 0.0035124428
12 0.0022922263
12 0.00186839
12 0.0017554688
12 0.001867794
12 0.002291112
12 0.010310196
12 -1.3961053
13 3.1325068
13 0.0038660695
13 0.0024498338
13 0.0019664706
13 0.0018263299
13 0.0019211218
13 0.0023220219
13 0.009086734
13 -1.3644605
14 3.1325068
14 0.0038660695
14 0.0024498338
14 0.0019664706
14 0.0018263299
14 0.0019211218
14 0.0023220219
14 0.009086734
14 -1.3644605
15 3.132454
15 0.0046293573
15 0.0028551372
15 0.002261114
15 0.0020792305
15 0.0021661916
15 0.0025868288
15 0.009139797
15 -1.337641
16 3.133333
16 0.004916038
16 0.002944819
16 0.0022999349
16 0.0020938718
16 0.002160902
16 0.0025503451
16 0.008260652
16 -1.3109958
17 3.134403
17 0.005068378
17 0.0029315706
17 0.002253203
17 0.0020284487
17 0.0020716516
17 0.0024145052
17 0.0071905046
17 -1.2815907
18 3.1371512
18 0.0037470993
18 0.0020730353
18 0.001563115
18 0.0013889164
18 0.0014016695
18 0.0016111436
18 0.004442169
18 -1.2480727
19 3.1392007
19 0.0024700465
19 0.0012865728
19 9.468911E-4
19 8.281415E-4
19 8.2411285E-4
19 9.322235E-4
19 0.0023923786
19 -1.2083704
20 3.1392007
20 0.0024700465
20 0.0012865728
20 9.468911E-4
20 8.281415E-4
20 8.2411285E-4
20 9.322235E-4
20 0.0023923786
20 -1.2083704
21 -3.140323
21 -0.002566256
21 -0.0010857907
21 -7.4563245E-4
21 -6.252535E-4
21 -6.008094E-4
21 -6.539067E-4
21 -0.0012692962
21 -1.1083575
22 -3.140323
22 -0.002566256
22 -0.0010857907
22 -7.4563245E-4
22 -6.252535E-4
22 -6.008094E-4
22 -6.539067E-4
22 -0.0012692962
22 -1.1083575
23 -3.1398337
23 -0.004915443
23 -0.0017673039
23 -0.001162934
23 -9.522235E-4
23 -8.978373E-4
23 -9.585926E-4
23 -0.0017584952
23 -1.0562867
24 -3.1398337
24 -0.004915443
24 -0.0017673039
24 -0.001162934
24 -9.522235E-4
24 -8.978373E-4
24 -9.585926E-4
24 -0.0017584952
24 -1.0099568
25 3.14036
25 0.0069375536
25 0.0015492897
25 9.354033E-4
25 7.3327194E-4
25 6.692765E-4
25 6.925617E-4
25 0.0012329007
25 -0.9690339
26 3.14036
26 0.0069375536
26 0.0015492897
26 9.354033E-4
26 7.3327194E-4
26 6.692765E-4
26 6.925617E-4
26 0.0012329007
26 -0.9690339
27 3.1378565
27 0.036064167
27 0.0055046855
27 0.0031876508
27 0.0024513842
27 0.002207695
27 0.002255722
27 0.0037366096
27 -0.93350255
28 3.1353462
28 0.121940866
28 0.010328759
28 0.005753866
28 0.0043512946
28 0.0038740572
28 0.003917156
28 0.00624686
28 -0.9039605
29 3.1333945
29 0.49524766
29 0.014758685
29 0.007969164
29 0.0059495117
29 0.0052519124
29 0.0052697463
29 0.00819834
29 -0.8822566
30 3.1333945
30 0.49524766
30 0.014758685
30 0.007969164
30 0.0059495117
30 0.0052519124
30 0.0052697463
30 0.00819834
30 -0.8822566
31 3.1320312
31 2.3712783
31 0.018342739
31 0.009663734
31 0.0071445056
31 0.006266613
31 0.0062526413
31 0.009561884
31 -0.86631125
32 3.1320312
32 2.3712783
32 0.018342739
32 0.009663734
32 0.0071445056
32 0.006266613
32 0.0062526413
32 0.009561884
32 -0.86631125
33 3.1362047
33 2.953787
33 0.010817017
33 0.0055863406
33 0.004098764
33 0.0035774244
33 0.0035542694
33 0.0053881416
33 -0.85418695
34 3.1362047
34 2.953787
34 0.010817017
34 0.0055863406
34 0.004098764
34 0.0035774244
34 0.0035542694
34 0.0053881416
34 -0.85418695
35 3.1362047
35 2.953787
35 0.010817017
35 0.0055863406
35 0.004098764
35 0.0035774244
35 0.0035542694
35 0.0053881416
35 -0.85418695
36 3.1404207
36 3.0986392
36 0.0022743612
36 0.0011771141
36 8.641626E-4
36 7.545471E-4
36 7.500783E-4
36 0.0011721926
36 -0.85542315
37 -3.1401305
37 -3.0744338
37 -0.0029971285
37 -0.0015578993
37 -0.001145972
37 -0.0010019527
37 -9.966989E-4
37 -0.0014618048
37 -0.85803676
38 -3.1401305
38 -3.0744338
38 -0.0029971285
38 -0.0015578993
38 -0.001145972
38 -0.0010019527
38 -9.966989E-4
38 -0.0014618048
38 -0.85803676
39 -3.1396387
39 -2.8961735
39 -0.0038306166
39 -0.0020219232
39 -0.0014960605
39 -0.0013130422
39 -0.0013105886
39 -0.0019536745
39 -0.8675079
40 -3.1396387
40 -2.8961735
40 -0.0038306166
40 -0.0020219232
40 -0.0014960605
40 -0.0013130422
40 -0.0013105886
40 -0.0019536745
40 -0.8675079
41 -3.1398957
41 -0.10912265
41 -0.0031464242
41 -0.0017001164
41 -0.0012697562
41 -0.0011213365
41 -0.0011252145
41 -0.0016966084
41 -0.88275945
42 -3.1404877
42 -0.028488766
42 -0.001962425
42 -0.001083948
42 -8.1687287E-4
42 -7.2576443E-4
42 -7.3213223E-4
42 -0.0011045961
42 -0.89784247
43 3.1403139
43 0.017309861
43 0.0019607
43 0.0011102152
43 8.452586E-4
43 7.5604947E-4
43 7.677122E-4
43 0.0012792337
43 -0.9159884
44 3.1370864
44 0.03852672
44 0.0064780526
44 0.003785404
44 0.0029229189
44 0.002639753
44 0.0027041382
44 0.0045065656
44 -0.9408206
45 3.134521
45 0.04334715
45 0.009356723
45 0.005624045
45 0.004399694
45 0.004010149
45 0.004143286
45 0.007071966
45 -0.96494555
46 3.1339076
46 0.038183715
46 0.009523415
46 0.005842217
46 0.0046149916
46 0.004235879
46 0.0044056396
46 0.0076855454
46 -0.98355734
47 3.1353288
47 0.02668849
47 0.007342319
47 0.0045764763
47 0.0036434336
47 0.0033632128
47 0.0035172075
47 0.0062642028
47 -0.9988516
48 3.1370952
48 0.016857734
48 0.0050052786
48 0.003162754
48 0.00253525
48 0.0023521762
48 0.0024720938
48 0.00449786
48 -1.0125754
49 3.1383848
49 0.010454285
49 0.0033564346
49 0.002153639
49 0.0017399931
49 0.0016238268
49 0.001716553
49 0.0032082878
49 -1.0286183
