1.19874355E9 4.5769E-41
1.1749998 1.3750004
1.174832 1.3751547
1.1749768 1.3753183
1.173623 1.3753494
1.173623 1.3753494
1.1724181 1.3757334
1.1707107 1.3693717
1.1704426 1.3634763
1.1704426 1.3634763
1.1698536 1.3592417
1.1697694 1.3549211
1.1706724 1.3426157
1.1706724 1.3426157
1.1734685 1.3242596
1.175638 1.3141552
1.1782267 1.3035337
1.1850677 1.282163
1.1850677 1.282163
1.1958843 1.2600805
1.1958843 1.2600805
1.2115884 1.2364944
1.2215482 1.2236382
1.2215482 1.2236382
1.2457185 1.1951064
1.2457185 1.1951064
1.2457185 1.1951064
1.2574697 1.1816943
1.2748936 1.1625631
1.2847126 1.1520442
1.296149 1.1393298
1.3073623 1.1260355
1.3298793 1.099385
1.3404552 1.0855739
1.3563267 1.0635849
1.3622766 1.0551748
1.3745835 1.038212
1.3745835 1.038212
1.3745835 1.038212
