0 [0.0, 0.0, 0.0, 0.0, 0.0, 0.0, 0.0, 0.0]
1 [0.98282945, 0.34971327, 0.0, 0.0, 0.0, 0.0, 0.0, 0.0]
2 [0.981347, 0.34571406, 0.0, 0.0, 0.0, 0.0, 0.0, 0.0]
3 [0.97354174, 0.33367327, 0.0, 0.0, 0.0, 0.0, 0.0, 0.0]
4 [0.9633421, 0.3329028, 0.42317387, 0.0, 0.0, 0.0, 0.0, 0.0]
5 [0.9566016, 0.33016515, 0.4080189, 0.0, 0.0, 0.0, 0.0, 0.0]
6 [0.94891495, 0.32833368, 0.39334452, 0.0, 0.0, 0.0, 0.0, 0.0]
7 [0.94140315, 0.32591712, 0.38134277, 0.0, 0.0, 0.0, 0.0, 0.0]
8 [0.9359125, 0.3179591, 0.35746428, 0.0, 0.0, 0.0, 0.0, 0.0]
9 [0.93483, 0.3046194, 0.3289359, 0.0, 0.97665817, 0.9753234, 0.0, 0.0]
10 [0.94206595, 0.28619975, 0.29604226, 0.0, 0.95134926, 0.9706273, 0.0, 0.0]
11 [0.9499313, 0.4723951, 0.28117305, 0.0, 0.9481752, 0.9631349, 0.0, 0.0]
12 [0.715868, 0.45304632, 0.25993863, 0.33547416, 0.0, 0.94194824, 0.0, 0.0]
13 [0.715868, 0.45304632, 0.25993863, 0.33547416, 0.0, 0.94194824, 0.0, 0.0]
14 [0.69040936, 0.41935885, 0.22887199, 0.28214905, 0.0, 0.90243673, 0.89991146, 0.0]
15 [0.6943607, 0.4073786, 0.21547258, 0.2668282, 0.0, 0.8883094, 0.88997215, 0.0]
16 [0.71999276, 0.3819732, 0.18676259, 0.2373833, 0.0, 0.85884947, 0.8634743, 0.0]
17 [0.71999276, 0.3819732, 0.18676259, 0.2373833, 0.0, 0.85884947, 0.8634743, 0.0]
18 [0.7512942, 0.16169445, 0.16663347, 0.2157887, 0.0, 0.83563817, 0.839175, 0.0]
19 [0.7689648, 0.15400696, 0.15938766, 0.20910585, 0.0, 0.8277832, 0.8290149, 0.0]
20 [0.7934985, 0.145034, 0.15145592, 0.20240162, 0.0, 0.81869525, 0.81632775, 0.0]
21 [0.8532816, 0.12374567, 0.133201, 0.9279884, 0.0, 0.79526913, 0.78550845, 0.0]
22 [0.82317644, 0.103661284, 0.11736446, 0.9376595, 0.0, 0.7708434, 0.7558895, 0.0]
23 [0.10457643, 0.0857786, 0.10242117, 0.94138, 0.0, 0.7449577, 0.7318636, 0.0]
24 [0.09099007, 0.07461304, 0.09375841, 0.95103514, 0.0, 0.72655714, 0.7163653, 0.0]
25 [0.07848461, 0.06551041, 0.7742863, 0.0, 0.0, 0.70772773, 0.70531076, 0.0]
