0 -1
1 -1
2 9
3 9
4 9
5 9
6 9
7 59
8 59
9 59
10 34
11 34
12 34
13 34
14 15034
15 15034
16 15034
17 15039
18 12663
19 12663
20 12663
21 12663
22 75163
23 75163
24 75133
25 75133
26 75133
27 75133
28 75128
29 75128
30 75128
31 75128
32 56754
33 56754
34 56750
35 56750
36 56750
37 56325
