0 [0.0, 0.0, 0.0, 0.0, 0.0, 0.0, 0.0, 0.0]
1 [0.0, 0.0, 0.0, 0.0, 0.0, 0.0, 0.0, 0.0]
2 [0.0, 0.0, 0.0, 0.0, 0.0, 0.0, 0.0, 0.0]
3 [0.0, 0.0, 0.0, 0.0, 0.0, 0.0, 0.0, 0.0]
4 [0.0, 0.0, 0.0, 0.0, 0.0, 0.0, 0.0, 0.0]
5 [0.0, 0.0, 0.0, 0.0, 0.0, 0.0, 0.0, 0.0]
6 [0.0, 0.0, 0.0, 0.0, 0.0, 0.0, 0.0, 0.0]
7 [0.0, 0.0, 0.0, 0.0, 0.0, 0.0, 0.0, 0.0]
8 [0.0, 0.0, 0.0, 0.0, 0.0, 0.0, 0.0, 0.0]
9 [0.0, 0.0, 0.0, 0.0, 0.0, 0.0, 0.0, 0.0]
10 [0.0, 0.0, 0.0, 0.0, 0.0, 0.0, 0.0, 0.0]
11 [0.08562637, 0.15662637, 0.15662637, 0.14362638, 0.10437363, 0.103373624, 0.100373626, 0.100373626]
12 [0.08637912, 0.27537912, 0.2763791, 1.0888791, 1.0461209, 0.23062088, 1.0391209, 0.22162089]
13 [0.08637912, 0.15037912, 0.9013791, 0.9013791, 0.108620875, 0.105620876, 0.10162088, 0.09662089]
14 [0.08523077, 0.045769226, 0.14223076, 0.14223076, 0.11576923, 0.110769235, 0.10276924, 0.08976923]
15 [0.08074176, 0.038741753, 0.13773078, 1.0047418, 0.14624724, 1.1177638, 0.120247245, 0.077258244]
16 [0.08074176, 0.038741753, 0.12674177, 0.12974176, 0.13525823, 0.12325825, 0.109258235, 0.077258244]
17 [0.081461534, 0.046461545, 0.073538475, 0.11946154, 0.13853846, 0.13353847, 0.11253846, 0.09053846]
18 [0.081461534, 0.046461545, 0.073538475, 0.11946154, 0.13853846, 0.13353847, 0.11253846, 0.09053846]
19 [0.07832418, 0.050324183, 0.037675828, 0.98667586, 0.98932415, 0.8033425, 0.113675825, 0.7583425]
20 [0.07832418, 0.050324183, 0.037675828, 0.11167583, 0.114324175, 0.13667583, 0.113675825, 0.091675825]
21 [0.0704945, 0.045494504, 0.027505497, 0.8435055, 0.9975055, 0.8855055, 0.8825055, 0.1005055]
22 [0.06773626, 0.04373626, 0.024263732, 0.08326374, 1.0002637, 0.97973627, 1.0092638, 0.85326374]
23 [0.06773626, 0.04373626, 0.024263732, 0.08326374, 0.12526375, 0.10473626, 0.13426374, 0.10326374]
24 [0.0658956, 0.0428956, 0.020104399, 0.07310438, 1.0311043, 1.0028956, 1.0321044, 0.6041044]
25 [0.0658956, 0.0428956, 0.020104399, 0.07310438, 0.1311044, 0.1028956, 0.1321044, 0.1041044]
26 [0.061434064, 0.03943406, 0.01956593, 0.06756593, 0.13256595, 0.097434066, 0.12956594, 0.10456595]
27 [0.5598791, 0.038879126, 0.017120881, 0.062120885, 1.0996593, 0.59587914, 1.0886593, 0.3298901]
28 [0.059879124, 0.038879126, 0.017120881, 0.062120885, 0.13812089, 0.095879115, 0.12712087, 0.09912088]
29 [0.5566154, 0.03561539, 0.01738462, 0.059384603, 0.6273846, 1.1070513, 1.0910512, 0.29738462]
30 [0.42811537, 0.033115387, 0.015884615, 0.052884616, 0.9858846, 1.0649616, 1.0171924, 1.0439615]
31 [0.55311537, 0.033115387, 0.015884615, 0.052884616, 0.6108846, 0.6418846, 0.094115384, 0.12088462]
32 [0.051521976, 0.032521978, 0.014478026, 0.049478028, 0.10247803, 1.1080165, 0.51659894, 1.0770165]
33 [0.92652196, 0.032521978, 0.014478026, 0.049478028, 0.47747803, 0.52147806, 0.09352198, 0.11547801]
34 [0.92202747, 0.029027471, 0.015972521, 0.047972526, 0.47197253, 1.1277503, 0.3122497, 1.0897503]
35 [0.047027472, 0.029027471, 0.015972521, 0.047972526, 0.09697252, 0.14997254, 0.090027474, 0.111972526]
36 [0.92282414, 0.051802196, 0.03715384, 0.069153845, 0.47117582, 1.1411868, 0.11280219, 1.0981869]
37 [0.047824174, 0.029824173, 0.015175819, 0.047175825, 0.09617581, 0.15217583, 0.09082417, 0.10917582]
38 [0.04828571, 0.030285712, 0.014714281, 0.047714286, 0.0987143, 0.1517143, 0.09128571, 0.11071429]
39 [0.9227143, 0.029714283, 0.016285708, 0.050285712, 0.4772857, 0.9042857, 0.8407143, 0.8427143]
40 [0.047714286, 0.029714283, 0.016285708, 0.050285712, 0.10228572, 0.15428571, 0.09071428, 0.09271429]
41 [0.9232857, 0.36261904, 0.35104764, 0.05271428, 0.4827143, 0.820381, 0.7579524, 0.7589524]
42 [0.80086815, 0.7808681, 0.017131872, 0.05513187, 0.86413187, 0.90613186, 0.8448681, 0.8448681]
43 [0.050868127, 0.03086813, 0.017131872, 0.05513187, 0.11413186, 0.15613186, 0.09486813, 0.09486813]
44 [0.05174725, 0.03174725, 0.019252747, 0.060252745, 0.12625276, 0.15725274, 0.095747255, 0.096252754]
45 [0.05335714, 0.03235714, 0.020642854, 0.06364285, 0.13564286, 0.15464287, 0.09735715, 0.099642865]
46 [0.8544011, 0.033401098, 0.022598907, 0.06859891, 0.8985989, 0.9535989, 0.89840114, 0.9025989]
47 [0.054401096, 0.033401098, 0.022598907, 0.06859891, 0.14859891, 0.1535989, 0.0984011, 0.102598906]
48 [1.025337, 0.035670333, 0.027329668, 0.08332966, 0.9023297, 0.84967035, 1.069337, 1.0759963]
49 [0.05615934, 0.03315934, 0.029840657, 0.08584065, 0.15484066, 0.09715934, 0.10015934, 1.1371703]
