0 [0.0, 0.0, 0.0, 0.0, 0.0, 0.0, 0.0, 0.0]
1 [0.0, 0.0, 0.0, 0.0, 0.0, 0.0, 0.0, 0.0]
2 [0.0, 0.0, 0.0, 0.0, 0.0, 0.0, 0.0, 0.0]
3 [0.040120885, 0.040120885, 0.026879122, 0.08312088, 0.08312088, 0.025879122, 0.025879122, 0.062120877]
4 [0.040120885, 0.040120885, 0.026879122, 0.08312088, 0.08312088, 0.025879122, 0.025879122, 0.062120877]
5 [0.14160562, 0.15061662, 0.13960561, 0.9733944, 0.9743944, 0.023494508, 0.02149451, 0.17761661]
6 [0.10082051, 0.104820505, 0.09882051, 1.0191795, 1.0201795, 0.020153854, 0.017153857, 0.13151282]
7 [0.03415384, 0.03815384, 0.03215384, 0.5858462, 0.5868462, 0.020153854, 0.017153857, 0.56484616]
8 [0.03761538, 0.96205133, 0.11971794, 0.114717945, 1.0042821, 0.08761538, 0.014384605, 0.09071795]
9 [0.03761538, 0.045384623, 0.03638461, 0.031384613, 0.8376154, 0.08761538, 0.014384605, 0.7573846]
10 [0.04128572, 0.18204764, 0.17204762, 0.96704763, 1.0216191, 0.08928571, 0.011714279, 0.0047142855]
11 [0.04043956, 0.99700487, 0.37389377, 0.3698938, 1.031884, 0.08843956, 0.012560435, 0.00543956]
12 [0.04043956, 0.052560445, 0.04056043, 0.036560435, 0.96243954, 0.08843956, 0.012560435, 0.8804396]
13 [0.038225275, 0.05277473, 0.04177472, 0.036774725, 1.0817307, 0.088225275, 0.012774723, 0.005225272]
14 [0.038225275, 0.05277473, 0.04177472, 0.036774725, 0.96222526, 0.088225275, 0.012774723, 0.8802253]
15 [0.034500003, 0.05150001, 0.040499996, 0.0355, 0.9615, 0.0885, 0.0134999985, 0.005499995]
16 [0.9842652, 0.27755296, 0.99482566, 0.034280226, 0.08671978, 0.08771978, 0.013280223, 0.0062802183]
17 [0.029719783, 0.050280213, 0.040280223, 0.034280226, 0.96171975, 0.08771978, 0.013280223, 0.0062802183]
18 [0.95274174, 0.9727418, 0.96174175, 0.03366485, 0.08733516, 0.088335164, 0.0136648305, 0.006664837]
19 [0.3573132, 0.050137363, 1.0346428, 0.034137357, 0.08586264, 0.08786263, 0.015137361, 0.008137368]
20 [0.033137355, 0.050137363, 0.040137373, 0.034137357, 0.96086264, 0.08786263, 0.015137361, 0.008137368]
21 [0.6843736, 0.050021984, 1.029033, 0.034021974, 1.074989, 0.08797802, 0.015021981, 0.008021975]
22 [0.036021974, 0.050021984, 0.040021967, 0.034021974, 0.96097803, 0.08797802, 0.015021981, 0.008021975]
23 [0.040730763, 0.050730776, 0.040730763, 0.03473077, 0.9602692, 0.08726923, 0.015730774, 0.008730769]
24 [0.043708786, 0.050708804, 0.040708788, 0.034708794, 0.9602912, 0.08729121, 0.01570879, 0.009708795]
25 [0.04755494, 0.051554937, 0.042554945, 0.035554938, 0.9584451, 0.085445054, 0.017554944, 0.0105549395]
26 [0.2591978, 0.2611978, 1.0314176, 0.035406593, 1.0726044, 0.0855934, 0.017406598, 0.011406591]
27 [0.05040659, 0.052406587, 0.042406596, 0.035406593, 0.8335934, 0.8355934, 0.017406598, 0.011406591]
28 [0.13073626, 0.052813184, 1.0383186, 0.03681319, 0.08218681, 0.084186815, 0.018813182, 0.012813187]
29 [0.99610376, 0.99610376, 0.04265934, 0.035659347, 0.082340665, 0.08434066, 0.019659337, 0.013659342]
30 [0.051659342, 0.051659342, 0.04265934, 0.035659347, 0.83234066, 0.8343407, 0.019659337, 0.013659342]
31 [1.0352509, 0.14291759, 0.041917585, 0.035917576, 0.08108242, 0.083082415, 0.02091758, 0.99825096]
32 [0.051917586, 0.042917583, 0.041917585, 0.035917576, 0.8310824, 0.83308244, 0.02091758, 0.014917586]
33 [0.051642854, 0.043642864, 0.04264286, 0.036642857, 0.83035713, 0.8313571, 0.082357146, 0.017642863]
34 [0.05391209, 0.045912087, 0.043912087, 0.037912093, 0.8280879, 0.8300879, 0.080087915, 0.019912086]
35 [0.18595421, 1.0299542, 0.043620884, 0.038620874, 1.0607125, 0.8283791, 0.07937912, 0.02162088]
36 [0.052620873, 0.04662088, 0.043620884, 0.038620874, 0.07737912, 0.07837912, 0.07937912, 0.02162088]
37 [1.0007693, 0.99776924, 0.044769235, 0.03976923, 0.82623076, 0.82723075, 0.07723077, 0.022769233]
38 [0.050769232, 0.047769234, 0.044769235, 0.03976923, 0.82623076, 0.82723075, 0.07723077, 0.022769233]
39 [0.046670333, 0.043670334, 0.040670324, 0.036670327, 0.07932967, 0.08032967, 0.08132967, 0.87367034]
40 [0.9602832, 0.9562832, 0.045192305, 0.04019231, 0.8248077, 0.8258077, 0.5303532, 0.93428326]
41 [0.05119231, 0.0471923, 0.045192305, 0.04019231, 0.07480769, 0.07580769, 0.07580769, 0.025192311]
42 [0.048741754, 0.046741754, 0.044741757, 0.04074176, 0.074258246, 0.07525824, 0.07525824, 0.026741762]
43 [0.048741754, 0.046741754, 0.044741757, 0.04074176, 0.074258246, 0.07525824, 0.07525824, 0.026741762]
44 [1.0248992, 0.07789927, 0.042565938, 0.040565938, 0.82243407, 1.0567675, 0.1067674, 0.064899266]
45 [0.041565936, 0.044565935, 0.042565938, 0.040565938, 0.07243407, 0.07343406, 0.07343406, 0.031565934]
46 [0.10376557, 0.10376557, 0.0360989, 0.0729011, 1.0072345, 1.0072345, 0.102765575, 0.102765575]
47 [0.0370989, 0.0370989, 0.0360989, 1.0443296, 1.0453297, 0.073901094, 0.0360989, 0.0360989]
48 [0.03907143, 0.02892857, 0.02992857, 0.079071425, 0.079071425, 0.07807143, 0.033928566, 0.87792856]
49 [0.034785714, 0.029214285, 0.031214284, 0.9517857, 0.9517857, 0.7424524, 0.041214287, 0.04521428]
