0 -3.1415925
0 -3.1415925
0 -3.1415925
0 3.1415925
0 -0.0
0 -0.0
0 -0.0
0 -0.0
0 -0.0
1 -3.1415925
1 -3.1415925
1 -3.1415925
1 3.1415925
1 -0.0
1 -0.0
1 -0.0
1 -0.0
1 -0.0
2 3.134978
2 3.1329947
2 3.1284802
2 3.1045918
2 0.039213974
2 0.013347542
2 0.008672125
2 0.006614587
2 0.00512552
3 3.134978
3 3.1329947
3 3.1284802
3 3.1045918
3 0.039213974
3 0.013347542
3 0.008672125
3 0.006614587
3 0.00512552
4 3.127543
4 3.1235008
4 3.1142719
4 3.067685
4 0.08896329
4 0.02891456
4 0.018595885
4 0.01404965
4 0.016368639
5 3.1294124
5 3.1261203
5 3.118552
5 3.0825827
5 0.08612824
5 0.025838392
5 0.016355006
5 0.012180353
5 0.03304555
6 3.1304867
6 3.127735
6 3.121318
6 3.0929163
6 0.09287038
6 0.024561448
6 0.015204391
6 0.011105893
6 0.055163436
7 3.12985
7 3.1272638
7 3.1210706
7 3.0957172
7 0.12778082
7 0.027457682
7 0.0164877
7 0.011742823
7 0.08329688
8 3.1299622
8 3.1276915
8 3.1220572
8 3.1003954
8 0.17704217
8 0.028757736
8 0.016736176
8 0.011630601
8 0.10984755
9 3.1311119
9 3.12925
9 3.124474
9 3.106835
9 0.22541371
9 0.027053794
9 0.015361981
9 0.010480899
9 0.12916967
10 3.129586
10 3.1276262
10 3.122425
10 3.103794
10 0.38504457
10 0.032163322
10 0.017872727
10 0.0120066395
10 0.1451997
11 3.13084
11 3.1292076
11 3.1247373
11 3.1090868
11 0.5798622
11 0.029734058
11 0.016216036
11 0.010752744
11 0.15831095
12 3.131619
12 3.1301918
12 3.126175
12 3.1123435
12 1.0171448
12 0.028287802
12 0.015195907
12 0.009973787
12 0.16845088
13 3.1317475
13 3.1304042
13 3.1265352
13 3.1133742
13 1.7460779
13 0.028486094
13 0.015119433
13 0.009845139
13 0.17625087
14 3.1326027
14 3.1314168
14 3.1279426
14 3.116221
14 2.2478545
14 0.02638286
14 0.013883731
14 0.0089898845
14 0.18164587
15 3.134886
15 3.1339993
15 3.131407
15 3.1226597
15 2.395732
15 0.019691158
15 0.010360912
15 0.006706778
15 0.18168026
16 3.1388748
16 3.1384976
16 3.1374264
16 3.1337795
16 1.571282
16 0.0078737
16 0.0041803247
16 0.0027180193
16 0.17592807
17 -3.1408691
17 -3.1407747
17 -3.1404877
17 -3.139503
17 -0.16967279
17 -0.0020426048
17 -0.0010938806
17 -7.2340935E-4
17 0.17040844
18 -3.1391637
18 -3.1388197
18 -3.1378365
18 -3.1344357
18 -0.26862937
18 -0.006823331
18 -0.0036793225
18 -0.0024288266
18 0.16585334
19 -3.1393433
19 -3.1390173
19 -3.1380959
19 -3.1348886
19 -0.17513782
19 -0.006258365
19 -0.0033939101
19 -0.0022494067
19 0.16202067
20 -3.1412191
20 -3.1411695
20 -3.141017
20 -3.1404836
20 -0.023214798
20 -0.0010176484
20 -5.543632E-4
20 -3.7356207E-4
20 0.15890026
21 3.1386495
21 3.138191
21 3.1369557
21 3.1326087
21 0.1536978
21 0.008100718
21 0.0044340077
21 0.002943261
21 0.15572588
22 3.1350749
22 3.13407
22 3.13134
22 3.1217425
22 0.3358455
22 0.017933901
22 0.009811432
22 0.00651783
22 0.15606996
23 3.1335046
23 3.13227
23 3.1288998
23 3.1170826
23 0.44161582
23 0.022334216
23 0.012191602
23 0.008088101
23 0.15762317
24 3.1339917
24 3.1328385
24 3.1296816
24 3.118634
24 0.44352293
24 0.021047436
24 0.011470654
24 0.0076010283
24 0.15872177
25 3.1364408
25 3.1356578
25 3.1335187
25 3.1260338
25 0.3151901
25 0.014278952
25 0.0077789905
25 0.0051518637
25 0.15891325
26 3.1402228
26 3.1400094
26 3.1394386
26 3.1374404
26 0.08607683
26 0.003807926
26 0.0020747911
26 0.0013698946
26 0.15878819
27 -3.1399884
27 -3.139753
27 -3.1390898
27 -3.1367679
27 -0.09927346
27 -0.0044221426
27 -0.0024099175
27 -0.0016042022
27 0.1586878
28 -3.1384776
28 -3.1380143
28 -3.1367235
28 -3.1322048
28 -0.19063465
28 -0.008601119
28 -0.004687725
28 -0.0031150016
28 0.15862346
29 -3.1393366
29 -3.139003
29 -3.138069
29 -3.1347995
29 -0.1389286
29 -0.0062247147
29 -0.003392539
29 -0.002255935
29 0.15864299
30 3.1410315
30 3.14094
30 3.1407049
30 3.1398807
30 0.035282984
30 0.0015690953
30 8.5526035E-4
30 5.611712E-4
30 0.15866853
31 3.1375647
31 3.1369503
31 3.1352758
31 3.1294155
31 0.24641368
31 0.011161882
31 0.0060829674
31 0.0040280283
31 0.1586958
32 3.134543
32 3.1334727
32 3.1305447
32 3.120297
32 0.41490725
32 0.019522296
32 0.010639506
32 0.0070498437
32 0.158715
33 3.133284
33 3.132024
33 3.128574
33 3.1164994
33 0.47897995
33 0.023004644
33 0.012537603
33 0.008308644
33 0.15872262
34 3.1351242
34 3.1341414
34 3.131454
34 3.1220472
34 0.3825837
34 0.017910864
34 0.009762149
34 0.006468445
34 0.15864542
35 3.1371994
35 3.1365306
35 3.1347055
35 3.1283193
35 0.27019107
35 0.012176472
35 0.0066344473
35 0.004393208
35 0.15884842
36 3.1388454
36 3.1384227
36 3.1372776
36 3.1332643
36 0.16316101
36 0.0076052635
36 0.0041488004
36 0.0027472703
36 0.15801753
37 3.1402295
37 3.1400096
37 3.13943
37 3.13738
37 0.061216284
37 0.0037309972
37 0.002051773
37 0.0013633325
37 0.15245351
38 3.14148
38 3.1414554
38 3.1414046
38 3.1412232
38 0.0043015224
38 3.1842358E-4
38 1.762403E-4
38 1.1268151E-4
38 0.14733611
39 -3.140759
39 -3.1406279
39 -3.140267
39 -3.1389685
39 -0.026129471
39 -0.0022074357
39 -0.0012299658
39 -8.335901E-4
39 0.14316034
40 -3.139807
40 -3.1395102
40 -3.13872
40 -3.1358488
40 -0.04767384
40 -0.0046844464
40 -0.0026299024
40 -0.001785696
40 0.13755666
41 -3.1401803
41 -3.1399415
41 -3.1393085
41 -3.1369896
41 -0.03381086
41 -0.0036653879
41 -0.0020698872
41 -0.001412147
41 0.13328722
42 3.1404316
42 3.1402242
42 3.1396995
42 3.137775
42 0.027864989
42 0.003036403
42 0.0017148674
42 0.0011611767
42 0.13305241
43 3.1367726
43 3.1359317
43 3.1337636
43 3.12582
43 0.116031796
43 0.012574775
43 0.007098659
43 0.0048201764
43 0.13349137
44 3.133826
44 3.1324773
44 3.1289887
44 3.1162183
44 0.18700442
44 0.02026754
44 0.011436976
44 0.007766762
44 0.13381484
45 3.1325693
45 3.1310039
45 3.126952
45 3.112123
45 0.21668133
45 0.023546966
45 0.013286924
45 0.009023408
45 0.13387565
46 3.1341968
46 3.1328926
46 3.1295397
46 3.1171947
46 0.16657312
46 0.019170715
46 0.010860443
46 0.007395889
46 0.13087699
47 3.1341968
47 3.1328926
47 3.1295397
47 3.1171947
47 0.16657312
47 0.019170715
47 0.010860443
47 0.007395889
47 0.13087699
48 3.137304
48 3.1365256
48 3.134549
48 3.127194
48 0.08715764
48 0.010994235
48 0.0062697465
48 0.0042886697
48 0.12576681
49 3.137304
49 3.1365256
49 3.134549
49 3.127194
49 0.08715764
49 0.010994235
49 0.0062697465
49 0.0042886697
49 0.12576681
