0 [1.0, 1.0, 1.0, 1.0, 1.0, 1.0, 1.0, 1.0]
1 [1.0, 1.0, 1.0, 1.0, 1.0, 1.0, 1.0, 1.0]
2 [1.0, 1.0, 1.0, 1.0, 1.0, 1.0, 1.0, 1.0]
3 [1.0, 1.0, 1.0, 1.0, 1.0, 1.0, 1.0, 1.0]
4 [1.0, 1.0, 1.0, 1.0, 1.0, 1.0, 1.0, 1.0]
5 [1.0, 1.0, 1.0, 1.0, 1.0, 1.0, 1.0, 1.0]
6 [1.0, 1.0, 1.0, 1.0, 1.0, 1.0, 1.0, 1.0]
7 [1.0, 1.0, 1.0, 1.0, 1.0, 1.0, 1.0, 1.0]
8 [1.0, 1.0, 1.0, 1.0, 1.0, 1.0, 1.0, 1.0]
9 [1.0, 1.0, 1.0, 1.0, 1.0, 1.0, 1.0, 1.0]
10 [1.0, 1.0, 1.0, 1.0, 1.0, 1.0, 1.0, 1.0]
11 [1.0, 1.0, 1.0, 1.0, 1.0, 1.0, 1.0, 1.0]
12 [1.0, 1.0, 1.0, 1.0, 1.0, 1.0, 1.0, 1.0]
13 [1.0, 1.0, 1.0, 1.0, 1.0, 1.0, 1.0, 1.0]
14 [1.0, 1.0, 1.0, 1.0, 1.0, 1.0, 1.0, 1.0]
15 [1.0, 1.0, 1.0, 1.0, 1.0, 1.0, 1.0, 1.0]
16 [1.0, 1.0, 1.0, 1.0, 1.0, 1.0, 1.0, 1.0]
17 [1.0942376, 1.6963267, 1.0942376, 1.0002337, 1.0, 1.0, 1.0, 1.0]
18 [1.079421, 1.586847, 1.079421, 1.0001968, 1.0, 1.0, 1.0, 1.0]
19 [1.0606972, 1.5410063, 1.7567904, 1.0943874, 1.0002337, 1.0, 1.0, 1.0]
20 [1.0459242, 1.4173036, 1.6325743, 1.0795345, 1.0001968, 1.0, 1.0, 1.0]
21 [1.0319791, 1.2909987, 1.4435899, 1.0558031, 1.0001382, 1.0, 1.0, 1.0]
22 [1.0241452, 1.2197679, 1.3353317, 1.0421883, 1.0001044, 1.0, 1.0, 1.0]
23 [0.9907522, 0.9629254, 1.2259479, 1.0318178, 1.0000789, 1.0, 1.0, 1.0]
24 [0.9111636, 0.36491635, 1.0716838, 1.021511, 1.0000539, 1.0, 1.0, 1.0]
25 [0.9307931, 0.41383275, 0.36801887, 0.9236402, 0.9998112, 1.0, 1.0, 1.0]
26 [0.94786745, 0.5279734, 0.29462606, 0.911435, 0.9997808, 1.0, 1.0, 1.0]
27 [0.9605882, 0.6414268, 0.45376682, 0.9312889, 0.99982995, 1.0, 1.0, 1.0]
28 [0.9702423, 0.7291562, 0.58678067, 0.94801325, 0.9998713, 1.0, 1.0, 1.0]
29 [0.97750956, 0.795294, 0.68764746, 0.9607028, 0.9999027, 1.0, 1.0, 1.0]
30 [0.9830021, 0.84528613, 0.76392615, 0.97029936, 0.9999265, 1.0, 1.0, 1.0]
31 [0.9871661, 0.88318664, 0.8217573, 0.9775752, 0.9999445, 1.0, 1.0, 1.0]
32 [0.99030036, 0.9117144, 0.8652871, 0.98305166, 0.99995804, 1.0, 1.0, 1.0]
33 [0.9926765, 0.9333418, 0.8982879, 0.98720354, 0.99996835, 1.0, 1.0, 1.0]
34 [0.99447054, 0.9496712, 0.9232045, 0.9903383, 0.9999761, 1.0, 1.0, 1.0]
35 [0.99582094, 0.9619623, 0.9419592, 0.99269783, 0.99998194, 1.0, 1.0, 1.0]
36 [0.99684155, 0.9712517, 0.9561337, 0.99448115, 0.99998635, 1.0, 1.0, 1.0]
37 [1.0, 1.0, 1.0, 1.0, 1.0, 1.0, 1.0, 1.0]
38 [0.99999297, 0.99717146, 0.97909987, 0.99717146, 0.99999297, 1.0, 1.0, 1.0]
39 [1.0, 1.0, 1.0, 1.0, 1.0, 1.0, 1.0, 1.0]
