0 [0.0, 0.0, 0.0, 0.0, 0.0, 0.0, 0.0, 0.0, 0.0, 0.0, 0.0, 0.0, 0.0, 0.0, 0.0, 0.0, 0.0, 0.0, 0.0, 0.0, 0.0, 0.0, 0.0, 0.0, 0.0, 0.0, 0.0, 0.0, 0.0, 0.0, 0.0, 0.0, 0.0, 0.0, 0.0, 0.0, 0.0, 0.0, 0.0, 0.0, 0.0, 0.0, 0.0, 0.0, 0.0, 0.0, 0.0, 0.0, 0.0, 0.0, 0.0, 0.0, 0.0, 0.0, 0.0, 0.0, 0.0, 0.0, 0.0, 0.0, 0.0, 0.0, 0.0, 0.0, 0.0, 0.0, 0.0, 0.0, 0.0, 0.0, 0.0, 0.0, 0.0, 0.0, 0.0, 0.0, 0.0, 0.0, 0.0, 0.0, 0.0, 0.0, 0.0, 0.0, 0.0, 0.0, 0.0, 0.0, 0.0, 0.0, 0.0, 0.0, 0.0, 0.0, 0.0, 0.0, 0.0, 0.0, 0.0, 0.0, 0.0, 0.0, 0.0, 0.0, 0.0, 0.0, 0.0, 0.0, 0.0, 0.0, 0.0, 0.0, 0.0, 0.0, 0.0, 0.0, 0.0, 0.0, 0.0, 0.0, 0.0, 0.0, 0.0, 0.0, 0.0, 0.0, 0.0, 0.0, 0.0, 0.0, 0.0, 0.0, 0.0, 0.0, 0.0, 0.0, 0.0, 0.0, 0.0, 0.0, 0.0, 0.0, 0.0, 0.0, 0.0, 0.0, 0.0, 0.0, 0.0, 0.0, 0.0, 0.0, 0.0, 0.0, 0.0, 0.0, 0.0, 0.0, 0.0, 0.0, 0.0, 0.0, 0.0, 0.0, 0.0, 0.0, 0.0, 0.0, 0.0, 0.0, 0.0, 0.0, 0.0, 0.0, 0.0, 0.0, 0.0, 0.0, 0.0, 0.0, 0.0, 0.0]
1 [0.0, 0.0, 0.0, 0.0, 0.0, 0.0, 0.0, 0.0, 0.0, 0.0, 0.0, 0.0, 0.0, 0.0, 0.0, 0.0, 0.0, 0.0, 0.0, 0.0, 0.0, 0.0, 0.0, 0.0, 0.0, 0.0, 0.0, 0.0, 0.0, 0.0, 0.0, 0.0, 0.0, 0.0, 0.0, 0.0, 0.0, 0.0, 0.0, 0.0, 0.0, 0.0, 0.0, 0.0, 0.0, 0.0, 0.0, 0.0, 0.0, 0.0, 0.0, 0.0, 0.0, 0.0, 0.0, 0.0, 0.0, 0.0, 0.0, 0.0, 0.0, 0.0, 0.0, 0.0, 0.0, 0.0, 0.0, 0.0, 0.0, 0.0, 0.0, 0.0, 0.0, 0.0, 0.0, 0.0, 0.0, 0.0, 0.0, 0.0, 0.0, 0.0, 0.0, 0.0, 0.0, 0.0, 0.0, 0.0, 0.0, 0.0, 0.0, 0.0, 0.0, 0.0, 0.0, 0.0, 0.0, 0.0, 0.0, 0.0, 0.0, 0.0, 0.0, 0.0, 0.0, 0.0, 0.0, 0.0, 0.0, 0.0, 0.0, 0.0, 0.0, 0.0, 0.0, 0.0, 0.0, 0.0, 0.0, 0.0, 0.0, 0.0, 0.0, 0.0, 0.0, 0.0, 0.0, 0.0, 0.0, 0.0, 0.0, 0.0, 0.0, 0.0, 0.0, 0.0, 0.0, 0.0, 0.0, 0.0, 0.0, 0.0, 0.0, 0.0, 0.0, 0.0, 0.0, 0.0, 0.0, 0.0, 0.0, 0.0, 0.0, 0.0, 0.0, 0.0, 0.0, 0.0, 0.0, 0.0, 0.0, 0.0, 0.0, 0.0, 0.0, 0.0, 0.0, 0.0, 0.0, 0.0, 0.0, 0.0, 0.0, 0.0, 0.0, 0.0, 0.0, 0.0, 0.0, 0.0, 0.0, 0.0]
2 [0.0, 0.0, 0.0, 0.0, 0.0, 0.0, 0.0, 0.0, 0.0, 0.0, 0.0, 0.0, 0.0, 0.0, 0.0, 0.0, 0.0, 0.0, 0.0, 0.0, 0.0, 0.0, 0.0, 0.0, 0.0, 0.0, 0.0, 0.0, 0.0, 0.0, 0.0, 0.0, 0.0, 0.0, 0.0, 0.0, 0.0, 0.0, 0.0, 0.0, 0.0, 0.0, 0.0, 0.0, 0.0, 0.0, 0.0, 0.0, 0.0, 0.0, 0.0, 0.0, 0.0, 0.0, 0.0, 0.0, 0.0, 0.0, 0.0, 0.0, 0.0, 0.0, 0.0, 0.0, 0.0, 0.0, 0.0, 0.0, 0.0, 0.0, 0.0, 0.0, 0.0, 0.0, 0.0, 0.0, 0.0, 0.0, 0.0, 0.0, 0.0, 0.0, 0.0, 0.0, 0.0, 0.0, 0.0, 0.0, 0.0, 0.0, 0.0, 0.0, 0.0, 0.0, 0.0, 0.0, 0.0, 0.0, 0.0, 0.0, 0.0, 0.0, 0.0, 0.0, 0.0, 0.0, 0.0, 0.0, 0.0, 0.0, 0.0, 0.0, 0.0, 0.0, 0.0, 0.0, 0.0, 0.0, 0.0, 0.0, 0.0, 0.0, 0.0, 0.0, 0.0, 0.0, 0.0, 0.0, 0.0, 0.0, 0.0, 0.0, 0.0, 0.0, 0.0, 0.0, 0.0, 0.0, 0.0, 0.0, 0.0, 0.0, 0.0, 0.0, 0.0, 0.0, 0.0, 0.0, 0.0, 0.0, 0.0, 0.0, 0.0, 0.0, 0.0, 0.0, 0.0, 0.0, 0.0, 0.0, 0.0, 0.0, 0.0, 0.0, 0.0, 0.0, 0.0, 0.0, 0.0, 0.0, 0.0, 0.0, 0.0, 0.0, 0.0, 0.0, 0.0, 0.0, 0.0, 0.0, 0.0, 0.0]
3 [0.0, 0.0, 0.0, 0.0, 0.0, 0.0, 0.0, 0.0, 0.0, 0.0, 0.0, 0.0, 0.0, 0.0, 0.0, 0.0, 0.0, 0.0, 0.0, 0.0, 0.0, 0.0, 0.0, 0.0, 0.0, 0.0, 0.0, 0.0, 0.0, 0.0, 0.0, 0.0, 0.0, 0.0, 0.0, 0.0, 0.0, 0.0, 0.0, 0.0, 0.0, 0.0, 0.0, 0.0, 0.0, 0.0, 0.0, 0.0, 0.0, 0.0, 0.0, 0.0, 0.0, 0.0, 0.0, 0.0, 0.0, 0.0, 0.0, 0.0, 0.0, 0.0, 0.0, 0.0, 0.0, 0.0, 0.0, 0.0, 0.0, 0.0, 0.0, 0.0, 0.0, 0.0, 0.0, 0.0, 0.0, 0.0, 0.0, 0.0, 0.0, 0.0, 0.0, 0.0, 0.0, 0.0, 0.0, 0.0, 0.0, 0.0, 0.0, 0.0, 0.0, 0.0, 0.0, 0.0, 0.0, 0.0, 0.0, 0.0, 0.0, 0.0, 0.0, 0.0, 0.0, 0.0, 0.0, 0.0, 0.0, 0.0, 0.0, 0.0, 0.0, 0.0, 0.0, 0.0, 0.0, 0.0, 0.0, 0.0, 0.0, 0.0, 0.0, 0.0, 0.0, 0.0, 0.0, 0.0, 0.0, 0.0, 0.0, 0.0, 0.0, 0.0, 0.0, 0.0, 0.0, 0.0, 0.0, 0.0, 0.0, 0.0, 0.0, 0.0, 0.0, 0.0, 0.0, 0.0, 0.0, 0.0, 0.0, 0.0, 0.0, 0.0, 0.0, 0.0, 0.0, 0.0, 0.0, 0.0, 0.0, 0.0, 0.0, 0.0, 0.0, 0.0, 0.0, 0.0, 0.0, 0.0, 0.0, 0.0, 0.0, 0.0, 0.0, 0.0, 0.0, 0.0, 0.0, 0.0, 0.0, 0.0]
4 [0.0, 0.0, 0.0, 0.0, 0.0, 0.0, 0.0, 0.0, 0.0, 0.0, 0.0, 0.0, 0.0, 0.0, 0.0, 0.0, 0.0, 0.0, 0.0, 0.0, 0.0, 0.0, 0.0, 0.0, 0.0, 0.0, 0.0, 0.0, 0.0, 0.0, 0.0, 0.0, 0.0, 0.0, 0.0, 0.0, 0.0, 0.0, 0.0, 0.0, 0.0, 0.0, 0.0, 0.0, 0.0, 0.0, 0.0, 0.0, 0.0, 0.0, 0.0, 0.0, 0.0, 0.0, 0.0, 0.0, 0.0, 0.0, 0.0, 0.0, 0.0, 0.0, 0.0, 0.0, 0.0, 0.0, 0.0, 0.0, 0.0, 0.0, 0.0, 0.0, 0.0, 0.0, 0.0, 0.0, 0.0, 0.0, 0.0, 0.0, 0.0, 0.0, 0.0, 0.0, 0.0, 0.0, 0.0, 0.0, 0.0, 0.0, 0.0, 0.0, 0.0, 0.0, 0.0, 0.0, 0.0, 0.0, 0.0, 0.0, 0.0, 0.0, 0.0, 0.0, 0.0, 0.0, 0.0, 0.0, 0.0, 0.0, 0.0, 0.0, 0.0, 0.0, 0.0, 0.0, 0.0, 0.0, 0.0, 0.0, 0.0, 0.0, 0.0, 0.0, 0.0, 0.0, 0.0, 0.0, 0.0, 0.0, 0.0, 0.0, 0.0, 0.0, 0.0, 0.0, 0.0, 0.0, 0.0, 0.0, 0.0, 0.0, 0.0, 0.0, 0.0, 0.0, 0.0, 0.0, 0.0, 0.0, 0.0, 0.0, 0.0, 0.0, 0.0, 0.0, 0.0, 0.0, 0.0, 0.0, 0.0, 0.0, 0.0, 0.0, 0.0, 0.0, 0.0, 0.0, 0.0, 0.0, 0.0, 0.0, 0.0, 0.0, 0.0, 0.0, 0.0, 0.0, 0.0, 0.0, 0.0, 0.0]
5 [0.0, 0.0, 0.0, 0.0, 0.0, 0.0, 0.0, 0.0, 0.0, 0.0, 0.0, 0.0, 0.0, 0.0, 0.0, 0.0, 0.0, 0.0, 0.0, 0.0, 0.0, 0.0, 0.0, 0.0, 0.0, 0.0, 0.0, 0.0, 0.0, 0.0, 0.0, 0.0, 0.0, 0.0, 0.0, 0.0, 0.0, 0.0, 0.0, 0.0, 0.0, 0.0, 0.0, 0.0, 0.0, 0.0, 0.0, 0.0, 0.0, 0.0, 0.0, 0.0, 0.0, 0.0, 0.0, 0.0, 0.0, 0.0, 0.0, 0.0, 0.0, 0.0, 0.0, 0.0, 0.0, 0.0, 0.0, 0.0, 0.0, 0.0, 0.0, 0.0, 0.0, 0.0, 0.0, 0.0, 0.0, 0.0, 0.0, 0.0, 0.0, 0.0, 0.0, 0.0, 0.0, 0.0, 0.0, 0.0, 0.0, 0.0, 0.0, 0.0, 0.0, 0.0, 0.0, 0.0, 0.0, 0.0, 0.0, 0.0, 0.0, 0.0, 0.0, 0.0, 0.0, 0.0, 0.0, 0.0, 0.0, 0.0, 0.0, 0.0, 0.0, 0.0, 0.0, 0.0, 0.0, 0.0, 0.0, 0.0, 0.0, 0.0, 0.0, 0.0, 0.0, 0.0, 0.0, 0.0, 0.0, 0.0, 0.0, 0.0, 0.0, 0.0, 0.0, 0.0, 0.0, 0.0, 0.0, 0.0, 0.0, 0.0, 0.0, 0.0, 0.0, 0.0, 0.0, 0.0, 0.0, 0.0, 0.0, 0.0, 0.0, 0.0, 0.0, 0.0, 0.0, 0.0, 0.0, 0.0, 0.0, 0.0, 0.0, 0.0, 0.0, 0.0, 0.0, 0.0, 0.0, 0.0, 0.0, 0.0, 0.0, 0.0, 0.0, 0.0, 0.0, 0.0, 0.0, 0.0, 0.0, 0.0]
6 [0.0, 0.0, 0.0, 0.0, 0.0, 0.0, 0.0, 0.0, 0.0, 0.0, 0.0, 0.0, 0.0, 0.0, 0.0, 0.0, 0.0, 0.0, 0.0, 0.0, 0.0, 0.0, 0.0, 0.0, 0.0, 0.0, 0.0, 0.0, 0.0, 0.0, 0.0, 0.0, 0.0, 0.0, 0.0, 0.0, 0.0, 0.0, 0.0, 0.0, 0.0, 0.0, 0.0, 0.0, 0.0, 0.0, 0.0, 0.0, 0.0, 0.0, 0.0, 0.0, 0.0, 0.0, 0.0, 0.0, 0.0, 0.0, 0.0, 0.0, 0.0, 0.0, 0.0, 0.0, 0.0, 0.0, 0.0, 0.0, 0.0, 0.0, 0.0, 0.0, 0.0, 0.0, 0.0, 0.0, 0.0, 0.0, 0.0, 0.0, 0.0, 0.0, 0.0, 0.0, 0.0, 0.0, 0.0, 0.0, 0.0, 0.0, 0.0, 0.0, 0.0, 0.0, 0.0, 0.0, 0.0, 0.0, 0.0, 0.0, 0.0, 0.0, 0.0, 0.0, 0.0, 0.0, 0.0, 0.0, 0.0, 0.0, 0.0, 0.0, 0.0, 0.0, 0.0, 0.0, 0.0, 0.0, 0.0, 0.0, 0.0, 0.0, 0.0, 0.0, 0.0, 0.0, 0.0, 0.0, 0.0, 0.0, 0.0, 0.0, 0.0, 0.0, 0.0, 0.0, 0.0, 0.0, 0.0, 0.0, 0.0, 0.0, 0.0, 0.0, 0.0, 0.0, 0.0, 0.0, 0.0, 0.0, 0.0, 0.0, 0.0, 0.0, 0.0, 0.0, 0.0, 0.0, 0.0, 0.0, 0.0, 0.0, 0.0, 0.0, 0.0, 0.0, 0.0, 0.0, 0.0, 0.0, 0.0, 0.0, 0.0, 0.0, 0.0, 0.0, 0.0, 0.0, 0.0, 0.0, 0.0, 0.0]
7 [0.0, 0.0, 0.0, 0.0, 0.0, 0.0, 0.0, 0.0, 0.0, 0.0, 0.0, 0.0, 0.0, 0.0, 0.0, 0.0, 0.0, 0.0, 0.0, 0.0, 0.0, 0.0, 0.0, 0.0, 0.0, 0.0, 0.0, 0.0, 0.0, 0.0, 0.0, 0.0, 0.0, 0.0, 0.0, 0.0, 0.0, 0.0, 0.0, 0.0, 0.0, 0.0, 0.0, 0.0, 0.0, 0.0, 0.0, 0.0, 0.0, 0.0, 0.0, 0.0, 0.0, 0.0, 0.0, 0.0, 0.0, 0.0, 0.0, 0.0, 0.0, 0.0, 0.0, 0.0, 0.0, 0.0, 0.0, 0.0, 0.0, 0.0, 0.0, 0.0, 0.0, 0.0, 0.0, 0.0, 0.0, 0.0, 0.0, 0.0, 0.0, 0.0, 0.0, 0.0, 0.0, 0.0, 0.0, 0.0, 0.0, 0.0, 0.0, 0.0, 0.0, 0.0, 0.0, 0.0, 0.0, 0.0, 0.0, 0.0, 0.0, 0.0, 0.0, 0.0, 0.0, 0.0, 0.0, 0.0, 0.0, 0.0, 0.0, 0.0, 0.0, 0.0, 0.0, 0.0, 0.0, 0.0, 0.0, 0.0, 0.0, 0.0, 0.0, 0.0, 0.0, 0.0, 0.0, 0.0, 0.0, 0.0, 0.0, 0.0, 0.0, 0.0, 0.0, 0.0, 0.0, 0.0, 0.0, 0.0, 0.0, 0.0, 0.0, 0.0, 0.0, 0.0, 0.0, 0.0, 0.0, 0.0, 0.0, 0.0, 0.0, 0.0, 0.0, 0.0, 0.0, 0.0, 0.0, 0.0, 0.0, 0.0, 0.0, 0.0, 0.0, 0.0, 0.0, 0.0, 0.0, 0.0, 0.0, 0.0, 0.0, 0.0, 0.0, 0.0, 0.0, 0.0, 0.0, 0.0, 0.0, 0.0]
8 [0.0, 0.0, 0.0, 0.0, 0.0, 0.0, 0.0, 0.0, 0.0, 0.0, 0.0, 0.0, 0.0, 0.0, 0.0, 0.0, 0.0, 0.0, 0.0, 0.0, 0.0, 0.0, 0.0, 0.0, 0.0, 0.0, 0.0, 0.0, 0.0, 0.0, 0.0, 0.0, 0.0, 0.0, 0.0, 0.0, 0.0, 0.0, 0.0, 0.0, 0.0, 0.0, 0.0, 0.0, 0.0, 0.0, 0.0, 0.0, 0.0, 0.0, 0.0, 0.0, 0.0, 0.0, 0.0, 0.0, 0.0, 0.0, 0.0, 0.0, 0.0, 0.0, 0.0, 0.0, 0.0, 0.0, 0.0, 0.0, 0.0, 0.0, 0.0, 0.0, 0.0, 0.0, 0.0, 0.0, 0.0, 0.0, 0.0, 0.0, 0.0, 0.0, 0.0, 0.0, 0.0, 0.0, 0.0, 0.0, 0.0, 0.0, 0.0, 0.0, 0.0, 0.0, 0.0, 0.0, 0.0, 0.0, 0.0, 0.0, 0.0, 0.0, 0.0, 0.0, 0.0, 0.0, 0.0, 0.0, 0.0, 0.0, 0.0, 0.0, 0.0, 0.0, 0.0, 0.0, 0.0, 0.0, 0.0, 0.0, 0.0, 0.0, 0.0, 0.0, 0.0, 0.0, 0.0, 0.0, 0.0, 0.0, 0.0, 0.0, 0.0, 0.0, 0.0, 0.0, 0.0, 0.0, 0.0, 0.0, 0.0, 0.0, 0.0, 0.0, 0.0, 0.0, 0.0, 0.0, 0.0, 0.0, 0.0, 0.0, 0.0, 0.0, 0.0, 0.0, 0.0, 0.0, 0.0, 0.0, 0.0, 0.0, 0.0, 0.0, 0.0, 0.0, 0.0, 0.0, 0.0, 0.0, 0.0, 0.0, 0.0, 0.0, 0.0, 0.0, 0.0, 0.0, 0.0, 0.0, 0.0, 0.0]
9 [0.0, 0.0, 0.0, 0.0, 0.0, 0.0, 0.0, 0.0, 0.0, 0.0, 0.0, 0.0, 0.0, 0.0, 0.0, 0.0, 0.0, 0.0, 0.0, 0.0, 0.0, 0.0, 0.0, 0.0, 0.0, 0.0, 0.0, 0.0, 0.0, 0.0, 0.0, 0.0, 0.0, 0.0, 0.0, 0.0, 0.0, 0.0, 0.0, 0.0, 0.0, 0.0, 0.0, 0.0, 0.0, 0.0, 0.0, 0.0, 0.0, 0.0, 0.0, 0.0, 0.0, 0.0, 0.0, 0.0, 0.0, 0.0, 0.0, 0.0, 0.0, 0.0, 0.0, 0.0, 0.0, 0.0, 0.0, 0.0, 0.0, 0.0, 0.0, 0.0, 0.0, 0.0, 0.0, 0.0, 0.0, 0.0, 0.0, 0.0, 0.0, 0.0, 0.0, 0.0, 0.0, 0.0, 0.0, 0.0, 0.0, 0.0, 0.0, 0.0, 0.0, 0.0, 0.0, 0.0, 0.0, 0.0, 0.0, 0.0, 0.0, 0.0, 0.0, 0.0, 0.0, 0.0, 0.0, 0.0, 0.0, 0.0, 0.0, 0.0, 0.0, 0.0, 0.0, 0.0, 0.0, 0.0, 0.0, 0.0, 0.0, 0.0, 0.0, 0.0, 0.0, 0.0, 0.0, 0.0, 0.0, 0.0, 0.0, 0.0, 0.0, 0.0, 0.0, 0.0, 0.0, 0.0, 0.0, 0.0, 0.0, 0.0, 0.0, 0.0, 0.0, 0.0, 0.0, 0.0, 0.0, 0.0, 0.0, 0.0, 0.0, 0.0, 0.0, 0.0, 0.0, 0.0, 0.0, 0.0, 0.0, 0.0, 0.0, 0.0, 0.0, 0.0, 0.0, 0.0, 0.0, 0.0, 0.0, 0.0, 0.0, 0.0, 0.0, 0.0, 0.0, 0.0, 0.0, 0.0, 0.0, 0.0]
10 [0.0, 0.0, 0.0, 0.0, 0.0, 0.0, 0.0, 0.0, 0.0, 0.0, 0.0, 0.0, 0.0, 0.0, 0.0, 0.0, 0.0, 0.0, 0.0, 0.0, 0.0, 0.0, 0.0, 0.0, 0.0, 0.0, 0.0, 0.0, 0.0, 0.0, 0.0, 0.0, 0.0, 0.0, 0.0, 0.0, 0.0, 0.0, 0.0, 0.0, 0.0, 0.0, 0.0, 0.0, 0.0, 0.0, 0.0, 0.0, 0.0, 0.0, 0.0, 0.0, 0.0, 0.0, 0.0, 0.0, 0.0, 0.0, 0.0, 0.0, 0.0, 0.0, 0.0, 0.0, 0.0, 0.0, 0.0, 0.0, 0.0, 0.0, 0.0, 0.0, 0.0, 0.0, 0.0, 0.0, 0.0, 0.0, 0.0, 0.0, 0.0, 0.0, 0.0, 0.0, 0.0, 0.0, 0.0, 0.0, 0.0, 0.0, 0.0, 0.0, 0.0, 0.0, 0.0, 0.0, 0.0, 0.0, 0.0, 0.0, 0.0, 0.0, 0.0, 0.0, 0.0, 0.0, 0.0, 0.0, 0.0, 0.0, 0.0, 0.0, 0.0, 0.0, 0.0, 0.0, 0.0, 0.0, 0.0, 0.0, 0.0, 0.0, 0.0, 0.0, 0.0, 0.0, 0.0, 0.0, 0.0, 0.0, 0.0, 0.0, 0.0, 0.0, 0.0, 0.0, 0.0, 0.0, 0.0, 0.0, 0.0, 0.0, 0.0, 0.0, 0.0, 0.0, 0.0, 0.0, 0.0, 0.0, 0.0, 0.0, 0.0, 0.0, 0.0, 0.0, 0.0, 0.0, 0.0, 0.0, 0.0, 0.0, 0.0, 0.0, 0.0, 0.0, 0.0, 0.0, 0.0, 0.0, 0.0, 0.0, 0.0, 0.0, 0.0, 0.0, 0.0, 0.0, 0.0, 0.0, 0.0, 0.0]
11 [0.0, 0.0, 0.0, 0.0, 0.0, 0.0, 0.0, 0.0, 0.0, 0.0, 0.0, 0.0, 0.0, 0.0, 0.0, 0.0, 0.0, 0.0, 0.0, 0.0, 0.0, 0.0, 0.0, 0.0, 0.0, 0.0, 0.0, 0.0, 0.0, 0.0, 0.0, 0.0, 0.0, 0.0, 0.0, 0.0, 0.0, 0.0, 0.0, 0.0, 0.0, 0.0, 0.0, 0.0, 0.0, 0.0, 0.0, 0.0, 0.0, 0.0, 0.0, 0.0, 0.0, 0.0, 0.0, 0.0, 0.0, 0.0, 0.0, 0.0, 0.0, 0.0, 0.0, 0.0, 0.0, 0.0, 0.0, 0.0, 0.0, 0.0, 0.0, 0.0, 0.0, 0.0, 0.0, 0.0, 0.0, 0.0, 0.0, 0.0, 0.0, 0.0, 0.0, 0.0, 0.0, 0.0, 0.0, 0.0, 0.0, 0.0, 0.0, 0.0, 0.0, 0.0, 0.0, 0.0, 0.0, 0.0, 0.0, 0.0, 0.0, 0.0, 0.0, 0.0, 0.0, 0.0, 0.0, 0.0, 0.0, 0.0, 0.0, 0.0, 0.0, 0.0, 0.0, 0.0, 0.0, 0.0, 0.0, 0.0, 0.0, 0.0, 0.0, 0.0, 0.0, 0.0, 0.0, 0.0, 0.0, 0.0, 0.0, 0.0, 0.0, 0.0, 0.0, 0.0, 0.0, 0.0, 0.0, 0.0, 0.0, 0.0, 0.0, 0.0, 0.0, 0.0, 0.0, 0.0, 0.0, 0.0, 0.0, 0.0, 0.0, 0.0, 0.0, 0.0, 0.0, 0.0, 0.0, 0.0, 0.0, 0.0, 0.0, 0.0, 0.0, 0.0, 0.0, 0.0, 0.0, 0.0, 0.0, 0.0, 0.0, 0.0, 0.0, 0.0, 0.0, 0.0, 0.0, 0.0, 0.0, 0.0]
12 [0.0, 0.0, 0.0, 0.0, 0.0, 0.0, 0.0, 0.0, 0.0, 0.0, 0.0, 0.0, 0.0, 0.0, 0.0, 0.0, 0.0, 0.0, 0.0, 0.0, 0.0, 0.0, 0.0, 0.0, 0.0, 0.0, 0.0, 0.0, 0.0, 0.0, 0.0, 0.0, 0.0, 0.0, 0.0, 0.0, 0.0, 0.0, 0.0, 0.0, 0.0, 0.0, 0.0, 0.0, 0.0, 0.0, 0.0, 0.0, 0.0, 0.0, 0.0, 0.0, 0.0, 0.0, 0.0, 0.0, 0.0, 0.0, 0.0, 0.0, 0.0, 0.0, 0.0, 0.0, 0.0, 0.0, 0.0, 0.0, 0.0, 0.0, 0.0, 0.0, 0.0, 0.0, 0.0, 0.0, 0.0, 0.0, 0.0, 0.0, 0.0, 0.0, 0.0, 0.0, 0.0, 0.0, 0.0, 0.0, 0.0, 0.0, 0.0, 0.0, 0.0, 0.0, 0.0, 0.0, 0.0, 0.0, 0.0, 0.0, 0.0, 0.0, 0.0, 0.0, 0.0, 0.0, 0.0, 0.0, 0.0, 0.0, 0.0, 0.0, 0.0, 0.0, 0.0, 0.0, 0.0, 0.0, 0.0, 0.0, 0.0, 0.0, 0.0, 0.0, 0.0, 0.0, 0.0, 0.0, 0.0, 0.0, 0.0, 0.0, 0.0, 0.0, 0.0, 0.0, 0.0, 0.0, 0.0, 0.0, 0.0, 0.0, 0.0, 0.0, 0.0, 0.0, 0.0, 0.0, 0.0, 0.0, 0.0, 0.0, 0.0, 0.0, 0.0, 0.0, 0.0, 0.0, 0.0, 0.0, 0.0, 0.0, 0.0, 0.0, 0.0, 0.0, 0.0, 0.0, 0.0, 0.0, 0.0, 0.0, 0.0, 0.0, 0.0, 0.0, 0.0, 0.0, 0.0, 0.0, 0.0, 0.0]
13 [0.0, 0.0, 0.0, 0.0, 0.0, 0.0, 0.0, 0.0, 0.0, 0.0, 0.0, 0.0, 0.0, 0.0, 0.0, 0.0, 0.0, 0.0, 0.0, 0.0, 0.0, 0.0, 0.0, 0.0, 0.0, 0.0, 0.0, 0.0, 0.0, 0.0, 0.0, 0.0, 0.0, 0.0, 0.0, 0.0, 0.0, 0.0, 0.0, 0.0, 0.0, 0.0, 0.0, 0.0, 0.0, 0.0, 0.0, 0.0, 0.0, 0.0, 0.0, 0.0, 0.0, 0.0, 0.0, 0.0, 0.0, 0.0, 0.0, 0.0, 0.0, 0.0, 0.0, 0.0, 0.0, 0.0, 0.0, 0.0, 0.0, 0.0, 0.0, 0.0, 0.0, 0.0, 0.0, 0.0, 0.0, 0.0, 0.0, 0.0, 0.0, 0.0, 0.0, 0.0, 0.0, 0.0, 0.0, 0.0, 0.0, 0.0, 0.0, 0.0, 0.0, 0.0, 0.0, 0.0, 0.0, 0.0, 0.0, 0.0, 0.0, 0.0, 0.0, 0.0, 0.0, 0.0, 0.0, 0.0, 0.0, 0.0, 0.0, 0.0, 0.0, 0.0, 0.0, 0.0, 0.0, 0.0, 0.0, 0.0, 0.0, 0.0, 0.0, 0.0, 0.0, 0.0, 0.0, 0.0, 0.0, 0.0, 0.0, 0.0, 0.0, 0.0, 0.0, 0.0, 0.0, 0.0, 0.0, 0.0, 0.0, 0.0, 0.0, 0.0, 0.0, 0.0, 0.0, 0.0, 0.0, 0.0, 0.0, 0.0, 0.0, 0.0, 0.0, 0.0, 0.0, 0.0, 0.0, 0.0, 0.0, 0.0, 0.0, 0.0, 0.0, 0.0, 0.0, 0.0, 0.0, 0.0, 0.0, 0.0, 0.0, 0.0, 0.0, 0.0, 0.0, 0.0, 0.0, 0.0, 0.0, 0.0]
14 [0.0, 0.0, 0.0, 0.0, 0.0, 0.0, 0.0, 0.0, 0.0, 0.0, 0.0, 0.0, 0.0, 0.0, 0.0, 0.0, 0.0, 0.0, 0.0, 0.0, 0.0, 0.0, 0.0, 0.0, 0.0, 0.0, 0.0, 0.0, 0.0, 0.0, 0.0, 0.0, 0.0, 0.0, 0.0, 0.0, 0.0, 0.0, 0.0, 0.0, 0.0, 0.0, 0.0, 0.0, 0.0, 0.0, 0.0, 0.0, 0.0, 0.0, 0.0, 0.0, 0.0, 0.0, 0.0, 0.0, 0.0, 0.0, 0.0, 0.0, 0.0, 0.0, 0.0, 0.0, 0.0, 0.0, 0.0, 0.0, 0.0, 0.0, 0.0, 0.0, 0.0, 0.0, 0.0, 0.0, 0.0, 0.0, 0.0, 0.0, 0.0, 0.0, 0.0, 0.0, 0.0, 0.0, 0.0, 0.0, 0.0, 0.0, 0.0, 0.0, 0.0, 0.0, 0.0, 0.0, 0.0, 0.0, 0.0, 0.0, 0.0, 0.0, 0.0, 0.0, 0.0, 0.0, 0.0, 0.0, 0.0, 0.0, 0.0, 0.0, 0.0, 0.0, 0.0, 0.0, 0.0, 0.0, 0.0, 0.0, 0.0, 0.0, 0.0, 0.0, 0.0, 0.0, 0.0, 0.0, 0.0, 0.0, 0.0, 0.0, 0.0, 0.0, 0.0, 0.0, 0.0, 0.0, 0.0, 0.0, 0.0, 0.0, 0.0, 0.0, 0.0, 0.0, 0.0, 0.0, 0.0, 0.0, 0.0, 0.0, 0.0, 0.0, 0.0, 0.0, 0.0, 0.0, 0.0, 0.0, 0.0, 0.0, 0.0, 0.0, 0.0, 0.0, 0.0, 0.0, 0.0, 0.0, 0.0, 0.0, 0.0, 0.0, 0.0, 0.0, 0.0, 0.0, 0.0, 0.0, 0.0, 0.0]
15 [0.0, 0.0, 0.0, 0.0, 0.0, 0.0, 0.0, 0.0, 0.0, 0.0, 0.0, 0.0, 0.0, 0.0, 0.0, 0.0, 0.0, 0.0, 0.0, 0.0, 0.0, 0.0, 0.0, 0.0, 0.0, 0.0, 0.0, 0.0, 0.0, 0.0, 0.0, 0.0, 0.0, 0.0, 0.0, 0.0, 0.0, 0.0, 0.0, 0.0, 0.0, 0.0, 0.0, 0.0, 0.0, 0.0, 0.0, 0.0, 0.0, 0.0, 0.0, 0.0, 0.0, 0.0, 0.0, 0.0, 0.0, 0.0, 0.0, 0.0, 0.0, 0.0, 0.0, 0.0, 0.0, 0.0, 0.0, 0.0, 0.0, 0.0, 0.0, 0.0, 0.0, 0.0, 0.0, 0.0, 0.0, 0.0, 0.0, 0.0, 0.0, 0.0, 0.0, 0.0, 0.0, 0.0, 0.0, 0.0, 0.0, 0.0, 0.0, 0.0, 0.0, 0.0, 0.0, 0.0, 0.0, 0.0, 0.0, 0.0, 0.0, 0.0, 0.0, 0.0, 0.0, 0.0, 0.0, 0.0, 0.0, 0.0, 0.0, 0.0, 0.0, 0.0, 0.0, 0.0, 0.0, 0.0, 0.0, 0.0, 0.0, 0.0, 0.0, 0.0, 0.0, 0.0, 0.0, 0.0, 0.0, 0.0, 0.0, 0.0, 0.0, 0.0, 0.0, 0.0, 0.0, 0.0, 0.0, 0.0, 0.0, 0.0, 0.0, 0.0, 0.0, 0.0, 0.0, 0.0, 0.0, 0.0, 0.0, 0.0, 0.0, 0.0, 0.0, 0.0, 0.0, 0.0, 0.0, 0.0, 0.0, 0.0, 0.0, 0.0, 0.0, 0.0, 0.0, 0.0, 0.0, 0.0, 0.0, 0.0, 0.0, 0.0, 0.0, 0.0, 0.0, 0.0, 0.0, 0.0, 0.0, 0.0]
16 [0.0, 0.0, 0.0, 0.0, 0.0, 0.0, 0.0, 0.0, 0.0, 0.0, 0.0, 0.0, 0.0, 0.0, 0.0, 0.0, 0.0, 0.0, 0.0, 0.0, 0.0, 0.0, 0.0, 0.0, 0.0, 0.0, 0.0, 0.0, 0.0, 0.0, 0.0, 0.0, 0.0, 0.0, 0.0, 0.0, 0.0, 0.0, 0.0, 0.0, 0.0, 0.0, 0.0, 0.0, 0.0, 0.0, 0.0, 0.0, 0.0, 0.0, 0.0, 0.0, 0.0, 0.0, 0.0, 0.0, 0.0, 0.0, 0.0, 0.0, 0.0, 0.0, 0.0, 0.0, 0.0, 0.0, 0.0, 0.0, 0.0, 0.0, 0.0, 0.0, 0.0, 0.0, 0.0, 0.0, 0.0, 0.0, 0.0, 0.0, 0.0, 0.0, 0.0, 0.0, 0.0, 0.0, 0.0, 0.0, 0.0, 0.0, 0.0, 0.0, 0.0, 0.0, 0.0, 0.0, 0.0, 0.0, 0.0, 0.0, 0.0, 0.0, 0.0, 0.0, 0.0, 0.0, 0.0, 0.0, 0.0, 0.0, 0.0, 0.0, 0.0, 0.0, 0.0, 0.0, 0.0, 0.0, 0.0, 0.0, 0.0, 0.0, 0.0, 0.0, 0.0, 0.0, 0.0, 0.0, 0.0, 0.0, 0.0, 0.0, 0.0, 0.0, 0.0, 0.0, 0.0, 0.0, 0.0, 0.0, 0.0, 0.0, 0.0, 0.0, 0.0, 0.0, 0.0, 0.0, 0.0, 0.0, 0.0, 0.0, 0.0, 0.0, 0.0, 0.0, 0.0, 0.0, 0.0, 0.0, 0.0, 0.0, 0.0, 0.0, 0.0, 0.0, 0.0, 0.0, 0.0, 0.0, 0.0, 0.0, 0.0, 0.0, 0.0, 0.0, 0.0, 0.0, 0.0, 0.0, 0.0, 0.0]
17 [0.0, 0.0, 0.0, 0.0, 0.0, 0.0, 0.0, 0.0, 0.0, 0.0, 0.0, 0.0, 0.0, 0.0, 0.0, 0.0, 0.0, 0.0, 0.0, 0.0, 0.0, 0.0, 0.0, 0.0, 0.0, 0.0, 0.0, 0.0, 0.0, 0.0, 0.0, 0.0, 0.0, 0.0, 0.0, 0.0, 0.0, 0.0, 0.0, 0.0, 0.0, 0.0, 0.0, 0.0, 0.0, 0.0, 0.0, 0.0, 0.0, 0.0, 0.0, 0.0, 0.0, 0.0, 0.0, 0.0, 0.0, 0.0, 0.0, 0.0, 0.0, 0.0, 0.0, 0.0, 0.0, 0.0, 0.0, 0.0, 0.0, 0.0, 0.0, 0.0, 0.0, 0.0, 0.0, 0.0, 0.0, 0.0, 0.0, 0.0, 0.0, 0.0, 0.0, 0.0, 0.0, 0.0, 0.0, 0.0, 0.0, 0.0, 0.0, 0.0, 0.0, 0.0, 0.0, 0.0, 0.0, 0.0, 0.0, 0.0, 0.0, 0.0, 0.0, 0.0, 0.0, 0.0, 0.0, 0.0, 0.0, 0.0, 0.0, 0.0, 0.0, 0.0, 0.0, 0.0, 0.0, 0.0, 0.0, 0.0, 0.0, 0.0, 0.0, 0.0, 0.0, 0.0, 0.0, 0.0, 0.0, 0.0, 0.0, 0.0, 0.0, 0.0, 0.0, 0.0, 0.0, 0.0, 0.0, 0.0, 0.0, 0.0, 0.0, 0.0, 0.0, 0.0, 0.0, 0.0, 0.0, 0.0, 0.0, 0.0, 0.0, 0.0, 0.0, 0.0, 0.0, 0.0, 0.0, 0.0, 0.0, 0.0, 0.0, 0.0, 0.0, 0.0, 0.0, 0.0, 0.0, 0.0, 0.0, 0.0, 0.0, 0.0, 0.0, 0.0, 0.0, 0.0, 0.0, 0.0, 0.0, 0.0]
18 [0.0, 0.0, 0.0, 0.0, 0.0, 0.0, 0.0, 0.0, 0.0, 0.0, 0.0, 0.0, 0.0, 0.0, 0.0, 0.0, 0.0, 0.0, 0.0, 0.0, 0.0, 0.0, 0.0, 0.0, 0.0, 0.0, 0.0, 0.0, 0.0, 0.0, 0.0, 0.0, 0.0, 0.0, 0.0, 0.0, 0.0, 0.0, 0.0, 0.0, 0.0, 0.0, 0.0, 0.0, 0.0, 0.0, 0.0, 0.0, 0.0, 0.0, 0.0, 0.0, 0.0, 0.0, 0.0, 0.0, 0.0, 0.0, 0.0, 0.0, 0.0, 0.0, 0.0, 0.0, 0.0, 0.0, 0.0, 0.0, 0.0, 0.0, 0.0, 0.0, 0.0, 0.0, 0.0, 0.0, 0.0, 0.0, 0.0, 0.0, 0.0, 0.0, 0.0, 0.0, 0.0, 0.0, 0.0, 0.0, 0.0, 0.0, 0.0, 0.0, 0.0, 0.0, 0.0, 0.0, 0.0, 0.0, 0.0, 0.0, 0.0, 0.0, 0.0, 0.0, 0.0, 0.0, 0.0, 0.0, 0.0, 0.0, 0.0, 0.0, 0.0, 0.0, 0.0, 0.0, 0.0, 0.0, 0.0, 0.0, 0.0, 0.0, 0.0, 0.0, 0.0, 0.0, 0.0, 0.0, 0.0, 0.0, 0.0, 0.0, 0.0, 0.0, 0.0, 0.0, 0.0, 0.0, 0.0, 0.0, 0.0, 0.0, 0.0, 0.0, 0.0, 0.0, 0.0, 0.0, 0.0, 0.0, 0.0, 0.0, 0.0, 0.0, 0.0, 0.0, 0.0, 0.0, 0.0, 0.0, 0.0, 0.0, 0.0, 0.0, 0.0, 0.0, 0.0, 0.0, 0.0, 0.0, 0.0, 0.0, 0.0, 0.0, 0.0, 0.0, 0.0, 0.0, 0.0, 0.0, 0.0, 0.0]
19 [0.0, 0.0, 0.0, 0.0, 0.0, 0.0, 0.0, 0.0, 0.0, 0.0, 0.0, 0.0, 0.0, 0.0, 0.0, 0.0, 0.0, 0.0, 0.0, 0.0, 0.0, 0.0, 0.0, 0.0, 0.0, 0.0, 0.0, 0.0, 0.0, 0.0, 0.0, 0.0, 0.0, 0.0, 0.0, 0.0, 0.0, 0.0, 0.0, 0.0, 0.0, 0.0, 0.0, 0.0, 0.0, 0.0, 0.0, 0.0, 0.0, 0.0, 0.0, 0.0, 0.0, 0.0, 0.0, 0.0, 0.0, 0.0, 0.0, 0.0, 0.0, 0.0, 0.0, 0.0, 0.0, 0.0, 0.0, 0.0, 0.0, 0.0, 0.0, 0.0, 0.0, 0.0, 0.0, 0.0, 0.0, 0.0, 0.0, 0.0, 0.0, 0.0, 0.0, 0.0, 0.0, 0.0, 0.0, 0.0, 0.0, 0.0, 0.0, 0.0, 0.0, 0.0, 0.0, 0.0, 0.0, 0.0, 0.0, 0.0, 0.0, 0.0, 0.0, 0.0, 0.0, 0.0, 0.0, 0.0, 0.0, 0.0, 0.0, 0.0, 0.0, 0.0, 0.0, 0.0, 0.0, 0.0, 0.0, 0.0, 0.0, 0.0, 0.0, 0.0, 0.0, 0.0, 0.0, 0.0, 0.0, 0.0, 0.0, 0.0, 0.0, 0.0, 0.0, 0.0, 0.0, 0.0, 0.0, 0.0, 0.0, 0.0, 0.0, 0.0, 0.0, 0.0, 0.0, 0.0, 0.0, 0.0, 0.0, 0.0, 0.0, 0.0, 0.0, 0.0, 0.0, 0.0, 0.0, 0.0, 0.0, 0.0, 0.0, 0.0, 0.0, 0.0, 0.0, 0.0, 0.0, 0.0, 0.0, 0.0, 0.0, 0.0, 0.0, 0.0, 0.0, 0.0, 0.0, 0.0, 0.0, 0.0]
20 [0.0, 0.0, 0.0, 0.0, 0.0, 0.0, 0.0, 0.0, 0.0, 0.0, 0.0, 0.0, 0.0, 0.0, 0.0, 0.0, 0.0, 0.0, 0.0, 0.0, 0.0, 0.0, 0.0, 0.0, 0.0, 0.0, 0.0, 0.0, 0.0, 0.0, 0.0, 0.0, 0.0, 0.0, 0.0, 0.0, 0.0, 0.0, 0.0, 0.0, 0.0, 0.0, 0.0, 0.0, 0.0, 0.0, 0.0, 0.0, 0.0, 0.0, 0.0, 0.0, 0.0, 0.0, 0.0, 0.0, 0.0, 0.0, 0.0, 0.0, 0.0, 0.0, 0.0, 0.0, 0.0, 0.0, 0.0, 0.0, 0.0, 0.0, 0.0, 0.0, 0.0, 0.0, 0.0, 0.0, 0.0, 0.0, 0.0, 0.0, 0.0, 0.0, 0.0, 0.0, 0.0, 0.0, 0.0, 0.0, 0.0, 0.0, 0.0, 0.0, 0.0, 0.0, 0.0, 0.0, 0.0, 0.0, 0.0, 0.0, 0.0, 0.0, 0.0, 0.0, 0.0, 0.0, 0.0, 0.0, 0.0, 0.0, 0.0, 0.0, 0.0, 0.0, 0.0, 0.0, 0.0, 0.0, 0.0, 0.0, 0.0, 0.0, 0.0, 0.0, 0.0, 0.0, 0.0, 0.0, 0.0, 0.0, 0.0, 0.0, 0.0, 0.0, 0.0, 0.0, 0.0, 0.0, 0.0, 0.0, 0.0, 0.0, 0.0, 0.0, 0.0, 0.0, 0.0, 0.0, 0.0, 0.0, 0.0, 0.0, 0.0, 0.0, 0.0, 0.0, 0.0, 0.0, 0.0, 0.0, 0.0, 0.0, 0.0, 0.0, 0.0, 0.0, 0.0, 0.0, 0.0, 0.0, 0.0, 0.0, 0.0, 0.0, 0.0, 0.0, 0.0, 0.0, 0.0, 0.0, 0.0, 0.0]
21 [0.0, 0.0, 0.0, 0.0, 0.0, 0.0, 0.0, 0.0, 0.0, 0.0, 0.0, 0.0, 0.0, 0.0, 0.0, 0.0, 0.0, 0.0, 0.0, 0.0, 0.0, 0.0, 0.0, 0.0, 0.0, 0.0, 0.0, 0.0, 0.0, 0.0, 0.0, 0.0, 0.0, 0.0, 0.0, 0.0, 0.0, 0.0, 0.0, 0.0, 0.0, 0.0, 0.0, 0.0, 0.0, 0.0, 0.0, 0.0, 0.0, 0.0, 0.0, 0.0, 0.0, 0.0, 0.0, 0.0, 0.0, 0.0, 0.0, 0.0, 0.0, 0.0, 0.0, 0.0, 0.0, 0.0, 0.0, 0.0, 0.0, 0.0, 0.0, 0.0, 0.0, 0.0, 0.0, 0.0, 0.0, 0.0, 0.0, 0.0, 0.0, 0.0, 0.0, 0.0, 0.0, 0.0, 0.0, 0.0, 0.0, 0.0, 0.0, 0.0, 0.0, 0.0, 0.0, 0.0, 0.0, 0.0, 0.0, 0.0, 0.0, 0.0, 0.0, 0.0, 0.0, 0.0, 0.0, 0.0, 0.0, 0.0, 0.0, 0.0, 0.0, 0.0, 0.0, 0.0, 0.0, 0.0, 0.0, 0.0, 0.0, 0.0, 0.0, 0.0, 0.0, 0.0, 0.0, 0.0, 0.0, 0.0, 0.0, 0.0, 0.0, 0.0, 0.0, 0.0, 0.0, 0.0, 0.0, 0.0, 0.0, 0.0, 0.0, 0.0, 0.0, 0.0, 0.0, 0.0, 0.0, 0.0, 0.0, 0.0, 0.0, 0.0, 0.0, 0.0, 0.0, 0.0, 0.0, 0.0, 0.0, 0.0, 0.0, 0.0, 0.0, 0.0, 0.0, 0.0, 0.0, 0.0, 0.0, 0.0, 0.0, 0.0, 0.0, 0.0, 0.0, 0.0, 0.0, 0.0, 0.0, 0.0]
22 [0.0, 0.0, 0.0, 0.0, 0.0, 0.0, 0.0, 0.0, 0.0, 0.0, 0.0, 0.0, 0.0, 0.0, 0.0, 0.0, 0.0, 0.0, 0.0, 0.0, 0.0, 0.0, 0.0, 0.0, 0.0, 0.0, 0.0, 0.0, 0.0, 0.0, 0.0, 0.0, 0.0, 0.0, 0.0, 0.0, 0.0, 0.0, 0.0, 0.0, 0.0, 0.0, 0.0, 0.0, 0.0, 0.0, 0.0, 0.0, 0.0, 0.0, 0.0, 0.0, 0.0, 0.0, 0.0, 0.0, 0.0, 0.0, 0.0, 0.0, 0.0, 0.0, 0.0, 0.0, 0.0, 0.0, 0.0, 0.0, 0.0, 0.0, 0.0, 0.0, 0.0, 0.0, 0.0, 0.0, 0.0, 0.0, 0.0, 0.0, 0.0, 0.0, 0.0, 0.0, 0.0, 0.0, 0.0, 0.0, 0.0, 0.0, 0.0, 0.0, 0.0, 0.0, 0.0, 0.0, 0.0, 0.0, 0.0, 0.0, 0.0, 0.0, 0.0, 0.0, 0.0, 0.0, 0.0, 0.0, 0.0, 0.0, 0.0, 0.0, 0.0, 0.0, 0.0, 0.0, 0.0, 0.0, 0.0, 0.0, 0.0, 0.0, 0.0, 0.0, 0.0, 0.0, 0.0, 0.0, 0.0, 0.0, 0.0, 0.0, 0.0, 0.0, 0.0, 0.0, 0.0, 0.0, 0.0, 0.0, 0.0, 0.0, 0.0, 0.0, 0.0, 0.0, 0.0, 0.0, 0.0, 0.0, 0.0, 0.0, 0.0, 0.0, 0.0, 0.0, 0.0, 0.0, 0.0, 0.0, 0.0, 0.0, 0.0, 0.0, 0.0, 0.0, 0.0, 0.0, 0.0, 0.0, 0.0, 0.0, 0.0, 0.0, 0.0, 0.0, 0.0, 0.0, 0.0, 0.0, 0.0, 0.0]
23 [0.0, 0.0, 0.0, 0.0, 0.0, 0.0, 0.0, 0.0, 0.0, 0.0, 0.0, 0.0, 0.0, 0.0, 0.0, 0.0, 0.0, 0.0, 0.0, 0.0, 0.0, 0.0, 0.0, 0.0, 0.0, 0.0, 0.0, 0.0, 0.0, 0.0, 0.0, 0.0, 0.0, 0.0, 0.0, 0.0, 0.0, 0.0, 0.0, 0.0, 0.0, 0.0, 0.0, 0.0, 0.0, 0.0, 0.0, 0.0, 0.0, 0.0, 0.0, 0.0, 0.0, 0.0, 0.0, 0.0, 0.0, 0.0, 0.0, 0.0, 0.0, 0.0, 0.0, 0.0, 0.0, 0.0, 0.0, 0.0, 0.0, 0.0, 0.0, 0.0, 0.0, 0.0, 0.0, 0.0, 0.0, 0.0, 0.0, 0.0, 0.0, 0.0, 0.0, 0.0, 0.0, 0.0, 0.0, 0.0, 0.0, 0.0, 0.0, 0.0, 0.0, 0.0, 0.0, 0.0, 0.0, 0.0, 0.0, 0.0, 0.0, 0.0, 0.0, 0.0, 0.0, 0.0, 0.0, 0.0, 0.0, 0.0, 0.0, 0.0, 0.0, 0.0, 0.0, 0.0, 0.0, 0.0, 0.0, 0.0, 0.0, 0.0, 0.0, 0.0, 0.0, 0.0, 0.0, 0.0, 0.0, 0.0, 0.0, 0.0, 0.0, 0.0, 0.0, 0.0, 0.0, 0.0, 0.0, 0.0, 0.0, 0.0, 0.0, 0.0, 0.0, 0.0, 0.0, 0.0, 0.0, 0.0, 0.0, 0.0, 0.0, 0.0, 0.0, 0.0, 0.0, 0.0, 0.0, 0.0, 0.0, 0.0, 0.0, 0.0, 0.0, 0.0, 0.0, 0.0, 0.0, 0.0, 0.0, 0.0, 0.0, 0.0, 0.0, 0.0, 0.0, 0.0, 0.0, 0.0, 0.0, 0.0]
24 [0.0, 0.0, 0.0, 0.0, 0.0, 0.0, 0.0, 0.0, 0.0, 0.0, 0.0, 0.0, 0.0, 0.0, 0.0, 0.0, 0.0, 0.0, 0.0, 0.0, 0.0, 0.0, 0.0, 0.0, 0.0, 0.0, 0.0, 0.0, 0.0, 0.0, 0.0, 0.0, 0.0, 0.0, 0.0, 0.0, 0.0, 0.0, 0.0, 0.0, 0.0, 0.0, 0.0, 0.0, 0.0, 0.0, 0.0, 0.0, 0.0, 0.0, 0.0, 0.0, 0.0, 0.0, 0.0, 0.0, 0.0, 0.0, 0.0, 0.0, 0.0, 0.0, 0.0, 0.0, 0.0, 0.0, 0.0, 0.0, 0.0, 0.0, 0.0, 0.0, 0.0, 0.0, 0.0, 0.0, 0.0, 0.0, 0.0, 0.0, 0.0, 0.0, 0.0, 0.0, 0.0, 0.0, 0.0, 0.0, 0.0, 0.0, 0.0, 0.0, 0.0, 0.0, 0.0, 0.0, 0.0, 0.0, 0.0, 0.0, 0.0, 0.0, 0.0, 0.0, 0.0, 0.0, 0.0, 0.0, 0.0, 0.0, 0.0, 0.0, 0.0, 0.0, 0.0, 0.0, 0.0, 0.0, 0.0, 0.0, 0.0, 0.0, 0.0, 0.0, 0.0, 0.0, 0.0, 0.0, 0.0, 0.0, 0.0, 0.0, 0.0, 0.0, 0.0, 0.0, 0.0, 0.0, 0.0, 0.0, 0.0, 0.0, 0.0, 0.0, 0.0, 0.0, 0.0, 0.0, 0.0, 0.0, 0.0, 0.0, 0.0, 0.0, 0.0, 0.0, 0.0, 0.0, 0.0, 0.0, 0.0, 0.0, 0.0, 0.0, 0.0, 0.0, 0.0, 0.0, 0.0, 0.0, 0.0, 0.0, 0.0, 0.0, 0.0, 0.0, 0.0, 0.0, 0.0, 0.0, 0.0, 0.0]
25 [0.0, 0.0, 0.0, 0.0, 0.0, 0.0, 0.0, 0.0, 0.0, 0.0, 0.0, 0.0, 0.0, 0.0, 0.0, 0.0, 0.0, 0.0, 0.0, 0.0, 0.0, 0.0, 0.0, 0.0, 0.0, 0.0, 0.0, 0.0, 0.0, 0.0, 0.0, 0.0, 0.0, 0.0, 0.0, 0.0, 0.0, 0.0, 0.0, 0.0, 0.0, 0.0, 0.0, 0.0, 0.0, 0.0, 0.0, 0.0, 0.0, 0.0, 0.0, 0.0, 0.0, 0.0, 0.0, 0.0, 0.0, 0.0, 0.0, 0.0, 0.0, 0.0, 0.0, 0.0, 0.0, 0.0, 0.0, 0.0, 0.0, 0.0, 0.0, 0.0, 0.0, 0.0, 0.0, 0.0, 0.0, 0.0, 0.0, 0.0, 0.0, 0.0, 0.0, 0.0, 0.0, 0.0, 0.0, 0.0, 0.0, 0.0, 0.0, 0.0, 0.0, 0.0, 0.0, 0.0, 0.0, 0.0, 0.0, 0.0, 0.0, 0.0, 0.0, 0.0, 0.0, 0.0, 0.0, 0.0, 0.0, 0.0, 0.0, 0.0, 0.0, 0.0, 0.0, 0.0, 0.0, 0.0, 0.0, 0.0, 0.0, 0.0, 0.0, 0.0, 0.0, 0.0, 0.0, 0.0, 0.0, 0.0, 0.0, 0.0, 0.0, 0.0, 0.0, 0.0, 0.0, 0.0, 0.0, 0.0, 0.0, 0.0, 0.0, 0.0, 0.0, 0.0, 0.0, 0.0, 0.0, 0.0, 0.0, 0.0, 0.0, 0.0, 0.0, 0.0, 0.0, 0.0, 0.0, 0.0, 0.0, 0.0, 0.0, 0.0, 0.0, 0.0, 0.0, 0.0, 0.0, 0.0, 0.0, 0.0, 0.0, 0.0, 0.0, 0.0, 0.0, 0.0, 0.0, 0.0, 0.0, 0.0]
26 [0.0, 0.0, 0.0, 0.0, 0.0, 0.0, 0.0, 0.0, 0.0, 0.0, 0.0, 0.0, 0.0, 0.0, 0.0, 0.0, 0.0, 0.0, 0.0, 0.0, 0.0, 0.0, 0.0, 0.0, 0.0, 0.0, 0.0, 0.0, 0.0, 0.0, 0.0, 0.0, 0.0, 0.0, 0.0, 0.0, 0.0, 0.0, 0.0, 0.0, 0.0, 0.0, 0.0, 0.0, 0.0, 0.0, 0.0, 0.0, 0.0, 0.0, 0.0, 0.0, 0.0, 0.0, 0.0, 0.0, 0.0, 0.0, 0.0, 0.0, 0.0, 0.0, 0.0, 0.0, 0.0, 0.0, 0.0, 0.0, 0.0, 0.0, 0.0, 0.0, 0.0, 0.0, 0.0, 0.0, 0.0, 0.0, 0.0, 0.0, 0.0, 0.0, 0.0, 0.0, 0.0, 0.0, 0.0, 0.0, 0.0, 0.0, 0.0, 0.0, 0.0, 0.0, 0.0, 0.0, 0.0, 0.0, 0.0, 0.0, 0.0, 0.0, 0.0, 0.0, 0.0, 0.0, 0.0, 0.0, 0.0, 0.0, 0.0, 0.0, 0.0, 0.0, 0.0, 0.0, 0.0, 0.0, 0.0, 0.0, 0.0, 0.0, 0.0, 0.0, 0.0, 0.0, 0.0, 0.0, 0.0, 0.0, 0.0, 0.0, 0.0, 0.0, 0.0, 0.0, 0.0, 0.0, 0.0, 0.0, 0.0, 0.0, 0.0, 0.0, 0.0, 0.0, 0.0, 0.0, 0.0, 0.0, 0.0, 0.0, 0.0, 0.0, 0.0, 0.0, 0.0, 0.0, 0.0, 0.0, 0.0, 0.0, 0.0, 0.0, 0.0, 0.0, 0.0, 0.0, 0.0, 0.0, 0.0, 0.0, 0.0, 0.0, 0.0, 0.0, 0.0, 0.0, 0.0, 0.0, 0.0, 0.0]
27 [0.0, 0.0, 0.0, 0.0, 0.0, 0.0, 0.0, 0.0, 0.0, 0.0, 0.0, 0.0, 0.0, 0.0, 0.0, 0.0, 0.0, 0.0, 0.0, 0.0, 0.0, 0.0, 0.0, 0.0, 0.0, 0.0, 0.0, 0.0, 0.0, 0.0, 0.0, 0.0, 0.0, 0.0, 0.0, 0.0, 0.0, 0.0, 0.0, 0.0, 0.0, 0.0, 0.0, 0.0, 0.0, 0.0, 0.0, 0.0, 0.0, 0.0, 0.0, 0.0, 0.0, 0.0, 0.0, 0.0, 0.0, 0.0, 0.0, 0.0, 0.0, 0.0, 0.0, 0.0, 0.0, 0.0, 0.0, 0.0, 0.0, 0.0, 0.0, 0.0, 0.0, 0.0, 0.0, 0.0, 0.0, 0.0, 0.0, 0.0, 0.0, 0.0, 0.0, 0.0, 0.0, 0.0, 0.0, 0.0, 0.0, 0.0, 0.0, 0.0, 0.0, 0.0, 0.0, 0.0, 0.0, 0.0, 0.0, 0.0, 0.0, 0.0, 0.0, 0.0, 0.0, 0.0, 0.0, 0.0, 0.0, 0.0, 0.0, 0.0, 0.0, 0.0, 0.0, 0.0, 0.0, 0.0, 0.0, 0.0, 0.0, 0.0, 0.0, 0.0, 0.0, 0.0, 0.0, 0.0, 0.0, 0.0, 0.0, 0.0, 0.0, 0.0, 0.0, 0.0, 0.0, 0.0, 0.0, 0.0, 0.0, 0.0, 0.0, 0.0, 0.0, 0.0, 0.0, 0.0, 0.0, 0.0, 0.0, 0.0, 0.0, 0.0, 0.0, 0.0, 0.0, 0.0, 0.0, 0.0, 0.0, 0.0, 0.0, 0.0, 0.0, 0.0, 0.0, 0.0, 0.0, 0.0, 0.0, 0.0, 0.0, 0.0, 0.0, 0.0, 0.0, 0.0, 0.0, 0.0, 0.0, 0.0]
28 [0.016285721, 0.0132857235, 0.009285715, 0.0062857177, 0.0032857207, 2.8571172E-4, 0.0037142844, 0.0067142816, 0.010714278, 0.014714274, 0.017714271, 0.02171429, 0.025714288, 0.025714288, 0.025714288, 0.025714288, 0.025714288, 0.025714288, 0.025714288, 0.025714288, 0.04128572, 0.04128572, 0.04128572, 0.04128572, 0.04128572, 0.04128572, 0.04128572, 0.04128572, 0.04128572, 0.04128572, 0.04128572, 0.038285725, 0.035285715, 0.032285716, 0.028285721, 0.025285712, 0.021285716, 0.025714288, 0.025714288, 0.025714288, 0.025714288, 0.025714288, 0.025714288, 0.025714288, 0.025714288, 0.025714288, 0.025714288, 0.025714288, 0.025714288, 0.025714288, 0.025714288, 0.025714288, 0.025714288, 0.025714288, 0.025714288, 0.025714288, 0.025714288, 0.025714288, 0.025714288, 0.025714288, 0.025714288, 0.025714288, 0.025714288, 0.025714288, 0.025714288, 0.025714288, 0.025714288, 0.025714288, 0.025714288, 0.025714288, 0.025714288, 0.025714288, 0.025714288, 0.025714288, 0.025714288, 0.025714288, 0.025714288, 0.025714288, 0.025714288, 0.08328572, 0.08328572, 0.08328572, 0.08328572, 0.08328572, 0.08328572, 0.08328572, 0.08328572, 0.08328572, 0.08328572, 0.08328572, 0.08328572, 0.08328572, 0.08328572, 0.08328572, 0.08328572, 0.08328572, 0.08328572, 0.08328572, 0.08328572, 0.025714288, 0.025714288, 0.025714288, 0.025714288, 0.025714288, 0.025714288, 0.025714288, 0.025714288, 0.025714288, 0.025714288, 0.025714288, 0.025714288, 0.025714288, 0.025714288, 0.025714288, 0.025714288, 0.025714288, 0.025714288, 0.025714288, 0.025714288, 0.025714288, 0.025714288, 0.025714288, 0.025714288, 0.025714288, 0.025714288, 0.025714288, 0.025714288, 0.025714288, 0.025714288, 0.025714288, 0.025714288, 0.025714288, 0.025714288, 0.025714288, 0.025714288, 0.025714288, 0.025714288, 0.025714288, 0.025714288, 0.025714288, 0.025714288, 0.025714288, 0.025714288, 0.025714288, 0.025714288, 0.025714288, 0.025714288, 0.025714288, 0.025714288, 0.025714288, 0.025714288, 0.025714288, 0.025714288, 0.025714288, 0.025714288, 0.025714288, 0.025714288, 0.025714288, 0.025714288, 0.025714288, 0.025714288, 0.025714288, 0.025714288, 0.025714288, 0.025714288, 0.025714288, 0.025714288, 0.025714288, 0.04328572, 0.046285715, 0.048285715, 0.05128572, 0.05328572, 0.056285717, 0.058285717, 0.06128571, 0.06128571, 0.06128571, 0.06128571, 0.06128571, 0.06128571, 0.06128571]
29 [0.016554952, 0.013554954, 0.009554946, 0.0065549486, 0.0035549514, 5.5494223E-4, 0.003445054, 0.006445051, 0.010445047, 0.014445043, 0.01744504, 0.02144506, 0.025445057, 0.026445055, 0.026445055, 0.026445055, 0.026445055, 0.026445055, 0.026445055, 0.026445055, 0.04155495, 0.04155495, 0.04155495, 0.04155495, 0.04155495, 0.04155495, 0.04155495, 0.04155495, 0.04155495, 0.04155495, 0.04155495, 0.038554955, 0.035554945, 0.032554947, 0.028554952, 0.025554942, 0.021554947, 0.026445055, 0.026445055, 0.026445055, 0.026445055, 0.026445055, 0.026445055, 0.026445055, 0.026445055, 0.026445055, 0.026445055, 0.026445055, 0.026445055, 0.026445055, 0.026445055, 0.026445055, 0.026445055, 0.026445055, 0.026445055, 0.026445055, 0.026445055, 0.026445055, 0.026445055, 0.026445055, 0.026445055, 0.026445055, 0.026445055, 0.026445055, 0.026445055, 0.026445055, 0.026445055, 0.026445055, 0.026445055, 0.026445055, 0.026445055, 0.026445055, 0.026445055, 0.026445055, 0.026445055, 0.026445055, 0.026445055, 0.026445055, 0.026445055, 0.083554946, 0.083554946, 0.083554946, 0.083554946, 0.083554946, 0.083554946, 0.083554946, 0.083554946, 0.083554946, 0.083554946, 0.083554946, 0.083554946, 0.083554946, 0.083554946, 0.083554946, 0.083554946, 0.083554946, 0.083554946, 0.083554946, 0.083554946, 0.025445057, 0.025445057, 0.025445057, 0.025445057, 0.025445057, 0.025445057, 0.025445057, 0.025445057, 0.025445057, 0.025445057, 0.025445057, 0.025445057, 0.025445057, 0.025445057, 0.025445057, 0.025445057, 0.025445057, 0.025445057, 0.025445057, 0.025445057, 0.025445057, 0.025445057, 0.025445057, 0.025445057, 0.025445057, 0.025445057, 0.025445057, 0.025445057, 0.025445057, 0.025445057, 0.025445057, 0.025445057, 0.025445057, 0.025445057, 0.025445057, 0.025445057, 0.025445057, 0.025445057, 0.025445057, 0.025445057, 0.025445057, 0.025445057, 0.025445057, 0.025445057, 0.025445057, 0.025445057, 0.025445057, 0.025445057, 0.025445057, 0.025445057, 0.025445057, 0.025445057, 0.025445057, 0.025445057, 0.025445057, 0.025445057, 0.025445057, 0.025445057, 0.025445057, 0.025445057, 0.025445057, 0.025445057, 0.025445057, 0.025445057, 0.025445057, 0.025445057, 0.025445057, 0.025445057, 0.025445057, 0.04355495, 0.046554945, 0.048554946, 0.05155495, 0.053554952, 0.056554947, 0.058554947, 0.061554942, 0.061554942, 0.061554942, 0.061554942, 0.061554942, 0.061554942, 0.061554942]
30 [0.016554952, 0.013554954, 0.009554946, 0.0065549486, 0.0035549514, 5.5494223E-4, 0.003445054, 0.006445051, 0.010445047, 0.014445043, 0.01744504, 0.02144506, 0.025445057, 0.026445055, 0.026445055, 0.026445055, 0.026445055, 0.026445055, 0.026445055, 0.026445055, 0.04155495, 0.04155495, 0.04155495, 0.04155495, 0.04155495, 0.04155495, 0.04155495, 0.04155495, 0.04155495, 0.04155495, 0.04155495, 0.038554955, 0.035554945, 0.032554947, 0.028554952, 0.025554942, 0.021554947, 0.026445055, 0.026445055, 0.026445055, 0.026445055, 0.026445055, 0.026445055, 0.026445055, 0.026445055, 0.026445055, 0.026445055, 0.026445055, 0.026445055, 0.026445055, 0.026445055, 0.026445055, 0.026445055, 0.026445055, 0.026445055, 0.026445055, 0.026445055, 0.026445055, 0.026445055, 0.026445055, 0.026445055, 0.026445055, 0.026445055, 0.026445055, 0.026445055, 0.026445055, 0.026445055, 0.026445055, 0.026445055, 0.026445055, 0.026445055, 0.026445055, 0.026445055, 0.026445055, 0.026445055, 0.026445055, 0.026445055, 0.026445055, 0.026445055, 0.083554946, 0.083554946, 0.083554946, 0.083554946, 0.083554946, 0.083554946, 0.083554946, 0.083554946, 0.083554946, 0.083554946, 0.083554946, 0.083554946, 0.083554946, 0.083554946, 0.083554946, 0.083554946, 0.083554946, 0.083554946, 0.083554946, 0.083554946, 0.025445057, 0.025445057, 0.025445057, 0.025445057, 0.025445057, 0.025445057, 0.025445057, 0.025445057, 0.025445057, 0.025445057, 0.025445057, 0.025445057, 0.025445057, 0.025445057, 0.025445057, 0.025445057, 0.025445057, 0.025445057, 0.025445057, 0.025445057, 0.025445057, 0.025445057, 0.025445057, 0.025445057, 0.025445057, 0.025445057, 0.025445057, 0.025445057, 0.025445057, 0.025445057, 0.025445057, 0.025445057, 0.025445057, 0.025445057, 0.025445057, 0.025445057, 0.025445057, 0.025445057, 0.025445057, 0.025445057, 0.025445057, 0.025445057, 0.025445057, 0.025445057, 0.025445057, 0.025445057, 0.025445057, 0.025445057, 0.025445057, 0.025445057, 0.025445057, 0.025445057, 0.025445057, 0.025445057, 0.025445057, 0.025445057, 0.025445057, 0.025445057, 0.025445057, 0.025445057, 0.025445057, 0.025445057, 0.025445057, 0.025445057, 0.025445057, 0.025445057, 0.025445057, 0.025445057, 0.025445057, 0.04355495, 0.046554945, 0.048554946, 0.05155495, 0.053554952, 0.056554947, 0.058554947, 0.061554942, 0.061554942, 0.061554942, 0.061554942, 0.061554942, 0.061554942, 0.061554942]
31 [0.016554952, 0.013554954, 0.009554946, 0.0065549486, 0.0035549514, 5.5494223E-4, 0.003445054, 0.006445051, 0.010445047, 0.014445043, 0.01744504, 0.02144506, 0.025445057, 0.026445055, 0.026445055, 0.026445055, 0.026445055, 0.026445055, 0.026445055, 0.026445055, 0.04155495, 0.04155495, 0.04155495, 0.04155495, 0.04155495, 0.04155495, 0.04155495, 0.04155495, 0.04155495, 0.04155495, 0.04155495, 0.038554955, 0.035554945, 0.032554947, 0.028554952, 0.025554942, 0.021554947, 0.026445055, 0.026445055, 0.026445055, 0.026445055, 0.026445055, 0.026445055, 0.026445055, 0.026445055, 0.026445055, 0.026445055, 0.026445055, 0.026445055, 0.026445055, 0.026445055, 0.026445055, 0.026445055, 0.026445055, 0.026445055, 0.026445055, 0.026445055, 0.026445055, 0.026445055, 0.026445055, 0.026445055, 0.026445055, 0.026445055, 0.026445055, 0.026445055, 0.026445055, 0.026445055, 0.026445055, 0.026445055, 0.026445055, 0.026445055, 0.026445055, 0.026445055, 0.026445055, 0.026445055, 0.026445055, 0.026445055, 0.026445055, 0.026445055, 0.083554946, 0.083554946, 0.083554946, 0.083554946, 0.083554946, 0.083554946, 0.083554946, 0.083554946, 0.083554946, 0.083554946, 0.083554946, 0.083554946, 0.083554946, 0.083554946, 0.083554946, 0.083554946, 0.083554946, 0.083554946, 0.083554946, 0.083554946, 0.025445057, 0.025445057, 0.025445057, 0.025445057, 0.025445057, 0.025445057, 0.025445057, 0.025445057, 0.025445057, 0.025445057, 0.025445057, 0.025445057, 0.025445057, 0.025445057, 0.025445057, 0.025445057, 0.025445057, 0.025445057, 0.025445057, 0.025445057, 0.025445057, 0.025445057, 0.025445057, 0.025445057, 0.025445057, 0.025445057, 0.025445057, 0.025445057, 0.025445057, 0.025445057, 0.025445057, 0.025445057, 0.025445057, 0.025445057, 0.025445057, 0.025445057, 0.025445057, 0.025445057, 0.025445057, 0.025445057, 0.025445057, 0.025445057, 0.025445057, 0.025445057, 0.025445057, 0.025445057, 0.025445057, 0.025445057, 0.025445057, 0.025445057, 0.025445057, 0.025445057, 0.025445057, 0.025445057, 0.025445057, 0.025445057, 0.025445057, 0.025445057, 0.025445057, 0.025445057, 0.025445057, 0.025445057, 0.025445057, 0.025445057, 0.025445057, 0.025445057, 0.025445057, 0.025445057, 0.025445057, 0.04355495, 0.046554945, 0.048554946, 0.05155495, 0.053554952, 0.056554947, 0.058554947, 0.061554942, 0.061554942, 0.061554942, 0.061554942, 0.061554942, 0.061554942, 0.061554942]
32 [0.016554952, 0.013554954, 0.009554946, 0.0065549486, 0.0035549514, 5.5494223E-4, 0.003445054, 0.006445051, 0.010445047, 0.014445043, 0.01744504, 0.02144506, 0.025445057, 0.026445055, 0.026445055, 0.026445055, 0.026445055, 0.026445055, 0.026445055, 0.026445055, 0.04155495, 0.04155495, 0.04155495, 0.04155495, 0.04155495, 0.04155495, 0.04155495, 0.04155495, 0.04155495, 0.04155495, 0.04155495, 0.038554955, 0.035554945, 0.032554947, 0.028554952, 0.025554942, 0.021554947, 0.026445055, 0.026445055, 0.026445055, 0.026445055, 0.026445055, 0.026445055, 0.026445055, 0.026445055, 0.026445055, 0.026445055, 0.026445055, 0.026445055, 0.026445055, 0.026445055, 0.026445055, 0.026445055, 0.026445055, 0.026445055, 0.026445055, 0.026445055, 0.026445055, 0.026445055, 0.026445055, 0.026445055, 0.026445055, 0.026445055, 0.026445055, 0.026445055, 0.026445055, 0.026445055, 0.026445055, 0.026445055, 0.026445055, 0.026445055, 0.026445055, 0.026445055, 0.026445055, 0.026445055, 0.026445055, 0.026445055, 0.026445055, 0.026445055, 0.083554946, 0.083554946, 0.083554946, 0.083554946, 0.083554946, 0.083554946, 0.083554946, 0.083554946, 0.083554946, 0.083554946, 0.083554946, 0.083554946, 0.083554946, 0.083554946, 0.083554946, 0.083554946, 0.083554946, 0.083554946, 0.083554946, 0.083554946, 0.025445057, 0.025445057, 0.025445057, 0.025445057, 0.025445057, 0.025445057, 0.025445057, 0.025445057, 0.025445057, 0.025445057, 0.025445057, 0.025445057, 0.025445057, 0.025445057, 0.025445057, 0.025445057, 0.025445057, 0.025445057, 0.025445057, 0.025445057, 0.025445057, 0.025445057, 0.025445057, 0.025445057, 0.025445057, 0.025445057, 0.025445057, 0.025445057, 0.025445057, 0.025445057, 0.025445057, 0.025445057, 0.025445057, 0.025445057, 0.025445057, 0.025445057, 0.025445057, 0.025445057, 0.025445057, 0.025445057, 0.025445057, 0.025445057, 0.025445057, 0.025445057, 0.025445057, 0.025445057, 0.025445057, 0.025445057, 0.025445057, 0.025445057, 0.025445057, 0.025445057, 0.025445057, 0.025445057, 0.025445057, 0.025445057, 0.025445057, 0.025445057, 0.025445057, 0.025445057, 0.025445057, 0.025445057, 0.025445057, 0.025445057, 0.025445057, 0.025445057, 0.025445057, 0.025445057, 0.025445057, 0.04355495, 0.046554945, 0.048554946, 0.05155495, 0.053554952, 0.056554947, 0.058554947, 0.061554942, 0.061554942, 0.061554942, 0.061554942, 0.061554942, 0.061554942, 0.061554942]
33 [0.016554952, 0.013554954, 0.009554946, 0.0065549486, 0.0035549514, 5.5494223E-4, 0.003445054, 0.006445051, 0.010445047, 0.014445043, 0.01744504, 0.02144506, 0.025445057, 0.026445055, 0.026445055, 0.026445055, 0.026445055, 0.026445055, 0.026445055, 0.026445055, 0.04155495, 0.04155495, 0.04155495, 0.04155495, 0.04155495, 0.04155495, 0.04155495, 0.04155495, 0.04155495, 0.04155495, 0.04155495, 0.038554955, 0.035554945, 0.032554947, 0.028554952, 0.025554942, 0.021554947, 0.026445055, 0.026445055, 0.026445055, 0.026445055, 0.026445055, 0.026445055, 0.026445055, 0.026445055, 0.026445055, 0.026445055, 0.026445055, 0.026445055, 0.026445055, 0.026445055, 0.026445055, 0.026445055, 0.026445055, 0.026445055, 0.026445055, 0.026445055, 0.026445055, 0.026445055, 0.026445055, 0.026445055, 0.026445055, 0.026445055, 0.026445055, 0.026445055, 0.026445055, 0.026445055, 0.026445055, 0.026445055, 0.026445055, 0.026445055, 0.026445055, 0.026445055, 0.026445055, 0.026445055, 0.026445055, 0.026445055, 0.026445055, 0.026445055, 0.083554946, 0.083554946, 0.083554946, 0.083554946, 0.083554946, 0.083554946, 0.083554946, 0.083554946, 0.083554946, 0.083554946, 0.083554946, 0.083554946, 0.083554946, 0.083554946, 0.083554946, 0.083554946, 0.083554946, 0.083554946, 0.083554946, 0.083554946, 0.025445057, 0.025445057, 0.025445057, 0.025445057, 0.025445057, 0.025445057, 0.025445057, 0.025445057, 0.025445057, 0.025445057, 0.025445057, 0.025445057, 0.025445057, 0.025445057, 0.025445057, 0.025445057, 0.025445057, 0.025445057, 0.025445057, 0.025445057, 0.025445057, 0.025445057, 0.025445057, 0.025445057, 0.025445057, 0.025445057, 0.025445057, 0.025445057, 0.025445057, 0.025445057, 0.025445057, 0.025445057, 0.025445057, 0.025445057, 0.025445057, 0.025445057, 0.025445057, 0.025445057, 0.025445057, 0.025445057, 0.025445057, 0.025445057, 0.025445057, 0.025445057, 0.025445057, 0.025445057, 0.025445057, 0.025445057, 0.025445057, 0.025445057, 0.025445057, 0.025445057, 0.025445057, 0.025445057, 0.025445057, 0.025445057, 0.025445057, 0.025445057, 0.025445057, 0.025445057, 0.025445057, 0.025445057, 0.025445057, 0.025445057, 0.025445057, 0.025445057, 0.025445057, 0.025445057, 0.025445057, 0.04355495, 0.046554945, 0.048554946, 0.05155495, 0.053554952, 0.056554947, 0.058554947, 0.061554942, 0.061554942, 0.061554942, 0.061554942, 0.061554942, 0.061554942, 0.061554942]
34 [0.013412097, 0.010412088, 0.0074120904, 0.003412094, 4.1208498E-4, 0.0035879111, 0.006587908, 0.010587905, 0.013587901, 0.017587898, 0.021587918, 0.023587916, 0.023587916, 0.023587916, 0.023587916, 0.023587916, 0.023587916, 0.023587916, 0.023587916, 0.04241209, 0.04241209, 0.04241209, 0.04241209, 0.04241209, 0.04241209, 0.04241209, 0.04241209, 0.04241209, 0.04241209, 0.040412094, 0.037412085, 0.03441209, 0.03141209, 0.027412094, 0.024412086, 0.024587914, 0.024587914, 0.024587914, 0.024587914, 0.024587914, 0.024587914, 0.024587914, 0.024587914, 0.024587914, 0.024587914, 0.024587914, 0.024587914, 0.024587914, 0.024587914, 0.024587914, 0.024587914, 0.024587914, 0.024587914, 0.024587914, 0.024587914, 0.025587915, 0.025587915, 0.025587915, 0.025587915, 0.025587915, 0.025587915, 0.025587915, 0.025587915, 0.025587915, 0.025587915, 0.025587915, 0.025587915, 0.025587915, 0.025587915, 0.025587915, 0.025587915, 0.025587915, 0.025587915, 0.025587915, 0.025587915, 0.025587915, 0.025587915, 0.08341209, 0.08341209, 0.08341209, 0.08341209, 0.08341209, 0.08341209, 0.08341209, 0.08341209, 0.08341209, 0.08341209, 0.08341209, 0.08341209, 0.08341209, 0.08341209, 0.08341209, 0.08341209, 0.08341209, 0.08341209, 0.08341209, 0.08341209, 0.026587913, 0.026587913, 0.026587913, 0.026587913, 0.026587913, 0.026587913, 0.026587913, 0.026587913, 0.026587913, 0.026587913, 0.026587913, 0.026587913, 0.026587913, 0.026587913, 0.026587913, 0.026587913, 0.026587913, 0.026587913, 0.026587913, 0.026587913, 0.026587913, 0.026587913, 0.026587913, 0.026587913, 0.026587913, 0.026587913, 0.026587913, 0.026587913, 0.026587913, 0.026587913, 0.026587913, 0.027587913, 0.027587913, 0.027587913, 0.027587913, 0.027587913, 0.027587913, 0.027587913, 0.027587913, 0.027587913, 0.027587913, 0.027587913, 0.027587913, 0.027587913, 0.027587913, 0.027587913, 0.027587913, 0.027587913, 0.027587913, 0.027587913, 0.027587913, 0.027587913, 0.027587913, 0.027587913, 0.027587913, 0.027587913, 0.027587913, 0.027587913, 0.027587913, 0.027587913, 0.027587913, 0.028587911, 0.028587911, 0.028587911, 0.028587911, 0.028587911, 0.028587911, 0.028587911, 0.028587911, 0.041412093, 0.043412093, 0.046412088, 0.04841209, 0.051412094, 0.053412095, 0.05641209, 0.05841209, 0.05941209, 0.05941209, 0.05941209, 0.05941209, 0.05941209, 0.05941209, 0.05941209, 0.05941209]
35 [0.013412097, 0.010412088, 0.0074120904, 0.003412094, 4.1208498E-4, 0.0035879111, 0.006587908, 0.010587905, 0.013587901, 0.017587898, 0.021587918, 0.023587916, 0.023587916, 0.023587916, 0.023587916, 0.023587916, 0.023587916, 0.023587916, 0.023587916, 0.04241209, 0.04241209, 0.04241209, 0.04241209, 0.04241209, 0.04241209, 0.04241209, 0.04241209, 0.04241209, 0.04241209, 0.040412094, 0.037412085, 0.03441209, 0.03141209, 0.027412094, 0.024412086, 0.024587914, 0.024587914, 0.024587914, 0.024587914, 0.024587914, 0.024587914, 0.024587914, 0.024587914, 0.024587914, 0.024587914, 0.024587914, 0.024587914, 0.024587914, 0.024587914, 0.024587914, 0.024587914, 0.024587914, 0.024587914, 0.024587914, 0.024587914, 0.025587915, 0.025587915, 0.025587915, 0.025587915, 0.025587915, 0.025587915, 0.025587915, 0.025587915, 0.025587915, 0.025587915, 0.025587915, 0.025587915, 0.025587915, 0.025587915, 0.025587915, 0.025587915, 0.025587915, 0.025587915, 0.025587915, 0.025587915, 0.025587915, 0.025587915, 0.08341209, 0.08341209, 0.08341209, 0.08341209, 0.08341209, 0.08341209, 0.08341209, 0.08341209, 0.08341209, 0.08341209, 0.08341209, 0.08341209, 0.08341209, 0.08341209, 0.08341209, 0.08341209, 0.08341209, 0.08341209, 0.08341209, 0.08341209, 0.026587913, 0.026587913, 0.026587913, 0.026587913, 0.026587913, 0.026587913, 0.026587913, 0.026587913, 0.026587913, 0.026587913, 0.026587913, 0.026587913, 0.026587913, 0.026587913, 0.026587913, 0.026587913, 0.026587913, 0.026587913, 0.026587913, 0.026587913, 0.026587913, 0.026587913, 0.026587913, 0.026587913, 0.026587913, 0.026587913, 0.026587913, 0.026587913, 0.026587913, 0.026587913, 0.026587913, 0.027587913, 0.027587913, 0.027587913, 0.027587913, 0.027587913, 0.027587913, 0.027587913, 0.027587913, 0.027587913, 0.027587913, 0.027587913, 0.027587913, 0.027587913, 0.027587913, 0.027587913, 0.027587913, 0.027587913, 0.027587913, 0.027587913, 0.027587913, 0.027587913, 0.027587913, 0.027587913, 0.027587913, 0.027587913, 0.027587913, 0.027587913, 0.027587913, 0.027587913, 0.027587913, 0.028587911, 0.028587911, 0.028587911, 0.028587911, 0.028587911, 0.028587911, 0.028587911, 0.028587911, 0.041412093, 0.043412093, 0.046412088, 0.04841209, 0.051412094, 0.053412095, 0.05641209, 0.05841209, 0.05941209, 0.05941209, 0.05941209, 0.05941209, 0.05941209, 0.05941209, 0.05941209, 0.05941209]
36 [0.010478021, 0.006478024, 0.003478027, 5.2198104E-4, 0.0035219782, 0.0075219744, 0.010521972, 0.014521968, 0.018521965, 0.021521986, 0.021521986, 0.022521984, 0.022521984, 0.022521984, 0.022521984, 0.022521984, 0.022521984, 0.043478023, 0.043478023, 0.043478023, 0.043478023, 0.043478023, 0.043478023, 0.042478025, 0.042478025, 0.042478025, 0.042478025, 0.042478025, 0.03947803, 0.03647802, 0.032478023, 0.029478027, 0.02547803, 0.023521982, 0.023521982, 0.023521982, 0.023521982, 0.023521982, 0.023521982, 0.024521982, 0.024521982, 0.024521982, 0.024521982, 0.024521982, 0.024521982, 0.024521982, 0.024521982, 0.024521982, 0.024521982, 0.024521982, 0.024521982, 0.024521982, 0.024521982, 0.024521982, 0.024521982, 0.024521982, 0.02552198, 0.02552198, 0.02552198, 0.02552198, 0.02552198, 0.02552198, 0.02552198, 0.02552198, 0.02552198, 0.02552198, 0.02552198, 0.02552198, 0.02552198, 0.02552198, 0.02552198, 0.02552198, 0.02552198, 0.02552198, 0.02652198, 0.08347802, 0.08347802, 0.08347802, 0.08347802, 0.08347802, 0.082478024, 0.082478024, 0.082478024, 0.082478024, 0.082478024, 0.082478024, 0.082478024, 0.082478024, 0.082478024, 0.082478024, 0.082478024, 0.082478024, 0.082478024, 0.082478024, 0.082478024, 0.082478024, 0.027521979, 0.027521979, 0.027521979, 0.027521979, 0.027521979, 0.027521979, 0.027521979, 0.027521979, 0.027521979, 0.027521979, 0.027521979, 0.027521979, 0.027521979, 0.027521979, 0.027521979, 0.027521979, 0.028521977, 0.028521977, 0.028521977, 0.028521977, 0.028521977, 0.028521977, 0.028521977, 0.028521977, 0.028521977, 0.028521977, 0.028521977, 0.028521977, 0.028521977, 0.028521977, 0.028521977, 0.028521977, 0.028521977, 0.028521977, 0.029521978, 0.029521978, 0.029521978, 0.029521978, 0.029521978, 0.029521978, 0.029521978, 0.029521978, 0.029521978, 0.029521978, 0.029521978, 0.029521978, 0.029521978, 0.029521978, 0.029521978, 0.029521978, 0.030521976, 0.030521976, 0.030521976, 0.030521976, 0.030521976, 0.030521976, 0.030521976, 0.030521976, 0.030521976, 0.030521976, 0.030521976, 0.030521976, 0.030521976, 0.030521976, 0.031521976, 0.031521976, 0.031521976, 0.031521976, 0.03747803, 0.04047803, 0.042478025, 0.045478024, 0.04747802, 0.05047803, 0.052478027, 0.055478025, 0.056478024, 0.056478024, 0.056478024, 0.056478024, 0.056478024, 0.056478024, 0.056478024, 0.056478024, 0.056478024, 0.017521964]
37 [0.007472529, 0.004472532, 0.0014725346, 0.0025274735, 0.0065274695, 0.009527467, 0.013527463, 0.01752746, 0.019527482, 0.019527482, 0.019527482, 0.019527482, 0.02052748, 0.02052748, 0.02052748, 0.02052748, 0.04447253, 0.04447253, 0.04447253, 0.04447253, 0.04447253, 0.04447253, 0.04447253, 0.04447253, 0.04447253, 0.04447253, 0.04247253, 0.039472535, 0.036472525, 0.03247253, 0.029472532, 0.025472535, 0.022527479, 0.022527479, 0.022527479, 0.022527479, 0.022527479, 0.022527479, 0.022527479, 0.022527479, 0.022527479, 0.022527479, 0.023527477, 0.023527477, 0.023527477, 0.023527477, 0.023527477, 0.023527477, 0.023527477, 0.023527477, 0.023527477, 0.023527477, 0.023527477, 0.023527477, 0.024527477, 0.024527477, 0.024527477, 0.024527477, 0.024527477, 0.024527477, 0.024527477, 0.024527477, 0.024527477, 0.024527477, 0.024527477, 0.024527477, 0.024527477, 0.025527475, 0.025527475, 0.025527475, 0.025527475, 0.025527475, 0.025527475, 0.025527475, 0.08347253, 0.08347253, 0.08347253, 0.08347253, 0.08347253, 0.08347253, 0.08347253, 0.08347253, 0.08347253, 0.08347253, 0.08347253, 0.08347253, 0.08347253, 0.08347253, 0.082472526, 0.082472526, 0.082472526, 0.082472526, 0.082472526, 0.082472526, 0.082472526, 0.027527474, 0.027527474, 0.027527474, 0.027527474, 0.027527474, 0.027527474, 0.027527474, 0.027527474, 0.027527474, 0.027527474, 0.027527474, 0.027527474, 0.027527474, 0.028527472, 0.028527472, 0.028527472, 0.028527472, 0.028527472, 0.028527472, 0.028527472, 0.028527472, 0.028527472, 0.028527472, 0.028527472, 0.028527472, 0.028527472, 0.029527472, 0.029527472, 0.029527472, 0.029527472, 0.029527472, 0.029527472, 0.029527472, 0.029527472, 0.029527472, 0.029527472, 0.029527472, 0.029527472, 0.03052747, 0.03052747, 0.03052747, 0.03052747, 0.03052747, 0.03052747, 0.03052747, 0.03052747, 0.03052747, 0.03052747, 0.03052747, 0.03152747, 0.03152747, 0.03152747, 0.03152747, 0.03152747, 0.03152747, 0.03152747, 0.03152747, 0.03152747, 0.03152747, 0.03252747, 0.03252747, 0.03252747, 0.03252747, 0.03252747, 0.03252747, 0.03252747, 0.03252747, 0.03252747, 0.036472525, 0.039472535, 0.04247253, 0.04447253, 0.047472525, 0.049472526, 0.05247253, 0.054472532, 0.05547253, 0.05547253, 0.05547253, 0.05547253, 0.05547253, 0.05547253, 0.05547253, 0.05547253, 0.05547253, 0.018527457, 0.015527461]
38 [0.007472529, 0.004472532, 0.0014725346, 0.0025274735, 0.0065274695, 0.009527467, 0.013527463, 0.01752746, 0.019527482, 0.019527482, 0.019527482, 0.019527482, 0.02052748, 0.02052748, 0.02052748, 0.02052748, 0.04447253, 0.04447253, 0.04447253, 0.04447253, 0.04447253, 0.04447253, 0.04447253, 0.04447253, 0.04447253, 0.04447253, 0.04247253, 0.039472535, 0.036472525, 0.03247253, 0.029472532, 0.025472535, 0.022527479, 0.022527479, 0.022527479, 0.022527479, 0.022527479, 0.022527479, 0.022527479, 0.022527479, 0.022527479, 0.022527479, 0.023527477, 0.023527477, 0.023527477, 0.023527477, 0.023527477, 0.023527477, 0.023527477, 0.023527477, 0.023527477, 0.023527477, 0.023527477, 0.023527477, 0.024527477, 0.024527477, 0.024527477, 0.024527477, 0.024527477, 0.024527477, 0.024527477, 0.024527477, 0.024527477, 0.024527477, 0.024527477, 0.024527477, 0.024527477, 0.025527475, 0.025527475, 0.025527475, 0.025527475, 0.025527475, 0.025527475, 0.025527475, 0.08347253, 0.08347253, 0.08347253, 0.08347253, 0.08347253, 0.08347253, 0.08347253, 0.08347253, 0.08347253, 0.08347253, 0.08347253, 0.08347253, 0.08347253, 0.08347253, 0.082472526, 0.082472526, 0.082472526, 0.082472526, 0.082472526, 0.082472526, 0.082472526, 0.027527474, 0.027527474, 0.027527474, 0.027527474, 0.027527474, 0.027527474, 0.027527474, 0.027527474, 0.027527474, 0.027527474, 0.027527474, 0.027527474, 0.027527474, 0.028527472, 0.028527472, 0.028527472, 0.028527472, 0.028527472, 0.028527472, 0.028527472, 0.028527472, 0.028527472, 0.028527472, 0.028527472, 0.028527472, 0.028527472, 0.029527472, 0.029527472, 0.029527472, 0.029527472, 0.029527472, 0.029527472, 0.029527472, 0.029527472, 0.029527472, 0.029527472, 0.029527472, 0.029527472, 0.03052747, 0.03052747, 0.03052747, 0.03052747, 0.03052747, 0.03052747, 0.03052747, 0.03052747, 0.03052747, 0.03052747, 0.03052747, 0.03152747, 0.03152747, 0.03152747, 0.03152747, 0.03152747, 0.03152747, 0.03152747, 0.03152747, 0.03152747, 0.03152747, 0.03252747, 0.03252747, 0.03252747, 0.03252747, 0.03252747, 0.03252747, 0.03252747, 0.03252747, 0.03252747, 0.036472525, 0.039472535, 0.04247253, 0.04447253, 0.047472525, 0.049472526, 0.05247253, 0.054472532, 0.05547253, 0.05547253, 0.05547253, 0.05547253, 0.05547253, 0.05547253, 0.05547253, 0.05547253, 0.05547253, 0.018527457, 0.015527461]
39 [0.006456046, 0.0034560487, 5.4395944E-4, 0.0035439567, 0.0075439527, 0.011543949, 0.015543945, 0.018543942, 0.018543942, 0.018543942, 0.018543942, 0.018543942, 0.019543964, 0.019543964, 0.019543964, 0.045456044, 0.045456044, 0.045456044, 0.045456044, 0.045456044, 0.045456044, 0.045456044, 0.044456046, 0.044456046, 0.044456046, 0.044456046, 0.04045605, 0.03745605, 0.034456044, 0.031456046, 0.027456049, 0.021543963, 0.021543963, 0.021543963, 0.021543963, 0.021543963, 0.021543963, 0.021543963, 0.022543963, 0.022543963, 0.022543963, 0.022543963, 0.022543963, 0.022543963, 0.022543963, 0.022543963, 0.022543963, 0.022543963, 0.022543963, 0.023543961, 0.023543961, 0.023543961, 0.023543961, 0.023543961, 0.023543961, 0.023543961, 0.023543961, 0.023543961, 0.023543961, 0.023543961, 0.02454396, 0.02454396, 0.02454396, 0.02454396, 0.02454396, 0.02454396, 0.02454396, 0.02454396, 0.02454396, 0.02454396, 0.02454396, 0.02554396, 0.02554396, 0.08345605, 0.08345605, 0.08345605, 0.08345605, 0.08345605, 0.08345605, 0.08345605, 0.08345605, 0.08345605, 0.08345605, 0.08345605, 0.08345605, 0.08345605, 0.08345605, 0.08345605, 0.08345605, 0.082456045, 0.082456045, 0.082456045, 0.082456045, 0.082456045, 0.027543958, 0.027543958, 0.027543958, 0.027543958, 0.027543958, 0.027543958, 0.027543958, 0.027543958, 0.027543958, 0.027543958, 0.027543958, 0.027543958, 0.028543957, 0.028543957, 0.028543957, 0.028543957, 0.028543957, 0.028543957, 0.028543957, 0.028543957, 0.028543957, 0.028543957, 0.028543957, 0.029543955, 0.029543955, 0.029543955, 0.029543955, 0.029543955, 0.029543955, 0.029543955, 0.029543955, 0.029543955, 0.029543955, 0.029543955, 0.030543955, 0.030543955, 0.030543955, 0.030543955, 0.030543955, 0.030543955, 0.030543955, 0.030543955, 0.030543955, 0.030543955, 0.031543955, 0.031543955, 0.031543955, 0.031543955, 0.031543955, 0.031543955, 0.031543955, 0.031543955, 0.031543955, 0.032543954, 0.032543954, 0.032543954, 0.032543954, 0.032543954, 0.032543954, 0.032543954, 0.032543954, 0.032543954, 0.03354395, 0.03354395, 0.03354395, 0.03354395, 0.03354395, 0.03354395, 0.035456043, 0.038456053, 0.04045605, 0.043456048, 0.045456044, 0.048456043, 0.05045605, 0.05345605, 0.055456046, 0.055456046, 0.055456046, 0.054456048, 0.054456048, 0.054456048, 0.054456048, 0.054456048, 0.054456048, 0.020543965, 0.017543944, 0.013543947]
40 [0.006456046, 0.0034560487, 5.4395944E-4, 0.0035439567, 0.0075439527, 0.011543949, 0.015543945, 0.018543942, 0.018543942, 0.018543942, 0.018543942, 0.018543942, 0.019543964, 0.019543964, 0.019543964, 0.045456044, 0.045456044, 0.045456044, 0.045456044, 0.045456044, 0.045456044, 0.045456044, 0.044456046, 0.044456046, 0.044456046, 0.044456046, 0.04045605, 0.03745605, 0.034456044, 0.031456046, 0.027456049, 0.021543963, 0.021543963, 0.021543963, 0.021543963, 0.021543963, 0.021543963, 0.021543963, 0.022543963, 0.022543963, 0.022543963, 0.022543963, 0.022543963, 0.022543963, 0.022543963, 0.022543963, 0.022543963, 0.022543963, 0.022543963, 0.023543961, 0.023543961, 0.023543961, 0.023543961, 0.023543961, 0.023543961, 0.023543961, 0.023543961, 0.023543961, 0.023543961, 0.023543961, 0.02454396, 0.02454396, 0.02454396, 0.02454396, 0.02454396, 0.02454396, 0.02454396, 0.02454396, 0.02454396, 0.02454396, 0.02454396, 0.02554396, 0.02554396, 0.08345605, 0.08345605, 0.08345605, 0.08345605, 0.08345605, 0.08345605, 0.08345605, 0.08345605, 0.08345605, 0.08345605, 0.08345605, 0.08345605, 0.08345605, 0.08345605, 0.08345605, 0.08345605, 0.082456045, 0.082456045, 0.082456045, 0.082456045, 0.082456045, 0.027543958, 0.027543958, 0.027543958, 0.027543958, 0.027543958, 0.027543958, 0.027543958, 0.027543958, 0.027543958, 0.027543958, 0.027543958, 0.027543958, 0.028543957, 0.028543957, 0.028543957, 0.028543957, 0.028543957, 0.028543957, 0.028543957, 0.028543957, 0.028543957, 0.028543957, 0.028543957, 0.029543955, 0.029543955, 0.029543955, 0.029543955, 0.029543955, 0.029543955, 0.029543955, 0.029543955, 0.029543955, 0.029543955, 0.029543955, 0.030543955, 0.030543955, 0.030543955, 0.030543955, 0.030543955, 0.030543955, 0.030543955, 0.030543955, 0.030543955, 0.030543955, 0.031543955, 0.031543955, 0.031543955, 0.031543955, 0.031543955, 0.031543955, 0.031543955, 0.031543955, 0.031543955, 0.032543954, 0.032543954, 0.032543954, 0.032543954, 0.032543954, 0.032543954, 0.032543954, 0.032543954, 0.032543954, 0.03354395, 0.03354395, 0.03354395, 0.03354395, 0.03354395, 0.03354395, 0.035456043, 0.038456053, 0.04045605, 0.043456048, 0.045456044, 0.048456043, 0.05045605, 0.05345605, 0.055456046, 0.055456046, 0.055456046, 0.054456048, 0.054456048, 0.054456048, 0.054456048, 0.054456048, 0.054456048, 0.020543965, 0.017543944, 0.013543947]
41 [0.0059780236, 0.0019780274, 0.0010219816, 0.0050219777, 0.009021974, 0.01302197, 0.016021967, 0.018021965, 0.018021965, 0.018021965, 0.019021964, 0.019021964, 0.019021964, 0.019021964, 0.04597802, 0.04597802, 0.04597802, 0.044978023, 0.044978023, 0.044978023, 0.044978023, 0.044978023, 0.044978023, 0.044978023, 0.044978023, 0.042978026, 0.039978027, 0.03597802, 0.03297802, 0.029978024, 0.025978029, 0.021021986, 0.021021986, 0.021021986, 0.022021985, 0.022021985, 0.022021985, 0.022021985, 0.022021985, 0.022021985, 0.022021985, 0.022021985, 0.022021985, 0.023021985, 0.023021985, 0.023021985, 0.023021985, 0.023021985, 0.023021985, 0.023021985, 0.023021985, 0.023021985, 0.023021985, 0.024021983, 0.024021983, 0.024021983, 0.024021983, 0.024021983, 0.024021983, 0.024021983, 0.024021983, 0.024021983, 0.024021983, 0.025021983, 0.025021983, 0.025021983, 0.025021983, 0.025021983, 0.025021983, 0.025021983, 0.025021983, 0.025021983, 0.025021983, 0.082978025, 0.082978025, 0.082978025, 0.082978025, 0.082978025, 0.082978025, 0.082978025, 0.082978025, 0.082978025, 0.082978025, 0.082978025, 0.082978025, 0.082978025, 0.082978025, 0.082978025, 0.082978025, 0.082978025, 0.082978025, 0.082978025, 0.082978025, 0.082978025, 0.02702198, 0.02702198, 0.02802198, 0.02802198, 0.02802198, 0.02802198, 0.02802198, 0.02802198, 0.02802198, 0.02802198, 0.02802198, 0.02802198, 0.02802198, 0.029021978, 0.029021978, 0.029021978, 0.029021978, 0.029021978, 0.029021978, 0.029021978, 0.029021978, 0.029021978, 0.029021978, 0.030021979, 0.030021979, 0.030021979, 0.030021979, 0.030021979, 0.030021979, 0.030021979, 0.030021979, 0.030021979, 0.030021979, 0.031021977, 0.031021977, 0.031021977, 0.031021977, 0.031021977, 0.031021977, 0.031021977, 0.031021977, 0.031021977, 0.031021977, 0.032021977, 0.032021977, 0.032021977, 0.032021977, 0.032021977, 0.032021977, 0.032021977, 0.032021977, 0.033021975, 0.033021975, 0.033021975, 0.033021975, 0.033021975, 0.033021975, 0.033021975, 0.033021975, 0.034021974, 0.034021974, 0.034021974, 0.034021974, 0.034021974, 0.034021974, 0.034021974, 0.034021974, 0.035021972, 0.03597802, 0.03797803, 0.040978026, 0.042978026, 0.04597802, 0.04797802, 0.050978027, 0.052978028, 0.054978024, 0.053978026, 0.053978026, 0.053978026, 0.053978026, 0.053978026, 0.053978026, 0.053978026, 0.053978026, 0.021021986, 0.017021967, 0.014021969]
42 [0.00464286, 6.4286374E-4, 0.0023571453, 0.0063571413, 0.009357139, 0.013357135, 0.017357131, 0.01835713, 0.01835713, 0.01835713, 0.01935713, 0.01935713, 0.01935713, 0.01935713, 0.045642857, 0.045642857, 0.045642857, 0.045642857, 0.04464286, 0.04464286, 0.04464286, 0.04464286, 0.04464286, 0.04464286, 0.04464286, 0.04164286, 0.038642865, 0.035642866, 0.032642856, 0.028642861, 0.025642864, 0.02135715, 0.02135715, 0.02135715, 0.02135715, 0.02135715, 0.02235715, 0.02235715, 0.02235715, 0.02235715, 0.02235715, 0.02235715, 0.02235715, 0.02235715, 0.02235715, 0.02335715, 0.02335715, 0.02335715, 0.02335715, 0.02335715, 0.02335715, 0.02335715, 0.02335715, 0.02335715, 0.02335715, 0.02335715, 0.024357148, 0.024357148, 0.024357148, 0.024357148, 0.024357148, 0.024357148, 0.024357148, 0.024357148, 0.024357148, 0.024357148, 0.024357148, 0.025357148, 0.025357148, 0.025357148, 0.025357148, 0.025357148, 0.025357148, 0.083642855, 0.083642855, 0.083642855, 0.083642855, 0.083642855, 0.083642855, 0.083642855, 0.083642855, 0.08264286, 0.08264286, 0.08264286, 0.08264286, 0.08264286, 0.08264286, 0.08264286, 0.08264286, 0.08264286, 0.08264286, 0.08264286, 0.08264286, 0.08264286, 0.027357146, 0.027357146, 0.027357146, 0.027357146, 0.027357146, 0.027357146, 0.027357146, 0.027357146, 0.028357144, 0.028357144, 0.028357144, 0.028357144, 0.028357144, 0.028357144, 0.028357144, 0.028357144, 0.028357144, 0.028357144, 0.028357144, 0.029357143, 0.029357143, 0.029357143, 0.029357143, 0.029357143, 0.029357143, 0.029357143, 0.029357143, 0.029357143, 0.029357143, 0.029357143, 0.030357143, 0.030357143, 0.030357143, 0.030357143, 0.030357143, 0.030357143, 0.030357143, 0.030357143, 0.030357143, 0.030357143, 0.031357143, 0.031357143, 0.031357143, 0.031357143, 0.031357143, 0.031357143, 0.031357143, 0.031357143, 0.031357143, 0.03235714, 0.03235714, 0.03235714, 0.03235714, 0.03235714, 0.03235714, 0.03235714, 0.03235714, 0.03235714, 0.03335714, 0.03335714, 0.03335714, 0.03335714, 0.03335714, 0.03335714, 0.03335714, 0.03335714, 0.034357138, 0.034357138, 0.034357138, 0.036642864, 0.039642863, 0.04164286, 0.04464286, 0.046642855, 0.049642865, 0.05164286, 0.05364286, 0.05464286, 0.05464286, 0.05464286, 0.05464286, 0.05464286, 0.05464286, 0.05464286, 0.05464286, 0.05364286, 0.01935713, 0.015357133]
43 [0.00464286, 6.4286374E-4, 0.0023571453, 0.0063571413, 0.009357139, 0.013357135, 0.017357131, 0.01835713, 0.01835713, 0.01835713, 0.01935713, 0.01935713, 0.01935713, 0.01935713, 0.045642857, 0.045642857, 0.045642857, 0.045642857, 0.04464286, 0.04464286, 0.04464286, 0.04464286, 0.04464286, 0.04464286, 0.04464286, 0.04164286, 0.038642865, 0.035642866, 0.032642856, 0.028642861, 0.025642864, 0.02135715, 0.02135715, 0.02135715, 0.02135715, 0.02135715, 0.02235715, 0.02235715, 0.02235715, 0.02235715, 0.02235715, 0.02235715, 0.02235715, 0.02235715, 0.02235715, 0.02335715, 0.02335715, 0.02335715, 0.02335715, 0.02335715, 0.02335715, 0.02335715, 0.02335715, 0.02335715, 0.02335715, 0.02335715, 0.024357148, 0.024357148, 0.024357148, 0.024357148, 0.024357148, 0.024357148, 0.024357148, 0.024357148, 0.024357148, 0.024357148, 0.024357148, 0.025357148, 0.025357148, 0.025357148, 0.025357148, 0.025357148, 0.025357148, 0.083642855, 0.083642855, 0.083642855, 0.083642855, 0.083642855, 0.083642855, 0.083642855, 0.083642855, 0.08264286, 0.08264286, 0.08264286, 0.08264286, 0.08264286, 0.08264286, 0.08264286, 0.08264286, 0.08264286, 0.08264286, 0.08264286, 0.08264286, 0.08264286, 0.027357146, 0.027357146, 0.027357146, 0.027357146, 0.027357146, 0.027357146, 0.027357146, 0.027357146, 0.028357144, 0.028357144, 0.028357144, 0.028357144, 0.028357144, 0.028357144, 0.028357144, 0.028357144, 0.028357144, 0.028357144, 0.028357144, 0.029357143, 0.029357143, 0.029357143, 0.029357143, 0.029357143, 0.029357143, 0.029357143, 0.029357143, 0.029357143, 0.029357143, 0.029357143, 0.030357143, 0.030357143, 0.030357143, 0.030357143, 0.030357143, 0.030357143, 0.030357143, 0.030357143, 0.030357143, 0.030357143, 0.031357143, 0.031357143, 0.031357143, 0.031357143, 0.031357143, 0.031357143, 0.031357143, 0.031357143, 0.031357143, 0.03235714, 0.03235714, 0.03235714, 0.03235714, 0.03235714, 0.03235714, 0.03235714, 0.03235714, 0.03235714, 0.03335714, 0.03335714, 0.03335714, 0.03335714, 0.03335714, 0.03335714, 0.03335714, 0.03335714, 0.034357138, 0.034357138, 0.034357138, 0.036642864, 0.039642863, 0.04164286, 0.04464286, 0.046642855, 0.049642865, 0.05164286, 0.05364286, 0.05464286, 0.05464286, 0.05464286, 0.05464286, 0.05464286, 0.05464286, 0.05464286, 0.05464286, 0.05364286, 0.01935713, 0.015357133]
44 [0.0047582425, 0.0017582453, 0.002241751, 0.00524176, 0.009241756, 0.012241754, 0.01624175, 0.020241745, 0.021241745, 0.022241743, 0.022241743, 0.022241743, 0.022241743, 0.022241743, 0.022241743, 0.04375824, 0.04375824, 0.04375824, 0.04275824, 0.04275824, 0.04275824, 0.04275824, 0.04275824, 0.04275824, 0.04275824, 0.04275824, 0.039758246, 0.036758248, 0.03375825, 0.030758241, 0.026758246, 0.023758247, 0.023241743, 0.023241743, 0.023241743, 0.024241766, 0.024241766, 0.024241766, 0.024241766, 0.024241766, 0.024241766, 0.024241766, 0.024241766, 0.024241766, 0.024241766, 0.024241766, 0.024241766, 0.024241766, 0.024241766, 0.024241766, 0.024241766, 0.025241764, 0.025241764, 0.025241764, 0.025241764, 0.025241764, 0.025241764, 0.025241764, 0.025241764, 0.025241764, 0.025241764, 0.025241764, 0.025241764, 0.025241764, 0.025241764, 0.025241764, 0.025241764, 0.025241764, 0.026241764, 0.026241764, 0.026241764, 0.026241764, 0.026241764, 0.026241764, 0.08275825, 0.08275825, 0.08275825, 0.08275825, 0.08275825, 0.08275825, 0.08275825, 0.08275825, 0.08275825, 0.08275825, 0.08275825, 0.08275825, 0.08275825, 0.08275825, 0.08275825, 0.08275825, 0.08275825, 0.08275825, 0.08275825, 0.08275825, 0.08275825, 0.08275825, 0.027241763, 0.027241763, 0.027241763, 0.027241763, 0.027241763, 0.027241763, 0.027241763, 0.027241763, 0.028241761, 0.028241761, 0.028241761, 0.028241761, 0.028241761, 0.028241761, 0.028241761, 0.028241761, 0.028241761, 0.028241761, 0.028241761, 0.028241761, 0.028241761, 0.028241761, 0.028241761, 0.028241761, 0.028241761, 0.028241761, 0.029241761, 0.029241761, 0.029241761, 0.029241761, 0.029241761, 0.029241761, 0.029241761, 0.029241761, 0.029241761, 0.029241761, 0.029241761, 0.029241761, 0.029241761, 0.029241761, 0.029241761, 0.029241761, 0.03024176, 0.03024176, 0.03024176, 0.03024176, 0.03024176, 0.03024176, 0.03024176, 0.03024176, 0.03024176, 0.03024176, 0.03024176, 0.03024176, 0.03024176, 0.03024176, 0.03124176, 0.03124176, 0.03124176, 0.03124176, 0.03124176, 0.03124176, 0.03124176, 0.03124176, 0.03124176, 0.03124176, 0.03124176, 0.03124176, 0.032241758, 0.032241758, 0.038758244, 0.040758245, 0.04375824, 0.04575825, 0.04875825, 0.050758246, 0.053758245, 0.05575824, 0.05675824, 0.05675824, 0.05675824, 0.05675824, 0.05675824, 0.05575824, 0.05575824, 0.05575824]
45 [0.011164841, 0.0081648445, 0.0041648364, 0.0011648393, 0.0018351579, 0.004835155, 0.008835163, 0.011835161, 0.015835157, 0.018835153, 0.02283515, 0.02683517, 0.02683517, 0.02683517, 0.02683517, 0.02683517, 0.02683517, 0.02683517, 0.041164838, 0.041164838, 0.041164838, 0.041164838, 0.041164838, 0.041164838, 0.041164838, 0.041164838, 0.041164838, 0.041164838, 0.041164838, 0.039164837, 0.036164843, 0.033164844, 0.030164836, 0.02716484, 0.02416484, 0.025835171, 0.025835171, 0.025835171, 0.025835171, 0.025835171, 0.025835171, 0.025835171, 0.025835171, 0.025835171, 0.025835171, 0.025835171, 0.025835171, 0.025835171, 0.025835171, 0.025835171, 0.025835171, 0.025835171, 0.025835171, 0.025835171, 0.025835171, 0.025835171, 0.025835171, 0.025835171, 0.025835171, 0.025835171, 0.025835171, 0.025835171, 0.025835171, 0.025835171, 0.025835171, 0.025835171, 0.025835171, 0.025835171, 0.025835171, 0.025835171, 0.025835171, 0.025835171, 0.025835171, 0.025835171, 0.025835171, 0.025835171, 0.025835171, 0.025835171, 0.08416484, 0.08416484, 0.08416484, 0.08416484, 0.08416484, 0.08416484, 0.08416484, 0.08416484, 0.08416484, 0.08416484, 0.08416484, 0.08416484, 0.08416484, 0.08416484, 0.08416484, 0.08416484, 0.08416484, 0.08416484, 0.08416484, 0.08416484, 0.08416484, 0.08416484, 0.024835171, 0.024835171, 0.024835171, 0.024835171, 0.024835171, 0.024835171, 0.024835171, 0.024835171, 0.024835171, 0.024835171, 0.024835171, 0.024835171, 0.024835171, 0.024835171, 0.024835171, 0.024835171, 0.024835171, 0.024835171, 0.024835171, 0.024835171, 0.024835171, 0.024835171, 0.024835171, 0.024835171, 0.024835171, 0.024835171, 0.024835171, 0.024835171, 0.024835171, 0.024835171, 0.024835171, 0.024835171, 0.024835171, 0.024835171, 0.024835171, 0.024835171, 0.024835171, 0.024835171, 0.024835171, 0.024835171, 0.024835171, 0.024835171, 0.024835171, 0.024835171, 0.024835171, 0.024835171, 0.024835171, 0.024835171, 0.024835171, 0.024835171, 0.024835171, 0.024835171, 0.024835171, 0.023835149, 0.023835149, 0.023835149, 0.023835149, 0.023835149, 0.023835149, 0.023835149, 0.023835149, 0.023835149, 0.023835149, 0.023835149, 0.023835149, 0.023835149, 0.023835149, 0.023835149, 0.023835149, 0.023835149, 0.023835149, 0.044164833, 0.047164842, 0.049164843, 0.052164838, 0.054164838, 0.056164835, 0.059164844, 0.06116484, 0.06216484, 0.06216484, 0.06216484]
46 [0.011164841, 0.0081648445, 0.0041648364, 0.0011648393, 0.0018351579, 0.004835155, 0.008835163, 0.011835161, 0.015835157, 0.018835153, 0.02283515, 0.02683517, 0.02683517, 0.02683517, 0.02683517, 0.02683517, 0.02683517, 0.02683517, 0.041164838, 0.041164838, 0.041164838, 0.041164838, 0.041164838, 0.041164838, 0.041164838, 0.041164838, 0.041164838, 0.041164838, 0.041164838, 0.039164837, 0.036164843, 0.033164844, 0.030164836, 0.02716484, 0.02416484, 0.025835171, 0.025835171, 0.025835171, 0.025835171, 0.025835171, 0.025835171, 0.025835171, 0.025835171, 0.025835171, 0.025835171, 0.025835171, 0.025835171, 0.025835171, 0.025835171, 0.025835171, 0.025835171, 0.025835171, 0.025835171, 0.025835171, 0.025835171, 0.025835171, 0.025835171, 0.025835171, 0.025835171, 0.025835171, 0.025835171, 0.025835171, 0.025835171, 0.025835171, 0.025835171, 0.025835171, 0.025835171, 0.025835171, 0.025835171, 0.025835171, 0.025835171, 0.025835171, 0.025835171, 0.025835171, 0.025835171, 0.025835171, 0.025835171, 0.025835171, 0.08416484, 0.08416484, 0.08416484, 0.08416484, 0.08416484, 0.08416484, 0.08416484, 0.08416484, 0.08416484, 0.08416484, 0.08416484, 0.08416484, 0.08416484, 0.08416484, 0.08416484, 0.08416484, 0.08416484, 0.08416484, 0.08416484, 0.08416484, 0.08416484, 0.08416484, 0.024835171, 0.024835171, 0.024835171, 0.024835171, 0.024835171, 0.024835171, 0.024835171, 0.024835171, 0.024835171, 0.024835171, 0.024835171, 0.024835171, 0.024835171, 0.024835171, 0.024835171, 0.024835171, 0.024835171, 0.024835171, 0.024835171, 0.024835171, 0.024835171, 0.024835171, 0.024835171, 0.024835171, 0.024835171, 0.024835171, 0.024835171, 0.024835171, 0.024835171, 0.024835171, 0.024835171, 0.024835171, 0.024835171, 0.024835171, 0.024835171, 0.024835171, 0.024835171, 0.024835171, 0.024835171, 0.024835171, 0.024835171, 0.024835171, 0.024835171, 0.024835171, 0.024835171, 0.024835171, 0.024835171, 0.024835171, 0.024835171, 0.024835171, 0.024835171, 0.024835171, 0.024835171, 0.023835149, 0.023835149, 0.023835149, 0.023835149, 0.023835149, 0.023835149, 0.023835149, 0.023835149, 0.023835149, 0.023835149, 0.023835149, 0.023835149, 0.023835149, 0.023835149, 0.023835149, 0.023835149, 0.023835149, 0.023835149, 0.044164833, 0.047164842, 0.049164843, 0.052164838, 0.054164838, 0.056164835, 0.059164844, 0.06116484, 0.06216484, 0.06216484, 0.06216484]
47 [0.020021982, 0.017021975, 0.014021977, 0.01102198, 0.008021982, 0.0050219735, 0.0020219765, 9.780206E-4, 0.0039780177, 0.0069780266, 0.009978024, 0.012978021, 0.016978018, 0.019978015, 0.02397801, 0.02697803, 0.030978028, 0.033978026, 0.033978026, 0.033978026, 0.033978026, 0.032978024, 0.032978024, 0.032978024, 0.03702198, 0.038021978, 0.038021978, 0.038021978, 0.038021978, 0.038021978, 0.038021978, 0.038021978, 0.038021978, 0.038021978, 0.039021976, 0.03602198, 0.033021983, 0.030021973, 0.027021976, 0.02402198, 0.021021983, 0.02997803, 0.02997803, 0.02997803, 0.02997803, 0.02897803, 0.02897803, 0.02897803, 0.02897803, 0.02897803, 0.02897803, 0.02897803, 0.027978031, 0.027978031, 0.027978031, 0.027978031, 0.027978031, 0.027978031, 0.027978031, 0.02697803, 0.02697803, 0.02697803, 0.02697803, 0.02697803, 0.02697803, 0.02697803, 0.02697803, 0.025978032, 0.025978032, 0.025978032, 0.025978032, 0.025978032, 0.025978032, 0.025978032, 0.025978032, 0.024978034, 0.024978034, 0.024978034, 0.024978034, 0.024978034, 0.024978034, 0.024978034, 0.024978034, 0.02397801, 0.02397801, 0.08602198, 0.08602198, 0.08602198, 0.08602198, 0.08602198, 0.08602198, 0.08602198, 0.08602198, 0.08602198, 0.08602198, 0.08602198, 0.08702198, 0.08702198, 0.08702198, 0.08702198, 0.08702198, 0.08702198, 0.08702198, 0.08702198, 0.08702198, 0.08702198, 0.08702198, 0.021978013, 0.021978013, 0.020978013, 0.020978013, 0.020978013, 0.020978013, 0.020978013, 0.020978013, 0.020978013, 0.020978013, 0.019978015, 0.019978015, 0.019978015, 0.019978015, 0.019978015, 0.019978015, 0.019978015, 0.019978015, 0.019978015, 0.018978015, 0.018978015, 0.018978015, 0.018978015, 0.018978015, 0.018978015, 0.018978015, 0.018978015, 0.017978016, 0.017978016, 0.017978016, 0.017978016, 0.017978016, 0.017978016, 0.017978016, 0.016978018, 0.016978018, 0.016978018, 0.016978018, 0.016978018, 0.016978018, 0.016978018, 0.016978018, 0.015978018, 0.015978018, 0.015978018, 0.015978018, 0.015978018, 0.015978018, 0.0149780195, 0.0149780195, 0.0149780195, 0.0149780195, 0.0149780195, 0.0149780195, 0.0149780195, 0.01397802, 0.01397802, 0.01397802, 0.01397802, 0.01397802, 0.01397802, 0.012978021, 0.012978021, 0.012978021, 0.012978021, 0.012978021, 0.012978021, 0.011978022, 0.011978022, 0.011978022, 0.011978022, 0.052021977, 0.055021975, 0.057021983, 0.06002198]
48 [0.020021982, 0.017021975, 0.014021977, 0.01102198, 0.008021982, 0.0050219735, 0.0020219765, 9.780206E-4, 0.0039780177, 0.0069780266, 0.009978024, 0.012978021, 0.016978018, 0.019978015, 0.02397801, 0.02697803, 0.030978028, 0.033978026, 0.033978026, 0.033978026, 0.033978026, 0.032978024, 0.032978024, 0.032978024, 0.03702198, 0.038021978, 0.038021978, 0.038021978, 0.038021978, 0.038021978, 0.038021978, 0.038021978, 0.038021978, 0.038021978, 0.039021976, 0.03602198, 0.033021983, 0.030021973, 0.027021976, 0.02402198, 0.021021983, 0.02997803, 0.02997803, 0.02997803, 0.02997803, 0.02897803, 0.02897803, 0.02897803, 0.02897803, 0.02897803, 0.02897803, 0.02897803, 0.027978031, 0.027978031, 0.027978031, 0.027978031, 0.027978031, 0.027978031, 0.027978031, 0.02697803, 0.02697803, 0.02697803, 0.02697803, 0.02697803, 0.02697803, 0.02697803, 0.02697803, 0.025978032, 0.025978032, 0.025978032, 0.025978032, 0.025978032, 0.025978032, 0.025978032, 0.025978032, 0.024978034, 0.024978034, 0.024978034, 0.024978034, 0.024978034, 0.024978034, 0.024978034, 0.024978034, 0.02397801, 0.02397801, 0.08602198, 0.08602198, 0.08602198, 0.08602198, 0.08602198, 0.08602198, 0.08602198, 0.08602198, 0.08602198, 0.08602198, 0.08602198, 0.08702198, 0.08702198, 0.08702198, 0.08702198, 0.08702198, 0.08702198, 0.08702198, 0.08702198, 0.08702198, 0.08702198, 0.08702198, 0.021978013, 0.021978013, 0.020978013, 0.020978013, 0.020978013, 0.020978013, 0.020978013, 0.020978013, 0.020978013, 0.020978013, 0.019978015, 0.019978015, 0.019978015, 0.019978015, 0.019978015, 0.019978015, 0.019978015, 0.019978015, 0.019978015, 0.018978015, 0.018978015, 0.018978015, 0.018978015, 0.018978015, 0.018978015, 0.018978015, 0.018978015, 0.017978016, 0.017978016, 0.017978016, 0.017978016, 0.017978016, 0.017978016, 0.017978016, 0.016978018, 0.016978018, 0.016978018, 0.016978018, 0.016978018, 0.016978018, 0.016978018, 0.016978018, 0.015978018, 0.015978018, 0.015978018, 0.015978018, 0.015978018, 0.015978018, 0.0149780195, 0.0149780195, 0.0149780195, 0.0149780195, 0.0149780195, 0.0149780195, 0.0149780195, 0.01397802, 0.01397802, 0.01397802, 0.01397802, 0.01397802, 0.01397802, 0.012978021, 0.012978021, 0.012978021, 0.012978021, 0.012978021, 0.012978021, 0.011978022, 0.011978022, 0.011978022, 0.011978022, 0.052021977, 0.055021975, 0.057021983, 0.06002198]
49 [0.024626372, 0.022626374, 0.019626377, 0.016626379, 0.01462637, 0.011626372, 0.008626375, 0.006626377, 0.0036263799, 6.263709E-4, 0.0023736262, 0.005373623, 0.008373621, 0.01137363, 0.014373627, 0.017373623, 0.020373622, 0.023373619, 0.026373615, 0.030373635, 0.03337363, 0.03737363, 0.040373627, 0.04437362, 0.043373622, 0.043373622, 0.043373622, 0.042373624, 0.042373624, 0.041373625, 0.031626377, 0.031626377, 0.031626377, 0.031626377, 0.032626376, 0.032626376, 0.032626376, 0.032626376, 0.033626374, 0.033626374, 0.033626374, 0.031626377, 0.02862638, 0.02562637, 0.022626374, 0.019626377, 0.016626379, 0.03637363, 0.035373632, 0.035373632, 0.035373632, 0.035373632, 0.03437363, 0.03437363, 0.03437363, 0.03337363, 0.03337363, 0.03337363, 0.03337363, 0.032373633, 0.032373633, 0.032373633, 0.032373633, 0.031373635, 0.031373635, 0.031373635, 0.031373635, 0.030373635, 0.030373635, 0.030373635, 0.030373635, 0.029373636, 0.029373636, 0.029373636, 0.029373636, 0.028373638, 0.028373638, 0.028373638, 0.028373638, 0.028373638, 0.027373614, 0.027373614, 0.027373614, 0.027373614, 0.026373615, 0.026373615, 0.026373615, 0.026373615, 0.026373615, 0.025373617, 0.025373617, 0.08562637, 0.08562637, 0.08562637, 0.08562637, 0.08562637, 0.08562637, 0.08562637, 0.08562637, 0.08562637, 0.08562637, 0.08662637, 0.08662637, 0.08662637, 0.08662637, 0.08662637, 0.08662637, 0.08662637, 0.08662637, 0.08662637, 0.08762637, 0.08762637, 0.08762637, 0.08762637, 0.08762637, 0.020373622, 0.019373622, 0.019373622, 0.019373622, 0.019373622, 0.018373623, 0.018373623, 0.018373623, 0.018373623, 0.018373623, 0.017373623, 0.017373623, 0.017373623, 0.017373623, 0.016373625, 0.016373625, 0.016373625, 0.016373625, 0.015373626, 0.015373626, 0.015373626, 0.015373626, 0.014373627, 0.014373627, 0.014373627, 0.014373627, 0.014373627, 0.013373627, 0.013373627, 0.013373627, 0.013373627, 0.012373629, 0.012373629, 0.012373629, 0.012373629, 0.01137363, 0.01137363, 0.01137363, 0.010373631, 0.010373631, 0.010373631, 0.010373631, 0.009373631, 0.009373631, 0.009373631, 0.009373631, 0.008373621, 0.008373621, 0.008373621, 0.0073736217, 0.0073736217, 0.0073736217, 0.0073736217, 0.0063736225, 0.0063736225, 0.0063736225, 0.005373623, 0.005373623, 0.005373623, 0.0043736245, 0.0043736245, 0.0043736245, 0.0033736252, 0.0033736252, 0.0033736252, 0.0023736262, 0.0023736262]
