0 -3.1415925
0 -3.1415925
0 -3.1415925
0 3.1415925
0 -0.0
0 -0.0
0 -0.0
0 -0.0
0 -0.0
1 -3.1415925
1 -3.1415925
1 -3.1415925
1 3.1415925
1 -0.0
1 -0.0
1 -0.0
1 -0.0
1 -0.0
2 -3.1415925
2 -3.1415925
2 -3.1415925
2 3.1415925
2 -0.0
2 -0.0
2 -0.0
2 -0.0
2 -0.0
3 -3.1415925
3 -3.1415925
3 -3.1415925
3 3.1415925
3 -0.0
3 -0.0
3 -0.0
3 -0.0
3 -0.0
4 -3.1415925
4 -3.1415925
4 -3.1415925
4 3.1415925
4 -0.0
4 -0.0
4 -0.0
4 -0.0
4 -0.0
5 -3.1415925
5 -3.1415925
5 -3.1415925
5 3.1415925
5 -0.0
5 -0.0
5 -0.0
5 -0.0
5 -0.0
6 -3.1415925
6 -3.1415925
6 -3.1415925
6 3.1415925
6 -0.0
6 -0.0
6 -0.0
6 -0.0
6 -0.0
7 -3.1415925
7 -3.1415925
7 -3.1415925
7 3.1415925
7 -0.0
7 -0.0
7 -0.0
7 -0.0
7 -0.0
8 -3.1415925
8 -3.1415925
8 -3.1415925
8 3.1415925
8 -0.0
8 -0.0
8 -0.0
8 -0.0
8 -0.0
9 -3.1415925
9 -3.1415925
9 -3.1415925
9 3.1415925
9 -0.0
9 -0.0
9 -0.0
9 -0.0
9 -0.0
10 -3.1415925
10 -3.1415925
10 -3.1415925
10 3.1415925
10 -0.0
10 -0.0
10 -0.0
10 -0.0
10 -0.0
11 -3.1415925
11 -3.1415925
11 -3.1415925
11 3.1415925
11 -0.0
11 -0.0
11 -0.0
11 -0.0
11 -0.0
12 -3.1415925
12 -3.1415925
12 -3.1415925
12 3.1415925
12 -0.0
12 -0.0
12 -0.0
12 -0.0
12 -0.0
13 -3.1415925
13 -3.1415925
13 -3.1415925
13 3.1415925
13 -0.0
13 -0.0
13 -0.0
13 -0.0
13 -0.0
14 -3.1415925
14 -3.1415925
14 -3.1415925
14 3.1415925
14 -0.0
14 -0.0
14 -0.0
14 -0.0
14 -0.0
15 -3.1415925
15 -3.1415925
15 -3.1415925
15 3.1415925
15 -0.0
15 -0.0
15 -0.0
15 -0.0
15 -0.0
16 -3.1415925
16 -3.1415925
16 -3.1415925
16 3.1415925
16 -0.0
16 -0.0
16 -0.0
16 -0.0
16 -0.0
17 -3.1415925
17 -3.1415925
17 -3.1415925
17 3.1415925
17 -0.0
17 -0.0
17 -0.0
17 -0.0
17 -0.0
18 -3.1415925
18 -3.1415925
18 -3.1415925
18 3.1415925
18 -0.0
18 -0.0
18 -0.0
18 -0.0
18 -0.0
19 -3.1415925
19 -3.1415925
19 -3.1415925
19 3.1415925
19 -0.0
19 -0.0
19 -0.0
19 -0.0
19 -0.0
20 -3.1415925
20 -3.1415925
20 -3.1415925
20 3.1415925
20 -0.0
20 -0.0
20 -0.0
20 -0.0
20 -0.0
21 -3.1415925
21 -3.1415925
21 -3.1415925
21 3.1415925
21 -0.0
21 -0.0
21 -0.0
21 -0.0
21 -0.0
22 -3.1415925
22 -3.1415925
22 -3.1415925
22 3.1415925
22 -0.0
22 -0.0
22 -0.0
22 -0.0
22 -0.0
23 -3.1415925
23 -3.1415925
23 -3.1415925
23 3.1415925
23 -0.0
23 -0.0
23 -0.0
23 -0.0
23 -0.0
24 -3.1415925
24 -3.1415925
24 -3.1415925
24 3.1415925
24 -0.0
24 -0.0
24 -0.0
24 -0.0
24 -0.0
25 -3.1415925
25 -3.1415925
25 -3.1415925
25 3.1415925
25 -0.0
25 -0.0
25 -0.0
25 -0.0
25 -0.0
26 -3.1415925
26 -3.1415925
26 -3.1415925
26 3.1415925
26 -0.0
26 -0.0
26 -0.0
26 -0.0
26 -0.0
27 -3.1415925
27 -3.1415925
27 -3.1415925
27 3.1415925
27 -0.0
27 -0.0
27 -0.0
27 -0.0
27 -0.0
28 -3.1415925
28 -3.1415925
28 -3.1415925
28 3.1415925
28 -0.0
28 -0.0
28 -0.0
28 -0.0
28 -0.0
29 -3.1415925
29 -3.1415925
29 -3.1415925
29 3.1415925
29 -0.0
29 -0.0
29 -0.0
29 -0.0
29 -0.0
30 -3.1415925
30 -3.1415925
30 -3.1415925
30 3.1415925
30 -0.0
30 -0.0
30 -0.0
30 -0.0
30 -0.0
31 -3.1415925
31 -3.1415925
31 -3.1415925
31 3.1415925
31 -0.0
31 -0.0
31 -0.0
31 -0.0
31 -0.0
32 -3.1415925
32 -3.1415925
32 -3.1415925
32 3.1415925
32 -0.0
32 -0.0
32 -0.0
32 -0.0
32 -0.0
33 -3.1415925
33 -3.1415925
33 -3.1415925
33 3.1415925
33 -0.0
33 -0.0
33 -0.0
33 -0.0
33 -0.0
34 3.1360822
34 3.134399
34 3.1305716
34 3.109868
34 0.031724393
34 0.011021053
34 0.007193605
34 0.0055106636
34 9.1948874E-7
35 3.1360822
35 3.134399
35 3.1305716
35 3.109868
35 0.031724393
35 0.011021053
35 0.007193605
35 0.0055106636
35 9.1948874E-7
36 3.1288607
36 3.1249728
36 3.1161325
36 3.0683944
36 0.07318885
36 0.025459241
36 0.016619604
36 0.012731939
36 -1.0926654E-5
37 3.1288607
37 3.1249728
37 3.1161325
37 3.0683944
37 0.07318885
37 0.025459241
37 0.016619604
37 0.012731939
37 -1.0926654E-5
38 3.1288607
38 3.1249728
38 3.1161325
38 3.0683944
38 0.07318885
38 0.025459241
38 0.016619604
38 0.012731939
38 -1.0926654E-5
39 3.1297219
39 3.1260967
39 3.1178539
39 3.07333
39 0.06825439
39 0.02373802
39 0.015495672
39 0.01187083
39 -1.0582022E-5
40 3.129452
40 3.1257446
40 3.1173143
40 3.0717812
40 0.06979769
40 0.024277132
40 0.015847728
40 0.012140637
40 -1.7443916E-5
41 3.1293755
41 3.1256442
41 3.1171606
41 3.0713363
41 0.07023281
41 0.024429569
41 0.015947664
41 0.012217284
41 -2.9370029E-5
42 3.1293755
42 3.1256442
42 3.1171606
42 3.0713363
42 0.07023281
42 0.024429569
42 0.015947664
42 0.012217284
42 -2.9370029E-5
43 3.129499
43 3.1256142
43 3.1167934
43 3.0659158
43 0.06431054
43 0.0235961
43 0.015598104
43 0.012093711
43 -0.014361807
44 3.129499
44 3.1256142
44 3.1167934
44 3.0659158
44 0.06431054
44 0.0235961
44 0.015598104
44 0.012093711
44 -0.014361807
45 3.1288843
45 3.1246104
45 3.1149018
45 3.0549874
45 0.06316312
45 0.024247814
45 0.016210983
45 0.012708434
45 -0.02769372
46 3.1288843
46 3.1246104
46 3.1149018
46 3.0549874
46 0.06316312
46 0.024247814
46 0.016210983
46 0.012708434
46 -0.02769372
47 3.1303523
47 3.1264274
47 3.1174977
47 3.0587835
47 0.052997954
47 0.021059927
47 0.014208532
47 0.011240588
47 -0.03880021
48 3.1303523
48 3.1264274
48 3.1174977
48 3.0587835
48 0.052997954
48 0.021059927
48 0.014208532
48 0.011240588
48 -0.03880021
49 3.1303246
49 3.12631
49 3.1171637
49 3.0547638
49 0.051670667
49 0.02090522
49 0.014173143
49 0.011268259
49 -0.044864547
