0 [0.0, 0.0, 0.0, 0.0, 0.0, 0.0, 0.0, 0.0]
1 [0.0, 0.0, 0.0, 0.0, 0.0, 0.0, 0.0, 0.0]
2 [0.0, 0.0, 0.0, 0.0, 0.0, 0.0, 0.0, 0.0]
3 [0.0, 0.0, 0.0, 0.0, 0.0, 0.0, 0.0, 0.0]
4 [0.0, 0.0, 0.0, 0.0, 0.0, 0.0, 0.0, 0.0]
5 [0.0, 0.0, 0.0, 0.0, 0.0, 0.0, 0.0, 0.0]
6 [0.0, 0.0, 0.0, 0.0, 0.0, 0.0, 0.0, 0.0]
7 [0.0, 0.0, 0.0, 0.0, 0.0, 0.0, 0.0, 0.0]
8 [0.0, 0.0, 0.0, 0.0, 0.0, 0.0, 0.0, 0.0]
9 [0.0, 0.0, 0.0, 0.0, 0.0, 0.0, 0.0, 0.0]
10 [0.0, 0.0, 0.0, 0.0, 0.0, 0.0, 0.0, 0.0]
11 [0.0, 0.0, 0.0, 0.0, 0.0, 0.0, 0.0, 0.0]
12 [0.0, 0.0, 0.0, 0.0, 0.0, 0.0, 0.0, 0.0]
13 [0.0, 0.0, 0.0, 0.0, 0.0, 0.0, 0.0, 0.0]
14 [0.0, 0.0, 0.0, 0.0, 0.0, 0.0, 0.0, 0.0]
15 [0.0, 0.0, 0.0, 0.0, 0.0, 0.0, 0.0, 0.0]
16 [0.0, 0.0, 0.0, 0.0, 0.0, 0.0, 0.0, 0.0]
17 [0.0, 0.0, 0.0, 0.9768226, 0.97682273, 0.0, 0.0, 0.7868698]
18 [0.0, 0.0, 0.0, 0.9783458, 0.9783428, 0.0, 0.0, 0.7868783]
19 [0.0, 0.0, 0.0, 0.9782172, 0.9782125, 0.0, 0.0, 0.78687716]
20 [0.0, 0.0, 0.0, 0.97824365, 0.97823524, 0.0, 0.0, 0.786878]
21 [0.0, 0.0, 0.0, 0.9801684, 0.97598535, 0.0, 0.0, 0.7856726]
22 [0.0, 0.0, 0.0, 0.9803434, 0.9722927, 0.0, 0.0, 0.78460723]
23 [0.0, 0.0, 0.0, 0.97973007, 0.9684768, 0.0, 0.0, 0.78367877]
24 [0.0, 0.0, 0.0, 0.97973007, 0.9684768, 0.0, 0.0, 0.78367877]
25 [0.0, 0.0, 0.0, 0.97950995, 0.9659115, 0.0, 0.0, 0.7832704]
26 [0.0, 0.0, 0.0, 0.9723319, 0.9585583, 0.0, 0.0, 0.7827234]
27 [0.0, 0.0, 0.0, 0.9355753, 0.92744464, 0.0, 0.0, 0.7819341]
28 [0.0, 0.0, 0.0, 0.9088876, 0.91062737, 0.0, 0.0, 0.78375995]
29 [0.0, 0.0, 0.0, 0.8774452, 0.8936458, 0.0, 0.0, 0.783178]
30 [0.0, 0.0, 0.0, 0.85155463, 0.8682182, 0.0, 0.0, 0.77752227]
31 [0.0, 0.0, 0.0, 0.84081185, 0.8548242, 0.0, 0.0, 0.0]
32 [0.0, 0.0, 0.0, 0.0, 0.8268116, 0.0, 0.0, 0.0]
33 [0.0, 0.0, 0.0, 0.0, 0.79508686, 0.779648, 0.0, 0.0]
34 [0.0, 0.0, 0.0, 0.0, 0.76001173, 0.7511585, 0.0, 0.0]
35 [0.0, 0.0, 0.0, 0.0, 0.7240384, 0.7162447, 0.0, 0.0]
36 [0.0, 0.0, 0.0, 0.0, 0.67050934, 0.66326654, 0.0, 0.0]
37 [0.0, 0.0, 0.0, 0.0, 0.63292897, 0.62622064, 0.0, 0.0]
38 [0.0, 0.0, 0.0, 0.0, 0.63292897, 0.62622064, 0.0, 0.0]
39 [0.0, 0.0, 0.0, 0.0, 0.5949222, 0.58875126, 0.0, 0.0]
40 [0.0, 0.0, 0.0, 0.0, 0.5949222, 0.58875126, 0.0, 0.0]
41 [0.0, 0.0, 0.0, 0.0, 0.5583534, 0.55271685, 0.0, 0.0]
42 [0.0, 0.0, 0.0, 0.0, 0.5253512, 0.51876205, 0.0, 0.0]
43 [0.0, 0.0, 0.0, 0.0, 0.5096321, 0.5023974, 0.0, 0.0]
44 [0.0, 0.0, 0.0, 0.0, 0.49181262, 0.484886, 0.0, 0.0]
45 [0.0, 0.0, 0.0, 0.0, 0.47233889, 0.4663605, 0.0, 0.0]
46 [0.0, 0.0, 0.0, 0.0, 0.4524505, 0.4475423, 0.0, 0.0]
47 [0.0, 0.0, 0.0, 0.0, 0.4524505, 0.4475423, 0.0, 0.0]
48 [0.0, 0.0, 0.0, 0.0, 0.41278136, 0.40997648, 0.0, 0.0]
49 [0.0, 0.0, 0.0, 0.0, 0.41278136, 0.40997648, 0.0, 0.0]
