0 [0.0, 0.0, 0.0, 0.0, 0.0, 0.0, 0.0, 0.0]
1 [0.0, 0.0, 0.0, 0.0, 0.0, 0.0, 0.0, 0.0]
2 [0.0, 0.0, 0.0, 0.0, 0.0, 0.0, 0.0, 0.0]
3 [0.0, 0.0, 0.0, 0.0, 0.0, 0.0, 0.0, 0.0]
4 [0.0, 0.0, 0.0, 0.0, 0.0, 0.0, 0.0, 0.0]
5 [0.0, 0.0, 0.0, 0.0, 0.0, 0.0, 0.0, 0.0]
6 [0.0, 0.0, 0.0, 0.0, 0.0, 0.0, 0.0, 0.0]
7 [0.0, 0.0, 0.0, 0.0, 0.0, 0.0, 0.0, 0.0]
8 [0.0, 0.0, 0.0, 0.0, 0.0, 0.0, 0.0, 0.0]
9 [0.0, 0.0, 0.0, 0.0, 0.0, 0.0, 0.0, 0.0]
10 [0.0, 0.0, 0.0, 0.0, 0.0, 0.0, 0.0, 0.0]
11 [0.0, 0.0, 0.0, 0.0, 0.0, 0.0, 0.0, 0.0]
12 [0.040120885, 0.040120885, 0.026879122, 0.08312088, 0.08312088, 0.025879122, 0.025879122, 0.062120877]
13 [0.14160562, 0.15061662, 0.13960561, 0.9733944, 0.9743944, 0.023494508, 0.02149451, 0.4415055]
14 [0.030494502, 0.039505504, 0.028494503, 0.0845055, 0.08550549, 0.023494508, 0.02149451, 0.0665055]
15 [0.10082051, 0.104820505, 0.09882051, 1.0191795, 1.0201795, 0.020153854, 0.017153857, 0.13151282]
16 [0.03415384, 0.03815384, 0.03215384, 0.9608462, 0.46184614, 0.020153854, 0.017153857, 0.43984616]
17 [0.0361978, 0.9428022, 0.13480219, 0.1298022, 0.9881978, 0.9198022, 0.014802187, 0.1601978]
18 [0.0361978, 0.042802207, 0.03480219, 0.029802196, 0.9631978, 0.019802205, 0.014802187, 0.93519783]
19 [0.04333517, 0.08912638, 0.07812636, 0.07312637, 1.0488735, 1.0498736, 0.011664827, 0.043796707]
20 [0.04333517, 0.05066484, 0.039664824, 0.03466483, 0.96233517, 0.088335164, 0.011664827, 0.88033515]
21 [0.044456046, 0.929544, 0.16654396, 0.16254395, 0.96145606, 0.96345603, 0.011543949, 0.0074560447]
22 [0.044456046, 0.054543957, 0.041543968, 0.03754395, 0.96145606, 0.08845604, 0.011543949, 0.88245606]
23 [0.22249207, 1.0320635, 1.0190635, 0.037285708, 0.08671428, 0.26649207, 0.18906349, 0.18549207]
24 [0.044714287, 0.054285713, 0.041285727, 0.037285708, 0.96171427, 0.08871428, 0.011285707, 0.8827143]
25 [0.039499994, 0.046500005, 0.03749999, 0.032499995, 0.0875, 0.08849999, 0.01349999, 0.006499997]
26 [0.039499994, 0.046500005, 0.03749999, 0.032499995, 0.0875, 0.08849999, 0.01349999, 0.006499997]
27 [0.039499994, 0.046500005, 0.03749999, 0.032499995, 0.0875, 0.08849999, 0.01349999, 0.006499997]
28 [0.031258237, 1.0165195, 0.050480463, 0.10596398, 1.0615195, 0.024258245, 0.023258245, 0.8147418]
29 [0.031258237, 0.038741767, 0.02825824, 0.08374176, 0.08374176, 0.024258245, 0.023258245, 0.06474177]
30 [0.14172527, 0.94172525, 0.12627473, 0.98272526, 0.98272526, 0.027274726, 0.028274726, 0.9587253]
31 [0.041725278, 0.041725278, 0.026274728, 0.08272528, 0.08272528, 0.027274726, 0.028274726, 0.058725275]
32 [0.045736264, 0.91973627, 0.02526374, 0.95873624, 0.95773625, 0.031263735, 0.03326373, 0.93073624]
33 [0.045736264, 0.044736266, 0.02526374, 0.08373626, 0.08273626, 0.031263735, 0.03326373, 0.055736266]
34 [0.051461544, 0.04046154, 0.08446153, 0.08446153, 0.03153846, 0.036538456, 0.04153845, 0.05046154]
35 [0.051461544, 0.04046154, 0.08446153, 0.08446153, 0.03153846, 0.036538456, 0.04153845, 0.05046154]
36 [0.054214288, 0.03421428, 0.08521428, 0.83521426, 0.032785714, 0.038785707, 0.043785702, 0.79821426]
37 [0.85617584, 0.41682416, 0.08617583, 0.8851758, 0.83382416, 0.8408242, 0.4468242, 0.79617584]
38 [0.8581813, 0.015818676, 0.08618132, 0.8851813, 0.8348187, 0.8428187, 0.64881873, 0.84518135]
39 [0.058181312, 0.015818676, 0.08618132, 0.83518136, 0.034818683, 0.042818673, 0.048818693, 0.79518133]
40 [0.059956048, 0.0150439525, 0.08695605, 0.085956044, 0.03504396, 0.044043947, 0.050043967, 0.043956038]
41 [0.059956048, 0.0150439525, 0.08695605, 0.085956044, 0.03504396, 0.044043947, 0.050043967, 0.043956038]
42 [0.059956048, 0.0150439525, 0.08695605, 0.085956044, 0.03504396, 0.044043947, 0.050043967, 0.043956038]
43 [1.0104835, 0.014516482, 0.08748352, 1.0354835, 0.035516486, 0.04351648, 0.9995165, 0.04448352]
44 [0.06048352, 0.014516482, 0.08748352, 0.8354835, 0.035516486, 0.04351648, 0.049516473, 0.79448354]
45 [0.06048352, 0.014516482, 0.08748352, 0.085483514, 0.035516486, 0.04351648, 0.049516473, 0.04448352]
46 [0.28126618, 0.014956045, 0.087043956, 0.08504395, 0.03495605, 0.042956043, 1.0221783, 1.0162661]
47 [0.059043955, 0.014956045, 0.087043956, 0.96004397, 0.03495605, 0.042956043, 0.049956035, 0.91904396]
48 [0.0581978, 0.0158022, 0.0871978, 0.08519781, 0.034802206, 0.0418022, 0.048802193, 0.0451978]
49 [1.0513955, 0.016109895, 0.08589011, 0.08489011, 0.03410988, 0.042109895, 0.08757143, 0.08335164]
