0 -3.1415925
0 -3.1415925
0 -3.1415925
0 3.1415925
0 -0.0
0 -0.0
0 -0.0
0 -0.0
0 -0.0
1 -3.1415925
1 -3.1415925
1 -3.1415925
1 3.1415925
1 -0.0
1 -0.0
1 -0.0
1 -0.0
1 -0.0
2 -3.1415925
2 -3.1415925
2 -3.1415925
2 3.1415925
2 -0.0
2 -0.0
2 -0.0
2 -0.0
2 -0.0
3 -3.1415925
3 -3.1415925
3 -3.1415925
3 3.1415925
3 -0.0
3 -0.0
3 -0.0
3 -0.0
3 -0.0
4 -3.1415925
4 -3.1415925
4 -3.1415925
4 3.1415925
4 -0.0
4 -0.0
4 -0.0
4 -0.0
4 -0.0
5 -3.1415925
5 -3.1415925
5 -3.1415925
5 3.1415925
5 -0.0
5 -0.0
5 -0.0
5 -0.0
5 -0.0
6 -3.1415925
6 -3.1415925
6 -3.1415925
6 3.1415925
6 -0.0
6 -0.0
6 -0.0
6 -0.0
6 -0.0
7 -3.1415925
7 -3.1415925
7 -3.1415925
7 3.1415925
7 -0.0
7 -0.0
7 -0.0
7 -0.0
7 -0.0
8 -3.1415925
8 -3.1415925
8 -3.1415925
8 3.1415925
8 -0.0
8 -0.0
8 -0.0
8 -0.0
8 -0.0
9 -3.1415925
9 -3.1415925
9 -3.1415925
9 3.1415925
9 -0.0
9 -0.0
9 -0.0
9 -0.0
9 -0.0
10 -3.1415925
10 -3.1415925
10 -3.1415925
10 3.1415925
10 -0.0
10 -0.0
10 -0.0
10 -0.0
10 -0.0
11 -3.1415925
11 -3.1415925
11 -3.1415925
11 3.1415925
11 -0.0
11 -0.0
11 -0.0
11 -0.0
11 -0.0
12 -3.1415925
12 -3.1415925
12 -3.1415925
12 3.1415925
12 -0.0
12 -0.0
12 -0.0
12 -0.0
12 -0.0
13 -3.1415925
13 -3.1415925
13 -3.1415925
13 3.1415925
13 -0.0
13 -0.0
13 -0.0
13 -0.0
13 -0.0
14 3.134978
14 3.1329947
14 3.1284802
14 3.1045918
14 0.039213974
14 0.013347542
14 0.008672125
14 0.006614587
14 0.00512552
15 3.134978
15 3.1329947
15 3.1284802
15 3.1045918
15 0.039213974
15 0.013347542
15 0.008672125
15 0.006614587
15 0.00512552
16 3.1294124
16 3.1261203
16 3.118552
16 3.0825827
16 0.08612824
16 0.025838392
16 0.016355006
16 0.012180353
16 0.03304555
17 3.1294124
17 3.1261203
17 3.118552
17 3.0825827
17 0.08612824
17 0.025838392
17 0.016355006
17 0.012180353
17 0.03304555
18 3.12985
18 3.1272638
18 3.1210706
18 3.0957172
18 0.12778082
18 0.027457682
18 0.0164877
18 0.011742823
18 0.08329688
19 3.12985
19 3.1272638
19 3.1210706
19 3.0957172
19 0.12778082
19 0.027457682
19 0.0164877
19 0.011742823
19 0.08329688
20 3.12985
20 3.1272638
20 3.1210706
20 3.0957172
20 0.12778082
20 0.027457682
20 0.0164877
20 0.011742823
20 0.08329688
21 3.1310823
21 3.1290753
21 3.1240587
21 3.1049654
21 0.17253612
21 0.026258234
21 0.015192248
21 0.010510524
21 0.11455323
22 3.1306775
22 3.128882
22 3.1241333
22 3.1070795
22 0.33881828
22 0.029149882
22 0.016227785
22 0.010915366
22 0.14385836
23 3.1313162
23 3.1298287
23 3.125665
23 3.1112823
23 0.9012928
23 0.029002912
23 0.01562612
23 0.010276466
23 0.16650689
24 3.1320164
24 3.1307516
24 3.1270483
24 3.11455
24 2.2013936
24 0.028084336
24 0.014784919
24 0.00957623
24 0.18141425
25 3.1324027
25 3.1312423
25 3.127765
25 3.1161482
25 2.5633447
25 0.027456012
25 0.014291878
25 0.009190151
25 0.18837625
26 3.1324735
26 3.1313136
26 3.12785
26 3.116261
26 2.5259552
26 0.027159492
26 0.01416426
26 0.009119136
26 0.18721034
27 3.1324735
27 3.1313136
27 3.12785
27 3.116261
27 2.5259552
27 0.027159492
27 0.01416426
27 0.009119136
27 0.18721034
28 3.132347
28 3.1311023
28 3.1274931
28 3.115257
28 1.974725
28 0.026904603
28 0.014231124
28 0.009245599
28 0.17842521
29 3.1311464
29 3.129372
29 3.1247396
29 3.107915
29 0.27481666
29 0.027505185
29 0.015439487
29 0.010446236
29 0.13780649
30 3.1311464
30 3.129372
30 3.1247396
30 3.107915
30 0.27481666
30 0.027505185
30 0.015439487
30 0.010446236
30 0.13780649
31 3.1311464
31 3.129372
31 3.1247396
31 3.107915
31 0.27481666
31 0.027505185
31 0.015439487
31 0.010446236
31 0.13780649
32 3.1311464
32 3.129372
32 3.1247396
32 3.107915
32 0.27481666
32 0.027505185
32 0.015439487
32 0.010446236
32 0.13780649
33 3.1300738
33 3.127379
33 3.12102
33 3.0939896
33 0.10884653
33 0.026179645
33 0.01596766
33 0.011518964
33 0.06915292
34 3.1295905
34 3.126284
34 3.1187003
34 3.0820148
34 0.08200389
34 0.025227096
34 0.01604596
34 0.012002276
34 0.028014315
35 3.1295905
35 3.126284
35 3.1187003
35 3.0820148
35 0.08200389
35 0.025227096
35 0.01604596
35 0.012002276
35 0.028014315
36 3.130309
36 3.1267223
36 3.118577
36 3.0722544
36 0.060976442
36 0.022128964
36 0.014590077
36 0.011283755
36 -0.011345947
37 3.130309
37 3.1267223
37 3.118577
37 3.0722544
37 0.060976442
37 0.022128964
37 0.014590077
37 0.011283755
37 -0.011345947
38 3.1305368
38 3.1266115
38 3.1176703
38 3.0570612
38 0.050940294
38 0.02054627
38 0.01391809
38 0.011056062
38 -0.043819252
39 3.1305368
39 3.1266115
39 3.1176703
39 3.0570612
39 0.050940294
39 0.02054627
39 0.01391809
39 0.011056062
39 -0.043819252
40 3.1304598
40 3.1261628
40 3.116286
40 3.0361044
40 0.045930285
40 0.019864552
40 0.013727862
40 0.011132907
40 -0.069468185
41 3.1304598
41 3.1261628
41 3.116286
41 3.0361044
41 0.045930285
41 0.019864552
41 0.013727862
41 0.011132907
41 -0.069468185
42 3.1301734
42 3.1254373
42 3.114411
42 3.0041857
42 0.043096874
42 0.019677257
42 0.013828725
42 0.011419239
42 -0.09223062
43 3.1301734
43 3.1254373
43 3.114411
43 3.0041857
43 0.043096874
43 0.019677257
43 0.013828725
43 0.011419239
43 -0.09223062
44 3.1301734
44 3.1254373
44 3.114411
44 3.0041857
44 0.043096874
44 0.019677257
44 0.013828725
44 0.011419239
44 -0.09223062
45 3.1310177
45 3.1263444
45 3.1152952
45 2.972946
45 0.037048195
45 0.0176728
45 0.012601264
45 0.0105750915
45 -0.11280099
46 3.1310177
46 3.1263444
46 3.1152952
46 2.972946
46 0.037048195
46 0.0176728
46 0.012601264
46 0.0105750915
46 -0.11280099
47 3.1308205
47 3.1258125
47 3.1137896
47 2.9085042
47 0.035646494
47 0.017569005
47 0.012670557
47 0.010772169
47 -0.12954214
48 3.130872
48 3.1256738
48 3.113008
48 2.8112655
48 0.0338932
48 0.01713767
48 0.01247428
48 0.010720833
48 -0.14359866
49 3.130872
49 3.1256738
49 3.113008
49 2.8112655
49 0.0338932
49 0.01713767
49 0.01247428
49 0.010720833
49 -0.14359866
