0 [1.0, 1.0, 1.0, 1.0, 1.0, 1.0, 1.0, 1.0]
1 [1.0, 1.0, 1.0, 1.0, 1.0, 1.0, 1.0, 1.0]
2 [1.0, 1.0, 1.0, 1.0, 1.0, 1.0, 1.0, 1.0]
3 [1.0, 1.0, 1.0, 1.0, 1.0, 1.0, 1.0, 1.0]
4 [1.0, 1.0, 1.0, 1.0, 1.0, 1.0, 1.0, 1.0]
5 [1.0, 1.0, 1.0, 1.0, 1.0, 1.0, 1.0, 1.0]
6 [1.0, 1.0, 1.0, 1.0, 1.0, 1.0, 1.0, 1.0]
7 [1.0, 1.0, 1.0, 1.0, 1.0, 1.0, 1.0, 1.0]
8 [1.0, 1.0, 1.0, 1.0, 1.0, 1.0, 1.0, 1.0]
9 [1.0, 1.0, 1.0, 1.0, 1.0, 1.0, 1.0, 1.0]
10 [1.0, 1.0, 1.0, 1.0, 1.0, 1.0, 1.0, 1.0]
11 [1.0, 1.0, 1.0, 1.0, 1.0, 1.0, 1.0, 1.0]
12 [1.0, 1.0002337, 1.0942376, 1.6963267, 1.0942376, 1.0002337, 1.0, 1.0]
13 [1.0, 1.0001967, 1.0795817, 1.6805453, 1.7756748, 1.0944343, 1.0002337, 1.0]
14 [1.0, 1.0001497, 1.0606003, 1.5256732, 1.6467113, 1.0794978, 1.0001967, 1.0]
15 [1.0, 1.0001132, 1.0458316, 1.3980083, 1.4924505, 1.0605768, 1.0001498, 1.0]
16 [1.0, 1.0000856, 1.0346407, 1.3008516, 1.3724097, 1.045813, 1.0001134, 1.0]
17 [1.0, 1.0000646, 1.0261548, 1.2271541, 1.2811934, 1.0345919, 1.0000856, 1.0]
18 [1.0, 1.0000489, 1.0197674, 1.1716796, 1.2125223, 1.0261441, 1.0000647, 1.0]
19 [1.0, 0.99976945, 0.907036, 0.33242586, 1.0525715, 1.0194721, 1.0000489, 1.0]
20 [1.0, 0.9997966, 0.91772175, 0.30079132, 0.23111832, 0.9068438, 0.99976957, 1.0]
21 [1.0, 1.0000783, 1.0313715, 1.1512601, 0.42531896, 0.91803044, 0.9997966, 1.0]
22 [1.0, 1.0000794, 1.031863, 1.173862, 0.56854045, 0.93735445, 0.9998445, 1.0]
23 [1.0, 1.0000612, 1.0248109, 1.229248, 1.3703194, 1.0468364, 1.000116, 1.0]
24 [1.0, 1.0000463, 1.0187836, 1.1815872, 1.3407824, 1.0436387, 1.000108, 1.0]
25 [1.0, 1.000035, 1.0141994, 1.1377525, 1.2612419, 1.0334797, 1.0000829, 1.0]
26 [1.0, 1.0000265, 1.0107319, 1.1041423, 1.1976664, 1.0253338, 1.0000627, 1.0]
27 [1.0, 1.00002, 1.0081029, 1.0786322, 1.1492574, 1.0191295, 1.0000473, 1.0]
28 [1.0, 0.9997479, 0.89832675, 0.26290962, 1.0050099, 1.0141907, 1.0000358, 1.0]
29 [1.0, 0.99977976, 0.91116947, 0.35434186, 0.9917989, 1.0106955, 1.0000271, 1.0]
30 [1.0, 0.9998319, 0.9319344, 0.3993275, 0.19655961, 0.90027636, 0.99975324, 1.0]
31 [1.0, 0.99987286, 0.9484835, 0.5337095, 0.30415177, 0.9126428, 0.9997838, 1.0]
32 [1.0, 0.99990386, 0.9610602, 0.64683664, 0.4687002, 0.9332478, 0.9998348, 1.0]
33 [1.0, 0.9999328, 0.9727763, 0.7522149, 0.6219332, 0.95243543, 0.9998823, 1.0]
34 [1.0, 1.0, 0.999911, 0.9640996, 0.7347298, 0.9640996, 0.999911, 1.0]
35 [1.0, 0.9999617, 0.9844651, 0.85860217, 0.7842446, 0.9728557, 0.9999328, 1.0]
36 [1.0, 0.99997103, 0.98825896, 0.89313376, 0.8369355, 0.97948474, 0.9999492, 1.0]
37 [1.0, 0.9999781, 0.9911263, 0.91923225, 0.87675846, 0.9844949, 0.9999616, 1.0]
38 [1.0, 0.9999835, 0.99330014, 0.9390181, 0.90694916, 0.98829323, 0.99997103, 1.0]
39 [1.0, 0.9999875, 0.99493635, 0.9539108, 0.9296737, 0.9913857, 1.0942032, 1.6962347]
40 [1.0, 0.9999906, 0.99617296, 0.96516657, 0.9468485, 0.99351007, 1.0794775, 1.5873861]
41 [1.0, 0.99999285, 0.9971105, 0.97369975, 0.95986915, 0.9951011, 1.0605111, 1.4472129]
42 [1.0, 1.0, 1.0, 1.0, 1.0, 1.0001135, 1.0457731, 1.3382202]
43 [1.0, 1.0, 0.99999285, 0.997123, 0.9787415, 0.99720865, 1.0345547, 1.2553794]
44 [1.0, 1.0, 1.0, 1.0, 1.0, 1.0, 1.0, 1.0]
45 [1.0, 1.0, 1.0, 1.0, 1.0, 1.000049, 1.0197421, 1.1458757]
46 [1.0, 1.0, 1.0, 1.0, 1.0, 0.99976975, 0.90710866, 0.31362087]
47 [1.0, 1.0, 1.0, 1.0, 1.0, 0.9997963, 0.9178066, 0.39266866]
48 [1.0, 1.0, 1.0, 1.0, 1.0, 0.9998442, 0.9371506, 0.53560245]
49 [1.0, 1.0, 1.0, 1.0, 1.0, 0.9998823, 0.9525026, 0.64903927]
