0 [0.0, 0.0, 0.0, 0.0, 0.0, 0.0, 0.0, 0.0]
1 [0.0, 0.0, 0.0, 0.0, 0.0, 0.0, 0.0, 0.0]
2 [0.0, 0.0, 0.0, 0.0, 0.0, 0.0, 0.0, 0.0]
3 [0.0, 0.0, 0.0, 0.375, 0.85714287, 0.85714287, 0.0, 0.875]
4 [0.0, 0.0, 0.0, 0.0, 0.0, 0.0, 0.0, 0.0]
5 [0.0, 0.0, 0.0, 0.5, 0.5, 0.0, 0.0, 0.5]
6 [0.0, 0.0, 0.0, 0.375, 0.375, 0.0, 0.0, 0.875]
7 [0.0, 0.0, 0.0, 0.0, 0.0, 0.0, 0.0, 0.0]
8 [0.6666667, 0.6666667, 0.6666667, 0.6666667, 0.375, 0.0, 0.0, 0.875]
9 [0.0, 0.0, 0.0, 0.0, 0.0, 0.0, 0.0, 0.0]
10 [0.85714287, 0.42857143, 0.85714287, 0.85714287, 0.0, 0.0, 0.0, 0.85714287]
11 [0.4, 0.8, 0.8, 0.8, 0.8, 0.0, 0.0, 0.875]
12 [0.0, 0.0, 0.0, 0.0, 0.0, 0.0, 0.0, 0.0]
13 [0.2857143, 0.2857143, 0.85714287, 0.85714287, 0.85714287, 0.0, 0.0, 0.875]
14 [0.0, 0.0, 0.0, 0.375, 0.375, 0.0, 0.0, 0.875]
15 [0.0, 0.0, 0.0, 0.0, 0.0, 0.0, 0.0, 0.0]
16 [0.0, 0.9, 0.1, 0.5, 0.9, 0.0, 0.0, 0.5]
17 [0.0, 0.0, 0.0, 0.0, 0.0, 0.0, 0.0, 0.0]
18 [0.0, 0.25, 0.25, 0.875, 0.875, 0.875, 0.0, 0.25]
19 [0.0, 0.2857143, 0.85714287, 0.85714287, 0.85714287, 0.85714287, 0.0, 0.75]
20 [0.0, 0.5, 0.8333333, 0.8333333, 0.8333333, 0.8333333, 0.0, 0.75]
21 [0.0, 0.0, 0.0, 0.0, 0.0, 0.0, 0.0, 0.0]
22 [0.0, 0.0, 0.0, 0.0, 0.0, 0.0, 0.0, 0.0]
23 [0.0, 0.0, 0.0, 0.0, 0.0, 0.0, 0.0, 0.0]
24 [0.0, 0.9375, 0.375, 0.375, 0.9375, 0.0, 0.0, 0.0]
25 [0.0, 0.0, 0.0, 0.0, 0.0, 0.0, 0.0, 0.0]
26 [0.99450547, 0.99450547, 0.0, 0.0, 0.0, 0.0, 0.0, 0.0]
27 [0.021978023, 0.021978023, 0.99450547, 0.0, 0.875, 0.0, 0.0, 0.0]
28 [0.0, 0.0, 0.0, 0.0, 0.0, 0.0, 0.0, 0.0]
29 [0.75, 0.75, 0.75, 0.0, 0.875, 0.0, 0.0, 0.0]
30 [0.0, 0.0, 0.0, 0.0, 0.875, 0.0, 0.0, 0.0]
31 [0.0, 0.0, 0.0, 0.0, 0.0, 0.0, 0.0, 0.0]
32 [0.032967035, 0.032967035, 0.989011, 0.0, 0.875, 0.0, 0.0, 0.989011]
33 [0.0, 0.0, 0.0, 0.0, 0.0, 0.0, 0.0, 0.0]
34 [0.054945055, 0.054945055, 0.054945055, 0.0, 0.989011, 0.0, 0.0, 0.989011]
35 [0.032967035, 0.032967035, 0.032967035, 0.0, 0.875, 0.0, 0.0, 0.99450547]
36 [0.0, 0.0, 0.0, 0.0, 0.0, 0.0, 0.0, 0.0]
37 [0.07692308, 0.07692308, 0.989011, 0.0, 0.75, 0.75, 0.0, 0.989011]
38 [0.0, 0.0, 0.0, 0.0, 0.75, 0.75, 0.0, 0.0]
39 [0.0, 0.0, 0.0, 0.0, 0.0, 0.0, 0.0, 0.0]
40 [0.1, 0.1, 0.98333335, 0.0, 0.98333335, 0.75, 0.0, 0.98333335]
41 [0.0, 0.0, 0.0, 0.0, 0.0, 0.0, 0.0, 0.0]
42 [0.054945055, 0.054945055, 0.054945055, 0.0, 0.0, 0.0, 0.0, 0.99450547]
43 [0.8888889, 0.8888889, 0.8888889, 0.0, 0.75, 0.75, 0.0, 0.0]
44 [0.0, 0.0, 0.0, 0.0, 0.0, 0.0, 0.0, 0.0]
45 [0.13333334, 0.13333334, 0.98333335, 0.0, 0.98333335, 0.75, 0.0, 0.98333335]
46 [0.0, 0.0, 0.0, 0.0, 0.75, 0.75, 0.0, 0.0]
47 [0.0, 0.0, 0.0, 0.0, 0.0, 0.0, 0.0, 0.0]
48 [0.06593407, 0.06593407, 0.989011, 0.0, 0.989011, 0.75, 0.0, 0.06593407]
49 [0.0, 0.0, 0.0, 0.0, 0.0, 0.0, 0.0, 0.0]
