0 -3.1415925
0 -3.1415925
0 -3.1415925
0 3.1415925
0 -0.0
0 -0.0
0 -0.0
0 -0.0
0 -0.0
1 -3.1415925
1 -3.1415925
1 -3.1415925
1 3.1415925
1 -0.0
1 -0.0
1 -0.0
1 -0.0
1 -0.0
2 -3.1415925
2 -3.1415925
2 -3.1415925
2 3.1415925
2 -0.0
2 -0.0
2 -0.0
2 -0.0
2 -0.0
3 3.1360822
3 3.134399
3 3.1305716
3 3.109868
3 0.031724393
3 0.011021053
3 0.007193605
3 0.0055106636
3 9.1948874E-7
4 3.1273336
4 3.1229794
4 3.11308
4 3.0596523
4 0.08193431
4 0.028512213
4 0.018613031
4 0.014259183
4 -6.4950027E-6
5 3.1288607
5 3.1249728
5 3.1161325
5 3.0683944
5 0.07318885
5 0.025459241
5 0.016619604
5 0.012731939
5 -1.0926654E-5
6 3.1288607
6 3.1249728
6 3.1161325
6 3.0683944
6 0.07318885
6 0.025459241
6 0.016619604
6 0.012731939
6 -1.0926654E-5
7 3.129452
7 3.1257446
7 3.1173143
7 3.0717812
7 0.06979769
7 0.024277132
7 0.015847728
7 0.012140637
7 -1.7443916E-5
8 3.129452
8 3.1257446
8 3.1173143
8 3.0717812
8 0.06979769
8 0.024277132
8 0.015847728
8 0.012140637
8 -1.7443916E-5
9 3.129481
9 3.125782
9 3.1173716
9 3.0719411
9 0.06962648
9 0.024218692
9 0.015809672
9 0.012111699
9 -3.275232E-5
10 3.129481
10 3.125782
10 3.1173716
10 3.0719411
10 0.06962648
10 0.024218692
10 0.015809672
10 0.012111699
10 -3.275232E-5
11 3.1283634
11 3.12432
11 3.115127
11 3.0654428
11 0.07593457
11 0.026442776
11 0.017265443
11 0.013229397
11 -2.5128288E-4
12 3.1283634
12 3.12432
12 3.115127
12 3.0654428
12 0.07593457
12 0.026442776
12 0.017265443
12 0.013229397
12 -2.5128288E-4
13 3.1298466
13 3.1264226
13 3.1186142
13 3.0786254
13 0.07284361
13 0.024025392
13 0.015501065
13 0.011746277
13 0.012860878
14 3.1298466
14 3.1264226
14 3.1186142
14 3.0786254
14 0.07284361
14 0.024025392
14 0.015501065
14 0.011746277
14 0.012860878
15 3.1302273
15 3.1270933
15 3.1199062
15 3.0851047
15 0.077550076
15 0.023878878
15 0.015191667
15 0.011365412
15 0.02778074
16 3.1302273
16 3.1270933
16 3.1199062
16 3.0851047
16 0.077550076
16 0.023878878
16 0.015191667
16 0.011365412
16 0.02778074
17 3.1303916
17 3.1275303
17 3.1208959
17 3.0908337
17 0.08814801
17 0.024415487
17 0.015232468
17 0.011201177
17 0.04756721
18 3.1303916
18 3.1275303
18 3.1208959
18 3.0908337
18 0.08814801
18 0.024415487
18 0.015232468
18 0.011201177
18 0.04756721
19 3.1304018
19 3.1278307
19 3.1217384
19 3.0961437
19 0.11020409
19 0.025653884
19 0.015573635
19 0.011190946
19 0.07346839
20 3.1304018
20 3.1278307
20 3.1217384
20 3.0961437
20 0.11020409
20 0.025653884
20 0.015573635
20 0.011190946
20 0.07346839
21 3.1315968
21 3.1295707
21 3.1246033
21 3.1051567
21 0.13621385
21 0.024299402
21 0.0142782675
21 0.0099959625
21 0.10188793
22 3.1315968
22 3.1295707
22 3.1246033
22 3.1051567
22 0.13621385
22 0.024299402
22 0.0142782675
22 0.0099959625
22 0.10188793
23 3.129996
23 3.1279032
23 3.1225653
23 3.1027265
23 0.23279141
23 0.02971489
23 0.016944366
23 0.011596729
23 0.12596707
24 3.129996
24 3.1279032
24 3.1225653
24 3.1027265
24 0.23279141
24 0.02971489
24 0.016944366
24 0.011596729
24 0.12596707
25 3.1296544
25 3.1277137
25 3.122555
25 3.104101
25 0.39243996
25 0.032039627
25 0.01778477
25 0.011938354
25 0.14597854
26 3.1296544
26 3.1277137
26 3.122555
26 3.104101
26 0.39243996
26 0.032039627
26 0.01778477
26 0.011938354
26 0.14597854
27 3.1303527
27 3.1287034
27 3.1241157
27 3.1082082
27 0.8178604
27 0.031531256
27 0.017049415
27 0.011240018
27 0.16413537
28 3.1303527
28 3.1287034
28 3.1241157
28 3.1082082
28 0.8178604
28 0.031531256
28 0.017049415
28 0.011240018
28 0.16413537
29 3.1309323
29 3.1295135
29 3.1253743
29 3.1113791
29 2.0592217
29 0.03115336
29 0.016435463
29 0.01066041
29 0.18010984
30 3.1312642
30 3.130011
30 3.126173
30 3.1134565
30 2.6638436
30 0.031335942
30 0.016156845
30 0.0103284065
30 0.1941227
31 3.1323924
31 3.1313608
31 3.1280594
31 3.1172853
31 2.8568392
31 0.028801635
31 0.014565243
31 0.009200313
31 0.2053366
32 3.1323924
32 3.1313608
32 3.1280594
32 3.1172853
32 2.8568392
32 0.028801635
32 0.014565243
32 0.009200313
32 0.2053366
33 3.1346943
33 3.133949
33 3.1315138
33 3.1236215
33 2.956916
33 0.021936825
33 0.010987167
33 0.0068984143
33 0.21069446
34 3.1346943
34 3.133949
34 3.1315138
34 3.1236215
34 2.956916
34 0.021936825
34 0.010987167
34 0.0068984143
34 0.21069446
35 3.1386678
35 3.1383414
35 3.1373003
35 3.1339147
35 3.0571609
35 0.009256372
35 0.0046543656
35 0.0029247727
35 0.20843941
36 3.1386678
36 3.1383414
36 3.1373003
36 3.1339147
36 3.0571609
36 0.009256372
36 0.0046543656
36 0.0029247727
36 0.20843941
37 -3.1408765
37 -3.140806
37 -3.1405523
37 -3.139726
37 -3.1195235
37 -0.002219275
37 -0.0011210322
37 -7.159606E-4
37 0.20594214
38 -3.1408765
38 -3.140806
38 -3.1405523
38 -3.139726
38 -3.1195235
38 -0.002219275
38 -0.0011210322
38 -7.159606E-4
38 0.20594214
39 -3.1390584
39 -3.1387815
39 -3.1378708
39 -3.1348925
39 -3.0569592
39 -0.0078678215
39 -0.00398961
39 -0.0025342023
39 0.20370309
40 -3.1390584
40 -3.1387815
40 -3.1378708
40 -3.1348925
40 -3.0569592
40 -0.0078678215
40 -0.00398961
40 -0.0025342023
40 0.20370309
41 -3.1394234
41 -3.139183
41 -3.1383975
41 -3.1358194
41 -3.0620694
41 -0.006682868
41 -0.0034041698
41 -0.002169194
41 0.20111369
42 -3.1394234
42 -3.139183
42 -3.1383975
42 -3.1358194
42 -3.0620694
42 -0.006682868
42 -0.0034041698
42 -0.002169194
42 0.20111369
43 3.141416
43 3.1413872
43 3.14132
43 3.141099
43 3.1345012
43 5.682302E-4
43 2.8994944E-4
43 1.7673367E-4
43 0.19999032
44 3.141416
44 3.1413872
44 3.14132
44 3.141099
44 3.1345012
44 5.682302E-4
44 2.8994944E-4
44 1.7673367E-4
44 0.19999032
45 3.1383686
45 3.1379876
45 3.1368103
45 3.1329393
45 3.018693
45 0.009965477
45 0.0050843307
45 0.0032241938
45 0.20017731
46 3.1383686
46 3.1379876
46 3.1368103
46 3.1329393
46 3.018693
46 0.009965477
46 0.0050843307
46 0.0032241938
46 0.20017731
47 3.1349897
47 3.13422
47 3.1318126
47 3.1239035
47 2.8960488
47 0.020394264
47 0.010402171
47 0.0066030608
47 0.20038755
48 3.1349897
48 3.13422
48 3.1318126
48 3.1239035
48 2.8960488
48 0.020394264
48 0.010402171
48 0.0066030608
48 0.20038755
49 3.133323
49 3.1323612
49 3.1293473
49 3.1194472
49 2.8379784
49 0.025537856
49 0.013025441
49 0.008269844
49 0.20042771
