0 8.7477304E-8
0 3.890412E-8
0 1.1920898E-7
0 -1.7162279E-7
0 -3.1415927
0 -3.1415927
0 -3.1415927
0 3.1415927
0 -3.141591
1 8.7477304E-8
1 3.890412E-8
1 1.1920898E-7
1 -1.7162279E-7
1 -3.1415927
1 -3.1415927
1 -3.1415927
1 3.1415927
1 -3.141591
2 -0.0065974547
2 -0.008576601
2 -0.013081362
2 -0.036929715
2 -3.1025078
2 -3.1282823
2 -3.1329436
2 -3.1349952
2 -3.136589
3 -0.0065974547
3 -0.008576601
3 -0.013081362
3 -0.036929715
3 -3.1025078
3 -3.1282823
3 -3.1329436
3 -3.1349952
3 -3.136589
4 -0.013978718
4 -0.018005885
4 -0.027198864
4 -0.073670186
4 -3.0532687
4 -3.112842
4 -3.123096
4 -3.1276138
4 -3.1255736
5 -0.013978718
5 -0.018005885
5 -0.027198864
5 -0.073670186
5 -3.0532687
5 -3.112842
5 -3.123096
5 -3.1276138
5 -3.1255736
6 -0.012152998
6 -0.015438688
6 -0.022992369
6 -0.058902144
6 -3.055708
6 -3.115816
6 -3.1252756
6 -3.1294396
6 -3.1086326
7 -0.01189894
7 -0.014941353
7 -0.02199511
7 -0.053978313
7 -3.048174
7 -3.1156697
7 -3.1254153
7 -3.1296937
7 -3.0942879
8 -0.01158821
8 -0.0144671695
8 -0.021176493
8 -0.05092905
8 -3.045227
8 -3.1159968
8 -3.1257372
8 -3.1300044
8 -3.087076
9 -0.011291181
9 -0.014077494
9 -0.020579137
9 -0.049267825
9 -3.0463715
9 -3.1165717
9 -3.1261203
9 -3.1303015
9 -3.0853968
10 -0.011513147
10 -0.014351321
10 -0.020975294
10 -0.050180957
10 -3.04431
10 -3.116068
10 -3.1258128
10 -3.1300795
10 -3.0851474
11 -0.011230749
11 -0.01399842
11 -0.020458391
11 -0.048935432
11 -3.0466194
11 -3.1166897
11 -3.1261988
11 -3.1303618
11 -3.085069
12 -0.011423432
12 -0.014238358
12 -0.020808712
12 -0.049769856
12 -3.044986
12 -3.116262
12 -3.1259344
12 -3.1301692
12 -3.0850513
13 -0.011576105
13 -0.014464641
13 -0.021190902
13 -0.051117416
13 -3.0461774
13 -3.1160767
13 -3.125769
13 -3.1300166
13 -3.0881643
14 -0.011813255
14 -0.014863288
14 -0.021923324
14 -0.054186486
14 -3.0505755
14 -3.1159756
14 -3.1255665
14 -3.1297793
14 -3.0967498
15 -0.011534569
15 -0.014683605
15 -0.021914113
15 -0.056599632
15 -3.06148
15 -3.1172416
15 -3.1261399
15 -3.130058
15 -3.1111832
16 -0.012199131
16 -0.01574596
16 -0.02383639
16 -0.06515235
16 -3.0656319
16 -3.1166108
16 -3.1254845
16 -3.1293933
16 -3.1280425
17 -0.011779223
17 -0.015428319
17 -0.023720596
17 -0.06931442
17 -3.075371
17 -3.118201
17 -3.1262684
17 -3.1298134
17 3.1375566
18 -0.008212717
18 -0.010921389
18 -0.017073495
18 -0.05398422
18 -3.0995731
18 -3.1257727
18 -3.1310673
18 -3.13338
18 3.1195872
19 -0.0069431206
19 -0.009367261
19 -0.0148847075
19 -0.0512367
19 -3.1088486
19 -3.1285853
19 -3.132817
19 -3.1346495
19 3.1027417
20 -0.0075039743
20 -0.010214235
20 -0.01639836
20 -0.059816416
20 -3.107814
20 -3.1277652
20 -3.132187
20 -3.1340885
20 3.092513
21 -0.006761014
21 -0.009224185
21 -0.014849653
21 -0.05505968
21 -3.1115148
21 -3.1291876
21 -3.1331367
21 -3.1348314
21 3.089843
22 -0.0060963375
22 -0.008345886
22 -0.013490416
22 -0.051273756
22 -3.114932
22 -3.1304774
22 -3.1339924
22 -3.1354961
22 3.0859122
23 -0.005550855
23 -0.0076705124
23 -0.012539271
23 -0.051223516
23 -3.1183882
23 -3.131641
23 -3.134732
23 -3.1360416
23 3.0752578
24 -0.00575781
24 -0.008047725
24 -0.013340753
24 -0.060130443
24 -3.1187322
24 -3.1314723
24 -3.1345487
24 -3.1358347
24 3.0624988
25 -0.0039953147
25 -0.0056459517
25 -0.009492906
25 -0.04791226
25 -3.1264746
25 -3.1347039
25 -3.136754
25 -3.1375973
25 3.0500622
26 -4.0129936E-4
26 -5.7038775E-4
26 -9.772606E-4
26 -0.005884943
26 -3.1401722
26 -3.1409228
26 -3.1411169
26 -3.1411912
26 3.0342546
27 0.0016928836
27 0.0024764468
27 0.004337067
27 0.033848304
27 3.1358805
27 3.1388037
27 3.1395879
27 3.1399
27 3.0168192
28 0.0014281868
28 0.0021114799
28 0.003748338
28 0.035941478
28 3.1369312
28 3.1392725
28 3.1399133
28 3.1401646
28 3.0065608
29 0.0014272335
29 0.002112373
29 0.003754991
29 0.036895666
29 3.13695
29 3.1392772
29 3.1399157
29 3.1401656
29 3.0055099
30 0.0021114114
30 0.0030983982
30 0.0054532746
30 0.045632362
30 3.1345615
30 3.1381345
30 3.1391006
30 3.1394813
30 3.0130334
31 0.0019084238
31 0.0027571213
31 0.004752213
31 0.030483665
31 3.134872
31 3.138392
31 3.1393116
31 3.1396844
31 3.0294251
32 0.0019784176
32 0.0027941114
32 0.004679711
32 0.022875337
32 3.1339912
32 3.1381557
32 3.1391845
32 3.1396143
32 3.053441
33 0.0014360112
33 0.0019829853
33 0.0032311468
33 0.012926127
33 3.135499
33 3.1390004
33 3.1398098
33 3.1401567
33 3.0783267
34 4.8196074E-4
34 6.5302657E-4
34 0.0010392466
34 0.0036073602
34 3.139327
34 3.140689
34 3.1409824
34 3.141111
34 3.1013315
35 -3.090428E-4
35 -4.083041E-4
35 -6.3481834E-4
35 -0.0019579667
35 -3.1399667
35 -3.1409926
35 -3.1411955
35 -3.1412835
35 3.1252713
36 -3.1397107E-5
36 -4.1102987E-5
36 -6.27536E-5
36 -1.781187E-4
36 -3.1414063
36 -3.141529
36 -3.1415513
36 -3.1415613
36 -3.1376567
37 1.2417816E-4
37 1.5897326E-4
37 2.4002556E-4
37 6.4810796E-4
37 3.1408055
37 3.1413383
37 3.1414292
37 3.1414685
37 -3.1245852
38 8.0521224E-4
38 0.0010293272
38 0.0015448743
38 0.0040808106
38 3.1362383
38 3.1399152
38 3.1405215
38 3.1407876
38 -3.117786
39 0.0013447637
39 0.0017180911
39 0.0025757893
39 0.0067748483
39 3.1325717
39 3.1387832
39 3.1398008
39 3.140248
39 -3.1165273
40 0.0019057929
40 0.0024242671
40 0.003618152
40 0.009350324
40 3.1283312
40 3.137571
40 3.1390412
40 3.139687
40 -3.1110997
41 0.002144389
41 0.0026959684
41 0.003977497
41 0.009843317
41 3.1250648
41 3.1369479
41 3.1386867
41 3.1394484
41 -3.0969253
42 0.0020826405
42 0.0025896267
42 0.0037807215
42 0.009011542
42 3.1237292
42 3.1369665
42 3.1387377
42 3.1395102
42 -3.0835743
43 0.0018011191
43 0.002224464
43 0.0032274078
43 0.007531146
43 3.125015
43 3.1375299
43 3.1391068
43 3.1397917
43 -3.0755203
44 0.0013200946
44 0.0016259605
44 0.0023543395
44 0.005456821
44 3.1291509
44 3.138601
44 3.1397674
44 3.1402726
44 -3.0728855
45 0.0013980707
45 0.0017215569
45 0.0024918707
45 0.005768569
45 3.1283562
45 3.138421
45 3.1396587
45 3.1401947
45 -3.0724144
46 6.0409104E-4
46 7.446413E-4
46 0.0010810533
46 0.0025283091
46 3.1360908
46 3.1402361
46 3.1407619
46 3.1409886
46 -3.0764024
47 -5.210251E-6
47 -9.124322E-6
47 -1.3351683E-5
47 -3.1958305E-5
47 -3.1415317
47 -3.1415765
47 -3.1415827
47 -3.1415873
47 -3.0865762
48 -6.030968E-5
48 -7.8018726E-5
48 -1.1473854E-4
48 -2.829974E-4
48 -3.1411054
48 -3.1414576
48 -3.1415083
48 -3.1415322
48 -3.094752
49 -5.35654E-4
49 -6.7567703E-4
49 -9.963864E-4
49 -0.002460451
49 -3.137422
49 -3.1404257
49 -3.1408632
49 -3.141057
49 -3.0961368
