0 [0.0, 0.0, 0.0, 0.0, 0.0, 0.0, 0.0, 0.0]
1 [0.0, 0.0, 0.0, 0.0, 0.0, 0.0, 0.0, 0.0]
2 [0.0, 0.0, 0.0, 0.0, 0.0, 0.0, 0.0, 0.0]
3 [0.06983516, 0.048164833, 0.048164833, 0.10083517, 0.10083517, 0.047164835, 0.047164835, 0.047164835]
4 [0.82045054, 0.80245054, 0.04754945, 0.10245055, 0.85245055, 0.045549452, 0.79454947, 0.7935495]
5 [0.070450544, 0.052450553, 0.04754945, 0.10245055, 0.10245055, 0.045549452, 0.04454945, 0.043549452]
6 [0.8697418, 0.055741757, 0.84925824, 0.9027418, 0.9027418, 0.044258244, 0.042258244, 0.041258246]
7 [0.44474176, 0.055741757, 0.04925824, 0.9777418, 0.47774178, 0.044258244, 0.042258244, 0.041258246]
8 [0.069741756, 0.055741757, 0.04925824, 0.10274176, 0.10274176, 0.044258244, 0.042258244, 0.041258246]
9 [0.95742184, 0.17964408, 0.051467024, 0.98053294, 0.9964219, 0.21864408, 0.15664408, 1.704356]
10 [0.93774176, 0.063258246, 0.05974177, 0.42774177, 0.97925824, 0.9802582, 0.04525824, 0.90474176]
11 [0.062741764, 0.063258246, 0.05974177, 0.05274175, 0.10425825, 0.10525824, 0.04525824, 0.029741747]
12 [0.062741764, 0.063258246, 0.05974177, 0.05274175, 0.10425825, 0.10525824, 0.04525824, 0.029741747]
13 [0.9450989, 0.0660989, 0.0640989, 0.055098888, 0.9799011, 0.963044, 0.048901096, 0.048901096]
14 [0.81105494, 0.08205496, 0.07505494, 0.06305495, 1.0280219, 1.032022, 0.05294506, 0.056945052]
15 [0.061054952, 0.08205496, 0.07505494, 0.06305495, 0.104945056, 0.10894505, 0.05294506, 0.056945052]
16 [0.061054952, 0.08205496, 0.07505494, 0.06305495, 0.104945056, 0.10894505, 0.05294506, 0.056945052]
17 [0.5510659, 0.091065936, 0.07906593, 0.069065936, 1.0049341, 1.0099341, 0.10993406, 0.06293406]
18 [0.051065926, 0.091065936, 0.07906593, 0.069065936, 0.10493407, 0.10993406, 0.10993406, 0.06293406]
19 [0.051065926, 0.091065936, 0.07906593, 0.069065936, 0.10493407, 0.10993406, 0.10993406, 0.06293406]
20 [0.42606592, 0.091065936, 0.07906593, 0.069065936, 0.47993407, 0.9849341, 0.10993406, 0.06293406]
21 [0.028978031, 0.09497802, 0.101978034, 0.08197803, 0.058978025, 0.11502198, 0.119021975, 0.075021975]
22 [0.025521979, 0.076478034, 0.15093258, 0.12693258, 0.10793257, 1.0720674, 1.0790675, 0.17097652]
23 [0.900522, 0.076478034, 0.105478026, 0.08147803, 0.06247802, 0.992522, 0.12452198, 0.12552197]
24 [0.031269226, 0.05373078, 0.6137308, 0.5817308, 0.5777308, 0.54673076, 0.6262692, 0.63226926]
25 [0.037675828, 0.03732417, 0.10031318, 1.1013352, 0.08531319, 0.060313195, 1.0083351, 0.13967583]
26 [0.037675828, 0.03732417, 0.08932417, 0.11232417, 0.07432418, 0.79932415, 0.7693242, 0.13967583]
27 [0.044126377, 0.5238736, 0.06987364, 0.107873626, 0.06687364, 0.55087364, 0.51687366, 0.14512637]
28 [0.05125824, 0.021258246, 0.049741756, 0.1402033, 1.0347967, 0.09420329, 0.05471978, 1.1127967]
29 [0.05125824, 0.77125823, 0.049741756, 0.10174175, 0.07325824, 0.055741753, 0.76625824, 0.15125825]
30 [0.05125824, 0.77125823, 0.049741756, 0.10174175, 0.07325824, 0.055741753, 0.76625824, 0.15125825]
31 [0.051027473, 0.025027474, 0.03197252, 0.06997253, 0.099972524, 0.07702747, 0.026972525, 0.046027478]
32 [0.97252196, 0.77544504, 0.026554944, 0.059554935, 0.17447802, 1.001522, 0.78455496, 0.12136814]
33 [0.049445055, 0.025445055, 0.026554944, 0.059554935, 0.097554944, 0.078445055, 0.034554936, 0.04444506]
34 [0.63109887, 0.0200989, 0.021901108, 0.04590111, 0.5769011, 0.5939011, 0.5790989, 0.5340989]
35 [1.0501319, 0.93913186, 0.5209451, 0.042945046, 0.06794505, 0.24679121, 0.23190111, 0.52805495]
36 [0.12705494, 0.016054943, 0.020945044, 0.042945046, 0.06794505, 0.09294505, 0.07805494, 0.028054945]
37 [1.0384029, 0.927403, 0.5222637, 0.040263735, 0.06126374, 0.25593042, 1.0079304, 0.5717363]
38 [0.121736266, 0.010736263, 0.022263728, 0.040263735, 0.06126374, 0.08926374, 0.091263734, 0.07173627]
39 [1.0814749, 1.077475, 0.99696946, 0.036747262, 0.048747253, 0.06474726, 0.16308057, 0.45625275]
40 [0.10925274, 0.10525274, 0.02474725, 0.036747262, 0.048747253, 0.06474726, 0.079747245, 0.08125275]
41 [0.10613187, 0.105131865, 0.10013187, 0.025868127, 0.031868123, 0.038868137, 0.04686813, 0.09213187]
42 [0.10613187, 0.105131865, 0.10013187, 0.025868127, 0.031868123, 0.038868137, 0.04686813, 0.09213187]
43 [0.10613187, 0.105131865, 0.10013187, 0.025868127, 0.031868123, 0.038868137, 0.04686813, 0.09213187]
44 [0.06803358, 1.0499663, 0.479522, 0.96692246, 0.024478016, 0.028478013, 0.031478032, 0.964522]
45 [0.012478028, 0.10552198, 0.10452198, 0.022478018, 0.024478016, 0.028478013, 0.031478032, 0.089521974]
46 [0.012478028, 0.10552198, 0.10452198, 0.022478018, 0.024478016, 0.028478013, 0.031478032, 0.089521974]
47 [0.05009096, 0.13046458, 1.074909, 0.9935354, 0.020313187, 0.020313187, 0.020313187, 0.8953132]
48 [0.022313185, 0.10268681, 0.10268681, 0.021313185, 0.020313187, 0.020313187, 0.020313187, 0.020313187]
49 [0.022313185, 0.10268681, 0.10268681, 0.021313185, 0.020313187, 0.020313187, 0.020313187, 0.020313187]
