0 [1.0, 1.0, 1.0, 1.0, 1.0, 1.0, 1.0, 1.0]
1 [1.0, 1.0, 1.0, 1.0, 1.0, 1.0, 1.0, 1.0]
2 [1.0, 1.0, 1.0, 1.0, 1.0, 1.0, 1.0, 1.0]
3 [1.0, 1.0, 1.0, 1.0, 1.0, 1.0, 1.0, 1.0]
4 [1.0, 1.0, 1.0, 1.0, 1.0, 1.0, 1.0, 1.0]
5 [1.0, 1.0, 1.0, 1.0, 1.0, 1.0, 1.0, 1.0]
6 [1.0, 1.0, 1.0, 1.0, 1.0, 1.0, 1.0, 1.0]
7 [1.0, 1.0, 1.0, 1.0, 1.0, 1.0, 1.0, 1.0]
8 [1.0, 1.0, 1.0, 1.0, 1.0, 1.0, 1.0, 1.0]
9 [1.0, 1.0, 1.0, 1.0, 1.0, 1.0, 1.0, 1.0]
10 [1.0, 1.0, 1.0, 1.0, 1.0, 1.0, 1.0, 1.0]
11 [1.0, 1.0, 1.0, 1.0, 1.0, 1.0, 1.0, 1.0]
12 [1.0, 1.0, 1.0, 1.0, 1.0, 1.0, 1.0, 1.0]
13 [1.0, 1.0, 1.0, 1.0, 1.0, 1.0, 1.0, 1.0]
14 [1.0, 1.0, 1.0, 1.0, 1.0, 1.0, 1.0, 1.0]
15 [1.0, 1.0, 1.0, 1.0, 1.0, 1.0, 1.0, 1.0]
16 [1.624346, 1.084496, 1.0002095, 1.0, 1.0, 1.0, 1.0, 1.0]
17 [1.6415437, 1.0868235, 1.0002152, 1.0, 1.0, 1.0, 1.0, 1.0]
18 [1.4946992, 1.0669503, 1.0001659, 1.0, 1.0, 1.0, 1.0, 1.0]
19 [1.3085024, 1.0417513, 1.0001035, 1.0, 1.0, 1.0, 1.0, 1.0]
20 [1.2331666, 1.0315557, 1.0000782, 1.0, 1.0, 1.0, 1.0, 1.0]
21 [1.1760477, 1.0238255, 1.000276, 1.0875157, 1.6466589, 1.0875157, 1.000217, 1.0]
22 [0.47736812, 0.92926943, 1.0000232, 1.080078, 1.5917013, 1.080078, 1.0001985, 1.0]
23 [0.33668143, 0.91022956, 0.9999287, 1.0610065, 1.4507807, 1.0610065, 1.0001513, 1.0]
24 [0.9558014, 0.9940184, 1.0000874, 1.0412533, 1.3048234, 1.0412533, 1.0001023, 1.0]
25 [1.3254725, 1.044048, 1.0001866, 1.0311793, 1.2303854, 1.0311793, 1.0000772, 1.0]
26 [1.2678102, 1.0362442, 1.0001483, 1.0235648, 1.1741219, 1.0235648, 1.0000584, 1.0]
27 [1.203531, 1.0275449, 0.99999344, 0.9697995, 0.7768471, 0.9697995, 0.99992514, 1.0]
28 [1.1539054, 1.0208288, 0.9998206, 0.90679747, 0.3113212, 0.90679747, 0.999769, 1.0]
29 [1.1163241, 1.0157428, 0.99985385, 0.9252794, 0.4478851, 0.9252794, 0.9998148, 1.0]
30 [1.0878283, 1.0118862, 0.99988896, 0.9433236, 0.581215, 0.9433236, 0.9998595, 1.0]
31 [0.7181761, 0.9618593, 0.99979925, 0.95714927, 0.68337333, 0.95714927, 0.9998938, 1.0]
32 [0.2760241, 0.9020205, 0.9996798, 0.9687895, 0.76938415, 0.9687895, 0.99992263, 1.0]
33 [0.43132, 0.9230375, 0.9997508, 0.9764352, 0.8258782, 0.9764352, 0.9999416, 1.0]
34 [0.5688727, 0.94165325, 0.9998112, 0.9821901, 0.8684015, 0.9821901, 0.99995583, 1.0]
35 [0.67440593, 0.9559356, 0.9998575, 0.986553, 0.9006394, 0.986553, 0.9999667, 1.0]
36 [0.7995119, 0.9728669, 0.99993277, 1.0, 1.0, 1.0, 1.0, 1.0]
37 [0.8484743, 0.9794932, 0.9999326, 0.99332243, 0.950659, 0.99332243, 0.99998343, 1.0]
38 [0.8855938, 0.9845168, 0.9999491, 0.9949582, 0.96274614, 0.9949582, 0.9999875, 1.0]
39 [0.9135336, 0.98829806, 0.99996156, 0.99618953, 0.97184414, 0.99618953, 0.9999906, 1.0]
40 [0.9346501, 0.99115586, 0.9999709, 0.9971201, 0.97872025, 0.9971201, 0.99999285, 1.0]
41 [1.0, 1.0, 1.0, 1.0, 1.0, 1.0, 1.0, 1.0]
42 [0.96481025, 0.9952376, 0.9999882, 1.0, 1.0, 1.0, 1.0, 1.0]
43 [0.97340417, 0.99640065, 0.99999106, 1.0, 1.0, 1.0, 1.0, 1.0]
44 [0.9800993, 0.9973067, 0.9999933, 1.0, 1.0, 1.0, 1.0, 1.0]
45 [1.0, 1.0, 1.0, 1.0, 1.0, 1.0, 1.0, 1.0]
46 [1.0, 1.0, 1.0, 1.0, 1.0, 1.0, 1.0, 1.0]
47 [1.0, 1.0, 1.0, 1.0, 1.0, 1.0, 1.0, 1.0]
48 [1.0, 1.0, 1.0, 1.0, 1.0, 1.0, 1.0, 1.0]
49 [1.0, 1.0, 1.0, 1.0, 1.0, 1.0, 1.0, 1.0]
