0 [0.0, 0.0, 0.0, 0.0, 0.0, 0.0, 0.0, 0.0]
1 [0.0, 0.0, 0.0, 0.0, 0.0, 0.0, 0.0, 0.0]
2 [0.0, 0.0, 0.0, 0.0, 0.0, 0.0, 0.0, 0.0]
3 [0.0, 0.0, 0.0, 0.0, 0.0, 0.0, 0.0, 0.0]
4 [0.0, 0.0, 0.0, 0.0, 0.0, 0.0, 0.0, 0.0]
5 [0.0, 0.0, 0.0, 0.0, 0.0, 0.0, 0.0, 0.0]
6 [0.0, 0.0, 0.0, 0.0, 0.0, 0.0, 0.0, 0.0]
7 [0.0, 0.0, 0.0, 0.0, 0.0, 0.0, 0.0, 0.0]
8 [0.875, 0.0, 0.0, 0.0, 0.0, 0.0, 0.0, 0.875]
9 [0.0, 0.0, 0.11111111, 0.11111111, 0.9444444, 0.11111111, 0.0, 0.11111111]
10 [0.0, 0.0, 0.27272728, 0.90909094, 0.90909094, 0.90909094, 0.0, 0.90909094]
11 [0.375, 0.375, 0.0, 0.0, 0.0, 0.0, 0.0, 0.875]
12 [0.375, 0.875, 0.0, 0.083333336, 0.9722222, 0.083333336, 0.0, 0.375]
13 [0.0, 0.0, 0.0, 0.06666667, 0.9777778, 0.06666667, 0.06666667, 0.06666667]
14 [0.0, 0.0, 0.0, 0.0, 0.0, 0.0, 0.0, 0.0]
15 [0.375, 0.375, 0.0, 0.043956045, 0.043956045, 0.989011, 0.043956045, 0.875]
16 [0.0, 0.0, 0.0, 0.0, 0.8, 0.8, 0.8, 0.8]
17 [0.875, 0.875, 0.0, 0.0, 0.0, 0.0, 0.0, 0.0]
18 [0.0, 0.0, 0.0, 0.0, 0.0, 0.0, 0.0, 0.0]
19 [0.0, 0.0, 0.0, 0.0, 0.0, 0.0, 0.0, 0.0]
20 [0.0, 0.0, 0.0, 0.0, 0.0, 0.0, 0.0, 0.0]
21 [0.375, 0.375, 0.875, 0.0, 0.0, 0.13333334, 0.9777778, 0.13333334]
22 [0.0, 0.0, 0.0, 0.0, 0.0, 0.0, 0.0, 0.0]
23 [0.42857143, 0.75, 0.75, 0.0, 0.0, 0.85714287, 0.85714287, 0.85714287]
24 [0.22222222, 0.75, 0.75, 0.0, 0.0, 0.8888889, 0.8888889, 0.8888889]
25 [0.0, 0.0, 0.0, 0.0, 0.0, 0.0, 0.0, 0.0]
26 [0.22222222, 0.22222222, 0.0, 0.0, 0.0, 0.8888889, 0.8888889, 0.8888889]
27 [0.42857143, 0.75, 0.75, 0.0, 0.0, 0.85714287, 0.85714287, 0.42857143]
28 [0.5714286, 0.5714286, 0.0, 0.0, 0.0, 0.85714287, 0.85714287, 0.85714287]
29 [0.0, 0.75, 0.75, 0.0, 0.0, 0.0, 0.0, 0.0]
30 [0.0, 0.75, 0.75, 0.0, 0.0, 0.0, 0.0, 0.0]
31 [0.85714287, 0.85714287, 0.0, 0.0, 0.0, 0.0, 0.71428573, 0.85714287]
32 [0.0, 0.875, 0.875, 0.0, 0.0, 0.0, 0.0, 0.0]
33 [0.8888889, 0.8888889, 0.0, 0.0, 0.0, 0.0, 0.44444445, 0.8888889]
34 [0.85714287, 0.85714287, 0.85714287, 0.0, 0.0, 0.0, 0.42857143, 0.42857143]
35 [0.0, 0.375, 0.875, 0.375, 0.0, 0.0, 0.0, 0.0]
36 [0.8, 0.8, 0.4, 0.4, 0.0, 0.0, 0.0, 0.8]
37 [0.0, 0.375, 0.875, 0.375, 0.0, 0.0, 0.0, 0.0]
38 [0.0, 0.375, 0.375, 0.875, 0.0, 0.0, 0.0, 0.0]
39 [0.875, 0.875, 0.875, 0.0, 0.0, 0.0, 0.0, 0.375]
40 [0.0, 0.375, 0.375, 0.875, 0.0, 0.0, 0.0, 0.0]
41 [0.11111111, 0.9444444, 0.9444444, 0.0, 0.0, 0.0, 0.0, 0.0]
42 [0.0, 0.6666667, 0.6666667, 0.6666667, 0.6666667, 0.0, 0.0, 0.0]
43 [0.8333333, 0.8333333, 0.8333333, 0.0, 0.0, 0.0, 0.0, 0.0]
44 [0.11111111, 0.9444444, 0.9444444, 0.9444444, 0.0, 0.0, 0.0, 0.0]
45 [0.0, 0.0, 0.5, 0.5, 0.5, 0.0, 0.0, 0.0]
46 [0.125, 0.9375, 0.9375, 0.125, 0.0, 0.0, 0.0, 0.0]
47 [0.0, 0.0, 0.375, 0.375, 0.875, 0.0, 0.0, 0.0]
48 [0.0, 0.0, 0.0, 0.0, 0.0, 0.0, 0.0, 0.0]
49 [0.0, 0.0, 0.0, 0.0, 0.0, 0.0, 0.0, 0.0]
