0 [0.0, 0.0, 0.0, 0.0, 0.0, 0.0, 0.0, 0.0]
1 [0.0, 0.0, 0.0, 0.0, 0.0, 0.0, 0.0, 0.0]
2 [0.0, 0.0, 0.0, 0.0, 0.0, 0.0, 0.0, 0.0]
3 [0.0, 0.0, 0.0, 0.0, 0.0, 0.0, 0.0, 0.0]
4 [0.0, 0.0, 0.0, 0.0, 0.0, 0.0, 0.0, 0.0]
5 [0.31144506, 0.0, 0.0, 0.0, 0.0, 0.0, 0.0, 0.4122062]
6 [0.30862495, 0.3409463, 0.0, 0.0, 0.0, 0.0, 0.0, 0.41479158]
7 [0.30862495, 0.3409463, 0.0, 0.0, 0.0, 0.0, 0.0, 0.41479158]
8 [0.30402157, 0.32793278, 0.0, 0.0, 0.0, 0.0, 0.0, 0.41749856]
9 [0.92223734, 0.30493954, 0.0, 0.0, 0.0, 0.0, 0.0, 0.4196442]
10 [0.911924, 0.29121956, 0.0, 0.0, 0.0, 0.0, 0.0, 0.42551666]
11 [0.9223865, 0.279491, 0.3271026, 0.0, 0.0, 0.0, 0.0, 0.0]
12 [0.94573015, 0.28123084, 0.30469477, 0.0, 0.0, 0.0, 0.0, 0.0]
13 [0.96847963, 0.28144318, 0.29324478, 0.0, 0.0, 0.0, 0.0, 0.0]
14 [0.0, 0.280855, 0.2900041, 0.0, 0.0, 0.0, 0.0, 0.0]
15 [0.0, 0.28015834, 0.2879375, 0.0, 0.0, 0.0, 0.0, 0.0]
16 [0.0, 0.2794026, 0.28590244, 0.0, 0.0, 0.0, 0.0, 0.0]
17 [0.0, 0.27827296, 0.28298998, 0.0, 0.0, 0.0, 0.0, 0.0]
18 [0.0, 0.2766017, 0.27952424, 0.0, 0.0, 0.0, 0.0, 0.0]
19 [0.0, 0.2755582, 0.27744424, 0.0, 0.0, 0.0, 0.0, 0.0]
20 [0.0, 0.4726076, 0.27654734, 0.32288277, 0.0, 0.0, 0.0, 0.0]
21 [0.0, 0.91243464, 0.28479454, 0.31125683, 0.0, 0.0, 0.0, 0.0]
22 [0.0, 0.9090569, 0.2906833, 0.30735818, 0.0, 0.0, 0.0, 0.0]
23 [0.0, 0.9087925, 0.29419154, 0.3063117, 0.0, 0.0, 0.0, 0.0]
24 [0.0, 0.91701627, 0.29711372, 0.30369517, 0.0, 0.0, 0.0, 0.0]
25 [0.0, 0.93322057, 0.49605, 0.30036947, 0.35470054, 0.0, 0.0, 0.0]
26 [0.0, 0.94818497, 0.9298606, 0.29811493, 0.331809, 0.0, 0.0, 0.0]
27 [0.0, 0.9691286, 0.90831745, 0.28965226, 0.30499527, 0.0, 0.0, 0.0]
28 [0.0, 0.0, 0.898727, 0.27916253, 0.28384358, 0.0, 0.0, 0.0]
29 [0.4103842, 0.0, 0.8991809, 0.46041062, 0.2632055, 0.31284124, 0.0, 0.0]
30 [0.40944445, 0.0, 0.9155256, 0.8781368, 0.2505605, 0.27306032, 0.0, 0.0]
31 [0.39911592, 0.0, 0.9663751, 0.8572786, 0.23382603, 0.23861076, 0.29893887, 0.0]
32 [0.38215065, 0.0, 0.0, 0.8834455, 0.85045874, 0.22325578, 0.24498332, 0.0]
33 [0.39361596, 0.5622107, 0.0, 0.9639464, 0.841557, 0.41081917, 0.2149947, 0.0]
34 [0.0, 0.36978915, 0.0, 0.0, 0.8783938, 0.8384976, 0.21497919, 0.28530717]
35 [0.0, 0.36567226, 0.0, 0.0, 0.9318053, 0.83153737, 0.41009057, 0.25193208]
36 [0.0, 0.35980907, 0.36029214, 0.0, 0.0, 0.8450419, 0.8462613, 0.23468252]
37 [0.0, 0.36175898, 0.36287782, 0.0, 0.0, 0.8683171, 0.83834547, 0.2217008]
38 [0.0, 0.37510517, 0.36026958, 0.0, 0.0, 0.91903996, 0.82756484, 0.22530466]
39 [0.0, 0.0, 0.34644747, 0.3475686, 0.0, 0.0, 0.8677679, 0.42953193]
40 [0.0, 0.0, 0.34644747, 0.3475686, 0.0, 0.0, 0.8677679, 0.42953193]
41 [0.5025843, 0.0, 0.34567043, 0.32451844, 0.0, 0.0, 0.9347412, 0.85973173]
42 [0.49536055, 0.0, 0.0, 0.30679342, 0.30685565, 0.0, 0.0, 0.8641732]
43 [0.47299936, 0.0, 0.0, 0.30843192, 0.28923938, 0.0, 0.0, 0.8677334]
44 [0.48625916, 0.0, 0.0, 0.0, 0.27609134, 0.27044225, 0.0, 0.9477567]
45 [0.0, 0.45059806, 0.0, 0.0, 0.28104466, 0.25785103, 0.4507873, 0.0]
46 [0.0, 0.44315135, 0.0, 0.0, 0.0, 0.24980873, 0.24888222, 0.0]
47 [0.0, 0.42469105, 0.4258594, 0.0, 0.0, 0.2620449, 0.24049479, 0.0]
48 [0.0, 0.4481594, 0.42027298, 0.0, 0.0, 0.0, 0.24427137, 0.24153177]
49 [0.0, 0.0, 0.41692019, 0.41368917, 0.0, 0.0, 0.0, 0.25139245]
