1 119 59.0 59.0
2 181 105.5 164.5
3 75 69.5 234.0
4 46 42.0 276.0
5 93 76.0 352.0
6 204 132.0 484.0
7 146 124.0 608.0
8 233 192.5 800.5
9 1 1.0 801.5
10 174 123.0 924.5
11 263 186.5 1111.0
12 81 79.0 1190.0
13 44 40.5 1230.5
14 246 182.0 1412.5
15 151 131.0 1543.5
16 121 119.0 1662.5
17 76 60.5 1723.0
18 55 45.5 1768.5
19 156 122.5 1891.0
20 151 110.5 2001.5
21 375 273.5 2275.0
22 1 0.0 2275.0
23 344 250.5 2525.5
24 1 0.5 2526.0
25 204 173.0 2699.0
26 306 195.5 2894.5
27 115 101.0 2995.5
28 1 1.0 2996.5
29 111 101.5 3098.0
30 573 429.0 3527.0
31 1 0.0 3527.0
32 429 292.0 3819.0
33 700 589.0 4408.0
34 489 334.0 4742.0
35 1 1.0 4743.0
36 1 1.0 4744.0
37 700 425.5 5169.5
38 390 288.5 5458.0
39 1 0.5 5458.5
40 172 141.0 5599.5
41 51 51.0 5650.5
42 108 106.0 5756.5
43 250 171.5 5928.0
44 196 99.5 6027.5
45 119 100.0 6127.5
46 292 244.5 6372.0
47 272 186.5 6558.5
48 510 395.0 6953.5
49 1 1.0 6954.5
50 1 1.0 6955.5
51 700 591.0 7546.5
52 333 254.0 7800.5
53 1 0.0 7800.5
54 700 437.5 8238.0
55 247 196.5 8434.5
56 1 1.0 8435.5
57 301 253.0 8688.5
58 1 1.0 8689.5
59 1 0.5 8690.0
60 559 444.5 9134.5
61 1 0.0 9134.5
62 337 256.5 9391.0
63 1 1.0 9392.0
64 596 542.5 9934.5
65 1 0.5 9935.0
66 700 528.0 10463.0
67 618 524.5 10987.5
68 1 1.0 10988.5
69 1 1.0 10989.5
70 1 1.0 10990.5
71 300 283.5 11274.0
72 1 1.0 11275.0
73 1 1.0 11276.0
74 1 1.0 11277.0
75 127 98.5 11375.5
76 1 0.0 11375.5
77 318 253.0 11628.5
78 207 180.5 11809.0
79 94 69.0 11878.0
80 103 96.5 11974.5
81 121 111.5 12086.0
82 110 85.5 12171.5
83 342 278.5 12450.0
84 1 1.0 12451.0
85 700 570.5 13021.5
86 690 534.5 13556.0
87 1 0.5 13556.5
88 381 315.0 13871.5
89 1 0.0 13871.5
90 1 0.0 13871.5
91 468 373.0 14244.5
92 1 0.5 14245.0
93 1 0.5 14245.5
94 315 218.5 14464.0
95 1 0.5 14464.5
96 1 0.5 14465.0
97 700 558.5 15023.5
98 1 0.0 15023.5
99 1 0.0 15023.5
100 1 0.0 15023.5
101 460 381.5 15405.0
102 1 0.0 15405.0
103 700 486.5 15891.5
104 426 306.0 16197.5
105 1 1.0 16198.5
106 700 574.0 16772.5
107 224 184.0 16956.5
108 1 1.0 16957.5
109 627 537.0 17494.5
110 1 0.5 17495.0
111 1 0.5 17495.5
112 1 0.5 17496.0
113 1 0.0 17496.0
114 1 0.0 17496.0
115 1 0.0 17496.0
116 1 0.0 17496.0
117 334 292.0 17788.0
118 1 1.0 17789.0
119 501 395.0 18184.0
120 100 84.5 18268.5
121 186 121.0 18389.5
122 62 61.0 18450.5
123 94 76.0 18526.5
124 184 147.0 18673.5
125 60 52.0 18725.5
126 51 48.0 18773.5
127 200 159.5 18933.0
128 42 24.0 18957.0
129 68 54.5 19011.5
130 96 84.0 19095.5
131 1 0.5 19096.0
132 700 557.0 19653.0
133 665 545.0 20198.0
134 1 1.0 20199.0
135 397 351.0 20550.0
136 1 0.5 20550.5
137 324 270.5 20821.0
138 1 1.0 20822.0
139 560 460.0 21282.0
140 1 0.5 21282.5
141 554 460.0 21742.5
142 1 1.0 21743.5
143 412 352.5 22096.0
144 1 0.5 22096.5
145 1 0.5 22097.0
146 700 505.5 22602.5
147 298 261.5 22864.0
148 1 1.0 22865.0
149 639 549.5 23414.5
150 1 0.5 23415.0
151 653 534.5 23949.5
152 1 1.0 23950.5
153 458 340.5 24291.0
154 1 1.0 24292.0
155 455 320.5 24612.5
156 1 1.0 24613.5
157 501 390.5 25004.0
158 1 1.0 25005.0
159 396 278.0 25283.0
160 1 1.0 25284.0
161 700 566.0 25850.0
162 700 548.5 26398.5
163 649 503.0 26901.5
164 1 0.5 26902.0
165 352 299.0 27201.0
166 1 1.0 27202.0
167 700 559.5 27761.5
168 414 302.5 28064.0
169 1 1.0 28065.0
170 552 396.0 28461.0
171 1 1.0 28462.0
172 599 502.5 28964.5
173 1 1.0 28965.5
174 1 1.0 28966.5
175 575 488.0 29454.5
176 111 94.0 29548.5
177 82 79.0 29627.5
178 62 47.5 29675.0
179 1 0.5 29675.5
180 700 312.5 29988.0
181 622 561.5 30549.5
182 1 1.0 30550.5
183 117 95.0 30645.5
184 6 6.0 30651.5
185 1 1.0 30652.5
186 561 446.0 31098.5
187 1 1.0 31099.5
188 334 249.0 31348.5
189 1 0.5 31349.0
190 700 482.0 31831.0
191 163 141.0 31972.0
192 195 142.5 32114.5
193 149 98.0 32212.5
194 83 60.5 32273.0
195 88 76.5 32349.5
196 47 40.5 32390.0
197 208 128.5 32518.5
198 1 1.0 32519.5
199 601 471.5 32991.0
200 1 1.0 32992.0
201 700 474.0 33466.0
202 406 334.5 33800.5
203 700 537.5 34338.0
204 358 301.5 34639.5
205 1 1.0 34640.5
206 1 1.0 34641.5
207 700 571.0 35212.5
208 700 520.5 35733.0
209 700 543.5 36276.5
210 700 555.0 36831.5
211 212 136.0 36967.5
212 1 1.0 36968.5
213 1 1.0 36969.5
214 194 174.5 37144.0
215 1 1.0 37145.0
216 700 562.5 37707.5
217 700 483.0 38190.5
218 512 434.0 38624.5
219 1 1.0 38625.5
220 156 143.5 38769.0
221 1 0.5 38769.5
222 214 159.0 38928.5
223 1 0.5 38929.0
224 700 546.5 39475.5
225 165 118.0 39593.5
226 1 1.0 39594.5
227 700 572.0 40166.5
228 421 340.0 40506.5
229 1 1.0 40507.5
230 624 526.0 41033.5
231 1 0.5 41034.0
232 700 508.0 41542.0
233 700 600.0 42142.0
234 370 292.0 42434.0
235 1 0.5 42434.5
236 700 464.0 42898.5
237 700 484.5 43383.0
238 700 512.5 43895.5
239 424 381.0 44276.5
240 1 0.5 44277.0
241 577 424.5 44701.5
242 1 0.5 44702.0
243 700 561.0 45263.0
244 675 554.5 45817.5
245 1 0.0 45817.5
246 700 506.0 46323.5
247 202 171.5 46495.0
248 1 1.0 46496.0
249 299 250.0 46746.0
250 1 1.0 46747.0
251 1 1.0 46748.0
252 644 532.5 47280.5
253 1 0.5 47281.0
254 700 566.0 47847.0
255 548 468.0 48315.0
256 700 558.5 48873.5
257 437 351.0 49224.5
258 1 0.5 49225.0
259 212 114.5 49339.5
260 141 112.0 49451.5
261 166 115.5 49567.0
262 97 97.0 49664.0
263 43 35.5 49699.5
264 124 74.5 49774.0
265 399 334.5 50108.5
266 1 1.0 50109.5
267 700 463.0 50572.5
268 700 577.0 51149.5
269 209 168.0 51317.5
270 1 0.5 51318.0
271 700 556.0 51874.0
272 665 521.5 52395.5
273 1 1.0 52396.5
274 700 450.5 52847.0
275 218 196.5 53043.5
276 1 1.0 53044.5
277 700 526.0 53570.5
278 700 560.0 54130.5
279 260 245.0 54375.5
280 1 0.5 54376.0
281 1 0.5 54376.5
282 295 257.0 54633.5
283 1 1.0 54634.5
284 1 1.0 54635.5
285 1 1.0 54636.5
286 1 1.0 54637.5
287 700 610.0 55247.5
288 700 509.5 55757.0
289 382 281.0 56038.0
290 1 0.0 56038.0
291 259 196.0 56234.0
292 1 1.0 56235.0
293 700 513.0 56748.0
294 346 285.0 57033.0
295 1 1.0 57034.0
296 700 582.0 57616.0
297 220 167.0 57783.0
298 1 1.0 57784.0
299 700 493.5 58277.5
300 602 420.0 58697.5
301 560 477.5 59175.0
302 1 1.0 59176.0
303 226 163.0 59339.0
304 1 1.0 59340.0
305 164 139.0 59479.0
306 1 1.0 59480.0
307 1 1.0 59481.0
308 676 557.5 60038.5
309 1 1.0 60039.5
310 191 162.0 60201.5
311 1 0.5 60202.0
312 1 1.0 60203.0
313 700 557.5 60760.5
314 204 188.0 60948.5
315 1 1.0 60949.5
316 505 385.5 61335.0
317 1 0.0 61335.0
318 700 574.0 61909.0
319 330 282.0 62191.0
320 1 1.0 62192.0
321 700 591.0 62783.0
322 1 1.0 62784.0
323 700 540.0 63324.0
324 623 462.0 63786.0
325 1 1.0 63787.0
326 700 572.0 64359.0
327 216 159.5 64518.5
328 1 1.0 64519.5
329 1 1.0 64520.5
330 170 134.5 64655.0
331 1 1.0 64656.0
332 700 549.5 65205.5
333 450 370.5 65576.0
334 1 1.0 65577.0
335 396 306.5 65883.5
336 1 0.0 65883.5
337 700 570.5 66454.0
338 1 0.5 66454.5
339 1 0.5 66455.0
340 700 541.5 66996.5
341 324 251.5 67248.0
342 1 1.0 67249.0
343 700 529.0 67778.0
344 700 488.5 68266.5
345 700 603.0 68869.5
346 2 0.0 68869.5
347 312 249.0 69118.5
348 1 1.0 69119.5
349 613 484.0 69603.5
350 1 1.0 69604.5
351 1 1.0 69605.5
352 1 1.0 69606.5
353 1 1.0 69607.5
354 1 1.0 69608.5
355 1 1.0 69609.5
356 159 140.5 69750.0
357 1 0.5 69750.5
358 700 547.5 70298.0
359 700 532.0 70830.0
360 320 258.5 71088.5
361 1 1.0 71089.5
362 700 574.5 71664.0
363 299 214.0 71878.0
364 205 141.5 72019.5
365 52 47.0 72066.5
366 63 62.0 72128.5
367 77 68.0 72196.5
368 58 50.5 72247.0
369 403 293.5 72540.5
370 233 102.5 72643.0
371 147 132.5 72775.5
372 313 227.5 73003.0
373 700 627.5 73630.5
374 700 560.5 74191.0
375 700 575.0 74766.0
376 700 553.0 75319.0
377 333 289.0 75608.0
378 1 1.0 75609.0
379 523 406.0 76015.0
380 1 0.0 76015.0
381 660 554.0 76569.0
382 1 1.0 76570.0
383 291 188.5 76758.5
384 1 0.0 76758.5
385 700 557.5 77316.0
386 700 472.5 77788.5
387 237 190.0 77978.5
388 1 0.5 77979.0
389 286 241.0 78220.0
390 1 1.0 78221.0
391 700 596.5 78817.5
392 364 332.0 79149.5
393 1 1.0 79150.5
394 700 567.5 79718.0
395 269 188.5 79906.5
396 1 0.5 79907.0
397 700 559.0 80466.0
398 700 512.5 80978.5
399 1 0.0 80978.5
400 655 502.0 81480.5
401 1 1.0 81481.5
402 700 565.0 82046.5
403 700 580.0 82626.5
404 700 561.0 83187.5
405 700 498.5 83686.0
406 700 490.0 84176.0
407 661 508.0 84684.0
408 1 0.0 84684.0
409 377 236.5 84920.5
410 1 1.0 84921.5
411 700 568.5 85490.0
412 700 570.5 86060.5
413 700 558.0 86618.5
414 700 527.0 87145.5
415 700 472.0 87617.5
416 235 189.5 87807.0
417 1 1.0 87808.0
418 576 394.5 88202.5
419 1 0.5 88203.0
420 274 167.0 88370.0
421 1 1.0 88371.0
422 687 500.0 88871.0
423 1 1.0 88872.0
424 256 188.0 89060.0
425 1 1.0 89061.0
426 700 575.0 89636.0
427 700 588.0 90224.0
428 547 433.0 90657.0
429 1 1.0 90658.0
430 700 521.5 91179.5
431 378 299.0 91478.5
432 1 1.0 91479.5
433 700 593.5 92073.0
434 419 329.0 92402.0
435 1 1.0 92403.0
436 664 558.0 92961.0
437 1 1.0 92962.0
438 700 530.5 93492.5
439 700 536.0 94028.5
440 700 530.5 94559.0
441 189 163.5 94722.5
442 1 1.0 94723.5
443 700 487.5 95211.0
444 204 188.0 95399.0
445 1 1.0 95400.0
446 374 260.0 95660.0
447 1 0.0 95660.0
448 700 551.5 96211.5
449 700 519.5 96731.0
450 700 598.5 97329.5
451 700 604.5 97934.0
452 700 519.5 98453.5
453 700 535.5 98989.0
454 700 600.0 99589.0
455 509 403.5 99992.5
456 1 0.0 99992.5
457 695 541.5 100534.0
458 1 1.0 100535.0
459 156 133.0 100668.0
460 1 1.0 100669.0
461 1 1.0 100670.0
462 700 586.5 101256.5
463 700 597.5 101854.0
464 490 363.0 102217.0
465 1 0.5 102217.5
466 700 542.0 102759.5
467 317 292.0 103051.5
468 1 0.5 103052.0
469 1 0.5 103052.5
470 700 546.5 103599.0
471 406 335.5 103934.5
472 1 0.5 103935.0
473 580 462.0 104397.0
474 1 1.0 104398.0
475 231 192.5 104590.5
476 1 0.0 104590.5
477 700 543.0 105133.5
478 700 490.5 105624.0
479 700 521.0 106145.0
480 633 520.5 106665.5
481 1 1.0 106666.5
482 1 1.0 106667.5
483 1 1.0 106668.5
484 700 389.0 107057.5
485 700 539.5 107597.0
486 700 534.5 108131.5
487 372 300.5 108432.0
488 369 286.5 108718.5
489 1 1.0 108719.5
490 700 616.0 109335.5
491 488 357.0 109692.5
492 1 0.5 109693.0
493 700 572.0 110265.0
494 691 612.5 110877.5
495 1 1.0 110878.5
496 700 610.5 111489.0
497 182 174.5 111663.5
498 1 1.0 111664.5
499 700 547.5 112212.0
500 454 390.5 112602.5
501 1 0.0 112602.5
502 700 565.0 113167.5
503 700 523.0 113690.5
504 700 614.5 114305.0
505 582 432.5 114737.5
506 1 1.0 114738.5
507 1 1.0 114739.5
508 571 494.5 115234.0
509 1 1.0 115235.0
510 592 504.0 115739.0
511 1 1.0 115740.0
512 672 500.5 116240.5
513 1 1.0 116241.5
514 1 1.0 116242.5
515 1 1.0 116243.5
516 426 366.5 116610.0
517 1 0.0 116610.0
518 700 590.5 117200.5
519 700 548.0 117748.5
520 700 587.0 118335.5
521 700 600.0 118935.5
522 212 166.5 119102.0
523 1 0.0 119102.0
524 700 575.0 119677.0
525 696 540.0 120217.0
526 1 0.0 120217.0
527 173 150.5 120367.5
528 1 0.0 120367.5
529 700 555.5 120923.0
530 700 538.5 121461.5
531 626 528.0 121989.5
532 1 1.0 121990.5
533 408 323.5 122314.0
534 1 1.0 122315.0
535 700 574.0 122889.0
536 233 162.5 123051.5
537 1 0.5 123052.0
538 1 0.5 123052.5
539 700 572.0 123624.5
540 700 475.5 124100.0
541 572 513.0 124613.0
542 1 1.0 124614.0
543 700 547.0 125161.0
544 700 529.5 125690.5
545 662 540.0 126230.5
546 1 0.0 126230.5
547 700 546.5 126777.0
548 700 550.5 127327.5
549 605 513.0 127840.5
550 1 1.0 127841.5
551 224 182.0 128023.5
552 1 1.0 128024.5
553 637 583.0 128607.5
554 1 0.5 128608.0
555 337 284.0 128892.0
556 1 1.0 128893.0
557 1 1.0 128894.0
558 567 474.0 129368.0
559 1 1.0 129369.0
560 700 499.0 129868.0
561 700 446.0 130314.0
562 700 589.0 130903.0
563 659 496.0 131399.0
564 1 0.5 131399.5
565 1 0.5 131400.0
566 700 529.0 131929.0
567 700 498.0 132427.0
568 24 23.0 132450.0
569 700 531.0 132981.0
570 700 479.0 133460.0
571 654 518.5 133978.5
572 1 1.0 133979.5
573 700 576.0 134555.5
574 453 408.0 134963.5
575 1 1.0 134964.5
576 700 579.0 135543.5
577 700 487.5 136031.0
578 554 463.5 136494.5
579 1 0.5 136495.0
580 1 0.5 136495.5
581 231 203.0 136698.5
582 1 1.0 136699.5
583 1 0.0 136699.5
584 700 522.0 137221.5
585 176 170.0 137391.5
586 1 1.0 137392.5
587 613 492.5 137885.0
588 1 0.5 137885.5
589 233 205.5 138091.0
590 1 1.0 138092.0
591 700 575.5 138667.5
592 387 305.0 138972.5
593 1 1.0 138973.5
594 299 207.0 139180.5
595 1 0.0 139180.5
596 700 553.0 139733.5
597 169 164.5 139898.0
598 700 580.0 140478.0
599 700 537.5 141015.5
600 700 524.0 141539.5
601 700 572.5 142112.0
602 700 564.0 142676.0
603 185 159.5 142835.5
604 1 1.0 142836.5
605 180 126.5 142963.0
606 1 1.0 142964.0
607 633 487.0 143451.0
608 1 1.0 143452.0
609 607 489.5 143941.5
610 1 1.0 143942.5
611 700 599.0 144541.5
612 700 525.5 145067.0
613 560 396.5 145463.5
614 1 0.0 145463.5
615 681 565.0 146028.5
616 1 0.5 146029.0
617 700 579.5 146608.5
618 700 512.0 147120.5
619 656 574.0 147694.5
620 1 1.0 147695.5
621 228 193.0 147888.5
622 1 1.0 147889.5
623 304 209.0 148098.5
624 1 1.0 148099.5
625 700 574.0 148673.5
626 700 617.5 149291.0
627 313 281.5 149572.5
628 1 0.0 149572.5
629 700 530.5 150103.0
630 543 440.0 150543.0
631 1 1.0 150544.0
632 681 602.5 151146.5
633 1 1.0 151147.5
634 309 192.5 151340.0
635 1 1.0 151341.0
636 654 526.5 151867.5
637 217 166.0 152033.5
638 1 0.5 152034.0
639 1 0.5 152034.5
640 237 190.5 152225.0
641 1 1.0 152226.0
642 700 538.5 152764.5
643 700 571.0 153335.5
644 700 582.0 153917.5
645 700 589.0 154506.5
646 370 323.5 154830.0
647 1 0.5 154830.5
648 700 546.0 155376.5
649 241 163.0 155539.5
650 1 1.0 155540.5
651 222 171.0 155711.5
652 1 0.5 155712.0
653 700 559.5 156271.5
654 700 553.0 156824.5
655 299 259.0 157083.5
656 1 1.0 157084.5
657 223 184.0 157268.5
658 1 1.0 157269.5
659 700 592.0 157861.5
660 700 536.0 158397.5
661 494 372.5 158770.0
662 1 1.0 158771.0
663 366 315.5 159086.5
664 1 0.5 159087.0
665 1 0.5 159087.5
666 700 603.5 159691.0
667 96 87.5 159778.5
668 140 126.5 159905.0
669 176 162.0 160067.0
670 668 479.0 160546.0
671 700 530.0 161076.0
672 281 251.0 161327.0
673 1 1.0 161328.0
674 1 1.0 161329.0
675 403 263.5 161592.5
676 1 1.0 161593.5
677 700 620.0 162213.5
678 700 557.5 162771.0
679 700 586.5 163357.5
680 221 203.0 163560.5
681 1 1.0 163561.5
682 700 549.5 164111.0
683 700 506.5 164617.5
684 700 532.0 165149.5
685 700 608.0 165757.5
686 700 451.5 166209.0
687 700 503.5 166712.5
688 1 0.5 166713.0
689 700 589.0 167302.0
690 291 220.0 167522.0
691 1 1.0 167523.0
692 700 648.0 168171.0
693 700 502.5 168673.5
694 507 418.0 169091.5
695 1 1.0 169092.5
696 241 180.5 169273.0
697 1 1.0 169274.0
698 700 551.5 169825.5
699 700 525.0 170350.5
700 700 537.0 170887.5
701 197 179.5 171067.0
702 1 1.0 171068.0
703 700 626.0 171694.0
704 653 529.5 172223.5
705 1 1.0 172224.5
706 689 565.5 172790.0
707 1 1.0 172791.0
708 1 1.0 172792.0
709 700 603.0 173395.0
710 270 238.0 173633.0
711 1 1.0 173634.0
712 1 1.0 173635.0
713 220 200.0 173835.0
714 1 1.0 173836.0
715 700 577.0 174413.0
716 67 58.5 174471.5
717 551 408.0 174879.5
718 1 0.5 174880.0
719 700 535.5 175415.5
720 700 520.0 175935.5
721 700 579.5 176515.0
722 700 552.5 177067.5
723 700 567.0 177634.5
724 560 502.0 178136.5
725 1 0.5 178137.0
726 1 0.5 178137.5
727 700 593.0 178730.5
728 404 384.5 179115.0
729 1 1.0 179116.0
730 154 147.0 179263.0
731 1 1.0 179264.0
732 1 1.0 179265.0
733 332 275.0 179540.0
734 485 404.5 179944.5
735 1 1.0 179945.5
736 1 1.0 179946.5
737 380 319.0 180265.5
738 1 1.0 180266.5
739 1 1.0 180267.5
740 700 613.0 180880.5
741 700 631.5 181512.0
742 700 540.5 182052.5
743 700 505.5 182558.0
744 484 415.5 182973.5
745 1 1.0 182974.5
746 700 565.5 183540.0
747 700 576.0 184116.0
748 700 552.5 184668.5
749 700 549.0 185217.5
750 495 378.5 185596.0
751 1 1.0 185597.0
752 700 592.5 186189.5
753 291 228.5 186418.0
754 1 1.0 186419.0
755 582 451.5 186870.5
756 664 512.0 187382.5
757 1 0.5 187383.0
758 450 389.0 187772.0
759 1 1.0 187773.0
760 700 572.0 188345.0
761 392 316.5 188661.5
762 1 0.5 188662.0
763 700 625.0 189287.0
764 284 241.5 189528.5
765 1 0.0 189528.5
766 700 578.0 190106.5
767 304 241.5 190348.0
768 1 1.0 190349.0
769 1 1.0 190350.0
770 700 513.0 190863.0
771 700 503.0 191366.0
772 700 579.5 191945.5
773 700 502.5 192448.0
774 700 598.5 193046.5
775 229 188.0 193234.5
776 262 185.5 193420.0
777 51 45.5 193465.5
778 293 215.0 193680.5
779 51 51.0 193731.5
780 185 147.5 193879.0
781 198 169.0 194048.0
782 3 3.0 194051.0
783 1 1.0 194052.0
784 8 8.0 194060.0
785 1 1.0 194061.0
786 1 1.0 194062.0
787 1 1.0 194063.0
788 700 579.5 194642.5
789 700 565.0 195207.5
790 700 598.0 195805.5
791 206 165.5 195971.0
792 1 0.5 195971.5
793 291 257.0 196228.5
794 1 1.0 196229.5
795 700 553.5 196783.0
796 627 491.0 197274.0
797 308 252.0 197526.0
798 1 1.0 197527.0
799 700 576.0 198103.0
800 395 317.5 198420.5
801 1 1.0 198421.5
802 399 298.0 198719.5
803 1 1.0 198720.5
804 223 169.0 198889.5
805 126 120.0 199009.5
806 177 133.0 199142.5
807 104 82.0 199224.5
808 106 73.5 199298.0
809 117 87.0 199385.0
810 258 187.5 199572.5
811 216 143.0 199715.5
812 700 533.0 200248.5
813 700 505.0 200753.5
814 700 545.5 201299.0
815 545 470.0 201769.0
816 1 1.0 201770.0
817 236 184.5 201954.5
818 1 0.5 201955.0
819 700 530.0 202485.0
820 424 305.0 202790.0
821 1 1.0 202791.0
822 700 550.5 203341.5
823 700 538.0 203879.5
824 272 221.0 204100.5
825 1 1.0 204101.5
826 254 208.0 204309.5
827 1 0.5 204310.0
828 697 568.0 204878.0
829 1 1.0 204879.0
830 700 527.0 205406.0
831 497 337.5 205743.5
832 174 134.0 205877.5
833 88 83.5 205961.0
834 76 60.5 206021.5
835 1 0.5 206022.0
836 60 52.5 206074.5
837 271 196.0 206270.5
838 385 309.5 206580.0
839 1 1.0 206581.0
840 700 570.0 207151.0
841 249 199.0 207350.0
842 1 1.0 207351.0
843 1 1.0 207352.0
844 700 551.0 207903.0
845 700 572.0 208475.0
846 700 525.5 209000.5
847 700 539.5 209540.0
848 454 416.0 209956.0
849 1 1.0 209957.0
850 1 1.0 209958.0
851 412 329.5 210287.5
852 1 1.0 210288.5
853 700 531.0 210819.5
854 700 598.5 211418.0
855 558 479.0 211897.0
856 1 1.0 211898.0
857 491 390.5 212288.5
858 1 0.5 212289.0
859 700 536.5 212825.5
860 700 509.5 213335.0
861 404 300.5 213635.5
862 1 0.0 213635.5
863 700 547.0 214182.5
864 700 483.0 214665.5
865 700 494.0 215159.5
866 700 580.0 215739.5
867 700 583.0 216322.5
868 700 617.5 216940.0
869 700 626.0 217566.0
870 700 550.5 218116.5
871 700 540.0 218656.5
872 700 519.5 219176.0
873 562 471.0 219647.0
874 1 1.0 219648.0
875 561 474.5 220122.5
876 700 512.0 220634.5
877 700 530.0 221164.5
878 230 202.5 221367.0
879 1 1.0 221368.0
880 700 576.5 221944.5
881 286 253.5 222198.0
882 1 1.0 222199.0
883 1 1.0 222200.0
884 700 527.5 222727.5
885 388 319.5 223047.0
886 221 191.5 223238.5
887 1 1.0 223239.5
888 700 596.5 223836.0
889 700 516.5 224352.5
890 700 557.5 224910.0
891 509 461.0 225371.0
892 1 0.0 225371.0
893 700 608.0 225979.0
894 700 530.5 226509.5
895 644 577.5 227087.0
896 130 120.0 227207.0
897 257 185.5 227392.5
898 295 248.0 227640.5
899 143 113.5 227754.0
900 596 405.5 228159.5
901 1 1.0 228160.5
902 700 531.0 228691.5
903 582 448.0 229139.5
904 1 1.0 229140.5
905 700 574.5 229715.0
906 700 600.5 230315.5
907 700 586.0 230901.5
908 700 552.5 231454.0
909 700 522.5 231976.5
910 700 483.0 232459.5
911 700 494.5 232954.0
912 601 487.5 233441.5
913 1 1.0 233442.5
914 700 523.5 233966.0
915 700 524.0 234490.0
916 670 571.0 235061.0
917 1 0.0 235061.0
918 315 256.0 235317.0
919 1 1.0 235318.0
920 570 492.5 235810.5
921 1 1.0 235811.5
922 1 1.0 235812.5
923 1 1.0 235813.5
924 700 593.5 236407.0
925 700 554.5 236961.5
926 700 541.5 237503.0
927 700 483.0 237986.0
928 671 481.0 238467.0
929 1 1.0 238468.0
930 573 418.5 238886.5
931 1 0.0 238886.5
932 402 301.0 239187.5
933 1 1.0 239188.5
934 1 1.0 239189.5
935 1 1.0 239190.5
936 700 609.5 239800.0
937 276 229.0 240029.0
938 1 1.0 240030.0
939 700 577.5 240607.5
940 700 537.0 241144.5
941 211 192.5 241337.0
942 1 1.0 241338.0
943 700 560.0 241898.0
944 700 569.5 242467.5
945 700 543.5 243011.0
946 700 435.5 243446.5
947 700 586.0 244032.5
948 700 609.0 244641.5
949 700 602.0 245243.5
950 666 574.0 245817.5
951 1 1.0 245818.5
952 700 524.5 246343.0
953 700 528.5 246871.5
954 700 604.0 247475.5
955 643 577.5 248053.0
956 1 1.0 248054.0
957 458 361.0 248415.0
958 1 1.0 248416.0
959 700 581.0 248997.0
960 2 2.0 248999.0
961 1 1.0 249000.0
962 700 618.0 249618.0
963 700 585.5 250203.5
964 700 548.5 250752.0
965 700 514.5 251266.5
966 677 514.5 251781.0
967 1 0.0 251781.0
968 700 516.0 252297.0
969 322 267.0 252564.0
970 1 0.0 252564.0
971 700 611.5 253175.5
972 418 317.0 253492.5
973 1 1.0 253493.5
974 700 528.5 254022.0
975 700 507.5 254529.5
976 700 591.5 255121.0
977 700 533.0 255654.0
978 700 568.0 256222.0
979 700 522.0 256744.0
980 700 481.5 257225.5
981 700 521.0 257746.5
982 700 563.5 258310.0
983 520 461.5 258771.5
984 1 1.0 258772.5
985 700 552.5 259325.0
986 517 395.5 259720.5
987 1 1.0 259721.5
988 700 577.0 260298.5
989 700 561.0 260859.5
990 700 572.5 261432.0
991 700 544.5 261976.5
992 455 336.0 262312.5
993 1 1.0 262313.5
994 1 1.0 262314.5
995 700 557.0 262871.5
996 700 591.0 263462.5
997 568 466.5 263929.0
998 1 1.0 263930.0
999 278 244.5 264174.5
1000 1 1.0 264175.5
