0 [0.0, 0.0, 0.0, 0.0, 0.0, 0.0, 0.0, 0.0]
1 [0.0, 0.9574278, 0.0, 0.0, 0.0, 0.0, 0.0, 0.0]
2 [0.0, 0.9591522, 0.0, 0.0, 0.0, 0.0, 0.0, 0.0]
3 [0.0, 0.9622886, 0.0, 0.0, 0.0, 0.0, 0.0, 0.0]
4 [0.0, 0.9622886, 0.0, 0.0, 0.0, 0.0, 0.0, 0.0]
5 [0.0, 0.96837205, 0.0, 0.0, 0.0, 0.0, 0.0, 0.0]
6 [0.0, 0.96659464, 0.0, 0.0, 0.0, 0.0, 0.0, 0.0]
7 [0.0, 0.9600709, 0.0, 0.0, 0.0, 0.0, 0.0, 0.0]
8 [0.0, 0.9554884, 0.0, 0.0, 0.0, 0.0, 0.0, 0.0]
9 [0.0, 0.94897103, 0.0, 0.0, 0.0, 0.0, 0.0, 0.0]
10 [0.0, 0.9360785, 0.0, 0.0, 0.0, 0.0, 0.0, 0.0]
11 [0.0, 0.92573696, 0.0, 0.0, 0.0, 0.0, 0.0, 0.0]
12 [0.0, 0.9122939, 0.0, 0.0, 0.0, 0.0, 0.0, 0.0]
13 [0.0, 0.9194117, 0.0, 0.0, 0.0, 0.0, 0.0, 0.0]
14 [0.0, 0.9408926, 0.0, 0.0, 0.0, 0.0, 0.0, 0.0]
15 [0.0, 0.0, 0.0, 0.0, 0.0, 0.0, 0.0, 0.0]
16 [0.91213083, 0.0, 0.0, 0.0, 0.0, 0.0, 0.0, 0.0]
17 [0.9238678, 0.0, 0.0, 0.0, 0.0, 0.0, 0.0, 0.0]
18 [0.92792314, 0.0, 0.0, 0.0, 0.0, 0.0, 0.0, 0.0]
19 [0.9220759, 0.0, 0.0, 0.0, 0.0, 0.0, 0.0, 0.0]
20 [0.9364595, 0.0, 0.0, 0.0, 0.0, 0.0, 0.0, 0.0]
21 [0.0, 0.0, 0.0, 0.0, 0.0, 0.0, 0.0, 0.0]
22 [0.0, 0.0, 0.0, 0.0, 0.0, 0.0, 0.0, 0.0]
23 [0.0, 0.0, 0.0, 0.0, 0.0, 0.0, 0.0, 0.0]
24 [0.0, 0.0, 0.0, 0.0, 0.0, 0.9937829, 0.0, 0.0]
25 [0.0, 0.0, 0.0, 0.0, 0.96428883, 0.95384395, 0.0, 0.0]
26 [0.0, 0.0, 0.0, 0.0, 0.9633252, 0.0, 0.0, 0.0]
27 [0.0, 0.0, 0.0, 0.95248675, 0.9491811, 0.0, 0.0, 0.0]
28 [0.0, 0.0, 0.0, 0.91467315, 0.9179744, 0.0, 0.0, 0.0]
29 [0.0, 0.0, 0.0, 0.907476, 0.0, 0.0, 0.0, 0.48522103]
30 [0.0, 0.0, 0.915017, 0.8966314, 0.0, 0.0, 0.0, 0.48732883]
31 [0.0, 0.0, 0.8982797, 0.8856567, 0.0, 0.0, 0.0, 0.48779032]
32 [0.0, 0.0, 0.89577246, 0.8822604, 0.0, 0.0, 0.0, 0.48768982]
33 [0.0, 0.0, 0.89577246, 0.8822604, 0.0, 0.0, 0.0, 0.48768982]
34 [0.0, 0.0, 0.8989181, 0.879964, 0.0, 0.0, 0.0, 0.4870197]
35 [0.0, 0.0, 0.90316933, 0.8779518, 0.0, 0.0, 0.0, 0.6861129]
36 [0.0, 0.0, 0.910787, 0.87574106, 0.0, 0.0, 0.0, 0.68447614]
37 [0.0, 0.0, 0.0, 0.8710772, 0.0, 0.0, 0.0, 0.0]
38 [0.0, 0.0, 0.0, 0.86446613, 0.0, 0.0, 0.0, 0.0]
39 [0.0, 0.0, 0.0, 0.85966384, 0.0, 0.0, 0.0, 0.0]
40 [0.0, 0.0, 0.0, 0.8433653, 0.0, 0.0, 0.0, 0.0]
41 [0.0, 0.0, 0.0, 0.833218, 0.829479, 0.0, 0.0, 0.0]
42 [0.0, 0.0, 0.0, 0.8212515, 0.8303605, 0.0, 0.0, 0.0]
43 [0.0, 0.0, 0.0, 0.820859, 0.83036315, 0.0, 0.0, 0.0]
44 [0.0, 0.0, 0.0, 0.8198947, 0.82312286, 0.0, 0.0, 0.0]
45 [0.0, 0.0, 0.0, 0.81648356, 0.8141762, 0.0, 0.0, 0.0]
46 [0.0, 0.0, 0.0, 0.80125296, 0.78527874, 0.0, 0.0, 0.0]
47 [0.0, 0.0, 0.0, 0.7921674, 0.7701158, 0.0, 0.0, 0.0]
48 [0.0, 0.0, 0.0, 0.7822526, 0.7490016, 0.0, 0.0, 0.0]
49 [0.0, 0.0, 0.0, 0.78219, 0.7441588, 0.0, 0.0, 0.0]
