1.6466707E32 4.558E-41
0.024999999 -0.6249999
0.02518847 -0.6251443
0.024888381 -0.62499154
0.025373036 -0.62485373
0.025373036 -0.62485373
0.025939042 -0.62306744
0.02623727 -0.61950916
0.02623727 -0.61950916
0.02648761 -0.6158461
0.02648761 -0.6158461
0.026864823 -0.61342657
0.027402127 -0.6109597
0.027495924 -0.6107105
0.027525648 -0.6107196
0.027525702 -0.61073333
0.027553756 -0.611399
0.027333114 -0.61234295
0.026648158 -0.61124593
0.026024913 -0.60948914
0.025765251 -0.6101339
0.025765251 -0.6101339
0.025507689 -0.61129206
0.02513527 -0.61218846
0.024762426 -0.6115405
0.024762426 -0.6115405
0.024762426 -0.6115405
0.024401465 -0.6104767
0.02392887 -0.60824907
0.02268587 -0.6008238
0.021964958 -0.5979546
0.021272996 -0.5939299
0.020006541 -0.58294713
0.020006541 -0.58294713
0.01865764 -0.57498085
0.018260362 -0.5726361
0.018074928 -0.57088935
0.018273408 -0.567459
0.018273408 -0.567459
0.019807503 -0.5582692
0.019807503 -0.5582692
0.020432746 -0.5560712
0.020432746 -0.5560712
0.020773545 -0.5557121
0.02119007 -0.5537851
0.021892846 -0.54877347
0.021892846 -0.54877347
0.02288596 -0.54120487
0.023708079 -0.5330471
0.023708079 -0.5330471
0.024557374 -0.52430034
0.025162961 -0.5156753
0.025420863 -0.50818187
0.025420863 -0.50818187
0.025108287 -0.50238156
0.024763187 -0.49764854
0.024325704 -0.49400124
0.024325704 -0.49400124
0.023530552 -0.49152714
0.023251694 -0.48853928
0.023482356 -0.4850657
0.023482356 -0.4850657
0.0237341 -0.482073
0.02452717 -0.47760242
0.025427148 -0.47308356
0.025427148 -0.47308356
0.025467228 -0.47060022
0.024924798 -0.46882835
0.024460426 -0.46704173
0.024460426 -0.46704173
0.024964003 -0.46439895
0.026976153 -0.45990738
0.029526988 -0.4542643
0.035632007 -0.44226447
0.038506035 -0.43739733
0.042941693 -0.43047696
0.04426915 -0.4284559
0.045231342 -0.4268252
0.045180228 -0.42688322
0.046100218 -0.4245201
0.049124826 -0.42127553
0.054304086 -0.41673675
0.07147671 -0.4040442
0.07147671 -0.4040442
0.09234174 -0.39026597
0.10523675 -0.3823493
0.13441661 -0.36693937
0.14951834 -0.3600368
0.18613279 -0.3459497
0.20542534 -0.3403377
0.20542534 -0.3403377
0.24520776 -0.331683
0.26544407 -0.3284417
0.2833925 -0.32618865
0.2833925 -0.32618865
0.29792172 -0.32471293
0.30901408 -0.32362145
0.30901408 -0.32362145
0.3185762 -0.32271883
0.3278418 -0.32196707
0.33658192 -0.32158157
0.33658192 -0.32158157
0.34318686 -0.3208343
0.34879065 -0.32011887
0.35560164 -0.31985983
0.35560164 -0.31985983
0.36439365 -0.32058606
0.3733597 -0.32199183
0.3733597 -0.32199183
0.38305804 -0.3246364
0.3924816 -0.32780176
0.400407 -0.33047837
0.400407 -0.33047837
0.41253263 -0.33517164
0.41253263 -0.33517164
0.4195386 -0.3377454
0.42137513 -0.33779696
0.42137513 -0.33779696
0.42356205 -0.33771926
0.42606837 -0.33738297
0.4287528 -0.33664438
0.4287528 -0.33664438
0.43136138 -0.33539808
0.43688202 -0.3311238
0.443664 -0.32545257
0.44770145 -0.3254637
0.45181403 -0.32711482
0.45846835 -0.33337587
0.46083766 -0.33744437
0.4634502 -0.34602028
0.46413937 -0.35060745
0.46459356 -0.36226732
0.46296492 -0.3712241
0.4551692 -0.39235392
0.45082927 -0.40158972
0.44544607 -0.41305757
0.44335398 -0.41695547
0.44165 -0.42010808
0.43490592 -0.42931876
0.43091875 -0.43482623
0.42241573 -0.44659233
0.4180255 -0.4525953
0.40934604 -0.4640298
0.40553632 -0.46849433
0.39674193 -0.47595817
0.39057487 -0.47978243
0.3839096 -0.48368016
0.36604694 -0.49082336
0.35702816 -0.49337086
0.3385968 -0.49741277
0.32920054 -0.49916276
0.3105145 -0.50140756
0.30154938 -0.5020463
0.2860819 -0.5010913
0.27947527 -0.49972948
0.26807797 -0.4954989
0.2629984 -0.4927072
0.25868124 -0.4898557
0.2537267 -0.48563614
0.24001925 -0.47057205
0.22419485 -0.449555
0.21595994 -0.4361462
0.20207913 -0.407929
0.19649832 -0.39376193
0.18856187 -0.37413675
0.18652034 -0.36985874
0.18538706 -0.36841863
0.18430063 -0.36639705
0.18430063 -0.36639705
0.18310381 -0.3642339
0.18159778 -0.36201656
0.18042023 -0.35962814
0.1793078 -0.35727936
0.17823775 -0.35524064
0.17823775 -0.35524064
0.17784376 -0.35501382
0.17700864 -0.35285252
0.17700864 -0.35285252
0.1762937 -0.35083303
0.17586955 -0.34944364
0.17533003 -0.34645003
0.17533003 -0.34645003
0.17512074 -0.34433836
0.17506939 -0.34478697
0.17505251 -0.34497052
0.17505251 -0.34497052
0.17488861 -0.34324852
0.17460003 -0.34017688
0.17460003 -0.34017688
0.17419383 -0.33847106
0.17399952 -0.33812627
0.17384401 -0.33793557
0.17333886 -0.33742103
0.17196669 -0.33005208
0.17131175 -0.32197464
0.17070602 -0.31456098
0.16975473 -0.30850512
0.1694895 -0.30747917
0.16928522 -0.3074741
0.16928522 -0.3074741
0.16929756 -0.30752394
0.16931814 -0.30754596
0.16870631 -0.30851746
0.16786307 -0.30868
0.16560176 -0.30839437
0.16400702 -0.3083549
0.1596478 -0.30947182
0.1564862 -0.31096524
0.15346815 -0.3130624
0.144561 -0.32201856
0.13981524 -0.3260332
0.13116738 -0.33233893
0.12593848 -0.33548012
0.1185595 -0.33697736
0.116591476 -0.33544916
0.113468625 -0.33037
0.11249362 -0.3267246
0.11347344 -0.3221336
0.11774925 -0.31309322
0.11944834 -0.30930692
0.1278407 -0.30138832
0.13292903 -0.2984151
0.14900687 -0.29461282
0.15920976 -0.29434186
0.1790352 -0.29565337
0.18707438 -0.29649845
0.1978523 -0.2978433
0.2011228 -0.29795003
0.2045774 -0.2980147
0.20957561 -0.29810005
0.21259978 -0.2991154
0.22472277 -0.30544642
0.23462239 -0.31162784
0.25869521 -0.3285927
0.2666788 -0.33427545
0.28622985 -0.35158643
0.30028588 -0.36376223
0.33021143 -0.38971865
0.34531373 -0.40284413
0.3601473 -0.4159997
0.3910533 -0.44282693
0.4072196 -0.45688146
0.4368352 -0.48434767
0.45088857 -0.49826813
0.4794968 -0.52621794
0.49378967 -0.54023516
0.515422 -0.5617871
0.52358466 -0.5698148
0.53179085 -0.57827747
0.54742324 -0.5951585
0.554445 -0.6031555
0.5653269 -0.6187207
0.5697943 -0.6277205
0.57694066 -0.64930403
0.57953626 -0.6607675
0.58342135 -0.67843926
0.5850067 -0.6876676
0.5877778 -0.7055542
0.5885177 -0.7134296
0.5882205 -0.7225227
0.58683074 -0.73845065
0.5859057 -0.74529064
0.58302724 -0.76069385
0.5795964 -0.7704006
0.5722002 -0.7868575
0.56869876 -0.79337907
0.5630914 -0.80288947
0.56096435 -0.8063191
0.5592023 -0.80877316
0.5575745 -0.8113085
0.55747515 -0.81145936
0.55748093 -0.8114956
0.55749357 -0.81149596
0.55797166 -0.8112837
0.5584382 -0.8110936
0.55942 -0.81218404
0.56035244 -0.8134726
0.5630087 -0.81632006
0.5652695 -0.8181445
0.5681745 -0.8198512
0.5743834 -0.8221406
0.57619965 -0.8232749
0.5781783 -0.8265498
0.57933533 -0.8288433
0.5820541 -0.83479625
0.583392 -0.83844614
0.5800364 -0.8455583
0.5750639 -0.8480384
0.5625188 -0.851416
0.555511 -0.85152787
0.54130095 -0.84821194
0.53408253 -0.8447536
0.5200856 -0.83465034
0.51441526 -0.829786
0.50873417 -0.82338476
0.49639192 -0.8048509
0.49030882 -0.7933031
0.47909632 -0.7668067
0.47392783 -0.75256366
0.4636415 -0.7186225
0.46031064 -0.7033335
0.456392 -0.682428
0.4553427 -0.66988766
0.45483732 -0.6561266
0.4561649 -0.6270172
0.45739594 -0.6123662
0.45988616 -0.58440226
0.46047503 -0.5754458
0.46074343 -0.5639237
0.4604876 -0.5585471
0.4594018 -0.54929703
0.45895615 -0.54581577
0.46120024 -0.5355827
0.464084 -0.52855414
0.46765798 -0.5210964
0.47680974 -0.5051752
0.48195872 -0.49735785
0.49295124 -0.4828338
0.498231 -0.47655457
0.50881237 -0.4668037
0.5145533 -0.46332374
0.52249753 -0.45728126
0.5262188 -0.45426685
0.5297819 -0.45099217
0.53612125 -0.44374427
0.53900355 -0.43954554
0.54467607 -0.43187156
0.54810375 -0.42796674
0.5564993 -0.42239103
0.56123793 -0.422294
0.56974083 -0.42487258
0.5731609 -0.42712897
0.57806003 -0.43403396
0.57925725 -0.44125542
0.57951957 -0.45003742
0.57782894 -0.46569866
0.5765349 -0.47241434
0.5714265 -0.4879566
0.5699041 -0.49293804
0.5663034 -0.5029314
0.56365407 -0.5094814
0.5539273 -0.5267503
0.54780453 -0.5359123
0.5345799 -0.5527554
0.5280672 -0.5602222
0.5280672 -0.5602222
0.50694746 -0.57965624
0.49637923 -0.58630323
0.47886968 -0.5962732
0.47886968 -0.5962732
0.4537157 -0.6077523
0.44267496 -0.6110543
0.42157617 -0.6160139
0.41126037 -0.61797446
0.400977 -0.6196942
0.38209084 -0.62110096
0.37288597 -0.6203721
0.35429817 -0.6161474
0.3446785 -0.6131067
0.32676324 -0.60560375
0.319604 -0.60162103
0.3069746 -0.5929834
0.2989261 -0.585569
0.28730625 -0.5739111
0.28345713 -0.570064
0.28051203 -0.5670211
0.27699587 -0.5630071
0.27632308 -0.56222916
0.27644047 -0.5627734
0.27643177 -0.5634936
0.27333403 -0.5596192
0.27168387 -0.557129
0.2704346 -0.55523527
0.26946962 -0.5532261
0.2682026 -0.55021465
0.26632208 -0.5461807
0.26403248 -0.5407112
0.25596657 -0.52031046
0.25059006 -0.50682133
0.24001524 -0.47915164
0.2346625 -0.4652586
0.22391328 -0.43777505
0.21949723 -0.42622894
0.21328767 -0.41219154
0.21068442 -0.40817794
0.20838876 -0.40459532
0.20493074 -0.4001587
0.20385185 -0.39872828
0.20160969 -0.3961479
0.20049036 -0.39345506
0.19954427 -0.38715816
0.19954877 -0.3844835
0.1995677 -0.38218755
0.1995313 -0.38218832
0.19951813 -0.3821989
0.19951577 -0.38220757
0.19976209 -0.38181967
0.20145175 -0.3766677
0.20217314 -0.37323338
0.20554967 -0.35916772
0.20865643 -0.34922904
0.21567091 -0.32808286
0.21830463 -0.31881934
0.22029924 -0.30931154
0.2206271 -0.30675587
0.22072189 -0.30496222
0.22074255 -0.30398208
0.22140443 -0.3024008
0.22706541 -0.29145145
0.23253424 -0.28167152
0.24881342 -0.25413653
0.2577525 -0.2393935
0.2709697 -0.21719047
0.27718753 -0.207473
0.2900435 -0.18628159
0.29626986 -0.17647347
0.3046274 -0.16427837
0.31853285 -0.14518303
0.31853285 -0.14518303
0.34254447 -0.11573086
0.3489962 -0.10834755
0.3658578 -0.09059979
0.37709194 -0.07963626
0.40162072 -0.056601662
0.41619524 -0.044182878
0.4295445 -0.03373103
0.44830394 -0.019610146
0.45508775 -0.014503109
0.4747661 -0.0015972002
0.48462257 0.0043460927
0.49518126 0.011241431
0.4983352 0.0132731
0.50183064 0.015814306
0.50451285 0.01702017
0.51688325 0.02129143
0.524308 0.023718977
0.53220856 0.026335042
0.54695034 0.03133342
0.5519344 0.0333365
0.55581886 0.03625532
0.557199 0.03786552
0.55652976 0.040271953
0.5543183 0.04167539
0.5495689 0.044590753
0.5467185 0.045919925
0.54336125 0.047707926
0.5409881 0.05041327
0.54314804 0.050642353
0.5528185 0.049324322
0.55728924 0.048867907
0.56343716 0.048133273
0.565065 0.047979273
0.5660587 0.047694568
0.5679289 0.046640746
0.57401603 0.04408739
0.57792103 0.04301224
0.5822817 0.041812785
0.5918626 0.03926962
0.5960118 0.038352758
0.60483557 0.036565155
0.60849226 0.035552412
0.61156154 0.03612722
0.61297274 0.036737945
0.61438036 0.037817873
0.61453474 0.03811103
0.61828434 0.034629516
0.6203449 0.032748718
0.6206609 0.032498665
0.6206869 0.03252754
0.6209825 0.032124892
0.62595105 0.026312033
0.6315017 0.020171862
0.645064 0.004728591
0.65116805 -0.0017645402
0.6588744 -0.010062867
0.66533065 -0.017554434
0.6728257 -0.026606033
0.68974817 -0.04608024
0.7001151 -0.058804564
0.7203949 -0.08685678
0.73066914 -0.1023288
0.7510273 -0.13411003
0.7599211 -0.14799306
0.77962327 -0.17890933
0.7893301 -0.19411758
0.8033134 -0.2167434
0.8110164 -0.22951639
0.82044125 -0.24496278
0.83981913 -0.2751826
0.84734213 -0.2862805
0.86172515 -0.30752903
0.87135684 -0.32195327
0.89043206 -0.35135645
0.8998411 -0.36575663
0.9181056 -0.39457932
0.9266464 -0.4086575
0.93430316 -0.42272925
0.946987 -0.45104924
0.9511236 -0.46155757
0.95815057 -0.48002076
0.96253425 -0.49120846
0.97263384 -0.5204209
0.97719324 -0.5363589
0.98335373 -0.56080914
0.9851259 -0.56765556
0.98641384 -0.57208186
0.98652995 -0.5721432
0.9865635 -0.5721455
0.9865931 -0.5722538
0.98688763 -0.5725395
0.9895631 -0.58117396
0.99129677 -0.5889789
0.9953081 -0.604979
0.9974359 -0.6130909
1.0013316 -0.63009226
1.0024159 -0.6390354
1.0021731 -0.66009784
1.0011708 -0.6713834
1.0000415 -0.6814186
0.997194 -0.69767195
0.995374 -0.7043606
0.9876874 -0.72146094
0.9811441 -0.73192704
0.96349573 -0.7541539
0.9522414 -0.7660643
0.9302616 -0.78748596
0.91931784 -0.79732454
0.90602934 -0.8086737
0.87702763 -0.83151025
0.86246747 -0.84308064
0.83779323 -0.86192286
0.8244839 -0.87186444
0.79342777 -0.895862
0.77780265 -0.90805084
0.74780184 -0.9316634
0.7337064 -0.9429242
0.7118947 -0.9609232
0.7038249 -0.9676204
0.69397724 -0.9751593
0.6777652 -0.9869711
0.674209 -0.98966587
0.669237 -0.99376374
0.6668858 -0.99615157
0.662499 -1.001432
0.6608651 -1.0044029
0.6581596 -1.0109432
0.65504605 -1.0146635
0.64989936 -1.0186971
0.632402 -1.0263108
0.62133276 -1.0290866
0.5961756 -1.0321075
0.582432 -1.0328128
0.55342937 -1.0331762
0.5370308 -1.032335
0.5041737 -1.026915
0.48844346 -1.0223095
0.46498528 -1.0141491
0.4559416 -1.0105362
0.4463841 -1.0067997
0.42563456 -0.99681604
0.41512355 -0.99050677
0.39948288 -0.9817721
0.39948288 -0.9817721
