0 [10.0, 10.0, 10.0, 10.0, 10.0, 10.0, 10.0, 10.0, 10.0, 10.0, 10.0, 10.0, 10.0, 10.0, 10.0, 10.0, 10.0, 10.0, 10.0, 10.0, 10.0, 10.0, 10.0, 10.0, 10.0, 10.0, 10.0, 10.0, 10.0, 10.0, 10.0, 10.0, 10.0, 10.0, 10.0, 10.0, 10.0, 10.0, 10.0, 10.0, 10.0, 10.0, 10.0, 10.0, 10.0, 10.0, 10.0, 10.0, 10.0, 10.0, 10.0, 10.0, 10.0, 10.0, 10.0, 10.0, 10.0, 10.0, 10.0, 10.0, 10.0, 10.0, 10.0, 10.0, 10.0, 10.0, 10.0, 10.0, 10.0, 10.0, 10.0, 10.0, 10.0, 10.0, 10.0, 10.0, 10.0, 10.0, 10.0, 10.0, 10.0, 10.0, 10.0, 10.0, 10.0, 10.0, 10.0, 10.0, 10.0, 10.0, 10.0, 10.0, 10.0, 10.0, 10.0, 10.0, 10.0, 10.0, 10.0, 10.0, 10.0, 10.0, 10.0, 10.0, 10.0, 10.0, 10.0, 10.0, 10.0, 10.0, 10.0, 10.0, 10.0, 10.0, 10.0, 10.0, 10.0, 10.0, 10.0, 10.0, 10.0, 10.0, 10.0, 10.0, 10.0, 10.0, 10.0, 10.0, 10.0, 10.0, 10.0, 10.0, 10.0, 10.0, 10.0, 10.0, 10.0, 10.0, 10.0, 10.0, 10.0, 10.0, 10.0, 10.0, 10.0, 10.0, 10.0, 10.0, 10.0, 10.0, 10.0, 10.0, 10.0, 10.0, 10.0, 10.0, 10.0, 10.0, 10.0, 10.0, 10.0, 10.0, 10.0, 10.0, 10.0, 10.0, 10.0, 10.0, 10.0, 10.0, 10.0, 10.0, 10.0, 10.0, 10.0, 10.0, 10.0, 10.0, 10.0, 10.0, 10.0, 10.0]
1 [0.44, 0.46, 0.48, 0.5, 0.52, 0.55, 0.57, 0.6, 1.86, 1.87, 1.88, 1.9, 1.91, 1.92, 1.93, 1.94, 1.44, 1.44, 1.45, 1.46, 1.47, 1.48, 1.48, 1.49, 1.5, 1.51, 1.51, 1.52, 1.53, 2.09, 2.1, 2.11, 2.12, 2.13, 2.14, 2.15, 2.16, 2.17, 2.18, 2.19, 2.2, 2.21, 2.22, 2.23, 2.25, 2.26, 2.27, 2.28, 2.29, 2.3, 2.31, 2.32, 2.33, 2.34, 2.35, 2.36, 2.37, 2.39, 2.4, 2.41, 2.42, 2.43, 2.44, 2.45, 2.46, 2.48, 2.49, 2.5, 2.51, 2.52, 2.53, 2.55, 2.56, 2.57, 2.58, 2.59, 2.61, 2.62, 2.63, 2.64, 2.66, 2.67, 2.68, 2.69, 2.71, 2.72, 2.73, 2.75, 2.76, 2.77, 2.79, 2.8, 2.82, 2.83, 2.84, 2.86, 2.87, 2.89, 2.9, 2.92, 2.93, 2.95, 2.96, 2.98, 3.0, 3.01, 3.03, 3.05, 3.06, 3.08, 3.1, 3.11, 3.13, 3.15, 3.17, 3.19, 3.21, 3.23, 3.25, 3.27, 3.29, 3.31, 3.33, 3.35, 3.37, 3.39, 3.41, 3.44, 3.46, 3.49, 3.51, 3.53, 3.56, 3.59, 3.61, 3.64, 3.62, 3.59, 3.55, 3.51, 3.48, 2.7, 2.67, 2.64, 2.62, 2.59, 2.56, 2.54, 2.53, 2.56, 2.58, 2.61, 3.08, 3.05, 3.02, 2.99, 2.96, 2.93, 2.9, 2.87, 2.84, 2.81, 2.78, 2.75, 2.72, 2.7, 2.67, 2.64, 2.61, 2.59, 2.56, 1.64, 1.62, 1.6, 1.59, 1.57, 1.55, 1.53, 1.52, 1.5, 1.49, 1.47]
2 [0.43, 0.44, 0.46, 0.47, 0.49, 0.52, 0.54, 0.56, 0.59, 1.88, 1.89, 1.9, 1.91, 1.92, 1.93, 1.94, 1.95, 1.96, 1.45, 1.46, 1.47, 1.48, 1.49, 1.49, 1.5, 1.51, 1.52, 1.52, 1.53, 1.54, 1.55, 2.11, 2.12, 2.13, 2.14, 2.15, 2.16, 2.17, 2.18, 2.19, 2.2, 2.21, 2.22, 2.23, 2.24, 2.25, 2.26, 2.27, 2.28, 2.3, 2.31, 2.32, 2.33, 2.34, 2.35, 2.36, 2.37, 2.38, 2.39, 2.4, 2.41, 2.42, 2.43, 2.45, 2.46, 2.47, 2.48, 2.49, 2.5, 2.51, 2.52, 2.54, 2.55, 2.56, 2.57, 2.58, 2.59, 2.61, 2.62, 2.63, 2.64, 2.66, 2.67, 2.68, 2.69, 2.71, 2.72, 2.73, 2.74, 2.76, 2.77, 2.78, 2.8, 2.81, 2.83, 2.84, 2.85, 2.87, 2.88, 2.9, 2.91, 2.93, 2.94, 2.96, 2.97, 2.99, 3.0, 3.02, 3.04, 3.05, 3.07, 3.09, 3.1, 3.12, 3.14, 3.16, 3.18, 3.19, 3.21, 3.23, 3.25, 3.27, 3.29, 3.31, 3.33, 3.35, 3.38, 3.4, 3.42, 3.44, 3.47, 3.49, 3.51, 3.54, 3.56, 3.59, 3.62, 3.62, 3.58, 3.54, 3.51, 3.47, 3.44, 2.66, 2.64, 2.61, 2.58, 2.56, 2.53, 2.51, 2.54, 2.56, 2.59, 3.07, 3.04, 3.01, 2.97, 2.94, 2.91, 2.88, 2.85, 2.82, 2.8, 2.77, 2.74, 2.71, 2.68, 2.65, 2.63, 2.6, 2.57, 2.54, 2.52, 1.61, 1.59, 1.58, 1.56, 1.54, 1.52, 1.51, 1.49, 1.47]
3 [0.44, 0.44, 0.44, 0.44, 0.46, 0.48, 0.5, 0.52, 0.54, 0.57, 0.6, 1.91, 1.92, 1.93, 1.94, 1.95, 1.96, 1.97, 1.98, 1.99, 1.47, 1.48, 1.49, 1.49, 1.5, 1.51, 1.52, 1.52, 1.53, 1.54, 1.55, 1.55, 1.56, 2.13, 2.14, 2.15, 2.16, 2.17, 2.18, 2.19, 2.2, 2.21, 2.22, 2.23, 2.24, 2.25, 2.26, 2.27, 2.28, 2.29, 2.3, 2.31, 2.32, 2.33, 2.34, 2.35, 2.36, 2.37, 2.38, 2.39, 2.4, 2.41, 2.42, 2.43, 2.44, 2.46, 2.47, 2.48, 2.49, 2.5, 2.51, 2.52, 2.53, 2.54, 2.55, 2.57, 2.58, 2.59, 2.6, 2.61, 2.62, 2.63, 2.65, 2.66, 2.67, 2.68, 2.69, 2.71, 2.72, 2.73, 2.74, 2.76, 2.77, 2.78, 2.8, 2.81, 2.82, 2.84, 2.85, 2.86, 2.88, 2.89, 2.91, 2.92, 2.94, 2.95, 2.97, 2.98, 3.0, 3.01, 3.03, 3.04, 3.06, 3.08, 3.09, 3.11, 3.13, 3.14, 3.16, 3.18, 3.2, 3.22, 3.24, 3.25, 3.27, 3.29, 3.31, 3.33, 3.36, 3.38, 3.4, 3.42, 3.44, 3.47, 3.49, 3.51, 3.54, 3.56, 3.59, 3.59, 3.56, 3.52, 3.48, 3.44, 3.41, 2.64, 2.61, 2.59, 2.56, 2.53, 2.51, 2.49, 2.51, 2.53, 2.56, 3.04, 3.0, 2.97, 2.94, 2.91, 2.88, 2.85, 2.82, 2.79, 2.76, 2.73, 2.7, 2.67, 2.65, 2.62, 2.59, 2.56, 2.53, 2.51, 2.48, 1.59, 1.57, 1.55, 1.53, 1.52, 1.5, 1.48]
4 [0.44, 0.44, 0.45, 0.45, 0.45, 0.45, 0.46, 0.46, 0.46, 0.47, 0.49, 0.51, 0.53, 0.55, 0.58, 0.6, 0.63, 1.98, 1.99, 2.0, 2.01, 2.02, 2.03, 2.04, 2.05, 1.52, 1.52, 1.53, 1.54, 1.54, 1.55, 1.56, 1.56, 1.57, 1.58, 1.58, 1.59, 1.6, 2.18, 2.19, 2.19, 2.2, 2.21, 2.22, 2.23, 2.24, 2.25, 2.26, 2.27, 2.28, 2.29, 2.29, 2.3, 2.31, 2.32, 2.33, 2.34, 2.35, 2.36, 2.37, 2.38, 2.39, 2.4, 2.41, 2.42, 2.43, 2.43, 2.44, 2.45, 2.46, 2.47, 2.48, 2.49, 2.5, 2.51, 2.52, 2.53, 2.54, 2.55, 2.56, 2.57, 2.58, 2.59, 2.6, 2.61, 2.63, 2.64, 2.65, 2.66, 2.67, 2.68, 2.69, 2.7, 2.71, 2.72, 2.74, 2.75, 2.76, 2.77, 2.78, 2.8, 2.81, 2.82, 2.83, 2.84, 2.86, 2.87, 2.88, 2.9, 2.91, 2.92, 2.94, 2.95, 2.96, 2.98, 2.99, 3.01, 3.02, 3.04, 3.05, 3.07, 3.08, 3.1, 3.11, 3.13, 3.15, 3.16, 3.18, 3.2, 3.22, 3.23, 3.25, 3.27, 3.29, 3.31, 3.33, 3.35, 3.37, 3.39, 3.41, 3.43, 3.45, 3.48, 3.5, 3.52, 3.49, 3.45, 3.41, 3.38, 3.34, 2.59, 2.56, 2.53, 2.5, 2.48, 2.45, 2.42, 2.43, 2.45, 2.47, 2.49, 2.92, 2.89, 2.86, 2.83, 2.8, 2.77, 2.74, 2.71, 2.67, 2.64, 2.62, 2.59, 2.56, 2.53, 2.5, 2.47, 2.44, 2.41, 2.39, 1.53, 1.51]
5 [0.44, 0.44, 0.44, 0.45, 0.45, 0.45, 0.45, 0.45, 0.46, 0.46, 0.46, 0.46, 0.48, 0.49, 0.51, 0.53, 0.56, 0.58, 0.61, 0.63, 2.01, 2.02, 2.03, 2.04, 2.05, 2.06, 2.07, 2.08, 2.08, 1.54, 1.55, 1.55, 1.56, 1.56, 1.57, 1.58, 1.58, 1.59, 1.6, 1.6, 1.61, 1.61, 2.2, 2.21, 2.22, 2.23, 2.24, 2.24, 2.25, 2.26, 2.27, 2.28, 2.29, 2.3, 2.3, 2.31, 2.32, 2.33, 2.34, 2.35, 2.35, 2.36, 2.37, 2.38, 2.39, 2.4, 2.41, 2.42, 2.42, 2.43, 2.44, 2.45, 2.46, 2.47, 2.48, 2.49, 2.5, 2.5, 2.51, 2.52, 2.53, 2.54, 2.55, 2.56, 2.57, 2.58, 2.59, 2.6, 2.61, 2.62, 2.63, 2.64, 2.65, 2.66, 2.67, 2.68, 2.69, 2.7, 2.71, 2.72, 2.73, 2.74, 2.75, 2.76, 2.78, 2.79, 2.8, 2.81, 2.82, 2.83, 2.84, 2.86, 2.87, 2.88, 2.89, 2.91, 2.92, 2.93, 2.94, 2.96, 2.97, 2.99, 3.0, 3.01, 3.03, 3.04, 3.06, 3.07, 3.09, 3.1, 3.12, 3.13, 3.15, 3.17, 3.18, 3.2, 3.22, 3.23, 3.25, 3.27, 3.29, 3.31, 3.33, 3.35, 3.37, 3.39, 3.41, 3.43, 3.45, 3.42, 3.38, 3.34, 3.3, 3.27, 2.53, 2.5, 2.47, 2.44, 2.42, 2.39, 2.36, 2.36, 2.38, 2.4, 2.42, 2.85, 2.81, 2.78, 2.75, 2.72, 2.69, 2.65, 2.62, 2.59, 2.56, 2.53, 2.5, 2.47, 2.44, 2.41, 2.39, 2.36]
6 [0.43, 0.43, 0.43, 0.44, 0.44, 0.44, 0.44, 0.44, 0.45, 0.45, 0.45, 0.47, 0.49, 0.51, 0.53, 0.55, 0.57, 0.6, 0.62, 2.0, 2.0, 2.01, 2.02, 2.03, 2.04, 2.05, 2.06, 2.06, 2.07, 1.53, 1.53, 1.54, 1.55, 1.55, 1.56, 1.56, 1.57, 1.58, 1.58, 1.59, 1.6, 1.64, 2.19, 2.2, 2.21, 2.22, 2.22, 2.23, 2.24, 2.25, 2.26, 2.27, 2.27, 2.28, 2.29, 2.3, 2.31, 2.32, 2.32, 2.33, 2.34, 2.35, 2.36, 2.37, 2.38, 2.38, 2.39, 2.4, 2.41, 2.42, 2.43, 2.44, 2.44, 2.45, 2.46, 2.47, 2.48, 2.49, 2.5, 2.51, 2.52, 2.53, 2.54, 2.54, 2.55, 2.56, 2.57, 2.58, 2.59, 2.6, 2.61, 2.62, 2.63, 2.64, 2.65, 2.66, 2.67, 2.68, 2.69, 2.7, 2.71, 2.72, 2.74, 2.75, 2.76, 2.77, 2.78, 2.79, 2.8, 2.81, 2.83, 2.84, 2.85, 2.86, 2.87, 2.89, 2.9, 2.91, 2.92, 2.94, 2.95, 2.96, 2.98, 2.99, 3.01, 3.02, 3.03, 3.05, 3.06, 3.08, 3.09, 3.11, 3.13, 3.14, 3.16, 3.18, 3.19, 3.21, 3.23, 3.25, 3.26, 3.28, 3.3, 3.32, 3.34, 3.36, 3.38, 3.4, 3.42, 3.42, 3.38, 3.34, 3.3, 3.26, 3.23, 2.5, 2.47, 2.44, 2.41, 2.39, 2.36, 2.33, 2.35, 2.37, 2.39, 2.84, 2.81, 2.78, 2.75, 2.71, 2.68, 2.65, 2.62, 2.59, 2.56, 2.53, 2.5, 2.47, 2.44, 2.41, 2.38, 2.35]
7 [0.41, 0.41, 0.42, 0.42, 0.42, 0.42, 0.43, 0.45, 0.46, 0.48, 0.5, 0.52, 0.54, 0.56, 0.58, 1.94, 1.95, 1.96, 1.96, 1.97, 1.98, 1.99, 2.0, 2.01, 2.02, 2.03, 1.49, 1.5, 1.5, 1.51, 1.51, 1.52, 1.53, 1.53, 1.54, 1.55, 1.55, 1.56, 1.56, 1.67, 2.16, 2.16, 2.17, 2.18, 2.19, 2.2, 2.21, 2.22, 2.22, 2.23, 2.24, 2.25, 2.26, 2.27, 2.28, 2.28, 2.29, 2.3, 2.31, 2.32, 2.33, 2.34, 2.34, 2.35, 2.36, 2.37, 2.38, 2.39, 2.4, 2.41, 2.42, 2.42, 2.43, 2.44, 2.45, 2.46, 2.47, 2.48, 2.49, 2.5, 2.51, 2.52, 2.53, 2.54, 2.55, 2.56, 2.57, 2.58, 2.59, 2.6, 2.61, 2.62, 2.63, 2.64, 2.65, 2.66, 2.67, 2.68, 2.69, 2.7, 2.71, 2.72, 2.73, 2.75, 2.76, 2.77, 2.78, 2.79, 2.8, 2.82, 2.83, 2.84, 2.85, 2.87, 2.88, 2.89, 2.9, 2.92, 2.93, 2.94, 2.96, 2.97, 2.99, 3.0, 3.02, 3.03, 3.05, 3.06, 3.08, 3.09, 3.11, 3.13, 3.14, 3.16, 3.18, 3.19, 3.21, 3.23, 3.25, 3.27, 3.29, 3.31, 3.33, 3.35, 3.37, 3.39, 3.41, 3.43, 3.41, 3.37, 3.34, 3.3, 3.26, 3.22, 2.49, 2.47, 2.44, 2.41, 2.38, 2.36, 2.33, 2.35, 2.37, 2.39, 2.85, 2.81, 2.78, 2.75, 2.72, 2.69, 2.66, 2.63, 2.6, 2.57, 2.54, 2.51, 2.48, 2.45, 2.42, 2.39, 2.36, 2.34]
8 [0.44, 0.46, 0.47, 0.49, 0.51, 0.53, 0.55, 1.82, 1.83, 1.84, 1.85, 1.86, 1.87, 1.88, 1.89, 1.9, 1.91, 1.92, 1.93, 1.41, 1.42, 1.43, 1.43, 1.44, 1.45, 1.46, 1.46, 1.47, 1.48, 1.48, 1.49, 1.5, 1.61, 2.07, 2.08, 2.09, 2.1, 2.11, 2.12, 2.13, 2.14, 2.15, 2.16, 2.17, 2.18, 2.19, 2.19, 2.2, 2.21, 2.22, 2.23, 2.24, 2.25, 2.26, 2.27, 2.28, 2.29, 2.3, 2.31, 2.32, 2.33, 2.34, 2.35, 2.36, 2.37, 2.38, 2.39, 2.4, 2.41, 2.42, 2.43, 2.44, 2.45, 2.46, 2.47, 2.48, 2.49, 2.5, 2.52, 2.53, 2.54, 2.55, 2.56, 2.57, 2.58, 2.59, 2.6, 2.62, 2.63, 2.64, 2.65, 2.66, 2.67, 2.69, 2.7, 2.71, 2.72, 2.74, 2.75, 2.76, 2.78, 2.79, 2.8, 2.81, 2.83, 2.84, 2.86, 2.87, 2.88, 2.9, 2.91, 2.93, 2.94, 2.96, 2.97, 2.99, 3.01, 3.02, 3.04, 3.05, 3.07, 3.09, 3.11, 3.12, 3.14, 3.16, 3.18, 3.2, 3.22, 3.24, 3.26, 3.28, 3.3, 3.32, 3.34, 3.36, 3.38, 3.41, 3.43, 3.45, 3.48, 3.5, 3.49, 3.45, 3.41, 3.37, 3.34, 3.3, 2.55, 2.53, 2.5, 2.47, 2.45, 2.42, 2.4, 2.41, 2.43, 2.46, 2.48, 2.91, 2.88, 2.85, 2.81, 2.78, 2.75, 2.73, 2.7, 2.67, 2.64, 2.61, 2.58, 2.55, 2.53, 2.5, 2.47, 2.44, 2.42, 2.39, 2.36, 1.5, 1.49, 1.47]
9 [1.69, 1.71, 1.72, 1.73, 1.74, 1.75, 1.76, 1.77, 1.78, 1.79, 1.31, 1.32, 1.33, 1.34, 1.34, 1.35, 1.36, 1.37, 1.37, 1.38, 1.39, 1.4, 1.41, 1.57, 1.96, 1.97, 1.98, 1.99, 2.0, 2.01, 2.02, 2.03, 2.04, 2.05, 2.06, 2.07, 2.08, 2.09, 2.1, 2.12, 2.13, 2.14, 2.15, 2.16, 2.17, 2.18, 2.19, 2.2, 2.21, 2.22, 2.23, 2.25, 2.26, 2.27, 2.28, 2.29, 2.3, 2.31, 2.32, 2.34, 2.35, 2.36, 2.37, 2.38, 2.39, 2.4, 2.42, 2.43, 2.44, 2.45, 2.46, 2.48, 2.49, 2.5, 2.51, 2.53, 2.54, 2.55, 2.56, 2.58, 2.59, 2.6, 2.62, 2.63, 2.64, 2.66, 2.67, 2.69, 2.7, 2.71, 2.73, 2.74, 2.76, 2.77, 2.79, 2.8, 2.82, 2.83, 2.85, 2.86, 2.88, 2.9, 2.91, 2.93, 2.95, 2.96, 2.98, 3.0, 3.02, 3.03, 3.05, 3.07, 3.09, 3.11, 3.13, 3.15, 3.17, 3.19, 3.21, 3.23, 3.25, 3.28, 3.3, 3.32, 3.34, 3.37, 3.39, 3.42, 3.44, 3.47, 3.49, 3.52, 3.55, 3.58, 3.57, 3.54, 3.5, 3.47, 3.43, 3.4, 2.63, 2.6, 2.57, 2.55, 2.52, 2.5, 2.47, 2.47, 2.5, 2.52, 2.55, 3.02, 2.99, 2.96, 2.93, 2.9, 2.87, 2.85, 2.82, 2.79, 2.76, 2.74, 2.71, 2.68, 2.65, 2.63, 2.6, 2.58, 2.55, 2.52, 2.5, 2.47, 1.57, 1.55, 1.54, 1.52, 1.51, 1.49, 1.47, 1.46, 1.44, 1.43]
10 [1.2, 1.21, 1.22, 1.23, 1.24, 1.24, 1.25, 1.26, 1.27, 1.28, 1.29, 1.3, 1.3, 1.35, 1.82, 1.84, 1.85, 1.86, 1.87, 1.88, 1.89, 1.91, 1.92, 1.93, 1.94, 1.95, 1.97, 1.98, 1.99, 2.0, 2.01, 2.02, 2.04, 2.05, 2.06, 2.07, 2.08, 2.1, 2.11, 2.12, 2.13, 2.15, 2.16, 2.17, 2.18, 2.19, 2.21, 2.22, 2.23, 2.24, 2.26, 2.27, 2.28, 2.3, 2.31, 2.32, 2.33, 2.35, 2.36, 2.37, 2.39, 2.4, 2.41, 2.43, 2.44, 2.46, 2.47, 2.48, 2.5, 2.51, 2.53, 2.54, 2.55, 2.57, 2.58, 2.6, 2.61, 2.63, 2.65, 2.66, 2.68, 2.69, 2.71, 2.72, 2.74, 2.76, 2.77, 2.79, 2.81, 2.83, 2.84, 2.86, 2.88, 2.9, 2.92, 2.93, 2.95, 2.97, 2.99, 3.01, 3.03, 3.05, 3.07, 3.09, 3.11, 3.14, 3.16, 3.18, 3.2, 3.23, 3.25, 3.27, 3.3, 3.32, 3.35, 3.37, 3.4, 3.43, 3.45, 3.48, 3.51, 3.54, 3.57, 3.6, 3.63, 3.66, 3.63, 3.6, 3.56, 3.53, 3.5, 3.47, 2.68, 2.65, 2.63, 2.6, 2.58, 2.56, 2.53, 2.55, 2.58, 2.61, 2.64, 3.11, 3.08, 3.05, 3.03, 3.0, 2.97, 2.95, 2.92, 2.89, 2.87, 2.84, 2.82, 2.79, 2.77, 2.74, 2.72, 2.69, 2.67, 2.64, 2.62, 2.59, 1.64, 1.63, 1.61, 1.6, 1.58, 1.57, 1.55, 1.54, 1.53, 1.51, 1.5, 1.51, 1.56, 2.27, 2.25, 2.23, 2.2, 2.18]
11 [1.18, 1.18, 1.22, 1.66, 1.68, 1.69, 1.7, 1.72, 1.73, 1.74, 1.76, 1.77, 1.78, 1.8, 1.81, 1.82, 1.84, 1.85, 1.86, 1.87, 1.89, 1.9, 1.91, 1.93, 1.94, 1.95, 1.97, 1.98, 1.99, 2.01, 2.02, 2.03, 2.05, 2.06, 2.07, 2.09, 2.1, 2.12, 2.13, 2.14, 2.16, 2.17, 2.19, 2.2, 2.21, 2.23, 2.24, 2.26, 2.27, 2.29, 2.3, 2.32, 2.33, 2.35, 2.36, 2.38, 2.39, 2.41, 2.42, 2.44, 2.45, 2.47, 2.49, 2.5, 2.52, 2.54, 2.55, 2.57, 2.59, 2.6, 2.62, 2.64, 2.66, 2.67, 2.69, 2.71, 2.73, 2.75, 2.77, 2.78, 2.8, 2.82, 2.84, 2.86, 2.88, 2.9, 2.93, 2.95, 2.97, 2.99, 3.01, 3.03, 3.06, 3.08, 3.1, 3.13, 3.15, 3.18, 3.2, 3.23, 3.25, 3.28, 3.31, 3.33, 3.36, 3.39, 3.42, 3.45, 3.48, 3.51, 3.54, 3.57, 3.6, 3.64, 3.67, 3.7, 3.7, 3.67, 3.64, 3.61, 3.58, 3.55, 2.74, 2.72, 2.69, 2.67, 2.65, 2.63, 2.61, 2.6, 2.63, 2.66, 2.69, 3.22, 3.19, 3.16, 3.14, 3.11, 3.09, 3.06, 3.04, 3.01, 2.99, 2.97, 2.94, 2.92, 2.89, 2.87, 2.85, 2.83, 2.8, 2.78, 2.76, 2.73, 2.71, 1.72, 1.7, 1.69, 1.67, 1.66, 1.65, 1.63, 1.62, 1.61, 1.59, 1.58, 1.6, 1.65, 2.41, 2.39, 2.37, 2.35, 2.33, 2.31, 2.29, 2.27, 2.25, 2.23, 2.21, 2.19, 2.17, 2.15]
12 [1.61, 1.62, 1.64, 1.65, 1.67, 1.68, 1.7, 1.71, 1.73, 1.74, 1.76, 1.77, 1.79, 1.8, 1.81, 1.83, 1.84, 1.86, 1.87, 1.89, 1.9, 1.92, 1.93, 1.95, 1.96, 1.98, 2.0, 2.01, 2.03, 2.04, 2.06, 2.07, 2.09, 2.1, 2.12, 2.14, 2.15, 2.17, 2.19, 2.2, 2.22, 2.24, 2.25, 2.27, 2.29, 2.3, 2.32, 2.34, 2.36, 2.37, 2.39, 2.41, 2.43, 2.45, 2.46, 2.48, 2.5, 2.52, 2.54, 2.56, 2.58, 2.6, 2.62, 2.64, 2.66, 2.68, 2.7, 2.72, 2.74, 2.76, 2.79, 2.81, 2.83, 2.85, 2.88, 2.9, 2.92, 2.95, 2.97, 3.0, 3.02, 3.05, 3.07, 3.1, 3.13, 3.16, 3.18, 3.21, 3.24, 3.27, 3.3, 3.33, 3.36, 3.39, 3.42, 3.46, 3.49, 3.52, 3.56, 3.59, 3.63, 3.67, 3.7, 3.74, 3.74, 3.72, 3.69, 3.66, 3.63, 3.61, 2.78, 2.76, 2.74, 2.72, 2.7, 2.68, 2.66, 2.65, 2.68, 2.72, 2.75, 3.31, 3.28, 3.26, 3.24, 3.21, 3.19, 3.17, 3.15, 3.13, 3.1, 3.08, 3.06, 3.04, 3.02, 3.0, 2.98, 2.96, 2.93, 2.91, 2.89, 2.87, 2.85, 1.8, 1.79, 1.78, 1.76, 1.75, 1.74, 1.73, 1.71, 1.7, 1.69, 1.68, 1.67, 1.72, 1.78, 2.56, 2.55, 2.53, 2.51, 2.49, 2.47, 2.45, 2.43, 2.42, 2.4, 2.38, 2.36, 2.34, 2.32, 2.31, 2.29, 2.27, 2.25, 2.23, 2.22, 2.2, 2.18, 2.16, 2.14, 2.13]
13 [1.62, 1.63, 1.65, 1.67, 1.68, 1.7, 1.72, 1.73, 1.75, 1.77, 1.78, 1.8, 1.82, 1.83, 1.85, 1.87, 1.88, 1.9, 1.92, 1.94, 1.96, 1.97, 1.99, 2.01, 2.03, 2.05, 2.06, 2.08, 2.1, 2.12, 2.14, 2.16, 2.18, 2.2, 2.22, 2.23, 2.25, 2.27, 2.29, 2.32, 2.34, 2.36, 2.38, 2.4, 2.42, 2.44, 2.46, 2.48, 2.51, 2.53, 2.55, 2.58, 2.6, 2.62, 2.65, 2.67, 2.69, 2.72, 2.74, 2.77, 2.8, 2.82, 2.85, 2.87, 2.9, 2.93, 2.96, 2.99, 3.01, 3.04, 3.07, 3.1, 3.13, 3.17, 3.2, 3.23, 3.26, 3.3, 3.33, 3.37, 3.4, 3.44, 3.48, 3.51, 3.55, 3.59, 3.63, 3.67, 3.71, 3.75, 3.73, 3.7, 3.68, 3.65, 3.63, 3.61, 2.78, 2.76, 2.74, 2.73, 2.71, 2.69, 2.68, 2.69, 2.73, 2.77, 2.81, 3.35, 3.33, 3.31, 3.3, 3.28, 3.26, 3.24, 3.22, 3.2, 3.18, 3.16, 3.14, 3.13, 3.11, 3.09, 3.07, 3.06, 3.04, 3.02, 3.0, 2.99, 2.97, 1.87, 1.86, 1.85, 1.83, 1.82, 1.81, 1.8, 1.79, 1.78, 1.77, 1.76, 1.75, 1.81, 1.88, 2.72, 2.71, 2.69, 2.67, 2.66, 2.64, 2.63, 2.61, 2.6, 2.58, 2.57, 2.55, 2.53, 2.52, 2.5, 2.49, 2.47, 2.46, 2.44, 2.43, 2.41, 2.39, 2.38, 2.36, 2.35, 2.33, 2.32, 2.3, 2.29, 2.27, 2.26, 2.24, 2.22, 2.21, 2.19, 2.18, 2.16, 10.0, 0.0]
14 [1.62, 1.63, 1.65, 1.67, 1.68, 1.7, 1.72, 1.73, 1.75, 1.77, 1.78, 1.8, 1.82, 1.83, 1.85, 1.87, 1.88, 1.9, 1.92, 1.94, 1.96, 1.97, 1.99, 2.01, 2.03, 2.05, 2.06, 2.08, 2.1, 2.12, 2.14, 2.16, 2.18, 2.2, 2.22, 2.23, 2.25, 2.27, 2.29, 2.32, 2.34, 2.36, 2.38, 2.4, 2.42, 2.44, 2.46, 2.48, 2.51, 2.53, 2.55, 2.58, 2.6, 2.62, 2.65, 2.67, 2.69, 2.72, 2.74, 2.77, 2.8, 2.82, 2.85, 2.87, 2.9, 2.93, 2.96, 2.99, 3.01, 3.04, 3.07, 3.1, 3.13, 3.17, 3.2, 3.23, 3.26, 3.3, 3.33, 3.37, 3.4, 3.44, 3.48, 3.51, 3.55, 3.59, 3.63, 3.67, 3.71, 3.75, 3.73, 3.7, 3.68, 3.65, 3.63, 3.61, 2.78, 2.76, 2.74, 2.73, 2.71, 2.69, 2.68, 2.69, 2.73, 2.77, 2.81, 3.35, 3.33, 3.31, 3.3, 3.28, 3.26, 3.24, 3.22, 3.2, 3.18, 3.16, 3.14, 3.13, 3.11, 3.09, 3.07, 3.06, 3.04, 3.02, 3.0, 2.99, 2.97, 1.87, 1.86, 1.85, 1.83, 1.82, 1.81, 1.8, 1.79, 1.78, 1.77, 1.76, 1.75, 1.81, 1.88, 2.72, 2.71, 2.69, 2.67, 2.66, 2.64, 2.63, 2.61, 2.6, 2.58, 2.57, 2.55, 2.53, 2.52, 2.5, 2.49, 2.47, 2.46, 2.44, 2.43, 2.41, 2.39, 2.38, 2.36, 2.35, 2.33, 2.32, 2.3, 2.29, 2.27, 2.26, 2.24, 2.22, 2.21, 2.19, 2.18, 2.16, 2.15, 2.13]
15 [1.65, 1.67, 1.69, 1.71, 1.73, 1.75, 1.76, 1.78, 1.8, 1.82, 1.84, 1.86, 1.88, 1.9, 1.92, 1.94, 1.96, 1.98, 2.0, 2.03, 2.05, 2.07, 2.09, 2.11, 2.13, 2.16, 2.18, 2.2, 2.22, 2.25, 2.27, 2.29, 2.32, 2.34, 2.36, 2.39, 2.41, 2.44, 2.46, 2.49, 2.51, 2.54, 2.57, 2.59, 2.62, 2.65, 2.68, 2.71, 2.73, 2.76, 2.79, 2.82, 2.85, 2.88, 2.92, 2.95, 2.98, 3.01, 3.05, 3.08, 3.12, 3.15, 3.19, 3.22, 3.26, 3.3, 3.34, 3.38, 3.42, 3.46, 3.5, 3.54, 3.59, 3.63, 3.68, 3.67, 3.65, 3.63, 3.61, 3.59, 3.57, 2.74, 2.73, 2.72, 2.7, 2.69, 2.68, 2.66, 2.67, 2.71, 2.75, 2.79, 3.36, 3.35, 3.33, 3.31, 3.3, 3.28, 3.27, 3.25, 3.24, 3.22, 3.21, 3.19, 3.18, 3.16, 3.15, 3.13, 3.12, 3.1, 3.09, 3.08, 3.06, 3.05, 3.03, 1.9, 1.89, 1.88, 1.87, 1.87, 1.86, 1.85, 1.84, 1.83, 1.82, 1.82, 1.81, 1.89, 1.97, 2.83, 2.82, 2.81, 2.8, 2.78, 2.77, 2.76, 2.74, 2.73, 2.72, 2.71, 2.69, 2.68, 2.67, 2.66, 2.64, 2.63, 2.62, 2.61, 2.59, 2.58, 2.57, 2.56, 2.54, 2.53, 2.52, 2.51, 2.49, 2.48, 2.47, 2.46, 2.44, 2.43, 2.42, 2.4, 2.39, 2.38, 2.37, 2.35, 2.34, 2.33, 2.31, 2.3, 2.29, 2.28, 2.26, 2.25, 2.24, 2.22, 2.21, 2.2, 2.18, 2.17]
16 [1.71, 1.73, 1.75, 1.77, 1.79, 1.81, 1.84, 1.86, 1.88, 1.9, 1.92, 1.95, 1.97, 1.99, 2.02, 2.04, 2.06, 2.09, 2.11, 2.14, 2.16, 2.19, 2.21, 2.24, 2.27, 2.29, 2.32, 2.35, 2.37, 2.4, 2.43, 2.46, 2.48, 2.51, 2.54, 2.57, 2.6, 2.63, 2.67, 2.7, 2.73, 2.76, 2.8, 2.83, 2.86, 2.9, 2.93, 2.97, 3.01, 3.04, 3.08, 3.12, 3.16, 3.2, 3.24, 3.28, 3.33, 3.37, 3.41, 3.46, 3.51, 3.55, 3.57, 3.56, 3.54, 3.53, 3.51, 3.5, 3.48, 2.67, 2.66, 2.65, 2.64, 2.63, 2.62, 2.61, 2.64, 2.68, 2.73, 2.77, 3.32, 3.3, 3.29, 3.28, 3.27, 3.25, 3.24, 3.23, 3.22, 3.21, 3.19, 3.18, 3.17, 3.16, 3.15, 3.13, 3.12, 3.11, 3.1, 3.09, 3.08, 3.07, 3.06, 1.91, 1.9, 1.89, 1.89, 1.88, 1.87, 1.87, 1.86, 1.85, 1.85, 1.84, 1.85, 1.93, 2.02, 2.9, 2.89, 2.88, 2.87, 2.86, 2.85, 2.84, 2.83, 2.82, 2.81, 2.8, 2.79, 2.77, 2.76, 2.75, 2.74, 2.73, 2.72, 2.71, 2.7, 2.69, 2.68, 2.67, 2.66, 2.65, 2.64, 2.63, 2.62, 2.61, 2.6, 2.59, 2.58, 2.57, 2.56, 2.55, 2.54, 2.53, 2.52, 2.51, 2.5, 2.49, 2.48, 2.47, 2.46, 2.45, 2.44, 2.43, 2.42, 2.41, 2.4, 2.39, 2.38, 2.37, 2.36, 2.34, 2.33, 2.32, 1.77, 1.71, 1.65, 1.6, 1.59, 1.59, 10.0, 0.0]
17 [1.74, 1.76, 1.78, 1.81, 1.83, 1.85, 1.87, 1.9, 1.92, 1.95, 1.97, 1.99, 2.02, 2.04, 2.07, 2.09, 2.12, 2.15, 2.17, 2.2, 2.23, 2.25, 2.28, 2.31, 2.34, 2.36, 2.39, 2.42, 2.45, 2.48, 2.51, 2.54, 2.58, 2.61, 2.64, 2.67, 2.71, 2.74, 2.77, 2.81, 2.85, 2.88, 2.92, 2.96, 2.99, 3.03, 3.07, 3.11, 3.15, 3.2, 3.24, 3.28, 3.33, 3.37, 3.42, 3.47, 3.51, 3.51, 3.5, 3.48, 3.47, 3.46, 3.44, 2.64, 2.63, 2.62, 2.61, 2.6, 2.59, 2.58, 2.59, 2.63, 2.67, 2.72, 3.29, 3.28, 3.27, 3.26, 3.25, 3.24, 3.23, 3.22, 3.2, 3.19, 3.18, 3.17, 3.16, 3.15, 3.14, 3.13, 3.12, 3.11, 3.1, 3.09, 3.08, 3.07, 3.06, 1.9, 1.9, 1.89, 1.89, 1.88, 1.87, 1.87, 1.86, 1.86, 1.85, 1.85, 1.84, 1.87, 1.96, 2.92, 2.91, 2.9, 2.89, 2.88, 2.87, 2.86, 2.86, 2.85, 2.84, 2.83, 2.82, 2.81, 2.8, 2.79, 2.78, 2.78, 2.77, 2.76, 2.75, 2.74, 2.73, 2.72, 2.71, 2.7, 2.7, 2.69, 2.68, 2.67, 2.66, 2.65, 2.64, 2.63, 2.62, 2.62, 2.61, 2.6, 2.59, 2.58, 2.57, 2.56, 2.55, 2.54, 2.53, 2.52, 2.51, 2.51, 2.5, 2.49, 2.48, 2.47, 2.46, 2.45, 2.44, 2.43, 2.42, 2.41, 2.4, 1.83, 1.77, 1.71, 1.66, 1.65, 1.64, 1.64, 1.63, 1.62, 1.61, 1.61, 10.0, 0.0]
18 [1.77, 1.79, 1.82, 1.84, 1.86, 1.89, 1.91, 1.94, 1.96, 1.99, 2.01, 2.04, 2.07, 2.09, 2.12, 2.15, 2.17, 2.2, 2.23, 2.26, 2.29, 2.32, 2.34, 2.37, 2.4, 2.44, 2.47, 2.5, 2.53, 2.56, 2.6, 2.63, 2.66, 2.7, 2.73, 2.77, 2.81, 2.84, 2.88, 2.92, 2.96, 3.0, 3.04, 3.08, 3.12, 3.16, 3.21, 3.25, 3.3, 3.34, 3.39, 3.44, 3.46, 3.44, 3.43, 3.42, 3.41, 3.4, 2.6, 2.59, 2.58, 2.58, 2.57, 2.56, 2.55, 2.54, 2.58, 2.63, 2.67, 2.72, 3.25, 3.24, 3.23, 3.22, 3.21, 3.2, 3.19, 3.18, 3.17, 3.16, 3.16, 3.15, 3.14, 3.13, 3.12, 3.11, 3.1, 3.09, 3.08, 3.07, 3.06, 3.06, 3.05, 1.89, 1.89, 1.88, 1.88, 1.87, 1.87, 1.86, 1.85, 1.85, 1.84, 1.84, 1.83, 1.91, 2.0, 2.92, 2.91, 2.9, 2.9, 2.89, 2.88, 2.87, 2.86, 2.86, 2.85, 2.84, 2.83, 2.82, 2.82, 2.81, 2.8, 2.79, 2.79, 2.78, 2.77, 2.76, 2.75, 2.75, 2.74, 2.73, 2.72, 2.71, 2.71, 2.7, 2.69, 2.68, 2.67, 2.67, 2.66, 2.65, 2.64, 2.63, 2.63, 2.62, 2.61, 2.6, 2.59, 2.59, 2.58, 2.57, 2.56, 2.55, 2.54, 2.54, 2.53, 2.52, 2.51, 2.5, 2.49, 2.49, 2.48, 2.47, 2.46, 1.86, 1.8, 1.75, 1.7, 1.69, 1.69, 1.68, 1.67, 1.67, 1.66, 1.65, 1.65, 1.64, 2.33, 2.32, 2.31, 2.3]
19 [1.8, 1.82, 1.84, 1.87, 1.89, 1.92, 1.95, 1.97, 2.0, 2.02, 2.05, 2.08, 2.11, 2.13, 2.16, 2.19, 2.22, 2.25, 2.28, 2.31, 2.34, 2.37, 2.4, 2.43, 2.46, 2.5, 2.53, 2.56, 2.6, 2.63, 2.67, 2.7, 2.74, 2.77, 2.81, 2.85, 2.89, 2.93, 2.97, 3.01, 3.05, 3.1, 3.14, 3.18, 3.23, 3.28, 3.32, 3.37, 3.41, 3.4, 3.39, 3.38, 3.37, 3.35, 3.34, 2.56, 2.55, 2.54, 2.54, 2.53, 2.52, 2.51, 2.54, 2.58, 2.62, 2.67, 3.23, 3.22, 3.21, 3.2, 3.19, 3.18, 3.17, 3.16, 3.15, 3.14, 3.14, 3.13, 3.12, 3.11, 3.1, 3.09, 3.09, 3.08, 3.07, 3.06, 3.05, 3.05, 3.04, 1.88, 1.88, 1.87, 1.87, 1.86, 1.86, 1.85, 1.85, 1.84, 1.84, 1.83, 1.83, 1.87, 1.95, 2.92, 2.92, 2.91, 2.9, 2.89, 2.89, 2.88, 2.87, 2.87, 2.86, 2.85, 2.84, 2.84, 2.83, 2.82, 2.82, 2.81, 2.8, 2.79, 2.79, 2.78, 2.77, 2.77, 2.76, 2.75, 2.74, 2.74, 2.73, 2.72, 2.72, 2.71, 2.7, 2.69, 2.69, 2.68, 2.67, 2.67, 2.66, 2.65, 2.64, 2.64, 2.63, 2.62, 2.61, 2.61, 2.6, 2.59, 2.58, 2.58, 2.57, 2.56, 2.55, 2.55, 2.54, 2.53, 2.52, 2.51, 2.51, 2.5, 1.88, 1.82, 1.76, 1.73, 1.72, 1.71, 1.71, 1.7, 1.7, 1.69, 1.68, 1.68, 1.67, 2.38, 2.37, 2.36, 2.36, 2.35, 2.34, 2.33]
20 [1.81, 1.84, 1.87, 1.89, 1.92, 1.94, 1.97, 2.0, 2.02, 2.05, 2.08, 2.11, 2.14, 2.16, 2.19, 2.22, 2.25, 2.28, 2.31, 2.34, 2.38, 2.41, 2.44, 2.47, 2.51, 2.54, 2.58, 2.61, 2.65, 2.68, 2.72, 2.76, 2.79, 2.83, 2.87, 2.91, 2.95, 3.0, 3.04, 3.08, 3.13, 3.17, 3.22, 3.27, 3.31, 3.36, 3.36, 3.35, 3.34, 3.33, 3.32, 3.31, 2.53, 2.52, 2.52, 2.51, 2.5, 2.5, 2.49, 2.5, 2.54, 2.58, 2.63, 2.68, 3.19, 3.18, 3.17, 3.17, 3.16, 3.15, 3.14, 3.13, 3.13, 3.12, 3.11, 3.1, 3.09, 3.09, 3.08, 3.07, 3.06, 3.06, 3.05, 3.04, 3.03, 3.03, 1.87, 1.87, 1.86, 1.86, 1.85, 1.85, 1.84, 1.84, 1.84, 1.83, 1.83, 1.82, 1.82, 1.9, 1.99, 2.91, 2.91, 2.9, 2.89, 2.89, 2.88, 2.87, 2.87, 2.86, 2.85, 2.85, 2.84, 2.83, 2.83, 2.82, 2.81, 2.81, 2.8, 2.8, 2.79, 2.78, 2.78, 2.77, 2.76, 2.76, 2.75, 2.74, 2.74, 2.73, 2.72, 2.72, 2.71, 2.7, 2.7, 2.69, 2.68, 2.68, 2.67, 2.66, 2.66, 2.65, 2.64, 2.64, 2.63, 2.62, 2.62, 2.61, 2.6, 2.59, 2.59, 2.58, 2.57, 2.57, 2.56, 2.55, 2.54, 2.54, 2.53, 2.52, 1.88, 1.83, 1.77, 1.74, 1.74, 1.73, 1.72, 1.72, 1.71, 1.71, 1.7, 1.7, 1.69, 2.42, 2.41, 2.4, 2.39, 2.38, 2.37, 2.37, 2.36, 2.35]
21 [1.83, 1.86, 1.89, 1.91, 1.94, 1.97, 1.99, 2.02, 2.05, 2.08, 2.11, 2.13, 2.16, 2.19, 2.22, 2.25, 2.29, 2.32, 2.35, 2.38, 2.41, 2.45, 2.48, 2.51, 2.55, 2.59, 2.62, 2.66, 2.7, 2.73, 2.77, 2.81, 2.85, 2.89, 2.93, 2.98, 3.02, 3.06, 3.11, 3.15, 3.2, 3.25, 3.3, 3.31, 3.3, 3.29, 3.28, 3.28, 3.27, 2.49, 2.49, 2.48, 2.47, 2.47, 2.46, 2.45, 2.45, 2.49, 2.53, 2.58, 2.62, 3.16, 3.15, 3.14, 3.13, 3.13, 3.12, 3.11, 3.1, 3.1, 3.09, 3.08, 3.07, 3.07, 3.06, 3.05, 3.05, 3.04, 3.03, 3.03, 3.02, 3.01, 3.01, 3.0, 1.85, 1.84, 1.84, 1.83, 1.83, 1.83, 1.82, 1.82, 1.81, 1.81, 1.81, 1.8, 1.83, 1.91, 2.9, 2.9, 2.89, 2.88, 2.88, 2.87, 2.87, 2.86, 2.85, 2.85, 2.84, 2.83, 2.83, 2.82, 2.82, 2.81, 2.8, 2.8, 2.79, 2.79, 2.78, 2.77, 2.77, 2.76, 2.76, 2.75, 2.74, 2.74, 2.73, 2.73, 2.72, 2.71, 2.71, 2.7, 2.7, 2.69, 2.68, 2.68, 2.67, 2.67, 2.66, 2.65, 2.65, 2.64, 2.63, 2.63, 2.62, 2.62, 2.61, 2.6, 2.6, 2.59, 2.58, 2.58, 2.57, 2.56, 2.56, 2.55, 2.54, 2.54, 1.9, 1.84, 1.79, 1.75, 1.74, 1.74, 1.73, 1.73, 1.72, 1.72, 1.71, 1.71, 1.7, 2.44, 2.43, 2.42, 2.42, 2.41, 2.4, 2.39, 2.38, 2.38, 2.37, 2.36]
22 [1.84, 1.87, 1.9, 1.92, 1.95, 1.98, 2.0, 2.03, 2.06, 2.09, 2.12, 2.15, 2.18, 2.21, 2.24, 2.27, 2.3, 2.33, 2.36, 2.4, 2.43, 2.46, 2.5, 2.53, 2.57, 2.61, 2.64, 2.68, 2.72, 2.76, 2.8, 2.84, 2.88, 2.92, 2.96, 3.0, 3.05, 3.09, 3.14, 3.19, 3.23, 3.28, 3.29, 3.28, 3.27, 3.26, 3.25, 3.25, 2.47, 2.47, 2.46, 2.46, 2.45, 2.44, 2.44, 2.44, 2.48, 2.53, 2.57, 2.62, 3.14, 3.13, 3.13, 3.12, 3.11, 3.1, 3.1, 3.09, 3.08, 3.07, 3.07, 3.06, 3.05, 3.05, 3.04, 3.03, 3.03, 3.02, 3.01, 3.01, 3.0, 2.99, 2.99, 1.84, 1.83, 1.83, 1.82, 1.82, 1.82, 1.81, 1.81, 1.81, 1.8, 1.8, 1.79, 1.83, 1.91, 2.9, 2.89, 2.88, 2.88, 2.87, 2.87, 2.86, 2.85, 2.85, 2.84, 2.84, 2.83, 2.82, 2.82, 2.81, 2.81, 2.8, 2.8, 2.79, 2.78, 2.78, 2.77, 2.77, 2.76, 2.76, 2.75, 2.74, 2.74, 2.73, 2.73, 2.72, 2.71, 2.71, 2.7, 2.7, 2.69, 2.69, 2.68, 2.67, 2.67, 2.66, 2.66, 2.65, 2.64, 2.64, 2.63, 2.63, 2.62, 2.61, 2.61, 2.6, 2.59, 2.59, 2.58, 2.58, 2.57, 2.56, 2.56, 2.55, 2.54, 1.91, 1.85, 1.8, 1.75, 1.75, 1.74, 1.74, 1.73, 1.73, 1.72, 1.72, 1.71, 1.71, 2.45, 2.44, 2.43, 2.43, 2.42, 2.41, 2.4, 2.4, 2.39, 2.38, 2.37, 2.34]
23 [1.84, 1.87, 1.9, 1.92, 1.95, 1.98, 2.0, 2.03, 2.06, 2.09, 2.12, 2.15, 2.18, 2.21, 2.24, 2.27, 2.3, 2.33, 2.37, 2.4, 2.43, 2.47, 2.5, 2.53, 2.57, 2.61, 2.64, 2.68, 2.72, 2.76, 2.8, 2.84, 2.88, 2.92, 2.96, 3.0, 3.05, 3.09, 3.14, 3.19, 3.23, 3.28, 3.29, 3.28, 3.27, 3.26, 3.25, 3.24, 2.47, 2.47, 2.46, 2.45, 2.45, 2.44, 2.43, 2.44, 2.48, 2.53, 2.57, 2.62, 3.14, 3.13, 3.12, 3.12, 3.11, 3.1, 3.09, 3.09, 3.08, 3.07, 3.07, 3.06, 3.05, 3.05, 3.04, 3.03, 3.02, 3.02, 3.01, 3.01, 3.0, 2.99, 2.99, 1.83, 1.83, 1.83, 1.82, 1.82, 1.81, 1.81, 1.81, 1.8, 1.8, 1.8, 1.79, 1.83, 1.91, 2.89, 2.89, 2.88, 2.88, 2.87, 2.86, 2.86, 2.85, 2.85, 2.84, 2.83, 2.83, 2.82, 2.82, 2.81, 2.81, 2.8, 2.79, 2.79, 2.78, 2.78, 2.77, 2.77, 2.76, 2.75, 2.75, 2.74, 2.74, 2.73, 2.72, 2.72, 2.71, 2.71, 2.7, 2.7, 2.69, 2.68, 2.68, 2.67, 2.67, 2.66, 2.65, 2.65, 2.64, 2.64, 2.63, 2.62, 2.62, 2.61, 2.61, 2.6, 2.59, 2.59, 2.58, 2.57, 2.57, 2.56, 2.56, 2.55, 2.54, 1.91, 1.85, 1.8, 1.75, 1.74, 1.74, 1.73, 1.73, 1.73, 1.72, 1.72, 1.71, 1.71, 2.45, 2.44, 2.43, 2.43, 2.42, 2.41, 2.4, 2.4, 2.39, 2.38, 2.37, 2.33]
24 [1.84, 1.87, 1.89, 1.92, 1.95, 1.97, 2.0, 2.03, 2.06, 2.09, 2.12, 2.15, 2.18, 2.21, 2.24, 2.27, 2.3, 2.33, 2.36, 2.4, 2.43, 2.46, 2.5, 2.53, 2.57, 2.6, 2.64, 2.68, 2.72, 2.76, 2.79, 2.83, 2.88, 2.92, 2.96, 3.0, 3.05, 3.09, 3.14, 3.18, 3.23, 3.28, 3.27, 3.26, 3.25, 3.24, 3.23, 3.22, 2.45, 2.45, 2.44, 2.43, 2.43, 2.42, 2.42, 2.44, 2.48, 2.52, 2.57, 3.13, 3.12, 3.11, 3.1, 3.1, 3.09, 3.08, 3.08, 3.07, 3.06, 3.06, 3.05, 3.04, 3.03, 3.03, 3.02, 3.01, 3.01, 3.0, 3.0, 2.99, 2.98, 2.98, 2.97, 1.82, 1.81, 1.81, 1.81, 1.8, 1.8, 1.8, 1.79, 1.79, 1.78, 1.78, 1.78, 1.82, 1.9, 2.88, 2.87, 2.87, 2.86, 2.85, 2.85, 2.84, 2.84, 2.83, 2.83, 2.82, 2.81, 2.81, 2.8, 2.8, 2.79, 2.79, 2.78, 2.77, 2.77, 2.76, 2.76, 2.75, 2.75, 2.74, 2.73, 2.73, 2.72, 2.72, 2.71, 2.7, 2.7, 2.69, 2.69, 2.68, 2.68, 2.67, 2.66, 2.66, 2.65, 2.65, 2.64, 2.63, 2.63, 2.62, 2.62, 2.61, 2.6, 2.6, 2.59, 2.59, 2.58, 2.57, 2.57, 2.56, 2.56, 2.55, 2.54, 2.54, 2.53, 1.91, 1.85, 1.8, 1.75, 1.73, 1.73, 1.72, 1.72, 1.71, 1.71, 1.7, 1.7, 1.69, 1.69, 2.43, 2.42, 2.41, 2.41, 2.4, 2.39, 2.38, 2.38, 2.37, 2.36, 2.34]
25 [1.82, 1.85, 1.88, 1.9, 1.93, 1.96, 1.98, 2.01, 2.04, 2.07, 2.1, 2.12, 2.15, 2.18, 2.21, 2.24, 2.27, 2.31, 2.34, 2.37, 2.4, 2.44, 2.47, 2.5, 2.54, 2.57, 2.61, 2.65, 2.68, 2.72, 2.76, 2.8, 2.84, 2.88, 2.92, 2.96, 3.0, 3.05, 3.09, 3.14, 3.18, 3.23, 3.27, 3.26, 3.25, 3.24, 3.23, 3.22, 2.44, 2.44, 2.43, 2.42, 2.42, 2.41, 2.41, 2.4, 2.43, 2.47, 2.51, 2.56, 3.11, 3.1, 3.1, 3.09, 3.08, 3.07, 3.07, 3.06, 3.05, 3.04, 3.04, 3.03, 3.02, 3.02, 3.01, 3.0, 2.99, 2.99, 2.98, 2.97, 2.97, 2.96, 2.95, 2.95, 1.8, 1.79, 1.79, 1.78, 1.78, 1.78, 1.77, 1.77, 1.76, 1.76, 1.76, 1.75, 1.78, 1.86, 1.94, 2.85, 2.84, 2.84, 2.83, 2.82, 2.82, 2.81, 2.8, 2.8, 2.79, 2.79, 2.78, 2.78, 2.77, 2.76, 2.76, 2.75, 2.75, 2.74, 2.73, 2.73, 2.72, 2.72, 2.71, 2.7, 2.7, 2.69, 2.69, 2.68, 2.67, 2.67, 2.66, 2.66, 2.65, 2.64, 2.64, 2.63, 2.63, 2.62, 2.61, 2.61, 2.6, 2.6, 2.59, 2.58, 2.58, 2.57, 2.56, 2.56, 2.55, 2.55, 2.54, 2.53, 2.53, 2.52, 2.51, 2.51, 2.5, 2.49, 2.49, 1.87, 1.81, 1.76, 1.71, 1.69, 1.69, 1.69, 1.68, 1.68, 1.67, 1.67, 1.66, 1.66, 1.65, 2.38, 2.37, 2.37, 2.36, 2.35, 2.34, 2.34, 2.33, 2.32]
26 [1.81, 1.84, 1.86, 1.89, 1.92, 1.94, 1.97, 2.0, 2.02, 2.05, 2.08, 2.11, 2.14, 2.17, 2.2, 2.23, 2.26, 2.29, 2.32, 2.35, 2.38, 2.41, 2.45, 2.48, 2.52, 2.55, 2.59, 2.62, 2.66, 2.69, 2.73, 2.77, 2.81, 2.85, 2.89, 2.93, 2.97, 3.02, 3.06, 3.1, 3.15, 3.2, 3.24, 3.26, 3.25, 3.24, 3.23, 3.22, 3.21, 2.44, 2.43, 2.42, 2.42, 2.41, 2.4, 2.4, 2.39, 2.43, 2.47, 2.52, 2.56, 3.1, 3.09, 3.09, 3.08, 3.07, 3.06, 3.06, 3.05, 3.04, 3.03, 3.03, 3.02, 3.01, 3.0, 3.0, 2.99, 2.98, 2.98, 2.97, 2.96, 2.96, 2.95, 2.94, 2.94, 1.78, 1.78, 1.77, 1.77, 1.77, 1.76, 1.76, 1.75, 1.75, 1.75, 1.74, 1.74, 1.77, 1.84, 2.84, 2.83, 2.83, 2.82, 2.81, 2.81, 2.8, 2.79, 2.79, 2.78, 2.78, 2.77, 2.76, 2.76, 2.75, 2.75, 2.74, 2.73, 2.73, 2.72, 2.72, 2.71, 2.7, 2.7, 2.69, 2.68, 2.68, 2.67, 2.67, 2.66, 2.65, 2.65, 2.64, 2.64, 2.63, 2.62, 2.62, 2.61, 2.61, 2.6, 2.59, 2.59, 2.58, 2.57, 2.57, 2.56, 2.55, 2.55, 2.54, 2.54, 2.53, 2.52, 2.52, 2.51, 2.5, 2.5, 2.49, 2.48, 2.48, 2.47, 2.46, 1.86, 1.81, 1.75, 1.7, 1.67, 1.67, 1.66, 1.66, 1.65, 1.65, 1.64, 1.64, 1.63, 1.63, 2.35, 2.35, 2.34, 2.33, 2.32, 2.31, 2.31, 2.3]
27 [1.77, 1.8, 1.82, 1.85, 1.87, 1.9, 1.92, 1.95, 1.97, 2.0, 2.03, 2.05, 2.08, 2.11, 2.13, 2.16, 2.19, 2.22, 2.25, 2.28, 2.31, 2.34, 2.37, 2.4, 2.43, 2.47, 2.5, 2.53, 2.56, 2.6, 2.63, 2.67, 2.71, 2.74, 2.78, 2.82, 2.86, 2.89, 2.93, 2.98, 3.02, 3.06, 3.1, 3.15, 3.19, 3.24, 3.28, 3.28, 3.27, 3.26, 3.25, 3.24, 3.23, 2.44, 2.43, 2.43, 2.42, 2.41, 2.4, 2.4, 2.4, 2.44, 2.49, 2.53, 2.57, 3.1, 3.1, 3.09, 3.08, 3.07, 3.06, 3.05, 3.04, 3.03, 3.03, 3.02, 3.01, 3.0, 2.99, 2.99, 2.98, 2.97, 2.96, 2.95, 2.95, 2.94, 2.93, 2.92, 1.77, 1.76, 1.76, 1.75, 1.75, 1.74, 1.74, 1.73, 1.73, 1.73, 1.72, 1.72, 1.71, 1.73, 1.81, 1.89, 2.8, 2.79, 2.79, 2.78, 2.77, 2.77, 2.76, 2.75, 2.74, 2.74, 2.73, 2.72, 2.72, 2.71, 2.7, 2.7, 2.69, 2.68, 2.68, 2.67, 2.66, 2.66, 2.65, 2.64, 2.63, 2.63, 2.62, 2.61, 2.61, 2.6, 2.59, 2.59, 2.58, 2.57, 2.57, 2.56, 2.55, 2.55, 2.54, 2.53, 2.52, 2.52, 2.51, 2.5, 2.5, 2.49, 2.48, 2.47, 2.47, 2.46, 2.45, 2.45, 2.44, 2.43, 2.42, 2.42, 2.41, 2.4, 2.39, 2.38, 2.38, 1.77, 1.72, 1.67, 1.63, 1.61, 1.6, 1.59, 1.59, 1.58, 1.58, 1.57, 1.57, 1.56, 1.55, 2.25, 2.25, 2.24]
28 [1.77, 1.8, 1.82, 1.85, 1.87, 1.9, 1.92, 1.95, 1.97, 2.0, 2.03, 2.05, 2.08, 2.11, 2.13, 2.16, 2.19, 2.22, 2.25, 2.28, 2.31, 2.34, 2.37, 2.4, 2.43, 2.47, 2.5, 2.53, 2.56, 2.6, 2.63, 2.67, 2.71, 2.74, 2.78, 2.82, 2.86, 2.89, 2.93, 2.98, 3.02, 3.06, 3.1, 3.15, 3.19, 3.24, 3.28, 3.28, 3.27, 3.26, 3.25, 3.24, 3.23, 2.44, 2.43, 2.43, 2.42, 2.41, 2.4, 2.4, 2.4, 2.44, 2.49, 2.53, 2.57, 3.1, 3.1, 3.09, 3.08, 3.07, 3.06, 3.05, 3.04, 3.03, 3.03, 3.02, 3.01, 3.0, 2.99, 2.99, 2.98, 2.97, 2.96, 2.95, 2.95, 2.94, 2.93, 2.92, 1.77, 1.76, 1.76, 1.75, 1.75, 1.74, 1.74, 1.73, 1.73, 1.73, 1.72, 1.72, 1.71, 1.73, 1.81, 1.89, 2.8, 2.79, 2.79, 2.78, 2.77, 2.77, 2.76, 2.75, 2.74, 2.74, 2.73, 2.72, 2.72, 2.71, 2.7, 2.7, 2.69, 2.68, 2.68, 2.67, 2.66, 2.66, 2.65, 2.64, 2.63, 2.63, 2.62, 2.61, 2.61, 2.6, 2.59, 2.59, 2.58, 2.57, 2.57, 2.56, 2.55, 2.55, 2.54, 2.53, 2.52, 2.52, 2.51, 2.5, 2.5, 2.49, 2.48, 2.47, 2.47, 2.46, 2.45, 2.45, 2.44, 2.43, 2.42, 2.42, 2.41, 2.4, 2.39, 2.38, 2.38, 1.77, 1.72, 1.67, 1.63, 1.61, 1.6, 1.59, 1.59, 1.58, 1.58, 1.57, 1.57, 1.56, 1.55, 2.25, 2.25, 2.24]
29 [1.71, 1.73, 1.76, 1.78, 1.8, 1.82, 1.85, 1.87, 1.89, 1.92, 1.94, 1.97, 1.99, 2.01, 2.04, 2.06, 2.09, 2.12, 2.14, 2.17, 2.19, 2.22, 2.25, 2.28, 2.31, 2.33, 2.36, 2.39, 2.42, 2.45, 2.48, 2.51, 2.54, 2.58, 2.61, 2.64, 2.67, 2.71, 2.74, 2.78, 2.81, 2.85, 2.89, 2.92, 2.96, 3.0, 3.04, 3.08, 3.12, 3.16, 3.21, 3.25, 3.29, 3.34, 3.33, 3.32, 3.31, 3.29, 3.28, 3.27, 2.46, 2.45, 2.44, 2.44, 2.43, 2.42, 2.41, 2.42, 2.46, 2.5, 2.54, 2.58, 3.12, 3.11, 3.1, 3.09, 3.08, 3.07, 3.06, 3.05, 3.04, 3.03, 3.02, 3.01, 3.0, 2.99, 2.98, 2.97, 2.96, 2.95, 2.94, 2.93, 2.92, 2.91, 2.9, 2.89, 1.74, 1.73, 1.73, 1.72, 1.72, 1.71, 1.7, 1.7, 1.69, 1.69, 1.68, 1.68, 1.67, 1.73, 1.81, 2.75, 2.75, 2.74, 2.73, 2.72, 2.71, 2.7, 2.69, 2.69, 2.68, 2.67, 2.66, 2.65, 2.65, 2.64, 2.63, 2.62, 2.61, 2.6, 2.6, 2.59, 2.58, 2.57, 2.56, 2.56, 2.55, 2.54, 2.53, 2.52, 2.51, 2.51, 2.5, 2.49, 2.48, 2.47, 2.46, 2.46, 2.45, 2.44, 2.43, 2.42, 2.41, 2.41, 2.4, 2.39, 2.38, 2.37, 2.36, 2.35, 2.35, 2.34, 2.33, 2.32, 2.31, 2.3, 2.29, 2.28, 2.27, 2.26, 2.26, 2.25, 2.24, 1.67, 1.62, 1.57, 1.52, 1.5, 1.49, 1.48, 10.0, -9.2233718E16]
30 [1.68, 1.7, 1.72, 1.74, 1.77, 1.79, 1.81, 1.83, 1.85, 1.88, 1.9, 1.92, 1.95, 1.97, 1.99, 2.02, 2.04, 2.06, 2.09, 2.11, 2.14, 2.16, 2.19, 2.22, 2.24, 2.27, 2.3, 2.32, 2.35, 2.38, 2.41, 2.44, 2.47, 2.49, 2.52, 2.56, 2.59, 2.62, 2.65, 2.68, 2.71, 2.75, 2.78, 2.82, 2.85, 2.89, 2.92, 2.96, 3.0, 3.04, 3.07, 3.11, 3.15, 3.2, 3.24, 3.28, 3.33, 3.37, 3.36, 3.34, 3.33, 3.32, 3.3, 3.29, 2.47, 2.46, 2.45, 2.44, 2.43, 2.42, 2.41, 2.42, 2.46, 2.5, 2.54, 2.58, 3.12, 3.11, 3.1, 3.09, 3.08, 3.07, 3.05, 3.04, 3.03, 3.02, 3.01, 3.0, 2.99, 2.98, 2.97, 2.96, 2.95, 2.94, 2.93, 2.92, 2.91, 2.9, 2.89, 2.88, 1.72, 1.72, 1.71, 1.7, 1.7, 1.69, 1.69, 1.68, 1.68, 1.67, 1.66, 1.66, 1.65, 1.69, 1.76, 2.72, 2.72, 2.71, 2.7, 2.69, 2.68, 2.67, 2.66, 2.65, 2.64, 2.63, 2.62, 2.62, 2.61, 2.6, 2.59, 2.58, 2.57, 2.56, 2.55, 2.54, 2.53, 2.53, 2.52, 2.51, 2.5, 2.49, 2.48, 2.47, 2.46, 2.45, 2.45, 2.44, 2.43, 2.42, 2.41, 2.4, 2.39, 2.38, 2.37, 2.36, 2.35, 2.34, 2.34, 2.33, 2.32, 2.31, 2.3, 2.29, 2.28, 2.27, 2.26, 2.25, 2.24, 2.23, 2.22, 2.21, 2.2, 2.19, 2.18, 2.17, 2.16, 1.63, 1.58, 1.53, 1.48, 1.44]
31 [1.65, 1.67, 1.69, 1.71, 1.73, 1.75, 1.77, 1.79, 1.82, 1.84, 1.86, 1.88, 1.9, 1.92, 1.95, 1.97, 1.99, 2.01, 2.04, 2.06, 2.08, 2.11, 2.13, 2.15, 2.18, 2.2, 2.23, 2.25, 2.28, 2.31, 2.33, 2.36, 2.39, 2.41, 2.44, 2.47, 2.5, 2.53, 2.55, 2.58, 2.61, 2.64, 2.68, 2.71, 2.74, 2.77, 2.8, 2.84, 2.87, 2.91, 2.94, 2.98, 3.01, 3.05, 3.09, 3.13, 3.17, 3.21, 3.25, 3.29, 3.33, 3.38, 3.39, 3.38, 3.36, 3.35, 3.33, 3.32, 2.49, 2.48, 2.47, 2.46, 2.45, 2.44, 2.43, 2.42, 2.44, 2.48, 2.52, 2.56, 3.14, 3.12, 3.11, 3.1, 3.08, 3.07, 3.06, 3.05, 3.04, 3.02, 3.01, 3.0, 2.99, 2.98, 2.96, 2.95, 2.94, 2.93, 2.92, 2.91, 2.9, 2.89, 2.88, 2.86, 2.85, 1.7, 1.7, 1.69, 1.69, 1.68, 1.67, 1.67, 1.66, 1.65, 1.65, 1.64, 1.64, 1.63, 1.68, 1.76, 2.69, 2.68, 2.67, 2.66, 2.65, 2.64, 2.63, 2.62, 2.61, 2.6, 2.59, 2.58, 2.57, 2.56, 2.55, 2.54, 2.53, 2.52, 2.51, 2.5, 2.49, 2.48, 2.47, 2.46, 2.45, 2.44, 2.43, 2.42, 2.41, 2.4, 2.39, 2.38, 2.37, 2.36, 2.35, 2.34, 2.33, 2.32, 2.31, 2.3, 2.29, 2.28, 2.27, 2.26, 2.25, 2.24, 2.23, 2.22, 2.21, 2.2, 2.19, 2.18, 2.17, 2.16, 2.15, 2.14, 2.12, 2.11, 2.1, 2.09, 2.08, 2.07]
32 [1.62, 1.64, 1.66, 1.68, 1.7, 1.72, 1.74, 1.76, 1.78, 1.8, 1.82, 1.84, 1.86, 1.88, 1.9, 1.92, 1.94, 1.96, 1.99, 2.01, 2.03, 2.05, 2.07, 2.1, 2.12, 2.14, 2.17, 2.19, 2.21, 2.24, 2.26, 2.28, 2.31, 2.33, 2.36, 2.39, 2.41, 2.44, 2.46, 2.49, 2.52, 2.55, 2.58, 2.6, 2.63, 2.66, 2.69, 2.72, 2.75, 2.78, 2.82, 2.85, 2.88, 2.91, 2.95, 2.98, 3.02, 3.05, 3.09, 3.13, 3.16, 3.2, 3.24, 3.28, 3.32, 3.37, 3.41, 3.42, 3.4, 3.39, 3.37, 3.35, 3.34, 2.5, 2.49, 2.48, 2.47, 2.46, 2.44, 2.43, 2.42, 2.45, 2.49, 2.53, 2.56, 3.14, 3.12, 3.11, 3.1, 3.08, 3.07, 3.06, 3.04, 3.03, 3.02, 3.0, 2.99, 2.98, 2.96, 2.95, 2.94, 2.93, 2.91, 2.9, 2.89, 2.88, 2.87, 2.85, 2.84, 2.83, 1.69, 1.68, 1.67, 1.67, 1.66, 1.65, 1.65, 1.64, 1.63, 1.63, 1.62, 1.61, 1.61, 1.64, 1.72, 2.65, 2.64, 2.63, 2.62, 2.6, 2.59, 2.58, 2.57, 2.56, 2.55, 2.54, 2.53, 2.52, 2.51, 2.5, 2.49, 2.48, 2.46, 2.45, 2.44, 2.43, 2.42, 2.41, 2.4, 2.39, 2.38, 2.37, 2.36, 2.35, 2.34, 2.33, 2.31, 2.3, 2.29, 2.28, 2.27, 2.26, 2.25, 2.24, 2.23, 2.22, 2.21, 2.19, 2.18, 2.17, 2.16, 2.15, 2.14, 2.13, 2.12, 2.1, 2.09, 2.08, 2.07, 2.06, 2.05, 2.03]
33 [1.59, 1.6, 1.62, 1.64, 1.66, 1.67, 1.69, 1.71, 1.73, 1.75, 1.77, 1.78, 1.8, 1.82, 1.84, 1.86, 1.88, 1.9, 1.92, 1.94, 1.96, 1.98, 2.0, 2.02, 2.04, 2.06, 2.08, 2.1, 2.12, 2.14, 2.16, 2.18, 2.21, 2.23, 2.25, 2.27, 2.3, 2.32, 2.34, 2.36, 2.39, 2.41, 2.44, 2.46, 2.49, 2.51, 2.54, 2.56, 2.59, 2.62, 2.64, 2.67, 2.7, 2.73, 2.76, 2.79, 2.81, 2.84, 2.88, 2.91, 2.94, 2.97, 3.0, 3.04, 3.07, 3.1, 3.14, 3.17, 3.21, 3.25, 3.29, 3.32, 3.36, 3.4, 3.44, 3.45, 3.43, 3.41, 3.39, 3.37, 3.36, 2.51, 2.5, 2.49, 2.47, 2.46, 2.45, 2.44, 2.42, 2.45, 2.48, 2.52, 2.56, 3.13, 3.12, 3.1, 3.09, 3.07, 3.05, 3.04, 3.02, 3.01, 2.99, 2.98, 2.96, 2.95, 2.94, 2.92, 2.91, 2.89, 2.88, 2.87, 2.85, 2.84, 2.82, 2.81, 2.8, 2.78, 1.66, 1.65, 1.64, 1.63, 1.63, 1.62, 1.61, 1.6, 1.59, 1.59, 1.58, 1.57, 1.56, 1.57, 1.65, 1.72, 2.57, 2.55, 2.54, 2.53, 2.52, 2.51, 2.49, 2.48, 2.47, 2.46, 2.44, 2.43, 2.42, 2.41, 2.4, 2.38, 2.37, 2.36, 2.35, 2.33, 2.32, 2.31, 2.3, 2.29, 2.27, 2.26, 2.25, 2.24, 2.23, 2.21, 2.2, 2.19, 2.18, 2.16, 2.15, 2.14, 2.13, 2.12, 2.1, 2.09, 2.08, 2.06, 2.05, 2.04, 2.03, 2.01, 2.0, 1.99]
34 [1.57, 1.59, 1.61, 1.62, 1.64, 1.66, 1.67, 1.69, 1.71, 1.73, 1.74, 1.76, 1.78, 1.8, 1.82, 1.83, 1.85, 1.87, 1.89, 1.91, 1.93, 1.95, 1.96, 1.98, 2.0, 2.02, 2.04, 2.06, 2.08, 2.1, 2.12, 2.14, 2.16, 2.18, 2.21, 2.23, 2.25, 2.27, 2.29, 2.31, 2.34, 2.36, 2.38, 2.41, 2.43, 2.45, 2.48, 2.5, 2.53, 2.55, 2.58, 2.6, 2.63, 2.65, 2.68, 2.71, 2.73, 2.76, 2.79, 2.82, 2.85, 2.88, 2.91, 2.94, 2.97, 3.0, 3.03, 3.07, 3.1, 3.13, 3.17, 3.2, 3.24, 3.27, 3.31, 3.35, 3.39, 3.43, 3.47, 3.45, 3.43, 3.41, 3.39, 3.37, 3.35, 2.51, 2.5, 2.48, 2.47, 2.46, 2.44, 2.43, 2.42, 2.46, 2.49, 2.53, 2.56, 3.12, 3.1, 3.09, 3.07, 3.05, 3.04, 3.02, 3.01, 2.99, 2.97, 2.96, 2.94, 2.93, 2.91, 2.9, 2.88, 2.87, 2.85, 2.84, 2.83, 2.81, 2.8, 2.78, 2.77, 2.75, 1.64, 1.63, 1.62, 1.61, 1.6, 1.6, 1.59, 1.58, 1.57, 1.56, 1.56, 1.55, 1.54, 1.56, 1.63, 2.54, 2.53, 2.51, 2.5, 2.49, 2.47, 2.46, 2.45, 2.44, 2.42, 2.41, 2.4, 2.38, 2.37, 2.36, 2.35, 2.33, 2.32, 2.31, 2.3, 2.28, 2.27, 2.26, 2.24, 2.23, 2.22, 2.21, 2.19, 2.18, 2.17, 2.15, 2.14, 2.13, 2.12, 2.1, 2.09, 2.08, 2.06, 2.05, 2.04, 2.02, 2.01, 2.0, 1.99, 1.97]
35 [1.56, 1.57, 1.59, 1.61, 1.62, 1.64, 1.66, 1.67, 1.69, 1.71, 1.72, 1.74, 1.76, 1.77, 1.79, 1.81, 1.83, 1.84, 1.86, 1.88, 1.9, 1.91, 1.93, 1.95, 1.97, 1.99, 2.01, 2.02, 2.04, 2.06, 2.08, 2.1, 2.12, 2.14, 2.16, 2.18, 2.2, 2.22, 2.24, 2.26, 2.28, 2.3, 2.32, 2.35, 2.37, 2.39, 2.41, 2.43, 2.46, 2.48, 2.5, 2.53, 2.55, 2.58, 2.6, 2.62, 2.65, 2.68, 2.7, 2.73, 2.75, 2.78, 2.81, 2.84, 2.87, 2.89, 2.92, 2.95, 2.98, 3.01, 3.05, 3.08, 3.11, 3.14, 3.18, 3.21, 3.25, 3.28, 3.32, 3.35, 3.39, 3.43, 3.47, 3.46, 3.44, 3.42, 3.4, 3.38, 3.36, 2.51, 2.5, 2.48, 2.47, 2.45, 2.44, 2.42, 2.41, 2.44, 2.47, 2.51, 2.55, 3.11, 3.09, 3.07, 3.06, 3.04, 3.02, 3.01, 2.99, 2.97, 2.96, 2.94, 2.92, 2.91, 2.89, 2.88, 2.86, 2.84, 2.83, 2.81, 2.8, 2.78, 2.77, 2.75, 2.74, 2.72, 1.62, 1.61, 1.6, 1.59, 1.58, 1.57, 1.56, 1.56, 1.55, 1.54, 1.53, 1.52, 1.51, 1.51, 1.58, 1.65, 2.48, 2.47, 2.46, 2.44, 2.43, 2.41, 2.4, 2.39, 2.37, 2.36, 2.35, 2.33, 2.32, 2.31, 2.29, 2.28, 2.27, 2.25, 2.24, 2.23, 2.21, 2.2, 2.19, 2.17, 2.16, 2.15, 2.13, 2.12, 2.1, 2.09, 2.08, 2.06, 2.05, 2.04, 2.02, 2.01, 2.0, 1.98, 1.97, 1.95]
36 [1.54, 1.56, 1.57, 1.59, 1.61, 1.62, 1.64, 1.65, 1.67, 1.69, 1.7, 1.72, 1.73, 1.75, 1.77, 1.78, 1.8, 1.82, 1.83, 1.85, 1.87, 1.88, 1.9, 1.92, 1.93, 1.95, 1.97, 1.99, 2.0, 2.02, 2.04, 2.06, 2.08, 2.09, 2.11, 2.13, 2.15, 2.17, 2.19, 2.21, 2.23, 2.25, 2.27, 2.29, 2.31, 2.33, 2.35, 2.37, 2.39, 2.41, 2.43, 2.45, 2.48, 2.5, 2.52, 2.54, 2.57, 2.59, 2.61, 2.64, 2.66, 2.69, 2.71, 2.74, 2.76, 2.79, 2.82, 2.84, 2.87, 2.9, 2.93, 2.96, 2.98, 3.01, 3.04, 3.08, 3.11, 3.14, 3.17, 3.2, 3.24, 3.27, 3.31, 3.34, 3.38, 3.42, 3.45, 3.47, 3.44, 3.42, 3.4, 3.38, 3.36, 2.51, 2.49, 2.48, 2.46, 2.45, 2.43, 2.42, 2.4, 2.41, 2.44, 2.48, 2.51, 2.55, 3.08, 3.06, 3.04, 3.02, 3.0, 2.99, 2.97, 2.95, 2.93, 2.92, 2.9, 2.88, 2.87, 2.85, 2.83, 2.82, 2.8, 2.78, 2.77, 2.75, 2.74, 2.72, 2.7, 2.69, 2.67, 1.58, 1.57, 1.57, 1.56, 1.55, 1.54, 1.53, 1.52, 1.51, 1.5, 1.49, 1.49, 1.48, 1.49, 1.56, 2.44, 2.42, 2.41, 2.39, 2.38, 2.36, 2.35, 2.33, 2.32, 2.31, 2.29, 2.28, 2.26, 2.25, 2.24, 2.22, 2.21, 2.19, 2.18, 2.16, 2.15, 2.14, 2.12, 2.11, 2.09, 2.08, 2.07, 2.05, 2.04, 2.02, 2.01, 1.99, 1.98, 1.97, 1.95, 1.94]
37 [1.53, 1.55, 1.56, 1.58, 1.59, 1.61, 1.62, 1.64, 1.65, 1.67, 1.68, 1.7, 1.71, 1.73, 1.75, 1.76, 1.78, 1.79, 1.81, 1.82, 1.84, 1.86, 1.87, 1.89, 1.91, 1.92, 1.94, 1.95, 1.97, 1.99, 2.01, 2.02, 2.04, 2.06, 2.07, 2.09, 2.11, 2.13, 2.15, 2.16, 2.18, 2.2, 2.22, 2.24, 2.26, 2.28, 2.29, 2.31, 2.33, 2.35, 2.37, 2.39, 2.41, 2.43, 2.46, 2.48, 2.5, 2.52, 2.54, 2.56, 2.59, 2.61, 2.63, 2.66, 2.68, 2.7, 2.73, 2.75, 2.78, 2.8, 2.83, 2.85, 2.88, 2.91, 2.94, 2.96, 2.99, 3.02, 3.05, 3.08, 3.11, 3.14, 3.17, 3.2, 3.24, 3.27, 3.3, 3.34, 3.37, 3.41, 3.45, 3.46, 3.43, 3.41, 3.39, 3.36, 3.34, 2.5, 2.48, 2.46, 2.45, 2.43, 2.41, 2.4, 2.38, 2.39, 2.42, 2.45, 2.49, 2.52, 3.05, 3.03, 3.01, 2.99, 2.98, 2.96, 2.94, 2.92, 2.9, 2.88, 2.87, 2.85, 2.83, 2.81, 2.8, 2.78, 2.76, 2.75, 2.73, 2.71, 2.7, 2.68, 2.66, 2.65, 2.63, 1.56, 1.55, 1.54, 1.53, 1.52, 1.51, 1.5, 1.49, 1.48, 1.47, 1.46, 1.45, 1.44, 1.44, 1.5, 1.57, 2.37, 2.35, 2.34, 2.32, 2.31, 2.29, 2.28, 2.26, 2.25, 2.23, 2.22, 2.2, 2.19, 2.17, 2.16, 2.15, 2.13, 2.12, 2.1, 2.09, 2.07, 2.06, 2.04, 2.03, 2.01, 2.0, 1.98, 1.97, 1.95, 0.0, 0.0]
38 [1.52, 1.54, 1.55, 1.57, 1.58, 1.59, 1.61, 1.62, 1.64, 1.65, 1.67, 1.68, 1.7, 1.71, 1.73, 1.74, 1.76, 1.77, 1.79, 1.8, 1.82, 1.83, 1.85, 1.86, 1.88, 1.89, 1.91, 1.93, 1.94, 1.96, 1.97, 1.99, 2.01, 2.02, 2.04, 2.05, 2.07, 2.09, 2.11, 2.12, 2.14, 2.16, 2.17, 2.19, 2.21, 2.23, 2.25, 2.26, 2.28, 2.3, 2.32, 2.34, 2.36, 2.38, 2.4, 2.42, 2.43, 2.46, 2.48, 2.5, 2.52, 2.54, 2.56, 2.58, 2.6, 2.62, 2.65, 2.67, 2.69, 2.72, 2.74, 2.76, 2.79, 2.81, 2.84, 2.86, 2.89, 2.91, 2.94, 2.97, 3.0, 3.02, 3.05, 3.08, 3.11, 3.14, 3.17, 3.2, 3.23, 3.27, 3.3, 3.33, 3.37, 3.4, 3.44, 3.44, 3.42, 3.4, 3.37, 3.35, 3.32, 2.48, 2.46, 2.44, 2.43, 2.41, 2.39, 2.38, 2.36, 2.37, 2.4, 2.43, 2.46, 2.49, 3.02, 3.0, 2.98, 2.96, 2.94, 2.92, 2.9, 2.89, 2.87, 2.85, 2.83, 2.81, 2.79, 2.78, 2.76, 2.74, 2.72, 2.71, 2.69, 2.67, 2.65, 2.64, 2.62, 2.6, 2.59, 1.53, 1.52, 1.51, 1.5, 1.49, 1.48, 1.47, 1.46, 1.45, 1.44, 1.43, 1.42, 1.41, 1.4, 1.44, 1.51, 2.31, 2.3, 2.28, 2.27, 2.25, 2.23, 2.22, 2.2, 2.19, 2.17, 2.16, 2.14, 2.13, 2.11, 2.1, 2.08, 2.07, 2.05, 2.03, 2.02, 2.0, 1.99, 1.97, 1.96, 1.94, 1.93, 1.91]
39 [1.51, 1.53, 1.54, 1.55, 1.57, 1.58, 1.6, 1.61, 1.62, 1.64, 1.65, 1.67, 1.68, 1.69, 1.71, 1.72, 1.74, 1.75, 1.77, 1.78, 1.79, 1.81, 1.82, 1.84, 1.85, 1.87, 1.88, 1.9, 1.91, 1.93, 1.94, 1.96, 1.97, 1.99, 2.0, 2.02, 2.03, 2.05, 2.07, 2.08, 2.1, 2.11, 2.13, 2.15, 2.16, 2.18, 2.2, 2.21, 2.23, 2.25, 2.27, 2.28, 2.3, 2.32, 2.34, 2.35, 2.37, 2.39, 2.41, 2.43, 2.45, 2.47, 2.49, 2.51, 2.53, 2.55, 2.57, 2.59, 2.61, 2.63, 2.65, 2.67, 2.7, 2.72, 2.74, 2.77, 2.79, 2.81, 2.84, 2.86, 2.89, 2.91, 2.94, 2.96, 2.99, 3.02, 3.04, 3.07, 3.1, 3.13, 3.16, 3.19, 3.22, 3.25, 3.28, 3.31, 3.35, 3.38, 3.42, 3.43, 3.4, 3.38, 3.35, 3.33, 3.3, 2.46, 2.44, 2.42, 2.41, 2.39, 2.37, 2.36, 2.34, 2.33, 2.36, 2.39, 2.42, 2.46, 2.99, 2.97, 2.95, 2.93, 2.91, 2.89, 2.87, 2.85, 2.83, 2.81, 2.79, 2.77, 2.75, 2.73, 2.72, 2.7, 2.68, 2.66, 2.64, 2.63, 2.61, 2.59, 2.57, 2.55, 2.54, 2.52, 1.48, 1.47, 1.46, 1.45, 1.44, 1.43, 1.42, 1.41, 1.4, 1.39, 1.38, 1.37, 1.36, 1.35, 1.42, 1.49, 2.24, 2.22, 2.2, 2.19, 2.17, 2.16, 2.14, 2.12, 2.11, 2.09, 2.08, 2.06, 2.05, 2.03, 2.01, 2.0, 1.98, 1.97, 1.95, 1.93, 1.92, 1.9]
40 [1.5, 1.51, 1.52, 1.54, 1.55, 1.56, 1.58, 1.59, 1.6, 1.62, 1.63, 1.64, 1.65, 1.67, 1.68, 1.69, 1.71, 1.72, 1.73, 1.75, 1.76, 1.77, 1.79, 1.8, 1.81, 1.83, 1.84, 1.86, 1.87, 1.88, 1.9, 1.91, 1.92, 1.94, 1.95, 1.97, 1.98, 2.0, 2.01, 2.02, 2.04, 2.05, 2.07, 2.08, 2.1, 2.11, 2.13, 2.14, 2.16, 2.17, 2.19, 2.21, 2.22, 2.24, 2.25, 2.27, 2.29, 2.3, 2.32, 2.34, 2.35, 2.37, 2.39, 2.4, 2.42, 2.44, 2.46, 2.48, 2.5, 2.51, 2.53, 2.55, 2.57, 2.59, 2.61, 2.63, 2.65, 2.67, 2.69, 2.71, 2.74, 2.76, 2.78, 2.8, 2.82, 2.85, 2.87, 2.89, 2.92, 2.94, 2.97, 2.99, 3.02, 3.05, 3.07, 3.1, 3.13, 3.16, 3.18, 3.21, 3.24, 3.27, 3.31, 3.34, 3.37, 3.39, 3.36, 3.33, 3.31, 3.28, 3.26, 3.23, 2.4, 2.38, 2.36, 2.35, 2.33, 2.31, 2.29, 2.28, 2.3, 2.33, 2.35, 2.39, 2.93, 2.91, 2.89, 2.86, 2.84, 2.82, 2.8, 2.78, 2.76, 2.74, 2.72, 2.7, 2.68, 2.66, 2.64, 2.62, 2.6, 2.58, 2.57, 2.55, 2.53, 2.51, 2.49, 2.47, 2.45, 2.44, 2.42, 1.42, 1.41, 1.39, 1.38, 1.37, 1.36, 1.35, 1.34, 1.33, 1.32, 1.31, 1.3, 1.29, 1.28, 1.33, 1.41, 2.12, 2.11, 2.09, 2.07, 2.06, 2.04, 2.02, 2.01, 1.99, 1.97, 1.96, 1.94, 1.92, 1.91, 1.89]
41 [1.49, 1.5, 1.52, 1.53, 1.54, 1.56, 1.57, 1.58, 1.59, 1.61, 1.62, 1.63, 1.64, 1.66, 1.67, 1.68, 1.7, 1.71, 1.72, 1.73, 1.75, 1.76, 1.77, 1.79, 1.8, 1.81, 1.83, 1.84, 1.85, 1.87, 1.88, 1.89, 1.91, 1.92, 1.93, 1.95, 1.96, 1.97, 1.99, 2.0, 2.02, 2.03, 2.04, 2.06, 2.07, 2.09, 2.1, 2.12, 2.13, 2.14, 2.16, 2.17, 2.19, 2.21, 2.22, 2.24, 2.25, 2.27, 2.28, 2.3, 2.32, 2.33, 2.35, 2.36, 2.38, 2.4, 2.42, 2.43, 2.45, 2.47, 2.49, 2.5, 2.52, 2.54, 2.56, 2.58, 2.6, 2.62, 2.64, 2.66, 2.68, 2.7, 2.72, 2.74, 2.76, 2.78, 2.8, 2.83, 2.85, 2.87, 2.9, 2.92, 2.94, 2.97, 2.99, 3.02, 3.04, 3.07, 3.1, 3.13, 3.15, 3.18, 3.21, 3.24, 3.27, 3.3, 3.33, 3.36, 3.35, 3.33, 3.3, 3.27, 3.25, 3.22, 2.39, 2.37, 2.35, 2.33, 2.32, 2.3, 2.28, 2.26, 2.25, 2.28, 2.31, 2.34, 2.37, 2.89, 2.87, 2.84, 2.82, 2.8, 2.78, 2.76, 2.74, 2.72, 2.7, 2.68, 2.66, 2.64, 2.62, 2.6, 2.58, 2.56, 2.54, 2.52, 2.5, 2.48, 2.46, 2.45, 2.43, 2.41, 2.39, 2.37, 1.39, 1.37, 1.36, 1.35, 1.34, 1.33, 1.32, 1.31, 1.3, 1.29, 1.28, 1.27, 1.26, 1.25, 1.3, 1.37, 2.07, 2.05, 2.04, 2.02, 2.0, 1.99, 1.97, 1.95, 1.93, 1.92, 0.0, 0.0]
42 [1.48, 1.5, 1.51, 1.52, 1.53, 1.55, 1.56, 1.57, 1.58, 1.6, 1.61, 1.62, 1.63, 1.65, 1.66, 1.67, 1.68, 1.7, 1.71, 1.72, 1.73, 1.75, 1.76, 1.77, 1.78, 1.8, 1.81, 1.82, 1.84, 1.85, 1.86, 1.87, 1.89, 1.9, 1.91, 1.93, 1.94, 1.95, 1.97, 1.98, 1.99, 2.01, 2.02, 2.04, 2.05, 2.06, 2.08, 2.09, 2.11, 2.12, 2.13, 2.15, 2.16, 2.18, 2.19, 2.21, 2.22, 2.24, 2.25, 2.27, 2.28, 2.3, 2.32, 2.33, 2.35, 2.36, 2.38, 2.4, 2.41, 2.43, 2.45, 2.46, 2.48, 2.5, 2.52, 2.54, 2.55, 2.57, 2.59, 2.61, 2.63, 2.65, 2.67, 2.69, 2.71, 2.73, 2.75, 2.77, 2.79, 2.82, 2.84, 2.86, 2.88, 2.91, 2.93, 2.95, 2.98, 3.0, 3.03, 3.06, 3.08, 3.11, 3.14, 3.16, 3.19, 3.22, 3.25, 3.28, 3.31, 3.34, 3.33, 3.3, 3.27, 3.25, 3.22, 3.2, 2.37, 2.35, 2.33, 2.31, 2.29, 2.27, 2.26, 2.24, 2.23, 2.25, 2.28, 2.31, 2.34, 2.86, 2.84, 2.82, 2.79, 2.77, 2.75, 2.73, 2.71, 2.69, 2.67, 2.65, 2.63, 2.61, 2.59, 2.57, 2.55, 2.53, 2.51, 2.49, 2.47, 2.45, 2.43, 2.41, 2.39, 2.37, 2.36, 2.34, 1.36, 1.35, 1.34, 1.33, 1.32, 1.31, 1.3, 1.29, 1.28, 1.27, 1.26, 1.25, 1.24, 1.22, 1.23, 1.3, 2.03, 2.02, 2.0, 1.98, 1.96, 1.95, 1.93, 1.91, 0.04, 0.0]
43 [1.48, 1.49, 1.5, 1.52, 1.53, 1.54, 1.55, 1.56, 1.58, 1.59, 1.6, 1.61, 1.63, 1.64, 1.65, 1.66, 1.67, 1.69, 1.7, 1.71, 1.72, 1.74, 1.75, 1.76, 1.77, 1.79, 1.8, 1.81, 1.82, 1.84, 1.85, 1.86, 1.87, 1.89, 1.9, 1.91, 1.93, 1.94, 1.95, 1.97, 1.98, 1.99, 2.0, 2.02, 2.03, 2.05, 2.06, 2.07, 2.09, 2.1, 2.11, 2.13, 2.14, 2.16, 2.17, 2.19, 2.2, 2.21, 2.23, 2.24, 2.26, 2.28, 2.29, 2.31, 2.32, 2.34, 2.35, 2.37, 2.39, 2.4, 2.42, 2.44, 2.45, 2.47, 2.49, 2.5, 2.52, 2.54, 2.56, 2.58, 2.59, 2.61, 2.63, 2.65, 2.67, 2.69, 2.71, 2.73, 2.75, 2.77, 2.79, 2.82, 2.84, 2.86, 2.88, 2.91, 2.93, 2.95, 2.98, 3.0, 3.03, 3.05, 3.08, 3.11, 3.13, 3.16, 3.19, 3.22, 3.25, 3.28, 3.31, 3.32, 3.3, 3.27, 3.24, 3.21, 3.19, 3.16, 2.34, 2.32, 2.3, 2.28, 2.27, 2.25, 2.23, 2.21, 2.22, 2.24, 2.27, 2.3, 2.33, 2.83, 2.8, 2.78, 2.76, 2.74, 2.72, 2.7, 2.67, 2.65, 2.63, 2.61, 2.59, 2.57, 2.55, 2.53, 2.51, 2.49, 2.47, 2.45, 2.43, 2.41, 2.4, 2.38, 2.36, 2.34, 2.32, 2.3, 1.34, 1.33, 1.32, 1.31, 1.29, 1.28, 1.27, 1.26, 1.25, 1.24, 1.23, 1.22, 1.21, 1.2, 1.2, 1.27, 2.0, 1.98, 1.96, 1.94, 1.93, 1.91, 1.89, 1.87]
44 [1.48, 1.49, 1.5, 1.51, 1.52, 1.53, 1.55, 1.56, 1.57, 1.58, 1.59, 1.61, 1.62, 1.63, 1.64, 1.65, 1.67, 1.68, 1.69, 1.7, 1.71, 1.72, 1.74, 1.75, 1.76, 1.77, 1.78, 1.8, 1.81, 1.82, 1.83, 1.85, 1.86, 1.87, 1.88, 1.89, 1.91, 1.92, 1.93, 1.94, 1.96, 1.97, 1.98, 2.0, 2.01, 2.02, 2.03, 2.05, 2.06, 2.07, 2.09, 2.1, 2.11, 2.13, 2.14, 2.16, 2.17, 2.18, 2.2, 2.21, 2.23, 2.24, 2.25, 2.27, 2.28, 2.3, 2.31, 2.33, 2.34, 2.36, 2.38, 2.39, 2.41, 2.42, 2.44, 2.46, 2.47, 2.49, 2.51, 2.52, 2.54, 2.56, 2.58, 2.6, 2.61, 2.63, 2.65, 2.67, 2.69, 2.71, 2.73, 2.75, 2.77, 2.79, 2.81, 2.83, 2.86, 2.88, 2.9, 2.92, 2.95, 2.97, 2.99, 3.02, 3.04, 3.07, 3.1, 3.12, 3.15, 3.18, 3.2, 3.23, 3.26, 3.29, 3.29, 3.26, 3.23, 3.21, 3.18, 3.15, 3.13, 2.31, 2.29, 2.27, 2.25, 2.24, 2.22, 2.2, 2.18, 2.19, 2.22, 2.25, 2.27, 2.3, 2.79, 2.76, 2.74, 2.72, 2.7, 2.68, 2.65, 2.63, 2.61, 2.59, 2.57, 2.55, 2.53, 2.51, 2.49, 2.47, 2.45, 2.43, 2.41, 2.39, 2.37, 2.35, 2.33, 2.31, 2.29, 2.27, 2.25, 1.31, 1.3, 1.29, 1.27, 1.26, 1.25, 1.24, 1.23, 1.22, 1.21, 1.2, 1.19, 1.18, 1.17, 1.16, 1.23, 1.94, 1.93, 1.91, 1.89, 1.87]
45 [1.47, 1.48, 1.5, 1.51, 1.52, 1.53, 1.54, 1.56, 1.57, 1.58, 1.59, 1.6, 1.62, 1.63, 1.64, 1.65, 1.66, 1.67, 1.69, 1.7, 1.71, 1.72, 1.73, 1.75, 1.76, 1.77, 1.78, 1.79, 1.81, 1.82, 1.83, 1.84, 1.85, 1.87, 1.88, 1.89, 1.9, 1.92, 1.93, 1.94, 1.95, 1.97, 1.98, 1.99, 2.01, 2.02, 2.03, 2.05, 2.06, 2.07, 2.08, 2.1, 2.11, 2.13, 2.14, 2.15, 2.17, 2.18, 2.19, 2.21, 2.22, 2.24, 2.25, 2.27, 2.28, 2.3, 2.31, 2.33, 2.34, 2.36, 2.37, 2.39, 2.41, 2.42, 2.44, 2.45, 2.47, 2.49, 2.51, 2.52, 2.54, 2.56, 2.58, 2.59, 2.61, 2.63, 2.65, 2.67, 2.69, 2.71, 2.73, 2.75, 2.77, 2.79, 2.81, 2.83, 2.85, 2.88, 2.9, 2.92, 2.95, 2.97, 2.99, 3.02, 3.04, 3.07, 3.1, 3.12, 3.15, 3.18, 3.21, 3.23, 3.26, 3.29, 3.28, 3.25, 3.23, 3.2, 3.17, 3.15, 3.12, 2.31, 2.29, 2.27, 2.25, 2.23, 2.21, 2.19, 2.18, 2.19, 2.22, 2.24, 2.27, 2.3, 2.78, 2.76, 2.74, 2.71, 2.69, 2.67, 2.65, 2.63, 2.61, 2.59, 2.56, 2.54, 2.52, 2.5, 2.48, 2.46, 2.44, 2.42, 2.4, 2.38, 2.36, 2.35, 2.33, 2.31, 2.29, 2.27, 2.25, 1.3, 1.29, 1.28, 1.27, 1.26, 1.25, 1.24, 1.23, 1.22, 1.21, 1.2, 1.19, 1.18, 1.17, 1.15, 1.22, 1.94, 1.92, 1.91, 1.89, 1.87]
46 [1.47, 1.48, 1.49, 1.51, 1.52, 1.53, 1.54, 1.55, 1.57, 1.58, 1.59, 1.6, 1.61, 1.63, 1.64, 1.65, 1.66, 1.67, 1.69, 1.7, 1.71, 1.72, 1.73, 1.75, 1.76, 1.77, 1.78, 1.8, 1.81, 1.82, 1.83, 1.85, 1.86, 1.87, 1.88, 1.9, 1.91, 1.92, 1.93, 1.95, 1.96, 1.97, 1.99, 2.0, 2.01, 2.02, 2.04, 2.05, 2.06, 2.08, 2.09, 2.11, 2.12, 2.13, 2.15, 2.16, 2.18, 2.19, 2.2, 2.22, 2.23, 2.25, 2.26, 2.28, 2.29, 2.31, 2.32, 2.34, 2.36, 2.37, 2.39, 2.4, 2.42, 2.44, 2.45, 2.47, 2.49, 2.51, 2.52, 2.54, 2.56, 2.58, 2.6, 2.61, 2.63, 2.65, 2.67, 2.69, 2.71, 2.73, 2.75, 2.77, 2.79, 2.82, 2.84, 2.86, 2.88, 2.91, 2.93, 2.95, 2.98, 3.0, 3.03, 3.05, 3.08, 3.1, 3.13, 3.16, 3.19, 3.22, 3.25, 3.28, 3.31, 3.28, 3.25, 3.22, 3.2, 3.17, 3.14, 2.32, 2.3, 2.29, 2.27, 2.25, 2.23, 2.21, 2.19, 2.18, 2.2, 2.23, 2.26, 2.29, 2.81, 2.78, 2.76, 2.74, 2.72, 2.7, 2.68, 2.65, 2.63, 2.61, 2.59, 2.57, 2.55, 2.53, 2.51, 2.49, 2.47, 2.45, 2.43, 2.41, 2.39, 2.37, 2.35, 2.34, 2.32, 2.3, 2.28, 2.26, 1.31, 1.3, 1.29, 1.28, 1.27, 1.26, 1.25, 1.23, 1.22, 1.21, 1.2, 1.19, 1.18, 1.17, 1.17, 1.24, 1.95, 1.94, 1.92, 1.9, 1.88, 1.87]
47 [1.47, 1.48, 1.49, 1.5, 1.52, 1.53, 1.54, 1.55, 1.57, 1.58, 1.59, 1.6, 1.61, 1.63, 1.64, 1.65, 1.66, 1.68, 1.69, 1.7, 1.71, 1.72, 1.74, 1.75, 1.76, 1.77, 1.79, 1.8, 1.81, 1.82, 1.84, 1.85, 1.86, 1.88, 1.89, 1.9, 1.91, 1.93, 1.94, 1.95, 1.97, 1.98, 1.99, 2.01, 2.02, 2.03, 2.05, 2.06, 2.08, 2.09, 2.1, 2.12, 2.13, 2.15, 2.16, 2.17, 2.19, 2.2, 2.22, 2.23, 2.25, 2.26, 2.28, 2.3, 2.31, 2.33, 2.34, 2.36, 2.38, 2.39, 2.41, 2.43, 2.44, 2.46, 2.48, 2.5, 2.51, 2.53, 2.55, 2.57, 2.59, 2.61, 2.62, 2.64, 2.66, 2.68, 2.7, 2.72, 2.75, 2.77, 2.79, 2.81, 2.83, 2.86, 2.88, 2.9, 2.93, 2.95, 2.97, 3.0, 3.02, 3.05, 3.08, 3.1, 3.13, 3.16, 3.19, 3.22, 3.25, 3.28, 3.31, 3.29, 3.26, 3.24, 3.21, 3.18, 3.16, 2.33, 2.31, 2.3, 2.28, 2.26, 2.24, 2.22, 2.21, 2.19, 2.21, 2.24, 2.26, 2.29, 2.82, 2.8, 2.78, 2.76, 2.74, 2.72, 2.69, 2.67, 2.65, 2.63, 2.61, 2.59, 2.57, 2.55, 2.53, 2.51, 2.49, 2.47, 2.45, 2.43, 2.42, 2.4, 2.38, 2.36, 2.34, 2.32, 2.3, 2.29, 1.32, 1.31, 1.3, 1.29, 1.28, 1.27, 1.26, 1.25, 1.24, 1.23, 1.22, 1.21, 1.2, 1.19, 1.18, 1.24, 1.98, 1.97, 1.95, 1.93, 1.91, 1.9, 1.88, 1.86]
48 [1.47, 1.48, 1.49, 1.5, 1.52, 1.53, 1.54, 1.55, 1.57, 1.58, 1.59, 1.6, 1.61, 1.63, 1.64, 1.65, 1.66, 1.68, 1.69, 1.7, 1.71, 1.72, 1.74, 1.75, 1.76, 1.77, 1.79, 1.8, 1.81, 1.83, 1.84, 1.85, 1.86, 1.88, 1.89, 1.9, 1.91, 1.93, 1.94, 1.95, 1.97, 1.98, 1.99, 2.01, 2.02, 2.03, 2.05, 2.06, 2.08, 2.09, 2.1, 2.12, 2.13, 2.15, 2.16, 2.18, 2.19, 2.21, 2.22, 2.24, 2.25, 2.27, 2.28, 2.3, 2.31, 2.33, 2.34, 2.36, 2.38, 2.39, 2.41, 2.43, 2.44, 2.46, 2.48, 2.5, 2.52, 2.53, 2.55, 2.57, 2.59, 2.61, 2.63, 2.65, 2.67, 2.69, 2.71, 2.73, 2.75, 2.77, 2.79, 2.81, 2.84, 2.86, 2.88, 2.9, 2.93, 2.95, 2.98, 3.0, 3.03, 3.05, 3.08, 3.11, 3.14, 3.16, 3.19, 3.22, 3.25, 3.28, 3.31, 3.29, 3.26, 3.23, 3.21, 3.18, 3.15, 2.33, 2.31, 2.29, 2.28, 2.26, 2.24, 2.22, 2.2, 2.19, 2.21, 2.24, 2.27, 2.3, 2.82, 2.8, 2.78, 2.76, 2.74, 2.71, 2.69, 2.67, 2.65, 2.63, 2.61, 2.59, 2.57, 2.55, 2.53, 2.51, 2.49, 2.47, 2.45, 2.43, 2.41, 2.4, 2.38, 2.36, 2.34, 2.32, 2.3, 2.28, 1.32, 1.31, 1.3, 1.29, 1.28, 1.27, 1.26, 1.25, 1.24, 1.23, 1.22, 1.21, 1.2, 1.19, 1.18, 1.25, 1.98, 1.97, 1.95, 1.93, 1.91, 1.9, 0.13, 0.0]
49 [1.47, 1.48, 1.49, 1.5, 1.52, 1.53, 1.54, 1.55, 1.57, 1.58, 1.59, 1.6, 1.61, 1.63, 1.64, 1.65, 1.66, 1.68, 1.69, 1.7, 1.71, 1.72, 1.74, 1.75, 1.76, 1.77, 1.79, 1.8, 1.81, 1.83, 1.84, 1.85, 1.86, 1.88, 1.89, 1.9, 1.91, 1.93, 1.94, 1.95, 1.97, 1.98, 1.99, 2.01, 2.02, 2.03, 2.05, 2.06, 2.08, 2.09, 2.1, 2.12, 2.13, 2.15, 2.16, 2.18, 2.19, 2.21, 2.22, 2.24, 2.25, 2.27, 2.28, 2.3, 2.31, 2.33, 2.34, 2.36, 2.38, 2.39, 2.41, 2.43, 2.44, 2.46, 2.48, 2.5, 2.52, 2.53, 2.55, 2.57, 2.59, 2.61, 2.63, 2.65, 2.67, 2.69, 2.71, 2.73, 2.75, 2.77, 2.79, 2.81, 2.84, 2.86, 2.88, 2.9, 2.93, 2.95, 2.98, 3.0, 3.03, 3.05, 3.08, 3.11, 3.14, 3.16, 3.19, 3.22, 3.25, 3.28, 3.31, 3.29, 3.26, 3.23, 3.21, 3.18, 3.15, 2.33, 2.31, 2.29, 2.28, 2.26, 2.24, 2.22, 2.2, 2.19, 2.21, 2.24, 2.27, 2.3, 2.82, 2.8, 2.78, 2.76, 2.74, 2.71, 2.69, 2.67, 2.65, 2.63, 2.61, 2.59, 2.57, 2.55, 2.53, 2.51, 2.49, 2.47, 2.45, 2.43, 2.41, 2.4, 2.38, 2.36, 2.34, 2.32, 2.3, 2.28, 1.32, 1.31, 1.3, 1.29, 1.28, 1.27, 1.26, 1.25, 1.24, 1.23, 1.22, 1.21, 1.2, 1.19, 1.18, 1.25, 1.98, 1.97, 1.95, 1.93, 1.91, 1.9, 0.13, 0.0]
