0 [1.0, 1.0, 1.0, 1.0, 1.0, 1.0, 1.0, 1.0]
1 [1.0, 1.0, 1.0, 1.0, 1.0, 1.0, 1.0, 1.0]
2 [1.0, 1.0, 1.0, 1.0, 1.0, 1.0, 1.0, 1.0]
3 [1.0, 1.0, 1.0, 1.0, 1.0, 1.0, 1.0, 1.0]
4 [1.0, 1.0, 1.0, 1.0, 1.0, 1.0, 1.0, 1.0]
5 [1.0, 1.0, 1.0, 1.0, 1.0, 1.0, 1.0, 1.0]
6 [1.0, 1.0, 1.0, 1.0, 1.0, 1.0, 1.0, 1.0]
7 [1.0, 1.0, 1.0, 1.0, 1.0, 1.0, 1.0, 1.0]
8 [1.0, 1.0, 1.0, 1.0, 1.0, 1.0, 1.0, 1.0]
9 [1.0, 1.0, 1.0, 1.0, 1.0, 1.0, 1.0, 1.0]
10 [1.0, 1.0, 1.0, 1.0, 1.0, 1.0, 1.0, 1.0]
11 [1.0, 1.0, 1.0, 1.0, 1.0, 1.0, 1.0, 1.0]
12 [1.0, 1.0, 1.0, 1.0, 1.0, 1.0, 1.0, 1.0]
13 [1.0, 1.0, 1.0, 1.0, 1.0, 1.0, 1.0, 1.0]
14 [1.0, 1.0, 1.0, 1.0, 1.0, 1.0, 1.0, 1.0]
15 [1.0, 1.0, 1.0, 1.0, 1.0, 1.0, 1.0, 1.0]
16 [1.0, 1.0, 1.0, 1.0, 1.0, 1.0001972, 1.079555, 1.5878367]
17 [1.0, 1.0, 1.0, 1.0, 1.0, 1.0002184, 1.088107, 1.6510278]
18 [1.4591498, 1.0621392, 1.000154, 1.0, 1.0, 1.0001547, 1.0624149, 1.4611866]
19 [1.6720338, 1.0909499, 1.0002254, 1.0, 1.0, 1.0001171, 1.0472134, 1.3488628]
20 [1.5271645, 1.0713439, 1.0001768, 1.0, 1.0, 1.0000883, 1.03565, 1.2634199]
21 [1.3996123, 1.0540817, 1.0001341, 1.0, 1.0, 1.0000668, 1.0269438, 1.1990895]
22 [1.2665998, 1.0360804, 1.0000894, 1.0, 1.0, 0.99994826, 0.97912854, 0.8457798]
23 [1.201493, 1.0272691, 1.0000676, 1.0, 1.0, 0.9997681, 0.9064465, 0.30872804]
24 [1.1522852, 1.0206096, 1.0000511, 1.0, 1.0, 0.999813, 0.924564, 0.44259942]
25 [0.3463384, 0.9115365, 0.9997807, 1.0, 1.000167, 1.067218, 1.4404817, 0.6443818]
26 [0.3698073, 0.91471267, 0.9997886, 1.0, 1.0002239, 1.0902064, 1.6240519, 0.7705059]
27 [0.51543033, 0.93442065, 0.99983746, 1.0, 1.0001751, 1.0705727, 1.4893527, 0.82894045]
28 [0.65043926, 0.9526921, 0.99988276, 1.0, 1.0001265, 1.0509812, 1.3535693, 0.8769177]
29 [0.7360528, 0.96427864, 0.9999114, 1.0, 1.0000955, 1.0384977, 1.2669953, 0.90707487]
30 [1.2479377, 1.0335547, 1.0000832, 1.0, 1.000068, 1.0274018, 1.1900417, 0.93385893]
31 [1.532239, 1.0720307, 1.0001786, 1.0, 1.0000514, 1.0206891, 1.143487, 0.9500616]
32 [1.4230351, 1.0572516, 1.000142, 1.0, 0.9997831, 0.9124663, 0.34611458, 0.85908717]
33 [1.3206667, 1.0433975, 1.0001075, 1.0, 0.99978775, 0.9143462, 0.3617434, 0.87404346]
34 [1.2424308, 1.0328095, 1.0000813, 1.0, 0.9998366, 0.93408626, 0.5089112, 0.9036261]
35 [1.1832298, 1.0247974, 1.0000615, 1.0, 0.9998764, 0.95011175, 0.6283137, 0.9270905]
36 [1.1732534, 1.0234473, 1.0000582, 1.0, 0.99990666, 0.96233445, 0.7216873, 0.96233445]
37 [0.7250012, 0.962783, 0.9999078, 1.0, 0.9999294, 0.97153276, 0.78965384, 0.97153276]
38 [0.29284316, 0.9042967, 0.9997628, 1.0, 0.9999467, 0.9785064, 0.8411826, 0.9785064]
39 [0.45051765, 0.92563564, 0.99981564, 1.0, 1.0, 1.0, 1.0, 1.0]
40 [0.5832964, 0.9436053, 0.9998602, 1.0, 0.9999696, 0.9877349, 0.9093727, 0.9877349]
41 [0.68495214, 0.9573629, 0.9998943, 1.0, 0.99997705, 0.9907303, 0.9315054, 0.9907303]
42 [0.7618852, 0.9677747, 0.9999201, 1.0, 0.99998266, 0.99299407, 0.9482329, 0.99299407]
43 [0.8202162, 0.9756689, 0.9999397, 1.0, 0.9999869, 0.9947103, 0.9609144, 0.9947103]
44 [0.8782761, 0.98352647, 0.9999592, 1.0, 0.9999911, 0.9964186, 0.9735368, 0.9964186]
45 [0.908095, 0.987562, 0.9999692, 1.0, 0.9999933, 0.9972959, 0.9800195, 0.9972959]
46 [1.0, 1.0, 1.0, 1.0, 1.0, 1.0, 1.0, 1.0]
47 [0.94750303, 0.9928953, 0.9999824, 1.0, 1.0, 1.0, 1.0, 1.0]
48 [0.9603633, 0.99463576, 0.9999867, 1.0, 1.0, 1.0, 1.0, 1.0]
49 [0.97004324, 0.9959458, 0.9999899, 1.0, 1.0, 1.0, 1.0, 1.0]
