0 [0.0, 0.0, 0.0, 0.0, 0.0, 0.0, 0.0, 0.0]
1 [0.0, 0.0, 0.0, 0.0, 0.0, 0.0, 0.0, 0.0]
2 [0.0, 0.0, 0.0, 0.0, 0.0, 0.0, 0.0, 0.0]
3 [0.0, 0.0, 0.0, 0.0, 0.0, 0.0, 0.0, 0.0]
4 [0.0, 0.0, 0.0, 0.0, 0.0, 0.0, 0.0, 0.0]
5 [0.0, 0.0, 0.0, 0.0, 0.0, 0.0, 0.0, 0.0]
6 [0.0, 0.0, 0.0, 0.0, 0.0, 0.0, 0.0, 0.0]
7 [0.0, 0.0, 0.0, 0.0, 0.0, 0.0, 0.0, 0.0]
8 [0.0, 0.0, 0.0, 0.0, 0.0, 0.0, 0.0, 0.0]
9 [0.875, 0.0, 0.11111111, 0.11111111, 0.9444444, 0.11111111, 0.0, 0.875]
10 [0.375, 0.375, 0.0, 0.0, 0.0, 0.0, 0.0, 0.875]
11 [0.0, 0.0, 0.0, 0.0, 0.0, 0.0, 0.0, 0.0]
12 [0.375, 0.375, 0.2, 0.93333334, 0.93333334, 0.2, 0.0, 0.93333334]
13 [0.0, 0.0, 0.0, 0.0, 0.0, 0.0, 0.0, 0.0]
14 [0.375, 0.375, 0.0, 0.1875, 0.9375, 0.1875, 0.0, 0.875]
15 [0.375, 0.375, 0.0, 0.0, 0.0, 0.0, 0.0, 0.875]
16 [0.0, 0.0, 0.0, 0.0, 0.0, 0.0, 0.0, 0.0]
17 [0.0, 0.0, 0.0, 0.95454544, 0.95454544, 0.95454544, 0.95454544, 0.18181819]
18 [0.375, 0.875, 0.0, 0.0, 0.0, 0.0, 0.0, 0.375]
19 [0.0, 0.0, 0.0, 0.11111111, 0.11111111, 0.9722222, 0.11111111, 0.0]
20 [0.0, 0.0, 0.0, 0.42857143, 0.9285714, 0.9285714, 0.42857143, 0.0]
21 [0.375, 0.875, 0.0, 0.0, 0.0, 0.0, 0.0, 0.375]
22 [0.0, 0.0, 0.0, 0.0, 0.0, 0.0, 0.0, 0.0]
23 [0.375, 0.875, 0.0, 0.15384616, 0.15384616, 0.96153843, 0.15384616, 0.375]
24 [0.875, 0.375, 0.0, 0.0, 0.0, 0.0, 0.0, 0.375]
25 [0.0, 0.0, 0.0, 0.1875, 0.1875, 0.9375, 0.9375, 0.0]
26 [0.0, 0.0, 0.0, 0.0, 0.0, 0.0, 0.0, 0.0]
27 [0.0, 0.0, 0.0, 0.0, 0.0, 0.0, 0.0, 0.0]
28 [0.75, 0.0, 0.0, 0.0, 0.0, 0.0, 0.0, 0.75]
29 [0.0, 0.0, 0.0, 0.09090909, 0.95454544, 0.95454544, 0.95454544, 0.09090909]
30 [0.875, 0.0, 0.11111111, 0.11111111, 0.9444444, 0.11111111, 0.0, 0.9444444]
31 [0.0, 0.0, 0.021978023, 0.021978023, 0.989011, 0.021978023, 0.0, 0.989011]
32 [0.875, 0.0, 0.0, 0.0, 0.0, 0.0, 0.0, 0.875]
33 [0.0, 0.0, 0.1, 0.95, 0.95, 0.1, 0.1, 0.1]
34 [0.875, 0.0, 0.0, 0.0, 0.0, 0.0, 0.0, 0.875]
35 [0.0, 0.0, 0.0, 0.0, 0.0, 0.0, 0.0, 0.0]
36 [0.875, 0.0, 0.010989011, 0.99450547, 0.010989011, 0.0, 0.010989011, 0.875]
37 [0.875, 0.5, 0.5, 0.5, 0.5, 0.5, 0.5, 0.875]
38 [0.0, 0.0, 0.0, 0.0, 0.0, 0.0, 0.0, 0.0]
39 [0.0, 0.0, 0.0, 0.0, 0.0, 0.0, 0.0, 0.0]
40 [0.0, 0.0, 0.0, 0.0, 0.0, 0.0, 0.0, 0.0]
41 [0.0, 0.0, 0.0, 0.0, 0.0, 0.0, 0.0, 0.0]
42 [0.0, 0.0, 0.0, 0.0, 0.0, 0.0, 0.0, 0.0]
43 [0.0, 0.0, 0.0, 0.0, 0.0, 0.0, 0.0, 0.0]
44 [0.0, 0.0, 0.0, 0.0, 0.0, 0.0, 0.0, 0.0]
45 [0.97727275, 0.97727275, 0.0, 0.0, 0.0, 0.0, 0.875, 0.0]
46 [0.0, 0.0, 0.0, 0.0, 0.0, 0.0, 0.0, 0.0]
47 [0.0, 0.0, 0.0, 0.0, 0.0, 0.0, 0.0, 0.0]
48 [0.0, 0.5, 0.0, 0.5, 0.5, 0.5, 0.875, 0.5]
49 [0.0, 0.0, 0.0, 0.0, 0.0, 0.0, 0.0, 0.0]
