0 [0.0, 0.0, 0.0, 0.0, 0.0, 0.0, 0.0, 0.0]
1 [0.0, 0.0, 0.0, 0.0, 0.0, 0.0, 0.0, 0.0]
2 [0.0, 0.0, 0.0, 0.0, 0.0, 0.0, 0.0, 0.0]
3 [0.0, 0.0, 0.0, 0.0, 0.0, 0.0, 0.0, 0.0]
4 [0.0, 0.0, 0.0, 0.0, 0.0, 0.0, 0.0, 0.0]
5 [0.31144506, 0.0, 0.0, 0.0, 0.0, 0.0, 0.0, 0.4122062]
6 [0.30862495, 0.3409463, 0.0, 0.0, 0.0, 0.0, 0.0, 0.41479158]
7 [0.3066837, 0.3349196, 0.0, 0.0, 0.0, 0.0, 0.0, 0.41614515]
8 [0.30402157, 0.32793278, 0.0, 0.0, 0.0, 0.0, 0.0, 0.41749856]
9 [0.30048755, 0.32032526, 0.0, 0.0, 0.0, 0.0, 0.0, 0.4185991]
10 [0.29551107, 0.31209233, 0.0, 0.0, 0.0, 0.0, 0.0, 0.41939884]
11 [0.29551107, 0.31209233, 0.0, 0.0, 0.0, 0.0, 0.0, 0.41939884]
12 [0.91169345, 0.2957879, 0.0, 0.0, 0.0, 0.0, 0.0, 0.42151427]
13 [0.9106139, 0.2918925, 0.0, 0.0, 0.0, 0.0, 0.0, 0.4248973]
14 [0.90922344, 0.2924547, 0.0, 0.0, 0.0, 0.0, 0.0, 0.42460293]
15 [0.90900815, 0.2946886, 0.0, 0.0, 0.0, 0.0, 0.0, 0.42310765]
16 [0.2900244, 0.30149218, 0.0, 0.0, 0.0, 0.0, 0.0, 0.4262698]
17 [0.28893483, 0.30346876, 0.0, 0.0, 0.0, 0.0, 0.0, 0.4298412]
18 [0.29092568, 0.0, 0.0, 0.0, 0.0, 0.0, 0.0, 0.43012118]
19 [0.2931526, 0.0, 0.0, 0.0, 0.0, 0.0, 0.0, 0.42931256]
20 [0.29763526, 0.0, 0.0, 0.0, 0.0, 0.0, 0.0, 0.4261187]
21 [0.3012407, 0.0, 0.0, 0.0, 0.0, 0.0, 0.0, 0.42097047]
22 [0.30501965, 0.0, 0.0, 0.0, 0.0, 0.0, 0.0, 0.4111066]
23 [0.3132814, 0.0, 0.0, 0.0, 0.0, 0.0, 0.0, 0.40393692]
24 [0.3132814, 0.0, 0.0, 0.0, 0.0, 0.0, 0.0, 0.40393692]
25 [0.0, 0.0, 0.0, 0.0, 0.0, 0.0, 0.39972305, 0.4154952]
26 [0.0, 0.0, 0.0, 0.0, 0.0, 0.0, 0.39972305, 0.4154952]
27 [0.0, 0.0, 0.0, 0.0, 0.0, 0.0, 0.40392607, 0.0]
28 [0.0, 0.0, 0.0, 0.0, 0.0, 0.0, 0.4060652, 0.0]
29 [0.0, 0.0, 0.0, 0.0, 0.0, 0.0, 0.4060652, 0.0]
30 [0.0, 0.0, 0.0, 0.0, 0.0, 0.4001063, 0.4059182, 0.0]
31 [0.0, 0.0, 0.0, 0.0, 0.0, 0.4001063, 0.4059182, 0.0]
32 [0.0, 0.0, 0.0, 0.0, 0.0, 0.4052669, 0.4031997, 0.0]
33 [0.0, 0.0, 0.0, 0.0, 0.0, 0.40724605, 0.40157753, 0.0]
34 [0.0, 0.0, 0.0, 0.0, 0.0, 0.40860912, 0.40306053, 0.0]
35 [0.0, 0.0, 0.0, 0.0, 0.0, 0.4095391, 0.4049106, 0.0]
36 [0.0, 0.0, 0.0, 0.0, 0.0, 0.4102614, 0.40642542, 0.0]
37 [0.0, 0.0, 0.0, 0.0, 0.0, 0.4092775, 0.40616915, 0.0]
38 [0.0, 0.0, 0.0, 0.0, 0.0, 0.40754154, 0.40492597, 0.0]
39 [0.0, 0.0, 0.0, 0.0, 0.0, 0.40570387, 0.40295622, 0.0]
40 [0.0, 0.0, 0.0, 0.0, 0.0, 0.40384012, 0.4003784, 0.0]
41 [0.0, 0.0, 0.0, 0.0, 0.0, 0.40083766, 0.39660653, 0.0]
42 [0.0, 0.0, 0.0, 0.0, 0.0, 0.3961833, 0.39146256, 0.0]
43 [0.0, 0.0, 0.0, 0.0, 0.0, 0.3910984, 0.38590902, 0.0]
44 [0.0, 0.0, 0.0, 0.0, 0.0, 0.38626567, 0.38078302, 0.0]
45 [0.0, 0.0, 0.0, 0.0, 0.0, 0.3775435, 0.37593916, 0.0]
46 [0.0, 0.0, 0.0, 0.0, 0.0, 0.37435105, 0.3742413, 0.0]
47 [0.0, 0.0, 0.0, 0.0, 0.0, 0.5613211, 0.37251398, 0.0]
48 [0.0, 0.0, 0.0, 0.0, 0.0, 0.0, 0.3718524, 0.0]
49 [0.0, 0.0, 0.0, 0.0, 0.0, 0.0, 0.3718524, 0.0]
