0 -1
1 -1
2 -1
3 0
4 0
5 0
6 0
7 0
8 0
9 0
10 0
11 0
12 0
13 0
14 0
15 0
16 0
17 0
18 0
19 0
20 0
21 0
22 0
23 0
24 0
25 0
26 0
27 0
28 0
29 0
30 0
31 0
32 0
33 0
34 0
35 0
36 0
37 0
38 0
39 0
40 0
41 -1
42 0
43 0
44 0
45 0
46 0
47 0
48 0
49 0
50 0
51 0
52 312500
53 312500
54 312500
55 312500
56 312500
57 312500
58 312500
59 312500
60 62500
61 62500
62 62500
63 62500
64 62500
65 62500
66 62500
67 62500
68 62500
69 62500
70 62500
71 62500
72 62500
73 62500
74 -1
75 62500
76 0
77 0
78 312500
79 312500
80 312500
81 312500
82 312500
83 312500
84 312500
85 312500
86 312500
87 312500
88 312500
89 312500
90 312500
91 312600
92 313100
93 313100
94 313100
95 313120
96 313120
97 313120
98 313120
99 313120
100 313120
101 313120
102 313120
103 -1
104 315620
105 327970
106 15470
107 15470
108 15470
109 12970
110 12970
111 12970
112 12970
113 75470
114 75320
115 75320
116 56570
117 56570
118 56565
119 56565
120 56565
121 56560
122 56413
123 56413
124 56408
125 56408
126 56408
127 40783
128 40783
129 40783
130 40783
131 40783
132 40783
133 40783
134 40783
135 37533
136 37533
137 37533
138 37533
139 37533
140 37533
141 37533
142 37531
143 37531
144 37531
145 37526
146 40651
147 40651
148 40651
149 31276
150 31276
151 31276
152 31276
153 31276
154 31276
155 31276
156 31276
157 31251
158 31251
159 31251
160 -1
161 37505
162 21880
163 21880
164 21875
165 21875
166 21875
167 21875
168 21896
169 15646
170 15646
171 15646
172 15646
173 15646
174 171896
175 171896
176 171896
177 171896
178 171895
179 93770
180 93770
181 93770
182 93770
183 93770
184 93770
185 93770
186 93770
187 78145
188 78145
189 78145
190 78145
191 78145
192 78145
193 78145
194 93770
195 93770
196 93750
197 93750
198 93750
199 93750
200 78125
201 78145
202 78145
203 78125
204 78125
205 78129
206 78129
207 78129
208 78129
209 81128
210 81128
211 81128
212 93628
213 93628
214 93728
215 171853
216 -1
217 171853
218 15603
219 15603
220 15603
221 15603
222 15603
223 15603
224 15603
225 14853
226 14853
227 14853
228 14853
229 14853
230 14848
231 14848
232 14848
233 171098
234 171098
235 171098
236 171098
237 171093
238 171093
239 171093
240 171093
241 171093
242 171093
243 171093
244 171090
245 -1
246 171093
247 14843
248 11718
249 11718
250 11718
251 74218
252 73468
253 73468
254 73443
255 57818
256 54693
257 54693
258 54690
259 54690
260 54690
261 54690
262 54685
263 7810
264 7810
265 7810
266 7810
267 7810
268 7810
269 10935
270 10935
271 10935
272 10935
273 10935
274 -1
275 7810
276 7810
277 7810
278 7810
279 7810
280 7810
281 10810
282 10810
283 10780
284 10780
285 10780
286 10780
287 7655
288 7655
289 7655
290 7655
291 7655
292 7655
293 7655
294 7030
295 7030
296 7030
297 7030
298 7030
299 7030
300 7030
301 7030
302 7030
303 -1
304 7030
305 7030
306 3905
307 3905
308 3905
309 3905
310 3905
311 3905
312 3905
313 3905
314 3905
315 3905
316 3130
317 3130
318 0
319 0
320 0
321 15625
322 15625
323 0
