0 [1.0, 1.0, 1.0, 1.0, 1.0, 1.0, 1.0, 1.0]
1 [1.0, 1.0, 1.0, 1.0, 1.0, 1.0, 1.0, 1.0]
2 [1.0, 1.0, 1.0, 1.0, 1.0, 1.0, 1.0, 1.0]
3 [1.0, 1.0, 1.0, 1.0, 1.0, 1.0, 1.0, 1.0]
4 [1.0, 1.0, 1.0, 1.0, 1.0, 1.0, 1.0, 1.0]
5 [1.0, 1.0, 1.0, 1.0, 1.0, 1.0, 1.0, 1.0]
6 [1.0, 1.0, 1.0, 1.0, 1.0, 1.0, 1.0, 1.0]
7 [1.0, 1.0, 1.0, 1.0, 1.0, 1.0, 1.0, 1.0]
8 [1.0, 1.0, 1.0, 1.0, 1.0, 1.0, 1.0, 1.0]
9 [1.0, 1.0, 1.0, 1.0, 1.0, 1.0, 1.0, 1.0]
10 [1.0, 1.0, 1.0, 1.0, 1.0, 1.0, 1.0, 1.0]
11 [1.0, 1.0, 1.0, 1.0, 1.0, 1.0, 1.0, 1.0]
12 [1.0, 1.0, 1.0, 1.0, 1.0, 1.0, 1.0, 1.0]
13 [1.0, 1.0, 1.0, 1.0, 1.0, 1.0, 1.0, 1.0]
14 [1.0, 1.0, 1.0, 1.0, 1.0, 1.0, 1.0, 1.0]
15 [1.0, 1.0, 1.0, 1.0, 1.0, 1.0, 1.0, 1.0]
16 [1.0, 1.0, 1.0, 1.0, 1.0, 1.0, 1.0, 1.0]
17 [1.0, 1.0, 1.0, 1.0, 1.0, 1.0, 1.0, 1.0]
18 [1.0, 1.0002337, 1.0942593, 1.6964872, 1.0942593, 1.0002337, 1.0, 1.0]
19 [1.0, 1.0001658, 1.0670943, 1.5789202, 1.6927917, 1.0848732, 1.0002099, 1.0]
20 [1.0, 1.0001255, 1.0508485, 1.4608878, 1.6916687, 1.0868802, 1.000215, 1.0]
21 [1.0, 1.0000948, 1.0384005, 1.3494028, 1.5324476, 1.0669792, 1.0001658, 1.0]
22 [1.0, 1.0000716, 1.029023, 1.2641585, 1.4030306, 1.0507051, 1.0001255, 1.0]
23 [1.0, 1.0000541, 1.0219351, 1.199652, 1.3046412, 1.0383271, 1.0000949, 1.0]
24 [1.0, 0.99981534, 0.9255849, 0.47851068, 1.1390383, 1.0287129, 1.0000716, 1.0]
25 [1.0, 0.99977887, 0.91084504, 0.36266935, 1.0721699, 1.0216191, 1.0000541, 1.0]
26 [1.0, 0.9998281, 0.93045896, 0.41303492, 0.38025683, 0.92534137, 0.99981534, 1.0]
27 [1.0, 0.99986976, 0.94723994, 0.52257776, 0.28829014, 0.9106607, 0.99977887, 1.0]
28 [1.0, 0.99990153, 0.9601125, 0.63711643, 0.44730508, 0.9304773, 0.9998279, 1.0]
29 [1.0, 1.0001593, 1.0641207, 1.4222145, 0.67603767, 0.94762033, 0.99986976, 1.0]
30 [1.0, 1.0001407, 1.0566592, 1.3796698, 0.7632983, 0.9604253, 0.99990153, 1.0]
31 [1.0, 1.0001074, 1.0432776, 1.2903438, 0.8217786, 0.9701207, 0.9999257, 1.0]
32 [1.0, 1.0000813, 1.0327386, 1.2196589, 0.865333, 0.9774178, 0.99994385, 1.0]
33 [1.0, 1.0000548, 1.0220791, 1.1481405, 0.90918845, 0.98477155, 0.9999621, 1.0]
34 [1.0, 1.0000415, 1.0166872, 1.1119624, 0.93136615, 0.98849064, 0.9999714, 1.0]
35 [1.0, 0.9998902, 0.955691, 0.66403675, 0.8912713, 0.99116904, 0.99997836, 1.0]
36 [1.0, 0.9997608, 0.90346533, 0.28022963, 0.85477793, 0.9931695, 0.99998367, 1.0]
37 [1.0, 0.99982065, 0.9276179, 0.46056342, 0.89299834, 0.9951338, 0.9999884, 1.0]
38 [1.0, 0.9998692, 0.94725084, 0.6102337, 0.94725084, 0.9998692, 1.0, 1.0]
39 [1.0, 0.9999012, 0.96011883, 0.7026902, 0.9403636, 0.9972267, 0.9999934, 1.0]
40 [1.0, 1.0, 1.0, 1.0, 1.0, 1.0, 1.0, 1.0]
41 [1.0, 0.9999436, 0.9772457, 0.83186704, 0.9772457, 0.9999436, 1.0, 1.0]
42 [1.0, 0.99995744, 0.98281986, 0.87305486, 0.98281986, 0.99995744, 1.0, 1.0]
43 [1.0, 0.9999678, 0.9870155, 0.9040569, 0.9870155, 0.9999678, 1.0, 1.0]
44 [1.0, 0.9999757, 0.9901865, 0.9274878, 0.9901865, 0.9999757, 1.0, 1.0]
45 [1.0, 0.99998164, 0.99259055, 0.9452512, 0.99259055, 0.99998164, 1.0, 1.0]
46 [1.0, 0.9999861, 0.9944001, 0.95862174, 0.9944001, 0.9999861, 1.0, 1.0]
47 [1.0, 0.9999895, 0.99576765, 0.968727, 0.99576765, 0.9999895, 1.0, 1.0]
48 [1.0, 0.9999921, 0.9968045, 0.976388, 0.9968045, 0.9999921, 1.0, 1.0]
49 [1.0, 1.0, 1.0, 1.0, 1.0, 1.0, 1.0, 1.0]
