0 [0.0, 0.0, 0.0, 0.0, 0.0, 0.0, 0.0, 0.0]
1 [0.0, 0.0, 0.0, 0.0, 0.0, 0.0, 0.0, 0.0]
2 [0.0, 0.0, 0.0, 0.0, 0.0, 0.0, 0.0, 0.0]
3 [0.0, 0.0, 0.0, 0.0, 0.0, 0.0, 0.0, 0.0]
4 [0.0, 0.0, 0.0, 0.0, 0.0, 0.0, 0.0, 0.0]
5 [0.0, 0.0, 0.0, 0.0, 0.0, 0.0, 0.0, 0.0]
6 [0.0, 0.0, 0.0, 0.0, 0.0, 0.0, 0.0, 0.0]
7 [0.0, 0.0, 0.0, 0.0, 0.0, 0.0, 0.0, 0.0]
8 [0.0, 0.0, 0.0, 0.0, 0.0, 0.0, 0.0, 0.0]
9 [0.04415935, 0.04415935, 0.02284066, 0.08715934, 0.08715934, 0.021840662, 0.021840662, 1.7963462]
10 [0.04415935, 0.04415935, 0.02284066, 0.08715934, 0.08715934, 0.021840662, 0.021840662, 0.80184066]
11 [0.027945055, 0.04005495, 0.69361174, 0.95905495, 0.75072163, 0.69161177, 0.023945058, 0.43905497]
12 [0.027945055, 0.04005495, 0.026945055, 0.08405495, 0.08405495, 0.024945056, 0.023945058, 0.06405495]
13 [0.030494502, 0.039505504, 0.028494503, 0.8845055, 0.8855055, 0.8234945, 0.02149451, 0.8665055]
14 [0.17720878, 0.1805055, 0.17320879, 0.9596484, 0.9427912, 0.022351652, 0.020351654, 0.44264835]
15 [0.03435164, 0.03764835, 0.030351644, 0.084648356, 0.08564835, 0.022351652, 0.020351654, 0.06764836]
16 [0.16213186, 0.16313186, 0.15713187, 0.95986813, 0.9608681, 0.021131875, 0.018131878, 0.43986815]
17 [0.034021977, 0.26220024, 0.25520024, 0.9168669, 0.9769109, 0.018978031, 0.014978011, 0.937022]
18 [0.034021977, 0.039978012, 0.032978017, 0.027978024, 0.08802197, 0.018978031, 0.014978011, 0.062021974]
19 [0.03533516, 0.9186649, 0.91066486, 0.90566486, 0.96333516, 0.019664844, 0.013664827, 0.88266486]
20 [0.03533516, 0.043664847, 0.03566483, 0.030664835, 0.08833516, 0.019664844, 0.013664827, 0.0076648328]
21 [0.036928568, 0.9450714, 0.9360714, 0.23107143, 0.9879285, 0.28792858, 0.0130714215, 0.007071427]
22 [0.035802193, 1.01942, 0.34275335, 0.032197803, 1.0600244, 0.0888022, 0.013197797, 0.8811978]
23 [0.03488462, 0.048115395, 0.038115382, 0.033115387, 0.9628846, 0.08788462, 0.013115382, 0.8811154]
24 [0.03488462, 0.048115395, 0.038115382, 0.033115387, 0.08788462, 0.08788462, 0.013115382, 0.006115388]
25 [0.22676374, 0.048543967, 0.037543952, 0.032543957, 1.0819615, 0.08845604, 0.013543953, 0.88154393]
26 [0.03445605, 0.048543967, 0.037543952, 0.032543957, 0.08745605, 0.08845604, 0.013543953, 0.00654396]
27 [0.03445605, 0.048543967, 0.037543952, 0.032543957, 0.08745605, 0.08845604, 0.013543953, 0.00654396]
28 [0.032208797, 0.048791196, 0.038791206, 0.03379121, 0.08720879, 0.08720879, 0.013791207, 0.0067912135]
29 [0.8314011, 0.8495989, 0.8385989, 0.8335989, 0.8864011, 0.0874011, 0.81359893, 0.0065988954]
30 [0.04327473, 0.059703287, 0.049703296, 0.0447033, 1.0817912, 0.099274725, 0.023703298, 0.016703293]
31 [0.03228572, 0.048714276, 0.038714286, 0.03371429, 0.08728571, 0.088285714, 0.012714286, 0.005714281]
32 [0.9729231, 0.9820769, 0.9729231, 0.029576927, 0.9664231, 0.21742308, 0.13457692, 1.7480769]
33 [0.9354231, 0.94457686, 0.9354231, 0.029576927, 0.9664231, 0.29242307, 0.20957692, 1.7105769]
34 [0.029335171, 0.048664827, 0.038664836, 0.032664843, 0.08733516, 0.088335164, 0.013664836, 0.006664831]
35 [0.9577802, 0.9763626, 0.9663626, 0.032791216, 0.9622088, 0.088208795, 0.01379121, 0.0067912047]
36 [0.029208796, 0.0477912, 0.03779121, 0.032791216, 0.08720879, 0.088208795, 0.01379121, 0.0067912047]
37 [0.6953645, 0.71536446, 0.70536447, 0.6993645, 0.9623022, 0.7549689, 0.6803645, 0.6743645]
38 [0.02869779, 0.048697796, 0.038697805, 0.03269781, 0.0873022, 0.0883022, 0.013697805, 0.0076977983]
39 [0.029307697, 0.0486923, 0.03869231, 0.033692315, 0.08730769, 0.08830769, 0.01369231, 0.006692305]
40 [0.36294323, 0.9650568, 0.9550568, 0.9500568, 1.0042766, 0.42194325, 0.34672347, 0.33972344]
41 [0.029609894, 0.0483901, 0.03839011, 0.033390116, 0.087609895, 0.08860989, 0.013390113, 0.0063901073]
42 [0.28017583, 0.9248242, 0.9138242, 0.9088242, 0.96217585, 0.33817583, 0.26382416, 0.25582418]
43 [0.029521981, 0.9978465, 0.9878465, 0.03447803, 0.961522, 0.08852198, 0.013478026, 0.0064780205]
44 [0.029521981, 0.050478015, 0.040478025, 0.03447803, 0.08652198, 0.08852198, 0.013478026, 0.0064780205]
45 [0.028609892, 0.0533901, 0.04239011, 0.037390117, 0.9606099, 0.08660989, 0.014390115, 0.1806099]
46 [0.031263735, 0.80473626, 0.79173625, 0.78673625, 0.9612637, 0.83826375, 0.76273626, 0.75473624]
47 [0.031263735, 0.054736253, 0.041736268, 0.036736272, 0.08626374, 0.088263735, 0.01273627, 0.0047362656]
48 [0.035593405, 0.4524066, 0.8394066, 0.8354066, 0.9645934, 0.8925934, 0.80940664, 1.2154067]
49 [0.035593405, 0.052406583, 0.039406594, 0.035406597, 0.08959341, 0.0925934, 0.009406599, 0.8154066]
