0 [10.0, 10.0, 10.0, 10.0, 10.0, 10.0, 10.0, 10.0, 10.0, 10.0, 10.0, 10.0, 10.0, 10.0, 10.0, 10.0, 10.0, 10.0, 10.0, 10.0, 10.0, 10.0, 10.0, 10.0, 10.0, 10.0, 10.0, 10.0, 10.0, 10.0, 10.0, 10.0, 10.0, 10.0, 10.0, 10.0, 10.0, 10.0, 10.0, 10.0, 10.0, 10.0, 10.0, 10.0, 10.0, 10.0, 10.0, 10.0, 10.0, 10.0, 10.0, 10.0, 10.0, 10.0, 10.0, 10.0, 10.0, 10.0, 10.0, 10.0, 10.0, 10.0, 10.0, 10.0, 10.0, 10.0, 10.0, 10.0, 10.0, 10.0, 10.0, 10.0, 10.0, 10.0, 10.0, 10.0, 10.0, 10.0, 10.0, 10.0, 10.0, 10.0, 10.0, 10.0, 10.0, 10.0, 10.0, 10.0, 10.0, 10.0, 10.0, 10.0, 10.0, 10.0, 10.0, 10.0, 10.0, 10.0, 10.0, 10.0, 10.0, 10.0, 10.0, 10.0, 10.0, 10.0, 10.0, 10.0, 10.0, 10.0, 10.0, 10.0, 10.0, 10.0, 10.0, 10.0, 10.0, 10.0, 10.0, 10.0, 10.0, 10.0, 10.0, 10.0, 10.0, 10.0, 10.0, 10.0, 10.0, 10.0, 10.0, 10.0, 10.0, 10.0, 10.0, 10.0, 10.0, 10.0, 10.0, 10.0, 10.0, 10.0, 10.0, 10.0, 10.0, 10.0, 10.0, 10.0, 10.0, 10.0, 10.0, 10.0, 10.0, 10.0, 10.0, 10.0, 10.0, 10.0, 10.0, 10.0, 10.0, 10.0, 10.0, 10.0, 10.0, 10.0, 10.0, 10.0, 10.0, 10.0, 10.0, 10.0, 10.0, 10.0, 10.0, 10.0, 10.0, 10.0, 10.0, 10.0, 10.0, 10.0]
1 [10.0, 10.0, 10.0, 10.0, 10.0, 10.0, 10.0, 10.0, 10.0, 10.0, 10.0, 10.0, 10.0, 10.0, 10.0, 10.0, 10.0, 10.0, 10.0, 10.0, 10.0, 10.0, 10.0, 10.0, 10.0, 10.0, 10.0, 10.0, 10.0, 10.0, 10.0, 10.0, 10.0, 10.0, 10.0, 10.0, 10.0, 10.0, 10.0, 10.0, 10.0, 10.0, 10.0, 10.0, 10.0, 10.0, 10.0, 10.0, 10.0, 10.0, 10.0, 10.0, 10.0, 10.0, 10.0, 10.0, 10.0, 10.0, 10.0, 10.0, 10.0, 10.0, 10.0, 10.0, 10.0, 10.0, 10.0, 10.0, 10.0, 10.0, 10.0, 10.0, 10.0, 10.0, 10.0, 10.0, 10.0, 10.0, 10.0, 10.0, 10.0, 10.0, 10.0, 10.0, 10.0, 10.0, 10.0, 10.0, 10.0, 10.0, 10.0, 10.0, 10.0, 10.0, 10.0, 10.0, 10.0, 10.0, 10.0, 10.0, 10.0, 10.0, 10.0, 10.0, 10.0, 10.0, 10.0, 10.0, 10.0, 10.0, 10.0, 10.0, 10.0, 10.0, 10.0, 10.0, 10.0, 10.0, 10.0, 10.0, 10.0, 10.0, 10.0, 10.0, 10.0, 10.0, 10.0, 10.0, 10.0, 10.0, 10.0, 10.0, 10.0, 10.0, 10.0, 10.0, 10.0, 10.0, 10.0, 10.0, 10.0, 10.0, 10.0, 10.0, 10.0, 10.0, 10.0, 10.0, 10.0, 10.0, 10.0, 10.0, 10.0, 10.0, 10.0, 10.0, 10.0, 10.0, 10.0, 10.0, 10.0, 10.0, 10.0, 10.0, 10.0, 10.0, 10.0, 10.0, 10.0, 10.0, 10.0, 10.0, 10.0, 10.0, 10.0, 10.0, 10.0, 10.0, 10.0, 10.0, 10.0, 10.0]
2 [10.0, 10.0, 10.0, 10.0, 10.0, 10.0, 10.0, 10.0, 10.0, 10.0, 10.0, 10.0, 10.0, 10.0, 10.0, 10.0, 10.0, 10.0, 10.0, 10.0, 10.0, 10.0, 10.0, 10.0, 10.0, 10.0, 10.0, 10.0, 10.0, 10.0, 10.0, 10.0, 10.0, 10.0, 10.0, 10.0, 10.0, 10.0, 10.0, 10.0, 10.0, 10.0, 10.0, 10.0, 10.0, 10.0, 10.0, 10.0, 10.0, 10.0, 10.0, 10.0, 10.0, 10.0, 10.0, 10.0, 10.0, 10.0, 10.0, 10.0, 10.0, 10.0, 10.0, 10.0, 10.0, 10.0, 10.0, 10.0, 10.0, 10.0, 10.0, 10.0, 10.0, 10.0, 10.0, 10.0, 10.0, 10.0, 10.0, 10.0, 10.0, 10.0, 10.0, 10.0, 10.0, 10.0, 10.0, 10.0, 10.0, 10.0, 10.0, 10.0, 10.0, 10.0, 10.0, 10.0, 10.0, 10.0, 10.0, 10.0, 10.0, 10.0, 10.0, 10.0, 10.0, 10.0, 10.0, 10.0, 10.0, 10.0, 10.0, 10.0, 10.0, 10.0, 10.0, 10.0, 10.0, 10.0, 10.0, 10.0, 10.0, 10.0, 10.0, 10.0, 10.0, 10.0, 10.0, 10.0, 10.0, 10.0, 10.0, 10.0, 10.0, 10.0, 10.0, 10.0, 10.0, 10.0, 10.0, 10.0, 10.0, 10.0, 10.0, 10.0, 10.0, 10.0, 10.0, 10.0, 10.0, 10.0, 10.0, 10.0, 10.0, 10.0, 10.0, 10.0, 10.0, 10.0, 10.0, 10.0, 10.0, 10.0, 10.0, 10.0, 10.0, 10.0, 10.0, 10.0, 10.0, 10.0, 10.0, 10.0, 10.0, 10.0, 10.0, 10.0, 10.0, 10.0, 10.0, 10.0, 10.0, 10.0]
3 [10.0, 10.0, 10.0, 10.0, 10.0, 10.0, 10.0, 10.0, 10.0, 10.0, 10.0, 10.0, 10.0, 10.0, 10.0, 10.0, 10.0, 10.0, 10.0, 10.0, 10.0, 10.0, 10.0, 10.0, 10.0, 10.0, 10.0, 10.0, 10.0, 10.0, 10.0, 10.0, 10.0, 10.0, 10.0, 10.0, 10.0, 10.0, 10.0, 10.0, 10.0, 10.0, 10.0, 10.0, 10.0, 10.0, 10.0, 10.0, 10.0, 10.0, 10.0, 10.0, 10.0, 10.0, 10.0, 10.0, 10.0, 10.0, 10.0, 10.0, 10.0, 10.0, 10.0, 10.0, 10.0, 10.0, 10.0, 10.0, 10.0, 10.0, 10.0, 10.0, 10.0, 10.0, 10.0, 10.0, 10.0, 10.0, 10.0, 10.0, 10.0, 10.0, 10.0, 10.0, 10.0, 10.0, 10.0, 10.0, 10.0, 10.0, 10.0, 10.0, 10.0, 10.0, 10.0, 10.0, 10.0, 10.0, 10.0, 10.0, 10.0, 10.0, 10.0, 10.0, 10.0, 10.0, 10.0, 10.0, 10.0, 10.0, 10.0, 10.0, 10.0, 10.0, 10.0, 10.0, 10.0, 10.0, 10.0, 10.0, 10.0, 10.0, 10.0, 10.0, 10.0, 10.0, 10.0, 10.0, 10.0, 10.0, 10.0, 10.0, 10.0, 10.0, 10.0, 10.0, 10.0, 10.0, 10.0, 10.0, 10.0, 10.0, 10.0, 10.0, 10.0, 10.0, 10.0, 10.0, 10.0, 10.0, 10.0, 10.0, 10.0, 10.0, 10.0, 10.0, 10.0, 10.0, 10.0, 10.0, 10.0, 10.0, 10.0, 10.0, 10.0, 10.0, 10.0, 10.0, 10.0, 10.0, 10.0, 10.0, 10.0, 10.0, 10.0, 10.0, 10.0, 10.0, 10.0, 10.0, 10.0, 10.0]
4 [10.0, 10.0, 10.0, 10.0, 10.0, 10.0, 10.0, 10.0, 10.0, 10.0, 10.0, 10.0, 10.0, 10.0, 10.0, 10.0, 10.0, 10.0, 10.0, 10.0, 10.0, 10.0, 10.0, 10.0, 10.0, 10.0, 10.0, 10.0, 10.0, 10.0, 10.0, 10.0, 10.0, 10.0, 10.0, 10.0, 10.0, 10.0, 10.0, 10.0, 10.0, 10.0, 10.0, 10.0, 10.0, 10.0, 10.0, 10.0, 10.0, 10.0, 10.0, 10.0, 10.0, 10.0, 10.0, 10.0, 10.0, 10.0, 10.0, 10.0, 10.0, 10.0, 10.0, 10.0, 10.0, 10.0, 10.0, 10.0, 10.0, 10.0, 10.0, 10.0, 10.0, 10.0, 10.0, 10.0, 10.0, 10.0, 10.0, 10.0, 10.0, 10.0, 10.0, 10.0, 10.0, 10.0, 10.0, 10.0, 10.0, 10.0, 10.0, 10.0, 10.0, 10.0, 10.0, 10.0, 10.0, 10.0, 10.0, 10.0, 10.0, 10.0, 10.0, 10.0, 10.0, 10.0, 10.0, 10.0, 10.0, 10.0, 10.0, 10.0, 10.0, 10.0, 10.0, 10.0, 10.0, 10.0, 10.0, 10.0, 10.0, 10.0, 10.0, 10.0, 10.0, 10.0, 10.0, 10.0, 10.0, 10.0, 10.0, 10.0, 10.0, 10.0, 10.0, 10.0, 10.0, 10.0, 10.0, 10.0, 10.0, 10.0, 10.0, 10.0, 10.0, 10.0, 10.0, 10.0, 10.0, 10.0, 10.0, 10.0, 10.0, 10.0, 10.0, 10.0, 10.0, 10.0, 10.0, 10.0, 10.0, 10.0, 10.0, 10.0, 10.0, 10.0, 10.0, 10.0, 10.0, 10.0, 10.0, 10.0, 10.0, 10.0, 10.0, 10.0, 10.0, 10.0, 10.0, 10.0, 10.0, 10.0]
5 [1.77, 1.8, 1.84, 1.87, 1.9, 1.93, 1.97, 2.0, 2.04, 2.07, 2.11, 2.15, 2.19, 2.21, 2.21, 2.21, 2.21, 2.21, 2.21, 2.21, 2.21, 1.54, 1.54, 1.54, 1.54, 1.54, 1.54, 1.54, 1.54, 1.54, 1.54, 1.54, 1.58, 1.61, 1.64, 1.68, 1.71, 2.21, 2.21, 2.21, 2.21, 2.21, 2.21, 2.21, 2.21, 2.21, 2.21, 2.21, 2.21, 2.21, 2.21, 2.21, 2.21, 2.21, 2.21, 2.21, 2.21, 2.21, 2.21, 2.21, 2.21, 2.21, 2.21, 2.21, 2.21, 2.21, 2.21, 2.2, 2.2, 2.2, 2.2, 2.2, 2.2, 2.2, 2.2, 2.2, 2.2, 2.2, 2.2, 1.11, 1.11, 1.11, 1.11, 1.11, 1.11, 1.11, 1.11, 1.11, 1.11, 1.11, 1.11, 1.11, 1.11, 1.11, 1.11, 1.11, 1.11, 1.11, 1.11, 1.11, 2.2, 2.2, 2.2, 2.2, 2.2, 2.2, 2.2, 2.2, 2.2, 2.2, 2.2, 2.2, 2.2, 2.2, 2.2, 2.2, 2.2, 2.2, 2.2, 2.2, 2.2, 2.2, 2.2, 2.2, 2.2, 2.2, 2.2, 2.2, 2.2, 2.2, 2.2, 2.2, 2.2, 2.2, 2.2, 2.2, 2.2, 2.2, 2.2, 2.2, 2.2, 2.2, 2.2, 2.2, 2.2, 2.2, 2.2, 2.2, 2.2, 2.2, 2.19, 2.19, 2.19, 2.19, 2.19, 2.19, 2.19, 2.19, 2.19, 2.19, 2.19, 2.19, 2.19, 2.19, 2.19, 2.19, 2.19, 2.19, 1.52, 1.49, 1.47, 1.44, 1.41, 1.39, 1.36, 1.34, 1.33, 1.33, 1.33, 1.33, 10.0, 0.0]
6 [1.75, 1.78, 1.81, 1.85, 1.88, 1.91, 1.94, 1.98, 2.01, 2.05, 2.08, 2.12, 2.16, 2.19, 2.23, 2.23, 2.23, 2.23, 2.23, 2.23, 2.23, 2.23, 1.55, 1.55, 1.55, 1.55, 1.55, 1.55, 1.55, 1.55, 1.55, 1.55, 1.55, 1.57, 1.61, 1.64, 1.67, 1.71, 1.75, 2.22, 2.22, 2.22, 2.22, 2.22, 2.22, 2.22, 2.22, 2.22, 2.22, 2.22, 2.22, 2.22, 2.22, 2.22, 2.22, 2.22, 2.22, 2.22, 2.22, 2.21, 2.21, 2.21, 2.21, 2.21, 2.21, 2.21, 2.21, 2.21, 2.21, 2.21, 2.21, 2.21, 2.21, 2.21, 2.21, 2.21, 2.21, 2.21, 2.21, 2.21, 2.21, 1.11, 1.11, 1.11, 1.11, 1.11, 1.11, 1.11, 1.11, 1.11, 1.11, 1.11, 1.11, 1.11, 1.11, 1.11, 1.11, 1.11, 1.11, 1.11, 1.11, 2.2, 2.2, 2.2, 2.2, 2.2, 2.2, 2.2, 2.2, 2.2, 2.2, 2.2, 2.2, 2.2, 2.2, 2.2, 2.2, 2.2, 2.2, 2.19, 2.19, 2.19, 2.19, 2.19, 2.19, 2.19, 2.19, 2.19, 2.19, 2.19, 2.19, 2.19, 2.19, 2.19, 2.19, 2.19, 2.19, 2.19, 2.19, 2.19, 2.19, 2.19, 2.19, 2.19, 2.19, 2.18, 2.18, 2.18, 2.18, 2.18, 2.18, 2.18, 2.18, 2.18, 2.18, 2.18, 2.18, 2.18, 2.18, 2.18, 2.18, 2.18, 2.18, 2.18, 2.18, 2.18, 2.18, 2.17, 2.17, 2.17, 1.49, 1.46, 1.43, 1.41, 1.38, 1.36, 1.34, 1.31, 1.31, 1.31, 1.31, 1.31]
7 [1.72, 1.75, 1.78, 1.81, 1.84, 1.88, 1.91, 1.94, 1.97, 2.01, 2.04, 2.08, 2.11, 2.15, 2.19, 2.22, 2.26, 2.26, 2.26, 2.26, 2.26, 2.26, 2.26, 2.26, 1.57, 1.57, 1.57, 1.57, 1.57, 1.56, 1.56, 1.56, 1.56, 1.56, 1.56, 1.59, 1.62, 1.65, 1.69, 1.72, 1.76, 2.24, 2.24, 2.24, 2.24, 2.24, 2.24, 2.24, 2.23, 2.23, 2.23, 2.23, 2.23, 2.23, 2.23, 2.23, 2.23, 2.23, 2.23, 2.23, 2.23, 2.22, 2.22, 2.22, 2.22, 2.22, 2.22, 2.22, 2.22, 2.22, 2.22, 2.22, 2.22, 2.22, 2.22, 2.22, 2.21, 2.21, 2.21, 2.21, 2.21, 2.21, 2.21, 1.11, 1.11, 1.11, 1.11, 1.11, 1.11, 1.11, 1.11, 1.11, 1.11, 1.11, 1.11, 1.11, 1.11, 1.11, 1.11, 1.11, 1.11, 1.11, 1.1, 2.2, 2.2, 2.2, 2.19, 2.19, 2.19, 2.19, 2.19, 2.19, 2.19, 2.19, 2.19, 2.19, 2.19, 2.19, 2.19, 2.19, 2.19, 2.18, 2.18, 2.18, 2.18, 2.18, 2.18, 2.18, 2.18, 2.18, 2.18, 2.18, 2.18, 2.18, 2.18, 2.17, 2.17, 2.17, 2.17, 2.17, 2.17, 2.17, 2.17, 2.17, 2.17, 2.17, 2.17, 2.17, 2.16, 2.16, 2.16, 2.16, 2.16, 2.16, 2.16, 2.16, 2.16, 2.16, 2.16, 2.16, 2.15, 2.15, 2.15, 2.15, 2.15, 2.15, 2.15, 2.15, 2.15, 2.15, 2.14, 2.14, 1.47, 1.44, 1.41, 1.39, 1.36, 1.34, 1.31, 1.29, 1.29, 1.29]
8 [1.69, 1.72, 1.75, 1.78, 1.8, 1.83, 1.87, 1.9, 1.93, 1.96, 1.99, 2.03, 2.06, 2.09, 2.13, 2.17, 2.2, 2.24, 2.28, 2.3, 2.3, 2.3, 2.3, 2.29, 2.29, 2.29, 2.29, 1.59, 1.59, 1.59, 1.59, 1.59, 1.58, 1.58, 1.58, 1.58, 1.58, 1.59, 1.62, 1.65, 1.69, 1.72, 1.76, 2.26, 2.26, 2.26, 2.26, 2.26, 2.26, 2.26, 2.25, 2.25, 2.25, 2.25, 2.25, 2.25, 2.25, 2.25, 2.24, 2.24, 2.24, 2.24, 2.24, 2.24, 2.24, 2.24, 2.23, 2.23, 2.23, 2.23, 2.23, 2.23, 2.23, 2.23, 2.23, 2.22, 2.22, 2.22, 2.22, 2.22, 2.22, 2.22, 2.22, 2.22, 2.21, 1.11, 1.11, 1.11, 1.11, 1.11, 1.11, 1.11, 1.11, 1.11, 1.11, 1.11, 1.11, 1.11, 1.11, 1.11, 1.1, 1.1, 1.1, 1.1, 1.1, 1.1, 2.19, 2.19, 2.19, 2.19, 2.19, 2.19, 2.18, 2.18, 2.18, 2.18, 2.18, 2.18, 2.18, 2.18, 2.18, 2.17, 2.17, 2.17, 2.17, 2.17, 2.17, 2.17, 2.17, 2.17, 2.16, 2.16, 2.16, 2.16, 2.16, 2.16, 2.16, 2.16, 2.15, 2.15, 2.15, 2.15, 2.15, 2.15, 2.15, 2.15, 2.14, 2.14, 2.14, 2.14, 2.14, 2.14, 2.14, 2.13, 2.13, 2.13, 2.13, 2.13, 2.13, 2.13, 2.13, 2.12, 2.12, 2.12, 2.12, 2.12, 2.12, 2.11, 2.11, 2.11, 2.11, 2.11, 2.11, 2.1, 1.45, 1.43, 1.4, 1.37, 1.35, 1.32, 1.3, 1.28]
9 [1.65, 1.68, 1.71, 1.74, 1.77, 1.79, 1.82, 1.85, 1.88, 1.91, 1.94, 1.98, 2.01, 2.04, 2.08, 2.11, 2.14, 2.18, 2.22, 2.25, 2.29, 2.33, 2.34, 2.33, 2.33, 2.33, 2.33, 2.32, 2.32, 1.61, 1.61, 1.61, 1.61, 1.61, 1.6, 1.6, 1.6, 1.6, 1.6, 1.6, 1.62, 1.65, 1.68, 1.71, 1.75, 1.78, 2.28, 2.28, 2.28, 2.28, 2.28, 2.27, 2.27, 2.27, 2.27, 2.27, 2.27, 2.26, 2.26, 2.26, 2.26, 2.26, 2.26, 2.25, 2.25, 2.25, 2.25, 2.25, 2.25, 2.24, 2.24, 2.24, 2.24, 2.24, 2.24, 2.23, 2.23, 2.23, 2.23, 2.23, 2.23, 2.22, 2.22, 2.22, 2.22, 2.22, 2.22, 2.22, 1.11, 1.11, 1.11, 1.11, 1.11, 1.11, 1.11, 1.11, 1.11, 1.11, 1.1, 1.1, 1.1, 1.1, 1.1, 1.1, 1.1, 1.1, 1.1, 1.1, 1.1, 2.18, 2.18, 2.18, 2.18, 2.18, 2.17, 2.17, 2.17, 2.17, 2.17, 2.17, 2.16, 2.16, 2.16, 2.16, 2.16, 2.16, 2.16, 2.15, 2.15, 2.15, 2.15, 2.15, 2.15, 2.14, 2.14, 2.14, 2.14, 2.14, 2.14, 2.13, 2.13, 2.13, 2.13, 2.13, 2.12, 2.12, 2.12, 2.12, 2.12, 2.12, 2.11, 2.11, 2.11, 2.11, 2.11, 2.1, 2.1, 2.1, 2.1, 2.1, 2.09, 2.09, 2.09, 2.09, 2.09, 2.08, 2.08, 2.08, 2.08, 2.08, 2.07, 2.07, 2.07, 2.07, 2.06, 2.06, 2.06, 1.42, 1.39, 1.36, 1.34, 1.31]
10 [1.63, 1.65, 1.68, 1.7, 1.73, 1.76, 1.79, 1.82, 1.84, 1.87, 1.9, 1.93, 1.97, 2.0, 2.03, 2.06, 2.09, 2.13, 2.16, 2.2, 2.23, 2.27, 2.31, 2.35, 2.37, 2.36, 2.36, 2.36, 2.35, 2.35, 2.35, 2.34, 1.63, 1.62, 1.62, 1.62, 1.62, 1.62, 1.61, 1.61, 1.61, 1.61, 1.62, 1.65, 1.68, 1.71, 1.75, 1.78, 2.3, 2.3, 2.29, 2.29, 2.29, 2.29, 2.28, 2.28, 2.28, 2.28, 2.28, 2.27, 2.27, 2.27, 2.27, 2.26, 2.26, 2.26, 2.26, 2.26, 2.25, 2.25, 2.25, 2.25, 2.25, 2.24, 2.24, 2.24, 2.24, 2.24, 2.23, 2.23, 2.23, 2.23, 2.23, 2.22, 2.22, 2.22, 2.22, 2.22, 2.21, 2.21, 2.21, 1.11, 1.11, 1.11, 1.1, 1.1, 1.1, 1.1, 1.1, 1.1, 1.1, 1.1, 1.1, 1.1, 1.09, 1.09, 1.09, 1.09, 1.09, 1.09, 1.09, 2.17, 2.17, 2.17, 2.16, 2.16, 2.16, 2.16, 2.16, 2.15, 2.15, 2.15, 2.15, 2.15, 2.14, 2.14, 2.14, 2.14, 2.14, 2.13, 2.13, 2.13, 2.13, 2.13, 2.12, 2.12, 2.12, 2.12, 2.12, 2.11, 2.11, 2.11, 2.11, 2.1, 2.1, 2.1, 2.1, 2.1, 2.09, 2.09, 2.09, 2.09, 2.08, 2.08, 2.08, 2.08, 2.08, 2.07, 2.07, 2.07, 2.07, 2.06, 2.06, 2.06, 2.06, 2.05, 2.05, 2.05, 2.04, 2.04, 2.04, 2.04, 2.03, 2.03, 2.03, 2.03, 2.02, 2.02, 2.02, 2.01, 1.37, 1.35]
11 [1.6, 1.62, 1.65, 1.67, 1.7, 1.72, 1.75, 1.78, 1.81, 1.83, 1.86, 1.89, 1.92, 1.95, 1.98, 2.01, 2.04, 2.08, 2.11, 2.14, 2.18, 2.21, 2.25, 2.28, 2.32, 2.36, 2.39, 2.39, 2.38, 2.38, 2.37, 2.37, 2.37, 2.36, 1.64, 1.63, 1.63, 1.63, 1.63, 1.62, 1.62, 1.62, 1.62, 1.61, 1.61, 1.64, 1.67, 1.71, 1.74, 1.78, 1.81, 2.31, 2.3, 2.3, 2.3, 2.29, 2.29, 2.29, 2.29, 2.28, 2.28, 2.28, 2.27, 2.27, 2.27, 2.27, 2.26, 2.26, 2.26, 2.26, 2.25, 2.25, 2.25, 2.25, 2.24, 2.24, 2.24, 2.24, 2.23, 2.23, 2.23, 2.23, 2.22, 2.22, 2.22, 2.22, 2.21, 2.21, 2.21, 2.21, 2.2, 2.2, 2.2, 1.1, 1.1, 1.09, 1.09, 1.09, 1.09, 1.09, 1.09, 1.09, 1.09, 1.08, 1.08, 1.08, 1.08, 1.08, 1.08, 1.08, 1.08, 1.08, 1.07, 1.07, 2.15, 2.15, 2.14, 2.14, 2.14, 2.14, 2.13, 2.13, 2.13, 2.13, 2.13, 2.12, 2.12, 2.12, 2.12, 2.11, 2.11, 2.11, 2.11, 2.1, 2.1, 2.1, 2.1, 2.09, 2.09, 2.09, 2.09, 2.08, 2.08, 2.08, 2.08, 2.07, 2.07, 2.07, 2.06, 2.06, 2.06, 2.06, 2.05, 2.05, 2.05, 2.05, 2.04, 2.04, 2.04, 2.03, 2.03, 2.03, 2.03, 2.02, 2.02, 2.02, 2.01, 2.01, 2.01, 2.0, 2.0, 2.0, 1.99, 1.99, 1.99, 1.98, 1.98, 1.98, 1.97, 1.97, 1.97, 1.96]
12 [1.58, 1.61, 1.63, 1.66, 1.68, 1.71, 1.74, 1.76, 1.79, 1.82, 1.85, 1.88, 1.9, 1.93, 1.96, 1.99, 2.02, 2.06, 2.09, 2.12, 2.15, 2.19, 2.22, 2.26, 2.29, 2.33, 2.37, 2.4, 2.39, 2.39, 2.38, 2.38, 2.38, 2.37, 2.37, 1.64, 1.63, 1.63, 1.63, 1.63, 1.62, 1.62, 1.62, 1.62, 1.62, 1.62, 1.65, 1.68, 1.71, 1.74, 1.78, 2.31, 2.31, 2.3, 2.3, 2.3, 2.29, 2.29, 2.29, 2.29, 2.28, 2.28, 2.28, 2.27, 2.27, 2.27, 2.27, 2.26, 2.26, 2.26, 2.25, 2.25, 2.25, 2.25, 2.24, 2.24, 2.24, 2.24, 2.23, 2.23, 2.23, 2.23, 2.22, 2.22, 2.22, 2.21, 2.21, 2.21, 2.21, 2.2, 2.2, 2.2, 2.2, 2.19, 1.09, 1.09, 1.09, 1.09, 1.09, 1.08, 1.08, 1.08, 1.08, 1.08, 1.08, 1.08, 1.08, 1.07, 1.07, 1.07, 1.07, 1.07, 1.07, 1.07, 1.07, 2.14, 2.14, 2.13, 2.13, 2.13, 2.13, 2.12, 2.12, 2.12, 2.12, 2.11, 2.11, 2.11, 2.11, 2.1, 2.1, 2.1, 2.1, 2.09, 2.09, 2.09, 2.09, 2.08, 2.08, 2.08, 2.08, 2.07, 2.07, 2.07, 2.06, 2.06, 2.06, 2.06, 2.05, 2.05, 2.05, 2.04, 2.04, 2.04, 2.04, 2.03, 2.03, 2.03, 2.02, 2.02, 2.02, 2.01, 2.01, 2.01, 2.0, 2.0, 2.0, 1.99, 1.99, 1.99, 1.98, 1.98, 1.98, 1.97, 1.97, 1.97, 1.96, 1.96, 1.96, 1.95, 1.95, 1.94]
13 [1.57, 1.59, 1.61, 1.64, 1.66, 1.69, 1.72, 1.74, 1.77, 1.8, 1.82, 1.85, 1.88, 1.91, 1.94, 1.97, 2.0, 2.03, 2.06, 2.09, 2.12, 2.15, 2.19, 2.22, 2.26, 2.29, 2.33, 2.37, 2.4, 2.39, 2.39, 2.38, 2.38, 2.37, 2.37, 2.37, 1.63, 1.63, 1.62, 1.62, 1.62, 1.62, 1.61, 1.61, 1.61, 1.6, 1.61, 1.64, 1.67, 1.7, 1.73, 1.76, 1.8, 2.3, 2.3, 2.29, 2.29, 2.29, 2.28, 2.28, 2.28, 2.27, 2.27, 2.27, 2.26, 2.26, 2.26, 2.25, 2.25, 2.25, 2.24, 2.24, 2.24, 2.24, 2.23, 2.23, 2.23, 2.22, 2.22, 2.22, 2.22, 2.21, 2.21, 2.21, 2.2, 2.2, 2.2, 2.2, 2.19, 2.19, 2.19, 2.18, 2.18, 2.18, 2.18, 2.17, 1.07, 1.07, 1.07, 1.07, 1.07, 1.06, 1.06, 1.06, 1.06, 1.06, 1.06, 1.06, 1.05, 1.05, 1.05, 1.05, 1.05, 1.05, 1.05, 1.05, 1.04, 2.11, 2.11, 2.11, 2.11, 2.1, 2.1, 2.1, 2.09, 2.09, 2.09, 2.09, 2.08, 2.08, 2.08, 2.08, 2.07, 2.07, 2.07, 2.06, 2.06, 2.06, 2.06, 2.05, 2.05, 2.05, 2.04, 2.04, 2.04, 2.03, 2.03, 2.03, 2.03, 2.02, 2.02, 2.02, 2.01, 2.01, 2.01, 2.0, 2.0, 2.0, 1.99, 1.99, 1.99, 1.98, 1.98, 1.98, 1.97, 1.97, 1.97, 1.96, 1.96, 1.96, 1.95, 1.95, 1.94, 1.94, 1.94, 1.93, 1.93, 1.93, 1.92, 1.92, 1.91, 1.91]
14 [1.56, 1.58, 1.61, 1.63, 1.66, 1.68, 1.71, 1.73, 1.76, 1.79, 1.81, 1.84, 1.87, 1.9, 1.93, 1.96, 1.99, 2.02, 2.05, 2.08, 2.11, 2.14, 2.18, 2.21, 2.25, 2.28, 2.32, 2.35, 2.39, 2.38, 2.38, 2.37, 2.37, 2.37, 2.36, 2.36, 1.62, 1.61, 1.61, 1.61, 1.61, 1.6, 1.6, 1.6, 1.6, 1.59, 1.59, 1.62, 1.65, 1.68, 1.72, 1.75, 1.78, 2.29, 2.28, 2.28, 2.28, 2.27, 2.27, 2.27, 2.26, 2.26, 2.26, 2.25, 2.25, 2.25, 2.25, 2.24, 2.24, 2.24, 2.23, 2.23, 2.23, 2.22, 2.22, 2.22, 2.21, 2.21, 2.21, 2.21, 2.2, 2.2, 2.2, 2.19, 2.19, 2.19, 2.19, 2.18, 2.18, 2.18, 2.17, 2.17, 2.17, 2.17, 2.16, 2.16, 1.06, 1.06, 1.05, 1.05, 1.05, 1.05, 1.05, 1.05, 1.05, 1.05, 1.04, 1.04, 1.04, 1.04, 1.04, 1.04, 1.04, 1.03, 1.03, 1.03, 1.03, 1.03, 2.1, 2.09, 2.09, 2.09, 2.09, 2.08, 2.08, 2.08, 2.08, 2.07, 2.07, 2.07, 2.06, 2.06, 2.06, 2.06, 2.05, 2.05, 2.05, 2.04, 2.04, 2.04, 2.03, 2.03, 2.03, 2.03, 2.02, 2.02, 2.02, 2.01, 2.01, 2.01, 2.0, 2.0, 2.0, 1.99, 1.99, 1.99, 1.98, 1.98, 1.98, 1.97, 1.97, 1.97, 1.96, 1.96, 1.96, 1.95, 1.95, 1.95, 1.94, 1.94, 1.94, 1.93, 1.93, 1.92, 1.92, 1.92, 1.91, 1.91, 1.9, 1.9, 1.9, 1.89]
15 [1.55, 1.58, 1.6, 1.63, 1.65, 1.68, 1.7, 1.73, 1.75, 1.78, 1.81, 1.83, 1.86, 1.89, 1.92, 1.95, 1.98, 2.01, 2.04, 2.07, 2.1, 2.13, 2.17, 2.2, 2.24, 2.27, 2.31, 2.34, 2.38, 2.37, 2.37, 2.36, 2.36, 2.35, 2.35, 2.34, 1.6, 1.6, 1.6, 1.59, 1.59, 1.59, 1.59, 1.58, 1.58, 1.58, 1.58, 1.61, 1.64, 1.67, 1.7, 1.73, 1.77, 2.27, 2.27, 2.27, 2.26, 2.26, 2.26, 2.25, 2.25, 2.25, 2.24, 2.24, 2.24, 2.23, 2.23, 2.23, 2.22, 2.22, 2.22, 2.22, 2.21, 2.21, 2.21, 2.2, 2.2, 2.2, 2.19, 2.19, 2.19, 2.19, 2.18, 2.18, 2.18, 2.17, 2.17, 2.17, 2.16, 2.16, 2.16, 2.16, 2.15, 2.15, 2.15, 2.15, 2.14, 1.04, 1.04, 1.04, 1.04, 1.03, 1.03, 1.03, 1.03, 1.03, 1.03, 1.03, 1.03, 1.02, 1.02, 1.02, 1.02, 1.02, 1.02, 1.02, 1.01, 1.01, 1.01, 2.08, 2.08, 2.07, 2.07, 2.07, 2.06, 2.06, 2.06, 2.06, 2.05, 2.05, 2.05, 2.04, 2.04, 2.04, 2.04, 2.03, 2.03, 2.03, 2.02, 2.02, 2.02, 2.01, 2.01, 2.01, 2.01, 2.0, 2.0, 2.0, 1.99, 1.99, 1.99, 1.98, 1.98, 1.98, 1.97, 1.97, 1.97, 1.96, 1.96, 1.96, 1.95, 1.95, 1.95, 1.94, 1.94, 1.94, 1.93, 1.93, 1.93, 1.92, 1.92, 1.91, 1.91, 1.91, 1.9, 1.9, 1.89, 1.89, 1.89, 1.88, 1.88, 1.87]
16 [1.55, 1.58, 1.6, 1.63, 1.65, 1.68, 1.7, 1.73, 1.75, 1.78, 1.81, 1.83, 1.86, 1.89, 1.92, 1.95, 1.98, 2.01, 2.04, 2.07, 2.1, 2.13, 2.17, 2.2, 2.24, 2.27, 2.31, 2.34, 2.38, 2.37, 2.37, 2.36, 2.36, 2.35, 2.35, 2.34, 1.6, 1.6, 1.6, 1.59, 1.59, 1.59, 1.59, 1.58, 1.58, 1.58, 1.58, 1.61, 1.64, 1.67, 1.7, 1.73, 1.77, 2.27, 2.27, 2.27, 2.26, 2.26, 2.26, 2.25, 2.25, 2.25, 2.24, 2.24, 2.24, 2.23, 2.23, 2.23, 2.22, 2.22, 2.22, 2.22, 2.21, 2.21, 2.21, 2.2, 2.2, 2.2, 2.19, 2.19, 2.19, 2.19, 2.18, 2.18, 2.18, 2.17, 2.17, 2.17, 2.16, 2.16, 2.16, 2.16, 2.15, 2.15, 2.15, 2.15, 2.14, 1.04, 1.04, 1.04, 1.04, 1.03, 1.03, 1.03, 1.03, 1.03, 1.03, 1.03, 1.03, 1.02, 1.02, 1.02, 1.02, 1.02, 1.02, 1.02, 1.01, 1.01, 1.01, 2.08, 2.08, 2.07, 2.07, 2.07, 2.06, 2.06, 2.06, 2.06, 2.05, 2.05, 2.05, 2.04, 2.04, 2.04, 2.04, 2.03, 2.03, 2.03, 2.02, 2.02, 2.02, 2.01, 2.01, 2.01, 2.01, 2.0, 2.0, 2.0, 1.99, 1.99, 1.99, 1.98, 1.98, 1.98, 1.97, 1.97, 1.97, 1.96, 1.96, 1.96, 1.95, 1.95, 1.95, 1.94, 1.94, 1.94, 1.93, 1.93, 1.93, 1.92, 1.92, 1.91, 1.91, 1.91, 1.9, 1.9, 1.89, 1.89, 1.89, 1.88, 1.88, 1.87]
17 [1.55, 1.57, 1.6, 1.62, 1.65, 1.67, 1.7, 1.72, 1.75, 1.77, 1.8, 1.83, 1.86, 1.88, 1.91, 1.94, 1.97, 2.0, 2.03, 2.06, 2.09, 2.13, 2.16, 2.19, 2.23, 2.26, 2.3, 2.33, 2.36, 2.36, 2.35, 2.35, 2.35, 2.34, 2.34, 1.59, 1.59, 1.59, 1.58, 1.58, 1.58, 1.58, 1.57, 1.57, 1.57, 1.57, 1.57, 1.6, 1.63, 1.66, 1.69, 1.72, 1.76, 2.26, 2.26, 2.25, 2.25, 2.25, 2.24, 2.24, 2.24, 2.23, 2.23, 2.23, 2.22, 2.22, 2.22, 2.21, 2.21, 2.21, 2.21, 2.2, 2.2, 2.2, 2.19, 2.19, 2.19, 2.18, 2.18, 2.18, 2.17, 2.17, 2.17, 2.17, 2.16, 2.16, 2.16, 2.15, 2.15, 2.15, 2.15, 2.14, 2.14, 2.14, 2.13, 2.13, 2.13, 1.03, 1.02, 1.02, 1.02, 1.02, 1.02, 1.02, 1.02, 1.02, 1.01, 1.01, 1.01, 1.01, 1.01, 1.01, 1.01, 1.0, 1.0, 1.0, 1.0, 1.0, 1.0, 1.0, 2.06, 2.06, 2.06, 2.05, 2.05, 2.05, 2.04, 2.04, 2.04, 2.04, 2.03, 2.03, 2.03, 2.02, 2.02, 2.02, 2.02, 2.01, 2.01, 2.01, 2.0, 2.0, 2.0, 1.99, 1.99, 1.99, 1.98, 1.98, 1.98, 1.98, 1.97, 1.97, 1.97, 1.96, 1.96, 1.96, 1.95, 1.95, 1.95, 1.94, 1.94, 1.94, 1.93, 1.93, 1.93, 1.92, 1.92, 1.91, 1.91, 1.91, 1.9, 1.9, 1.9, 1.89, 1.89, 1.88, 1.88, 1.88, 1.87, 1.87, 1.86, 1.86]
18 [1.55, 1.57, 1.6, 1.62, 1.64, 1.67, 1.69, 1.72, 1.75, 1.77, 1.8, 1.83, 1.85, 1.88, 1.91, 1.94, 1.97, 2.0, 2.03, 2.06, 2.09, 2.12, 2.16, 2.19, 2.22, 2.26, 2.29, 2.33, 2.36, 2.35, 2.35, 2.34, 2.34, 2.33, 2.33, 1.58, 1.58, 1.58, 1.58, 1.57, 1.57, 1.57, 1.56, 1.56, 1.56, 1.56, 1.56, 1.59, 1.62, 1.65, 1.68, 1.72, 1.75, 2.25, 2.25, 2.25, 2.24, 2.24, 2.24, 2.23, 2.23, 2.23, 2.22, 2.22, 2.22, 2.21, 2.21, 2.21, 2.2, 2.2, 2.2, 2.19, 2.19, 2.19, 2.18, 2.18, 2.18, 2.17, 2.17, 2.17, 2.17, 2.16, 2.16, 2.16, 2.15, 2.15, 2.15, 2.14, 2.14, 2.14, 2.14, 2.13, 2.13, 2.13, 2.12, 2.12, 2.12, 1.02, 1.02, 1.01, 1.01, 1.01, 1.01, 1.01, 1.01, 1.01, 1.0, 1.0, 1.0, 1.0, 1.0, 1.0, 1.0, 1.0, 0.99, 0.99, 0.99, 0.99, 0.99, 0.99, 2.05, 2.05, 2.05, 2.04, 2.04, 2.04, 2.03, 2.03, 2.03, 2.03, 2.02, 2.02, 2.02, 2.01, 2.01, 2.01, 2.01, 2.0, 2.0, 2.0, 1.99, 1.99, 1.99, 1.98, 1.98, 1.98, 1.98, 1.97, 1.97, 1.97, 1.96, 1.96, 1.96, 1.95, 1.95, 1.95, 1.94, 1.94, 1.94, 1.93, 1.93, 1.93, 1.92, 1.92, 1.92, 1.91, 1.91, 1.9, 1.9, 1.9, 1.89, 1.89, 1.89, 1.88, 1.88, 1.87, 1.87, 1.87, 1.86, 1.86, 1.85, 1.85]
19 [1.54, 1.57, 1.59, 1.62, 1.64, 1.66, 1.69, 1.72, 1.74, 1.77, 1.79, 1.82, 1.85, 1.88, 1.9, 1.93, 1.96, 1.99, 2.02, 2.05, 2.08, 2.12, 2.15, 2.18, 2.22, 2.25, 2.28, 2.32, 2.35, 2.35, 2.34, 2.34, 2.33, 2.33, 2.32, 1.58, 1.58, 1.57, 1.57, 1.57, 1.56, 1.56, 1.56, 1.56, 1.55, 1.55, 1.56, 1.59, 1.61, 1.64, 1.68, 1.71, 1.74, 2.25, 2.24, 2.24, 2.24, 2.23, 2.23, 2.23, 2.22, 2.22, 2.22, 2.21, 2.21, 2.21, 2.2, 2.2, 2.2, 2.19, 2.19, 2.19, 2.18, 2.18, 2.18, 2.17, 2.17, 2.17, 2.17, 2.16, 2.16, 2.16, 2.15, 2.15, 2.15, 2.14, 2.14, 2.14, 2.14, 2.13, 2.13, 2.13, 2.12, 2.12, 2.12, 2.12, 2.11, 2.11, 1.01, 1.01, 1.01, 1.0, 1.0, 1.0, 1.0, 1.0, 1.0, 1.0, 0.99, 0.99, 0.99, 0.99, 0.99, 0.99, 0.99, 0.99, 0.98, 0.98, 0.98, 0.98, 2.04, 2.04, 2.04, 2.04, 2.03, 2.03, 2.03, 2.02, 2.02, 2.02, 2.02, 2.01, 2.01, 2.01, 2.0, 2.0, 2.0, 1.99, 1.99, 1.99, 1.99, 1.98, 1.98, 1.98, 1.97, 1.97, 1.97, 1.96, 1.96, 1.96, 1.95, 1.95, 1.95, 1.94, 1.94, 1.94, 1.93, 1.93, 1.93, 1.92, 1.92, 1.92, 1.91, 1.91, 1.91, 1.9, 1.9, 1.9, 1.89, 1.89, 1.88, 1.88, 1.88, 1.87, 1.87, 1.86, 1.86, 1.86, 1.85, 1.85, 1.84, 1.84]
20 [1.54, 1.57, 1.59, 1.62, 1.64, 1.67, 1.69, 1.72, 1.74, 1.77, 1.8, 1.82, 1.85, 1.88, 1.91, 1.94, 1.96, 1.99, 2.02, 2.06, 2.09, 2.12, 2.15, 2.18, 2.22, 2.25, 2.29, 2.32, 2.34, 2.33, 2.33, 2.32, 2.32, 2.32, 2.31, 1.57, 1.56, 1.56, 1.56, 1.56, 1.55, 1.55, 1.55, 1.54, 1.54, 1.54, 1.56, 1.59, 1.62, 1.65, 1.68, 1.71, 2.24, 2.24, 2.23, 2.23, 2.23, 2.22, 2.22, 2.22, 2.21, 2.21, 2.21, 2.2, 2.2, 2.2, 2.19, 2.19, 2.19, 2.18, 2.18, 2.18, 2.17, 2.17, 2.17, 2.16, 2.16, 2.16, 2.16, 2.15, 2.15, 2.15, 2.14, 2.14, 2.14, 2.13, 2.13, 2.13, 2.13, 2.12, 2.12, 2.12, 2.11, 2.11, 2.11, 2.11, 2.1, 2.1, 1.0, 1.0, 1.0, 1.0, 0.99, 0.99, 0.99, 0.99, 0.99, 0.99, 0.99, 0.99, 0.98, 0.98, 0.98, 0.98, 0.98, 0.98, 0.98, 0.97, 0.97, 0.97, 2.04, 2.03, 2.03, 2.03, 2.03, 2.02, 2.02, 2.02, 2.01, 2.01, 2.01, 2.01, 2.0, 2.0, 2.0, 1.99, 1.99, 1.99, 1.98, 1.98, 1.98, 1.98, 1.97, 1.97, 1.97, 1.96, 1.96, 1.96, 1.95, 1.95, 1.95, 1.94, 1.94, 1.94, 1.94, 1.93, 1.93, 1.93, 1.92, 1.92, 1.92, 1.91, 1.91, 1.9, 1.9, 1.9, 1.89, 1.89, 1.89, 1.88, 1.88, 1.88, 1.87, 1.87, 1.86, 1.86, 1.86, 1.85, 1.85, 1.84, 10.0, 0.0]
21 [1.55, 1.57, 1.6, 1.62, 1.64, 1.67, 1.69, 1.72, 1.75, 1.77, 1.8, 1.83, 1.85, 1.88, 1.91, 1.94, 1.97, 2.0, 2.03, 2.06, 2.09, 2.13, 2.16, 2.19, 2.23, 2.26, 2.3, 2.33, 2.32, 2.32, 2.31, 2.31, 2.3, 2.3, 1.56, 1.55, 1.55, 1.55, 1.54, 1.54, 1.54, 1.54, 1.53, 1.53, 1.53, 1.54, 1.57, 1.59, 1.62, 1.65, 1.69, 1.72, 2.23, 2.22, 2.22, 2.22, 2.21, 2.21, 2.21, 2.2, 2.2, 2.2, 2.19, 2.19, 2.19, 2.18, 2.18, 2.18, 2.17, 2.17, 2.17, 2.17, 2.16, 2.16, 2.16, 2.15, 2.15, 2.15, 2.14, 2.14, 2.14, 2.14, 2.13, 2.13, 2.13, 2.12, 2.12, 2.12, 2.12, 2.11, 2.11, 2.11, 2.11, 2.1, 2.1, 2.1, 2.09, 0.99, 0.99, 0.99, 0.99, 0.99, 0.99, 0.98, 0.98, 0.98, 0.98, 0.98, 0.98, 0.98, 0.98, 0.97, 0.97, 0.97, 0.97, 0.97, 0.97, 0.97, 0.97, 0.96, 2.03, 2.03, 2.02, 2.02, 2.02, 2.02, 2.01, 2.01, 2.01, 2.0, 2.0, 2.0, 2.0, 1.99, 1.99, 1.99, 1.98, 1.98, 1.98, 1.98, 1.97, 1.97, 1.97, 1.96, 1.96, 1.96, 1.96, 1.95, 1.95, 1.95, 1.94, 1.94, 1.94, 1.93, 1.93, 1.93, 1.92, 1.92, 1.92, 1.91, 1.91, 1.91, 1.9, 1.9, 1.9, 1.89, 1.89, 1.89, 1.88, 1.88, 1.88, 1.87, 1.87, 1.86, 1.86, 1.86, 1.85, 1.85, 1.85, 1.84, 1.84, 1.83]
22 [1.55, 1.57, 1.6, 1.62, 1.65, 1.67, 1.7, 1.72, 1.75, 1.78, 1.8, 1.83, 1.86, 1.89, 1.91, 1.94, 1.97, 2.0, 2.03, 2.07, 2.1, 2.13, 2.16, 2.2, 2.23, 2.26, 2.3, 2.32, 2.31, 2.31, 2.3, 2.3, 2.29, 2.29, 1.55, 1.54, 1.54, 1.54, 1.54, 1.53, 1.53, 1.53, 1.53, 1.52, 1.52, 1.54, 1.57, 1.6, 1.63, 1.66, 1.69, 2.22, 2.22, 2.21, 2.21, 2.21, 2.2, 2.2, 2.2, 2.19, 2.19, 2.19, 2.19, 2.18, 2.18, 2.18, 2.17, 2.17, 2.17, 2.16, 2.16, 2.16, 2.16, 2.15, 2.15, 2.15, 2.14, 2.14, 2.14, 2.13, 2.13, 2.13, 2.13, 2.12, 2.12, 2.12, 2.12, 2.11, 2.11, 2.11, 2.1, 2.1, 2.1, 2.1, 2.09, 2.09, 2.09, 0.99, 0.99, 0.98, 0.98, 0.98, 0.98, 0.98, 0.98, 0.98, 0.98, 0.97, 0.97, 0.97, 0.97, 0.97, 0.97, 0.97, 0.97, 0.96, 0.96, 0.96, 0.96, 0.96, 2.02, 2.02, 2.02, 2.02, 2.01, 2.01, 2.01, 2.01, 2.0, 2.0, 2.0, 1.99, 1.99, 1.99, 1.99, 1.98, 1.98, 1.98, 1.97, 1.97, 1.97, 1.97, 1.96, 1.96, 1.96, 1.95, 1.95, 1.95, 1.95, 1.94, 1.94, 1.94, 1.93, 1.93, 1.93, 1.92, 1.92, 1.92, 1.91, 1.91, 1.91, 1.9, 1.9, 1.9, 1.89, 1.89, 1.89, 1.88, 1.88, 1.88, 1.87, 1.87, 1.87, 1.86, 1.86, 1.85, 1.85, 1.85, 1.84, 1.84, 1.84, 1.83]
23 [1.55, 1.57, 1.59, 1.62, 1.64, 1.67, 1.69, 1.72, 1.75, 1.77, 1.8, 1.83, 1.85, 1.88, 1.91, 1.94, 1.97, 2.0, 2.03, 2.06, 2.09, 2.12, 2.16, 2.19, 2.23, 2.26, 2.3, 2.32, 2.31, 2.31, 2.3, 2.3, 2.29, 2.29, 1.55, 1.54, 1.54, 1.54, 1.53, 1.53, 1.53, 1.53, 1.52, 1.52, 1.52, 1.54, 1.56, 1.59, 1.62, 1.65, 1.69, 2.22, 2.22, 2.21, 2.21, 2.21, 2.2, 2.2, 2.2, 2.19, 2.19, 2.19, 2.18, 2.18, 2.18, 2.17, 2.17, 2.17, 2.16, 2.16, 2.16, 2.16, 2.15, 2.15, 2.15, 2.14, 2.14, 2.14, 2.14, 2.13, 2.13, 2.13, 2.12, 2.12, 2.12, 2.12, 2.11, 2.11, 2.11, 2.1, 2.1, 2.1, 2.1, 2.09, 2.09, 2.09, 2.09, 0.98, 0.98, 0.98, 0.98, 0.98, 0.98, 0.98, 0.97, 0.97, 0.97, 0.97, 0.97, 0.97, 0.97, 0.97, 0.96, 0.96, 0.96, 0.96, 0.96, 0.96, 0.96, 0.96, 0.95, 2.02, 2.02, 2.01, 2.01, 2.01, 2.0, 2.0, 2.0, 2.0, 1.99, 1.99, 1.99, 1.98, 1.98, 1.98, 1.98, 1.97, 1.97, 1.97, 1.96, 1.96, 1.96, 1.96, 1.95, 1.95, 1.95, 1.94, 1.94, 1.94, 1.94, 1.93, 1.93, 1.93, 1.92, 1.92, 1.92, 1.91, 1.91, 1.91, 1.9, 1.9, 1.9, 1.89, 1.89, 1.89, 1.88, 1.88, 1.88, 1.87, 1.87, 1.86, 1.86, 1.86, 1.85, 1.85, 1.85, 1.84, 1.84, 1.83, 1.83, 1.83]
24 [1.54, 1.56, 1.59, 1.61, 1.64, 1.66, 1.69, 1.71, 1.74, 1.76, 1.79, 1.82, 1.84, 1.87, 1.9, 1.93, 1.96, 1.99, 2.02, 2.05, 2.08, 2.11, 2.14, 2.18, 2.21, 2.25, 2.28, 2.32, 2.32, 2.31, 2.31, 2.31, 2.3, 2.3, 1.55, 1.55, 1.54, 1.54, 1.54, 1.54, 1.53, 1.53, 1.53, 1.52, 1.52, 1.52, 1.55, 1.58, 1.61, 1.64, 1.67, 1.7, 2.22, 2.22, 2.21, 2.21, 2.21, 2.2, 2.2, 2.2, 2.19, 2.19, 2.19, 2.18, 2.18, 2.18, 2.17, 2.17, 2.17, 2.16, 2.16, 2.16, 2.15, 2.15, 2.15, 2.15, 2.14, 2.14, 2.14, 2.13, 2.13, 2.13, 2.12, 2.12, 2.12, 2.12, 2.11, 2.11, 2.11, 2.1, 2.1, 2.1, 2.1, 2.09, 2.09, 2.09, 2.08, 2.08, 0.98, 0.98, 0.98, 0.98, 0.98, 0.97, 0.97, 0.97, 0.97, 0.97, 0.97, 0.97, 0.97, 0.96, 0.96, 0.96, 0.96, 0.96, 0.96, 0.96, 0.95, 0.95, 0.95, 2.02, 2.01, 2.01, 2.01, 2.0, 2.0, 2.0, 2.0, 1.99, 1.99, 1.99, 1.98, 1.98, 1.98, 1.98, 1.97, 1.97, 1.97, 1.96, 1.96, 1.96, 1.95, 1.95, 1.95, 1.95, 1.94, 1.94, 1.94, 1.93, 1.93, 1.93, 1.92, 1.92, 1.92, 1.91, 1.91, 1.91, 1.9, 1.9, 1.9, 1.89, 1.89, 1.89, 1.88, 1.88, 1.88, 1.87, 1.87, 1.86, 1.86, 1.86, 1.85, 1.85, 1.85, 1.84, 1.84, 1.83, 1.83, 1.83, 1.82, 1.82]
25 [1.54, 1.56, 1.59, 1.61, 1.63, 1.66, 1.68, 1.71, 1.73, 1.76, 1.79, 1.81, 1.84, 1.87, 1.9, 1.93, 1.95, 1.98, 2.01, 2.04, 2.08, 2.11, 2.14, 2.17, 2.21, 2.24, 2.27, 2.31, 2.32, 2.32, 2.31, 2.31, 2.3, 2.3, 2.3, 1.55, 1.55, 1.54, 1.54, 1.54, 1.54, 1.53, 1.53, 1.53, 1.52, 1.52, 1.54, 1.57, 1.6, 1.63, 1.66, 1.69, 2.22, 2.22, 2.22, 2.21, 2.21, 2.21, 2.2, 2.2, 2.2, 2.19, 2.19, 2.19, 2.18, 2.18, 2.18, 2.17, 2.17, 2.17, 2.16, 2.16, 2.16, 2.15, 2.15, 2.15, 2.14, 2.14, 2.14, 2.13, 2.13, 2.13, 2.13, 2.12, 2.12, 2.12, 2.11, 2.11, 2.11, 2.11, 2.1, 2.1, 2.1, 2.09, 2.09, 2.09, 2.09, 2.08, 0.98, 0.98, 0.98, 0.98, 0.98, 0.97, 0.97, 0.97, 0.97, 0.97, 0.97, 0.97, 0.97, 0.96, 0.96, 0.96, 0.96, 0.96, 0.96, 0.96, 0.95, 0.95, 0.95, 2.01, 2.01, 2.01, 2.01, 2.0, 2.0, 2.0, 1.99, 1.99, 1.99, 1.99, 1.98, 1.98, 1.98, 1.97, 1.97, 1.97, 1.97, 1.96, 1.96, 1.96, 1.95, 1.95, 1.95, 1.94, 1.94, 1.94, 1.93, 1.93, 1.93, 1.92, 1.92, 1.92, 1.91, 1.91, 1.91, 1.9, 1.9, 1.9, 1.89, 1.89, 1.89, 1.88, 1.88, 1.88, 1.87, 1.87, 1.87, 1.86, 1.86, 1.85, 1.85, 1.85, 1.84, 1.84, 1.83, 1.83, 1.83, 1.82, 1.82, 1.81]
26 [1.53, 1.56, 1.58, 1.6, 1.63, 1.65, 1.68, 1.7, 1.73, 1.75, 1.78, 1.81, 1.83, 1.86, 1.89, 1.92, 1.95, 1.97, 2.0, 2.03, 2.07, 2.1, 2.13, 2.16, 2.19, 2.23, 2.26, 2.3, 2.33, 2.33, 2.32, 2.32, 2.31, 2.31, 2.3, 1.55, 1.55, 1.55, 1.54, 1.54, 1.54, 1.54, 1.53, 1.53, 1.53, 1.53, 1.53, 1.56, 1.59, 1.62, 1.65, 1.68, 1.71, 2.22, 2.22, 2.22, 2.21, 2.21, 2.21, 2.2, 2.2, 2.2, 2.19, 2.19, 2.19, 2.18, 2.18, 2.18, 2.17, 2.17, 2.17, 2.16, 2.16, 2.16, 2.15, 2.15, 2.15, 2.14, 2.14, 2.14, 2.13, 2.13, 2.13, 2.12, 2.12, 2.12, 2.12, 2.11, 2.11, 2.11, 2.1, 2.1, 2.1, 2.09, 2.09, 2.09, 2.09, 2.08, 2.08, 0.98, 0.98, 0.98, 0.98, 0.97, 0.97, 0.97, 0.97, 0.97, 0.97, 0.97, 0.96, 0.96, 0.96, 0.96, 0.96, 0.96, 0.96, 0.95, 0.95, 0.95, 0.95, 0.95, 2.01, 2.01, 2.0, 2.0, 2.0, 2.0, 1.99, 1.99, 1.99, 1.98, 1.98, 1.98, 1.97, 1.97, 1.97, 1.97, 1.96, 1.96, 1.96, 1.95, 1.95, 1.95, 1.94, 1.94, 1.94, 1.93, 1.93, 1.93, 1.92, 1.92, 1.92, 1.91, 1.91, 1.91, 1.9, 1.9, 1.9, 1.89, 1.89, 1.89, 1.88, 1.88, 1.88, 1.87, 1.87, 1.86, 1.86, 1.86, 1.85, 1.85, 1.85, 1.84, 1.84, 1.83, 1.83, 1.82, 1.82, 1.82, 1.81, 1.81]
27 [1.53, 1.55, 1.57, 1.6, 1.62, 1.64, 1.67, 1.69, 1.72, 1.74, 1.77, 1.8, 1.82, 1.85, 1.88, 1.91, 1.93, 1.96, 1.99, 2.02, 2.05, 2.08, 2.12, 2.15, 2.18, 2.21, 2.25, 2.28, 2.32, 2.33, 2.33, 2.32, 2.32, 2.31, 2.31, 2.3, 1.55, 1.55, 1.55, 1.54, 1.54, 1.54, 1.54, 1.53, 1.53, 1.53, 1.52, 1.54, 1.57, 1.6, 1.63, 1.66, 1.69, 2.23, 2.22, 2.22, 2.22, 2.21, 2.21, 2.21, 2.2, 2.2, 2.19, 2.19, 2.19, 2.18, 2.18, 2.18, 2.17, 2.17, 2.17, 2.16, 2.16, 2.16, 2.15, 2.15, 2.15, 2.14, 2.14, 2.14, 2.13, 2.13, 2.13, 2.12, 2.12, 2.12, 2.11, 2.11, 2.11, 2.11, 2.1, 2.1, 2.1, 2.09, 2.09, 2.09, 2.08, 2.08, 2.08, 0.98, 0.98, 0.97, 0.97, 0.97, 0.97, 0.97, 0.97, 0.97, 0.96, 0.96, 0.96, 0.96, 0.96, 0.96, 0.96, 0.95, 0.95, 0.95, 0.95, 0.95, 0.95, 0.95, 0.94, 2.0, 2.0, 2.0, 1.99, 1.99, 1.99, 1.98, 1.98, 1.98, 1.98, 1.97, 1.97, 1.97, 1.96, 1.96, 1.96, 1.95, 1.95, 1.95, 1.94, 1.94, 1.94, 1.93, 1.93, 1.93, 1.92, 1.92, 1.92, 1.91, 1.91, 1.91, 1.9, 1.9, 1.9, 1.89, 1.89, 1.89, 1.88, 1.88, 1.87, 1.87, 1.87, 1.86, 1.86, 1.86, 1.85, 1.85, 1.84, 1.84, 1.84, 1.83, 1.83, 1.82, 1.82, 1.82, 1.81, 1.81, 1.8, 1.8]
28 [1.52, 1.54, 1.56, 1.58, 1.61, 1.63, 1.66, 1.68, 1.7, 1.73, 1.76, 1.78, 1.81, 1.83, 1.86, 1.89, 1.92, 1.95, 1.97, 2.0, 2.03, 2.06, 2.09, 2.13, 2.16, 2.19, 2.22, 2.26, 2.29, 2.33, 2.34, 2.34, 2.33, 2.33, 2.32, 2.32, 2.31, 1.56, 1.55, 1.55, 1.55, 1.54, 1.54, 1.54, 1.53, 1.53, 1.53, 1.52, 1.55, 1.57, 1.6, 1.63, 1.66, 1.69, 2.23, 2.23, 2.22, 2.22, 2.21, 2.21, 2.21, 2.2, 2.2, 2.19, 2.19, 2.19, 2.18, 2.18, 2.18, 2.17, 2.17, 2.16, 2.16, 2.16, 2.15, 2.15, 2.15, 2.14, 2.14, 2.14, 2.13, 2.13, 2.13, 2.12, 2.12, 2.12, 2.11, 2.11, 2.11, 2.1, 2.1, 2.1, 2.09, 2.09, 2.09, 2.08, 2.08, 2.08, 2.07, 2.07, 2.07, 0.97, 0.97, 0.97, 0.97, 0.96, 0.96, 0.96, 0.96, 0.96, 0.96, 0.96, 0.95, 0.95, 0.95, 0.95, 0.95, 0.95, 0.94, 0.94, 0.94, 0.94, 0.94, 0.94, 1.99, 1.99, 1.99, 1.98, 1.98, 1.98, 1.97, 1.97, 1.97, 1.96, 1.96, 1.96, 1.95, 1.95, 1.95, 1.94, 1.94, 1.94, 1.93, 1.93, 1.93, 1.92, 1.92, 1.92, 1.91, 1.91, 1.91, 1.9, 1.9, 1.9, 1.89, 1.89, 1.88, 1.88, 1.88, 1.87, 1.87, 1.87, 1.86, 1.86, 1.85, 1.85, 1.85, 1.84, 1.84, 1.83, 1.83, 1.83, 1.82, 1.82, 1.81, 1.81, 1.8, 1.8, 1.8, 1.79, 0.0, 0.0]
29 [1.5, 1.52, 1.55, 1.57, 1.59, 1.62, 1.64, 1.66, 1.69, 1.71, 1.74, 1.76, 1.79, 1.81, 1.84, 1.87, 1.9, 1.92, 1.95, 1.98, 2.01, 2.04, 2.07, 2.1, 2.13, 2.16, 2.19, 2.23, 2.26, 2.29, 2.33, 2.36, 2.35, 2.34, 2.34, 2.33, 2.33, 2.32, 1.56, 1.56, 1.56, 1.55, 1.55, 1.55, 1.54, 1.54, 1.54, 1.53, 1.53, 1.54, 1.57, 1.6, 1.63, 1.66, 1.69, 1.72, 2.23, 2.23, 2.22, 2.22, 2.22, 2.21, 2.21, 2.2, 2.2, 2.19, 2.19, 2.19, 2.18, 2.18, 2.18, 2.17, 2.17, 2.16, 2.16, 2.16, 2.15, 2.15, 2.15, 2.14, 2.14, 2.13, 2.13, 2.13, 2.12, 2.12, 2.12, 2.11, 2.11, 2.11, 2.1, 2.1, 2.1, 2.09, 2.09, 2.09, 2.08, 2.08, 2.07, 2.07, 2.07, 2.06, 0.97, 0.96, 0.96, 0.96, 0.96, 0.96, 0.96, 0.96, 0.95, 0.95, 0.95, 0.95, 0.95, 0.95, 0.94, 0.94, 0.94, 0.94, 0.94, 0.94, 0.94, 0.93, 0.93, 0.93, 1.98, 1.98, 1.97, 1.97, 1.97, 1.96, 1.96, 1.96, 1.95, 1.95, 1.95, 1.94, 1.94, 1.94, 1.93, 1.93, 1.93, 1.92, 1.92, 1.91, 1.91, 1.91, 1.9, 1.9, 1.9, 1.89, 1.89, 1.88, 1.88, 1.88, 1.87, 1.87, 1.87, 1.86, 1.86, 1.85, 1.85, 1.85, 1.84, 1.84, 1.83, 1.83, 1.82, 1.82, 1.82, 1.81, 1.81, 1.8, 1.8, 1.79, 1.79, 1.78, 1.78, 1.77, 1.77, 1.77]
30 [1.49, 1.51, 1.53, 1.55, 1.57, 1.6, 1.62, 1.64, 1.67, 1.69, 1.72, 1.74, 1.76, 1.79, 1.82, 1.84, 1.87, 1.9, 1.92, 1.95, 1.98, 2.01, 2.04, 2.07, 2.1, 2.13, 2.16, 2.19, 2.22, 2.25, 2.29, 2.32, 2.36, 2.37, 2.37, 2.36, 2.36, 2.35, 2.34, 2.34, 1.57, 1.57, 1.57, 1.56, 1.56, 1.55, 1.55, 1.55, 1.54, 1.54, 1.54, 1.55, 1.58, 1.61, 1.64, 1.67, 1.7, 1.73, 2.24, 2.24, 2.23, 2.23, 2.22, 2.22, 2.21, 2.21, 2.2, 2.2, 2.2, 2.19, 2.19, 2.18, 2.18, 2.18, 2.17, 2.17, 2.16, 2.16, 2.16, 2.15, 2.15, 2.14, 2.14, 2.14, 2.13, 2.13, 2.12, 2.12, 2.12, 2.11, 2.11, 2.1, 2.1, 2.1, 2.09, 2.09, 2.09, 2.08, 2.08, 2.07, 2.07, 2.07, 2.06, 2.06, 0.96, 0.96, 0.96, 0.96, 0.96, 0.96, 0.95, 0.95, 0.95, 0.95, 0.95, 0.94, 0.94, 0.94, 0.94, 0.94, 0.94, 0.93, 0.93, 0.93, 0.93, 0.93, 0.93, 0.92, 1.97, 1.97, 1.96, 1.96, 1.95, 1.95, 1.95, 1.94, 1.94, 1.94, 1.93, 1.93, 1.92, 1.92, 1.92, 1.91, 1.91, 1.91, 1.9, 1.9, 1.89, 1.89, 1.89, 1.88, 1.88, 1.87, 1.87, 1.87, 1.86, 1.86, 1.85, 1.85, 1.84, 1.84, 1.84, 1.83, 1.83, 1.82, 1.82, 1.81, 1.81, 1.8, 1.8, 1.8, 1.79, 1.79, 1.78, 1.78, 1.77, 1.77, 1.76, 1.76, 10.0, 0.0]
31 [1.46, 1.48, 1.51, 1.53, 1.55, 1.57, 1.59, 1.62, 1.64, 1.66, 1.69, 1.71, 1.73, 1.76, 1.78, 1.81, 1.83, 1.86, 1.88, 1.91, 1.94, 1.96, 1.99, 2.02, 2.05, 2.08, 2.11, 2.14, 2.17, 2.2, 2.23, 2.26, 2.3, 2.33, 2.36, 2.4, 2.4, 2.39, 2.39, 2.38, 2.37, 2.37, 1.59, 1.59, 1.58, 1.58, 1.57, 1.57, 1.57, 1.56, 1.56, 1.55, 1.55, 1.55, 1.58, 1.6, 1.63, 1.66, 1.69, 1.72, 2.26, 2.25, 2.25, 2.24, 2.24, 2.23, 2.23, 2.22, 2.22, 2.21, 2.21, 2.2, 2.2, 2.19, 2.19, 2.18, 2.18, 2.17, 2.17, 2.17, 2.16, 2.16, 2.15, 2.15, 2.14, 2.14, 2.14, 2.13, 2.13, 2.12, 2.12, 2.11, 2.11, 2.11, 2.1, 2.1, 2.09, 2.09, 2.08, 2.08, 2.08, 2.07, 2.07, 2.06, 2.06, 2.06, 2.05, 0.96, 0.96, 0.96, 0.95, 0.95, 0.95, 0.95, 0.95, 0.94, 0.94, 0.94, 0.94, 0.94, 0.93, 0.93, 0.93, 0.93, 0.93, 0.93, 0.92, 0.92, 0.92, 0.92, 1.96, 1.95, 1.95, 1.94, 1.94, 1.93, 1.93, 1.93, 1.92, 1.92, 1.91, 1.91, 1.91, 1.9, 1.9, 1.89, 1.89, 1.88, 1.88, 1.88, 1.87, 1.87, 1.86, 1.86, 1.85, 1.85, 1.84, 1.84, 1.84, 1.83, 1.83, 1.82, 1.82, 1.81, 1.81, 1.8, 1.8, 1.79, 1.79, 1.78, 1.78, 1.77, 1.77, 1.76, 1.76, 1.75, 1.75, 1.74, 1.74, 1.73, 1.73, 1.72]
32 [1.44, 1.46, 1.48, 1.5, 1.52, 1.54, 1.56, 1.58, 1.6, 1.63, 1.65, 1.67, 1.69, 1.72, 1.74, 1.76, 1.79, 1.81, 1.84, 1.86, 1.89, 1.91, 1.94, 1.97, 1.99, 2.02, 2.05, 2.08, 2.1, 2.13, 2.16, 2.19, 2.22, 2.26, 2.29, 2.32, 2.35, 2.39, 2.42, 2.44, 2.43, 2.42, 2.41, 2.41, 2.4, 2.39, 1.61, 1.6, 1.6, 1.59, 1.59, 1.58, 1.58, 1.58, 1.57, 1.57, 1.56, 1.58, 1.61, 1.63, 1.66, 1.69, 1.72, 1.75, 2.27, 2.26, 2.26, 2.25, 2.25, 2.24, 2.24, 2.23, 2.22, 2.22, 2.21, 2.21, 2.2, 2.2, 2.19, 2.19, 2.18, 2.18, 2.17, 2.17, 2.16, 2.16, 2.15, 2.15, 2.14, 2.14, 2.13, 2.13, 2.12, 2.12, 2.11, 2.11, 2.1, 2.1, 2.09, 2.09, 2.09, 2.08, 2.08, 2.07, 2.07, 2.06, 2.06, 2.05, 2.05, 2.04, 0.95, 0.95, 0.95, 0.95, 0.95, 0.94, 0.94, 0.94, 0.94, 0.94, 0.93, 0.93, 0.93, 0.93, 0.93, 0.92, 0.92, 0.92, 0.92, 0.91, 0.91, 0.91, 0.91, 0.91, 1.93, 1.93, 1.92, 1.92, 1.91, 1.91, 1.9, 1.9, 1.89, 1.89, 1.88, 1.88, 1.87, 1.87, 1.87, 1.86, 1.86, 1.85, 1.85, 1.84, 1.84, 1.83, 1.83, 1.82, 1.82, 1.81, 1.81, 1.8, 1.8, 1.79, 1.79, 1.78, 1.77, 1.77, 1.76, 1.76, 1.75, 1.75, 1.74, 1.74, 1.73, 1.73, 1.72, 1.71, 1.71, 1.7, 1.7, 1.69]
33 [1.39, 1.41, 1.43, 1.45, 1.47, 1.49, 1.51, 1.53, 1.55, 1.57, 1.59, 1.61, 1.63, 1.65, 1.67, 1.69, 1.71, 1.73, 1.76, 1.78, 1.8, 1.83, 1.85, 1.87, 1.9, 1.92, 1.95, 1.97, 2.0, 2.02, 2.05, 2.08, 2.1, 2.13, 2.16, 2.19, 2.22, 2.24, 2.27, 2.3, 2.34, 2.37, 2.4, 2.43, 2.47, 2.5, 2.5, 2.49, 2.48, 2.47, 2.46, 2.45, 1.65, 1.64, 1.64, 1.63, 1.63, 1.62, 1.62, 1.61, 1.61, 1.6, 1.6, 1.59, 1.61, 1.64, 1.67, 1.7, 1.73, 1.76, 2.3, 2.3, 2.29, 2.28, 2.28, 2.27, 2.26, 2.26, 2.25, 2.24, 2.24, 2.23, 2.22, 2.22, 2.21, 2.2, 2.2, 2.19, 2.19, 2.18, 2.17, 2.17, 2.16, 2.16, 2.15, 2.14, 2.14, 2.13, 2.13, 2.12, 2.11, 2.11, 2.1, 2.1, 2.09, 2.09, 2.08, 2.07, 2.07, 2.06, 2.06, 2.05, 2.05, 2.04, 2.03, 2.03, 2.02, 0.95, 0.94, 0.94, 0.94, 0.94, 0.93, 0.93, 0.93, 0.93, 0.92, 0.92, 0.92, 0.92, 0.91, 0.91, 0.91, 0.91, 0.9, 0.9, 0.9, 0.9, 0.89, 0.89, 1.89, 1.89, 1.88, 1.87, 1.87, 1.86, 1.86, 1.85, 1.85, 1.84, 1.83, 1.83, 1.82, 1.82, 1.81, 1.81, 1.8, 1.79, 1.79, 1.78, 1.78, 1.77, 1.76, 1.76, 1.75, 1.75, 1.74, 1.73, 1.73, 1.72, 1.71, 1.71, 1.7, 1.69, 1.69, 1.68, 1.67, 1.67, 1.66, 1.65, 1.65, 1.64]
34 [1.39, 1.41, 1.43, 1.45, 1.47, 1.49, 1.51, 1.53, 1.55, 1.57, 1.59, 1.61, 1.63, 1.65, 1.67, 1.69, 1.71, 1.73, 1.76, 1.78, 1.8, 1.83, 1.85, 1.87, 1.9, 1.92, 1.95, 1.97, 2.0, 2.02, 2.05, 2.08, 2.1, 2.13, 2.16, 2.19, 2.22, 2.24, 2.27, 2.3, 2.34, 2.37, 2.4, 2.43, 2.47, 2.5, 2.5, 2.49, 2.48, 2.47, 2.46, 2.45, 1.65, 1.64, 1.64, 1.63, 1.63, 1.62, 1.62, 1.61, 1.61, 1.6, 1.6, 1.59, 1.61, 1.64, 1.67, 1.7, 1.73, 1.76, 2.3, 2.3, 2.29, 2.28, 2.28, 2.27, 2.26, 2.26, 2.25, 2.24, 2.24, 2.23, 2.22, 2.22, 2.21, 2.2, 2.2, 2.19, 2.19, 2.18, 2.17, 2.17, 2.16, 2.16, 2.15, 2.14, 2.14, 2.13, 2.13, 2.12, 2.11, 2.11, 2.1, 2.1, 2.09, 2.09, 2.08, 2.07, 2.07, 2.06, 2.06, 2.05, 2.05, 2.04, 2.03, 2.03, 2.02, 0.95, 0.94, 0.94, 0.94, 0.94, 0.93, 0.93, 0.93, 0.93, 0.92, 0.92, 0.92, 0.92, 0.91, 0.91, 0.91, 0.91, 0.9, 0.9, 0.9, 0.9, 0.89, 0.89, 1.89, 1.89, 1.88, 1.87, 1.87, 1.86, 1.86, 1.85, 1.85, 1.84, 1.83, 1.83, 1.82, 1.82, 1.81, 1.81, 1.8, 1.79, 1.79, 1.78, 1.78, 1.77, 1.76, 1.76, 1.75, 1.75, 1.74, 1.73, 1.73, 1.72, 1.71, 1.71, 1.7, 1.69, 1.69, 1.68, 1.67, 1.67, 1.66, 1.65, 1.65, 1.64]
35 [1.37, 1.39, 1.4, 1.42, 1.44, 1.46, 1.48, 1.49, 1.51, 1.53, 1.55, 1.57, 1.59, 1.61, 1.63, 1.65, 1.67, 1.69, 1.71, 1.73, 1.75, 1.78, 1.8, 1.82, 1.84, 1.86, 1.89, 1.91, 1.93, 1.96, 1.98, 2.01, 2.03, 2.06, 2.08, 2.11, 2.14, 2.16, 2.19, 2.22, 2.25, 2.28, 2.31, 2.34, 2.37, 2.4, 2.43, 2.46, 2.49, 2.53, 2.55, 2.54, 2.53, 2.52, 2.51, 2.5, 2.49, 1.68, 1.67, 1.66, 1.66, 1.65, 1.64, 1.64, 1.63, 1.63, 1.62, 1.61, 1.62, 1.64, 1.67, 1.7, 1.73, 1.76, 1.79, 2.32, 2.31, 2.31, 2.3, 2.29, 2.28, 2.28, 2.27, 2.26, 2.25, 2.25, 2.24, 2.23, 2.22, 2.22, 2.21, 2.2, 2.2, 2.19, 2.18, 2.18, 2.17, 2.16, 2.16, 2.15, 2.14, 2.14, 2.13, 2.12, 2.12, 2.11, 2.1, 2.1, 2.09, 2.08, 2.08, 2.07, 2.06, 2.06, 2.05, 2.05, 2.04, 2.03, 2.03, 2.02, 2.01, 0.95, 0.94, 0.94, 0.94, 0.93, 0.93, 0.93, 0.92, 0.92, 0.92, 0.92, 0.91, 0.91, 0.91, 0.9, 0.9, 0.9, 0.9, 0.89, 0.89, 0.89, 0.88, 0.88, 0.88, 1.86, 1.85, 1.85, 1.84, 1.83, 1.83, 1.82, 1.81, 1.81, 1.8, 1.8, 1.79, 1.78, 1.78, 1.77, 1.76, 1.76, 1.75, 1.74, 1.74, 1.73, 1.72, 1.72, 1.71, 1.7, 1.69, 1.69, 1.68, 1.67, 1.67, 1.66, 1.65, 1.65, 1.64, 1.63, 1.62, 1.62]
36 [1.34, 1.35, 1.37, 1.39, 1.4, 1.42, 1.44, 1.45, 1.47, 1.49, 1.51, 1.52, 1.54, 1.56, 1.58, 1.6, 1.61, 1.63, 1.65, 1.67, 1.69, 1.71, 1.73, 1.75, 1.77, 1.79, 1.81, 1.83, 1.85, 1.88, 1.9, 1.92, 1.94, 1.96, 1.99, 2.01, 2.03, 2.06, 2.08, 2.11, 2.13, 2.16, 2.18, 2.21, 2.24, 2.26, 2.29, 2.32, 2.35, 2.38, 2.41, 2.44, 2.47, 2.5, 2.53, 2.56, 2.6, 2.6, 2.59, 2.58, 2.57, 2.56, 2.54, 2.53, 1.71, 1.7, 1.69, 1.69, 1.68, 1.67, 1.66, 1.66, 1.65, 1.64, 1.64, 1.65, 1.67, 1.7, 1.73, 1.76, 1.79, 1.82, 2.34, 2.33, 2.32, 2.31, 2.3, 2.3, 2.29, 2.28, 2.27, 2.26, 2.25, 2.25, 2.24, 2.23, 2.22, 2.21, 2.2, 2.2, 2.19, 2.18, 2.17, 2.16, 2.16, 2.15, 2.14, 2.13, 2.13, 2.12, 2.11, 2.1, 2.1, 2.09, 2.08, 2.07, 2.07, 2.06, 2.05, 2.04, 2.04, 2.03, 2.02, 2.01, 2.01, 2.0, 1.99, 1.99, 0.94, 0.93, 0.93, 0.93, 0.92, 0.92, 0.92, 0.91, 0.91, 0.91, 0.9, 0.9, 0.89, 0.89, 0.89, 0.88, 0.88, 0.88, 0.87, 0.87, 0.87, 0.86, 0.86, 1.81, 1.81, 1.8, 1.79, 1.78, 1.78, 1.77, 1.76, 1.75, 1.75, 1.74, 1.73, 1.72, 1.72, 1.71, 1.7, 1.69, 1.69, 1.68, 1.67, 1.66, 1.66, 1.65, 1.64, 1.63, 1.62, 1.62, 1.61, 1.6, 1.59, 1.58]
37 [1.3, 1.32, 1.33, 1.35, 1.37, 1.38, 1.4, 1.41, 1.43, 1.44, 1.46, 1.48, 1.49, 1.51, 1.52, 1.54, 1.56, 1.58, 1.59, 1.61, 1.63, 1.64, 1.66, 1.68, 1.7, 1.72, 1.73, 1.75, 1.77, 1.79, 1.81, 1.83, 1.85, 1.87, 1.89, 1.91, 1.93, 1.95, 1.97, 1.99, 2.01, 2.04, 2.06, 2.08, 2.1, 2.13, 2.15, 2.17, 2.2, 2.22, 2.25, 2.27, 2.3, 2.32, 2.35, 2.38, 2.4, 2.43, 2.46, 2.49, 2.52, 2.55, 2.58, 2.61, 2.64, 2.67, 2.66, 2.64, 2.63, 2.62, 2.6, 2.59, 1.75, 1.74, 1.73, 1.72, 1.72, 1.71, 1.7, 1.69, 1.68, 1.67, 1.67, 1.66, 1.68, 1.71, 1.74, 1.76, 1.79, 1.82, 2.36, 2.35, 2.34, 2.33, 2.32, 2.31, 2.3, 2.29, 2.28, 2.27, 2.26, 2.25, 2.24, 2.23, 2.22, 2.21, 2.2, 2.19, 2.19, 2.18, 2.17, 2.16, 2.15, 2.14, 2.13, 2.12, 2.11, 2.1, 2.09, 2.09, 2.08, 2.07, 2.06, 2.05, 2.04, 2.03, 2.02, 2.02, 2.01, 2.0, 1.99, 1.98, 1.97, 1.96, 1.96, 1.95, 0.92, 0.92, 0.92, 0.91, 0.91, 0.9, 0.9, 0.9, 0.89, 0.89, 0.88, 0.88, 0.88, 0.87, 0.87, 0.86, 0.86, 0.86, 0.85, 0.85, 0.84, 0.84, 0.84, 1.75, 1.74, 1.73, 1.72, 1.71, 1.7, 1.69, 1.69, 1.68, 1.67, 1.66, 1.65, 1.64, 1.63, 1.62, 1.62, 1.61, 1.6, 1.59, 1.58, 1.57, 1.56, 1.55]
38 [1.28, 1.29, 1.31, 1.32, 1.33, 1.35, 1.36, 1.38, 1.39, 1.41, 1.42, 1.44, 1.45, 1.46, 1.48, 1.49, 1.51, 1.52, 1.54, 1.56, 1.57, 1.59, 1.6, 1.62, 1.63, 1.65, 1.67, 1.68, 1.7, 1.72, 1.73, 1.75, 1.77, 1.78, 1.8, 1.82, 1.84, 1.86, 1.87, 1.89, 1.91, 1.93, 1.95, 1.97, 1.99, 2.01, 2.03, 2.05, 2.07, 2.09, 2.11, 2.13, 2.15, 2.17, 2.2, 2.22, 2.24, 2.27, 2.29, 2.31, 2.34, 2.36, 2.39, 2.41, 2.44, 2.47, 2.49, 2.52, 2.55, 2.58, 2.61, 2.64, 2.67, 2.7, 2.72, 2.7, 2.69, 2.67, 2.65, 2.64, 2.62, 1.78, 1.76, 1.75, 1.75, 1.74, 1.73, 1.72, 1.71, 1.7, 1.69, 1.68, 1.67, 1.7, 1.72, 1.75, 1.77, 1.8, 1.83, 2.37, 2.35, 2.34, 2.33, 2.32, 2.31, 2.29, 2.28, 2.27, 2.26, 2.25, 2.24, 2.23, 2.21, 2.2, 2.19, 2.18, 2.17, 2.16, 2.15, 2.14, 2.13, 2.12, 2.11, 2.1, 2.09, 2.08, 2.07, 2.06, 2.05, 2.04, 2.03, 2.02, 2.01, 2.0, 1.99, 1.98, 1.97, 1.96, 1.95, 1.94, 1.93, 1.92, 1.91, 1.9, 1.89, 0.9, 0.89, 0.89, 0.88, 0.88, 0.88, 0.87, 0.87, 0.86, 0.86, 0.85, 0.85, 0.84, 0.84, 0.83, 0.83, 0.82, 0.82, 0.82, 0.81, 0.81, 0.8, 1.67, 1.66, 1.65, 1.64, 1.63, 1.62, 1.61, 1.6, 1.59, 1.58, 1.57, 1.56, 1.55, 10.0, 0.0]
39 [1.28, 1.29, 1.31, 1.32, 1.33, 1.35, 1.36, 1.38, 1.39, 1.41, 1.42, 1.44, 1.45, 1.46, 1.48, 1.49, 1.51, 1.52, 1.54, 1.56, 1.57, 1.59, 1.6, 1.62, 1.63, 1.65, 1.67, 1.68, 1.7, 1.72, 1.73, 1.75, 1.77, 1.78, 1.8, 1.82, 1.84, 1.86, 1.87, 1.89, 1.91, 1.93, 1.95, 1.97, 1.99, 2.01, 2.03, 2.05, 2.07, 2.09, 2.11, 2.13, 2.15, 2.17, 2.2, 2.22, 2.24, 2.27, 2.29, 2.31, 2.34, 2.36, 2.39, 2.41, 2.44, 2.47, 2.49, 2.52, 2.55, 2.58, 2.61, 2.64, 2.67, 2.7, 2.72, 2.7, 2.69, 2.67, 2.65, 2.64, 2.62, 1.78, 1.76, 1.75, 1.75, 1.74, 1.73, 1.72, 1.71, 1.7, 1.69, 1.68, 1.67, 1.7, 1.72, 1.75, 1.77, 1.8, 1.83, 2.37, 2.35, 2.34, 2.33, 2.32, 2.31, 2.29, 2.28, 2.27, 2.26, 2.25, 2.24, 2.23, 2.21, 2.2, 2.19, 2.18, 2.17, 2.16, 2.15, 2.14, 2.13, 2.12, 2.11, 2.1, 2.09, 2.08, 2.07, 2.06, 2.05, 2.04, 2.03, 2.02, 2.01, 2.0, 1.99, 1.98, 1.97, 1.96, 1.95, 1.94, 1.93, 1.92, 1.91, 1.9, 1.89, 0.9, 0.89, 0.89, 0.88, 0.88, 0.88, 0.87, 0.87, 0.86, 0.86, 0.85, 0.85, 0.84, 0.84, 0.83, 0.83, 0.82, 0.82, 0.82, 0.81, 0.81, 0.8, 1.67, 1.66, 1.65, 1.64, 1.63, 1.62, 1.61, 1.6, 1.59, 1.58, 1.57, 1.56, 1.55, 10.0, 0.0]
40 [1.26, 1.27, 1.28, 1.3, 1.31, 1.32, 1.33, 1.35, 1.36, 1.37, 1.39, 1.4, 1.41, 1.43, 1.44, 1.45, 1.47, 1.48, 1.49, 1.51, 1.52, 1.54, 1.55, 1.56, 1.58, 1.59, 1.61, 1.62, 1.63, 1.65, 1.66, 1.68, 1.69, 1.71, 1.72, 1.74, 1.75, 1.77, 1.79, 1.8, 1.82, 1.83, 1.85, 1.87, 1.88, 1.9, 1.92, 1.93, 1.95, 1.97, 1.99, 2.0, 2.02, 2.04, 2.06, 2.08, 2.1, 2.12, 2.14, 2.16, 2.18, 2.2, 2.22, 2.24, 2.26, 2.28, 2.3, 2.32, 2.35, 2.37, 2.39, 2.42, 2.44, 2.47, 2.49, 2.52, 2.54, 2.57, 2.59, 2.62, 2.65, 2.68, 2.71, 2.74, 2.74, 2.72, 2.7, 2.68, 2.66, 2.65, 2.63, 1.78, 1.77, 1.76, 1.75, 1.73, 1.72, 1.71, 1.7, 1.69, 1.68, 1.67, 1.67, 1.7, 1.72, 1.75, 1.77, 1.8, 1.83, 2.34, 2.33, 2.31, 2.3, 2.29, 2.27, 2.26, 2.25, 2.23, 2.22, 2.21, 2.19, 2.18, 2.17, 2.16, 2.15, 2.13, 2.12, 2.11, 2.1, 2.08, 2.07, 2.06, 2.05, 2.04, 2.03, 2.01, 2.0, 1.99, 1.98, 1.97, 1.96, 1.95, 1.93, 1.92, 1.91, 1.9, 1.89, 1.88, 1.87, 1.86, 1.84, 1.83, 1.82, 1.81, 0.86, 0.86, 0.85, 0.85, 0.84, 0.84, 0.83, 0.83, 0.82, 0.82, 0.81, 0.81, 0.8, 0.8, 0.79, 0.78, 0.78, 0.77, 0.77, 0.76, 0.76, 0.75, 0.75, 1.55, 1.54, 1.53, 10.0, 0.0]
41 [1.26, 1.27, 1.28, 1.3, 1.31, 1.32, 1.33, 1.35, 1.36, 1.37, 1.39, 1.4, 1.41, 1.43, 1.44, 1.45, 1.47, 1.48, 1.49, 1.51, 1.52, 1.54, 1.55, 1.56, 1.58, 1.59, 1.61, 1.62, 1.63, 1.65, 1.66, 1.68, 1.69, 1.71, 1.72, 1.74, 1.75, 1.77, 1.79, 1.8, 1.82, 1.83, 1.85, 1.87, 1.88, 1.9, 1.92, 1.93, 1.95, 1.97, 1.99, 2.0, 2.02, 2.04, 2.06, 2.08, 2.1, 2.12, 2.14, 2.16, 2.18, 2.2, 2.22, 2.24, 2.26, 2.28, 2.3, 2.32, 2.35, 2.37, 2.39, 2.42, 2.44, 2.47, 2.49, 2.52, 2.54, 2.57, 2.59, 2.62, 2.65, 2.68, 2.71, 2.74, 2.74, 2.72, 2.7, 2.68, 2.66, 2.65, 2.63, 1.78, 1.77, 1.76, 1.75, 1.73, 1.72, 1.71, 1.7, 1.69, 1.68, 1.67, 1.67, 1.7, 1.72, 1.75, 1.77, 1.8, 1.83, 2.34, 2.33, 2.31, 2.3, 2.29, 2.27, 2.26, 2.25, 2.23, 2.22, 2.21, 2.19, 2.18, 2.17, 2.16, 2.15, 2.13, 2.12, 2.11, 2.1, 2.08, 2.07, 2.06, 2.05, 2.04, 2.03, 2.01, 2.0, 1.99, 1.98, 1.97, 1.96, 1.95, 1.93, 1.92, 1.91, 1.9, 1.89, 1.88, 1.87, 1.86, 1.84, 1.83, 1.82, 1.81, 0.86, 0.86, 0.85, 0.85, 0.84, 0.84, 0.83, 0.83, 0.82, 0.82, 0.81, 0.81, 0.8, 0.8, 0.79, 0.78, 0.78, 0.77, 0.77, 0.76, 0.76, 0.75, 0.75, 1.55, 1.54, 1.53, 1.52, 1.51]
42 [1.24, 1.26, 1.27, 1.28, 1.29, 1.3, 1.32, 1.33, 1.34, 1.35, 1.37, 1.38, 1.39, 1.4, 1.41, 1.43, 1.44, 1.45, 1.46, 1.48, 1.49, 1.5, 1.51, 1.53, 1.54, 1.55, 1.57, 1.58, 1.59, 1.61, 1.62, 1.63, 1.65, 1.66, 1.67, 1.69, 1.7, 1.72, 1.73, 1.74, 1.76, 1.77, 1.79, 1.8, 1.82, 1.83, 1.85, 1.86, 1.88, 1.89, 1.91, 1.92, 1.94, 1.96, 1.97, 1.99, 2.0, 2.02, 2.04, 2.06, 2.07, 2.09, 2.11, 2.13, 2.15, 2.16, 2.18, 2.2, 2.22, 2.24, 2.26, 2.28, 2.3, 2.32, 2.34, 2.36, 2.39, 2.41, 2.43, 2.45, 2.48, 2.5, 2.52, 2.55, 2.57, 2.6, 2.62, 2.65, 2.68, 2.71, 2.73, 2.74, 2.72, 2.7, 2.68, 2.66, 2.64, 2.62, 1.77, 1.76, 1.75, 1.74, 1.73, 1.71, 1.7, 1.69, 1.68, 1.67, 1.66, 1.65, 1.67, 1.69, 1.72, 1.74, 1.77, 1.79, 2.31, 2.3, 2.28, 2.27, 2.25, 2.24, 2.22, 2.21, 2.2, 2.18, 2.17, 2.15, 2.14, 2.13, 2.11, 2.1, 2.09, 2.07, 2.06, 2.05, 2.03, 2.02, 2.01, 2.0, 1.98, 1.97, 1.96, 1.95, 1.93, 1.92, 1.91, 1.9, 1.88, 1.87, 1.86, 1.85, 1.84, 1.82, 1.81, 1.8, 1.79, 1.78, 1.76, 1.75, 1.74, 1.73, 0.82, 0.82, 0.81, 0.8, 0.8, 0.79, 0.79, 0.78, 0.78, 0.77, 0.77, 0.76, 0.75, 0.75, 0.74, 0.74, 0.73, 0.73, 0.72, 0.71]
43 [1.24, 1.25, 1.26, 1.28, 1.29, 1.3, 1.31, 1.32, 1.33, 1.35, 1.36, 1.37, 1.38, 1.39, 1.41, 1.42, 1.43, 1.44, 1.45, 1.47, 1.48, 1.49, 1.5, 1.52, 1.53, 1.54, 1.55, 1.57, 1.58, 1.59, 1.6, 1.62, 1.63, 1.64, 1.66, 1.67, 1.68, 1.7, 1.71, 1.72, 1.74, 1.75, 1.76, 1.78, 1.79, 1.81, 1.82, 1.84, 1.85, 1.87, 1.88, 1.9, 1.91, 1.93, 1.94, 1.96, 1.97, 1.99, 2.01, 2.02, 2.04, 2.05, 2.07, 2.09, 2.11, 2.12, 2.14, 2.16, 2.18, 2.2, 2.21, 2.23, 2.25, 2.27, 2.29, 2.31, 2.33, 2.35, 2.38, 2.4, 2.42, 2.44, 2.46, 2.49, 2.51, 2.53, 2.56, 2.58, 2.61, 2.63, 2.66, 2.69, 2.71, 2.74, 2.73, 2.7, 2.68, 2.67, 2.65, 2.63, 2.61, 1.76, 1.75, 1.74, 1.72, 1.71, 1.7, 1.69, 1.68, 1.67, 1.65, 1.64, 1.65, 1.67, 1.69, 1.71, 1.74, 1.76, 2.3, 2.29, 2.27, 2.26, 2.24, 2.23, 2.21, 2.2, 2.19, 2.17, 2.16, 2.14, 2.13, 2.11, 2.1, 2.09, 2.07, 2.06, 2.05, 2.03, 2.02, 2.01, 1.99, 1.98, 1.97, 1.95, 1.94, 1.93, 1.92, 1.9, 1.89, 1.88, 1.87, 1.85, 1.84, 1.83, 1.82, 1.8, 1.79, 1.78, 1.77, 1.75, 1.74, 1.73, 1.72, 1.71, 1.69, 0.8, 0.8, 0.79, 0.79, 0.78, 0.77, 0.77, 0.76, 0.76, 0.75, 0.75, 0.74, 0.73, 0.73, 0.72, 0.72, 0.71]
44 [1.23, 1.24, 1.25, 1.27, 1.28, 1.29, 1.3, 1.31, 1.32, 1.33, 1.34, 1.36, 1.37, 1.38, 1.39, 1.4, 1.41, 1.42, 1.44, 1.45, 1.46, 1.47, 1.48, 1.49, 1.51, 1.52, 1.53, 1.54, 1.55, 1.56, 1.58, 1.59, 1.6, 1.61, 1.63, 1.64, 1.65, 1.66, 1.68, 1.69, 1.7, 1.71, 1.73, 1.74, 1.75, 1.77, 1.78, 1.79, 1.81, 1.82, 1.83, 1.85, 1.86, 1.88, 1.89, 1.9, 1.92, 1.93, 1.95, 1.96, 1.98, 1.99, 2.01, 2.02, 2.04, 2.06, 2.07, 2.09, 2.1, 2.12, 2.14, 2.16, 2.17, 2.19, 2.21, 2.23, 2.24, 2.26, 2.28, 2.3, 2.32, 2.34, 2.36, 2.38, 2.4, 2.42, 2.44, 2.47, 2.49, 2.51, 2.53, 2.56, 2.58, 2.6, 2.63, 2.65, 2.68, 2.71, 2.73, 2.7, 2.68, 2.66, 2.64, 2.62, 2.6, 2.58, 1.74, 1.73, 1.72, 1.7, 1.69, 1.68, 1.67, 1.65, 1.64, 1.63, 1.62, 1.62, 1.65, 1.67, 1.69, 1.71, 1.74, 2.27, 2.25, 2.24, 2.22, 2.2, 2.19, 2.17, 2.16, 2.14, 2.13, 2.11, 2.1, 2.09, 2.07, 2.06, 2.04, 2.03, 2.01, 2.0, 1.99, 1.97, 1.96, 1.94, 1.93, 1.92, 1.9, 1.89, 1.88, 1.86, 1.85, 1.84, 1.82, 1.81, 1.8, 1.79, 1.77, 1.76, 1.75, 1.73, 1.72, 1.71, 1.7, 1.68, 1.67, 1.66, 1.64, 1.63, 0.77, 0.77, 0.76, 0.75, 0.75, 0.74, 0.74, 0.73, 0.72, 0.72, 0.71, 0.71]
45 [1.22, 1.24, 1.25, 1.26, 1.27, 1.28, 1.29, 1.3, 1.31, 1.32, 1.33, 1.34, 1.36, 1.37, 1.38, 1.39, 1.4, 1.41, 1.42, 1.43, 1.44, 1.45, 1.47, 1.48, 1.49, 1.5, 1.51, 1.52, 1.53, 1.55, 1.56, 1.57, 1.58, 1.59, 1.6, 1.62, 1.63, 1.64, 1.65, 1.66, 1.68, 1.69, 1.7, 1.71, 1.73, 1.74, 1.75, 1.76, 1.78, 1.79, 1.8, 1.82, 1.83, 1.84, 1.86, 1.87, 1.88, 1.9, 1.91, 1.93, 1.94, 1.96, 1.97, 1.98, 2.0, 2.01, 2.03, 2.05, 2.06, 2.08, 2.09, 2.11, 2.13, 2.14, 2.16, 2.18, 2.19, 2.21, 2.23, 2.25, 2.26, 2.28, 2.3, 2.32, 2.34, 2.36, 2.38, 2.4, 2.42, 2.44, 2.46, 2.49, 2.51, 2.53, 2.55, 2.58, 2.6, 2.62, 2.65, 2.67, 2.7, 2.7, 2.68, 2.65, 2.63, 2.61, 2.59, 2.57, 1.73, 1.72, 1.7, 1.69, 1.68, 1.67, 1.65, 1.64, 1.63, 1.62, 1.61, 1.59, 1.61, 1.63, 1.65, 1.67, 1.69, 1.72, 2.23, 2.22, 2.2, 2.19, 2.17, 2.15, 2.14, 2.12, 2.11, 2.09, 2.08, 2.06, 2.05, 2.03, 2.02, 2.01, 1.99, 1.98, 1.96, 1.95, 1.93, 1.92, 1.91, 1.89, 1.88, 1.87, 1.85, 1.84, 1.82, 1.81, 1.8, 1.78, 1.77, 1.76, 1.74, 1.73, 1.72, 1.71, 1.69, 1.68, 1.67, 1.65, 1.64, 1.63, 1.61, 1.6, 1.59, 1.58, 0.74, 0.74, 0.73, 0.72, 0.72, 0.71, 0.7, 0.7]
46 [1.22, 1.23, 1.24, 1.25, 1.26, 1.27, 1.28, 1.29, 1.3, 1.32, 1.33, 1.34, 1.35, 1.36, 1.37, 1.38, 1.39, 1.4, 1.42, 1.43, 1.44, 1.45, 1.46, 1.47, 1.48, 1.49, 1.51, 1.52, 1.53, 1.54, 1.55, 1.56, 1.58, 1.59, 1.6, 1.61, 1.62, 1.64, 1.65, 1.66, 1.67, 1.69, 1.7, 1.71, 1.72, 1.74, 1.75, 1.76, 1.78, 1.79, 1.8, 1.82, 1.83, 1.84, 1.86, 1.87, 1.88, 1.9, 1.91, 1.93, 1.94, 1.96, 1.97, 1.99, 2.0, 2.02, 2.03, 2.05, 2.06, 2.08, 2.1, 2.11, 2.13, 2.15, 2.16, 2.18, 2.2, 2.22, 2.24, 2.25, 2.27, 2.29, 2.31, 2.33, 2.35, 2.37, 2.39, 2.41, 2.43, 2.45, 2.48, 2.5, 2.52, 2.54, 2.57, 2.59, 2.62, 2.64, 2.67, 2.69, 2.68, 2.66, 2.64, 2.62, 2.6, 2.58, 2.56, 1.72, 1.7, 1.69, 1.68, 1.66, 1.65, 1.64, 1.63, 1.62, 1.6, 1.59, 1.58, 1.6, 1.62, 1.64, 1.66, 1.68, 1.71, 2.22, 2.21, 2.19, 2.18, 2.16, 2.15, 2.13, 2.12, 2.1, 2.09, 2.07, 2.06, 2.04, 2.03, 2.01, 2.0, 1.99, 1.97, 1.96, 1.94, 1.93, 1.92, 1.9, 1.89, 1.88, 1.86, 1.85, 1.84, 1.82, 1.81, 1.8, 1.78, 1.77, 1.76, 1.74, 1.73, 1.72, 1.71, 1.69, 1.68, 1.67, 1.65, 1.64, 1.63, 1.62, 1.6, 1.59, 1.58, 1.57, 0.73, 0.73, 0.72, 0.71, 0.71, 0.7, 0.7, 0.69]
47 [1.2, 1.22, 1.23, 1.24, 1.25, 1.26, 1.27, 1.28, 1.29, 1.3, 1.31, 1.33, 1.34, 1.35, 1.36, 1.37, 1.38, 1.39, 1.41, 1.42, 1.43, 1.44, 1.45, 1.46, 1.47, 1.49, 1.5, 1.51, 1.52, 1.53, 1.54, 1.56, 1.57, 1.58, 1.59, 1.61, 1.62, 1.63, 1.64, 1.66, 1.67, 1.68, 1.69, 1.71, 1.72, 1.73, 1.75, 1.76, 1.77, 1.79, 1.8, 1.81, 1.83, 1.84, 1.86, 1.87, 1.89, 1.9, 1.91, 1.93, 1.95, 1.96, 1.98, 1.99, 2.01, 2.02, 2.04, 2.06, 2.07, 2.09, 2.11, 2.12, 2.14, 2.16, 2.18, 2.19, 2.21, 2.23, 2.25, 2.27, 2.29, 2.31, 2.33, 2.35, 2.37, 2.39, 2.41, 2.44, 2.46, 2.48, 2.5, 2.53, 2.55, 2.58, 2.6, 2.63, 2.65, 2.67, 2.65, 2.62, 2.61, 2.59, 2.57, 2.55, 2.53, 1.69, 1.68, 1.66, 1.65, 1.64, 1.63, 1.62, 1.6, 1.59, 1.58, 1.57, 1.56, 1.58, 1.6, 1.62, 1.64, 1.67, 1.69, 2.21, 2.19, 2.18, 2.16, 2.15, 2.13, 2.12, 2.1, 2.09, 2.08, 2.06, 2.05, 2.03, 2.02, 2.01, 1.99, 1.98, 1.97, 1.95, 1.94, 1.93, 1.91, 1.9, 1.89, 1.87, 1.86, 1.85, 1.83, 1.82, 1.81, 1.8, 1.78, 1.77, 1.76, 1.75, 1.73, 1.72, 1.71, 1.7, 1.68, 1.67, 1.66, 1.65, 1.63, 1.62, 1.61, 1.6, 1.58, 1.57, 1.56, 1.55, 0.72, 0.71, 0.7, 0.7, 0.69, 0.69, 0.68, 0.68]
48 [1.19, 1.2, 1.21, 1.22, 1.23, 1.24, 1.26, 1.27, 1.28, 1.29, 1.3, 1.31, 1.32, 1.33, 1.35, 1.36, 1.37, 1.38, 1.39, 1.4, 1.42, 1.43, 1.44, 1.45, 1.46, 1.47, 1.49, 1.5, 1.51, 1.52, 1.53, 1.55, 1.56, 1.57, 1.58, 1.6, 1.61, 1.62, 1.64, 1.65, 1.66, 1.67, 1.69, 1.7, 1.71, 1.73, 1.74, 1.76, 1.77, 1.78, 1.8, 1.81, 1.83, 1.84, 1.86, 1.87, 1.89, 1.9, 1.92, 1.93, 1.95, 1.96, 1.98, 2.0, 2.01, 2.03, 2.05, 2.06, 2.08, 2.1, 2.12, 2.13, 2.15, 2.17, 2.19, 2.21, 2.23, 2.25, 2.27, 2.29, 2.31, 2.33, 2.35, 2.37, 2.39, 2.42, 2.44, 2.46, 2.49, 2.51, 2.53, 2.56, 2.59, 2.61, 2.64, 2.62, 2.6, 2.58, 2.56, 2.54, 2.52, 2.5, 1.66, 1.65, 1.64, 1.63, 1.61, 1.6, 1.59, 1.58, 1.57, 1.56, 1.55, 1.54, 1.53, 1.55, 1.57, 1.6, 1.62, 1.64, 1.67, 2.18, 2.17, 2.15, 2.14, 2.12, 2.11, 2.1, 2.08, 2.07, 2.05, 2.04, 2.03, 2.01, 2.0, 1.99, 1.98, 1.96, 1.95, 1.94, 1.92, 1.91, 1.9, 1.89, 1.87, 1.86, 1.85, 1.84, 1.82, 1.81, 1.8, 1.79, 1.77, 1.76, 1.75, 1.74, 1.73, 1.71, 1.7, 1.69, 1.68, 1.67, 1.66, 1.64, 1.63, 1.62, 1.61, 1.6, 1.58, 1.57, 1.56, 1.55, 1.54, 1.53, 0.69, 0.69, 0.68, 0.68, 0.67, 0.67, 0.66, 0.66]
49 [1.17, 1.18, 1.19, 1.21, 1.22, 1.23, 1.24, 1.25, 1.26, 1.27, 1.28, 1.29, 1.31, 1.32, 1.33, 1.34, 1.35, 1.36, 1.37, 1.39, 1.4, 1.41, 1.42, 1.43, 1.44, 1.46, 1.47, 1.48, 1.49, 1.5, 1.52, 1.53, 1.54, 1.55, 1.57, 1.58, 1.59, 1.6, 1.62, 1.63, 1.64, 1.66, 1.67, 1.68, 1.7, 1.71, 1.72, 1.74, 1.75, 1.77, 1.78, 1.79, 1.81, 1.82, 1.84, 1.85, 1.87, 1.88, 1.9, 1.91, 1.93, 1.95, 1.96, 1.98, 1.99, 2.01, 2.03, 2.05, 2.06, 2.08, 2.1, 2.12, 2.13, 2.15, 2.17, 2.19, 2.21, 2.23, 2.25, 2.27, 2.29, 2.31, 2.33, 2.36, 2.38, 2.4, 2.42, 2.45, 2.47, 2.5, 2.52, 2.55, 2.57, 2.6, 2.58, 2.56, 2.54, 2.53, 2.51, 2.49, 2.47, 2.45, 1.62, 1.61, 1.59, 1.58, 1.57, 1.56, 1.55, 1.54, 1.53, 1.52, 1.51, 1.5, 1.51, 1.53, 1.55, 1.57, 1.59, 1.62, 1.64, 2.14, 2.13, 2.11, 2.1, 2.09, 2.07, 2.06, 2.05, 2.03, 2.02, 2.01, 1.99, 1.98, 1.97, 1.96, 1.94, 1.93, 1.92, 1.9, 1.89, 1.88, 1.87, 1.86, 1.84, 1.83, 1.82, 1.81, 1.8, 1.78, 1.77, 1.76, 1.75, 1.74, 1.72, 1.71, 1.7, 1.69, 1.68, 1.67, 1.65, 1.64, 1.63, 1.62, 1.61, 1.6, 1.59, 1.57, 1.56, 1.55, 1.54, 1.53, 1.52, 1.51, 1.49, 0.79, 0.66, 0.66, 0.65, 0.65, 0.64, 0.64]
