0.0 0.0
0.0 0.0
0.0 0.0
0.0 0.0
0.0 0.0
0.0 0.0
0.0 0.0
-9.382196E-5 -1.521564E-4
-2.0359454E-4 -4.9087557E-5
-1.1584013E-4 -5.211837E-4
-1.1584013E-4 -5.211837E-4
-2.2901592E-4 -0.0014415917
0.001332096 -0.0023299642
0.001332096 -0.0023299642
0.006384977 -0.002704044
0.012655033 -0.0026052664
0.01732358 -0.0024336693
0.022954991 -0.002076779
0.04152204 1.6856811E-5
0.055181146 0.0021621317
0.055181146 0.0021621317
0.07085434 0.005048747
0.07085434 0.005048747
0.08445523 0.0070544765
0.093557805 0.0085051535
0.093557805 0.0085051535
0.10085863 0.009799954
0.108987406 0.011607053
0.108987406 0.011607053
0.117113754 0.013448629
0.12242626 0.014398554
0.12242626 0.014398554
0.12598589 0.014895445
0.12758107 0.014902246
0.12770405 0.014642875
0.12770405 0.014642875
0.12863745 0.014665194
0.13188973 0.015140345
0.13687906 0.015651086
0.13687906 0.015651086
0.13982049 0.015743803
0.13982049 0.015743803
0.14111488 0.0153693305
0.14251842 0.014747803
0.14251842 0.014747803
0.14410156 0.013847321
0.14142968 0.010521201
0.14142968 0.010521201
0.1362162 0.006930602
0.13346627 0.0046421913
0.12702999 -2.9102567E-4
0.12702999 -2.9102567E-4
0.120772585 -0.0056634694
0.11772977 -0.008983584
0.115428485 -0.012355264
0.115428485 -0.012355264
0.116470836 -0.015855588
0.116470836 -0.015855588
0.11918769 -0.015697014
0.12219547 -0.014950052
0.12219547 -0.014950052
0.12641233 -0.012736072
0.13012433 -0.010746587
0.14019728 -0.0032587338
0.1453357 0.0015178347
0.15625922 0.012637718
0.15625922 0.012637718
0.17585343 0.032964233
0.18863298 0.045990672
0.21542652 0.07118357
0.22976844 0.08367486
0.24410956 0.09619446
0.2712989 0.12022154
0.28289428 0.13035634
0.3110249 0.15370226
0.3110249 0.15370226
0.3369334 0.17419365
0.3369334 0.17419365
0.34940773 0.18391259
0.34940773 0.18391259
0.3737506 0.20352717
0.3737506 0.20352717
0.39132953 0.21873248
0.39581543 0.22281154
0.40836635 0.23346314
0.40836635 0.23346314
0.4269491 0.24809304
0.4459137 0.26296562
0.4588942 0.27370077
0.4588942 0.27370077
0.46745867 0.28054738
0.47117543 0.2829929
0.4747455 0.2847999
0.47818083 0.28617543
0.48162532 0.28717697
0.484919 0.28779745
0.49086872 0.28799736
0.49086872 0.28799736
0.49599162 0.28698105
0.49599162 0.28698105
0.49833003 0.28590992
0.5002614 0.2841214
0.5013834 0.28173923
0.5023929 0.27888978
0.50419486 0.27660927
0.50419486 0.27660927
0.5075621 0.2753556
0.5126179 0.2758646
0.51935536 0.2788145
0.51935536 0.2788145
0.5268887 0.28388637
0.5426282 0.29944953
0.55667454 0.31914586
0.55667454 0.31914586
0.5686013 0.34107918
0.575124 0.3543901
0.58288354 0.37107748
0.58288354 0.37107748
0.59017336 0.3869471
0.6014911 0.41243258
0.6014911 0.41243258
0.60811985 0.42700487
0.6147997 0.44141525
0.6147997 0.44141525
0.6205527 0.45409283
0.6295714 0.47430736
0.6295714 0.47430736
0.6318753 0.4804229
0.63575315 0.49139214
0.6428012 0.5059895
0.6487532 0.5147439
0.6645449 0.5324494
0.67481786 0.54143393
0.68550575 0.5499754
0.7082924 0.5665591
0.7082924 0.5665591
0.72847015 0.580604
0.73601496 0.5858308
0.7504103 0.5938076
0.7573253 0.5967705
0.76463693 0.5999191
0.7659546 0.6006547
0.76690775 0.6010198
0.7684342 0.6006943
0.7684342 0.6006943
0.77057314 0.60054487
0.77418125 0.60103834
0.780949 0.6008712
0.78374994 0.6006607
0.78649473 0.60002124
0.78653055 0.59978044
0.78730553 0.599797
0.79097366 0.5999823
0.79340035 0.59970087
0.79760754 0.5991328
0.80032444 0.5996236
0.8099756 0.6024095
0.81307125 0.6032932
0.81757975 0.6043487
0.8193737 0.6049192
0.8232185 0.60633504
0.8279203 0.6081072
0.82827127 0.6082004
0.8296455 0.6090418
0.83358634 0.6112946
0.83714134 0.6132603
0.837129 0.61357105
0.8373809 0.61509174
0.83867455 0.61651385
0.8354241 0.61609185
0.8331938 0.6157282
0.8309315 0.6157433
0.82928705 0.61783206
0.8284459 0.61858094
0.82796556 0.619771
0.830284 0.62123466
0.83293235 0.6228094
0.83351773 0.62310386
0.83681965 0.62387985
0.83709604 0.62373376
0.83711416 0.6237028
0.837185 0.62318313
0.8368699 0.6224075
0.8348052 0.6197805
0.83301246 0.61771756
0.82919186 0.61426955
0.8272206 0.6129826
0.8267298 0.6127095
0.8284216 0.61364526
0.83939016 0.61903983
0.8456559 0.62225544
0.8653306 0.632115
0.8763029 0.63712376
0.8878131 0.64203554
0.917994 0.65367264
0.9336262 0.6594941
0.9655613 0.6705871
0.9815054 0.6757864
1.0053899 0.6829667
1.0134344 0.6854019
1.0260772 0.68873996
1.031574 0.6897171
1.0431949 0.6920691
1.0487459 0.6934436
1.0537282 0.694739
1.0618027 0.6964018
1.0651915 0.6966898
1.0709078 0.69618255
1.0732764 0.69548786
1.0759442 0.69433814
1.0766122 0.69342434
1.0761111 0.69178194
1.0748837 0.69117343
1.0699413 0.6905728
1.0678562 0.689756
1.0666096 0.6884567
1.0636251 0.6866488
1.0645614 0.68477654
1.0721323 0.6789058
1.077894 0.67601347
1.0862988 0.67191094
1.0911914 0.66963744
1.0943028 0.6676032
1.0957763 0.6661054
1.0971646 0.664432
1.0969462 0.66424906
1.0965643 0.6645309
1.0965207 0.66476345
1.0962183 0.6653599
1.0940144 0.6677608
1.0919976 0.6697643
1.0862085 0.6748436
1.0846708 0.67683923
1.083715 0.6798175
1.0825111 0.6813718
1.0808121 0.68247616
1.0787907 0.6837157
1.0772192 0.6840307
1.0765034 0.68367636
1.0792286 0.68238384
1.0915581 0.6770382
1.0984317 0.6742216
1.1032517 0.6715423
1.104968 0.6698852
1.102586 0.66881305
1.100811 0.66873753
1.0997353 0.66864514
1.0983131 0.66792953
1.09775 0.6669811
1.0961022 0.66393846
1.0928475 0.66242754
1.0847337 0.6599325
1.0831953 0.65859854
1.0818632 0.65644294
1.0816622 0.6559701
1.0815341 0.6558369
1.0869482 0.6560503
1.0930277 0.6563645
1.1102716 0.6571873
1.1193098 0.65802175
1.1368574 0.6605882
1.1467855 0.66214556
1.1670448 0.66396755
1.1741018 0.6645993
1.1799285 0.66686374
1.1821054 0.66808516
1.1861889 0.66865486
1.1998695 0.6665874
1.2086229 0.6637092
1.2207353 0.65926915
1.2254409 0.6570505
1.240246 0.6479565
1.2513808 0.63983655
1.2732971 0.6223303
1.2809209 0.61618495
1.2899439 0.6090815
1.2935264 0.60609686
1.2979845 0.6016216
1.3112532 0.58793217
1.3148987 0.58411777
1.325601 0.57186455
1.3332121 0.5628719
1.3463271 0.54624444
1.3496178 0.5417528
1.3542551 0.5346202
1.35642 0.5306023
1.3598958 0.5219606
1.3608937 0.5178472
1.3598484 0.5148991
1.3558066 0.51156104
1.355691 0.5089932
1.3572125 0.5041447
1.3585291 0.50234544
1.3615973 0.49981046
1.3625276 0.49922472
1.3641256 0.4978816
1.3633454 0.49718237
1.3619105 0.49678546
1.3609068 0.4966271
1.3607887 0.49674043
1.3616471 0.4979694
1.3627692 0.4983893
1.363452 0.49850768
1.3640553 0.4982481
1.3677461 0.49694052
1.3680165 0.49691424
1.3680136 0.49699607
1.3680004 0.49700516
1.3679975 0.4970103
1.3679739 0.49703103
1.3679593 0.49704486
1.3679366 0.49706787
1.3679235 0.49707574
1.3678958 0.49711928
1.3684019 0.49687463
1.3723605 0.49549466
1.3725865 0.4955069
1.3725865 0.4955069
1.3835083 0.4932316
1.3864124 0.49299985
1.3888539 0.49330562
1.3892176 0.4934023
1.3892722 0.49349037
1.3892534 0.4934996
1.3926917 0.4923579
1.3991507 0.4906462
1.4227736 0.4854885
1.4400412 0.4822002
1.4562596 0.4794889
1.4796507 0.47564173
1.4926937 0.47323075
1.5148551 0.46918112
1.5222169 0.46786729
1.5284585 0.46674404
1.5287108 0.46669525
1.5284545 0.4675123
1.5280974 0.46834922
1.5273134 0.47084498
1.5267854 0.47259292
1.5265226 0.47461814
1.5270662 0.4786498
1.5270662 0.4786498
1.5395396 0.4790596
1.5481726 0.4761874
1.5705867 0.46452647
1.5827067 0.45631847
1.6044298 0.4394526
1.6132962 0.43218845
1.6235688 0.42323202
1.6405895 0.40816364
1.6464468 0.4025201
1.6575693 0.3905801
1.6629368 0.38445687
1.6685429 0.3768317
1.6702524 0.37435144
1.673424 0.36843187
1.6745403 0.36540735
1.6750711 0.36026248
1.6747739 0.35881266
1.6742489 0.35774404
1.6735108 0.35669515
1.6745207 0.35600537
1.6828951 0.3522
1.6908436 0.34889886
1.7168124 0.3389801
1.7334058 0.33310354
1.7597599 0.32417017
1.773215 0.31913847
1.79472 0.31074268
1.8023951 0.30750817
1.8099092 0.30405992
1.8236475 0.29652902
1.8302896 0.29250836
1.8432562 0.28381315
1.8494259 0.279331
1.8602617 0.27057296
1.8647581 0.26627517
1.8765259 0.25786403
1.8839138 0.25461453
1.8920084 0.25206256
1.90835 0.24997504
1.9180549 0.25017428
1.9444603 0.25426555
1.9581187 0.2580406
1.9857546 0.26736417
1.9994574 0.27277136
2.0193357 0.28137252
2.0258698 0.2843447
2.0258698 0.2843447
2.0258698 0.2843447
