0 [0.0, 0.0, 0.0, 0.0, 0.0, 0.0, 0.0, 0.0]
1 [0.0, 0.0, 0.0, 0.0, 0.0, 0.0, 0.0, 0.0]
2 [0.75, 0.875, 0.75, 0.0, 0.0, 0.75, 0.75, 0.75]
3 [0.0, 0.0, 0.0, 0.0, 0.0, 0.0, 0.0, 0.0]
4 [0.8333333, 0.875, 0.8333333, 0.0, 0.0, 0.0, 0.33333334, 0.375]
5 [0.875, 0.875, 0.375, 0.0, 0.0, 0.0, 0.25, 0.875]
6 [0.0, 0.0, 0.0, 0.0, 0.0, 0.0, 0.0, 0.0]
7 [0.0, 0.0, 0.0, 0.0, 0.0, 0.0, 0.0, 0.0]
8 [0.8333333, 0.8333333, 0.8333333, 0.0, 0.0, 0.0, 0.5, 0.5]
9 [0.0, 0.0, 0.0, 0.0, 0.0, 0.0, 0.0, 0.0]
10 [0.8, 0.8, 0.8, 0.0, 0.0, 0.0, 0.8, 0.6]
11 [0.0, 0.375, 0.375, 0.0, 0.0, 0.0, 0.0, 0.875]
12 [0.0, 0.0, 0.0, 0.0, 0.0, 0.0, 0.0, 0.0]
13 [0.0, 0.375, 0.375, 0.0, 0.99450547, 0.0054945056, 0.0054945056, 0.875]
14 [0.9777778, 0.022222223, 0.022222223, 0.022222223, 0.0, 0.0, 0.9777778, 0.9777778]
15 [0.0, 0.0, 0.0, 0.0, 0.0, 0.0, 0.0, 0.0]
16 [0.0, 0.0, 0.0, 0.0, 0.0, 0.0, 0.0, 0.99450547]
17 [0.0, 0.0, 0.0, 0.0, 0.0, 0.0, 0.0, 0.0]
18 [0.85714287, 0.5, 0.85714287, 0.85714287, 0.85714287, 0.0, 0.0, 0.5]
19 [0.6666667, 0.6666667, 0.5, 0.33333334, 0.0, 0.0, 0.6666667, 0.6666667]
20 [0.0, 0.0, 0.0, 0.0, 0.0, 0.0, 0.0, 0.0]
21 [0.8333333, 0.8333333, 0.875, 0.0, 0.0, 0.0, 0.33333334, 0.375]
22 [0.0, 0.0, 0.0, 0.0, 0.0, 0.0, 0.0, 0.0]
23 [0.0, 0.5, 0.5, 0.0, 0.0, 0.0, 0.0, 0.5]
24 [0.6666667, 0.6666667, 0.6666667, 0.0, 0.0, 0.0, 0.6666667, 0.6666667]
25 [0.0, 0.0, 0.0, 0.0, 0.0, 0.0, 0.0, 0.0]
26 [0.875, 0.875, 0.5, 0.125, 0.125, 0.125, 0.875, 0.875]
27 [0.0, 0.5, 0.5, 0.0, 0.99450547, 0.0, 0.0, 0.5]
28 [0.0, 0.0, 0.0, 0.0, 0.0, 0.0, 0.0, 0.0]
29 [0.0, 0.0, 0.0, 0.0, 0.0, 0.0, 0.0, 0.0]
30 [0.95, 0.5, 0.5, 0.05, 0.05, 0.0, 0.95, 0.95]
31 [0.0, 0.0, 0.0, 0.0, 0.0, 0.0, 0.0, 0.0]
32 [0.96666664, 0.375, 0.375, 0.033333335, 0.033333335, 0.0, 0.96666664, 0.96666664]
33 [0.95238096, 0.375, 0.375, 0.0, 0.0, 0.0, 0.0, 0.875]
34 [0.9166667, 0.9166667, 0.083333336, 0.083333336, 0.083333336, 0.9166667, 0.9166667, 0.083333336]
35 [0.0, 0.0, 0.0, 0.0, 0.0, 0.0, 0.0, 0.0]
36 [0.0, 0.0, 0.0, 0.0, 0.0, 0.0, 0.0, 0.0]
37 [0.0, 0.0, 0.0, 0.0, 0.0, 0.0, 0.0, 0.0]
38 [0.09090909, 0.75, 0.90909094, 0.0, 0.0, 0.0, 0.09090909, 0.75]
39 [0.0, 0.0, 0.0, 0.0, 0.0, 0.0, 0.0, 0.0]
40 [0.0, 0.0, 0.0, 0.0, 0.0, 0.0, 0.0, 0.0]
41 [0.2857143, 0.85714287, 0.85714287, 0.0, 0.0, 0.0, 0.85714287, 0.75]
42 [0.0, 0.0, 0.0, 0.0, 0.0, 0.0, 0.0, 0.0]
43 [0.93333334, 0.93333334, 0.0, 0.0, 0.0, 0.06666667, 0.06666667, 0.75]
44 [0.90909094, 0.90909094, 0.0, 0.0, 0.0, 0.18181819, 0.90909094, 0.75]
45 [0.9375, 0.9375, 0.0, 0.0, 0.0, 0.125, 0.125, 0.125]
46 [0.0, 0.75, 0.0, 0.0, 0.0, 0.0, 0.0, 0.75]
47 [0.0, 0.0, 0.0, 0.0, 0.0, 0.0, 0.0, 0.0]
48 [0.96153843, 0.0, 0.0, 0.0, 0.0, 0.115384616, 0.115384616, 0.115384616]
49 [0.75, 0.0, 0.0, 0.0, 0.0, 0.0, 0.0, 0.75]
