0 [0.0, 0.0, 0.0, 0.0, 0.0, 0.0, 0.0, 0.0]
1 [0.0, 0.0, 0.0, 0.0, 0.0, 0.0, 0.0, 0.0]
2 [0.0, 0.0, 0.0, 0.0, 0.0, 0.0, 0.0, 0.0]
3 [0.20243956, 0.09843956, 0.020439561, 0.032560438, 0.06856045, 0.11756045, 0.11256043, 0.099439554]
4 [0.9533736, 0.9723736, 0.7713736, 0.030626372, 0.06562636, 0.86562634, 0.86562634, 0.84937364]
5 [0.20337363, 0.09737363, 0.021373626, 0.030626372, 0.06562636, 0.115626365, 0.115626365, 0.099373624]
6 [1.034174, 0.97084063, 0.853174, 0.029159341, 0.06315933, 0.109159335, 0.44749266, 0.47184065]
7 [1.0729285, 0.9669286, 0.39292857, 0.029071432, 0.060071427, 0.102071434, 0.36407143, 0.9679286]
8 [0.19792858, 0.09192857, 0.01792857, 0.029071432, 0.060071427, 0.102071434, 0.11407142, 0.09292857]
9 [0.19792858, 0.09192857, 0.01792857, 0.029071432, 0.060071427, 0.102071434, 0.11407142, 0.09292857]
10 [1.0294048, 0.9214047, 0.84940475, 0.028928578, 0.056928575, 0.09592856, 0.6119286, 0.58907145]
11 [0.32759246, 0.09606659, 0.016075045, 0.028928578, 0.056928575, 0.09592856, 0.11192857, 0.08907143]
12 [1.7015171, 1.5526911, 0.8882392, 0.027764488, 0.054758247, 0.09175824, 0.91075826, 0.6537583]
13 [0.0846315, 0.81964546, 0.5066055, 0.05525877, 0.028247261, 0.013752746, 0.08475275, 1.1127528]
14 [0.093329206, 0.17408128, 0.09821048, 0.055256084, 0.028247261, 0.013752746, 0.08475275, 0.23775275]
15 [2.3495574, 0.15765211, 0.03968271, 0.04662345, 0.050395615, 0.08339561, 1.0851734, 1.7401733]
16 [0.3460587, 0.114836805, 0.016182706, 0.024397817, 0.050395615, 0.08339561, 0.10739561, 0.7623956]
17 [0.29475635, 0.10155961, 0.013039768, 0.027287424, 0.053285725, 0.08628572, 0.11028572, 1.0437912]
18 [0.11639046, 0.08770797, 0.01295686, 0.027287005, 0.053285725, 0.08628572, 0.11028572, 0.049285706]
19 [0.5585961, 0.14987947, 0.79327255, 0.8803442, 0.90654945, 0.08440659, 0.1054066, 1.2604066]
20 [0.54513836, 0.27854845, 0.47630283, 0.358361, 0.052098908, 0.0890989, 0.7747656, 0.71376556]
21 [0.014839558, 0.03882831, 0.01680274, 0.02509511, 0.052098908, 0.0890989, 0.1080989, 0.04709889]
22 [0.07775847, 0.400264, 0.83953893, 0.025578553, 0.05458242, 0.09358241, 0.44291577, 0.46641758]
23 [0.0064195194, 0.049886636, 0.018514741, 0.025579495, 0.05458242, 0.09358241, 0.10958242, 0.09141758]
24 [0.050472602, 0.384148, 0.5017547, 0.02496488, 0.054967035, 0.09496702, 0.10996703, 0.59203297]
25 [0.37695223, 0.5584181, 0.66933155, 0.024086347, 0.054087915, 0.0950879, 0.7757546, 0.76057875]
26 [0.11502923, 0.076504305, 0.020492645, 0.024086732, 0.054087915, 0.0950879, 0.109087914, 0.09391209]
27 [0.7285665, 0.8224595, 0.5128882, 0.15021968, 0.18022528, 0.22222528, 0.98522526, 0.96877474]
28 [0.15180376, 0.08472058, 0.020542378, 0.025219075, 0.055219784, 0.09721979, 0.11021978, 0.09378022]
29 [0.94241273, 0.5487539, 0.5216179, 0.06983369, 0.09983517, 0.090835154, 1.0548352, 1.7038351]
30 [0.17660667, 0.094498985, 0.025993943, 0.019834854, 0.049835168, 0.090835154, 0.10483516, 0.75383514]
31 [1.0448256, 0.44849476, 0.3950403, 0.05633266, 0.086333334, 0.09399999, 1.0746666, 1.0606667]
32 [1.061059, 0.45447493, 0.39674658, 0.022769032, 0.051769238, 0.09276922, 0.106769234, 0.9692308]
33 [1.0750864, 1.0099658, 0.10666718, 0.10499818, 0.13499817, 1.0093315, 1.0233315, 0.1786685]
34 [0.19933516, 0.09833516, 0.023335159, 0.021664845, 0.05166484, 0.09266482, 0.10666484, 0.09533516]
35 [0.19516486, 0.09805674, 0.023334995, 0.021664845, 0.05166484, 0.09266482, 0.10666484, 0.09533516]
36 [0.19933516, 0.09833516, 0.023335159, 0.021664845, 0.05166484, 0.09266482, 0.10666484, 0.09533516]
37 [0.28714538, 0.85323626, 0.9363272, 0.021763744, 0.054763738, 0.10076374, 0.19867283, 0.85023624]
38 [0.19623627, 0.103236265, 0.027236257, 0.021763744, 0.054763738, 0.10076374, 0.10776373, 0.10023626]
39 [0.19623627, 0.103236265, 0.027236257, 0.021763744, 0.054763738, 0.10076374, 0.10776373, 0.10023626]
40 [0.3972033, 0.9616319, 0.88563186, 0.023510994, 0.059510984, 0.10951098, 0.96465385, 0.852489]
41 [0.111489005, 0.10448901, 0.028489005, 0.023510994, 0.059510984, 0.10951098, 0.107510984, 0.102489]
42 [1.0319645, 0.9629646, 0.02687362, 0.035126366, 0.080126375, 0.29894456, 0.9722173, 0.8488736]
43 [1.0665824, 0.9935824, 0.027082415, 0.041917592, 0.093917586, 0.24491759, 0.1919176, 0.22108242]
44 [0.1893069, 0.85697997, 0.027086655, 0.041917592, 0.093917586, 0.11991759, 0.06691759, 0.84608245]
45 [0.2156678, 0.061173566, 0.02708851, 0.041917592, 0.093917586, 0.11991759, 0.06691759, 0.09608242]
46 [1.7596117, 0.066136, 0.02763809, 0.05936814, 0.12036813, 0.22675276, 0.2050165, 0.20701648]
47 [1.2844495, 0.064949185, 0.02763675, 0.05936814, 0.12036813, 0.11136814, 0.08963187, 0.8416319]
48 [1.4530765, 0.06465723, 0.022349153, 0.081653856, 0.23176496, 0.18776494, 1.0307906, 0.15445726]
49 [1.2613018, 0.0638467, 0.022348423, 0.081653856, 0.120653845, 0.07665384, 0.08634615, 0.91834617]
