0 [1.0, 1.0, 1.0, 1.0, 1.0, 1.0, 1.0, 1.0]
1 [1.0, 1.0, 1.0, 1.0, 1.0, 1.0, 1.0, 1.0]
2 [1.0, 1.0, 1.0, 1.0, 1.0, 1.0, 1.0, 1.0]
3 [1.0, 1.0, 1.0, 1.0, 1.0, 1.0, 1.0, 1.0]
4 [1.0, 1.0, 1.0, 1.0, 1.0, 1.0, 1.0, 1.0]
5 [1.0, 1.0, 1.0, 1.0, 1.0, 1.0, 1.0, 1.0]
6 [1.0, 1.0, 1.0, 1.0, 1.0, 1.0, 1.0, 1.0]
7 [1.0, 1.0, 1.0, 1.0, 1.0, 1.0, 1.0, 1.0]
8 [1.0, 1.0, 1.0, 1.0, 1.0, 1.0, 1.0, 1.0]
9 [1.0, 1.0, 1.0, 1.0, 1.0, 1.0, 1.0, 1.0]
10 [1.0, 1.000195, 1.0786862, 1.5814173, 1.0786862, 1.000195, 1.0, 1.0]
11 [1.0, 1.0002189, 1.088305, 1.652491, 1.088305, 1.0002189, 1.0, 1.0]
12 [1.0, 1.0001698, 1.0684795, 1.5059988, 1.0684795, 1.0001698, 1.0, 1.0]
13 [1.0, 1.0001284, 1.0518098, 1.3828251, 1.0518098, 1.0001284, 1.0, 1.0]
14 [1.0, 1.000097, 1.0391634, 1.2893801, 1.0391634, 1.000097, 1.0, 1.0]
15 [1.0, 1.0000733, 1.0295699, 1.218493, 1.0295699, 1.0000733, 1.0, 1.0]
16 [1.0, 1.0000554, 1.022582, 1.2593713, 1.7186751, 1.094293, 1.0002337, 1.0]
17 [1.0, 0.9998995, 0.95960003, 0.75607693, 1.370391, 1.0555127, 1.0001378, 1.0]
18 [1.0, 1.0000671, 1.0271631, 1.2419845, 1.337728, 1.0421115, 1.0001042, 1.0]
19 [1.0, 1.0000594, 1.0240381, 1.2088135, 1.2587637, 1.0318367, 1.0000788, 1.0]
20 [1.0, 1.0000454, 1.0183626, 1.1592363, 1.1955875, 1.0240382, 1.0000595, 1.0]
21 [1.0, 1.0000296, 1.0117371, 1.0008129, 0.3652951, 0.91251385, 0.9997831, 1.0]
22 [1.0, 1.0000223, 1.0087957, 0.98105943, 0.37724862, 0.91452307, 0.99978805, 1.0]
23 [1.0, 0.9997567, 0.9017028, 0.22480738, 0.5339922, 0.9499758, 0.9998766, 1.0]
24 [1.0, 0.9997681, 0.9063357, 0.27097052, 0.6283945, 0.9621402, 0.9999067, 1.0]
25 [1.0, 0.99989164, 0.95624363, 0.6597317, 0.82870495, 0.98262537, 0.9999572, 1.0]
26 [1.0, 0.9999181, 0.9669292, 0.7428272, 0.8705376, 0.98686856, 0.99996763, 1.0]
27 [1.0, 0.9999433, 0.9771316, 0.8310243, 0.9771316, 0.9999433, 1.0, 1.0]
28 [1.0, 0.99995714, 0.98269796, 0.86484426, 0.92769325, 0.99251056, 0.9999815, 1.0]
29 [1.0, 0.99996763, 0.9869234, 0.8978515, 0.94535166, 0.99433964, 0.99998605, 1.0]
30 [1.0, 0.999977, 0.9907018, 0.9273664, 0.9611418, 0.99597514, 0.9999901, 1.0]
31 [1.0, 0.9999826, 0.9929796, 0.9451596, 0.97066104, 0.9969611, 0.9999925, 1.0]
32 [1.0, 1.0, 1.0, 1.0, 1.0, 1.0, 1.0, 1.0]
33 [1.0, 0.99999136, 0.9965175, 0.9742675, 0.9965175, 0.99999136, 1.0, 1.0]
34 [1.0, 0.9999935, 0.997368, 0.9805518, 0.997368, 0.9999935, 1.0, 1.0]
35 [1.0, 1.0, 1.0, 1.0, 1.0, 1.0, 1.0, 1.0]
36 [1.0, 1.0, 1.0, 1.0, 1.0, 1.0, 1.0, 1.0]
37 [1.0, 1.0, 1.0, 1.0, 1.0, 1.0, 1.0, 1.0]
38 [1.0, 1.0, 1.0, 1.0, 1.0, 1.0, 1.0, 1.0]
39 [1.0, 1.0, 1.0, 1.0, 1.0, 1.0, 1.0, 1.0]
40 [1.0, 1.0, 1.0, 1.0, 1.0, 1.0, 1.0, 1.0]
41 [1.0, 1.0, 1.0, 1.0, 1.0, 1.0, 1.0, 1.0]
42 [1.0, 1.0, 1.0, 1.0, 1.0, 1.0, 1.0, 1.0]
43 [1.0, 1.0, 1.0, 1.0, 1.0, 1.0, 1.0, 1.0]
44 [1.0, 1.0002335, 1.0942252, 1.6962347, 1.0942252, 1.0002335, 1.0, 1.0]
45 [1.0, 1.0001968, 1.079421, 1.586847, 1.079421, 1.0001968, 1.0, 1.0]
46 [1.0, 1.00015, 1.0605237, 1.4472129, 1.0605237, 1.00015, 1.0, 1.0]
47 [1.0, 1.0001135, 1.0457731, 1.3382202, 1.0457731, 1.0001135, 1.0, 1.0]
48 [1.0, 1.0000857, 1.0345619, 1.2553794, 1.0345619, 1.0000857, 1.0, 1.0]
49 [1.0, 1.0000647, 1.0261214, 1.1930125, 1.0261214, 1.0000647, 1.0, 1.0]
