0 [1.0, 1.0, 1.0, 1.0, 1.0, 1.0, 1.0, 1.0]
1 [1.0, 1.0, 1.0, 1.0, 1.0, 1.0, 1.0, 1.0]
2 [1.0, 1.0, 1.0, 1.0, 1.0, 1.0, 1.0, 1.0]
3 [1.0, 1.0, 1.0, 1.0, 1.0, 1.0, 1.0, 1.0]
4 [1.0, 1.0, 1.0, 1.0, 1.0, 1.0, 1.0, 1.0]
5 [1.0, 1.0, 1.0, 1.0, 1.0, 1.0, 1.0, 1.0]
6 [1.0, 1.0, 1.0, 1.0, 1.0, 1.0, 1.0, 1.0]
7 [1.0, 1.0, 1.0, 1.0, 1.0, 1.0, 1.0, 1.0]
8 [1.0, 1.0, 1.0, 1.0, 1.0, 1.0, 1.0, 1.0]
9 [1.0, 1.0, 1.0, 1.0, 1.0, 1.0, 1.0, 1.0]
10 [1.0, 1.0, 1.0, 1.0, 1.0, 1.0, 1.0, 1.0]
11 [1.0942376, 1.6963267, 1.0942376, 1.0002337, 1.0, 1.0, 1.0, 1.0]
12 [1.0793481, 1.5863078, 1.0793481, 1.0001967, 1.0, 1.0, 1.0, 1.0]
13 [1.0604635, 1.4470023, 1.1546887, 1.6963845, 1.0942252, 1.0002335, 1.0, 1.0]
14 [1.0457274, 1.3380795, 1.1252215, 1.5874995, 1.0794941, 1.000197, 1.0, 1.0]
15 [1.0345273, 1.2552742, 1.095051, 1.4472985, 1.0605237, 1.00015, 1.0, 1.0]
16 [1.0260953, 1.1929331, 1.072102, 1.4325101, 1.7420079, 1.0943387, 1.0002335, 1.0]
17 [1.0197027, 1.14567, 1.0544614, 1.3348494, 1.6214088, 1.0795069, 1.0001968, 1.0]
18 [0.90687203, 0.31193674, 0.93306476, 1.252547, 1.471925, 1.0604081, 1.0001496, 1.0]
19 [0.9180978, 0.394869, 0.9378939, 1.1908718, 1.3568907, 1.0456848, 1.0001131, 1.0]
20 [0.93739927, 0.53720903, 0.8444135, 0.3465951, 1.1615434, 1.0342276, 1.0000855, 1.0]
21 [0.9529749, 0.6523268, 0.87150127, 0.42328328, 1.1097454, 1.0256852, 1.0000641, 1.0]
22 [0.9644923, 0.7374774, 0.9023113, 0.55964077, 1.0821948, 1.0193914, 1.0000484, 1.0]
23 [0.9731637, 0.80182225, 1.0201597, 1.255511, 0.35717022, 0.90672797, 0.9997685, 1.0]
24 [0.9797378, 0.8503889, 1.0227575, 1.2378519, 0.44127288, 0.9186423, 0.99979806, 1.0]
25 [0.9846862, 0.8869275, 1.0178874, 1.2767699, 1.2700899, 1.0321523, 1.0000795, 1.0]
26 [0.9884261, 0.9145417, 1.0135653, 1.2169105, 1.2597783, 1.0318278, 1.0000787, 1.0]
27 [0.99126136, 0.93547654, 1.010245, 1.1642436, 1.1995232, 1.0244884, 1.0000606, 1.0]
28 [0.99339545, 0.9512342, 1.0077431, 1.1241609, 1.151, 1.0185355, 1.0000459, 1.0]
29 [0.99552387, 0.96680313, 0.9461007, 0.64710826, 1.0432025, 1.0124172, 1.0000311, 1.0]
30 [0.996617, 0.9747587, 0.89808047, 0.28120345, 0.9714687, 1.009233, 1.0000235, 1.0]
31 [1.0, 0.99982995, 0.9311687, 0.4052639, 0.28303587, 0.9120853, 0.9997825, 1.0]
32 [1.0, 0.9998635, 0.9447046, 0.4974443, 0.23760146, 0.90413535, 0.9997627, 1.0]
33 [1.0, 0.9999027, 0.9605882, 0.6414268, 0.45376682, 0.9312889, 0.99982995, 1.0]
34 [1.0, 0.99992657, 0.970232, 0.7249952, 0.5560348, 0.94385225, 0.999861, 1.0]
35 [1.0, 0.9999445, 0.97750175, 0.79214925, 0.66441023, 0.957558, 0.9998949, 1.0]
36 [1.0, 1.0, 0.99992657, 0.970371, 0.7810695, 0.970371, 0.99992657, 1.0]
37 [1.0, 0.99996835, 0.9871661, 0.88318664, 0.8217573, 0.9775752, 0.9999445, 1.0]
38 [1.0, 0.99997747, 0.99086523, 0.91685575, 0.87313217, 0.9840387, 0.9999605, 1.0]
39 [1.0, 0.99998295, 0.993103, 0.9372237, 0.9042112, 0.9879487, 0.9999702, 1.0]
40 [1.0, 0.9999871, 0.99478734, 0.9525547, 0.9276044, 0.9908919, 0.99997747, 1.0]
41 [1.0, 0.9999903, 0.9960604, 0.9641416, 0.9452846, 0.9931162, 0.99998295, 1.0]
42 [1.0, 0.99999267, 0.99702543, 0.9729259, 0.95868826, 0.99480253, 0.9999871, 1.0]
43 [1.0, 1.0, 1.0, 1.0, 1.0, 1.0, 1.0, 1.0]
44 [1.0, 1.0, 0.99999267, 0.9970354, 0.9780941, 0.9970354, 0.99999267, 1.0]
45 [1.0, 1.0, 1.0, 1.0, 1.0, 1.0, 1.0, 1.0]
46 [1.0, 1.0, 1.0, 1.0, 1.0, 1.0, 1.0, 1.0]
47 [1.0, 1.0, 1.0, 1.0, 1.0, 1.0, 1.0, 1.0]
48 [1.0, 1.0, 1.0, 1.0, 1.0, 1.0, 1.0, 1.0]
49 [1.0, 1.0, 1.0, 1.0, 1.0, 1.0, 1.0, 1.0]
