0 [1.0, 1.0, 1.0, 1.0, 1.0, 1.0, 1.0, 1.0]
1 [1.0, 1.0, 1.0, 1.0, 1.0, 1.0, 1.0, 1.0]
2 [1.0, 1.0, 1.0, 1.0, 1.0, 1.0, 1.0, 1.0]
3 [1.0, 1.0, 1.0, 1.0, 1.0, 1.0, 1.0, 1.0]
4 [1.0, 1.0, 1.0, 1.0, 1.0, 1.0, 1.0, 1.0]
5 [1.0, 1.0, 1.0, 1.0, 1.0, 1.0, 1.0, 1.0]
6 [1.0, 1.0, 1.0, 1.0, 1.0, 1.0, 1.0, 1.0]
7 [1.0, 1.0, 1.0, 1.0, 1.0, 1.0, 1.0, 1.0]
8 [1.0, 1.0, 1.0, 1.0, 1.0, 1.0, 1.0, 1.0]
9 [1.0, 1.0, 1.0, 1.0, 1.0, 1.0, 1.0, 1.0]
10 [1.0, 1.0, 1.0, 1.0, 1.0, 1.0, 1.0, 1.0]
11 [1.0, 1.0, 1.0, 1.0, 1.0, 1.0, 1.0, 1.0]
12 [1.0, 1.0, 1.0, 1.0, 1.0, 1.0, 1.0, 1.0]
13 [1.0, 1.0, 1.0, 1.0, 1.0, 1.0, 1.0, 1.0]
14 [1.0, 1.0, 1.0, 1.0, 1.0, 1.0, 1.0, 1.0]
15 [1.0, 1.0, 1.0, 1.0, 1.0, 1.0, 1.0, 1.0]
16 [1.0, 1.0, 1.0, 1.0, 1.0, 1.0000659, 1.0265946, 1.1965091]
17 [1.0, 1.0, 1.0, 1.0, 1.0, 1.0002314, 1.0933495, 1.6897645]
18 [1.1896578, 1.0256674, 1.0000637, 1.0, 1.0, 1.0001857, 1.0749348, 1.5536978]
19 [1.690026, 1.0933849, 1.0002315, 1.0, 1.0, 1.000141, 1.0569028, 1.4204574]
20 [1.5542259, 1.0750064, 1.000186, 1.0, 1.0, 1.0001066, 1.0429795, 1.3175776]
21 [1.4208764, 1.0569594, 1.0001411, 1.0, 1.0, 1.0000805, 1.0324842, 1.2400273]
22 [1.3178953, 1.0430224, 1.0001067, 1.0, 1.0, 1.0000608, 1.0245265, 1.1812278]
23 [1.2402674, 1.0325167, 1.0000806, 1.0, 1.0, 1.0000459, 1.0185368, 1.1369691]
24 [1.1815907, 1.0245756, 1.0000609, 1.0, 1.0, 0.9997664, 0.90576, 0.3036554]
25 [1.1372433, 1.0185739, 1.000046, 1.0, 1.0, 1.000041, 1.0165514, 1.1222992]
26 [0.30357915, 0.9057497, 0.99976635, 1.0, 1.0, 1.0000505, 1.0203831, 1.1506124]
27 [0.4260645, 0.92232627, 0.9998075, 1.0, 1.0, 1.0000393, 1.0158646, 1.1172249]
28 [0.56333125, 0.9409033, 0.9998535, 1.0, 1.0, 1.0000298, 1.0120188, 1.088808]
29 [0.67012656, 0.9553565, 0.9998893, 1.0, 1.0, 1.0000225, 1.0090764, 1.0670654]
30 [0.7506764, 0.96625775, 0.9999164, 1.0, 1.0, 1.000017, 1.0068599, 1.0506877]
31 [0.8115647, 0.97449803, 0.99993676, 1.0, 1.0, 1.0000129, 1.0051845, 1.038309]
32 [0.8577259, 0.9807453, 0.99995226, 1.0, 1.0, 0.9997424, 0.89607066, 0.23206025]
33 [0.89247155, 0.9854476, 0.99996394, 1.0, 1.0, 0.9997759, 0.90958357, 0.33190787]
34 [0.918813, 0.98901254, 0.99997276, 1.0, 1.0, 0.999829, 0.93101144, 0.49023983]
35 [0.9386402, 0.9916959, 0.99997944, 1.0, 1.0, 0.99987066, 0.94781613, 0.6144105]
36 [0.95362526, 0.99372387, 0.99998444, 1.0, 1.0, 0.99990225, 0.96055764, 0.7085582]
37 [0.9649857, 0.9952613, 0.99998826, 1.0, 1.0, 0.9999262, 0.97021973, 0.779952]
38 [1.0, 1.0, 1.0, 1.0, 1.0, 0.9999493, 0.9795342, 0.84877706]
39 [0.9800195, 0.9972959, 0.9999933, 1.0, 1.0, 0.9999617, 0.98454773, 0.8858224]
40 [1.0, 1.0, 1.0, 1.0, 1.0, 1.0, 1.0, 1.0]
41 [1.0, 1.0, 1.0, 1.0, 1.0, 0.9999781, 0.9911735, 0.9347807]
42 [1.0, 1.0, 1.0, 1.0, 1.0, 0.9999835, 0.9933358, 0.95075756]
43 [1.0, 1.0, 1.0, 1.0, 1.0, 0.99998754, 0.9949633, 0.9627834]
44 [1.0, 1.0, 1.0, 1.0, 1.0, 0.9999906, 0.99619335, 0.97187227]
45 [1.0, 1.0, 1.0, 1.0, 1.0, 0.99999285, 0.99712586, 0.9787628]
46 [1.0, 1.0, 1.0, 1.0, 1.0, 1.0, 1.0, 1.0]
47 [1.0, 1.0, 1.0, 1.0, 1.0, 1.0, 1.0, 1.0]
48 [1.0, 1.0, 1.0, 1.0, 1.0, 1.0, 1.0, 1.0]
49 [1.0, 1.0, 1.0, 1.0, 1.0, 1.0, 1.0, 1.0]
