0 -1
1 -1
2 -1
3 -1
4 -1
5 -1
6 -1
7 -1
8 -1
9 1484399
10 1484399
11 1186879
12 1484399
13 1206190
14 1221356
15 1172674
16 1093750
17 783770
18 812999
19 781289
20 1234976
21 1234347
22 1171894
23 1265001
24 1172049
25 1205690
26 1484540
27 1484540
28 1306842
29 1503151
30 1225110
31 772505
32 465749
33 467637
34 468403
35 1185649
36 1327903
37 1330004
38 1330629
39 1408753
40 1193735
41 784360
42 1141002
43 843850
44 1156600
45 -1
46 1106550
47 1094749
48 1500349
49 1184375
50 1500194
51 1174379
52 1174729
53 1532034
54 1174877
55 1174878
56 1486703
57 1515626
58 1485177
59 1484454
60 1515627
61 1249541
62 1242184
63 1174999
64 1219504
65 1253124
66 1409369
67 1453129
68 1486243
69 1531254
70 1534342
71 1500002
72 1456216
73 1455719
74 -1
75 1500199
76 1500224
77 1186899
78 1484724
79 1077590
80 965745
81 1094749
82 1108920
83 1094568
84 1094718
85 1132540
86 1113760
87 1095498
88 1113280
89 1093750
90 786122
91 856270
92 1094355
93 1090925
94 1016230
95 843750
96 783121
97 1094840
98 802496
99 1078225
100 1193121
101 1469204
102 1193121
103 -1
104 1484675
105 1484375
106 1406850
107 1325046
108 1328675
109 1234421
110 1484675
111 1325072
112 1406800
113 1325046
114 1324399
115 1484525
116 1499350
117 1484675
118 1484675
119 1187024
120 1406856
121 1232774
122 1311999
123 1484825
124 1250550
125 1468996
126 1250550
127 1234375
128 1234399
129 1246879
130 1328235
131 1546995
132 -1
133 1546995
134 1249389
135 1246875
136 1246879
137 1484995
138 1250550
139 1546895
140 1250550
141 1484450
142 1484828
143 1484825
144 1487498
145 1484375
146 1484975
147 1484975
148 1219364
149 1312600
150 1390725
151 1250550
152 1468750
153 1250550
154 1234395
155 1184379
156 1328235
157 1184375
158 1546995
159 1359395
160 1174875
161 -1
162 1172375
163 390629
164 391230
165 1171879
166 1484379
167 1171997
168 1484379
169 1171999
170 1484469
171 1484376
172 1171879
173 1174379
174 1186875
175 1484424
176 1325004
177 1171995
178 1240575
179 1474025
180 1171975
181 1171879
182 1172375
183 1176125
184 1359379
185 1174875
186 1359379
187 1359379
188 1237379
189 1359379
190 -1
191 1484379
192 1246875
193 1328147
194 1484395
195 1484395
196 1546875
197 1484395
198 1246875
199 1484385
200 1484385
201 1328299
202 1484393
203 1484375
204 1484379
205 1234375
206 1250004
207 1533750
208 1186875
209 1078625
210 783750
211 783750
212 783012
213 1142935
214 1174399
215 1171975
216 1534305
217 1172495
218 1268746
219 -1
220 793750
221 858750
222 783774
223 1156274
224 1096245
225 1093850
226 784370
227 783774
228 783774
229 781850
230 784350
231 796850
232 783774
233 796850
234 781750
235 783774
236 796750
237 781850
238 1023749
239 1028149
240 781850
241 1496874
242 1176225
243 1187475
244 1172375
245 1549875
246 1234875
247 1549875
248 -1
249 393125
250 718125
251 540848
252 1559748
253 1546895
254 1487502
255 1484379
256 1484377
257 1484530
258 1531328
259 1484750
260 1234379
261 1516710
262 1234379
263 1172120
264 1325000
265 1171895
266 750000
267 1487500
268 1234375
269 1484375
270 1549375
271 1174375
272 1193656
273 1212480
274 1186875
275 1199975
276 1177625
277 1184750
278 1174399
279 1172375
280 1174399
281 1174399
282 1172375
283 1172375
284 1172375
285 -1
286 1174399
287 1174379
288 703150
289 393129
290 1171975
291 1187499
292 1174379
293 1174379
294 1246875
295 1171999
296 1541093
297 1312524
298 1172475
299 765629
300 1172475
