0 [1.0, 1.0, 1.0, 1.0, 1.0, 1.0, 1.0, 1.0]
1 [1.0, 1.0, 1.0, 1.0, 1.0, 1.0, 1.0, 1.0]
2 [1.0, 1.0, 1.0, 1.0, 1.0, 1.0, 1.0, 1.0]
3 [1.0, 1.0, 1.0, 1.0, 1.0, 1.0, 1.0, 1.0]
4 [1.0, 1.0, 1.0, 1.0, 1.0, 1.0, 1.0, 1.0]
5 [1.0, 1.0, 1.0, 1.0, 1.0, 1.0, 1.0, 1.0]
6 [1.0, 1.0, 1.0, 1.0, 1.0, 1.0, 1.0, 1.0]
7 [1.0, 1.0, 1.0, 1.0, 1.0, 1.0, 1.0, 1.0]
8 [1.0, 1.0, 1.0, 1.0, 1.0, 1.0, 1.0, 1.0]
9 [1.0, 1.0, 1.0, 1.0, 1.0, 1.0, 1.0, 1.0]
10 [1.0, 1.0, 1.0, 1.0, 1.0, 1.0, 1.0, 1.0]
11 [1.0, 1.0, 1.0, 1.0, 1.0, 1.0002337, 1.094249, 1.6964109]
12 [1.0, 1.0, 1.0, 1.0, 1.0, 1.0001965, 1.0792751, 1.5857688]
13 [1.0, 1.0, 1.0, 1.0, 1.0, 1.0001497, 1.0604036, 1.4463251]
14 [1.094249, 1.6964109, 1.094249, 1.0002337, 1.0, 1.0001131, 1.045636, 1.3372077]
15 [1.0793481, 1.5863078, 1.0793481, 1.0001967, 1.0, 1.0000855, 1.0344929, 1.2548692]
16 [1.0604635, 1.4467688, 1.0604635, 1.0001498, 1.0, 1.0000646, 1.0260692, 1.1926268]
17 [1.0456817, 1.3375448, 1.0456817, 1.0001132, 1.0, 1.0000488, 1.019683, 1.1454388]
18 [1.0345273, 1.2551242, 1.0345273, 1.0000856, 1.0, 0.99976945, 0.9069872, 0.31272316]
19 [1.0260692, 1.1926268, 1.0260692, 1.0000646, 1.0, 0.9997968, 0.918025, 0.3942821]
20 [1.0197027, 1.1455843, 1.0197027, 1.0000489, 1.0, 0.9998447, 0.9373372, 0.5369811]
21 [0.9069872, 0.31272316, 0.9069872, 0.99976945, 1.0, 0.99988264, 0.9526448, 0.6500898]
22 [0.92268896, 0.42874444, 0.92268896, 0.9998084, 1.0, 0.99991685, 0.9664596, 0.7521678]
23 [0.9412692, 0.59481233, 1.1578012, 1.0291685, 1.0000727, 0.9999372, 0.9746506, 0.81269187]
24 [0.95581007, 0.7649737, 1.6442578, 1.0930924, 1.000231, 0.99995255, 0.9808605, 0.858577]
25 [0.9699998, 0.8444396, 1.4674593, 1.0672716, 1.0001669, 0.99996775, 0.98700255, 0.90396094]
26 [1.0607404, 1.4988184, 1.4369957, 1.051088, 1.0001262, 0.9999757, 0.9901865, 0.9274878]
27 [1.0700467, 1.5553768, 1.3544539, 1.0386766, 1.0000955, 0.99998164, 0.99258316, 0.94519645]
28 [1.0496919, 1.3932325, 1.2457516, 1.0266657, 1.0000658, 0.9999873, 0.9948872, 0.9622209]
29 [1.0375918, 1.2974615, 1.1857706, 1.0201536, 1.0000497, 0.9999904, 0.9961358, 0.97144717]
30 [1.0281203, 1.1177868, 0.350957, 0.9083954, 0.9997728, 0.9999928, 0.9970824, 0.97844183]
31 [1.0263361, 1.1127716, 0.41063568, 0.91671187, 0.9997934, 1.0, 1.0, 1.0]
32 [1.0160342, 1.0557941, 0.544379, 0.9361871, 0.99984175, 1.0, 1.0, 1.0]
33 [0.905285, 0.2527669, 0.54878783, 0.95150274, 0.9998804, 1.0, 1.0, 1.0]
34 [0.91664606, 0.384093, 0.91664606, 0.9997934, 1.0, 1.0, 1.0, 1.0]
35 [0.9361419, 0.50110996, 0.7326921, 0.9722987, 0.99993175, 1.0, 1.0, 1.0]
36 [0.95168555, 0.62256646, 0.7979214, 0.9790637, 0.9999484, 1.0, 1.0, 1.0]
37 [0.9634816, 0.7147187, 0.8472692, 0.98417664, 0.999961, 1.0, 1.0, 1.0]
38 [0.9741626, 0.7981586, 0.89194083, 0.9888048, 0.9999724, 1.0, 1.0, 1.0]
39 [0.9804725, 0.84745145, 0.91833067, 0.9915388, 0.99997914, 1.0, 1.0, 1.0]
40 [0.9852562, 0.88482153, 0.9383373, 0.99361163, 0.99998426, 1.0, 1.0, 1.0]
41 [0.98885685, 0.91295, 0.9533964, 0.9951717, 0.9999881, 1.0, 1.0, 1.0]
42 [0.9915782, 0.93420905, 0.9647777, 0.9963509, 0.999991, 1.0, 1.0, 1.0]
43 [0.9936413, 0.95032597, 0.9734062, 0.99724483, 0.9999932, 1.0, 1.0, 1.0]
44 [1.0, 1.0, 1.0, 1.0, 1.0, 1.0, 1.0, 1.0]
45 [0.99637175, 0.97319055, 0.99637175, 0.999991, 1.0, 1.0, 1.0, 1.0]
46 [0.9972606, 0.9797581, 0.9972606, 0.9999932, 1.0, 1.0, 1.0, 1.0]
47 [1.0, 1.0, 1.0, 1.0, 1.0, 1.0, 1.0, 1.0]
48 [1.0, 1.0, 1.0, 1.0, 1.0, 1.0, 1.0, 1.0]
49 [1.0, 1.0, 1.0, 1.0, 1.0, 1.0, 1.0, 1.0]
