0 [0.0, 0.0, 0.0, 0.0, 0.0, 0.0, 0.0, 0.0]
1 [0.0, 0.0, 0.0, 0.0, 0.0, 0.0, 0.0, 0.0]
2 [0.0, 0.0, 0.0, 0.0, 0.0, 0.0, 0.0, 0.0]
3 [0.0, 0.0, 0.0, 0.0, 0.0, 0.0, 0.0, 0.0]
4 [0.0, 0.0, 0.0, 0.0, 0.0, 0.0, 0.0, 0.0]
5 [0.0, 0.0, 0.0, 0.0, 0.0, 0.0, 0.0, 0.0]
6 [0.0, 0.0, 0.0, 0.0, 0.0, 0.0, 0.0, 0.0]
7 [0.0, 0.0, 0.0, 0.0, 0.0, 0.0, 0.0, 0.0]
8 [0.0, 0.0, 0.0, 0.0, 0.0, 0.0, 0.0, 0.0]
9 [0.0, 0.0, 0.0, 0.0, 0.0, 0.0, 0.0, 0.0]
10 [0.0, 0.0, 0.0, 0.0, 0.0, 0.0, 0.0, 0.0]
11 [0.0, 0.0, 0.0, 0.0, 0.0, 0.0, 0.0, 0.0]
12 [0.024109893, 0.0441099, 0.02289011, 0.08810989, 0.08810989, 0.020890111, 0.019890113, 1.7953956]
13 [0.024109893, 0.0441099, 0.02289011, 0.08810989, 0.08810989, 0.020890111, 0.019890113, 0.8008901]
14 [0.030494502, 0.039505504, 0.028494503, 0.9595055, 0.8855055, 0.8234945, 0.02149451, 0.8665055]
15 [0.030494502, 0.039505504, 0.028494503, 0.0845055, 0.08550549, 0.023494508, 0.02149451, 0.0665055]
16 [0.03435164, 0.03764835, 0.030351644, 0.9596484, 0.46064836, 0.022351652, 0.020351654, 0.44264835]
17 [0.14526495, 0.14926495, 0.14326495, 0.974735, 0.97573507, 0.020153854, 0.017153857, 0.17595726]
18 [0.03415384, 0.03815384, 0.03215384, 0.46084616, 0.46184614, 0.020153854, 0.017153857, 0.93984616]
19 [0.039318677, 0.1161099, 0.10710989, 0.102109894, 1.01689, 0.088318676, 0.01268131, 0.7566813]
20 [0.040884618, 0.15111539, 0.14011538, 0.98511535, 1.0378846, 0.08888462, 0.012115379, 0.0048846165]
21 [0.040884618, 0.05111539, 0.040115375, 0.03511538, 0.9628846, 0.08888462, 0.012115379, 0.8798846]
22 [0.04046703, 0.95553297, 0.94253296, 0.73853296, 0.986467, 0.08846703, 0.012532964, 0.0074670287]
23 [0.04046703, 0.05553297, 0.042532958, 0.038532965, 0.086467035, 0.08846703, 0.012532964, 0.0074670287]
24 [0.03926923, 0.055730775, 0.042730764, 0.038730767, 0.96126926, 0.08926923, 0.011730769, 0.007269237]
25 [0.9520513, 0.97128206, 0.95928204, 0.037615385, 0.08638462, 0.08838462, 0.012615386, 0.006384619]
26 [0.035384614, 0.054615393, 0.04261538, 0.037615385, 0.9613846, 0.08838462, 0.012615386, 0.006384619]
27 [0.9851004, 1.0079905, 0.9959905, 0.036445063, 0.96155494, 0.08855494, 0.013445062, 0.005445057]
28 [0.10678023, 0.118780226, 0.96692306, 0.03235164, 0.08664835, 1.0152198, 0.94392306, 0.08078022]
29 [0.03535166, 0.047351647, 0.03835166, 0.03235164, 0.96164834, 0.08664835, 0.015351643, 0.009351649]
30 [0.0396099, 0.0386099, 0.033609882, 0.028609887, 0.08639011, 1.0159615, 0.9461813, 0.01260989]
31 [0.0396099, 0.0386099, 0.033609882, 0.028609887, 0.08639011, 0.08739011, 0.017609896, 0.01260989]
32 [0.03850549, 0.03950549, 0.028494503, 0.8355055, 0.8365055, 0.02149451, 0.0194945, 0.017494502]
33 [0.5408077, 0.95747435, 0.026192311, 0.085807696, 0.5858077, 0.022192303, 0.021192305, 0.936859]
34 [0.040807694, 0.040807694, 0.026192311, 0.8358077, 0.8358077, 0.022192303, 0.021192305, 0.020192306]
35 [0.1931044, 1.0282692, 0.027741756, 0.08425824, 0.08425824, 0.02474176, 0.023741761, 0.022741761]
36 [0.039258238, 0.039258238, 0.027741756, 0.83425826, 0.83425826, 0.02474176, 0.023741761, 0.022741761]
37 [0.11000001, 1.0310769, 0.028428575, 0.082571425, 0.08357143, 0.025428565, 0.024428567, 0.023428569]
38 [0.038571432, 0.03657142, 0.028428575, 0.082571425, 0.08357143, 0.025428565, 0.024428567, 0.023428569]
39 [0.03782967, 0.031829663, 0.029170327, 0.83182967, 0.83282965, 0.08282967, 0.02517033, 0.024170332]
40 [0.20141758, 1.0204285, 0.03041758, 0.08058242, 0.08158242, 0.08158242, 0.026417585, 0.025417585]
41 [0.036582414, 0.03141758, 0.03041758, 0.83058244, 0.8315824, 0.08158242, 0.026417585, 0.025417585]
42 [0.22233517, 1.021489, 0.031478025, 0.07952198, 0.08052198, 0.08052198, 0.027478017, 0.026478017]
43 [0.12799451, 1.0300934, 0.033587907, 0.07741209, 0.07741209, 0.078412086, 0.030587912, 0.028587913]
44 [0.03458792, 0.035587918, 0.033587907, 0.82741207, 0.82741207, 0.078412086, 0.030587912, 0.028587913]
45 [0.26195055, 1.0258297, 0.03581868, 0.07618132, 0.07618132, 0.07618132, 0.031818684, 0.030818684]
46 [0.031181317, 0.03681868, 0.03581868, 0.07618132, 0.07618132, 0.07618132, 0.031818684, 0.030818684]
47 [0.037884615, 0.037884615, 0.036884617, 0.8251154, 0.8251154, 0.07511538, 0.03288462, 0.03188461]
48 [1.0285604, 0.039549455, 0.037549447, 0.07345055, 0.07345055, 0.07345055, 0.03454945, 0.03354945]
49 [0.039549455, 0.039549455, 0.037549447, 0.82345057, 0.82345057, 0.07345055, 0.03454945, 0.03354945]
