0 -3.1415925
0 -3.1415925
0 -3.1415925
0 3.1415925
0 -0.0
0 -0.0
0 -0.0
0 -0.0
0 -0.0
1 -3.1415925
1 -3.1415925
1 -3.1415925
1 3.1415925
1 -0.0
1 -0.0
1 -0.0
1 -0.0
1 -0.0
2 -3.1415925
2 -3.1415925
2 -3.1415925
2 3.1415925
2 -0.0
2 -0.0
2 -0.0
2 -0.0
2 -0.0
3 -3.1415925
3 -3.1415925
3 -3.1415925
3 3.1415925
3 -0.0
3 -0.0
3 -0.0
3 -0.0
3 -0.0
4 -3.1415925
4 -3.1415925
4 -3.1415925
4 3.1415925
4 -0.0
4 -0.0
4 -0.0
4 -0.0
4 -0.0
5 -3.1415925
5 -3.1415925
5 -3.1415925
5 3.1415925
5 -0.0
5 -0.0
5 -0.0
5 -0.0
5 -0.0
6 -3.1415925
6 -3.1415925
6 -3.1415925
6 3.1415925
6 -0.0
6 -0.0
6 -0.0
6 -0.0
6 -0.0
7 -3.1415925
7 -3.1415925
7 -3.1415925
7 3.1415925
7 -0.0
7 -0.0
7 -0.0
7 -0.0
7 -0.0
8 -3.1415925
8 -3.1415925
8 -3.1415925
8 3.1415925
8 -0.0
8 -0.0
8 -0.0
8 -0.0
8 -0.0
9 -3.1415925
9 -3.1415925
9 -3.1415925
9 3.1415925
9 -0.0
9 -0.0
9 -0.0
9 -0.0
9 -0.0
10 -3.1415925
10 -3.1415925
10 -3.1415925
10 3.1415925
10 -0.0
10 -0.0
10 -0.0
10 -0.0
10 -0.0
11 -3.1415925
11 -3.1415925
11 -3.1415925
11 3.1415925
11 -0.0
11 -0.0
11 -0.0
11 -0.0
11 -0.0
12 -3.1415925
12 -3.1415925
12 -3.1415925
12 3.1415925
12 -0.0
12 -0.0
12 -0.0
12 -0.0
12 -0.0
13 3.134978
13 3.1329947
13 3.1284802
13 3.1045918
13 0.039213974
13 0.013347542
13 0.008672125
13 0.006614587
13 0.00512552
14 3.127543
14 3.1235008
14 3.1142719
14 3.067685
14 0.08896329
14 0.02891456
14 0.018595885
14 0.01404965
14 0.016368639
15 3.127543
15 3.1235008
15 3.1142719
15 3.067685
15 0.08896329
15 0.02891456
15 0.018595885
15 0.01404965
15 0.016368639
16 3.1294124
16 3.1261203
16 3.118552
16 3.0825827
16 0.08612824
16 0.025838392
16 0.016355006
16 0.012180353
16 0.03304555
17 3.1294124
17 3.1261203
17 3.118552
17 3.0825827
17 0.08612824
17 0.025838392
17 0.016355006
17 0.012180353
17 0.03304555
18 3.1304867
18 3.127735
18 3.121318
18 3.0929163
18 0.09287038
18 0.024561448
18 0.015204391
18 0.011105893
18 0.055163436
19 3.12985
19 3.1272638
19 3.1210706
19 3.0957172
19 0.12778082
19 0.027457682
19 0.0164877
19 0.011742823
19 0.08329688
20 3.12985
20 3.1272638
20 3.1210706
20 3.0957172
20 0.12778082
20 0.027457682
20 0.0164877
20 0.011742823
20 0.08329688
21 3.1299622
21 3.1276915
21 3.1220572
21 3.1003954
21 0.17704217
21 0.028757736
21 0.016736176
21 0.011630601
21 0.10984755
22 3.1307228
22 3.1288273
22 3.1239305
22 3.1059723
22 0.2526973
22 0.028289326
22 0.015987283
22 0.010869898
22 0.13277474
23 3.1311162
23 3.1294756
23 3.1250448
23 3.1093855
23 0.44585195
23 0.028588245
23 0.015714569
23 0.010476639
23 0.15285422
24 3.1313744
24 3.129925
24 3.1258283
24 3.1117544
24 1.1385281
24 0.029086327
24 0.015590845
24 0.01021832
24 0.16988336
25 3.1315374
25 3.1302347
25 3.1263819
25 3.113436
25 2.3523457
25 0.02971689
25 0.015570874
25 0.010055245
25 0.18434934
26 3.1325893
26 3.1315093
26 3.1281817
26 3.1171827
26 2.749291
26 0.02745342
26 0.014112202
26 0.009003317
26 0.19589655
27 3.1349685
27 3.1342063
27 3.1318052
27 3.123936
27 2.9111516
27 0.020565152
27 0.010455989
27 0.0066241836
27 0.20222826
28 3.1388993
28 3.1385822
28 3.137601
28 3.1343796
28 3.0424347
28 0.008351012
28 0.004253335
28 0.0026932573
28 0.20113736
29 -3.1407354
29 -3.1406426
29 -3.1403303
29 -3.1393
29 -3.1051764
29 -0.0026001518
29 -0.0013329826
29 -8.5718563E-4
29 0.19740936
30 -3.139255
30 -3.13898
30 -3.1381123
30 -3.1352344
30 -3.0208042
30 -0.007052447
30 -0.0036399877
30 -0.0023375829
30 0.19337498
31 -3.1396115
31 -3.139375
31 -3.1386342
31 -3.1361678
31 -3.022914
31 -0.0059322002
31 -0.0030751263
31 -0.0019811539
31 0.19078787
32 -3.141349
32 -3.1413252
32 -3.1412342
32 -3.1409285
32 -3.1145487
32 -6.965848E-4
32 -3.6568078E-4
32 -2.4342803E-4
32 0.18313433
33 3.138564
33 3.1381109
33 3.1368673
33 3.1325436
33 0.24890056
33 0.008481901
33 0.0045948797
33 0.003028724
33 0.1627507
34 3.1357763
34 3.1347857
34 3.1322055
34 3.1228306
34 0.15587889
34 0.015324144
34 0.008600412
34 0.005816414
34 0.13783231
35 3.1341226
35 3.1326978
35 3.1291363
35 3.1155899
35 0.12411266
35 0.018684655
35 0.010803784
35 0.0074700085
35 0.11498011
36 3.1327033
36 3.1308284
36 3.126286
36 3.1081347
36 0.10856412
36 0.021219272
36 0.012596541
36 0.008889446
36 0.09320365
37 3.1333468
37 3.1314232
37 3.1268818
37 3.10761
37 0.07865313
37 0.018773405
37 0.011439701
37 0.008245826
37 0.06994143
38 3.1355593
38 3.1340325
38 3.1304874
38 3.114542
38 0.04854141
38 0.013218958
38 0.0082246885
38 0.006033452
38 0.05013124
39 3.1385887
39 3.1377828
39 3.13593
39 3.1271849
39 0.021662908
39 0.0064043533
39 0.0040437453
39 0.0030040932
39 0.03545862
40 -3.141413
40 -3.1413646
40 -3.1412513
40 -3.1407008
40 -0.0012140188
40 -3.7462753E-4
40 -2.3848689E-4
40 -1.7961235E-4
40 0.027002145
41 -3.1389062
41 -3.1381605
41 -3.1364484
41 -3.1280777
41 -0.01806698
41 -0.0056178016
41 -0.0035817404
41 -0.0026862517
41 0.02541366
42 -3.138548
42 -3.137704
42 -3.1357665
42 -3.1263123
42 -0.02054614
42 -0.00637351
42 -0.0040617245
42 -0.0030447228
42 0.025918573
43 -3.140516
43 -3.140219
43 -3.1395357
43 -3.1362069
43 -0.0072884946
43 -0.0022546013
43 -0.0014360521
43 -0.0010765819
43 0.026465576
44 3.1393385
44 3.1387134
44 3.1372812
44 3.1303108
44 0.01529717
44 0.004728452
44 0.0030112278
44 0.0022541524
44 0.026636226
45 3.1357758
45 3.1341639
45 3.1304698
45 3.1124907
45 0.039442085
45 0.012197963
45 0.007768381
45 0.0058170464
45 0.026614787
46 3.1337588
46 3.1315882
46 3.1266139
46 3.102405
46 0.053084448
46 0.016425325
46 0.010461039
46 0.007833952
46 0.02658677
47 3.133776
47 3.13161
47 3.1266453
47 3.102485
47 0.052956432
47 0.016388379
47 0.010437962
47 0.007816838
47 0.026553245
48 3.136232
48 3.134746
48 3.1313412
48 3.1147676
48 0.036346313
48 0.011241401
48 0.0071591567
48 0.0053609274
48 0.026586335
49 3.1396418
49 3.1391
49 3.1378608
49 3.131825
49 0.013236849
49 0.0040924223
49 0.0026063493
49 0.0019510627
49 0.026587412
