0 [0.0, 0.0, 0.0, 0.0, 0.0, 0.0, 0.0, 0.0]
1 [0.0, 0.0, 0.0, 0.0, 0.0, 0.0, 0.0, 0.0]
2 [0.0, 0.0, 0.0, 0.0, 0.0, 0.0, 0.0, 0.0]
3 [0.0, 0.0, 0.0, 0.0, 0.0, 0.0, 0.0, 0.0]
4 [0.0, 0.0, 0.0, 0.0, 0.0, 0.0, 0.0, 0.0]
5 [0.0, 0.0, 0.0, 0.0, 0.0, 0.0, 0.0, 0.0]
6 [0.0, 0.0, 0.0, 0.0, 0.0, 0.0, 0.0, 0.0]
7 [0.0, 0.0, 0.0, 0.0, 0.0, 0.0, 0.0, 0.0]
8 [0.0, 0.0, 0.0, 0.0, 0.0, 0.0, 0.0, 0.0]
9 [0.0, 0.0, 0.0, 0.0, 0.0, 0.0, 0.0, 0.0]
10 [0.0, 0.0, 0.0, 0.0, 0.0, 0.0, 0.0, 0.0]
11 [0.0, 0.0, 0.0, 0.0, 0.0, 0.0, 0.0, 0.0]
12 [0.024109893, 0.0441099, 0.02289011, 0.08810989, 0.08810989, 0.020890111, 0.019890113, 1.7953956]
13 [0.024109893, 0.0441099, 0.02289011, 0.08810989, 0.08810989, 0.020890111, 0.019890113, 0.8008901]
14 [0.030494502, 0.039505504, 0.028494503, 0.9595055, 0.8855055, 0.8234945, 0.02149451, 0.8665055]
15 [0.030494502, 0.039505504, 0.028494503, 0.0845055, 0.08550549, 0.023494508, 0.02149451, 0.0665055]
16 [0.03435164, 0.03764835, 0.030351644, 0.9596484, 0.46064836, 0.022351652, 0.020351654, 0.44264835]
17 [0.14526495, 0.14926495, 0.14326495, 0.974735, 0.97573507, 0.020153854, 0.017153857, 0.17595726]
18 [0.03415384, 0.03815384, 0.03215384, 0.46084616, 0.46184614, 0.020153854, 0.017153857, 0.93984616]
19 [0.039318677, 0.1161099, 0.10710989, 0.102109894, 1.01689, 0.088318676, 0.01268131, 0.7566813]
20 [0.040884618, 0.15111539, 0.14011538, 0.98511535, 1.0378846, 0.08889276, 0.0125629045, 0.0062178327]
21 [0.04046703, 0.95553297, 0.94253296, 0.73853296, 0.986467, 0.08848739, 0.013696554, 0.0125895385]
22 [0.04046703, 0.05553297, 0.042532958, 0.038532965, 0.086467035, 0.088483274, 0.013461406, 0.011554342]
23 [0.03926923, 0.055730775, 0.042730764, 0.038730767, 0.96126926, 0.089281656, 0.01238969, 0.010286302]
24 [0.9520513, 0.97128206, 0.95928204, 0.037615385, 0.08638462, 0.08839393, 0.013151122, 0.008388053]
25 [0.035384614, 0.054615393, 0.04261538, 0.037615385, 0.9613846, 0.08839165, 0.013020299, 0.007898822]
26 [0.9851004, 1.0079905, 0.9959905, 0.036445063, 0.96155494, 0.08856026, 0.013770889, 0.006420082]
27 [0.10678023, 0.118780226, 0.96692306, 0.03235164, 0.08664835, 1.015266, 0.9612116, 0.09171264]
28 [0.03535166, 0.047351647, 0.03835166, 0.03235164, 0.96164834, 0.086628154, 0.013907752, 0.002852499]
29 [0.0396099, 0.0386099, 0.033609882, 0.028609887, 0.08639011, 1.0157683, 0.8735789, 0.0054603713]
30 [0.0396099, 0.0386099, 0.033609882, 0.028609887, 0.08639011, 0.08737747, 0.016582586, 0.0071743163]
31 [0.03850549, 0.03950549, 0.028494503, 0.8355055, 0.8365055, 0.02149216, 0.018634574, 0.011792341]
32 [0.5408077, 0.95747435, 0.026192311, 0.085807696, 0.5858077, 0.02219047, 0.020486463, 0.7062948]
33 [0.040807694, 0.040807694, 0.026192311, 0.8358077, 0.8358077, 0.022190917, 0.02065884, 0.016436506]
34 [0.1931044, 1.0282692, 0.027741756, 0.08425824, 0.08425824, 0.024740594, 0.023290073, 0.019544793]
35 [0.039258238, 0.039258238, 0.027741756, 0.83425826, 0.83425826, 0.024740594, 0.023290073, 0.019544793]
36 [0.11000001, 1.0310769, 0.028428575, 0.082571425, 0.08357143, 0.02542766, 0.024077665, 0.02094187]
37 [0.038571432, 0.03657142, 0.028428575, 0.082571425, 0.08357143, 0.025427882, 0.024163626, 0.021551041]
38 [0.03782967, 0.031829663, 0.029170327, 0.83182967, 0.83282965, 0.082827985, 0.024964012, 0.022706399]
39 [0.20141758, 1.0204285, 0.03041758, 0.08058242, 0.08158242, 0.08158117, 0.026253926, 0.024254076]
40 [0.036582414, 0.03141758, 0.03041758, 0.83058244, 0.8315824, 0.08158147, 0.026294017, 0.024539102]
41 [0.22233517, 1.021489, 0.031478025, 0.07952198, 0.08052198, 0.08052127, 0.027380878, 0.025786374]
42 [0.12799451, 1.0300934, 0.033587907, 0.07741209, 0.07741209, 0.078411564, 0.030506188, 0.028023526]
43 [0.03458792, 0.035587918, 0.033587907, 0.82741207, 0.82741207, 0.078412086, 0.030587912, 0.028587913]
44 [0.26195055, 1.0258297, 0.03581868, 0.07618132, 0.07618132, 0.07618132, 0.031818684, 0.030818684]
45 [0.031181317, 0.03681868, 0.03581868, 0.07618132, 0.07618132, 0.07618132, 0.031818684, 0.030818684]
46 [0.037884615, 0.037884615, 0.036884617, 0.8251154, 0.8251154, 0.07511538, 0.03288462, 0.03188461]
47 [0.039549455, 0.039549455, 0.037549447, 0.82345057, 0.82345057, 0.07345055, 0.03454945, 0.03354945]
48 [1.0306814, 0.041670326, 0.03967033, 0.82132965, 0.82132965, 0.07132967, 0.03667033, 0.035670333]
49 [1.0320934, 0.043082416, 0.042082418, 0.06991758, 0.06991758, 0.06991758, 0.03808242, 0.037082423]
