0 [0.0, 0.0, 0.0, 0.0, 0.0, 0.0, 0.0, 0.989011]
1 [0.0, 0.0, 0.0, 0.0, 0.0, 0.0, 0.0, 0.0]
2 [0.75, 0.75, 0.75, 0.0, 0.0, 0.75, 0.75, 0.75]
3 [0.8333333, 0.875, 0.8333333, 0.0, 0.0, 0.0, 0.33333334, 0.375]
4 [0.0, 0.0, 0.0, 0.0, 0.0, 0.0, 0.0, 0.0]
5 [0.0, 0.0, 0.0, 0.0, 0.0, 0.0, 0.0, 0.0]
6 [0.75, 0.75, 0.75, 0.0, 0.0, 0.0, 0.75, 0.875]
7 [0.0, 0.0, 0.0, 0.0, 0.0, 0.0, 0.0, 0.0]
8 [0.4, 0.875, 0.4, 0.4, 0.0, 0.0, 0.8, 0.8]
9 [0.0, 0.875, 0.375, 0.0, 0.0, 0.0, 0.0, 0.375]
10 [0.11111111, 0.8888889, 0.11111111, 0.11111111, 0.11111111, 0.11111111, 0.8888889, 0.8888889]
11 [0.75, 0.75, 0.75, 0.75, 0.0, 0.0, 0.75, 0.75]
12 [0.0, 0.375, 0.375, 0.0, 0.0, 0.0, 0.0, 0.875]
13 [0.33333334, 0.8333333, 0.8333333, 0.0, 0.0, 0.0, 0.33333334, 0.33333334]
14 [0.0, 0.0, 0.875, 0.875, 0.0, 0.0, 0.0, 0.0]
15 [0.0, 0.75, 0.0, 0.0, 0.0, 0.0, 0.0, 0.75]
16 [0.0, 0.0, 0.90909094, 0.90909094, 0.0, 0.0, 0.0, 0.90909094]
17 [0.0, 0.75, 0.0, 0.0, 0.0, 0.0, 0.0, 0.75]
18 [0.0, 0.75, 0.0, 0.0, 0.0, 0.0, 0.0, 0.75]
19 [0.8333333, 0.8333333, 0.8333333, 0.0, 0.0, 0.33333334, 0.33333334, 0.8333333]
20 [0.0, 0.75, 0.0, 0.0, 0.0, 0.0, 0.0, 0.75]
21 [0.5, 0.5, 0.5, 0.5, 0.0, 0.5, 0.5, 0.5]
22 [0.9166667, 0.5, 0.5, 0.5, 0.5, 0.9166667, 0.9166667, 0.9166667]
23 [0.0, 0.875, 0.0, 0.0, 0.0, 0.0, 0.0, 0.875]
24 [0.8888889, 0.22222222, 0.22222222, 0.22222222, 0.22222222, 0.8888889, 0.8888889, 0.8888889]
25 [0.0, 0.875, 0.0, 0.0, 0.0, 0.0, 0.0, 0.875]
26 [0.0054945056, 0.75, 0.0054945056, 0.0054945056, 0.0, 0.99450547, 0.0054945056, 0.75]
27 [0.8888889, 0.8888889, 0.0, 0.0, 0.0, 0.8888889, 0.22222222, 0.8888889]
28 [0.8, 0.8, 0.0, 0.0, 0.0, 0.4, 0.4, 0.8]
29 [0.0, 0.75, 0.0, 0.0, 0.0, 0.0, 0.0, 0.75]
30 [0.0, 0.0, 0.0, 0.0, 0.0, 0.0, 0.0, 0.0]
31 [0.85714287, 0.875, 0.0, 0.0, 0.0, 0.85714287, 0.2857143, 0.875]
32 [0.85714287, 0.875, 0.0, 0.0, 0.0, 0.85714287, 0.2857143, 0.875]
33 [0.0, 0.0, 0.0, 0.0, 0.0, 0.0, 0.0, 0.0]
34 [0.8, 0.8, 0.0, 0.0, 0.0, 0.0, 0.0, 0.0]
35 [0.875, 0.375, 0.0, 0.0, 0.0, 0.0, 0.0, 0.375]
36 [0.5, 0.5, 0.0, 0.0, 0.0, 0.0, 0.0, 0.5]
37 [0.8333333, 0.8333333, 0.8333333, 0.0, 0.0, 0.0, 0.0, 0.0]
38 [0.5, 0.5, 0.0, 0.0, 0.0, 0.0, 0.0, 0.5]
39 [0.75, 0.0, 0.0, 0.0, 0.0, 0.0, 0.0, 0.75]
40 [0.0, 0.9230769, 0.9230769, 0.07692308, 0.07692308, 0.07692308, 0.07692308, 0.0]
41 [0.0, 0.0, 0.0, 0.0, 0.0, 0.0, 0.0, 0.0]
42 [0.0, 0.0, 0.0, 0.0, 0.0, 0.0, 0.0, 0.0]
43 [0.90909094, 0.0, 0.0, 0.0, 0.09090909, 0.09090909, 0.09090909, 0.90909094]
44 [0.0, 0.0, 0.0, 0.0, 0.0, 0.0, 0.0, 0.0]
45 [0.0, 0.0, 0.0, 0.0, 0.0, 0.0, 0.0, 0.0]
46 [0.0, 0.0, 0.0, 0.0, 0.0, 0.0, 0.0, 0.0]
47 [0.75, 0.0, 0.0, 0.0625, 0.9375, 0.0625, 0.0625, 0.9375]
48 [0.0, 0.0, 0.0, 0.0, 0.0, 0.0, 0.0, 0.0]
49 [0.375, 0.0, 0.0, 0.045454547, 0.045454547, 0.045454547, 0.95454544, 0.95454544]
