0.0 0.0
-6.898978E-4 1.13987035E-5
-0.0019458241 1.0078322E-5
-0.001626952 1.252737E-5
-0.001626952 1.252737E-5
-0.001548854 1.8672411E-4
6.395726E-4 6.0290867E-4
0.006556253 8.779441E-4
0.006556253 8.779441E-4
0.01608964 7.505755E-4
0.02702857 3.2243325E-4
0.035331752 1.2276543E-4
0.035331752 1.2276543E-4
0.04214125 -2.4392758E-4
0.05054568 -0.0011419397
0.05054568 -0.0011419397
0.05969428 -0.0017176534
0.06863825 -0.0024314146
0.07959865 -0.0035684996
0.07959865 -0.0035684996
0.090061486 -0.004610466
0.09899278 -0.006171238
0.09899278 -0.006171238
0.10966873 -0.007959716
0.12355735 -0.009691816
0.13760786 -0.010869638
0.13760786 -0.010869638
0.149036 -0.011611121
0.15931697 -0.012061604
0.17158945 -0.012155447
0.17158945 -0.012155447
0.1857567 -0.011747341
0.19995451 -0.010546796
0.21193764 -0.009155909
0.21193764 -0.009155909
0.22021297 -0.008237895
0.22930968 -0.006828174
0.22930968 -0.006828174
0.24020536 -0.004850927
0.24020536 -0.004850927
0.25131378 -0.0028468801
0.26252672 -7.583742E-4
0.27178964 9.2737284E-4
0.27967077 0.0021386133
0.28916264 0.004222888
0.28916264 0.004222888
0.29960182 0.007334242
0.31060043 0.011702323
0.32205594 0.01733179
0.32205594 0.01733179
0.33325908 0.023873746
0.33325908 0.023873746
0.36516708 0.047245752
0.36516708 0.047245752
0.38498 0.064724244
0.40388173 0.083101586
0.41301575 0.092155986
0.43494067 0.11157461
0.45270148 0.1251041
0.45270148 0.1251041
0.45925578 0.13192117
0.46086246 0.13544565
0.4662357 0.13914348
0.4662357 0.13914348
0.4711109 0.1415936
0.47568345 0.14383395
0.48213392 0.14679116
0.4845789 0.14781782
0.4869295 0.14834203
0.4869295 0.14834203
0.48897117 0.14849456
0.48909497 0.14819737
0.48836198 0.14759116
0.48836198 0.14759116
0.48836198 0.14759116
0.48917007 0.1471429
0.5000957 0.14770481
0.50900203 0.14838628
0.50900203 0.14838628
0.51790845 0.14877567
0.5246559 0.14862916
0.5291133 0.14821725
0.5291133 0.14821725
0.5339858 0.1480642
0.5339858 0.1480642
0.5411259 0.14846416
0.5575007 0.15009323
0.5575007 0.15009323
0.5807692 0.1519327
0.5851728 0.15090111
0.59011203 0.14753135
0.5916383 0.14559841
0.5932408 0.14241084
0.5936141 0.14118807
0.5936369 0.13965066
0.5936369 0.13965066
0.5965966 0.1436735
0.59904927 0.14737353
0.6000452 0.14973179
0.59816086 0.14971498
0.59816086 0.14971498
0.5967049 0.14965747
0.59302264 0.15008149
0.5921167 0.15133083
0.59073174 0.15216182
0.5902212 0.15431431
0.5900895 0.15712446
0.5877622 0.16264984
0.5877622 0.16264984
0.5875238 0.16604196
0.59290326 0.17430237
0.59290326 0.17430237
0.60842484 0.18297623
0.60842484 0.18297623
0.6183606 0.18629363
0.6300894 0.18872103
0.6300894 0.18872103
0.64030087 0.19055192
0.65204203 0.19287127
0.65204203 0.19287127
0.65610784 0.19337437
0.6615072 0.19354922
0.6615072 0.19354922
0.66840446 0.19370626
0.6737821 0.19397682
0.6776943 0.19428477
0.6776943 0.19428477
0.6827764 0.19422564
0.69987905 0.19156069
0.69987905 0.19156069
0.7160812 0.18722174
0.721976 0.18516245
0.72965664 0.18220185
0.75348693 0.17259435
0.7642013 0.16809872
0.7751478 0.1633909
0.80635643 0.15087906
0.82384634 0.14457966
0.8517847 0.13514343
0.86068785 0.13221996
0.86615956 0.1303855
0.8700452 0.1288379
0.87629116 0.12589571
0.87786704 0.12457677
0.878595 0.1237272
0.8803905 0.12081413
0.88270235 0.11881975
0.89411485 0.11373589
0.89411485 0.11373589
0.902026 0.11125003
0.902026 0.11125003
