-0.85000795 -0.69976854
-0.8498877 -0.7000319
-0.8503358 -0.6998631
-0.84928524 -0.70068306
-0.84928524 -0.70068306
-0.8472083 -0.7026375
-0.8472083 -0.7026375
-0.84579784 -0.70343745
-0.84424305 -0.7032986
-0.84424305 -0.7032986
-0.84169245 -0.7008131
-0.8410846 -0.7000086
-0.840943 -0.6999144
-0.840943 -0.6999144
-0.8409487 -0.69991815
-0.84117347 -0.699803
-0.84037465 -0.694812
-0.840078 -0.69250846
-0.8376422 -0.683934
-0.8351089 -0.6764684
-0.8316995 -0.6660574
-0.82787514 -0.65410113
-0.82441205 -0.6423598
-0.82144594 -0.6311499
-0.8179456 -0.61893773
-0.8179456 -0.61893773
-0.81373596 -0.60697836
-0.81044894 -0.59808326
-0.81044894 -0.59808326
-0.80823183 -0.5915847
-0.8059419 -0.5858504
-0.8026431 -0.57933676
-0.8026431 -0.57933676
-0.7983103 -0.57196206
-0.79356676 -0.56459147
-0.79356676 -0.56459147
-0.78970385 -0.55889857
-0.7863457 -0.554118
-0.77538407 -0.5421268
-0.77538407 -0.5421268
-0.7689801 -0.535839
-0.7623745 -0.52982444
-0.7623745 -0.52982444
-0.7553917 -0.52371174
-0.7553917 -0.52371174
-0.748042 -0.517443
-0.7298755 -0.5042137
-0.7298755 -0.5042137
-0.7197293 -0.4981869
-0.70909774 -0.4921959
-0.69819975 -0.48641443
-0.69819975 -0.48641443
-0.68871653 -0.48160172
-0.67194813 -0.47447842
-0.6621463 -0.47197214
-0.6408516 -0.46857986
-0.6298417 -0.46763235
-0.6197918 -0.46743417
-0.6030471 -0.46842688
-0.6030471 -0.46842688
-0.59034854 -0.47014752
-0.58410764 -0.47096238
-0.58410764 -0.47096238
-0.5748916 -0.47155857
-0.5635813 -0.47518802
-0.5492621 -0.48303756
-0.5492621 -0.48303756
-0.54098946 -0.4882036
-0.54098946 -0.4882036
-0.5392332 -0.48916078
-0.5367367 -0.49101454
-0.5367367 -0.49101454
-0.5331594 -0.4936923
-0.5290889 -0.49619156
-0.5281982 -0.49669737
-0.52661914 -0.49854225
-0.52661914 -0.49854225
-0.5234219 -0.50310075
-0.52115905 -0.506429
-0.51914257 -0.50953746
-0.51817316 -0.5114292
-0.5168813 -0.5134913
-0.51529455 -0.516073
-0.51385665 -0.5188797
-0.51547706 -0.5207188
-0.51547706 -0.5207188
-0.5148035 -0.52380806
-0.51193696 -0.5270639
-0.51193696 -0.5270639
-0.5069637 -0.5323148
-0.5047887 -0.5344867
-0.5047164 -0.5345786
-0.5047164 -0.5345786
-0.5042191 -0.53507215
-0.5033687 -0.53588796
-0.5024664 -0.53705555
-0.50064844 -0.5396665
-0.49852696 -0.5411879
-0.49400902 -0.5437492
-0.48687077 -0.54740465
-0.48687077 -0.54740465
-0.47827235 -0.55134267
-0.46954456 -0.5548607
-0.46954456 -0.5548607
-0.46292728 -0.55727136
-0.45750323 -0.55887353
-0.45204908 -0.56051296
-0.45204908 -0.56051296
-0.44482818 -0.5630563
-0.4360783 -0.5663417
-0.4290886 -0.5686779
-0.4290886 -0.5686779
-0.42514104 -0.56977093
-0.4221666 -0.5704078
-0.41805115 -0.57200867
-0.41805115 -0.57200867
-0.41120735 -0.57512796
-0.40154022 -0.5801023
-0.40154022 -0.5801023
-0.3745795 -0.5962555
-0.3745795 -0.5962555
-0.359573 -0.60588074
-0.34469485 -0.61580074
-0.34469485 -0.61580074
-0.31612426 -0.63677406
-0.31612426 -0.63677406
-0.28809118 -0.6573242
-0.28809118 -0.6573242
-0.2740809 -0.66713786
-0.24580021 -0.6849685
-0.24580021 -0.6849685
-0.21848981 -0.6984397
-0.20688188 -0.7028725
-0.20688188 -0.7028725
