1.1055272817612 1.475000500679
1.1039761304855 1.4740040302277
1.1000244617462 1.4717342853546
1.0951707363129 1.4691959619522
1.0894693136215 1.4662103652954
1.0832747220993 1.4630386829376
1.0769917964935 1.4598064422607
1.0706905126572 1.4562859535217
1.0644574165344 1.4526755809784
1.058051943779 1.4489687681198
1.051527261734 1.4450149536133
1.0450541973114 1.4409618377686
1.0385707616806 1.4367673397064
1.0321235656738 1.4322727918625
1.025606751442 1.4275945425034
1.0190489292145 1.4228903055191
1.0124864578247 1.4180955886841
1.005833029747 1.4131689071655
0.99914646148682 1.4081184864044
0.99241387844086 1.4029386043549
0.98564785718918 1.3976151943207
0.97885227203369 1.3921792507172
0.97199088335037 1.3866057395935
0.96510046720505 1.3809149265289
0.95818054676056 1.3751026391983
0.95120012760162 1.3691956996918
0.94418066740036 1.3631863594055
0.93712204694748 1.3570481538773
0.9299955368042 1.3507989645004
0.9228264093399 1.3444702625275
0.91559517383575 1.3380707502365
0.90832394361496 1.3315722942352
0.90106326341629 1.3250941038132
0.89379501342773 1.3186013698578
0.88653308153152 1.3121163845062
0.87924832105637 1.3056305646896
0.87196934223175 1.2991489171982
0.864710688591 1.2926735877991
0.85742330551147 1.2861862182617
0.85013806819916 1.2796889543533
0.8428652882576 1.273209810257
0.83559018373489 1.2667196989059
0.82831412553787 1.2602343559265
0.82103967666626 1.2537562847137
0.81377494335175 1.2472805976868
0.80649888515472 1.2407983541489
0.79921072721481 1.2343090772629
0.79194867610931 1.2278357744217
0.78465920686722 1.2213433980942
0.77738463878632 1.2148549556732
0.77010542154312 1.208376288414
0.76283872127533 1.2019007205963
0.75557333230972 1.1954357624054
0.74829256534576 1.1889412403107
0.74101215600967 1.1824487447739
0.73373395204544 1.1759610176086
0.72646349668503 1.1694856882095
0.71918207406998 1.1629927158356
0.7119032740593 1.1565090417862
0.70463210344315 1.1500308513641
0.69735717773438 1.1435458660126
0.69007515907288 1.1370714902878
0.68281209468842 1.1305891275406
0.67553949356079 1.1241042613983
0.66825783252716 1.1176071166992
0.66098284721375 1.1111199855804
0.65370404720306 1.1046382188797
0.64644503593445 1.0981659889221
0.63916176557541 1.091673374176
0.63188797235489 1.0851900577545
0.6246223449707 1.0787279605865
0.61734145879745 1.0722315311432
0.61007279157639 1.0657584667206
0.60279905796051 1.0592739582062
0.59552133083344 1.0527821779251
0.58825922012329 1.0463120937347
0.58098638057709 1.0398226976395
0.57370436191559 1.033334851265
0.56642955541611 1.0268508195877
0.55914354324341 1.0203559398651
0.55186426639557 1.0138758420944
0.5445910692215 1.0073872804642
0.53730905056 1.000895857811
0.53004270792007 0.99442118406296
0.52276331186295 0.98793858289719
0.51548737287521 0.98145037889481
0.508216381073 0.97496473789215
0.50094085931778 0.9684876203537
0.49366196990013 0.96199595928192
0.48640576004982 0.95551985502243
0.47911563515663 0.94902861118317
0.47185531258583 0.94254893064499
0.46457433700562 0.93606901168823
0.4572988152504 0.92958289384842
0.45003047585487 0.92310678958893
0.44273692369461 0.91660702228546
0.43545842170715 0.91012144088745
0.42819103598595 0.90364122390747
0.42091828584671 0.89715003967285
0.41365972161293 0.89068669080734
0.40637499094009 0.88419306278229
0.39910590648651 0.8777157664299
0.39184230566025 0.8712306022644
0.38455894589424 0.86474674940109
0.37729600071907 0.85827529430389
0.37002685666084 0.85179376602173
0.36275401711464 0.84531223773956
0.35547035932541 0.83882111310959
0.34819346666336 0.83233964443207
0.34091889858246 0.82585537433624
0.33364951610565 0.81937086582184
0.32636448740959 0.81287801265717
0.31907385587692 0.80639189481735
0.31180527806282 0.79990273714066
0.30452287197113 0.79340463876724
0.29725018143654 0.78691726922989
0.28997501730919 0.78043687343597
0.28269264101982 0.77393782138824
0.27542486786842 0.76745796203613
0.26812425255775 0.76096343994141
0.26084941625595 0.75447624921799
0.25357642769814 0.74799287319183
0.24630033969879 0.74150562286377
0.23903028666973 0.73501789569855
0.23175652325153 0.72853434085846
0.22448921203613 0.72205412387848
0.21720726788044 0.71556198596954
0.20991460978985 0.7090665102005
0.20266458392143 0.70260393619537
0.19537577033043 0.69612169265747
0.1880991756916 0.68963903188705
0.18082803487778 0.68316227197647
0.17354951798916 0.67667841911316
0.16626903414726 0.67019510269165
