1 257 148.0 148.0
2 81 73.0 221.0
3 88 74.5 295.5
4 96 91.0 386.5
5 127 109.5 496.0
6 70 64.0 560.0
7 35 35.0 595.0
8 94 82.5 677.5
9 70 50.5 728.0
10 70 50.0 778.0
11 522 409.5 1187.5
12 1 1.0 1188.5
13 700 580.0 1768.5
14 700 529.0 2297.5
15 340 279.0 2576.5
16 1 1.0 2577.5
17 1 1.0 2578.5
18 466 355.0 2933.5
19 1 0.5 2934.0
20 700 582.5 3516.5
21 646 479.0 3995.5
22 1 1.0 3996.5
23 1 1.0 3997.5
24 261 221.0 4218.5
25 1 1.0 4219.5
26 568 401.0 4620.5
27 1 1.0 4621.5
28 195 143.0 4764.5
29 1 1.0 4765.5
30 598 455.0 5220.5
31 1 0.0 5220.5
32 485 379.5 5600.0
33 1 1.0 5601.0
34 575 547.0 6148.0
35 1 1.0 6149.0
36 1 1.0 6150.0
37 392 319.5 6469.5
38 1 0.5 6470.0
39 700 548.5 7018.5
40 700 529.5 7548.0
41 578 458.5 8006.5
42 1 1.0 8007.5
43 700 443.5 8451.0
44 700 497.5 8948.5
45 700 496.5 9445.0
46 700 609.5 10054.5
47 424 346.5 10401.0
48 1 0.5 10401.5
49 271 251.0 10652.5
50 1 0.5 10653.0
51 690 451.5 11104.5
52 1 0.0 11104.5
53 373 281.0 11385.5
54 1 1.0 11386.5
55 1 0.0 11386.5
56 700 559.5 11946.0
57 607 387.5 12333.5
58 1 0.5 12334.0
59 700 506.5 12840.5
60 618 448.0 13288.5
61 1 1.0 13289.5
62 418 320.5 13610.0
63 1 1.0 13611.0
64 700 564.0 14175.0
65 226 201.5 14376.5
66 1 1.0 14377.5
67 1 1.0 14378.5
68 394 296.5 14675.0
69 1 1.0 14676.0
70 574 484.5 15160.5
71 1 0.5 15161.0
72 387 310.5 15471.5
73 1 0.5 15472.0
74 1 0.5 15472.5
75 700 500.0 15972.5
76 182 133.5 16106.0
77 1 0.5 16106.5
78 1 0.5 16107.0
79 700 565.0 16672.0
80 381 334.5 17006.5
81 1 1.0 17007.5
82 478 354.5 17362.0
83 1 1.0 17363.0
84 218 194.0 17557.0
85 1 1.0 17558.0
86 700 497.0 18055.0
87 549 367.0 18422.0
88 1 0.0 18422.0
89 700 481.5 18903.5
90 210 166.0 19069.5
91 1 0.0 19069.5
92 486 364.0 19433.5
93 1 1.0 19434.5
94 504 341.5 19776.0
95 1 1.0 19777.0
96 554 456.0 20233.0
97 1 1.0 20234.0
98 700 505.5 20739.5
99 396 278.5 21018.0
100 1 1.0 21019.0
101 521 431.5 21450.5
102 1 1.0 21451.5
103 619 432.0 21883.5
104 1 1.0 21884.5
105 661 539.0 22423.5
106 1 0.0 22423.5
107 357 301.5 22725.0
108 519 353.5 23078.5
109 1 1.0 23079.5
110 240 165.5 23245.0
111 1 1.0 23246.0
112 355 265.0 23511.0
113 1 1.0 23512.0
114 156 135.5 23647.5
115 1 1.0 23648.5
116 700 528.0 24176.5
117 361 297.5 24474.0
118 1 0.0 24474.0
119 628 469.5 24943.5
120 1 1.0 24944.5
121 363 297.5 25242.0
122 1 1.0 25243.0
123 606 469.5 25712.5
124 1 0.0 25712.5
125 428 355.5 26068.0
126 1 1.0 26069.0
127 1 1.0 26070.0
128 700 480.0 26550.0
129 700 518.5 27068.5
130 700 492.0 27560.5
131 482 406.5 27967.0
132 1 0.0 27967.0
133 700 490.5 28457.5
134 442 385.5 28843.0
135 1 0.0 28843.0
136 218 146.0 28989.0
137 1 1.0 28990.0
138 1 1.0 28991.0
139 637 577.5 29568.5
140 1 0.0 29568.5
141 439 323.5 29892.0
142 1 0.0 29892.0
143 700 543.0 30435.0
144 579 431.5 30866.5
145 1 1.0 30867.5
146 396 290.0 31157.5
147 1 1.0 31158.5
148 700 501.5 31660.0
149 179 144.0 31804.0
150 1 1.0 31805.0
151 184 146.5 31951.5
152 1 0.5 31952.0
153 269 194.5 32146.5
154 700 564.5 32711.0
155 185 153.0 32864.0
156 1 1.0 32865.0
157 1 1.0 32866.0
158 700 519.5 33385.5
159 343 250.0 33635.5
160 1 1.0 33636.5
161 354 247.0 33883.5
162 1 1.0 33884.5
163 700 463.5 34348.0
164 483 316.0 34664.0
165 1 1.0 34665.0
166 1 1.0 34666.0
167 1 1.0 34667.0
168 403 246.0 34913.0
169 1 0.5 34913.5
170 589 397.0 35310.5
171 1 1.0 35311.5
172 1 1.0 35312.5
173 1 1.0 35313.5
174 223 169.0 35482.5
175 1 1.0 35483.5
176 700 486.5 35970.0
177 700 492.5 36462.5
178 659 502.0 36964.5
179 1 0.0 36964.5
180 518 375.0 37339.5
181 1 1.0 37340.5
182 700 477.5 37818.0
183 264 183.0 38001.0
184 1 0.5 38001.5
185 223 176.0 38177.5
186 1 0.5 38178.0
187 700 509.0 38687.0
188 421 321.5 39008.5
189 1 1.0 39009.5
190 1 1.0 39010.5
191 1 1.0 39011.5
192 700 520.5 39532.0
193 684 514.0 40046.0
194 1 0.5 40046.5
195 1 0.5 40047.0
196 242 161.5 40208.5
197 1 1.0 40209.5
198 435 328.0 40537.5
199 1 0.0 40537.5
200 173 136.5 40674.0
201 1 1.0 40675.0
202 465 301.5 40976.5
203 148 143.0 41119.5
204 1 0.5 41120.0
205 700 575.5 41695.5
206 700 482.5 42178.0
207 664 437.5 42615.5
208 1 0.5 42616.0
209 592 481.0 43097.0
210 700 550.0 43647.0
211 487 306.0 43953.0
212 1 1.0 43954.0
213 700 511.0 44465.0
214 258 180.0 44645.0
215 315 267.0 44912.0
216 1 1.0 44913.0
217 584 452.5 45365.5
218 1 1.0 45366.5
219 384 290.5 45657.0
220 1 1.0 45658.0
221 700 469.5 46127.5
222 700 532.0 46659.5
223 700 495.0 47154.5
224 700 433.0 47587.5
225 476 344.0 47931.5
226 1 1.0 47932.5
227 700 374.0 48306.5
228 200 149.5 48456.0
229 1 1.0 48457.0
230 700 593.0 49050.0
231 700 483.0 49533.0
232 521 373.5 49906.5
233 1 1.0 49907.5
234 700 578.0 50485.5
235 473 318.5 50804.0
236 1 1.0 50805.0
237 1 1.0 50806.0
238 700 594.0 51400.0
239 700 447.0 51847.0
240 700 496.5 52343.5
241 678 530.0 52873.5
242 1 1.0 52874.5
243 1 1.0 52875.5
244 323 224.5 53100.0
245 1 1.0 53101.0
246 1 1.0 53102.0
247 539 435.5 53537.5
248 1 1.0 53538.5
249 700 463.5 54002.0
250 169 144.0 54146.0
251 1 1.0 54147.0
252 700 494.5 54641.5
253 700 504.5 55146.0
254 467 341.5 55487.5
255 1 0.5 55488.0
256 671 528.0 56016.0
257 1 1.0 56017.0
258 700 426.5 56443.5
259 700 516.0 56959.5
260 568 346.0 57305.5
261 1 1.0 57306.5
262 700 584.0 57890.5
263 700 449.5 58340.0
264 606 427.0 58767.0
265 1 1.0 58768.0
266 700 553.0 59321.0
267 674 419.0 59740.0
268 1 1.0 59741.0
269 1 1.0 59742.0
270 355 226.0 59968.0
271 1 0.0 59968.0
272 672 522.0 60490.0
273 1 0.5 60490.5
274 549 432.0 60922.5
275 1 1.0 60923.5
276 700 481.0 61404.5
277 388 264.5 61669.0
278 1 1.0 61670.0
279 700 510.5 62180.5
280 405 289.0 62469.5
281 1 1.0 62470.5
282 699 587.0 63057.5
283 1 1.0 63058.5
284 166 144.0 63202.5
285 1 1.0 63203.5
286 311 257.0 63460.5
287 1 1.0 63461.5
288 700 521.0 63982.5
289 369 328.5 64311.0
290 1 1.0 64312.0
291 700 477.0 64789.0
292 700 483.0 65272.0
293 700 559.5 65831.5
294 700 529.5 66361.0
295 700 524.5 66885.5
296 550 312.0 67197.5
297 1 1.0 67198.5
298 570 445.0 67643.5
299 1 1.0 67644.5
300 700 496.0 68140.5
301 469 329.5 68470.0
302 1 1.0 68471.0
303 568 482.5 68953.5
304 1 1.0 68954.5
305 471 349.0 69303.5
306 1 1.0 69304.5
307 335 256.5 69561.0
308 1 0.5 69561.5
309 622 448.0 70009.5
310 1 1.0 70010.5
311 362 273.5 70284.0
312 1 1.0 70285.0
313 700 462.5 70747.5
314 700 487.0 71234.5
315 624 533.0 71767.5
316 1 0.0 71767.5
317 253 182.0 71949.5
318 700 535.0 72484.5
319 257 188.5 72673.0
320 1 0.5 72673.5
321 1 0.5 72674.0
322 476 441.5 73115.5
323 1 1.0 73116.5
324 700 374.5 73491.0
325 634 475.5 73966.5
326 1 1.0 73967.5
327 495 431.0 74398.5
328 1 1.0 74399.5
329 700 496.0 74895.5
330 263 210.0 75105.5
331 1 0.5 75106.0
332 509 388.5 75494.5
333 1 1.0 75495.5
334 191 156.5 75652.0
335 1 1.0 75653.0
336 700 533.0 76186.0
337 342 262.0 76448.0
338 1 0.5 76448.5
339 700 486.5 76935.0
340 700 465.0 77400.0
341 700 526.0 77926.0
342 700 541.0 78467.0
343 566 356.0 78823.0
344 1 1.0 78824.0
345 510 326.0 79150.0
346 1 1.0 79151.0
347 1 1.0 79152.0
348 1 1.0 79153.0
349 1 1.0 79154.0
350 333 268.0 79422.0
351 1 1.0 79423.0
352 700 497.5 79920.5
353 1 1.0 79921.5
354 1 1.0 79922.5
355 700 517.5 80440.0
356 686 403.0 80843.0
357 1 1.0 80844.0
358 1 1.0 80845.0
359 1 1.0 80846.0
360 700 505.5 81351.5
361 700 513.0 81864.5
362 441 357.0 82221.5
363 1 1.0 82222.5
364 633 499.5 82722.0
365 1 1.0 82723.0
366 700 553.5 83276.5
367 440 326.5 83603.0
368 1 1.0 83604.0
369 228 177.0 83781.0
370 1 1.0 83782.0
371 692 486.5 84268.5
372 1 1.0 84269.5
373 700 457.5 84727.0
374 426 313.5 85040.5
375 1 1.0 85041.5
376 621 488.0 85529.5
377 49 48.5 85578.0
378 181 127.5 85705.5
379 344 217.5 85923.0
380 289 228.5 86151.5
381 115 92.0 86243.5
382 700 485.5 86729.0
383 700 489.5 87218.5
384 319 220.5 87439.0
385 1 1.0 87440.0
386 1 1.0 87441.0
387 1 1.0 87442.0
388 333 248.0 87690.0
389 1 1.0 87691.0
390 700 510.0 88201.0
391 524 384.5 88585.5
392 1 0.5 88586.0
393 662 475.0 89061.0
394 1 0.0 89061.0
395 700 557.0 89618.0
396 700 513.5 90131.5
397 541 436.0 90567.5
398 1 1.0 90568.5
399 1 1.0 90569.5
400 437 328.5 90898.0
401 1 0.5 90898.5
402 543 444.5 91343.0
403 1 0.5 91343.5
404 700 517.0 91860.5
405 329 211.0 92071.5
406 1 0.0 92071.5
407 700 541.0 92612.5
408 280 205.0 92817.5
409 1 0.5 92818.0
410 624 492.5 93310.5
411 1 0.5 93311.0
412 571 335.5 93646.5
413 185 160.0 93806.5
414 198 128.0 93934.5
415 57 56.5 93991.0
416 157 71.5 94062.5
417 1 1.0 94063.5
418 700 488.5 94552.0
419 700 542.0 95094.0
420 151 98.0 95192.0
421 700 549.5 95741.5
422 700 460.0 96201.5
423 700 489.0 96690.5
424 478 407.0 97097.5
425 1 1.0 97098.5
426 700 449.0 97547.5
427 147 99.5 97647.0
428 1 1.0 97648.0
429 700 443.0 98091.0
430 700 481.0 98572.0
431 700 538.5 99110.5
432 596 473.5 99584.0
433 1 1.0 99585.0
434 700 521.0 100106.0
435 587 369.0 100475.0
436 1 0.0 100475.0
437 700 573.5 101048.5
438 670 390.5 101439.0
439 1 0.5 101439.5
440 140 123.5 101563.0
441 1 0.5 101563.5
442 548 450.5 102014.0
443 1 1.0 102015.0
444 297 209.5 102224.5
445 264 189.0 102413.5
446 251 184.5 102598.0
447 281 187.5 102785.5
448 1 0.5 102786.0
449 508 347.5 103133.5
450 700 442.0 103575.5
451 341 252.5 103828.0
452 1 0.5 103828.5
453 1 0.5 103829.0
454 700 483.0 104312.0
455 343 240.0 104552.0
456 294 193.0 104745.0
457 176 150.5 104895.5
458 12 12.0 104907.5
459 1 1.0 104908.5
460 1 1.0 104909.5
461 700 474.0 105383.5
462 659 545.0 105928.5
463 195 138.0 106066.5
464 101 65.5 106132.0
465 201 144.5 106276.5
466 57 54.5 106331.0
467 421 304.0 106635.0
468 700 512.5 107147.5
469 700 401.0 107548.5
470 700 496.5 108045.0
471 700 517.5 108562.5
472 700 489.0 109051.5
473 600 463.5 109515.0
474 1 1.0 109516.0
475 1 1.0 109517.0
476 1 0.0 109517.0
477 1 0.0 109517.0
478 1 1.0 109518.0
479 1 1.0 109519.0
480 700 466.5 109985.5
481 700 489.0 110474.5
482 249 185.5 110660.0
483 1 1.0 110661.0
484 700 498.0 111159.0
485 700 419.0 111578.0
486 327 236.5 111814.5
487 1 0.5 111815.0
488 143 114.5 111929.5
489 1 0.5 111930.0
490 255 135.5 112065.5
491 410 276.0 112341.5
492 1 0.0 112341.5
493 1 0.0 112341.5
494 700 579.0 112920.5
495 434 307.0 113227.5
496 1 0.5 113228.0
497 700 428.5 113656.5
498 700 465.0 114121.5
499 541 350.0 114471.5
500 1 1.0 114472.5
501 670 488.5 114961.0
502 1 0.5 114961.5
503 313 226.5 115188.0
504 1 0.0 115188.0
505 700 472.0 115660.0
506 518 386.5 116046.5
507 1 0.5 116047.0
508 700 450.5 116497.5
509 700 493.0 116990.5
510 368 254.0 117244.5
511 1 1.0 117245.5
512 700 568.0 117813.5
513 576 500.0 118313.5
514 1 1.0 118314.5
515 1 1.0 118315.5
516 700 481.0 118796.5
517 700 464.5 119261.0
518 284 217.0 119478.0
519 1 0.0 119478.0
520 700 487.0 119965.0
521 700 491.0 120456.0
522 691 513.5 120969.5
523 1 0.5 120970.0
524 700 472.5 121442.5
525 700 444.0 121886.5
526 627 482.0 122368.5
527 1 1.0 122369.5
528 700 473.0 122842.5
529 700 395.5 123238.0
530 700 481.5 123719.5
531 700 546.5 124266.0
532 700 477.0 124743.0
533 700 470.5 125213.5
534 700 581.0 125794.5
535 249 192.0 125986.5
536 1 1.0 125987.5
537 1 0.5 125988.0
538 646 507.0 126495.0
539 1 0.0 126495.0
540 445 279.5 126774.5
541 1 1.0 126775.5
542 700 473.0 127248.5
543 700 560.0 127808.5
544 700 402.0 128210.5
545 700 555.5 128766.0
546 700 585.0 129351.0
547 241 214.0 129565.0
548 1 1.0 129566.0
549 700 540.5 130106.5
550 426 273.0 130379.5
551 555 396.5 130776.0
552 138 66.0 130842.0
553 700 430.5 131272.5
554 579 454.0 131726.5
555 1 1.0 131727.5
556 700 564.5 132292.0
557 700 465.0 132757.0
558 700 507.5 133264.5
559 700 527.0 133791.5
560 700 422.5 134214.0
561 700 433.5 134647.5
562 439 306.5 134954.0
563 1 0.5 134954.5
564 678 501.5 135456.0
565 1 0.0 135456.0
566 700 414.0 135870.0
567 246 188.0 136058.0
568 1 1.0 136059.0
569 700 467.5 136526.5
570 700 453.0 136979.5
571 700 542.0 137521.5
572 700 497.0 138018.5
573 700 482.5 138501.0
574 267 209.5 138710.5
575 1 0.0 138710.5
576 700 422.5 139133.0
577 700 480.0 139613.0
578 700 496.5 140109.5
579 700 546.5 140656.0
580 700 422.5 141078.5
581 700 558.5 141637.0
582 700 568.0 142205.0
583 700 427.5 142632.5
584 700 480.0 143112.5
585 700 486.0 143598.5
586 700 474.5 144073.0
587 572 356.5 144429.5
588 1 0.0 144429.5
589 1 0.0 144429.5
590 700 509.0 144938.5
591 700 494.5 145433.0
592 700 522.0 145955.0
593 271 196.0 146151.0
594 224 176.0 146327.0
595 398 292.0 146619.0
596 225 172.5 146791.5
597 700 494.5 147286.0
598 700 518.0 147804.0
599 700 566.0 148370.0
600 700 563.0 148933.0
601 700 527.0 149460.0
602 700 488.0 149948.0
603 468 340.5 150288.5
604 1 1.0 150289.5
605 601 451.5 150741.0
606 1 1.0 150742.0
607 700 431.5 151173.5
608 700 518.0 151691.5
609 700 446.5 152138.0
610 700 563.0 152701.0
611 700 503.0 153204.0
612 700 449.5 153653.5
613 700 459.0 154112.5
614 700 507.5 154620.0
615 381 309.5 154929.5
616 1 1.0 154930.5
617 700 521.5 155452.0
618 700 536.5 155988.5
619 373 295.5 156284.0
620 1 1.0 156285.0
621 654 548.5 156833.5
622 1 1.0 156834.5
623 700 508.0 157342.5
624 700 497.0 157839.5
625 587 401.5 158241.0
626 1 1.0 158242.0
627 700 546.0 158788.0
628 700 534.0 159322.0
629 700 441.0 159763.0
630 700 516.5 160279.5
631 700 542.0 160821.5
632 700 554.5 161376.0
633 700 483.5 161859.5
634 700 466.5 162326.0
635 700 490.0 162816.0
636 675 534.5 163350.5
637 1 0.0 163350.5
638 34 28.0 163378.5
639 4 4.0 163382.5
640 1 1.0 163383.5
641 412 263.0 163646.5
642 700 492.5 164139.0
643 700 468.5 164607.5
644 700 544.5 165152.0
645 700 532.0 165684.0
646 700 424.0 166108.0
647 700 509.0 166617.0
648 574 412.5 167029.5
649 1 0.5 167030.0
650 1 0.5 167030.5
651 197 136.5 167167.0
652 1 0.5 167167.5
653 700 528.0 167695.5
654 700 407.0 168102.5
655 700 546.5 168649.0
656 700 540.5 169189.5
657 700 520.5 169710.0
658 700 534.0 170244.0
659 700 464.5 170708.5
660 700 437.5 171146.0
661 700 495.0 171641.0
662 700 552.0 172193.0
663 700 539.0 172732.0
664 700 480.5 173212.5
665 700 460.5 173673.0
666 169 116.5 173789.5
667 1 0.0 173789.5
668 1 0.0 173789.5
669 700 573.5 174363.0
670 700 471.5 174834.5
671 540 381.0 175215.5
672 1 0.5 175216.0
673 700 550.0 175766.0
674 700 534.5 176300.5
675 700 470.5 176771.0
676 700 501.5 177272.5
677 700 400.5 177673.0
678 700 549.5 178222.5
679 700 493.0 178715.5
680 700 524.5 179240.0
681 700 417.0 179657.0
682 700 525.5 180182.5
683 292 233.5 180416.0
684 1 1.0 180417.0
685 605 432.5 180849.5
686 1 1.0 180850.5
687 700 539.5 181390.0
688 700 529.5 181919.5
689 700 486.5 182406.0
690 700 539.5 182945.5
691 700 499.5 183445.0
692 700 563.0 184008.0
693 700 483.5 184491.5
694 700 505.0 184996.5
695 700 469.0 185465.5
696 280 209.0 185674.5
697 1 1.0 185675.5
698 700 514.0 186189.5
699 700 448.5 186638.0
700 700 560.0 187198.0
701 700 542.0 187740.0
702 679 540.5 188280.5
703 1 1.0 188281.5
704 700 546.0 188827.5
705 700 459.5 189287.0
706 264 197.0 189484.0
707 1 1.0 189485.0
708 700 520.0 190005.0
709 700 483.5 190488.5
710 262 192.5 190681.0
711 1 1.0 190682.0
712 700 533.5 191215.5
713 700 520.0 191735.5
714 700 536.0 192271.5
715 700 484.5 192756.0
716 700 497.5 193253.5
717 551 429.0 193682.5
718 700 520.0 194202.5
719 700 472.0 194674.5
720 700 528.0 195202.5
721 700 516.0 195718.5
722 700 534.5 196253.0
723 700 507.0 196760.0
724 700 457.0 197217.0
725 700 498.0 197715.0
726 700 524.0 198239.0
727 700 526.5 198765.5
728 700 486.0 199251.5
729 700 499.5 199751.0
730 700 508.0 200259.0
731 700 583.0 200842.0
732 700 574.0 201416.0
733 700 551.5 201967.5
734 700 503.5 202471.0
735 700 533.0 203004.0
736 700 529.0 203533.0
737 700 425.0 203958.0
738 700 477.0 204435.0
739 700 560.0 204995.0
740 700 520.5 205515.5
741 700 446.0 205961.5
742 700 442.5 206404.0
743 700 456.0 206860.0
744 700 483.0 207343.0
745 700 453.0 207796.0
746 700 541.5 208337.5
747 700 478.0 208815.5
748 700 538.0 209353.5
749 700 517.0 209870.5
750 700 454.5 210325.0
751 700 487.5 210812.5
752 700 530.0 211342.5
753 700 504.0 211846.5
754 425 250.5 212097.0
755 700 493.5 212590.5
756 700 404.0 212994.5
757 700 472.5 213467.0
758 700 484.5 213951.5
759 700 493.5 214445.0
760 700 467.5 214912.5
761 700 543.0 215455.5
762 700 556.5 216012.0
763 700 480.0 216492.0
764 700 454.0 216946.0
765 700 521.0 217467.0
766 700 474.0 217941.0
767 700 482.0 218423.0
768 700 431.0 218854.0
769 700 398.0 219252.0
770 700 464.0 219716.0
771 700 540.5 220256.5
772 700 500.5 220757.0
773 700 494.5 221251.5
774 700 509.0 221760.5
775 700 535.0 222295.5
776 700 521.5 222817.0
777 700 476.5 223293.5
778 700 522.5 223816.0
779 700 473.0 224289.0
780 700 503.5 224792.5
781 700 541.0 225333.5
782 700 480.0 225813.5
783 700 471.5 226285.0
784 700 510.0 226795.0
785 700 520.5 227315.5
786 700 510.0 227825.5
787 700 568.0 228393.5
788 700 453.5 228847.0
789 700 462.0 229309.0
790 700 510.5 229819.5
791 700 454.5 230274.0
792 700 512.0 230786.0
793 700 434.0 231220.0
794 700 533.5 231753.5
795 700 509.0 232262.5
796 700 487.0 232749.5
797 700 518.5 233268.0
798 700 440.5 233708.5
799 700 527.5 234236.0
800 700 500.0 234736.0
801 700 517.0 235253.0
802 700 463.0 235716.0
803 700 537.5 236253.5
804 700 450.0 236703.5
805 700 483.5 237187.0
806 700 522.0 237709.0
807 700 476.5 238185.5
808 700 410.5 238596.0
809 700 521.0 239117.0
810 700 496.5 239613.5
811 700 495.0 240108.5
812 700 594.0 240702.5
813 700 490.0 241192.5
814 700 540.0 241732.5
815 700 482.5 242215.0
816 700 516.0 242731.0
817 700 552.0 243283.0
818 700 402.5 243685.5
819 700 468.5 244154.0
820 700 511.0 244665.0
821 700 547.5 245212.5
822 700 551.5 245764.0
823 700 508.0 246272.0
824 700 493.0 246765.0
825 700 573.0 247338.0
826 700 513.0 247851.0
827 700 518.5 248369.5
828 700 506.5 248876.0
829 700 503.5 249379.5
830 700 396.5 249776.0
831 700 427.0 250203.0
832 700 498.5 250701.5
833 700 469.5 251171.0
834 700 412.0 251583.0
835 700 445.5 252028.5
836 700 450.5 252479.0
837 700 475.0 252954.0
838 700 443.0 253397.0
839 700 508.5 253905.5
840 700 444.0 254349.5
841 700 465.5 254815.0
842 700 578.5 255393.5
843 700 569.0 255962.5
844 700 514.5 256477.0
845 700 510.0 256987.0
846 700 495.0 257482.0
847 700 476.5 257958.5
848 700 488.5 258447.0
849 700 541.0 258988.0
850 700 449.5 259437.5
851 700 487.5 259925.0
852 700 485.0 260410.0
853 700 543.5 260953.5
854 700 434.5 261388.0
855 700 497.0 261885.0
856 700 535.0 262420.0
857 700 519.0 262939.0
858 700 443.5 263382.5
859 700 512.5 263895.0
860 700 495.0 264390.0
861 700 588.5 264978.5
862 700 546.5 265525.0
863 700 556.5 266081.5
864 700 526.5 266608.0
865 700 546.5 267154.5
866 700 468.5 267623.0
867 700 422.0 268045.0
868 700 474.5 268519.5
869 700 523.0 269042.5
870 700 560.5 269603.0
871 700 487.5 270090.5
872 700 492.0 270582.5
873 700 465.0 271047.5
874 700 553.0 271600.5
875 700 467.5 272068.0
876 700 571.0 272639.0
877 700 483.0 273122.0
878 700 497.5 273619.5
879 700 464.0 274083.5
880 700 506.5 274590.0
881 700 432.5 275022.5
882 700 573.5 275596.0
883 700 517.5 276113.5
884 700 524.0 276637.5
885 700 504.0 277141.5
886 700 474.0 277615.5
887 700 491.0 278106.5
888 700 524.5 278631.0
889 700 397.0 279028.0
890 700 458.0 279486.0
891 700 440.5 279926.5
892 700 525.0 280451.5
893 700 498.5 280950.0
894 700 529.0 281479.0
895 700 534.0 282013.0
896 700 547.0 282560.0
897 700 522.0 283082.0
898 700 486.0 283568.0
899 700 542.5 284110.5
900 700 500.5 284611.0
901 700 535.0 285146.0
902 700 562.5 285708.5
903 700 472.0 286180.5
904 700 551.0 286731.5
905 332 222.5 286954.0
906 700 477.0 287431.0
907 700 500.0 287931.0
908 700 483.0 288414.0
909 700 570.5 288984.5
910 700 470.5 289455.0
911 700 458.5 289913.5
912 700 484.0 290397.5
913 700 464.5 290862.0
914 700 503.0 291365.0
915 700 513.5 291878.5
916 700 451.5 292330.0
917 700 561.5 292891.5
918 700 548.5 293440.0
919 700 444.0 293884.0
920 700 524.0 294408.0
921 700 461.5 294869.5
922 700 501.5 295371.0
923 700 500.0 295871.0
924 700 391.5 296262.5
925 700 549.0 296811.5
926 700 493.5 297305.0
927 700 519.0 297824.0
928 700 417.5 298241.5
929 700 523.0 298764.5
930 700 529.5 299294.0
931 700 437.5 299731.5
932 700 440.5 300172.0
933 700 461.0 300633.0
934 700 492.0 301125.0
935 700 525.0 301650.0
936 700 498.5 302148.5
937 700 559.5 302708.0
938 700 489.5 303197.5
939 700 541.0 303738.5
940 700 495.5 304234.0
941 700 501.0 304735.0
942 700 447.5 305182.5
943 700 440.5 305623.0
944 700 497.0 306120.0
945 700 540.0 306660.0
946 700 557.0 307217.0
947 700 569.5 307786.5
948 700 499.0 308285.5
949 700 430.0 308715.5
950 700 560.0 309275.5
951 700 520.5 309796.0
952 700 539.0 310335.0
953 606 493.5 310828.5
954 1 1.0 310829.5
955 700 425.0 311254.5
956 700 505.0 311759.5
957 700 469.5 312229.0
958 700 496.5 312725.5
959 700 547.5 313273.0
960 700 511.0 313784.0
961 700 459.5 314243.5
962 700 528.0 314771.5
963 700 516.0 315287.5
964 700 543.5 315831.0
965 700 398.0 316229.0
966 700 545.0 316774.0
967 700 471.0 317245.0
968 700 522.0 317767.0
969 700 527.5 318294.5
970 700 473.5 318768.0
971 700 420.0 319188.0
972 592 478.5 319666.5
973 1 0.0 319666.5
974 700 519.5 320186.0
975 700 461.0 320647.0
976 700 411.0 321058.0
977 700 436.5 321494.5
978 700 560.5 322055.0
979 700 518.0 322573.0
980 700 451.0 323024.0
981 700 566.5 323590.5
982 700 575.5 324166.0
983 700 487.5 324653.5
984 700 495.0 325148.5
985 700 474.0 325622.5
986 700 550.0 326172.5
987 700 559.0 326731.5
988 700 474.5 327206.0
989 700 513.0 327719.0
990 700 494.0 328213.0
991 700 518.5 328731.5
992 700 530.0 329261.5
993 700 579.0 329840.5
994 700 582.5 330423.0
995 700 532.0 330955.0
996 700 524.5 331479.5
997 700 548.0 332027.5
998 700 489.0 332516.5
999 700 506.5 333023.0
1000 700 522.0 333545.0
