1 165 116.5 116.5
2 50 39.0 155.5
3 111 86.0 241.5
4 126 102.5 344.0
5 203 162.5 506.5
6 123 100.0 606.5
7 164 106.0 712.5
8 87 86.5 799.0
9 160 143.5 942.5
10 122 87.0 1029.5
11 158 138.0 1167.5
12 107 103.5 1271.0
13 68 68.0 1339.0
14 124 95.5 1434.5
15 658 580.5 2015.0
16 1 1.0 2016.0
17 307 216.0 2232.0
18 1 0.5 2232.5
19 700 571.0 2803.5
20 532 352.0 3155.5
21 101 97.0 3252.5
22 13 13.0 3265.5
23 48 41.5 3307.0
24 41 29.0 3336.0
25 81 81.0 3417.0
26 163 149.0 3566.0
27 70 67.5 3633.5
28 127 91.5 3725.0
29 180 125.0 3850.0
30 700 557.5 4407.5
31 251 170.5 4578.0
32 1 1.0 4579.0
33 1 1.0 4580.0
34 256 178.5 4758.5
35 1 1.0 4759.5
36 700 591.5 5351.0
37 700 588.0 5939.0
38 312 248.0 6187.0
39 1 0.0 6187.0
40 457 388.5 6575.5
41 1 1.0 6576.5
42 671 545.5 7122.0
43 1 0.0 7122.0
44 700 515.0 7637.0
45 700 526.0 8163.0
46 232 190.0 8353.0
47 1 0.0 8353.0
48 700 508.0 8861.0
49 700 527.0 9388.0
50 368 314.0 9702.0
51 1 1.0 9703.0
52 378 323.5 10026.5
53 1 1.0 10027.5
54 634 508.0 10535.5
55 1 1.0 10536.5
56 439 349.5 10886.0
57 1 0.5 10886.5
58 1 0.5 10887.0
59 1 0.5 10887.5
60 139 115.0 11002.5
61 206 129.5 11132.0
62 43 28.0 11160.0
63 287 195.5 11355.5
64 109 91.5 11447.0
65 77 60.5 11507.5
66 77 58.0 11565.5
67 99 84.5 11650.0
68 57 41.5 11691.5
69 272 203.5 11895.0
70 205 106.5 12001.5
71 411 326.5 12328.0
72 1 0.0 12328.0
73 603 506.5 12834.5
74 1 1.0 12835.5
75 700 515.0 13350.5
76 650 471.5 13822.0
77 1 1.0 13823.0
78 700 547.5 14370.5
79 571 431.0 14801.5
80 1 0.5 14802.0
81 1 0.5 14802.5
82 1 0.5 14803.0
83 1 0.5 14803.5
84 1 0.5 14804.0
85 490 376.0 15180.0
86 1 1.0 15181.0
87 325 250.0 15431.0
88 1 1.0 15432.0
89 700 507.5 15939.5
90 662 466.5 16406.0
91 1 1.0 16407.0
92 1 1.0 16408.0
93 700 503.0 16911.0
94 291 261.5 17172.5
95 1 1.0 17173.5
96 687 548.5 17722.0
97 1 0.5 17722.5
98 483 417.0 18139.5
99 700 530.5 18670.0
100 436 380.5 19050.5
101 1 1.0 19051.5
102 289 242.5 19294.0
103 1 1.0 19295.0
104 1 1.0 19296.0
105 700 548.5 19844.5
106 258 212.0 20056.5
107 1 1.0 20057.5
108 279 255.5 20313.0
109 1 0.5 20313.5
110 1 0.5 20314.0
111 632 500.5 20814.5
112 1 1.0 20815.5
113 1 1.0 20816.5
114 700 579.0 21395.5
115 399 349.5 21745.0
116 1 1.0 21746.0
117 588 468.0 22214.0
118 1 1.0 22215.0
119 700 550.0 22765.0
120 679 506.5 23271.5
121 1 0.0 23271.5
122 700 547.0 23818.5
123 700 540.0 24358.5
124 700 510.5 24869.0
125 657 594.0 25463.0
126 1 0.5 25463.5
127 700 527.5 25991.0
128 249 175.0 26166.0
129 130 100.0 26266.0
130 151 98.0 26364.0
131 68 56.0 26420.0
132 46 37.5 26457.5
133 1 0.5 26458.0
134 234 176.5 26634.5
135 37 31.5 26666.0
136 247 148.0 26814.0
137 403 270.0 27084.0
138 1 1.0 27085.0
139 700 568.5 27653.5
140 539 411.5 28065.0
141 1 0.5 28065.5
142 690 556.5 28622.0
143 1 1.0 28623.0
144 700 544.0 29167.0
145 700 582.0 29749.0
146 323 249.0 29998.0
147 1 1.0 29999.0
148 689 519.0 30518.0
149 1 1.0 30519.0
150 1 1.0 30520.0
151 700 522.5 31042.5
152 371 294.0 31336.5
153 1 1.0 31337.5
154 700 559.0 31896.5
155 700 500.0 32396.5
156 700 574.5 32971.0
157 373 285.5 33256.5
158 1 0.0 33256.5
159 699 491.5 33748.0
160 1 0.0 33748.0
161 700 572.5 34320.5
162 700 601.5 34922.0
163 518 397.5 35319.5
164 1 1.0 35320.5
165 265 220.0 35540.5
166 1 1.0 35541.5
167 700 535.5 36077.0
168 250 238.0 36315.0
169 1 1.0 36316.0
170 700 509.0 36825.0
171 408 271.5 37096.5
172 1 1.0 37097.5
173 181 155.0 37252.5
174 1 0.5 37253.0
175 686 577.0 37830.0
176 1 1.0 37831.0
177 700 580.0 38411.0
178 441 328.0 38739.0
179 1 0.0 38739.0
180 1 1.0 38740.0
181 700 571.5 39311.5
182 700 553.5 39865.0
183 653 507.5 40372.5
184 1 1.0 40373.5
185 700 488.0 40861.5
186 700 540.5 41402.0
187 353 318.0 41720.0
188 1 0.5 41720.5
189 569 470.0 42190.5
190 700 549.0 42739.5
191 532 441.0 43180.5
192 1 1.0 43181.5
193 656 517.5 43699.0
194 1 0.0 43699.0
195 278 251.5 43950.5
196 1 1.0 43951.5
197 196 176.5 44128.0
198 1 1.0 44129.0
199 321 244.5 44373.5
200 1 1.0 44374.5
201 1 1.0 44375.5
202 700 596.0 44971.5
203 566 452.0 45423.5
204 1 1.0 45424.5
205 440 324.0 45748.5
206 1 1.0 45749.5
207 400 323.0 46072.5
208 1 1.0 46073.5
209 584 491.0 46564.5
210 1 1.0 46565.5
211 1 1.0 46566.5
212 1 1.0 46567.5
213 700 532.0 47099.5
214 1 0.5 47100.0
215 1 1.0 47101.0
216 464 383.0 47484.0
217 1 1.0 47485.0
218 700 486.5 47971.5
219 564 457.0 48428.5
220 1 1.0 48429.5
221 1 1.0 48430.5
222 239 179.0 48609.5
223 1 1.0 48610.5
224 700 495.0 49105.5
225 212 173.0 49278.5
226 1 0.0 49278.5
227 1 0.0 49278.5
228 700 539.0 49817.5
229 700 470.5 50288.0
230 423 373.0 50661.0
231 1 1.0 50662.0
232 169 142.0 50804.0
233 1 0.5 50804.5
234 1 0.5 50805.0
235 660 579.0 51384.0
236 1 1.0 51385.0
237 668 506.5 51891.5
238 1 1.0 51892.5
239 454 342.0 52234.5
240 1 1.0 52235.5
241 580 387.5 52623.0
242 1 1.0 52624.0
243 700 477.0 53101.0
244 524 451.0 53552.0
245 1 1.0 53553.0
246 136 131.0 53684.0
247 1 1.0 53685.0
248 477 389.0 54074.0
249 1 1.0 54075.0
250 700 454.5 54529.5
251 463 379.5 54909.0
252 1 1.0 54910.0
253 467 414.0 55324.0
254 1 0.0 55324.0
255 234 191.0 55515.0
256 1 1.0 55516.0
257 480 372.5 55888.5
258 1 0.5 55889.0
259 1 0.5 55889.5
260 446 256.5 56146.0
261 1 0.5 56146.5
262 700 547.0 56693.5
263 700 616.5 57310.0
264 656 546.0 57856.0
265 1 1.0 57857.0
266 1 1.0 57858.0
267 541 419.5 58277.5
268 1 1.0 58278.5
269 700 581.0 58859.5
270 700 467.5 59327.0
271 204 174.0 59501.0
272 1 1.0 59502.0
273 700 548.0 60050.0
274 700 565.5 60615.5
275 700 537.5 61153.0
276 700 575.5 61728.5
277 700 410.5 62139.0
278 700 505.5 62644.5
279 559 425.0 63069.5
280 1 0.0 63069.5
281 398 298.0 63367.5
282 1 0.5 63368.0
283 609 466.0 63834.0
284 1 1.0 63835.0
285 700 501.0 64336.0
286 417 309.0 64645.0
287 1 1.0 64646.0
288 177 152.0 64798.0
289 1 1.0 64799.0
290 700 522.5 65321.5
291 700 544.5 65866.0
292 700 425.0 66291.0
293 379 310.5 66601.5
294 1 1.0 66602.5
295 363 320.5 66923.0
296 1 0.0 66923.0
297 1 0.0 66923.0
298 581 401.5 67324.5
299 1 0.0 67324.5
300 700 506.5 67831.0
301 646 534.0 68365.0
302 367 296.5 68661.5
303 1 0.5 68662.0
304 700 563.0 69225.0
305 700 496.0 69721.0
306 227 192.0 69913.0
307 1 1.0 69914.0
308 369 291.5 70205.5
309 1 1.0 70206.5
310 1 1.0 70207.5
311 1 1.0 70208.5
312 1 1.0 70209.5
313 624 556.5 70766.0
314 1 1.0 70767.0
315 1 1.0 70768.0
316 700 495.0 71263.0
317 513 384.0 71647.0
318 1 1.0 71648.0
319 700 538.0 72186.0
320 565 431.5 72617.5
321 1 1.0 72618.5
322 1 1.0 72619.5
323 670 520.5 73140.0
324 1 1.0 73141.0
325 700 485.0 73626.0
326 560 393.0 74019.0
327 1 0.0 74019.0
328 700 591.5 74610.5
329 390 305.0 74915.5
330 656 570.0 75485.5
331 1 1.0 75486.5
332 450 381.0 75867.5
333 1 0.0 75867.5
334 1 0.0 75867.5
335 1 0.0 75867.5
336 1 0.0 75867.5
337 623 536.0 76403.5
338 1 0.5 76404.0
339 669 553.5 76957.5
340 1 1.0 76958.5
341 1 0.0 76958.5
342 518 362.0 77320.5
343 1 1.0 77321.5
344 552 431.0 77752.5
345 1 1.0 77753.5
346 135 118.5 77872.0
347 1 1.0 77873.0
348 1 1.0 77874.0
349 213 171.5 78045.5
350 1 1.0 78046.5
351 634 575.0 78621.5
352 1 1.0 78622.5
353 700 521.0 79143.5
354 452 394.5 79538.0
355 1 1.0 79539.0
356 698 494.0 80033.0
357 1 1.0 80034.0
358 700 373.0 80407.0
359 700 558.0 80965.0
360 635 503.5 81468.5
361 1 1.0 81469.5
362 1 1.0 81470.5
363 700 482.0 81952.5
364 700 530.5 82483.0
365 700 519.0 83002.0
366 700 548.5 83550.5
367 700 579.5 84130.0
368 187 154.5 84284.5
369 1 1.0 84285.5
370 222 201.0 84486.5
371 1 1.0 84487.5
372 430 368.5 84856.0
373 1 0.5 84856.5
374 1 0.5 84857.0
375 700 550.0 85407.0
376 700 527.0 85934.0
377 700 575.5 86509.5
378 289 236.0 86745.5
379 1 1.0 86746.5
380 700 545.0 87291.5
381 297 227.5 87519.0
382 1 1.0 87520.0
383 633 449.5 87969.5
384 1 1.0 87970.5
385 341 251.0 88221.5
386 1 0.5 88222.0
387 700 492.5 88714.5
388 178 139.0 88853.5
389 1 1.0 88854.5
390 700 546.5 89401.0
391 299 233.0 89634.0
392 1 1.0 89635.0
393 700 552.5 90187.5
394 368 325.5 90513.0
395 1 0.0 90513.0
396 700 560.0 91073.0
397 336 257.5 91330.5
398 1 0.5 91331.0
399 651 564.0 91895.0
400 1 1.0 91896.0
401 265 222.5 92118.5
402 1 0.0 92118.5
403 700 562.0 92680.5
404 302 241.0 92921.5
405 1 1.0 92922.5
406 700 529.5 93452.0
407 523 377.5 93829.5
408 1 0.5 93830.0
409 259 231.0 94061.0
410 1 1.0 94062.0
411 1 1.0 94063.0
412 1 1.0 94064.0
413 402 314.5 94378.5
414 1 1.0 94379.5
415 530 386.0 94765.5
416 1 0.0 94765.5
417 700 578.0 95343.5
418 354 258.5 95602.0
419 1 0.5 95602.5
420 1 0.5 95603.0
421 1 0.5 95603.5
422 28 12.5 95616.0
423 1 0.0 95616.0
424 10 8.0 95624.0
425 1 1.0 95625.0
426 700 557.0 96182.0
427 255 226.0 96408.0
428 1 1.0 96409.0
429 700 591.5 97000.5
430 253 219.5 97220.0
431 1 1.0 97221.0
432 640 496.5 97717.5
433 1 0.5 97718.0
434 410 302.0 98020.0
435 1 1.0 98021.0
436 700 567.5 98588.5
437 700 592.0 99180.5
438 700 512.0 99692.5
439 334 262.0 99954.5
440 1 1.0 99955.5
441 700 540.0 100495.5
442 406 327.0 100822.5
443 1 1.0 100823.5
444 609 492.5 101316.0
445 1 1.0 101317.0
446 1 1.0 101318.0
447 379 293.5 101611.5
448 1 0.5 101612.0
449 700 602.5 102214.5
450 506 385.5 102600.0
451 1 1.0 102601.0
452 353 303.5 102904.5
453 1 1.0 102905.5
454 700 579.5 103485.0
455 596 414.5 103899.5
456 1 0.0 103899.5
457 375 278.0 104177.5
458 1 1.0 104178.5
459 282 208.5 104387.0
460 1 0.5 104387.5
461 700 527.5 104915.0
462 700 484.5 105399.5
463 670 574.0 105973.5
464 1 1.0 105974.5
465 235 228.0 106202.5
466 1 1.0 106203.5
467 700 550.0 106753.5
468 563 480.0 107233.5
469 1 1.0 107234.5
470 1 1.0 107235.5
471 1 1.0 107236.5
472 700 530.0 107766.5
473 700 529.0 108295.5
474 700 504.5 108800.0
475 483 426.5 109226.5
476 1 1.0 109227.5
477 550 384.0 109611.5
478 1 0.5 109612.0
479 652 539.0 110151.0
480 1 1.0 110152.0
481 277 229.5 110381.5
482 1 1.0 110382.5
483 700 500.0 110882.5
484 483 359.5 111242.0
485 1 0.5 111242.5
486 700 564.0 111806.5
487 700 511.0 112317.5
488 294 234.0 112551.5
489 1 1.0 112552.5
490 700 539.0 113091.5
491 700 518.0 113609.5
492 359 270.0 113879.5
493 144 109.0 113988.5
494 226 163.5 114152.0
495 71 68.5 114220.5
496 35 35.0 114255.5
497 156 110.5 114366.0
498 40 37.0 114403.0
499 107 95.0 114498.0
500 133 103.0 114601.0
501 63 53.0 114654.0
502 141 139.0 114793.0
503 1 1.0 114794.0
504 700 489.0 115283.0
505 700 598.5 115881.5
506 224 186.5 116068.0
507 1 1.0 116069.0
508 1 1.0 116070.0
509 1 1.0 116071.0
510 1 1.0 116072.0
511 175 114.0 116186.0
512 1 0.5 116186.5
513 700 570.0 116756.5
514 121 119.0 116875.5
515 1 1.0 116876.5
516 238 198.0 117074.5
517 541 453.0 117527.5
518 1 1.0 117528.5
519 700 591.5 118120.0
520 700 505.5 118625.5
521 357 309.5 118935.0
522 1 0.5 118935.5
523 1 0.5 118936.0
524 1 0.5 118936.5
525 395 302.0 119238.5
526 1 1.0 119239.5
527 396 301.0 119540.5
528 1 0.5 119541.0
529 485 400.5 119941.5
530 1 0.0 119941.5
531 700 546.0 120487.5
532 700 563.0 121050.5
533 521 441.0 121491.5
534 497 432.5 121924.0
535 1 1.0 121925.0
536 1 1.0 121926.0
537 279 241.0 122167.0
538 1 0.0 122167.0
539 214 180.5 122347.5
540 1 1.0 122348.5
541 583 429.0 122777.5
542 1 0.0 122777.5
543 167 148.5 122926.0
544 63 44.5 122970.5
545 81 70.0 123040.5
546 116 77.0 123117.5
547 69 64.5 123182.0
548 102 75.5 123257.5
549 157 122.5 123380.0
550 86 73.0 123453.0
551 229 118.5 123571.5
552 359 268.5 123840.0
553 1 1.0 123841.0
554 1 1.0 123842.0
555 292 258.5 124100.5
556 1 1.0 124101.5
557 700 545.0 124646.5
558 446 378.0 125024.5
559 1 1.0 125025.5
560 208 153.0 125178.5
561 1 1.0 125179.5
562 662 618.5 125798.0
563 1 1.0 125799.0
564 700 466.5 126265.5
565 628 475.0 126740.5
566 1 1.0 126741.5
567 553 441.0 127182.5
568 1 1.0 127183.5
569 185 160.5 127344.0
570 1 0.0 127344.0
571 163 121.0 127465.0
572 1 0.5 127465.5
573 394 318.5 127784.0
574 1 1.0 127785.0
575 700 552.0 128337.0
576 539 483.5 128820.5
577 1 1.0 128821.5
578 1 1.0 128822.5
579 1 1.0 128823.5
580 700 484.5 129308.0
581 520 396.0 129704.0
582 1 1.0 129705.0
583 603 505.5 130210.5
584 1 1.0 130211.5
585 700 520.5 130732.0
586 378 300.0 131032.0
587 1 1.0 131033.0
588 700 575.5 131608.5
589 550 442.0 132050.5
590 1 1.0 132051.5
591 555 485.0 132536.5
592 1 1.0 132537.5
593 47 40.0 132577.5
594 1 1.0 132578.5
595 340 241.0 132819.5
596 1 1.0 132820.5
597 49 44.0 132864.5
598 251 161.5 133026.0
599 130 107.0 133133.0
600 1 1.0 133134.0
601 200 172.5 133306.5
602 125 100.0 133406.5
603 191 116.5 133523.0
604 700 552.5 134075.5
605 483 354.0 134429.5
606 1 1.0 134430.5
607 700 563.5 134994.0
608 527 408.0 135402.0
609 1 0.5 135402.5
610 700 539.5 135942.0
611 291 238.0 136180.0
612 1 1.0 136181.0
613 276 255.5 136436.5
614 1 1.0 136437.5
615 1 1.0 136438.5
616 1 1.0 136439.5
617 1 1.0 136440.5
618 1 1.0 136441.5
619 686 554.5 136996.0
620 1 0.5 136996.5
621 1 0.5 136997.0
622 426 301.5 137298.5
623 1 1.0 137299.5
624 700 582.0 137881.5
625 653 525.0 138406.5
626 1 1.0 138407.5
627 700 514.0 138921.5
628 231 183.5 139105.0
629 606 507.5 139612.5
630 97 69.0 139681.5
631 146 106.5 139788.0
632 227 163.0 139951.0
633 1 0.5 139951.5
634 310 161.5 140113.0
635 270 135.5 140248.5
636 1 1.0 140249.5
637 534 428.0 140677.5
638 1 0.0 140677.5
639 9 0.0 140677.5
640 1 0.0 140677.5
641 522 453.0 141130.5
642 310 260.0 141390.5
643 85 76.0 141466.5
644 126 119.0 141585.5
645 113 81.0 141666.5
646 1 0.5 141667.0
647 168 123.0 141790.0
648 135 123.5 141913.5
649 96 86.5 142000.0
650 142 111.5 142111.5
651 1 0.5 142112.0
652 700 524.0 142636.0
653 700 511.5 143147.5
654 700 504.0 143651.5
655 444 345.0 143996.5
656 1 0.0 143996.5
657 700 592.5 144589.0
658 471 368.0 144957.0
659 1 1.0 144958.0
660 555 365.0 145323.0
661 1 0.5 145323.5
662 700 574.0 145897.5
663 430 305.5 146203.0
664 1 0.5 146203.5
665 700 613.5 146817.0
666 620 456.0 147273.0
667 1 0.5 147273.5
668 1 0.5 147274.0
669 1 0.5 147274.5
670 700 513.5 147788.0
671 3 3.0 147791.0
672 1 1.0 147792.0
673 492 424.5 148216.5
674 1 0.0 148216.5
675 685 574.5 148791.0
676 1 0.5 148791.5
677 700 589.5 149381.0
678 1 1.0 149382.0
679 491 320.5 149702.5
680 1 0.0 149702.5
681 700 535.0 150237.5
682 448 368.5 150606.0
683 1 1.0 150607.0
684 1 1.0 150608.0
685 503 379.0 150987.0
686 1 1.0 150988.0
687 700 553.5 151541.5
688 292 234.5 151776.0
689 1 1.0 151777.0
690 174 162.0 151939.0
691 1 1.0 151940.0
692 231 196.0 152136.0
693 1 1.0 152137.0
694 300 276.0 152413.0
695 1 1.0 152414.0
696 1 0.0 152414.0
697 1 0.0 152414.0
698 1 0.0 152414.0
699 1 0.0 152414.0
700 504 366.0 152780.0
701 141 109.5 152889.5
702 431 297.5 153187.0
703 207 139.5 153326.5
704 1 1.0 153327.5
705 139 86.0 153413.5
706 213 147.0 153560.5
707 1 1.0 153561.5
708 274 227.0 153788.5
709 1 1.0 153789.5
710 700 566.0 154355.5
711 278 250.0 154605.5
712 1 0.0 154605.5
713 1 1.0 154606.5
714 1 1.0 154607.5
715 4 3.5 154611.0
716 1 0.5 154611.5
717 1 0.5 154612.0
718 1 0.5 154612.5
719 1 0.5 154613.0
720 1 0.5 154613.5
721 1 0.5 154614.0
722 700 611.5 155225.5
723 700 547.5 155773.0
724 675 560.0 156333.0
725 1 1.0 156334.0
726 179 167.5 156501.5
727 1 0.5 156502.0
728 700 561.0 157063.0
729 700 497.0 157560.0
730 700 577.5 158137.5
731 700 520.5 158658.0
732 283 227.0 158885.0
733 1 1.0 158886.0
734 339 287.0 159173.0
735 1 1.0 159174.0
736 700 574.0 159748.0
737 631 467.0 160215.0
738 1 1.0 160216.0
739 519 413.0 160629.0
740 1 1.0 160630.0
741 700 546.5 161176.5
742 489 366.0 161542.5
743 1 1.0 161543.5
744 700 522.5 162066.0
745 700 512.5 162578.5
746 439 377.5 162956.0
747 1 1.0 162957.0
748 1 1.0 162958.0
749 700 659.5 163617.5
750 312 257.0 163874.5
751 1 1.0 163875.5
752 578 424.0 164299.5
753 1 0.5 164300.0
754 1 0.5 164300.5
755 700 574.5 164875.0
756 700 563.0 165438.0
757 308 245.0 165683.0
758 1 1.0 165684.0
759 447 336.0 166020.0
760 108 83.5 166103.5
761 116 97.5 166201.0
762 107 84.0 166285.0
763 60 58.0 166343.0
764 68 53.5 166396.5
765 171 114.5 166511.0
766 36 35.5 166546.5
767 144 97.0 166643.5
768 700 612.5 167256.0
769 455 351.0 167607.0
770 1 1.0 167608.0
771 259 228.5 167836.5
772 1 1.0 167837.5
773 182 159.0 167996.5
774 1 1.0 167997.5
775 700 599.0 168596.5
776 586 427.0 169023.5
777 1 1.0 169024.5
778 566 479.5 169504.0
779 1 1.0 169505.0
780 700 538.0 170043.0
781 700 586.5 170629.5
782 410 323.5 170953.0
783 1 0.0 170953.0
784 656 487.0 171440.0
785 1 1.0 171441.0
786 700 469.0 171910.0
787 700 491.5 172401.5
788 312 272.0 172673.5
789 1 0.5 172674.0
790 602 532.0 173206.0
791 1 1.0 173207.0
792 700 531.0 173738.0
793 700 603.0 174341.0
794 700 560.0 174901.0
795 259 222.5 175123.5
796 1 1.0 175124.5
797 1 1.0 175125.5
798 1 1.0 175126.5
799 700 461.5 175588.0
800 182 157.0 175745.0
801 279 152.5 175897.5
802 158 116.5 176014.0
803 142 99.5 176113.5
804 138 123.5 176237.0
805 206 159.0 176396.0
806 352 295.5 176691.5
807 1 1.0 176692.5
808 380 277.0 176969.5
809 1 1.0 176970.5
810 1 1.0 176971.5
811 141 99.0 177070.5
812 1 1.0 177071.5
813 700 488.0 177559.5
814 552 490.5 178050.0
815 1 1.0 178051.0
816 378 285.0 178336.0
817 1 1.0 178337.0
818 602 468.5 178805.5
819 1 1.0 178806.5
820 286 236.5 179043.0
821 1 1.0 179044.0
822 700 581.5 179625.5
823 469 370.0 179995.5
824 1 1.0 179996.5
825 1 1.0 179997.5
826 700 542.5 180540.0
827 281 231.5 180771.5
828 1 0.5 180772.0
829 700 558.5 181330.5
830 216 181.5 181512.0
831 1 0.0 181512.0
832 700 478.5 181990.5
833 573 440.0 182430.5
834 1 1.0 182431.5
835 700 558.0 182989.5
836 438 337.5 183327.0
837 1 1.0 183328.0
838 661 522.0 183850.0
839 1 1.0 183851.0
840 1 1.0 183852.0
841 327 247.5 184099.5
842 1 1.0 184100.5
843 1 1.0 184101.5
844 1 1.0 184102.5
845 688 593.5 184696.0
846 1 0.5 184696.5
847 700 475.0 185171.5
848 449 333.0 185504.5
849 1 0.5 185505.0
850 493 401.0 185906.0
851 156 125.5 186031.5
852 108 105.0 186136.5
853 157 103.5 186240.0
854 1 0.5 186240.5
855 193 146.5 186387.0
856 260 185.0 186572.0
857 1 1.0 186573.0
858 364 311.0 186884.0
859 1 1.0 186885.0
860 1 1.0 186886.0
861 1 1.0 186887.0
862 700 570.0 187457.0
863 3 3.0 187460.0
864 4 4.0 187464.0
865 1 1.0 187465.0
866 324 240.0 187705.0
867 1 0.5 187705.5
868 417 353.0 188058.5
869 1 1.0 188059.5
870 504 400.0 188459.5
871 1 0.5 188460.0
872 620 552.5 189012.5
873 1 1.0 189013.5
874 700 516.5 189530.0
875 131 111.0 189641.0
876 1 0.0 189641.0
877 426 353.5 189994.5
878 1 1.0 189995.5
879 629 543.5 190539.0
880 1 1.0 190540.0
881 281 256.0 190796.0
882 1 1.0 190797.0
883 700 557.5 191354.5
884 689 443.5 191798.0
885 1 0.0 191798.0
886 99 92.0 191890.0
887 164 119.0 192009.0
888 1 1.0 192010.0
889 7 7.0 192017.0
890 8 8.0 192025.0
891 164 136.0 192161.0
892 177 123.5 192284.5
893 99 72.5 192357.0
894 240 178.0 192535.0
895 127 100.0 192635.0
896 125 111.5 192746.5
897 1 1.0 192747.5
898 700 552.5 193300.0
899 700 572.5 193872.5
900 244 183.5 194056.0
901 1 1.0 194057.0
902 179 168.0 194225.0
903 1 1.0 194226.0
904 543 427.0 194653.0
905 1 0.5 194653.5
906 620 492.0 195145.5
907 1 1.0 195146.5
908 377 285.0 195431.5
909 1 1.0 195432.5
910 416 315.5 195748.0
911 1 1.0 195749.0
912 651 577.5 196326.5
913 1 1.0 196327.5
914 700 581.5 196909.0
915 700 553.0 197462.0
916 700 606.5 198068.5
917 700 487.5 198556.0
918 286 210.0 198766.0
919 1 0.5 198766.5
920 700 554.0 199320.5
921 700 508.5 199829.0
922 700 499.0 200328.0
923 404 329.5 200657.5
924 1 1.0 200658.5
925 1 1.0 200659.5
926 700 509.0 201168.5
927 334 279.5 201448.0
928 1 1.0 201449.0
929 700 541.5 201990.5
930 700 515.0 202505.5
931 251 206.5 202712.0
932 1 1.0 202713.0
933 700 560.0 203273.0
934 401 310.5 203583.5
935 1 1.0 203584.5
936 1 1.0 203585.5
937 700 559.5 204145.0
938 700 612.5 204757.5
939 700 580.0 205337.5
940 682 520.0 205857.5
941 1 0.0 205857.5
942 700 474.0 206331.5
943 448 336.0 206667.5
944 1 1.0 206668.5
945 700 594.5 207263.0
946 600 425.5 207688.5
947 1 1.0 207689.5
948 700 482.0 208171.5
949 700 534.5 208706.0
950 700 488.0 209194.0
951 700 527.5 209721.5
952 700 498.0 210219.5
953 700 556.5 210776.0
954 407 344.0 211120.0
955 1 1.0 211121.0
956 601 513.0 211634.0
957 1 1.0 211635.0
958 700 557.5 212192.5
959 700 528.5 212721.0
960 700 528.5 213249.5
961 700 603.5 213853.0
962 700 608.5 214461.5
963 205 165.0 214626.5
964 1 1.0 214627.5
965 700 557.5 215185.0
966 700 626.5 215811.5
967 700 535.0 216346.5
968 700 543.5 216890.0
969 404 295.5 217185.5
970 1 1.0 217186.5
971 404 321.5 217508.0
972 1 1.0 217509.0
973 566 424.0 217933.0
974 1 0.0 217933.0
975 595 498.0 218431.0
976 1 0.5 218431.5
977 1 0.5 218432.0
978 1 0.5 218432.5
979 220 201.0 218633.5
980 1 1.0 218634.5
981 677 536.0 219170.5
982 386 306.5 219477.0
983 1 1.0 219478.0
984 700 548.0 220026.0
985 365 278.0 220304.0
986 1 1.0 220305.0
987 522 440.0 220745.0
988 1 0.0 220745.0
989 404 334.0 221079.0
990 1 0.5 221079.5
991 700 520.5 221600.0
992 671 514.5 222114.5
993 1 1.0 222115.5
994 700 554.5 222670.0
995 700 627.5 223297.5
996 487 392.0 223689.5
997 1 1.0 223690.5
998 1 1.0 223691.5
999 1 1.0 223692.5
1000 1 1.0 223693.5
