0.055526338517666 0.80000078678131
0.057291489094496 0.80005371570587
0.063187129795551 0.8000715970993
0.072427436709404 0.80012285709381
0.082239389419556 0.80011206865311
0.091984234750271 0.80010330677032
0.10171303898096 0.80009287595749
0.11147395521402 0.80007743835449
0.12122745811939 0.8000568151474
0.13097050786018 0.80004513263702
0.14070557057858 0.80002915859222
0.15047612786293 0.80000418424606
0.16021144390106 0.79998070001602
0.16996967792511 0.79995995759964
0.17975150048733 0.79990422725677
0.18950648605824 0.79985964298248
0.1991930603981 0.79980742931366
0.20887312293053 0.79963445663452
0.21847298741341 0.79940760135651
0.22784169018269 0.79920428991318
0.23722431063652 0.79910606145859
0.24690723419189 0.79908829927444
0.25674799084663 0.79893589019775
0.26692813634872 0.79859685897827
0.27703937888145 0.79828596115112
0.28675296902657 0.79812014102936
0.29651188850403 0.79808974266052
0.30626037716866 0.79813897609711
0.31600737571716 0.79823243618011
0.32575097680092 0.79834187030792
0.33549132943153 0.79845601320267
0.34523802995682 0.79857462644577
0.3549879193306 0.79869514703751
0.36472705006599 0.79881477355957
0.3744732439518 0.79893743991852
0.38423198461533 0.79904454946518
0.39397519826889 0.79915547370911
0.4037147462368 0.79926884174347
0.41345420479774 0.79937946796417
0.42321580648422 0.79949152469635
0.43294468522072 0.79961383342743
0.44268947839737 0.79974108934402
0.45244774222374 0.79985010623932
0.46219271421432 0.79996287822723
0.47193747758865 0.80008620023727
0.48166784644127 0.80020654201508
0.49141716957092 0.80031204223633
0.50116121768951 0.80042010545731
0.51090389490128 0.80054122209549
0.52066069841385 0.80065411329269
0.53042453527451 0.80077391862869
0.5401508808136 0.800901055336
0.54989701509476 0.80102378129959
0.55963099002838 0.80114299058914
0.56937515735626 0.8012638092041
0.57913476228714 0.8013881444931
0.58887588977814 0.80149161815643
0.59862565994263 0.80162334442139
0.60837477445602 0.80174368619919
0.61811512708664 0.80186557769775
0.62786614894867 0.8019734621048
0.63761043548584 0.80209970474243
0.64735901355743 0.80221164226532
0.65710461139679 0.80232113599777
0.66685140132904 0.80243968963623
0.67660701274872 0.80254697799683
0.68636667728424 0.80266445875168
0.69608342647552 0.80278217792511
0.70584064722061 0.80289763212204
0.71557384729385 0.80300694704056
0.72531545162201 0.80311298370361
0.73505687713623 0.80322504043579
0.74481904506683 0.80334454774857
0.75455313920975 0.8034536242485
0.76430863142014 0.80356043577194
0.77406138181686 0.80368584394455
0.78380841016769 0.80380171537399
0.79355853796005 0.80393028259277
0.8033110499382 0.80404126644135
0.81304180622101 0.80414485931396
0.82279121875763 0.8042608499527
0.83254116773605 0.80435818433762
0.84229695796967 0.80447226762772
0.8520565032959 0.80459767580032
0.86180007457733 0.80470246076584
0.87154656648636 0.80482614040375
0.88127267360687 0.80493199825287
0.89103001356125 0.80504548549652
0.9007648229599 0.80516225099564
0.91050642728806 0.80528438091278
0.92026549577713 0.80539739131927
0.92999613285065 0.80551117658615
0.93962877988815 0.80562245845795
0.94913041591644 0.80573493242264
0.95844662189484 0.80584633350372
0.96762353181839 0.80597048997879
0.97651082277298 0.80610150098801
0.98513793945312 0.80622464418411
0.99349623918533 0.80637109279633
1.0016014575958 0.8065128326416
1.0094481706619 0.8066428899765
1.0170586109161 0.80676478147507
1.0244219303131 0.80689191818237
1.0315368175507 0.80700349807739
1.0384577512741 0.80709964036942
1.0451247692108 0.80720746517181
1.0515983104706 0.80730104446411
1.057849407196 0.80735862255096
1.0639575719833 0.8074204325676
1.0698459148407 0.80748665332794
1.0755324363708 0.80751103162766
1.0810544490814 0.80756139755249
1.086394906044 0.80759018659592
1.0915257930756 0.80761212110519
1.0964875221252 0.80763787031174
1.1013374328613 0.80759793519974
1.1060038805008 0.80757129192352
1.1105589866638 0.80755311250687
1.1149300336838 0.80749022960663
1.1191647052765 0.8074197769165
1.1232893466949 0.80735433101654
1.1272724866867 0.80727565288544
1.131142616272 0.80720007419586
1.1356337070465 0.80714464187622
1.1400563716888 0.80710852146149
1.1442445516586 0.80708712339401
1.1481792926788 0.80710905790329
1.1518869400024 0.80711114406586
1.1553876399994 0.80715578794479
1.1590373516083 0.80713254213333
1.1624847650528 0.80709683895111
1.165778875351 0.80705606937408
1.1689903736115 0.80695736408234
1.1720609664917 0.80688369274139
1.1749045848846 0.80682146549225
1.177673459053 0.80680847167969
1.1803028583527 0.80681765079498
1.1828072071075 0.80683374404907
1.1853382587433 0.80677974224091
1.1877073049545 0.80677783489227
1.190018415451 0.80672895908356
1.1936312913895 0.80618047714233
1.1981332302094 0.80505686998367
1.2026859521866 0.80359905958176
1.2071666717529 0.80210322141647
1.2114723920822 0.80064976215363
1.2156683206558 0.79912924766541
1.2205784320831 0.79719829559326
1.2255032062531 0.79496228694916
1.2302395105362 0.79281395673752
1.2343409061432 0.7910543680191
1.2377443313599 0.78981244564056
1.2405360937119 0.78911286592484
1.2427078485489 0.78895407915115
1.245799779892 0.78831750154495
1.2491638660431 0.78707975149155
1.2527648210526 0.78536224365234
1.2563291788101 0.78348368406296
1.2593222856522 0.78198897838593
1.2622973918915 0.78056651353836
1.2650578022003 0.77915531396866
1.2683547735214 0.77708399295807
1.2717987298965 0.77464663982391
1.2750245332718 0.77220147848129
1.2781492471695 0.76975107192993
1.2811188697815 0.76729792356491
1.2840367555618 0.76489996910095
1.2868709564209 0.76247507333755
1.2896236181259 0.76002848148346
1.2922475337982 0.75770056247711
1.2947953939438 0.75534826517105
1.2972362041473 0.75296992063522
1.2996091842651 0.75065958499908
1.3019816875458 0.74828135967255
1.3042443990707 0.74590581655502
1.3064805269241 0.74346762895584
1.308758854866 0.74086368083954
1.3109457492828 0.73813337087631
1.3131185770035 0.73533880710602
1.3155956268311 0.73185622692108
1.3184274435043 0.72761350870132
1.3211510181427 0.72308683395386
1.3237034082413 0.7185692191124
1.3261758089066 0.71421200037003
1.3286001682281 0.70991545915604
1.3309561014175 0.7057198882103
1.3332476615906 0.70162415504456
1.3354589939117 0.69767069816589
1.3376343250275 0.69372582435608
1.3397294282913 0.68992209434509
1.3417674303055 0.68621784448624
1.3437534570694 0.68261182308197
1.3457107543945 0.6790514588356
1.3476102352142 0.67558711767197
1.3492271900177 0.67272245883942
1.3507854938507 0.67003136873245
1.3523128032684 0.66742742061615
1.3538310527802 0.66478705406189
1.3553141355515 0.66217654943466
1.3567787408829 0.65958774089813
1.3582241535187 0.65703159570694
1.3596298694611 0.65452605485916
1.36101603508 0.65206390619278
1.3623669147491 0.64962792396545
1.3636773824692 0.6472305059433
1.3649827241898 0.64488732814789
1.3662227392197 0.64260959625244
1.3674348592758 0.64039480686188
1.3686530590057 0.63826447725296
1.3698341846466 0.63614505529404
1.3710165023804 0.63405722379684
1.3721296787262 0.63203132152557
1.3732178211212 0.63003122806549
1.3742763996124 0.6281064748764
1.3752722740173 0.62622439861298
1.3762948513031 0.62440979480743
1.3772705793381 0.62262576818466
1.3782498836517 0.62086236476898
1.3792598247528 0.6191531419754
1.3801381587982 0.61752074956894
1.3819774389267 0.6146599650383
1.3844677209854 0.61108392477036
1.3871823549271 0.60751092433929
1.389927983284 0.60396873950958
1.3928202390671 0.60024827718735
1.3957231044769 0.59652930498123
1.3986262083054 0.59281009435654
1.4015358686447 0.58905923366547
1.4043819904327 0.58530241250992
1.407231092453 0.58156979084015
1.4100749492645 0.5778294801712
1.4129104614258 0.57412570714951
1.4157418012619 0.57046800851822
1.4185762405396 0.56681621074677
1.4218544960022 0.56250685453415
1.4254472255707 0.55760961771011
1.4282784461975 0.55352729558945
1.4296326637268 0.55105364322662
1.4300177097321 0.54961860179901
1.4301036596298 0.54838365316391
1.4302424192429 0.54704791307449
1.4304176568985 0.54577577114105
1.4304854869843 0.54450446367264
1.4313946962357 0.54252225160599
1.4328482151031 0.54037010669708
1.4348006248474 0.53805416822433
1.4370179176331 0.53574281930923
1.4392175674438 0.53343099355698
1.4420689344406 0.53072679042816
1.4451279640198 0.52806812524796
1.4481488466263 0.52542614936829
1.4511182308197 0.52278381586075
1.454118847847 0.52020794153214
1.4570482969284 0.51762682199478
1.4599704742432 0.51511478424072
1.4628697633743 0.51266169548035
1.4657570123672 0.5102578997612
1.4686328172684 0.50787472724915
1.471484541893 0.50556933879852
1.474381685257 0.50332272052765
1.4772679805756 0.50106638669968
1.4802138805389 0.49876698851585
1.4831491708755 0.49655970931053
1.4860726594925 0.49436837434769
1.489025592804 0.49217921495438
1.4920479059219 0.49001908302307
1.4950587749481 0.48792606592178
1.4980580806732 0.48583045601845
1.5011677742004 0.48378071188927
1.5042364597321 0.48176655173302
1.5073531866074 0.47980070114136
1.5104894638062 0.47782573103905
1.5135856866837 0.47592368721962
1.5168240070343 0.4739653468132
1.5208828449249 0.47169089317322
1.5258647203445 0.46907234191895
1.5315020084381 0.46647396683693
1.5372583866119 0.4639565050602
1.5430771112442 0.46139240264893
1.5489200353622 0.45877274870872
1.5547782182693 0.45608454942703
1.5607085227966 0.45334759354591
1.5666677951813 0.45057520270348
1.5726681947708 0.44774430990219
1.5787029266357 0.44488334655762
1.5847589969635 0.44197502732277
1.5908715724945 0.43900236487389
1.5978035926819 0.43569564819336
1.6052026748657 0.43191733956337
1.6124197244644 0.42812567949295
1.6194931268692 0.42441859841347
1.6262996196747 0.42096415162086
1.6328893899918 0.41771119832993
1.6398063898087 0.41432070732117
1.6469755172729 0.41101709008217
1.6538614034653 0.40797257423401
1.6604684591293 0.4050649702549
1.6667211055756 0.40231308341026
1.67265188694 0.39970928430557
1.6782228946686 0.39721381664276
1.6835495233536 0.39486691355705
1.688619852066 0.39262798428535
1.6933863162994 0.39047914743423
1.6979736089706 0.38845565915108
1.7023473978043 0.38647535443306
1.7065197229385 0.38462167978287
1.7105367183685 0.38284745812416
1.7143583297729 0.38113409280777
1.7180589437485 0.3794339299202
1.7215455770493 0.37780469655991
1.7249170541763 0.37625300884247
1.7281982898712 0.37477940320969
1.7313213348389 0.3732915520668
