0 -1
1 -1
2 -1
3 158501
4 158501
5 158506
6 158506
7 158506
8 158506
9 158506
10 158506
11 158506
12 158631
13 159256
14 159256
15 159256
16 159256
17 159256
18 159256
19 159256
20 3006
21 3021
22 3021
23 3021
24 3021
25 3021
26 3021
27 3021
28 3021
29 2521
30 2521
31 15021
32 -1
33 15021
34 15021
35 15021
36 15021
37 15021
38 15021
39 15021
40 15021
41 15021
42 15021
43 15022
44 15122
45 15122
46 15122
47 15117
48 15117
49 15117
50 15117
51 15117
52 15117
53 15118
54 15118
55 15118
56 15118
57 15118
58 15118
59 15118
60 12593
61 -1
62 75093
63 75093
64 75093
65 15093
66 15118
67 15118
68 15118
69 15118
70 15118
71 15118
72 15118
73 15118
74 15118
75 15118
76 15118
77 15118
78 15118
79 15118
80 15118
81 15118
82 15118
83 15118
84 11993
85 11368
86 11368
87 11343
88 11343
89 11343
90 -1
91 11343
92 73843
93 58837
94 58837
95 58837
96 56337
97 56337
98 56337
99 53212
100 55087
101 55087
102 55087
103 55087
104 55087
105 55087
106 55087
107 54462
108 54462
109 7587
110 7587
111 7587
112 7587
113 8212
114 8212
115 8212
116 8212
117 70712
118 73837
119 -1
120 73837
121 58212
122 58212
123 58212
124 58212
125 58212
126 58212
127 58212
128 73837
129 73837
130 73837
131 11362
132 11267
133 11267
134 11267
135 11267
136 7517
137 7517
138 8017
139 8017
140 8017
141 8017
142 8017
143 54892
144 39267
145 39267
146 39267
147 39267
148 -1
149 39142
150 39142
151 39767
152 39767
153 39492
154 39462
155 39462
156 39462
157 39462
158 39462
159 39462
160 351962
161 355087
162 355087
163 355087
164 275062
165 275062
166 275062
167 197312
168 197312
169 197312
170 197312
171 194187
172 194187
173 194187
174 194187
175 194187
176 194187
177 -1
178 194187
179 194187
180 194187
181 194187
182 194187
183 194187
184 193812
185 193812
186 193812
187 193812
188 193812
189 193812
190 193812
191 193812
192 193812
193 193812
194 190687
195 190687
196 190687
197 190686
198 177561
199 177561
200 178061
201 178062
202 176812
203 176812
204 176837
205 176862
206 -1
207 176862
208 176237
209 173112
210 173112
211 172987
212 172987
213 158587
214 158587
215 161712
216 161712
217 161712
218 158587
219 158587
