0 [0.0, 0.0, 0.0, 0.0, 0.0, 0.0, 0.0, 0.0]
1 [0.0, 0.0, 0.0, 0.0, 0.0, 0.0, 0.0, 0.0]
2 [0.0, 0.0, 0.0, 0.0, 0.0, 0.0, 0.0, 0.0]
3 [0.04013737, 0.04013737, 0.026862638, 0.08313736, 0.08313736, 0.02586264, 0.02586264, 0.06113736]
4 [0.14195177, 0.15027046, 0.13995177, 0.9730482, 0.97404826, 0.023840662, 0.021840664, 0.17727046]
5 [0.030840656, 0.03915935, 0.028840657, 0.9591594, 0.46015933, 0.023840662, 0.021840664, 0.44115934]
6 [0.10083699, 0.104836985, 0.098836996, 1.019163, 1.020163, 0.020170337, 0.01717034, 0.13149634]
7 [0.040428575, 0.098571435, 0.08857142, 0.5335714, 1.0374286, 0.088428564, 0.0125714205, 0.5055714]
8 [0.044708792, 0.1802912, 0.16729122, 0.1632912, 1.0242088, 1.0262088, 0.011291203, 0.75970876]
9 [0.044708792, 0.05529121, 0.04229122, 0.0382912, 0.086708784, 0.08870879, 0.011291203, 0.009708788]
10 [0.044708792, 0.05529121, 0.04229122, 0.0382912, 0.8367088, 0.08870879, 0.011291203, 0.75970876]
11 [0.046950545, 0.15395853, 0.14995855, 0.13495854, 1.040496, 0.08895055, 0.011049448, 0.011950554]
12 [0.047329675, 0.732337, 0.9535592, 0.93655926, 0.97421855, 0.09032967, 0.010670329, 0.014329671]
13 [0.047329675, 0.06567033, 0.064670324, 0.047670342, 0.83532965, 0.84032965, 0.010670329, 0.014329671]
14 [0.044571433, 0.06642857, 0.06542857, 0.04842856, 1.0234395, 0.09057143, 0.010428574, 0.0145714255]
15 [0.044571433, 0.06642857, 0.06542857, 0.04842856, 0.7844286, 0.8405714, 0.010428574, 0.0145714255]
16 [0.0402033, 0.06479671, 0.06279671, 0.0467967, 0.7837967, 0.8402033, 0.010796699, 0.013203302]
17 [0.038208794, 0.06479122, 0.061791215, 0.046791207, 0.78379124, 0.84020877, 0.09020879, 0.012208796]
18 [0.034027476, 0.06597254, 0.061972518, 0.045972534, 0.03397252, 1.0790385, 0.090027474, 0.011027473]
19 [0.054752745, 0.08720329, 1.0557307, 0.046225283, 0.03422527, 0.088774726, 0.08977473, 0.010774723]
20 [0.032774724, 0.065225266, 0.06122527, 0.046225283, 0.7842253, 0.83877474, 0.08977473, 0.010774723]
21 [0.12556593, 1.0085659, 0.9945659, 0.040565927, 0.83443403, 0.8384341, 0.18843406, 0.9555659]
22 [0.025565932, 0.058565933, 0.044565924, 0.040565927, 0.08443406, 0.08843407, 0.08843407, 0.0055659376]
23 [0.111824185, 0.13282418, 0.12082417, 0.038901098, 0.8330989, 0.8360989, 0.939978, 0.24002197]
24 [0.0349011, 0.055901106, 0.043901093, 0.038901098, 0.0830989, 0.0860989, 0.016901094, 0.1630989]
25 [5.0677867E13, 5.0677867E13, 5.0677867E13, 5.0677867E13, 5.0677867E13, 5.0677867E13, 5.0677867E13, 9.172694E15]
26 [0.07772344, 0.07772344, 0.070723444, 0.032390118, 0.95960987, 1.0522765, 0.98505676, 0.046723448]
27 [0.044390105, 0.044390105, 0.037390113, 0.032390118, 0.08460989, 0.08560989, 0.018390106, 0.013390111]
28 [0.96153295, 0.112467036, 0.03245604, 0.029456044, 0.95954394, 1.0076209, 0.94353294, 0.09437913]
29 [0.03845605, 0.035543952, 0.03245604, 0.029456044, 0.08454395, 0.08454395, 0.02045604, 0.017456044]
30 [0.8695476, 0.8705476, 0.030785713, 0.027785717, 0.95921427, 0.9185476, 0.85511905, 0.853119]
31 [0.03621428, 0.037214283, 0.030785713, 0.027785717, 0.084214285, 0.08521428, 0.02178571, 0.019785712]
32 [0.036939565, 0.036939565, 0.030060442, 0.028060444, 0.08393956, 0.08393956, 0.023060435, 0.021060439]
33 [0.2866758, 0.2866758, 0.030324182, 0.5283242, 0.5826758, 0.5836758, 0.024324175, 0.9945464]
34 [0.036675826, 0.036675826, 0.030324182, 0.02832417, 0.08267582, 0.083675824, 0.024324175, 0.022324177]
35 [1.0178437, 1.0178437, 0.026934061, 0.58506596, 0.58606595, 0.58606595, 0.021934066, 1.8237119]
36 [5.0677867E13, 5.0677867E13, 5.0677867E13, 5.0677867E13, 5.0677867E13, 5.0677867E13, 5.0677867E13, 9.172694E15]
37 [1.0167613, 0.21676129, 0.20679426, 1.0047942, 0.5849835, 0.5849835, 0.022016486, 1.8277943]
38 [0.038983516, 0.038983516, 0.02901648, 0.027016481, 0.08498352, 0.08498352, 0.022016486, 0.8500165]
39 [0.992496, 0.989496, 0.16931419, 0.16731419, 1.0355949, 0.08204945, 0.024950555, 0.976496]
40 [0.9920604, 0.9870604, 0.98606044, 0.18306044, 1.0309396, 0.5819396, 0.5250604, 0.022060437]
41 [0.042060442, 0.037060436, 0.036060438, 0.03306044, 0.08093956, 0.081939556, 0.025060436, 0.022060437]
42 [0.9539865, 0.94898653, 0.94698656, 0.3066229, 0.98919535, 0.5811044, 0.5238956, 0.020895604]
43 [0.044895604, 0.039895598, 0.0378956, 0.033895604, 0.5801044, 0.5811044, 0.5238956, 0.020895604]
44 [5.0677867E13, 5.0677867E13, 5.0677867E13, 5.0677867E13, 5.0677867E13, 5.0677867E13, 5.0677867E13, 9.172694E15]
45 [0.45076373, 0.44376373, 0.84176373, 0.83676374, 0.88023627, 0.88123626, 0.5822363, 0.41776374]
46 [0.050763734, 0.04376374, 0.04176373, 0.036763735, 0.08023626, 0.081236266, 0.08223627, 0.017763741]
47 [0.85346156, 0.44446155, 0.44446155, 0.83746153, 0.88053846, 0.8825385, 0.8835385, 0.015461534]
48 [0.11572527, 0.12372528, 0.11172527, 0.97872525, 1.0182748, 0.08277472, 0.084774725, 0.012225275]
49 [0.05322527, 0.061225276, 0.049225274, 0.04122527, 0.5807747, 0.5827747, 0.58477473, 0.012225275]
