0 [0.0, 0.0, 0.0, 0.0, 0.0, 0.0, 0.0, 0.0]
1 [0.0, 0.0, 0.0, 0.0, 0.0, 0.0, 0.0, 0.0]
2 [0.11111111, 0.11111111, 0.11111111, 0.8888889, 0.8888889, 0.0, 0.0, 0.11111111]
3 [0.0, 0.0, 0.0, 0.875, 0.375, 0.0, 0.0, 0.375]
4 [0.06666667, 0.06666667, 0.06666667, 0.93333334, 0.93333334, 0.0, 0.0, 0.06666667]
5 [0.0, 0.05, 0.05, 0.5, 0.95, 0.0, 0.0, 0.5]
6 [0.0, 0.125, 0.125, 0.125, 0.9375, 0.9375, 0.0, 0.75]
7 [0.0, 0.0, 0.0, 0.0, 0.0, 0.0, 0.0, 0.0]
8 [0.0, 0.0, 0.0, 0.0, 0.75, 0.0, 0.0, 0.75]
9 [0.0, 0.09090909, 0.09090909, 0.09090909, 0.95454544, 0.0, 0.0, 0.0]
10 [0.0, 0.6666667, 0.8888889, 0.8888889, 0.8888889, 0.0, 0.0, 0.0]
11 [0.0, 0.0, 0.0, 0.0, 0.75, 0.75, 0.0, 0.0]
12 [0.0, 0.0, 0.0, 0.0, 0.989011, 0.0, 0.0, 0.0]
13 [0.0, 0.0, 0.0, 0.0, 0.75, 0.75, 0.0, 0.0]
14 [0.0, 0.0, 0.0, 0.0, 0.75, 0.75, 0.0, 0.0]
15 [0.016483517, 0.016483517, 0.99450547, 0.0, 0.0, 0.0, 0.0, 0.0]
16 [0.0, 0.0, 0.0, 0.0, 0.75, 0.75, 0.0, 0.0]
17 [0.0, 0.0, 0.0, 0.0, 0.0, 0.989011, 0.0, 0.0]
18 [0.021978023, 0.021978023, 0.99450547, 0.0, 0.0, 0.0, 0.0, 0.0]
19 [0.0, 0.0, 0.0, 0.0, 0.75, 0.75, 0.0, 0.0]
20 [0.1, 0.95, 0.95, 0.0, 0.75, 0.75, 0.1, 0.95]
21 [0.0, 0.0, 0.0, 0.0, 0.0, 0.0, 0.0, 0.0]
22 [0.07692308, 0.07692308, 0.07692308, 0.0, 0.75, 0.75, 0.9230769, 0.07692308]
23 [0.0, 0.0, 0.0, 0.0, 0.0, 0.0, 0.0, 0.0]
24 [0.0, 0.0, 0.0, 0.0, 0.0, 0.0, 0.0, 0.0]
25 [0.033333335, 0.033333335, 0.033333335, 0.0, 0.875, 0.96666664, 0.96666664, 0.033333335]
26 [0.0, 0.0, 0.0, 0.0, 0.0, 0.0, 0.0, 0.0]
27 [0.9230769, 0.07692308, 0.0, 0.0, 0.875, 0.9230769, 0.9230769, 0.07692308]
28 [0.0, 0.0, 0.0, 0.0, 0.0, 0.0, 0.0, 0.0]
29 [0.8333333, 0.8333333, 0.0, 0.0, 0.875, 0.8333333, 0.8333333, 0.8333333]
30 [0.0, 0.0, 0.0, 0.0, 0.0, 0.0, 0.0, 0.0]
31 [0.0, 0.0, 0.0, 0.0, 0.0, 0.0, 0.0, 0.0]
32 [0.25, 0.25, 0.0, 0.5, 0.5, 0.5, 0.0, 0.9722222]
33 [0.0, 0.0, 0.0, 0.0, 0.0, 0.0, 0.0, 0.0]
34 [0.9777778, 0.9777778, 0.0, 0.5, 0.5, 0.5, 0.0, 0.9777778]
35 [0.0, 0.0, 0.0, 0.0, 0.0, 0.0, 0.0, 0.0]
36 [0.0, 0.0, 0.0, 0.0, 0.0, 0.0, 0.0, 0.0]
37 [0.9777778, 0.17777778, 0.17777778, 0.9777778, 0.5, 0.5, 0.0, 0.9777778]
38 [0.0, 0.0, 0.0, 0.0, 0.0, 0.0, 0.0, 0.0]
39 [0.95454544, 0.95454544, 0.13636364, 0.13636364, 0.95454544, 0.0, 0.0, 0.95454544]
40 [0.95, 0.95, 0.95, 0.15, 0.95, 0.5, 0.5, 0.0]
41 [0.0, 0.0, 0.0, 0.0, 0.0, 0.0, 0.0, 0.0]
42 [0.90909094, 0.90909094, 0.90909094, 0.27272728, 0.90909094, 0.5, 0.5, 0.0]
43 [0.0, 0.0, 0.0, 0.0, 0.5, 0.5, 0.5, 0.0]
44 [0.0, 0.0, 0.0, 0.0, 0.0, 0.0, 0.0, 0.0]
45 [0.4, 0.4, 0.8, 0.8, 0.8, 0.8, 0.5, 0.4]
46 [0.0, 0.0, 0.0, 0.0, 0.0, 0.0, 0.0, 0.0]
47 [0.8, 0.4, 0.4, 0.8, 0.8, 0.8, 0.8, 0.0]
48 [0.0625, 0.0625, 0.0625, 0.9375, 0.9375, 0.0, 0.0, 0.0]
49 [0.0, 0.0, 0.0, 0.0, 0.5, 0.5, 0.5, 0.0]
