0 [0.0, 0.0, 0.0, 0.0, 0.0, 0.0, 0.0, 0.0]
1 [0.0, 0.0, 0.0, 0.0, 0.0, 0.0, 0.0, 0.0]
2 [0.20243956, 0.09843956, 0.020439561, 0.032560438, 0.06856045, 0.11756045, 0.11256043, 0.099439554]
3 [0.20243956, 0.09843956, 0.020439561, 0.032560438, 0.06856045, 0.11756045, 0.11256043, 0.099439554]
4 [0.20084067, 0.095840655, 0.01984066, 0.029159341, 0.06315933, 0.109159335, 0.11415933, 0.09684066]
5 [0.20084067, 0.47084066, 0.39484066, 0.029159341, 0.06315933, 0.109159335, 0.11415933, 0.9718407]
6 [1.1568077, 1.0488076, 0.01526923, 0.028730776, 0.056730773, 0.09373076, 0.2271154, 0.20365384]
7 [1.1305379, 1.1135378, 0.5490934, 0.028906584, 0.051906586, 0.0819066, 0.27557328, 0.54890656]
8 [1.0363407, 1.0283407, 0.93519783, 0.030802192, 0.050802197, 0.0758022, 0.96294504, 0.95394504]
9 [0.1791978, 0.5461978, 0.4351978, 0.030802192, 0.050802197, 0.0758022, 0.10580219, 0.97180223]
10 [1.0516319, 1.0456319, 0.9336319, 0.03136813, 0.050368134, 0.07336814, 0.97936815, 0.9773681]
11 [0.17663187, 0.6706319, 0.5586319, 0.03136813, 0.050368134, 0.07336814, 0.10436813, 0.6023681]
12 [0.23778023, 0.23278022, 0.11978022, 0.095219776, 0.11321978, 0.13621978, 1.0422198, 1.0422198]
13 [0.2082619, 1.1365952, 0.09026191, 0.06540476, 0.083404765, 0.10640477, 0.13840476, 1.071738]
14 [0.17492858, 0.66992855, 0.5569286, 0.032071427, 0.050071433, 0.073071435, 0.105071425, 0.6050714]
15 [0.2087564, 1.1360897, 0.089756414, 0.06591026, 0.083910264, 0.10591027, 0.10457692, 1.0712435]
16 [0.17542307, 0.6694231, 0.55642307, 0.032576922, 0.05057693, 0.07257693, 0.10457692, 0.60457695]
17 [0.1742967, 0.6672967, 0.5562967, 0.031703297, 0.048703305, 0.06970329, 0.099703304, 0.60270333]
18 [0.8972672, 1.0750854, 0.77926725, 0.0330055, 0.049005482, 0.06800549, 0.09400549, 1.0090964]
19 [0.1699945, 0.6659945, 0.5519945, 0.0330055, 0.049005482, 0.06800549, 0.09400549, 0.6000055]
20 [0.3015861, 0.29858607, 0.18458608, 0.1670806, 0.04874724, 0.06674725, 0.09174725, 1.0330806]
21 [1.1275989, 1.1245989, 0.049060438, 0.033939566, 0.047939554, 0.063939564, 0.085939564, 0.557478]
22 [0.16606045, 0.6630604, 0.54906046, 0.033939566, 0.047939554, 0.063939564, 0.085939564, 0.5959396]
23 [0.3644231, 1.0614231, 0.94642305, 0.23457694, 0.04757692, 0.06257693, 0.08257693, 0.99457693]
24 [0.16389011, 1.0358901, 0.4198901, 0.0351099, 0.047109887, 0.062109895, 0.0821099, 0.4681099]
25 [0.16389011, 1.0358901, 0.4198901, 0.0351099, 0.047109887, 0.062109895, 0.0821099, 0.4681099]
26 [0.9588517, 0.95685166, 0.8398517, 0.83714837, 0.048148353, 0.061148364, 0.07814835, 0.8911484]
27 [0.15885165, 1.0318516, 0.91485167, 0.037148364, 0.048148353, 0.061148364, 0.07814835, 0.09114836]
28 [1.0552943, 0.68965787, 1.0332942, 0.045796692, 0.05279671, 0.060796704, 0.07079669, 0.9928876]
29 [1.0406429, 0.5386429, 1.0266428, 0.049357135, 0.054357156, 0.06035715, 0.06835714, 0.077357136]
30 [0.14064285, 1.0136429, 1.0016428, 0.049357135, 0.054357156, 0.06035715, 0.06835714, 0.077357136]
31 [1.0281538, 1.0281538, 0.42715386, 0.9578461, 0.05884615, 0.06184615, 0.06384615, 0.06684617]
32 [0.11902747, 0.11902747, 0.8690275, 0.8149725, 0.063972525, 0.06297252, 0.061972525, 0.05997253]
33 [0.11902747, 0.11902747, 0.8690275, 0.8149725, 0.063972525, 0.06297252, 0.061972525, 0.05997253]
34 [0.044038463, 0.11303846, 0.98903847, 0.97703844, 0.06796154, 0.06496154, 0.060961545, 0.05596155]
35 [0.21744455, 1.0167173, 1.0187173, 0.28844458, 0.9844645, 0.06837363, 0.061373636, 0.05337362]
36 [0.6601209, 0.9778791, 0.97987914, 0.72987914, 0.95612085, 0.07212088, 0.06212087, 0.05212088]
37 [0.035120882, 0.10287912, 0.85487914, 0.85487914, 0.08112087, 0.07212088, 0.06212087, 0.05212088]
38 [0.032516483, 0.29648352, 0.09948352, 0.100483514, 1.0652943, 0.073516496, 0.06551648, 0.05351649]
39 [0.032664843, 0.092335165, 0.8453352, 0.84733516, 0.090664834, 0.07466482, 0.06766483, 0.05466483]
40 [0.032664843, 0.092335165, 0.5953352, 0.59733516, 0.59066486, 0.07466482, 0.06766483, 0.05466483]
41 [0.031313185, 0.9896868, 0.9926868, 0.2956868, 0.99131316, 0.27431318, 0.06931318, 0.055313185]
42 [0.031313185, 0.08968681, 0.96768683, 0.47068682, 0.46631318, 0.07431318, 0.06931318, 0.055313185]
43 [0.042214286, 0.10076374, 0.10476373, 0.106763735, 1.0857308, 0.08521428, 0.080214284, 0.065214284]
44 [0.03156044, 1.082945, 0.09243956, 0.09443956, 0.09256044, 0.5790659, 0.06956044, 0.05556044]
45 [0.03156044, 0.08843956, 0.59243953, 0.59443957, 0.5925604, 0.08456045, 0.06956044, 0.05556044]
46 [0.03129121, 1.0492473, 0.2060934, 0.2090934, 0.20767583, 1.0478296, 0.18567583, 0.05629121]
47 [0.03176374, 0.07176374, 0.9632363, 0.46623626, 0.46876374, 0.08876374, 0.07276373, 0.05676374]
48 [0.03176374, 0.07176374, 0.088236265, 0.84123623, 0.8437637, 0.08876374, 0.07276373, 0.05676374]
49 [0.030681314, 0.9516813, 0.9593187, 0.46331868, 0.9696813, 0.96868134, 0.07468132, 0.058681324]
