-0.85000795 -0.69976854
-0.85000795 -0.69976854
-0.8503358 -0.6998631
-0.8499729 -0.70010084
-0.84842813 -0.7014838
-0.8466347 -0.7008757
-0.84116477 -0.6928841
-0.838723 -0.6886339
-0.8355986 -0.6804585
-0.8353796 -0.68003744
-0.83477086 -0.67813754
-0.8347853 -0.6781174
-0.8327551 -0.67247456
-0.8304321 -0.6657953
-0.8250917 -0.6514746
-0.8239732 -0.64894867
-0.82348615 -0.64723176
-0.819586 -0.6362616
-0.81732255 -0.6296175
-0.81590766 -0.62638056
-0.8158873 -0.6263531
-0.8155241 -0.62640584
-0.81455743 -0.62434465
-0.8104164 -0.6123689
-0.80827636 -0.6055398
-0.8031641 -0.5891075
-0.8013445 -0.5843841
-0.79968345 -0.57832456
-0.7969606 -0.56095684
-0.79583764 -0.5557357
-0.79449666 -0.5466281
-0.7943078 -0.53869635
-0.796579 -0.5142405
-0.7992736 -0.49959746
-0.80377865 -0.47851983
-0.8046058 -0.473738
-0.80474395 -0.47192985
-0.8053266 -0.46965274
-0.80696696 -0.4639728
-0.81091374 -0.451128
-0.8113483 -0.44916305
-0.812343 -0.4440894
-0.81376636 -0.43863964
-0.81705314 -0.42531514
-0.82056093 -0.4148287
-0.83162606 -0.38870612
-0.8390787 -0.3744771
-0.8474085 -0.3599196
-0.8651352 -0.32991296
-0.87321985 -0.31687886
-0.882531 -0.30104345
-0.8856487 -0.29575723
-0.8856487 -0.29575723
