0 -1
1 -1
2 1366264
3 1366264
4 1366264
5 1484410
6 1171899
7 1343824
8 1484435
9 1546998
10 1484495
11 1546875
12 1484395
13 1484496
14 1484395
15 1484496
16 -1
17 1484474
18 1484496
19 1484381
20 1328149
21 1484496
22 1328170
23 1328170
24 1484999
25 1171996
26 1328214
27 1171959
28 1171995
29 1172299
30 1172475
31 1172475
32 1172475
33 1174871
34 1174380
35 1172475
36 1174975
37 1177745
38 1173475
39 1174375
40 1178145
41 1174975
42 1184395
43 1173475
44 1174875
45 -1
46 1174875
47 1185975
48 1174879
49 1234475
50 1304985
51 1304985
