0 -1.5707963
0 -3.1415923
0 -3.1415923
0 -3.1415925
0 -3.1415927
0 3.1415925
0 3.1415925
0 1.5707964
0 1.5707976
1 -1.5707963
1 -3.1415923
1 -3.1415923
1 -3.1415925
1 -3.1415927
1 3.1415925
1 3.1415925
1 1.5707964
1 1.5707976
2 -1.5707963
2 -3.1415923
2 -3.1415923
2 -3.1415925
2 -3.1415927
2 3.1415925
2 3.1415925
2 1.5707964
2 1.5707976
3 -1.5707963
3 -3.1415923
3 -3.1415923
3 -3.1415925
3 -3.1415927
3 3.1415925
3 3.1415925
3 1.5707964
3 1.5707976
4 -1.5707963
4 -3.1415923
4 -3.1415923
4 -3.1415925
4 -3.1415927
4 3.1415925
4 3.1415925
4 1.5707964
4 1.5707976
5 -1.5707963
5 -3.1415923
5 -3.1415923
5 -3.1415925
5 -3.1415927
5 3.1415925
5 3.1415925
5 1.5707964
5 1.5707976
6 -1.5707963
6 -3.1415923
6 -3.1415923
6 -3.1415925
6 -3.1415927
6 3.1415925
6 3.1415925
6 1.5707964
6 1.5707976
7 0.005212843
7 3.1414952
7 3.1415205
7 3.1415293
7 3.1415293
7 3.1415205
7 3.141496
7 3.1364162
7 1.5757016
8 -0.008517353
8 -3.141442
8 -3.1414819
8 -3.141496
8 -3.1414967
8 -3.1414845
8 -3.141448
8 -3.1330676
8 1.5862622
9 -0.009671621
9 -3.14112
9 -3.1412492
9 -3.141295
9 -3.1412985
9 -3.1412628
9 -3.1411572
9 -3.1319175
9 1.6047314
10 -0.010856738
10 -3.1406264
10 -3.140901
10 -3.1409986
10 -3.1410105
10 -3.1409454
10 -3.140749
10 -3.1307337
10 1.6274631
11 -0.010856762
11 -3.140053
11 -3.140513
11 -3.1406763
11 -3.1407034
11 -3.1406147
11 -3.1403377
11 -3.1307342
11 1.6558551
12 -0.010856762
12 -3.140053
12 -3.140513
12 -3.1406763
12 -3.1407034
12 -3.1406147
12 -3.1403377
12 -3.1307342
12 1.6558551
13 -0.010052477
13 -3.138454
13 -3.1395237
13 -3.1398973
13 -3.1399932
13 -3.1398838
13 -3.1394851
13 -3.131539
13 1.734237
14 -0.010052477
14 -3.138454
14 -3.1395237
14 -3.1398973
14 -3.1399932
14 -3.1398838
14 -3.1394851
14 -3.131539
14 1.734237
15 -0.008823388
15 -3.1376266
15 -3.1391
15 -3.1396003
15 -3.1397476
15 -3.139658
15 -3.1392627
15 -3.132768
15 1.7854438
16 -0.0071886717
16 -3.1369305
16 -3.1388478
16 -3.1394663
16 -3.1396677
16 -3.1396167
16 -3.1392756
16 -3.1344035
16 1.8455926
17 -0.0014881968
17 -3.1395032
17 -3.1406152
17 -3.1409004
17 -3.1410017
17 -3.1410165
17 -3.1409552
17 -3.140104
17 1.9909328
18 -0.0014881968
18 -3.1395032
18 -3.1406152
18 -3.1409004
18 -3.1410017
18 -3.1410165
18 -3.1409552
18 -3.140104
18 1.9909328
19 0.0013180225
19 3.1380987
19 3.140294
19 3.140731
19 3.1408842
19 3.1409223
19 3.1408746
19 3.140275
19 2.0759609
20 0.0022389027
20 3.1294575
20 3.1386774
20 3.1398141
20 3.1401913
20 3.1403086
20 3.14026
20 3.1393542
20 2.1632059
21 0.0022389027
21 3.1294575
21 3.1386774
21 3.1398141
21 3.1401913
21 3.1403086
21 3.14026
21 3.1393542
21 2.1632059
22 0.0020410488
22 3.0912924
22 3.138043
22 3.13963
22 3.140113
22 3.140278
22 3.1402662
22 3.1395519
22 2.243108
23 6.441398E-5
23 0.0015751532
23 3.1413574
23 3.1414766
23 3.1415088
23 3.1415203
23 3.1415215
23 3.1415286
23 2.3136895
24 6.441398E-5
24 0.0015751532
24 3.1413574
24 3.1414766
24 3.1415088
24 3.1415203
24 3.1415215
24 3.1415286
24 2.3136895
25 -0.002195153
25 -0.014720633
25 -3.135135
25 -3.1388066
25 -3.1396687
25 -3.1399744
25 -3.1400337
25 -3.1393971
25 2.374772
26 -0.002195153
26 -0.014720633
26 -3.135135
26 -3.1388066
26 -3.1396687
26 -3.1399744
26 -3.1400337
26 -3.1393971
26 2.374772
27 -0.0045197182
27 -0.021628998
27 -3.123826
27 -3.1350138
27 -3.1372333
27 -3.13801
27 -3.1382048
27 -3.1370728
27 2.4261706
28 -0.0066594696
28 -0.025159543
28 -3.1041636
28 -3.130473
28 -3.1345656
28 -3.1359596
28 -3.136366
28 -3.134933
28 2.4780338
29 -0.008466035
29 -0.026086982
29 -3.05411
29 -3.1248586
29 -3.1316822
29 -3.133893
29 -3.1346087
29 -3.1331265
29 2.5386407
30 -0.00938125
30 -0.024234572
30 -2.47246
30 -3.1186779
30 -3.1292074
30 -3.1323428
30 -3.1334252
30 -3.1322112
30 2.6078048
31 -0.008552776
31 -0.01918767
31 -0.12648961
31 -3.114812
31 -3.1287768
31 -3.1324444
31 -3.1337438
31 -3.1330397
31 2.6780608
32 -0.006726887
32 -0.013512765
32 -0.048931185
32 -3.113527
32 -3.1301472
32 -3.1338153
32 -3.1351109
32 -3.1348655
32 2.7447367
33 -0.0037759135
33 -0.006919368
33 -0.018750776
33 -3.119026
33 -3.1342719
33 -3.1368847
33 -3.1377845
33 -3.1378167
33 2.808813
34 -9.320428E-4
34 -0.0015777372
34 -0.003614782
34 -3.1328115
34 -3.1395547
34 -3.1403556
34 -3.1406202
34 -3.1406605
34 2.8658822
35 0.0013333922
35 0.0021682675
35 0.0044483733
35 3.1157608
35 3.1382318
35 3.1396713
35 3.1401234
35 3.1402595
35 2.9164207
36 0.0022273683
36 0.0034465382
36 0.0065472173
36 2.828639
36 3.1352854
36 3.1382015
36 3.139065
36 3.1393654
36 2.9602687
37 0.0021355785
37 0.003187222
37 0.0057409164
37 0.073358305
37 3.1348636
37 3.1381786
37 3.1391044
37 3.1394572
37 2.995886
38 7.4235664E-4
38 0.0010819476
38 0.0018774802
38 0.013032918
38 3.1390183
38 3.1403532
38 3.1407058
38 3.1408503
38 3.0239727
39 -0.0018401276
39 -0.0026115675
39 -0.004421067
39 -0.023704633
39 -3.1347861
39 -3.1384509
39 -3.1393766
39 -3.1397524
39 3.0442328
40 -0.004933479
40 -0.0068852897
40 -0.011394071
40 -0.050710328
40 -3.1218839
40 -3.1329007
40 -3.13555
40 -3.1366591
40 3.0640707
41 -0.007728994
41 -0.010549065
41 -0.016989524
41 -0.06313533
41 -3.1072726
41 -3.1274207
41 -3.1319292
41 -3.1338634
41 3.0894291
42 -0.008187752
42 -0.010926928
42 -0.017149547
42 -0.055306472
42 -3.1005607
42 -3.1259298
42 -3.1311352
42 -3.1334047
42 3.1154332
43 -0.007817991
43 -0.010214195
43 -0.015662272
43 -0.04525038
43 -3.0968552
43 -3.1259847
43 -3.1313956
43 -3.1337745
43 3.140587
44 -0.0070990017
44 -0.009055014
44 -0.013540706
44 -0.03525653
44 -3.0929968
44 -3.1266673
44 -3.1321006
44 -3.1344936
44 -3.1135173
45 -0.005578993
45 -0.0069254194
45 -0.010079467
45 -0.023774114
45 -3.0920527
45 -3.129087
45 -3.1339066
45 -3.1360135
45 -3.079653
46 -0.002344633
46 -0.0028354814
46 -0.004022992
46 -0.008735051
46 -3.1116738
46 -3.1359518
46 -3.1382568
46 -3.139248
46 -3.0452435
47 1.492381E-4
47 1.7034564E-4
47 2.3654931E-4
47 4.8172227E-4
47 3.1385498
47 3.1412218
47 3.1413815
47 3.1414435
47 -3.0141675
48 0.002625287
48 0.0030195285
48 0.0041143303
48 0.007959302
48 2.998736
48 3.1343832
48 3.1376514
48 3.1389675
48 -2.985048
49 0.0024962858
49 0.0028084177
49 0.003759599
49 0.0069523845
49 0.2278073
49 3.134225
49 3.1377375
49 3.1390965
49 -2.9565053
