0 [0.0, 0.0, 0.0, 0.0, 0.0, 0.0, 0.0, 0.0]
1 [0.0, 0.0, 0.0, 0.0, 0.0, 0.0, 0.0, 0.0]
2 [0.0, 0.0, 0.0, 0.0, 0.0, 0.0, 0.0, 0.0]
3 [0.0, 0.0, 0.0, 0.0, 0.0, 0.0, 0.0, 0.0]
4 [0.0, 0.0, 0.0, 0.0, 0.0, 0.0, 0.0, 0.0]
5 [0.0, 0.0, 0.0, 0.0, 0.0, 0.0, 0.0, 0.0]
6 [0.0, 0.0, 0.0, 0.0, 0.0, 0.0, 0.0, 0.0]
7 [0.009274742, 0.057725266, 0.00627472, 0.00627472, 0.0052747214, 0.004274722, 0.0032747232, 0.0022747242]
8 [0.009274742, 0.93272525, 0.00627472, 0.00627472, 0.0052747214, 0.004274722, 0.0032747232, 0.0022747242]
9 [0.02478571, 0.92721426, 0.052214287, 0.009785724, 0.005785704, 0.002214288, 0.0072142836, 0.013214278]
10 [0.02478571, 0.92721426, 0.052214287, 0.009785724, 0.005785704, 0.002214288, 0.0072142836, 0.013214278]
11 [0.02478571, 0.92721426, 0.052214287, 0.009785724, 0.005785704, 0.002214288, 0.0072142836, 0.013214278]
12 [0.17583883, 0.07482785, 0.07783882, 0.051827844, 0.97716117, 0.004505493, 0.013505485, 0.0235055]
13 [0.1425055, 0.04149451, 0.04450549, 0.01849451, 0.010494516, 0.004505493, 0.013505485, 0.0235055]
14 [1.2078264, 0.23813757, 0.13548413, 0.092875704, 0.06585409, 1.0014096, 0.015368129, 0.034368135]
15 [0.13652435, 0.18866216, 0.10980004, 0.07064593, 0.043631863, 0.023631858, 0.015368129, 0.034368135]
16 [0.16350788, 0.24600314, 1.065233, 0.1233469, 0.075322345, 0.028989019, 0.9836776, 0.07234432]
17 [0.12524627, 0.17583188, 1.0464402, 0.090002686, 0.041989006, 0.028989019, 0.017010985, 0.039010987]
18 [0.03843404, 0.15538515, 0.12375357, 0.11628259, 0.07126922, 0.03726923, 0.017730763, 0.042730764]
19 [0.07594084, 0.16536044, 1.1133698, 1.0927229, 0.10696155, 0.0633718, 0.017961536, 1.0117052]
20 [0.04224854, 0.032089043, 0.11102158, 0.12384877, 0.12584065, 0.066840656, 0.02284065, 1.0061593]
21 [0.041981716, 0.030803341, 0.11032041, 0.99889004, 0.12584065, 0.066840656, 0.02284065, 0.046159342]
22 [0.87893426, 0.0072625596, 0.94001627, 0.118865736, 0.21316941, 0.08606243, 0.03636014, 0.97292304]
23 [0.03608292, 0.008747502, 0.097538464, 1.0612813, 0.19911377, 0.08487176, 0.036358777, 0.044351652]
24 [1.6377393, 0.009607671, 0.043457426, 0.11089966, 0.175462, 0.11492427, 0.047617, 0.041609894]
25 [0.18891484, 0.75894696, 0.039142005, 1.1154226, 0.12595849, 0.13889113, 0.09753901, 0.071804024]
26 [0.15137668, 0.01540847, 0.039563492, 0.09183279, 1.1899197, 0.12040573, 0.080868706, 0.05513736]
27 [0.17205815, 0.91571504, 0.0352922, 0.08846346, 1.2430346, 0.13245101, 0.13550036, 0.09817399]
28 [0.12276128, 0.08588618, 0.03550077, 0.05023352, 0.5769316, 0.090871185, 0.10214542, 0.06484065]
29 [0.10754398, 0.08725477, 0.03192045, 0.039723534, 0.3123309, 0.78112704, 0.09866655, 0.067313194]
30 [0.022628369, 0.08203003, 0.07910368, 0.03753149, 0.018586384, 0.8970461, 0.10305575, 0.06992309]
31 [0.018613266, 0.897545, 1.0559759, 0.03866162, 0.024063906, 0.118996404, 0.13703157, 1.0850531]
32 [0.009956259, 0.07252418, 0.08212655, 0.0393011, 0.029245075, 0.92229253, 0.103707455, 0.10171978]
33 [0.02348942, 0.07464706, 0.07867727, 0.041051853, 0.036367267, 0.90029436, 0.103949964, 0.10395604]
34 [0.08732204, 0.14854349, 1.0442967, 0.0422053, 0.035691284, 0.04220566, 1.0779339, 0.18910806]
35 [0.033096798, 0.071972065, 0.07557253, 0.042454395, 0.037531205, 0.042454667, 0.10577005, 0.10577472]
36 [0.030883314, 0.9674658, 1.0110066, 1.0000659, 0.04343407, 0.04043407, 0.22256593, 0.23456594]
37 [0.032483116, 0.05247763, 0.07356082, 0.5568428, 0.04016912, 0.53493613, 0.59755087, 0.109565936]
38 [0.034121286, 0.05533535, 0.0779025, 0.4504201, 0.03687464, 0.9011183, 0.40208575, 0.118906595]
39 [0.042325117, 0.27856737, 0.9686307, 0.96503425, 0.88638324, 0.028055947, 0.020219486, 1.0096691]
40 [0.049653463, 0.50189, 0.97051364, 0.9702712, 0.8943019, 0.024239434, 0.014345998, 0.5610983]
41 [0.053030923, 0.046310905, 0.9415611, 0.95623934, 0.9369089, 0.025497664, 0.013582309, 0.63741755]
42 [0.053619187, 0.04637783, 0.06658128, 0.08420686, 0.08384211, 0.02551855, 0.013582337, 0.8695604]
43 [0.056027472, 0.032972515, 0.52851796, 0.9901184, 0.9921184, 0.93906343, 0.014972533, 0.016027473]
44 [0.05499305, 0.032890126, 0.07397206, 0.08102747, 0.74969417, 0.02997252, 0.014972533, 0.68269414]
45 [0.72267216, 0.025005491, 0.06699452, 0.7516612, 0.08100549, 0.08200549, 0.018994503, 0.019005498]
46 [0.0555, 0.026500005, 0.0565, 0.6589286, 0.93564284, 0.93864286, 0.87964284, 0.0195]
47 [0.55550003, 0.026500005, 0.0565, 0.08749999, 0.5785, 0.0815, 0.022499995, 0.5195]
48 [0.054901097, 0.028901098, 0.041098893, 0.4900989, 0.4850989, 0.9829011, 0.97190106, 0.019901095]
49 [0.053093404, 0.029093402, 0.0329066, 0.0819066, 0.42423993, 1.0265378, 1.0285379, 0.018093402]
