0 -3.1415286
0 -3.1415925
0 -3.1415925
0 -3.1415925
0 -3.1415927
0 3.1415923
0 3.1415925
0 -6.4194304E-5
0 1.0471984
1 -3.1415286
1 -3.1415925
1 -3.1415925
1 -3.1415925
1 -3.1415927
1 3.1415923
1 3.1415925
1 -6.4194304E-5
1 1.0471984
2 3.134883
2 3.138013
2 3.1382349
2 3.1380255
2 3.1372273
2 3.134934
2 3.1227872
2 0.0067096413
2 1.0521764
3 3.134883
3 3.138013
3 3.1382349
3 3.1380255
3 3.1372273
3 3.134934
3 3.1227872
3 0.0067096413
3 1.0521764
4 3.129022
4 3.1350117
4 3.1354434
4 3.1350856
4 3.1336682
4 3.1296153
4 3.1090503
4 0.012570408
4 1.0626824
5 3.130244
5 3.135796
5 3.1362114
5 3.135934
5 3.1347575
5 3.1314135
5 3.1155078
5 0.011348387
5 1.0803084
6 3.1301656
6 3.135949
6 3.136397
6 3.136173
6 3.1351123
6 3.1321142
6 3.1188514
6 0.011426965
6 1.1027912
7 3.1303017
7 3.136195
7 3.1366618
7 3.1364872
7 3.1355438
7 3.1328843
7 3.121789
7 0.01129083
7 1.1235437
8 3.1295927
8 3.1359863
8 3.1364977
8 3.136343
8 3.1354098
8 3.1327806
8 3.1221924
8 0.011999671
8 1.137276
9 3.1296735
9 3.136086
9 3.136601
9 3.1364615
9 3.1355665
9 3.1330447
9 3.1230505
9 0.011918968
9 1.1439236
10 3.1297398
10 3.1361122
10 3.1366239
10 3.1364844
10 3.1355922
10 3.1330786
10 3.1231055
10 0.01185263
10 1.1434798
11 3.1296785
11 3.1360147
11 3.136521
11 3.136365
11 3.1354322
11 3.1328044
11 3.1221893
11 0.011913825
11 1.1360377
12 3.1290293
12 3.1356037
12 3.1361244
12 3.1359336
12 3.1348915
12 3.1319544
12 3.1197479
12 0.012563034
12 1.1248773
13 3.1299934
13 3.1359065
13 3.1363668
13 3.136151
13 3.1351
13 3.1321309
13 3.119181
13 0.0115989065
13 1.1075469
14 3.1303535
14 3.1358674
14 3.1362813
14 3.1360116
14 3.134857
14 3.1315773
14 3.116079
14 0.011239114
14 1.0822093
15 3.1303535
15 3.1358674
15 3.1362813
15 3.1360116
15 3.134857
15 3.1315773
15 3.116079
15 0.011239114
15 1.0822093
16 3.1321454
16 3.136457
16 3.1367474
16 3.1364155
16 3.1352084
16 3.1317136
16 3.1118422
16 0.009447235
16 1.0362097
17 3.1321454
17 3.136457
17 3.1367474
17 3.1364155
17 3.1352084
17 3.1317136
17 3.1118422
17 0.009447235
17 1.0362097
18 3.1321166
18 3.1363242
18 3.1365907
18 3.1362143
18 3.134904
18 3.1310723
18 3.107286
18 0.00947578
18 1.0188789
19 3.133562
19 3.137015
19 3.137217
19 3.1368544
19 3.1356444
19 3.1320593
19 3.1071603
19 0.008030496
19 0.9998982
20 3.1358008
20 3.1381814
20 3.1383026
20 3.1379967
20 3.1370196
20 3.1340678
20 3.1094375
20 0.005791737
20 0.97486424
21 3.1372175
21 3.1389072
21 3.1389713
21 3.1386902
21 3.1378345
21 3.1351624
21 3.1034334
21 0.0043749507
21 0.94099957
22 3.1389968
22 3.1399133
22 3.1399283
22 3.139719
22 3.139107
22 3.1370938
22 3.0773199
22 0.0025955916
22 0.89824426
23 3.1397634
23 3.1403513
23 3.1403444
23 3.1401637
23 3.139648
23 3.1378427
23 0.07669333
23 0.0018291975
23 0.8567085
24 3.1398587
24 3.1403778
24 3.1403565
24 3.1401582
24 3.139598
24 3.137512
24 0.024554083
24 0.0017338762
24 0.8235466
25 3.1398878
25 3.1403694
25 3.1403365
25 3.1401186
25 3.1395056
25 3.137089
25 0.016179604
25 0.0017046734
25 0.79734445
26 3.1397119
26 3.1402209
26 3.1401734
26 3.1399126
26 3.1391773
26 3.1361268
26 0.014247093
26 0.0018808027
26 0.77652955
27 3.1385052
27 3.1393175
27 3.1392214
27 3.1387603
27 3.1374574
27 3.131732
27 0.019523311
27 0.003087236
27 0.75605613
28 3.137384
28 3.1384275
28 3.1382618
28 3.137565
28 3.135583
28 3.126079
28 0.022090744
28 0.004208736
28 0.72896874
29 3.1362271
29 3.1374643
29 3.1372023
29 3.136211
29 3.1333592
29 3.1180415
29 0.023994451
29 0.00536551
29 0.69978243
30 3.135209
30 3.136592
30 3.1362293
30 3.1349454
30 3.1312065
30 3.1088333
30 0.025682285
30 0.00638354
30 0.6767727
31 3.1337538
31 3.135349
31 3.1348429
31 3.1331375
31 3.128102
31 3.0940974
31 0.028908601
31 0.007838765
31 0.655224
32 3.1328297
32 3.1344573
32 3.1337976
32 3.1316867
32 3.125317
32 3.072813
32 0.029270327
32 0.008762971
32 0.6271058
33 3.1323595
33 3.133862
33 3.1330314
33 3.1305022
33 3.1226022
33 3.028316
33 0.027669288
33 0.009233196
33 0.59121895
34 3.131905
34 3.133228
34 3.132183
34 3.1291206
34 3.1190789
34 2.8463879
34 0.026152134
34 0.00968756
34 0.5508132
35 3.132843
35 3.1337872
35 3.132659
35 3.1294358
35 3.1181538
35 0.44673875
35 0.021465667
35 0.008749541
35 0.50759804
36 3.1354952
36 3.1359499
36 3.1350033
36 3.132333
36 3.1220665
36 0.0848598
36 0.013641735
36 0.0060974592
36 0.4591016
37 3.1385112
37 3.1386166
37 3.138033
37 3.1363823
37 3.1290612
37 0.02383102
37 0.0063032107
37 0.0030814756
37 0.4038078
38 3.1415176
38 3.1415038
38 3.1414835
38 3.141424
38 3.1410909
38 4.5982402E-4
38 1.6443213E-4
38 7.5158976E-5
38 0.3412447
39 -3.1396153
39 -3.1395094
39 -3.1389346
39 -3.1371887
39 -3.121795
39 -0.00756658
39 -0.003345718
39 -0.001977215
39 0.27040672
40 -3.1392941
40 -3.139018
40 -3.1381571
40 -3.1352897
40 -3.001236
40 -0.006879859
40 -0.003568239
40 -0.002298448
40 0.1904571
41 -3.141574
41 -3.1415746
41 -3.1415672
41 -3.1415384
41 -1.9922997E-4
41 -3.5850328E-5
41 -2.1099886E-5
41 -1.8570996E-5
41 0.100419424
42 3.1368608
42 3.1354382
42 3.1322007
42 3.115016
42 0.02794777
42 0.009537469
42 0.0062004165
42 0.0047319764
42 0.004436825
43 3.1332674
43 3.1298509
43 3.1219108
43 3.0449367
43 0.03181819
43 0.014416648
43 0.010107181
43 0.008325306
43 -0.08893544
44 3.132582
44 3.127755
44 3.1154659
44 1.239108
44 0.02569168
44 0.0137372995
44 0.010215596
44 0.009010851
44 -0.17758614
45 3.1338692
45 3.1284924
45 3.1120656
45 0.07858277
45 0.017321788
45 0.010439521
45 0.00817674
45 0.007723532
45 -0.26910463
46 3.1378741
46 3.1344297
46 3.1190996
46 0.017836092
46 0.0066749174
46 0.0044346442
46 0.0036498888
46 0.00371877
46 -0.36942974
47 -3.140999
47 -3.1401818
47 -3.130007
47 -0.0018294053
47 -8.9801225E-4
47 -6.4684E-4
47 -5.579896E-4
47 -5.934596E-4
47 -0.47660747
48 -3.13798
48 -3.1308882
48 -0.048874103
48 -0.0075846547
48 -0.0043988354
48 -0.0033853431
48 -0.0030503003
48 -0.003612349
48 -0.58560455
49 -3.1389472
49 -3.1299102
49 -0.011971859
49 -0.0041225343
49 -0.0026857387
49 -0.0021873873
49 -0.0020537295
49 -0.0026450723
49 -0.6959808
