3.04523264E8 4.5838E-41
-0.85000795 -0.69976854
-0.8499139 -0.7000339
-0.8501275 -0.6999369
-0.8492196 -0.7008901
-0.8484057 -0.70153797
-0.8466486 -0.7015769
-0.84590256 -0.70087343
-0.8443805 -0.69631094
-0.8443805 -0.69631094
-0.8419197 -0.6872562
-0.8410695 -0.68330544
-0.8404112 -0.68039316
-0.8364045 -0.67079055
-0.83172065 -0.6592
-0.83172065 -0.6592
-0.82950914 -0.6479101
-0.8289404 -0.645187
-0.82818735 -0.64265823
-0.8227727 -0.6346721
-0.82042867 -0.63091433
-0.81550467 -0.6241524
-0.8114502 -0.61956805
-0.8014779 -0.60877174
-0.79320973 -0.6015438
-0.77333534 -0.5866594
-0.7625586 -0.5795163
-0.7515955 -0.5727242
-0.740733 -0.5663254
-0.71848965 -0.5555299
-0.6946057 -0.5490599
-0.68415374 -0.5470677
-0.6645664 -0.5444304
-0.6577966 -0.54266626
-0.6515818 -0.5348865
-0.6489403 -0.5309727
-0.64166903 -0.5273641
-0.63691205 -0.5280499
-0.6322403 -0.5297181
-0.624095 -0.5368827
-0.62012374 -0.54401296
-0.61446524 -0.561467
-0.61446524 -0.561467
-0.61032474 -0.5803037
-0.60992646 -0.5856862
-0.6104176 -0.60318136
-0.6112354 -0.6153666
-0.61205804 -0.6260618
-0.616101 -0.6521063
-0.6192581 -0.66732395
-0.627805 -0.699104
-0.6334466 -0.71786934
-0.64493257 -0.7549344
-0.6500536 -0.7711089
-0.65404254 -0.78377473
-0.66110766 -0.80648565
-0.6688282 -0.8294822
-0.6728635 -0.8408372
-0.6767801 -0.85182035
-0.68349147 -0.8748886
-0.68601 -0.88821155
-0.6892446 -0.9181779
-0.68987 -0.93361855
-0.68815064 -0.9638957
-0.6855285 -0.978304
-0.67663634 -1.007847
-0.66986763 -1.0247794
-0.65358704 -1.059043
-0.64451903 -1.0757129
-0.6348868 -1.0917645
-0.61304545 -1.1220355
-0.6011411 -1.1353133
-0.5749109 -1.1570722
-0.5587455 -1.1667206
-0.52325845 -1.1821647
-0.50482094 -1.187561
-0.46851212 -1.193132
-0.45158052 -1.1936405
-0.43594784 -1.1923451
-0.4076167 -1.1833851
-0.3950887 -1.1760603
-0.37488165 -1.1578385
-0.36685833 -1.1475313
-0.3548531 -1.1251022
-0.35076606 -1.1131413
-0.34589982 -1.0883211
-0.34466663 -1.0778885
-0.34301582 -1.0657456
-0.34275347 -1.0609858
-0.34277236 -1.0567338
-0.3434562 -1.0500118
-0.34411377 -1.0473838
-0.34612978 -1.0435927
-0.34734556 -1.0423855
-0.35056818 -1.0408126
-0.35269442 -1.040776
-0.35838023 -1.0440817
-0.36214894 -1.0483853
-0.3731536 -1.0613599
-0.38065487 -1.0688953
-0.38953674 -1.0762637
-0.41103005 -1.0885313
-0.423915 -1.0932007
-0.4470787 -1.0950081
-0.45441908 -1.0917816
-0.46033043 -1.0822135
-0.46001774 -1.0774204
-0.4565169 -1.0692189
-0.4538849 -1.0660508
-0.4510104 -1.0634375
-0.44514528 -1.0603731
-0.4421328 -1.0595407
-0.43677574 -1.0593691
-0.43444973 -1.059948
-0.43203038 -1.0606697
-0.43199295 -1.0606432
-0.43201298 -1.060622
-0.43202314 -1.060605
-0.43071494 -1.0614078
-0.42754817 -1.0636724
-0.42336693 -1.0663246
-0.41853386 -1.0694727
-0.41653785 -1.0712264
-0.41396856 -1.0746516
-0.41170168 -1.0774211
-0.39995784 -1.0880576
-0.39380792 -1.0937376
-0.38505045 -1.102605
-0.38172638 -1.1059817
-0.37557584 -1.1131418
-0.37304685 -1.1170621
-0.37090233 -1.1208665
-0.36888888 -1.1286676
-0.36849362 -1.1328752
-0.3679033 -1.1428611
-0.36751038 -1.1485288
-0.3663414 -1.1620364
-0.3651153 -1.169588
-0.36124277 -1.1845105
-0.36124277 -1.1845105
-0.3525055 -1.2043216
-0.34913537 -1.2102494
-0.3458872 -1.2160656
-0.33931795 -1.2271494
-0.33612972 -1.2326198
-0.3302125 -1.2426145
-0.32764965 -1.2470894
-0.32334775 -1.255897
-0.32202747 -1.2586421
-0.3217983 -1.2582486
-0.32175907 -1.2582945
-0.32158014 -1.2589277
-0.32179484 -1.26062
-0.32262117 -1.2609673
-0.32527426 -1.260886
-0.32732537 -1.258538
-0.33087036 -1.2526428
-0.33238834 -1.2521747
-0.3352487 -1.2494829
-0.33610532 -1.2471586
-0.33757484 -1.2381761
-0.33855098 -1.232882
-0.3395153 -1.2285292
-0.34108305 -1.2223098
-0.34211594 -1.219051
-0.34344107 -1.2060344
-0.3433473 -1.197007
-0.3419618 -1.1766738
-0.3405836 -1.1659594
-0.33711362 -1.146839
-0.33512887 -1.1393275
-0.33304033 -1.1329029
-0.32898515 -1.120826
-0.32700127 -1.1145642
-0.32345363 -1.1024595
-0.32067984 -1.096019
-0.32067984 -1.096019
