0 [0.0, 0.0, 0.0, 0.0, 0.0, 0.0, 0.0, 0.0]
1 [0.0, 0.0, 0.0, 0.0, 0.0, 0.0, 0.0, 0.0]
2 [0.0, 0.0, 0.875, 0.875, 0.875, 0.0, 0.875, 0.0]
3 [0.75, 0.75, 0.6, 0.9, 0.9, 0.0, 0.6, 0.0]
4 [0.0, 0.0, 0.0, 0.0, 0.0, 0.0, 0.0, 0.0]
5 [0.875, 0.875, 0.0, 0.08888889, 0.9777778, 0.0, 0.08888889, 0.0]
6 [0.375, 0.875, 0.375, 0.25, 0.95, 0.0, 0.95, 0.0]
7 [0.0, 0.0, 0.0, 0.0, 0.0, 0.0, 0.0, 0.0]
8 [0.375, 0.875, 0.375, 0.06666667, 0.98333335, 0.0, 0.06666667, 0.06666667]
9 [0.5, 0.5, 0.5, 0.0, 0.0, 0.0, 0.0, 0.0]
10 [0.0, 0.0, 0.0, 0.0, 0.0, 0.0, 0.0, 0.0]
11 [0.0, 0.0, 0.0, 0.0, 0.083333336, 0.98333335, 0.0, 0.083333336]
12 [0.875, 0.375, 0.375, 0.0, 0.0, 0.0, 0.0, 0.0]
13 [0.0, 0.0, 0.0, 0.0, 0.9, 0.9, 0.0, 0.9]
14 [0.0, 0.0, 0.0, 0.0, 0.6944444, 0.9722222, 0.0, 0.0]
15 [0.0, 0.0, 0.0, 0.5, 0.0, 0.0, 0.5, 0.5]
16 [0.0, 0.0, 0.0, 0.0, 0.0, 0.0, 0.0, 0.0]
17 [0.0, 0.0, 0.0, 0.0, 0.0, 0.0, 0.0, 0.0]
18 [0.31111112, 0.0, 0.0, 0.5, 0.0, 0.9777778, 0.5, 0.5]
19 [0.0, 0.0, 0.0, 0.0, 0.0, 0.0, 0.0, 0.0]
20 [0.0, 0.95454544, 0.0, 0.5, 0.0, 0.95454544, 0.5, 0.5]
21 [0.0, 0.0, 0.0, 0.0, 0.0, 0.0, 0.0, 0.0]
22 [0.0, 0.0, 0.0, 0.0, 0.0, 0.0, 0.0, 0.0]
23 [0.989011, 0.3846154, 0.0, 0.0, 0.0, 0.3846154, 0.3846154, 0.0]
24 [0.0, 0.0, 0.0, 0.0, 0.0, 0.0, 0.0, 0.0]
25 [0.0, 0.0, 0.0, 0.0, 0.0, 0.0, 0.0, 0.0]
26 [0.0, 0.0, 0.0, 0.0, 0.0, 0.0, 0.0, 0.0]
27 [0.22222222, 0.9777778, 0.0, 0.0, 0.0, 0.22222222, 0.9777778, 0.0]
28 [0.0, 0.0, 0.0, 0.0, 0.0, 0.0, 0.0, 0.0]
29 [0.0, 0.46153846, 0.0, 0.0, 0.0, 0.96153843, 0.46153846, 0.0]
30 [0.0, 0.0, 0.0, 0.0, 0.0, 0.99450547, 0.027472528, 0.0]
31 [0.85714287, 0.0, 0.0, 0.0, 0.0, 0.0, 0.0, 0.0]
32 [0.0, 0.0, 0.0, 0.0, 0.0, 0.0, 0.8333333, 0.8333333]
33 [0.0, 0.0, 0.0, 0.0, 0.0, 0.0, 0.8333333, 0.8333333]
34 [0.0, 0.0, 0.0, 0.0, 0.5, 0.5, 0.0, 0.5]
35 [0.0, 0.0, 0.0, 0.0, 0.0, 0.0, 0.0, 0.0]
36 [0.96153843, 0.0, 0.0, 0.0, 0.5, 0.5, 0.96153843, 0.96153843]
