0 -1
1 -1
2 1172384
3 1172384
4 1237475
5 1221849
6 1174909
7 1173769
8 1237049
9 1172629
10 1174423
11 1171944
12 1273519
13 1184375
14 718125
15 405000
16 769875
17 -1
18 593143
19 590876
20 590895
21 593143
22 1374393
23 1193764
24 1358768
25 1358768
26 1358143
27 1307514
28 1215635
29 1184375
30 1171879
31 1546875
32 1546875
33 1550085
