0 -1
1 -1
2 -1
3 -1
4 -1
5 -1
6 -1
7 -1
8 -1
9 1018631
10 1018631
11 940500
12 940500
13 1109020
14 1018281
15 1499475
16 1499375
17 1187312
18 1340000
19 1184031
20 1184061
21 1184275
22 1187186
23 1492675
24 1185675
25 1231906
26 1231306
27 1247061
28 1186749
29 1247711
30 1485250
31 1200030
32 1247086
33 1185500
34 1247086
35 1247086
36 1185625
37 1186274
38 1247711
39 1484375
40 1234715
41 1411874
42 1241590
43 1173749
44 1243124
45 1247841
46 1343749
47 1503125
48 1247841
49 1484375
50 1484375
51 1417504
52 1186875
53 1249375
54 1247841
55 1247841
56 1186875
57 1247841
58 1186875
59 -1
60 1186750
61 1247841
62 1491875
63 1484375
64 1186875
65 1186875
66 1186875
67 1184495
68 1184475
69 1186875
70 1175029
71 1186875
72 1186350
73 1175004
74 1186875
75 1186875
76 1171879
77 1171879
78 1246999
79 1246999
80 1484499
81 1559407
82 1560681
83 1559381
84 1561560
85 1561560
86 -1
87 1374876
88 1543650
89 1174895
90 1174875
91 1172475
92 1172179
93 1175620
94 1172479
95 1374438
96 1171975
97 1249479
98 1171975
99 1213996
100 1184725
101 1213999
102 1340850
103 1328350
104 1213874
105 1434600
106 1198249
107 1198249
108 1406350
109 1197624
110 1418850
111 1515690
112 1292024
113 1484375
114 1528170
115 1197524
116 1512570
117 1484415
118 1484375
119 1506285
120 1484375
121 1370024
122 1484395
123 1370149
124 1370149
125 1487507
126 1234399
127 1234399
128 1171879
129 1250045
130 1250045
131 1312614
132 1171895
133 1218257
134 1212132
135 781254
136 1093754
137 -1
138 1180609
139 1234875
140 1177484
141 1176863
142 1247175
143 1175998
144 1234375
145 1172747
146 1234975
147 1484375
148 1203675
149 1171976
150 1234675
151 1171975
152 1171981
153 1250600
154 1171981
155 1484495
156 1171998
157 1406370
158 1171895
159 1171897
160 1171897
161 1484435
162 1171897
163 1484435
164 1171896
165 1171897
166 -1
167 1171879
168 1093810
169 781254
170 1093750
171 781254
172 1156260
173 1125044
174 1078125
175 781250
176 1109382
177 1125012
178 1136637
179 1093750
180 1156718
181 1128163
182 859252
183 1007750
184 1007750
185 843754
186 1093750
187 843754
188 843754
189 1125002
190 1128163
191 1128163
192 1125002
193 1518788
194 1515627
195 -1
196 1518788
197 1546879
198 1546879
199 1518788
200 1546879
201 1518788
202 1546879
203 1484375
204 1531252
205 1500007
206 1531253
207 1500007
208 1484375
209 1518787
210 1546879
211 1303169
212 1393944
213 1390629
214 1537539
215 1468754
216 1174375
217 1546879
218 1515668
219 1546879
220 1515663
221 1546879
222 1546879
223 1515663
224 -1
225 1515663
226 1515663
227 1234875
228 1172395
229 1171975
230 1546879
231 1515663
232 1515663
233 1531252
234 1484375
235 1531253
236 437514
237 454227
238 532352
239 462500
240 465625
241 766701
242 465625
243 465625
244 768124
245 465625
246 390859
247 465625
248 484504
249 -1
250 703125
251 465625
252 1484375
253 1250004
254 1247375
255 1171879
256 1234875
257 1234875
258 1172375
259 1234975
260 1171879
261 1172375
262 1234675
263 1234375
264 1172375
265 1234375
266 1171879
267 1172375
268 1172379
269 1406850
270 1484675
271 1172375
272 1484675
273 1172375
274 1172376
275 703125
276 703625
277 703149
278 -1
279 703149
280 391125
281 390725
282 703129
283 390725
284 703125
285 703125
286 234499
287 1093750
288 1096000
289 1093750
290 1096060
291 1093750
292 896762
293 940500
294 896757
295 940500
296 1174375
297 -1
298 1487379
299 1383103
300 1383103
301 1522752
302 1484375
303 1562378
304 1385603
305 1532875
306 1484375
307 1469300
308 1291370
309 1497100
310 1213870
311 1496970
312 1211399
313 1195774
314 1176623
315 1484377
316 765645
317 704807
318 703125
319 703125
320 1547060
321 1184399
322 1559406
323 790002
324 784250
325 983750
326 -1
327 1071751
328 1096850
329 1090600
330 1479350
331 1471750
332 1484375
333 1484875
334 1401850
335 1484625
336 1557475
337 1557475
338 1557475
339 1557475
340 1484825
341 1500150
342 1484375
343 1245600
344 1484525
345 1422450
346 1323120
347 1500300
348 1500600
349 1401245
350 1500000
351 1172475
352 1484375
353 1172475
354 1484875
355 -1
356 1172475
357 1172475
358 1326374
359 1171995
360 1484375
361 1484375
362 1234394
363 1187489
364 1496879
365 1484378
366 1485625
367 1515775
368 1486250
369 1234875
370 1172375
371 1184375
372 1186975
373 1230640
374 1406270
375 1184395
376 1326399
377 1184395
378 1404524
379 1174375
380 1184399
381 1404519
382 1171879
383 1561379
384 -1
385 1171975
386 1175004
387 1560754
388 1171879
389 1184379
390 1560754
391 1184379
392 1246895
393 1246895
394 1181125
395 1209395
396 1484450
397 1234395
398 1180626
399 1171879
400 1262504
401 1230610
402 1171949
403 1242125
404 1225860
405 1187375
406 1247745
407 1484375
408 1404105
409 1484895
410 1404105
411 -1
412 1498635
413 1404105
414 1494680
415 1484375
416 1491885
417 1495640
418 1484386
419 1404110
420 1495250
421 1491875
422 1560360
423 1495006
424 1186879
425 1482235
426 1498627
427 1247990
428 1247865
429 1325990
430 1325990
431 1482240
432 1560365
433 1560365
434 1498627
435 1497509
436 1560365
437 1496878
438 766590
439 766590
440 -1
441 1547765
442 1240727
443 1547815
444 1240627
445 1237504
446 1547810
447 1485635
448 1547185
449 1515780
450 1485055
451 1515780
452 1240695
453 1531281
454 1537500
455 1248406
456 1174375
457 1249180
458 1234335
459 1249395
460 1215580
461 1367145
462 1309330
463 1389499
464 1387455
465 1541268
466 1218137
467 1387455
468 1465580
469 -1
470 1309543
471 1465580
472 1561999
473 1187325
474 1465580
475 1558627
476 1465580
477 1559353
478 1504525
479 1221250
480 1174375
481 1539202
482 1543680
483 1549875
484 1234367
485 1241252
486 1240627
487 1240627
488 1476262
489 1246879
490 1202524
491 1280780
492 1215627
493 1455104
494 1387455
495 1562399
496 1240627
497 1249499
498 -1
499 1246879
500 1368705
501 1246879
502 1234375
503 1246879
504 1554887
505 1186999
506 1209379
507 1504650
508 1452810
509 1240626
510 1218282
511 1554887
512 1209379
513 1234875
514 1231242
515 1246879
516 1171895
517 1240627
518 1484351
519 1409370
520 1240627
521 1236995
522 1215627
523 1234479
524 1293907
525 1547375
526 1246879
527 -1
528 1368705
529 1488656
530 1246879
531 1550001
532 1184375
533 1209379
534 1484375
535 1209379
536 1535381
537 1246879
538 1238659
539 1485531
540 1209379
541 1484375
542 1230617
543 1246879
544 1313651
545 1246879
546 1477453
547 1406750
548 1191830
549 1246879
550 1484887
551 1216149
552 1554887
553 1246879
554 1171999
555 1234375
556 1237375
557 1202664
558 1174375
559 1202664
560 1202664
561 1190620
562 1199514
563 1484393
564 1174379
565 1199764
566 1484379
567 1178014
568 1313000
569 1180569
570 1332964
571 465625
572 704059
573 703288
574 465000
575 765626
576 780625
577 780645
578 1546905
579 1499875
580 1484375
581 -1
582 1186875
583 1327534
584 1546880
585 1186975
586 1184395
587 1186975
588 1541262
589 403145
590 737506
591 1171895
592 1184395
593 1484753
594 1171879
595 1538127
596 1171879
597 1500001
598 1171975
599 1343754
600 1475754
601 1553879
602 1500001
603 1553754
604 1484375
605 1484376
606 1246895
607 1093750
608 1128163
609 1128163
610 -1
611 934375
612 784250
613 795010
614 1172475
615 1185627
616 1171895
617 1537500
618 1516189
619 1484375
620 1484375
621 1486254
622 1253102
623 1174129
624 1193727
625 1174875
626 1174875
627 1171879
628 1174875
629 1171879
630 1171879
631 1174875
632 1174875
633 1174875
634 1212496
635 1249996
636 1559379
637 1534413
638 1534413
639 1518788
640 1518788
641 1518788
642 -1
643 1484375
644 1518788
645 1518788
646 1128163
647 781750
648 1128163
649 1128163
650 1128163
651 784350
652 1109382
653 874375
654 784350
655 1128157
656 1106254
657 783750
658 934377
659 1006444
660 1028129
661 1159569
662 1159569
663 378163
664 378163
665 312504
666 378163
667 312504
668 1143787
669 1125002
670 1143787
671 -1
672 1125002
673 1531287
674 1531287
675 1515657
676 1515657
677 1515657
678 1553125
679 1515657
680 1390502
681 1515631
682 1174375
683 1265649
684 1172375
685 1172475
686 496879
687 531700
688 436944
689 403128
690 1192264
691 1176514
692 1176514
693 796750
694 1058129
695 1152253
696 1173627
697 1535275
698 1484999
699 1172179
700 -1
701 1484375
702 1556936
703 1172102
704 1466312
705 1466312
706 1175124
707 1484375
708 1545013
709 1545018
710 1184395
711 1171879
712 1466893
713 1184395
714 1171879
715 1181269
716 1216893
717 1171879
718 1295018
719 1184399
720 1171879
721 1373133
722 1234379
723 1404383
724 1240689
725 623132
726 453129
727 453128
728 623132
729 -1
730 709250
731 703125
732 673379
733 623131
734 437524
735 623131
736 548145
737 778757
738 766875
739 760006
740 1546879
741 1484377
742 1484375
743 1548754
744 1329379
745 1172504
746 1247507
747 1281254
748 1250629
749 1469379
750 1499379
751 1481282
752 1484379
753 1481282
754 1265629
755 1546879
756 1325037
757 -1
758 1325037
759 1398127
760 1403162
761 1171879
762 1559407
763 1420629
764 1241250
765 1481287
766 1491875
767 1559407
768 1488125
769 1484375
770 1491875
771 1186875
772 1559412
773 1406254
774 1403125
775 1484375
776 1421250
777 1174375
778 1421250
779 1184375
780 1499375
781 1184375
782 1499375
783 1184375
784 -1
785 453125
786 771075
787 453125
788 465645
789 1243750
790 1234375
791 1246875
792 1234375
793 1551675
794 1321878
795 1515625
796 1325004
797 1484375
798 922379
799 1093750
800 943731
801 787481
802 787481
803 787481
804 865605
805 843750
806 865605
807 865605
808 868735
809 868735
810 1093750
811 1093750
812 868735
813 -1
814 1487379
815 1181235
816 1487379
817 1173379
818 1181240
819 1174875
820 1181241
821 1181241
822 1174975
823 1199991
824 1174975
825 1199991
826 1174975
827 1199841
828 1174975
829 1218468
830 1174975
831 1218437
832 1172495
833 1174875
834 1173475
835 1173475
836 1193634
837 1174979
838 1231248
839 1173475
840 1487479
841 1173475
842 -1
843 1174979
844 1173475
845 1561899
846 1209879
847 1173475
848 1173475
849 1246875
850 1481325
851 1560075
852 1404550
853 1403950
854 1248486
855 1503125
856 1328146
857 1325362
858 1418771
859 1171895
860 1478330
861 1481455
862 1487643
863 1403330
864 1403330
865 1496875
866 1247861
867 1263762
868 1247860
869 1420036
870 1420656
871 1325210
872 1420562
873 1547710
874 1547710
875 1556263
876 1556263
877 1546967
878 1184379
879 -1
880 1184379
881 765625
882 403129
883 769254
884 390629
885 1209379
886 1171975
887 1547815
888 1184379
889 1531265
890 1186875
891 1495625
892 1249379
893 1499875
894 1296740
895 1171975
896 1250004
897 1174375
898 1171879
899 1172375
900 1362524
901 1171879
902 1234475
903 1244413
904 1234495
905 1171995
906 1232538
907 1514388
908 -1
909 1174499
910 1512008
911 1484375
912 1484375
913 1496383
914 1496875
915 1496383
916 1496383
917 1493750
918 1183889
919 1199514
920 1202639
921 1202639
922 1184375
923 1202639
924 1202789
925 1184375
926 1234375
927 1184375
928 1184375
929 1246875
930 1202664
931 1184375
932 1202664
933 1202664
934 1184375
935 1202639
936 1202664
937 -1
938 1186875
939 1202664
940 1202664
941 1202664
942 1202664
943 1172375
944 1202664
945 1561893
946 1202764
947 1184014
948 1536253
949 1515625
950 1484375
951 1484375
952 1234375
953 474339
954 453125
955 456125
956 708109
957 465625
958 765725
959 465625
960 766131
961 465625
962 390629
963 750031
964 781147
965 465625
966 -1
967 403625
968 465625
969 703125
970 465625
971 390725
972 465625
973 449375
974 465625
975 391145
976 734375
977 465625
978 455625
979 465625
980 465625
981 750030
982 465625
983 453125
984 609411
985 465625
986 390645
987 765656
988 465625
989 393125
990 765656
991 465625
992 453645
993 465625
994 765628
995 -1
996 703631
997 703281
998 703281
999 703643
