0 [0.0, 0.0, 0.0, 0.0, 0.0, 0.0, 0.0, 0.0]
1 [0.0, 0.0, 0.0, 0.0, 0.0, 0.0, 0.0, 0.0]
2 [0.0, 0.0, 0.0, 0.0, 0.0, 0.0, 0.0, 0.0]
3 [0.0, 0.0, 0.0, 0.0, 0.0, 0.0, 0.0, 0.0]
4 [0.0, 0.0, 0.0, 0.0, 0.0, 0.0, 0.0, 0.0]
5 [0.0, 0.0, 0.0, 0.0, 0.0, 0.0, 0.0, 0.0]
6 [0.0, 0.0, 0.0, 0.0, 0.0, 0.0, 0.0, 0.0]
7 [0.0, 0.0, 0.0, 0.0, 0.0, 0.0, 0.0, 0.0]
8 [0.0, 0.0, 0.0, 0.0, 0.0, 0.0, 0.0, 0.0]
9 [0.0, 0.0, 0.0, 0.0, 0.0, 0.0, 0.0, 0.0]
10 [0.0, 0.0, 0.0, 0.0, 0.0, 0.0, 0.0, 0.0]
11 [0.0, 0.0, 0.0, 0.0, 0.0, 0.0, 0.0, 0.0]
12 [0.0, 0.0, 0.0, 0.0, 0.0, 0.0, 0.0, 0.0]
13 [0.0, 0.0, 0.0, 0.0, 0.0, 0.0, 0.0, 0.0]
14 [0.0, 0.0, 0.0, 0.0, 0.0, 0.0, 0.0, 0.0]
15 [0.0, 0.0, 0.0, 0.0, 0.0, 0.0, 0.0, 0.0]
16 [0.0, 0.0, 0.0, 0.0, 0.0, 0.0, 0.0, 0.0]
17 [0.0, 0.0, 0.0, 0.0, 0.0, 0.0, 0.0, 0.0]
18 [0.0, 0.0, 0.0, 0.0, 0.0, 0.0, 0.0, 0.0]
19 [0.0, 0.0, 0.0, 0.0, 0.0, 0.0, 0.0, 0.0]
20 [0.0, 0.0, 0.0, 0.0, 0.0, 0.0, 0.0, 0.0]
21 [0.0, 0.0, 0.0, 0.0, 0.0, 0.0, 0.0, 0.0]
22 [0.0, 0.0, 0.0, 0.0, 0.0, 0.0, 0.0, 0.0]
23 [0.0, 0.0, 0.0, 0.0, 0.0, 0.0, 0.0, 0.0]
24 [0.0, 0.0, 0.0, 0.0, 0.0, 0.0, 0.0, 0.0]
25 [0.0, 0.0, 0.0, 0.0, 0.0, 0.0, 0.0, 0.0]
26 [0.0, 0.0, 0.0, 0.0, 0.0, 0.0, 0.0, 0.0]
27 [0.0, 0.97714543, 0.9636866, 0.0, 0.0, 0.0, 0.0, 0.0]
28 [0.0, 0.948643, 0.93758565, 0.0, 0.0, 0.0, 0.0, 0.0]
29 [0.0, 0.92390066, 0.91421765, 0.0, 0.0, 0.0, 0.0, 0.0]
30 [0.0, 0.90312505, 0.8936855, 0.0, 0.0, 0.0, 0.0, 0.0]
31 [0.0, 0.88060385, 0.8793552, 0.0, 0.0, 0.0, 0.0, 0.0]
32 [0.0, 0.0, 0.8748698, 0.0, 0.0, 0.0, 0.0, 0.0]
33 [0.0, 0.0, 0.8678531, 0.0, 0.0, 0.0, 0.0, 0.0]
34 [0.0, 0.0, 0.8575108, 0.9344231, 0.0, 0.0, 0.0, 0.0]
35 [0.0, 0.0, 0.84563214, 0.87962943, 0.0, 0.0, 0.0, 0.0]
36 [0.0, 0.0, 0.8337368, 0.8455606, 0.0, 0.0, 0.0, 0.0]
37 [0.0, 0.0, 0.81102914, 0.80729777, 0.0, 0.0, 0.0, 0.0]
38 [0.0, 0.0, 0.77935857, 0.7787407, 0.0, 0.0, 0.0, 0.0]
39 [0.0, 0.0, 0.75529444, 0.7648158, 0.0, 0.0, 0.0, 0.0]
40 [0.0, 0.0, 0.92090076, 0.7447562, 0.0, 0.0, 0.0, 0.0]
41 [0.0, 0.0, 0.0, 0.7229909, 0.0, 0.0, 0.0, 0.0]
42 [0.0, 0.0, 0.0, 0.6989495, 0.72484404, 0.0, 0.0, 0.0]
43 [0.0, 0.0, 0.0, 0.67156804, 0.6653149, 0.0, 0.0, 0.0]
44 [0.0, 0.0, 0.0, 0.8397665, 0.661937, 0.0, 0.0, 0.0]
45 [0.0, 0.0, 0.0, 0.0, 0.64728653, 0.70276266, 0.0, 0.0]
46 [0.0, 0.0, 0.0, 0.0, 0.6299645, 0.6478142, 0.0, 0.0]
47 [0.0, 0.0, 0.0, 0.0, 0.6056314, 0.6059057, 0.0, 0.0]
48 [0.0, 0.0, 0.0, 0.0, 0.7769622, 0.6042976, 0.0, 0.0]
49 [0.0, 0.0, 0.0, 0.0, 0.0, 0.59196496, 0.6304906, 0.0]
