0 [0.0, 0.0, 0.0, 0.0, 0.0, 0.0, 0.0, 0.0]
1 [0.0, 0.0, 0.0, 0.0, 0.0, 0.0, 0.0, 0.0]
2 [0.0, 0.47975892, 0.67085487, 0.0, 0.0, 0.0, 0.0, 0.67070997]
3 [0.0, 0.47531497, 0.47572255, 0.0, 0.0, 0.0, 0.0, 0.67648566]
4 [0.0, 0.48445892, 0.48211646, 0.0, 0.0, 0.0, 0.0, 0.68238366]
5 [0.0, 0.4914273, 0.484274, 0.0, 0.0, 0.0, 0.0, 0.6840272]
6 [0.0, 0.49927652, 0.48275727, 0.0, 0.0, 0.0, 0.0, 0.68451476]
7 [0.0, 0.49589264, 0.47130355, 0.0, 0.0, 0.0, 0.0, 0.6834998]
8 [0.0, 0.4787453, 0.44917566, 0.0, 0.0, 0.0, 0.0, 0.68156147]
9 [0.0, 0.44451183, 0.41769308, 0.0, 0.0, 0.0, 0.0, 0.8749364]
10 [0.0, 0.424129, 0.4002204, 0.0, 0.0, 0.0, 0.0, 0.87480503]
11 [0.0, 0.41441056, 0.39095792, 0.0, 0.0, 0.0, 0.0, 0.87567985]
12 [0.0, 0.41467845, 0.3867755, 0.0, 0.0, 0.0, 0.0, 0.8739713]
13 [0.0, 0.42414454, 0.3858033, 0.0, 0.0, 0.0, 0.0, 0.0]
14 [0.0, 0.42770645, 0.3809393, 0.0, 0.0, 0.0, 0.0, 0.0]
15 [0.0, 0.4270799, 0.37623852, 0.0, 0.0, 0.0, 0.0, 0.0]
16 [0.0, 0.44635063, 0.3599337, 0.55261236, 0.0, 0.0, 0.0, 0.0]
17 [0.0, 0.0, 0.3669634, 0.3621036, 0.0, 0.0, 0.0, 0.0]
18 [0.0, 0.0, 0.3669634, 0.3621036, 0.0, 0.0, 0.0, 0.0]
19 [0.0, 0.0, 0.38929212, 0.3698849, 0.0, 0.0, 0.0, 0.0]
20 [0.0, 0.0, 0.40031108, 0.37008366, 0.0, 0.0, 0.0, 0.0]
21 [0.0, 0.0, 0.41400766, 0.36889243, 0.0, 0.0, 0.0, 0.0]
22 [0.0, 0.0, 0.42934263, 0.36668408, 0.54915804, 0.0, 0.0, 0.0]
23 [0.0, 0.0, 0.44317967, 0.3640449, 0.5527752, 0.0, 0.0, 0.0]
24 [0.5929881, 0.0, 0.0, 0.36061555, 0.55541253, 0.0, 0.0, 0.0]
25 [0.5955006, 0.0, 0.0, 0.36460334, 0.36072946, 0.0, 0.0, 0.0]
26 [0.59653884, 0.0, 0.0, 0.3753852, 0.36354357, 0.0, 0.0, 0.0]
27 [0.59568316, 0.0, 0.0, 0.38804486, 0.36494735, 0.0, 0.0, 0.0]
28 [0.41891515, 0.0, 0.0, 0.40031165, 0.36365744, 0.0, 0.0, 0.0]
29 [0.41969958, 0.0, 0.0, 0.41223392, 0.35874093, 0.0, 0.0, 0.0]
30 [0.41969958, 0.0, 0.0, 0.41223392, 0.35874093, 0.0, 0.0, 0.0]
31 [0.41878536, 0.0, 0.0, 0.4323952, 0.3444339, 0.5387424, 0.0, 0.0]
32 [0.41491926, 0.0, 0.0, 0.0, 0.34571475, 0.33718327, 0.0, 0.0]
33 [0.4089251, 0.0, 0.0, 0.0, 0.35458776, 0.3302707, 0.0, 0.0]
34 [0.40252215, 0.0, 0.0, 0.0, 0.3648798, 0.32312706, 0.0, 0.0]
35 [0.39023364, 0.0, 0.0, 0.0, 0.38756642, 0.3123385, 0.5077375, 0.0]
36 [0.41025898, 0.0, 0.0, 0.0, 0.0, 0.315519, 0.31056258, 0.0]
37 [0.54430974, 0.5423869, 0.0, 0.0, 0.0, 0.32282582, 0.3109688, 0.0]
38 [0.5384434, 0.5440369, 0.0, 0.0, 0.0, 0.33070582, 0.3100968, 0.0]
39 [0.53264594, 0.5441508, 0.0, 0.0, 0.0, 0.33814433, 0.3081866, 0.0]
40 [0.52653795, 0.5424857, 0.0, 0.0, 0.0, 0.34536618, 0.3047337, 0.0]
41 [0.0, 0.53841317, 0.0, 0.0, 0.0, 0.3530689, 0.29878885, 0.0]
42 [0.0, 0.36346182, 0.0, 0.0, 0.0, 0.36317775, 0.29421186, 0.0]
43 [0.0, 0.3607521, 0.0, 0.0, 0.0, 0.0, 0.29800567, 0.0]
44 [0.0, 0.3560304, 0.0, 0.0, 0.0, 0.0, 0.30296588, 0.0]
45 [0.0, 0.35074782, 0.0, 0.0, 0.0, 0.0, 0.31023368, 0.48396096]
46 [0.0, 0.34445542, 0.49290833, 0.0, 0.0, 0.0, 0.31876075, 0.29245353]
47 [0.0, 0.33688727, 0.48629785, 0.0, 0.0, 0.0, 0.32715788, 0.29606068]
48 [0.0, 0.32833338, 0.47771093, 0.0, 0.0, 0.0, 0.0, 0.29788056]
49 [0.0, 0.31937796, 0.467767, 0.0, 0.0, 0.0, 0.0, 0.29945326]
