0 -1
1 -1
2 -1
3 234460
4 234460
5 234435
6 234435
7 234435
8 234435
9 234435
10 234435
11 234435
12 312560
13 312560
14 312560
15 312535
16 312535
17 35
18 35
19 35
20 35
21 35
22 285
23 285
24 150
25 150
26 150
27 150
28 175
29 -1
30 175
31 1425
32 1425
33 1377
34 1377
35 752
36 752
37 752
38 752
39 877
40 877
41 877
42 7127
43 7127
44 3752
45 3752
46 3752
47 35001
48 35001
49 18752
50 18762
51 18762
52 18762
53 18762
54 18762
55 18760
56 18760
57 18755
58 15630
59 15630
60 15630
61 171880
62 93805
63 93805
64 93805
65 78180
66 78180
67 78180
68 78155
69 78155
70 78155
71 78155
72 78155
73 78155
74 78180
75 78130
76 78130
77 78130
78 78130
79 78130
80 78130
81 78130
82 78132
83 78132
84 78132
85 -1
86 78132
87 78131
88 140626
89 140626
90 140626
91 153126
92 90625
93 90625
94 93125
95 93125
96 124395
97 124395
98 96270
99 96770
100 96770
101 96770
102 6149
103 6149
104 6024
105 6024
106 6024
107 3604
108 3604
109 3604
110 3579
111 -1
112 3579
113 3579
114 454
115 704
116 704
117 16344
