0 [0.0, 0.0, 0.0, 0.0, 0.0, 0.0, 0.0, 0.0]
1 [0.0, 0.0, 0.0, 0.0, 0.0, 0.0, 0.0, 0.0]
2 [0.75, 0.75, 0.5, 0.5, 0.0, 0.5, 0.75, 0.75]
3 [0.0, 0.875, 0.375, 0.0, 0.0, 0.0, 0.0, 0.375]
4 [0.0, 0.0, 0.0, 0.0, 0.0, 0.0, 0.0, 0.0]
5 [0.0, 0.0, 0.0, 0.0, 0.0, 0.0, 0.0, 0.0]
6 [0.0, 0.375, 0.375, 0.0, 0.0, 0.0, 0.0, 0.875]
7 [0.96153843, 0.96153843, 0.0, 0.0, 0.0, 0.0, 0.96153843, 0.115384616]
8 [0.9166667, 0.9166667, 0.0, 0.0, 0.0, 0.0, 0.9166667, 0.41666666]
9 [0.0, 0.375, 0.375, 0.0, 0.0, 0.0, 0.0, 0.875]
10 [0.0, 0.9722222, 0.0, 0.0, 0.0, 0.0, 0.16666667, 0.16666667]
11 [0.0, 0.5, 0.5, 0.0, 0.0, 0.0, 0.0, 0.5]
12 [0.0, 0.5, 0.5, 0.0, 0.0, 0.0, 0.0, 0.5]
13 [0.6666667, 0.6666667, 0.6666667, 0.6666667, 0.33333334, 0.33333334, 0.6666667, 0.6666667]
14 [0.0, 0.375, 0.375, 0.0, 0.0, 0.0, 0.0, 0.875]
15 [0.75, 0.75, 0.75, 0.75, 0.75, 0.0, 0.75, 0.5]
16 [0.9, 0.9, 0.9, 0.9, 0.0, 0.0, 0.2, 0.2]
17 [0.0, 0.0, 0.0, 0.0, 0.0, 0.0, 0.0, 0.0]
18 [0.0, 0.0, 0.0, 0.0, 0.0, 0.0, 0.0, 0.0]
19 [0.0, 0.875, 0.375, 0.0, 0.0, 0.0, 0.0, 0.375]
20 [0.0, 0.0, 0.0, 0.0, 0.0, 0.0, 0.0, 0.0]
21 [0.1, 0.95, 0.95, 0.0, 0.0, 0.0, 0.1, 0.875]
22 [0.0, 0.0, 0.0, 0.0, 0.0, 0.0, 0.0, 0.0]
23 [0.9230769, 0.9230769, 0.9230769, 0.0, 0.0, 0.0, 0.15384616, 0.75]
24 [0.85714287, 0.75, 0.0, 0.2857143, 0.2857143, 0.2857143, 0.85714287, 0.85714287]
25 [0.0, 0.0, 0.0, 0.0, 0.0, 0.0, 0.0, 0.0]
26 [0.90909094, 0.90909094, 0.0, 0.54545456, 0.90909094, 0.90909094, 0.90909094, 0.54545456]
27 [0.0, 0.75, 0.0, 0.0, 0.0, 0.0, 0.0, 0.75]
28 [0.0, 0.75, 0.0, 0.0, 0.0, 0.0, 0.0, 0.75]
29 [0.0, 0.9722222, 0.0, 0.0, 0.0, 0.9722222, 0.9722222, 0.0]
30 [0.0, 0.75, 0.0, 0.0, 0.0, 0.0, 0.0, 0.75]
31 [0.0, 0.9722222, 0.0, 0.0, 0.0, 0.0, 0.9722222, 0.9722222]
32 [0.0, 0.0, 0.0, 0.0, 0.0, 0.0, 0.0, 0.0]
33 [0.0, 0.0, 0.0, 0.0, 0.0, 0.0, 0.0, 0.0]
34 [0.0, 0.98333335, 0.0, 0.0, 0.0, 0.0, 0.35, 0.98333335]
35 [0.0, 0.0, 0.0, 0.0, 0.0, 0.0, 0.0, 0.0]
36 [0.98333335, 0.98333335, 0.0, 0.0, 0.0, 0.0, 0.98333335, 0.375]
37 [0.5, 0.5, 0.0, 0.0, 0.0, 0.0, 0.9722222, 0.9722222]
38 [0.0, 0.0, 0.0, 0.0, 0.0, 0.0, 0.0, 0.0]
39 [0.375, 0.375, 0.0, 0.0, 0.0, 0.0, 0.90909094, 0.90909094]
40 [0.0, 0.0, 0.0, 0.0, 0.0, 0.0, 0.0, 0.0]
41 [0.0, 0.0, 0.0, 0.0, 0.0, 0.0, 0.0, 0.0]
42 [0.9375, 0.5, 0.0, 0.0, 0.0, 0.0, 0.9375, 0.5]
43 [0.0, 0.0, 0.0, 0.0, 0.0, 0.0, 0.0, 0.0]
44 [0.0, 0.0, 0.0, 0.0, 0.0, 0.0, 0.0, 0.0]
45 [0.0, 0.0, 0.0, 0.0, 0.0, 0.0, 0.0, 0.0]
46 [0.9166667, 0.9166667, 0.0, 0.0, 0.0, 0.0, 0.33333334, 0.33333334]
47 [0.5, 0.5, 0.0, 0.0, 0.0, 0.0, 0.0, 0.5]
48 [0.083333336, 0.9722222, 0.0, 0.0, 0.0, 0.0, 0.083333336, 0.083333336]
49 [0.0, 0.0, 0.0, 0.0, 0.0, 0.0, 0.0, 0.0]
