-0.85000795 -0.69976854
-0.8499139 -0.7000339
-0.8501275 -0.6999369
-0.8501275 -0.6999369
-0.84980404 -0.7002586
-0.8476741 -0.69993424
-0.84477824 -0.69589794
-0.8378679 -0.684199
-0.8332287 -0.67503166
-0.8286761 -0.66408813
-0.8230077 -0.6488769
-0.82231987 -0.64450216
-0.82231987 -0.64450216
-0.821128 -0.6350454
-0.821128 -0.6350454
-0.821128 -0.6350454
-0.816442 -0.61795133
-0.8145875 -0.61087215
-0.8137267 -0.6067256
-0.8131973 -0.60385627
-0.81272584 -0.6017338
-0.81225204 -0.60020053
-0.8109234 -0.59740216
-0.8081404 -0.59187114
-0.7973847 -0.5717391
-0.78882575 -0.5568415
-0.76967084 -0.5238287
-0.76967084 -0.5238287
-0.76967084 -0.5238287
-0.7600068 -0.5070632
-0.7514196 -0.49181685
-0.7514196 -0.49181685
-0.7436943 -0.47812977
-0.7436943 -0.47812977
-0.7321174 -0.45816714
-0.7279175 -0.45140424
-0.7227901 -0.44297177
-0.716678 -0.43327078
-0.716678 -0.43327078
-0.716678 -0.43327078
-0.716678 -0.43327078
-0.7049665 -0.41381502
-0.69875365 -0.40346447
-0.69875365 -0.40346447
-0.69875365 -0.40346447
-0.6822906 -0.36684486
-0.67742336 -0.3531486
-0.6731642 -0.34088674
-0.6693531 -0.328896
-0.6660646 -0.31564707
-0.6635426 -0.30430073
-0.66166914 -0.29401183
-0.65993464 -0.28168955
-0.65895206 -0.26717323
-0.6587615 -0.25110966
-0.6587615 -0.25110966
-0.6592103 -0.22576928
-0.66015774 -0.20750597
-0.6618617 -0.19624293
-0.664909 -0.18384969
-0.664909 -0.18384969
-0.672949 -0.15819918
-0.672949 -0.15819918
-0.6751181 -0.15243006
-0.6769186 -0.14794682
-0.67899626 -0.14351903
-0.6823236 -0.1371959
-0.69558465 -0.118295625
-0.7126111 -0.09851254
-0.7185387 -0.09211473
-0.7215978 -0.08753283
-0.7215978 -0.08753283
