0 [0.0, 0.0, 0.0, 0.0, 0.0, 0.0, 0.0, 0.0]
1 [0.0, 0.0, 0.0, 0.0, 0.0, 0.0, 0.0, 0.0]
2 [0.0, 0.875, 0.0, 0.5, 0.5, 0.5, 0.0, 0.0]
3 [0.0, 0.875, 0.0, 0.8, 0.8, 0.0, 0.0, 0.0]
4 [0.0, 0.0, 0.0, 0.0, 0.0, 0.0, 0.0, 0.0]
5 [0.0, 0.0, 0.0, 0.0, 0.0, 0.0, 0.0, 0.0]
6 [0.0, 0.9285714, 0.0, 0.0, 0.9285714, 0.0, 0.0, 0.0]
7 [0.8333333, 0.875, 0.0, 0.8333333, 0.8333333, 0.8333333, 0.0, 0.0]
8 [0.0, 0.0, 0.0, 0.0, 0.0, 0.0, 0.0, 0.0]
9 [0.8333333, 0.8333333, 0.8333333, 0.8333333, 0.0, 0.6666667, 0.6666667, 0.6666667]
10 [0.0, 0.875, 0.0, 0.0, 0.0, 0.0, 0.0, 0.0]
11 [0.0, 0.0, 0.0, 0.75, 0.75, 0.75, 0.0, 0.0]
12 [0.0, 0.875, 0.0, 0.0, 0.0, 0.0, 0.0, 0.0]
13 [0.0, 0.875, 0.0, 0.0, 0.0, 0.0, 0.0, 0.0]
14 [0.0, 0.94736844, 0.0, 0.0, 0.94736844, 0.0, 0.0, 0.0]
15 [0.0, 0.875, 0.0, 0.0, 0.0, 0.0, 0.0, 0.0]
16 [0.0, 0.045454547, 0.0, 0.0, 0.95454544, 0.045454547, 0.045454547, 0.045454547]
17 [0.0, 0.0, 0.0, 0.9230769, 0.9230769, 0.0, 0.0, 0.9230769]
18 [0.0, 0.0, 0.0, 0.0, 0.0, 0.0, 0.0, 0.0]
19 [0.0, 0.0, 0.8333333, 0.8333333, 0.8333333, 0.0, 0.0, 0.0]
20 [0.0, 0.0, 0.0, 0.0, 0.0, 0.0, 0.0, 0.0]
21 [0.5, 0.5, 0.5, 0.5, 0.5, 0.5, 0.0, 0.5]
22 [0.083333336, 0.083333336, 0.9166667, 0.9166667, 0.0, 0.0, 0.0, 0.9166667]
23 [0.0, 0.0, 0.0, 0.0, 0.0, 0.0, 0.0, 0.0]
24 [0.055555556, 0.055555556, 0.055555556, 0.9444444, 0.0, 0.0, 0.055555556, 0.055555556]
25 [0.0, 0.0, 0.0, 0.0, 0.0, 0.0, 0.0, 0.0]
26 [0.06666667, 0.06666667, 0.93333334, 0.93333334, 0.0, 0.0, 0.06666667, 0.06666667]
27 [0.875, 0.045454547, 0.95454544, 0.95454544, 0.0, 0.0, 0.045454547, 0.045454547]
28 [0.0, 0.0, 0.0, 0.0, 0.0, 0.0, 0.0, 0.0]
29 [0.0, 0.0, 0.0, 0.0, 0.0, 0.0, 0.0, 0.0]
30 [0.875, 0.0, 0.96, 0.0, 0.0, 0.0, 0.96, 0.0]
31 [0.875, 0.9411765, 0.9411765, 0.0, 0.0, 0.0, 0.0, 0.0]
32 [0.0, 0.0, 0.0, 0.0, 0.0, 0.0, 0.0, 0.0]
33 [0.875, 0.9285714, 0.0, 0.0, 0.0, 0.071428575, 0.071428575, 0.9285714]
34 [0.0, 0.0, 0.0, 0.0, 0.0, 0.0, 0.0, 0.0]
35 [0.0, 0.0, 0.0, 0.0, 0.0, 0.0, 0.0, 0.0]
36 [0.0, 0.0, 0.0, 0.0, 0.0, 0.0, 0.0, 0.0]
37 [0.9166667, 0.9166667, 0.0, 0.0, 0.9166667, 0.0, 0.0, 0.0]
38 [0.0, 0.0, 0.0, 0.0, 0.0, 0.0, 0.0, 0.0]
39 [0.9285714, 0.9285714, 0.0, 0.0, 0.9285714, 0.071428575, 0.071428575, 0.071428575]
40 [0.0, 0.0, 0.0, 0.0, 0.0, 0.0, 0.0, 0.0]
41 [0.9285714, 0.0, 0.0, 0.071428575, 0.071428575, 0.071428575, 0.9285714, 0.071428575]
42 [0.9444444, 0.0, 0.0, 0.055555556, 0.055555556, 0.055555556, 0.055555556, 0.9444444]
43 [0.0, 0.0, 0.0, 0.0, 0.0, 0.0, 0.0, 0.0]
44 [0.0, 0.0, 0.022222223, 0.022222223, 0.022222223, 0.022222223, 0.022222223, 0.9777778]
45 [0.0, 0.0, 0.0, 0.0, 0.0, 0.0, 0.0, 0.0]
46 [0.0, 0.0, 0.0, 0.0, 0.0, 0.0, 0.0, 0.0]
47 [0.0, 0.0, 0.055555556, 0.9444444, 0.875, 0.055555556, 0.9444444, 0.9444444]
48 [0.0, 0.0, 0.0, 0.0, 0.0, 0.0, 0.0, 0.0]
49 [0.0, 0.0, 0.045454547, 0.045454547, 0.875, 0.045454547, 0.95454544, 0.0]
