0 [0.0, 0.0, 0.0, 0.0, 0.0, 0.0, 0.0, 0.0]
1 [0.0, 0.0, 0.0, 0.0, 0.0, 0.0, 0.0, 0.0]
2 [0.0, 0.0, 0.0, 0.0, 0.0, 0.0, 0.0, 0.0]
3 [0.0067087887, 0.058291197, 0.00570879, 0.00570879, 0.00570879, 0.0047087907, 0.0047087907, 0.0682912]
4 [0.009274742, 0.93272525, 0.00627472, 0.5062747, 0.5052747, 0.5042747, 0.0032747232, 0.0022747242]
5 [0.013208801, 0.9307912, 0.039791208, 0.8072088, 0.8052088, 0.0032087867, 0.0012087886, 0.0027912077]
6 [0.013208801, 0.055791203, 0.039791208, 0.0072087827, 0.0052087847, 0.0032087867, 0.0012087886, 0.0027912077]
7 [0.013208801, 0.055791203, 0.039791208, 0.0072087827, 0.0052087847, 0.0032087867, 0.0012087886, 0.0027912077]
8 [0.02285714, 0.98171425, 0.053142857, 0.008857154, 0.9344285, 0.0021428594, 0.0061428556, 0.01214285]
9 [0.8610311, 0.9263022, 0.0523022, 0.8440311, 0.8390311, 0.83663553, 0.009302194, 0.015302188]
10 [0.027697794, 0.051302202, 0.0523022, 0.010697811, 0.005697792, 0.0033021995, 0.009302194, 0.015302188]
11 [0.8610531, 0.8836135, 0.8846135, 0.8440531, 0.00571977, 0.6709469, 0.6759469, 0.6829469]
12 [0.027719773, 0.9252802, 0.051280223, 0.010719789, 0.00571977, 0.0042812205, 0.010155193, 0.027622145]
13 [0.026579052, 0.077841856, 0.05557333, 0.7600381, 0.75591207, 0.7532355, 0.0076482543, 0.020733232]
14 [0.027161986, 1.5457643, 0.056792166, 0.009914317, 0.005912078, 0.0030883742, 0.0075143455, 0.018906191]
15 [0.022642564, 1.4137727, 0.056585822, 0.008149791, 0.005148343, 0.0021485882, 0.005072395, 0.013163746]
16 [0.009388827, 1.4028633, 0.007281821, 0.005912869, 0.9522805, 0.00391242, 0.0040464876, 0.0036513272]
17 [0.009272481, 1.2118839, 0.007191586, 0.005912678, 0.0049120863, 0.003912339, 0.0040136646, 0.0034707952]
18 [0.0012400679, 0.13074368, 0.0059738588, 0.0077972882, 0.9643421, 0.057254024, 0.06041401, 0.13357359]
19 [0.06633111, 0.07416696, 0.006208714, 0.010077457, 0.014076911, 0.018072713, 0.021809816, 0.021273276]
20 [0.06094996, 0.028250312, 0.775111, 0.84417313, 0.84933335, 0.020995988, 0.025837319, 0.028332477]
21 [0.060137495, 0.022337923, 0.0054670414, 0.01099757, 0.016000012, 0.020996949, 0.02635514, 0.037351396]
22 [0.5285598, 0.27748898, 0.47138724, 0.5112093, 0.51629674, 0.5232392, 0.02895224, 0.3788645]
23 [0.14682524, 0.08592298, 0.8739282, 0.92896396, 0.019417591, 0.027415304, 0.037129033, 0.7343032]
24 [0.068759315, 0.04009359, 0.00520392, 0.012416361, 0.019417591, 0.027415862, 0.037444685, 0.0484333]
25 [0.1288443, 0.053649135, 0.058510672, 0.95812637, 0.02375275, 0.03475109, 0.102311894, 0.093415596]
26 [0.075508766, 0.011044326, 0.0046457835, 0.01375197, 0.02375275, 0.034751493, 0.048047528, 0.047555916]
27 [0.14861704, 0.074481964, 0.9238691, 0.94877136, 0.028478023, 0.043476854, 0.12179974, 0.10497347]
28 [0.079523005, 0.023190074, 0.009399072, 0.020482898, 0.038483508, 0.061482303, 0.067940935, 0.122875705]
29 [0.07976638, 0.023759978, 0.009427838, 0.02048305, 0.038483508, 0.061482597, 0.068073854, 0.12474748]
30 [0.9130039, 0.02415249, 0.9656744, 0.03352139, 0.05852198, 0.08352104, 0.9890301, 0.12611918]
31 [0.91505444, 0.92721003, 0.95413196, 0.042054385, 0.07205494, 0.09205416, 0.041911382, 0.12276836]
32 [0.044764478, 0.023234166, 0.017982397, 0.042054523, 0.07205494, 0.09205435, 0.04194644, 0.12354416]
33 [0.92074174, 0.95131314, 0.023258233, 0.052258253, 0.08725824, 0.1686868, 0.17817034, 1.0483131]
34 [0.047445055, 0.023445053, 0.028554957, 0.06155495, 0.10155494, 0.053554956, 0.10944506, 0.115445055]
35 [0.04812637, 0.022126371, 0.033873636, 0.070873626, 0.10387362, 0.059873633, 0.11012637, 0.11212637]
36 [0.96500736, 0.93700737, 0.040659346, 0.081659354, 1.022326, 0.061659347, 0.10834066, 0.10334066]
37 [0.048340656, 0.020340657, 0.040659346, 0.081659354, 0.10565933, 0.061659347, 0.10834066, 0.10334066]
38 [0.97641754, 0.94741756, 0.049153842, 0.09615385, 1.0357252, 0.16527472, 0.17627472, 0.12127473]
39 [0.04784615, 0.018846152, 0.049153842, 0.09615385, 0.10715383, 0.09384615, 0.10484615, 0.049846157]
40 [0.97543406, 0.018137367, 0.060137376, 0.17956594, 0.14156595, 0.16729121, 1.0294341, 0.12029122]
41 [0.9896422, 0.026802195, 0.0748022, 0.16235775, 0.12735775, 0.15275337, 0.15175337, 0.99164224]
42 [0.045197807, 0.026802195, 0.0748022, 0.10680219, 0.0718022, 0.09719781, 0.09619781, 0.047197804]
43 [0.042914737, 0.08273782, 0.1345907, 0.0940244, 0.110442, 0.113442, 0.042442005, 1.0199976]
44 [0.04233752, 0.07743305, 0.10879166, 0.07179437, 0.08821978, 0.091219775, 0.020219782, 0.042219784]
45 [0.04159586, 0.07061705, 0.10688587, 0.07179101, 0.08821978, 0.091219775, 0.020219782, 0.042219784]
46 [0.035832096, 0.08395493, 0.15821694, 1.0142957, 0.96426374, 0.1398193, 0.9627082, 0.98270816]
47 [0.029797658, 0.100678675, 0.13930619, 0.12626757, 0.9618022, 0.06465236, 0.97034764, 0.033802196]
48 [0.02753614, 0.15847401, 1.040318, 0.83321875, 1.0361648, 0.06683516, 0.9631648, 0.029164838]
49 [0.027364952, 0.094918795, 0.0650954, 0.08316891, 0.08616483, 0.016835155, 0.013164841, 0.029164838]
