0 -1
1 -1
2 -1
3 312520
4 7770
5 3020
6 96
7 96
8 15524
9 78247
10 291249
11 20
12 15500
13 20
14 20
15 1895
16 20
17 2500
18 93774
19 3100
20 249989
21 234975
22 269389
23 500
24 288129
25 600
26 350628
27 350628
28 62604
29 124
30 338876
31 -1
32 384001
33 2524
34 2524
35 2524
36 156151
37 62504
38 312504
39 154951
40 312500
41 92866
42 92861
43 378000
44 65000
45 65475
46 3095
47 312500
48 312500
49 313732
50 313733
51 15500
52 265740
53 265740
54 315229
55 343871
56 343870
57 362593
58 265724
59 312575
60 312600
61 140749
62 109474
63 62600
64 495
65 120
66 312500
67 81246
68 234622
69 315609
70 1247
71 15600
72 1243
73 15600
74 15546
75 1243
76 -1
77 1248
78 78030
79 3123
80 78000
81 312500
82 312500
83 81246
84 81246
85 62495
86 159371
87 46850
88 93746
89 78100
90 93741
91 2379
92 81249
93 15621
94 128124
95 15621
96 15621
97 15621
98 15621
99 1752
100 15621
101 93746
102 12624
103 3004
104 93746
105 -1
106 93747
107 93747
108 314034
109 375754
110 15374
111 15622
112 378004
113 15622
114 93747
115 315500
116 12497
117 12497
118 3004
119 100
120 12497
121 2620
122 1504
123 234350
124 3004
125 3004
126 5874
127 1504
128 12498
129 12498
130 1504
131 12498
132 2752
133 12498
134 12498
135 3004
136 377546
137 2377
138 2378
139 390023
140 2378
141 3003
142 6248
143 1624
144 5874
145 5999
146 6124
147 6124
148 77879
149 313312
150 78004
151 78054
152 4373
153 15604
154 361
155 366
156 366
157 2600
158 529
159 70
160 62575
161 95
162 312520
163 12620
164 312520
165 12624
166 387531
167 312520
168 96899
169 312520
170 12520
171 -1
172 104
173 504
174 120
175 3020
176 352
177 352
178 2600
179 352
180 7600
181 3004
182 11741
183 3004
184 3004
185 377506
186 75500
187 1504
188 75504
189 279
190 279
191 12575
192 527
193 15020
194 3004
195 31360
196 100
197 12520
198 24
199 315004
200 -1
201 312500
202 4
203 156504
204 500
205 62500
206 500
207 75100
208 63100
209 187600
210 31725
211 866
212 475
213 102
214 120
215 313025
216 3045
217 156775
218 156775
219 12575
220 313000
221 75500
222 377500
223 3000
224 2500
225 312520
226 43752
227 100
228 2500
229 -1
230 12500
231 156320
232 312504
233 500
234 312504
235 4
236 560
237 104
238 2350
239 520
240 2350
241 524
242 524
243 1600
244 620
245 19600
246 15525
247 78065
248 6220
249 9345
250 3100
251 3100
252 2800
253 745
254 1600
255 312504
256 320
257 312500
258 -1
259 156320
260 75000
261 156272
262 12500
263 15000
264 4
265 2504
266 2504
267 475
268 315004
269 115
270 500
271 312620
272 63000
273 500
274 106274
275 500
276 75000
277 12500
278 15500
279 375000
280 390263
281 375000
282 15000
283 12500
284 375000
285 12500
286 375000
287 315000
288 68750
289 315000
290 62500
291 65625
292 312500
293 325000
294 62500
295 325000
296 228218
297 228213
298 12500
299 228188
300 12500
301 75000
302 62500
303 75000
304 312500
305 312500
306 343752
307 343752
308 4
309 375004
310 124
311 174
312 120
313 3124
314 15000
315 -1
316 312624
317 624
318 312504
319 162604
320 312504
321 312504
322 390500
323 218752
324 312500
325 346914
326 312504
327 365719
328 156272
329 4
330 156272
331 34
332 100
333 3050
334 100
335 100
336 386875
337 4
338 246099
339 39
340 4
341 39
342 39
343 306250
344 120
345 390000
