0 -1
1 -1
2 -1
3 -1
4 -1
5 158501
6 158501
7 158506
8 158506
9 158506
10 158506
11 158506
12 158506
13 158631
14 158631
15 158631
16 159256
17 159256
18 159256
19 159256
20 171259
21 171259
22 171259
23 15009
24 15009
25 15009
26 15009
27 15009
28 -1
29 15109
30 15034
31 15034
32 75034
33 75530
34 75530
35 75530
36 63000
37 63000
38 63000
39 65375
40 65375
41 65375
42 65375
43 65375
44 65375
45 314375
