0 [10.0, 10.0, 10.0, 10.0, 10.0, 10.0, 10.0, 10.0, 10.0, 10.0, 10.0, 10.0, 10.0, 10.0, 10.0, 10.0, 10.0, 10.0, 10.0, 10.0, 10.0, 10.0, 10.0, 10.0, 10.0, 10.0, 10.0, 10.0, 10.0, 10.0, 10.0, 10.0, 10.0, 10.0, 10.0, 10.0, 10.0, 10.0, 10.0, 10.0, 10.0, 10.0, 10.0, 10.0, 10.0, 10.0, 10.0, 10.0, 10.0, 10.0, 10.0, 10.0, 10.0, 10.0, 10.0, 10.0, 10.0, 10.0, 10.0, 10.0, 10.0, 10.0, 10.0, 10.0, 10.0, 10.0, 10.0, 10.0, 10.0, 10.0, 10.0, 10.0, 10.0, 10.0, 10.0, 10.0, 10.0, 10.0, 10.0, 10.0, 10.0, 10.0, 10.0, 10.0, 10.0, 10.0, 10.0, 10.0, 10.0, 10.0, 10.0, 10.0, 10.0, 10.0, 10.0, 10.0, 10.0, 10.0, 10.0, 10.0, 10.0, 10.0, 10.0, 10.0, 10.0, 10.0, 10.0, 10.0, 10.0, 10.0, 10.0, 10.0, 10.0, 10.0, 10.0, 10.0, 10.0, 10.0, 10.0, 10.0, 10.0, 10.0, 10.0, 10.0, 10.0, 10.0, 10.0, 10.0, 10.0, 10.0, 10.0, 10.0, 10.0, 10.0, 10.0, 10.0, 10.0, 10.0, 10.0, 10.0, 10.0, 10.0, 10.0, 10.0, 10.0, 10.0, 10.0, 10.0, 10.0, 10.0, 10.0, 10.0, 10.0, 10.0, 10.0, 10.0, 10.0, 10.0, 10.0, 10.0, 10.0, 10.0, 10.0, 10.0, 10.0, 10.0, 10.0, 10.0, 10.0, 10.0, 10.0, 10.0, 10.0, 10.0, 10.0, 10.0, 10.0, 10.0, 10.0, 10.0, 10.0, 10.0]
1 [10.0, 10.0, 10.0, 10.0, 10.0, 10.0, 10.0, 10.0, 10.0, 10.0, 10.0, 10.0, 10.0, 10.0, 10.0, 10.0, 10.0, 10.0, 10.0, 10.0, 10.0, 10.0, 10.0, 10.0, 10.0, 10.0, 10.0, 10.0, 10.0, 10.0, 10.0, 10.0, 10.0, 10.0, 10.0, 10.0, 10.0, 10.0, 10.0, 10.0, 10.0, 10.0, 10.0, 10.0, 10.0, 10.0, 10.0, 10.0, 10.0, 10.0, 10.0, 10.0, 10.0, 10.0, 10.0, 10.0, 10.0, 10.0, 10.0, 10.0, 10.0, 10.0, 10.0, 10.0, 10.0, 10.0, 10.0, 10.0, 10.0, 10.0, 10.0, 10.0, 10.0, 10.0, 10.0, 10.0, 10.0, 10.0, 10.0, 10.0, 10.0, 10.0, 10.0, 10.0, 10.0, 10.0, 10.0, 10.0, 10.0, 10.0, 10.0, 10.0, 10.0, 10.0, 10.0, 10.0, 10.0, 10.0, 10.0, 10.0, 10.0, 10.0, 10.0, 10.0, 10.0, 10.0, 10.0, 10.0, 10.0, 10.0, 10.0, 10.0, 10.0, 10.0, 10.0, 10.0, 10.0, 10.0, 10.0, 10.0, 10.0, 10.0, 10.0, 10.0, 10.0, 10.0, 10.0, 10.0, 10.0, 10.0, 10.0, 10.0, 10.0, 10.0, 10.0, 10.0, 10.0, 10.0, 10.0, 10.0, 10.0, 10.0, 10.0, 10.0, 10.0, 10.0, 10.0, 10.0, 10.0, 10.0, 10.0, 10.0, 10.0, 10.0, 10.0, 10.0, 10.0, 10.0, 10.0, 10.0, 10.0, 10.0, 10.0, 10.0, 10.0, 10.0, 10.0, 10.0, 10.0, 10.0, 10.0, 10.0, 10.0, 10.0, 10.0, 10.0, 10.0, 10.0, 10.0, 10.0, 10.0, 10.0]
2 [10.0, 10.0, 10.0, 10.0, 10.0, 10.0, 10.0, 10.0, 10.0, 10.0, 10.0, 10.0, 10.0, 10.0, 10.0, 10.0, 10.0, 10.0, 10.0, 10.0, 10.0, 10.0, 10.0, 10.0, 10.0, 10.0, 10.0, 10.0, 10.0, 10.0, 10.0, 10.0, 10.0, 10.0, 10.0, 10.0, 10.0, 10.0, 10.0, 10.0, 10.0, 10.0, 10.0, 10.0, 10.0, 10.0, 10.0, 10.0, 10.0, 10.0, 10.0, 10.0, 10.0, 10.0, 10.0, 10.0, 10.0, 10.0, 10.0, 10.0, 10.0, 10.0, 10.0, 10.0, 10.0, 10.0, 10.0, 10.0, 10.0, 10.0, 10.0, 10.0, 10.0, 10.0, 10.0, 10.0, 10.0, 10.0, 10.0, 10.0, 10.0, 10.0, 10.0, 10.0, 10.0, 10.0, 10.0, 10.0, 10.0, 10.0, 10.0, 10.0, 10.0, 10.0, 10.0, 10.0, 10.0, 10.0, 10.0, 10.0, 10.0, 10.0, 10.0, 10.0, 10.0, 10.0, 10.0, 10.0, 10.0, 10.0, 10.0, 10.0, 10.0, 10.0, 10.0, 10.0, 10.0, 10.0, 10.0, 10.0, 10.0, 10.0, 10.0, 10.0, 10.0, 10.0, 10.0, 10.0, 10.0, 10.0, 10.0, 10.0, 10.0, 10.0, 10.0, 10.0, 10.0, 10.0, 10.0, 10.0, 10.0, 10.0, 10.0, 10.0, 10.0, 10.0, 10.0, 10.0, 10.0, 10.0, 10.0, 10.0, 10.0, 10.0, 10.0, 10.0, 10.0, 10.0, 10.0, 10.0, 10.0, 10.0, 10.0, 10.0, 10.0, 10.0, 10.0, 10.0, 10.0, 10.0, 10.0, 10.0, 10.0, 10.0, 10.0, 10.0, 10.0, 10.0, 10.0, 10.0, 10.0, 10.0]
3 [10.0, 10.0, 10.0, 10.0, 10.0, 10.0, 10.0, 10.0, 10.0, 10.0, 10.0, 10.0, 10.0, 10.0, 10.0, 10.0, 10.0, 10.0, 10.0, 10.0, 10.0, 10.0, 10.0, 10.0, 10.0, 10.0, 10.0, 10.0, 10.0, 10.0, 10.0, 10.0, 10.0, 10.0, 10.0, 10.0, 10.0, 10.0, 10.0, 10.0, 10.0, 10.0, 10.0, 10.0, 10.0, 10.0, 10.0, 10.0, 10.0, 10.0, 10.0, 10.0, 10.0, 10.0, 10.0, 10.0, 10.0, 10.0, 10.0, 10.0, 10.0, 10.0, 10.0, 10.0, 10.0, 10.0, 10.0, 10.0, 10.0, 10.0, 10.0, 10.0, 10.0, 10.0, 10.0, 10.0, 10.0, 10.0, 10.0, 10.0, 10.0, 10.0, 10.0, 10.0, 10.0, 10.0, 10.0, 10.0, 10.0, 10.0, 10.0, 10.0, 10.0, 10.0, 10.0, 10.0, 10.0, 10.0, 10.0, 10.0, 10.0, 10.0, 10.0, 10.0, 10.0, 10.0, 10.0, 10.0, 10.0, 10.0, 10.0, 10.0, 10.0, 10.0, 10.0, 10.0, 10.0, 10.0, 10.0, 10.0, 10.0, 10.0, 10.0, 10.0, 10.0, 10.0, 10.0, 10.0, 10.0, 10.0, 10.0, 10.0, 10.0, 10.0, 10.0, 10.0, 10.0, 10.0, 10.0, 10.0, 10.0, 10.0, 10.0, 10.0, 10.0, 10.0, 10.0, 10.0, 10.0, 10.0, 10.0, 10.0, 10.0, 10.0, 10.0, 10.0, 10.0, 10.0, 10.0, 10.0, 10.0, 10.0, 10.0, 10.0, 10.0, 10.0, 10.0, 10.0, 10.0, 10.0, 10.0, 10.0, 10.0, 10.0, 10.0, 10.0, 10.0, 10.0, 10.0, 10.0, 10.0, 10.0]
4 [10.0, 10.0, 10.0, 10.0, 10.0, 10.0, 10.0, 10.0, 10.0, 10.0, 10.0, 10.0, 10.0, 10.0, 10.0, 10.0, 10.0, 10.0, 10.0, 10.0, 10.0, 10.0, 10.0, 10.0, 10.0, 10.0, 10.0, 10.0, 10.0, 10.0, 10.0, 10.0, 10.0, 10.0, 10.0, 10.0, 10.0, 10.0, 10.0, 10.0, 10.0, 10.0, 10.0, 10.0, 10.0, 10.0, 10.0, 10.0, 10.0, 10.0, 10.0, 10.0, 10.0, 10.0, 10.0, 10.0, 10.0, 10.0, 10.0, 10.0, 10.0, 10.0, 10.0, 10.0, 10.0, 10.0, 10.0, 10.0, 10.0, 10.0, 10.0, 10.0, 10.0, 10.0, 10.0, 10.0, 10.0, 10.0, 10.0, 10.0, 10.0, 10.0, 10.0, 10.0, 10.0, 10.0, 10.0, 10.0, 10.0, 10.0, 10.0, 10.0, 10.0, 10.0, 10.0, 10.0, 10.0, 10.0, 10.0, 10.0, 10.0, 10.0, 10.0, 10.0, 10.0, 10.0, 10.0, 10.0, 10.0, 10.0, 10.0, 10.0, 10.0, 10.0, 10.0, 10.0, 10.0, 10.0, 10.0, 10.0, 10.0, 10.0, 10.0, 10.0, 10.0, 10.0, 10.0, 10.0, 10.0, 10.0, 10.0, 10.0, 10.0, 10.0, 10.0, 10.0, 10.0, 10.0, 10.0, 10.0, 10.0, 10.0, 10.0, 10.0, 10.0, 10.0, 10.0, 10.0, 10.0, 10.0, 10.0, 10.0, 10.0, 10.0, 10.0, 10.0, 10.0, 10.0, 10.0, 10.0, 10.0, 10.0, 10.0, 10.0, 10.0, 10.0, 10.0, 10.0, 10.0, 10.0, 10.0, 10.0, 10.0, 10.0, 10.0, 10.0, 10.0, 10.0, 10.0, 10.0, 10.0, 10.0]
5 [10.0, 10.0, 10.0, 10.0, 10.0, 10.0, 10.0, 10.0, 10.0, 10.0, 10.0, 10.0, 10.0, 10.0, 10.0, 10.0, 10.0, 10.0, 10.0, 10.0, 10.0, 10.0, 10.0, 10.0, 10.0, 10.0, 10.0, 10.0, 10.0, 10.0, 10.0, 10.0, 10.0, 10.0, 10.0, 10.0, 10.0, 10.0, 10.0, 10.0, 10.0, 10.0, 10.0, 10.0, 10.0, 10.0, 10.0, 10.0, 10.0, 10.0, 10.0, 10.0, 10.0, 10.0, 10.0, 10.0, 10.0, 10.0, 10.0, 10.0, 10.0, 10.0, 10.0, 10.0, 10.0, 10.0, 10.0, 10.0, 10.0, 10.0, 10.0, 10.0, 10.0, 10.0, 10.0, 10.0, 10.0, 10.0, 10.0, 10.0, 10.0, 10.0, 10.0, 10.0, 10.0, 10.0, 10.0, 10.0, 10.0, 10.0, 10.0, 10.0, 10.0, 10.0, 10.0, 10.0, 10.0, 10.0, 10.0, 10.0, 10.0, 10.0, 10.0, 10.0, 10.0, 10.0, 10.0, 10.0, 10.0, 10.0, 10.0, 10.0, 10.0, 10.0, 10.0, 10.0, 10.0, 10.0, 10.0, 10.0, 10.0, 10.0, 10.0, 10.0, 10.0, 10.0, 10.0, 10.0, 10.0, 10.0, 10.0, 10.0, 10.0, 10.0, 10.0, 10.0, 10.0, 10.0, 10.0, 10.0, 10.0, 10.0, 10.0, 10.0, 10.0, 10.0, 10.0, 10.0, 10.0, 10.0, 10.0, 10.0, 10.0, 10.0, 10.0, 10.0, 10.0, 10.0, 10.0, 10.0, 10.0, 10.0, 10.0, 10.0, 10.0, 10.0, 10.0, 10.0, 10.0, 10.0, 10.0, 10.0, 10.0, 10.0, 10.0, 10.0, 10.0, 10.0, 10.0, 10.0, 10.0, 10.0]
6 [1.04, 1.05, 1.07, 1.09, 1.11, 1.13, 1.15, 1.17, 1.19, 1.21, 1.23, 1.25, 1.27, 1.29, 1.31, 1.34, 1.36, 1.38, 1.41, 1.43, 1.46, 1.48, 1.51, 1.54, 1.57, 1.59, 1.62, 1.65, 1.68, 1.72, 1.75, 1.78, 1.82, 1.85, 1.89, 1.93, 1.96, 2.0, 2.05, 2.09, 2.13, 2.18, 2.22, 2.27, 2.32, 2.38, 2.43, 2.49, 2.55, 2.61, 2.67, 2.74, 2.81, 2.88, 2.96, 3.04, 3.12, 3.21, 3.3, 3.39, 3.39, 3.39, 3.39, 3.38, 3.38, 3.38, 3.38, 3.38, 3.38, 3.38, 3.38, 3.38, 3.38, 3.37, 3.37, 3.37, 3.37, 3.37, 3.37, 2.69, 2.69, 2.69, 2.69, 2.69, 2.69, 2.69, 2.69, 2.69, 3.36, 3.36, 3.36, 3.36, 3.36, 3.35, 3.35, 3.35, 3.35, 3.35, 3.35, 3.35, 3.35, 3.35, 3.35, 3.34, 3.34, 3.34, 3.34, 3.34, 3.34, 3.34, 3.34, 3.34, 3.34, 3.33, 3.33, 3.33, 3.33, 3.33, 3.33, 3.33, 3.33, 3.33, 3.33, 2.37, 2.29, 2.24, 2.24, 2.24, 2.23, 2.23, 2.23, 2.23, 2.23, 2.23, 3.31, 3.31, 3.31, 3.31, 3.31, 3.31, 3.31, 3.3, 3.3, 3.3, 3.3, 3.3, 3.3, 3.3, 3.3, 3.29, 3.29, 3.29, 3.29, 3.29, 3.29, 3.29, 3.29, 3.28, 3.28, 3.28, 3.28, 3.28, 3.28, 3.28, 3.27, 3.27, 3.27, 2.58, 2.53, 2.48, 2.44, 2.42, 2.42, 2.42, 2.41, 2.41, 3.26, 3.22, 3.16, 3.1, 3.05, 2.99]
7 [1.01, 1.03, 1.05, 1.07, 1.08, 1.1, 1.12, 1.14, 1.16, 1.18, 1.2, 1.22, 1.24, 1.26, 1.28, 1.3, 1.32, 1.34, 1.37, 1.39, 1.41, 1.44, 1.46, 1.49, 1.52, 1.54, 1.57, 1.6, 1.63, 1.66, 1.69, 1.72, 1.75, 1.78, 1.82, 1.85, 1.89, 1.92, 1.96, 2.0, 2.04, 2.08, 2.13, 2.17, 2.22, 2.27, 2.31, 2.37, 2.42, 2.47, 2.53, 2.59, 2.65, 2.72, 2.79, 2.86, 2.93, 3.01, 3.09, 3.18, 3.27, 3.36, 3.41, 3.41, 3.41, 3.4, 3.4, 3.4, 3.4, 3.4, 3.39, 3.39, 3.39, 3.39, 3.39, 3.39, 3.38, 3.38, 3.38, 3.38, 3.38, 3.38, 2.7, 2.7, 2.7, 2.7, 2.69, 2.69, 2.69, 2.69, 2.69, 3.36, 3.36, 3.36, 3.35, 3.35, 3.35, 3.35, 3.35, 3.35, 3.34, 3.34, 3.34, 3.34, 3.34, 3.34, 3.34, 3.33, 3.33, 3.33, 3.33, 3.33, 3.33, 3.32, 3.32, 3.32, 3.32, 3.32, 3.32, 3.31, 3.31, 3.31, 3.31, 3.31, 3.3, 2.41, 2.32, 2.24, 2.22, 2.22, 2.22, 2.22, 2.22, 2.21, 2.21, 2.21, 2.21, 3.28, 3.28, 3.28, 3.28, 3.27, 3.27, 3.27, 3.27, 3.27, 3.26, 3.26, 3.26, 3.26, 3.26, 3.25, 3.25, 3.25, 3.25, 3.25, 3.24, 3.24, 3.24, 3.24, 3.24, 3.23, 3.23, 3.23, 3.23, 3.22, 3.22, 3.22, 3.22, 2.56, 2.51, 2.46, 2.42, 2.37, 2.37, 2.37, 2.37, 2.37, 2.36, 3.19, 3.13, 3.07]
8 [0.99, 1.0, 1.02, 1.04, 1.05, 1.07, 1.09, 1.11, 1.12, 1.14, 1.16, 1.18, 1.2, 1.22, 1.24, 1.26, 1.28, 1.3, 1.32, 1.34, 1.37, 1.39, 1.41, 1.44, 1.46, 1.48, 1.51, 1.54, 1.56, 1.59, 1.62, 1.65, 1.68, 1.71, 1.74, 1.77, 1.8, 1.83, 1.87, 1.9, 1.94, 1.98, 2.02, 2.06, 2.1, 2.14, 2.18, 2.23, 2.28, 2.33, 2.38, 2.43, 2.48, 2.54, 2.6, 2.66, 2.73, 2.79, 2.86, 2.94, 3.01, 3.09, 3.18, 3.26, 3.36, 3.43, 3.43, 3.43, 3.43, 3.42, 3.42, 3.42, 3.41, 3.41, 3.41, 3.41, 3.4, 3.4, 3.4, 3.4, 3.39, 3.39, 3.39, 3.39, 3.38, 2.7, 2.7, 2.7, 2.7, 2.7, 2.69, 2.69, 2.69, 2.69, 3.36, 3.36, 3.35, 3.35, 3.35, 3.35, 3.34, 3.34, 3.34, 3.34, 3.33, 3.33, 3.33, 3.33, 3.32, 3.32, 3.32, 3.32, 3.31, 3.31, 3.31, 3.31, 3.3, 3.3, 3.3, 3.3, 3.29, 3.29, 3.29, 3.29, 3.28, 3.28, 3.28, 3.28, 3.27, 2.33, 2.24, 2.2, 2.2, 2.2, 2.19, 2.19, 2.19, 2.19, 2.19, 2.19, 3.24, 3.24, 3.24, 3.23, 3.23, 3.23, 3.23, 3.22, 3.22, 3.22, 3.21, 3.21, 3.21, 3.2, 3.2, 3.2, 3.2, 3.19, 3.19, 3.19, 3.18, 3.18, 3.18, 3.17, 3.17, 3.17, 3.16, 3.16, 3.16, 3.15, 3.15, 3.14, 2.51, 2.47, 2.42, 2.37, 2.33, 2.31, 2.31, 2.31, 2.3, 2.3]
9 [0.96, 0.97, 0.99, 1.01, 1.02, 1.04, 1.05, 1.07, 1.09, 1.1, 1.12, 1.14, 1.16, 1.17, 1.19, 1.21, 1.23, 1.25, 1.27, 1.29, 1.31, 1.33, 1.35, 1.37, 1.4, 1.42, 1.44, 1.47, 1.49, 1.52, 1.54, 1.57, 1.59, 1.62, 1.65, 1.68, 1.71, 1.74, 1.77, 1.8, 1.83, 1.86, 1.9, 1.93, 1.97, 2.01, 2.05, 2.09, 2.13, 2.17, 2.21, 2.26, 2.31, 2.35, 2.4, 2.46, 2.51, 2.57, 2.63, 2.69, 2.75, 2.82, 2.89, 2.96, 3.04, 3.12, 3.2, 3.29, 3.38, 3.46, 3.46, 3.45, 3.45, 3.44, 3.44, 3.44, 3.43, 3.43, 3.43, 3.42, 3.42, 3.41, 3.41, 3.41, 3.4, 3.4, 3.4, 3.39, 3.39, 2.71, 2.71, 2.7, 2.7, 2.7, 2.69, 2.69, 2.69, 2.69, 3.35, 3.35, 3.35, 3.34, 3.34, 3.34, 3.33, 3.33, 3.33, 3.32, 3.32, 3.32, 3.31, 3.31, 3.31, 3.3, 3.3, 3.3, 3.29, 3.29, 3.29, 3.28, 3.28, 3.27, 3.27, 3.27, 3.26, 3.26, 3.26, 3.25, 3.25, 3.25, 3.24, 3.24, 3.23, 2.3, 2.22, 2.17, 2.17, 2.17, 2.16, 2.16, 2.16, 2.16, 2.15, 2.15, 3.19, 3.19, 3.18, 3.18, 3.17, 3.17, 3.17, 3.16, 3.16, 3.15, 3.15, 3.15, 3.14, 3.14, 3.13, 3.13, 3.12, 3.12, 3.11, 3.11, 3.11, 3.1, 3.1, 3.09, 3.09, 3.08, 3.08, 3.07, 3.07, 3.06, 3.06, 3.05, 2.44, 2.39, 2.34, 2.3, 2.25, 2.24]
10 [0.94, 0.95, 0.96, 0.98, 0.99, 1.01, 1.02, 1.04, 1.05, 1.07, 1.09, 1.1, 1.12, 1.14, 1.15, 1.17, 1.19, 1.21, 1.23, 1.24, 1.26, 1.28, 1.3, 1.32, 1.34, 1.36, 1.39, 1.41, 1.43, 1.45, 1.48, 1.5, 1.52, 1.55, 1.57, 1.6, 1.63, 1.65, 1.68, 1.71, 1.74, 1.77, 1.8, 1.83, 1.86, 1.9, 1.93, 1.97, 2.0, 2.04, 2.08, 2.12, 2.16, 2.2, 2.25, 2.29, 2.34, 2.39, 2.44, 2.49, 2.54, 2.6, 2.66, 2.72, 2.79, 2.85, 2.92, 3.0, 3.07, 3.15, 3.24, 3.33, 3.42, 3.48, 3.47, 3.47, 3.46, 3.46, 3.45, 3.45, 3.45, 3.44, 3.44, 3.43, 3.43, 3.42, 3.42, 3.41, 3.41, 3.4, 3.4, 3.39, 3.39, 2.71, 2.7, 2.7, 2.7, 2.69, 2.69, 2.69, 2.68, 2.68, 3.35, 3.34, 3.34, 3.33, 3.33, 3.32, 3.32, 3.31, 3.31, 3.31, 3.3, 3.3, 3.29, 3.29, 3.28, 3.28, 3.27, 3.27, 3.27, 3.26, 3.26, 3.25, 3.25, 3.24, 3.24, 3.23, 3.23, 3.22, 3.22, 3.22, 3.21, 3.21, 3.2, 3.2, 3.19, 2.26, 2.18, 2.14, 2.14, 2.13, 2.13, 2.13, 2.12, 2.12, 2.12, 2.11, 3.13, 3.13, 3.12, 3.12, 3.11, 3.11, 3.1, 3.1, 3.09, 3.09, 3.08, 3.08, 3.07, 3.07, 3.06, 3.06, 3.05, 3.04, 3.04, 3.03, 3.03, 3.02, 3.01, 3.01, 3.0, 3.0, 2.99, 2.98, 2.98, 2.97, 2.96, 2.96, 2.35, 2.31]
11 [0.92, 0.93, 0.95, 0.96, 0.97, 0.99, 1.0, 1.02, 1.03, 1.05, 1.06, 1.08, 1.09, 1.11, 1.13, 1.14, 1.16, 1.18, 1.19, 1.21, 1.23, 1.25, 1.27, 1.29, 1.31, 1.33, 1.35, 1.37, 1.39, 1.41, 1.43, 1.45, 1.47, 1.5, 1.52, 1.54, 1.57, 1.59, 1.62, 1.65, 1.67, 1.7, 1.73, 1.76, 1.79, 1.82, 1.85, 1.88, 1.92, 1.95, 1.99, 2.02, 2.06, 2.1, 2.14, 2.18, 2.22, 2.27, 2.31, 2.36, 2.41, 2.46, 2.51, 2.56, 2.62, 2.68, 2.74, 2.8, 2.87, 2.94, 3.01, 3.09, 3.17, 3.25, 3.34, 3.44, 3.49, 3.48, 3.48, 3.47, 3.47, 3.46, 3.46, 3.45, 3.45, 3.44, 3.44, 3.43, 3.42, 3.42, 3.41, 3.41, 3.4, 3.4, 3.39, 3.39, 2.71, 2.7, 2.7, 2.69, 2.69, 2.68, 2.68, 2.68, 2.67, 3.34, 3.33, 3.32, 3.32, 3.31, 3.31, 3.3, 3.3, 3.29, 3.29, 3.28, 3.28, 3.27, 3.27, 3.26, 3.26, 3.25, 3.25, 3.24, 3.24, 3.23, 3.23, 3.22, 3.22, 3.21, 3.21, 3.2, 3.19, 3.19, 3.18, 3.18, 3.17, 3.17, 3.16, 3.16, 2.23, 2.15, 2.11, 2.11, 2.11, 2.1, 2.1, 2.1, 2.09, 2.09, 2.08, 3.09, 3.08, 3.08, 3.07, 3.07, 3.06, 3.05, 3.05, 3.04, 3.04, 3.03, 3.02, 3.02, 3.01, 3.0, 3.0, 2.99, 2.98, 2.98, 2.97, 2.96, 2.96, 2.95, 2.94, 2.94, 2.93, 2.92, 2.91, 2.91, 2.9, 2.89]
12 [0.91, 0.92, 0.93, 0.95, 0.96, 0.97, 0.99, 1.0, 1.02, 1.03, 1.05, 1.06, 1.08, 1.09, 1.11, 1.13, 1.14, 1.16, 1.17, 1.19, 1.21, 1.23, 1.24, 1.26, 1.28, 1.3, 1.32, 1.34, 1.36, 1.38, 1.4, 1.42, 1.44, 1.47, 1.49, 1.51, 1.53, 1.56, 1.58, 1.61, 1.63, 1.66, 1.69, 1.71, 1.74, 1.77, 1.8, 1.83, 1.86, 1.9, 1.93, 1.96, 2.0, 2.03, 2.07, 2.11, 2.15, 2.19, 2.23, 2.28, 2.32, 2.37, 2.42, 2.47, 2.52, 2.57, 2.63, 2.69, 2.75, 2.81, 2.88, 2.95, 3.02, 3.1, 3.18, 3.26, 3.35, 3.44, 3.5, 3.49, 3.48, 3.48, 3.47, 3.47, 3.46, 3.45, 3.45, 3.44, 3.44, 3.43, 3.42, 3.42, 3.41, 3.41, 3.4, 3.39, 3.39, 3.38, 2.7, 2.7, 2.69, 2.69, 2.68, 2.68, 2.67, 2.67, 2.66, 3.33, 3.32, 3.31, 3.31, 3.3, 3.3, 3.29, 3.29, 3.28, 3.28, 3.27, 3.26, 3.26, 3.25, 3.25, 3.24, 3.24, 3.23, 3.22, 3.22, 3.21, 3.21, 3.2, 3.2, 3.19, 3.18, 3.18, 3.17, 3.17, 3.16, 3.15, 3.15, 3.14, 3.14, 3.13, 2.21, 2.13, 2.1, 2.09, 2.09, 2.08, 2.08, 2.08, 2.07, 2.07, 2.06, 3.06, 3.05, 3.04, 3.04, 3.03, 3.02, 3.02, 3.01, 3.0, 3.0, 2.99, 2.98, 2.98, 2.97, 2.96, 2.96, 2.95, 2.94, 2.93, 2.93, 2.92, 2.91, 2.9, 2.9, 2.89, 2.88, 2.87, 2.86, 2.86]
13 [0.9, 0.91, 0.92, 0.94, 0.95, 0.96, 0.98, 0.99, 1.01, 1.02, 1.03, 1.05, 1.06, 1.08, 1.09, 1.11, 1.13, 1.14, 1.16, 1.18, 1.19, 1.21, 1.23, 1.24, 1.26, 1.28, 1.3, 1.32, 1.34, 1.36, 1.38, 1.4, 1.42, 1.44, 1.46, 1.48, 1.51, 1.53, 1.55, 1.58, 1.6, 1.63, 1.65, 1.68, 1.71, 1.73, 1.76, 1.79, 1.82, 1.85, 1.88, 1.92, 1.95, 1.98, 2.02, 2.06, 2.09, 2.13, 2.17, 2.21, 2.26, 2.3, 2.35, 2.39, 2.44, 2.49, 2.55, 2.6, 2.66, 2.72, 2.78, 2.84, 2.91, 2.98, 3.06, 3.13, 3.21, 3.3, 3.39, 3.48, 3.5, 3.49, 3.48, 3.48, 3.47, 3.46, 3.46, 3.45, 3.44, 3.44, 3.43, 3.43, 3.42, 3.41, 3.41, 3.4, 3.39, 3.39, 3.38, 3.38, 2.69, 2.69, 2.68, 2.68, 2.67, 2.67, 2.67, 2.66, 2.73, 3.31, 3.31, 3.3, 3.3, 3.29, 3.28, 3.28, 3.27, 3.27, 3.26, 3.25, 3.25, 3.24, 3.24, 3.23, 3.22, 3.22, 3.21, 3.21, 3.2, 3.19, 3.19, 3.18, 3.17, 3.17, 3.16, 3.16, 3.15, 3.14, 3.14, 3.13, 3.12, 3.12, 3.11, 2.26, 2.17, 2.09, 2.08, 2.07, 2.07, 2.06, 2.06, 2.05, 2.05, 2.05, 2.04, 3.03, 3.02, 3.01, 3.0, 3.0, 2.99, 2.98, 2.98, 2.97, 2.96, 2.95, 2.95, 2.94, 2.93, 2.92, 2.92, 2.91, 2.9, 2.89, 2.89, 2.88, 2.87, 2.86, 2.85, 2.84, 2.84, 2.83]
14 [0.89, 0.91, 0.92, 0.93, 0.95, 0.96, 0.97, 0.99, 1.0, 1.02, 1.03, 1.05, 1.06, 1.08, 1.09, 1.11, 1.12, 1.14, 1.15, 1.17, 1.19, 1.2, 1.22, 1.24, 1.26, 1.28, 1.29, 1.31, 1.33, 1.35, 1.37, 1.39, 1.41, 1.43, 1.45, 1.48, 1.5, 1.52, 1.55, 1.57, 1.59, 1.62, 1.64, 1.67, 1.7, 1.72, 1.75, 1.78, 1.81, 1.84, 1.87, 1.9, 1.94, 1.97, 2.01, 2.04, 2.08, 2.12, 2.16, 2.2, 2.24, 2.28, 2.33, 2.38, 2.42, 2.47, 2.53, 2.58, 2.64, 2.69, 2.76, 2.82, 2.89, 2.95, 3.03, 3.1, 3.18, 3.27, 3.35, 3.45, 3.49, 3.49, 3.48, 3.47, 3.47, 3.46, 3.45, 3.45, 3.44, 3.43, 3.43, 3.42, 3.41, 3.41, 3.4, 3.4, 3.39, 3.38, 3.38, 3.37, 2.69, 2.68, 2.68, 2.67, 2.67, 2.66, 2.66, 2.65, 2.65, 3.31, 3.3, 3.3, 3.29, 3.28, 3.28, 3.27, 3.27, 3.26, 3.25, 3.25, 3.24, 3.24, 3.23, 3.22, 3.22, 3.21, 3.2, 3.2, 3.19, 3.19, 3.18, 3.17, 3.17, 3.16, 3.15, 3.15, 3.14, 3.14, 3.13, 3.12, 3.12, 3.11, 3.1, 3.1, 2.2, 2.12, 2.07, 2.07, 2.06, 2.06, 2.05, 2.05, 2.04, 2.04, 2.03, 3.02, 3.01, 3.0, 3.0, 2.99, 2.98, 2.97, 2.97, 2.96, 2.95, 2.94, 2.94, 2.93, 2.92, 2.91, 2.91, 2.9, 2.89, 2.88, 2.88, 2.87, 2.86, 2.85, 2.84, 2.83, 2.83, 2.82]
15 [0.89, 0.91, 0.92, 0.93, 0.95, 0.96, 0.97, 0.99, 1.0, 1.02, 1.03, 1.04, 1.06, 1.07, 1.09, 1.11, 1.12, 1.14, 1.15, 1.17, 1.19, 1.2, 1.22, 1.24, 1.26, 1.27, 1.29, 1.31, 1.33, 1.35, 1.37, 1.39, 1.41, 1.43, 1.45, 1.48, 1.5, 1.52, 1.54, 1.57, 1.59, 1.62, 1.64, 1.67, 1.7, 1.72, 1.75, 1.78, 1.81, 1.84, 1.87, 1.9, 1.94, 1.97, 2.0, 2.04, 2.08, 2.12, 2.16, 2.2, 2.24, 2.28, 2.33, 2.37, 2.42, 2.47, 2.52, 2.58, 2.63, 2.69, 2.75, 2.82, 2.88, 2.95, 3.02, 3.1, 3.18, 3.26, 3.35, 3.44, 3.49, 3.48, 3.48, 3.47, 3.46, 3.46, 3.45, 3.44, 3.44, 3.43, 3.42, 3.42, 3.41, 3.41, 3.4, 3.39, 3.39, 3.38, 3.37, 3.37, 2.69, 2.68, 2.68, 2.67, 2.67, 2.66, 2.66, 2.65, 2.65, 3.31, 3.3, 3.29, 3.29, 3.28, 3.28, 3.27, 3.26, 3.26, 3.25, 3.24, 3.24, 3.23, 3.23, 3.22, 3.21, 3.21, 3.2, 3.2, 3.19, 3.18, 3.18, 3.17, 3.16, 3.16, 3.15, 3.15, 3.14, 3.13, 3.13, 3.12, 3.11, 3.11, 3.1, 3.09, 2.2, 2.12, 2.07, 2.06, 2.06, 2.05, 2.05, 2.04, 2.04, 2.04, 2.03, 3.01, 3.01, 3.0, 2.99, 2.99, 2.98, 2.97, 2.96, 2.96, 2.95, 2.94, 2.93, 2.93, 2.92, 2.91, 2.9, 2.9, 2.89, 2.88, 2.87, 2.86, 2.86, 2.85, 2.84, 2.83, 2.82, 2.81]
16 [0.89, 0.91, 0.92, 0.93, 0.95, 0.96, 0.97, 0.99, 1.0, 1.01, 1.03, 1.04, 1.06, 1.07, 1.09, 1.1, 1.12, 1.14, 1.15, 1.17, 1.19, 1.2, 1.22, 1.24, 1.26, 1.27, 1.29, 1.31, 1.33, 1.35, 1.37, 1.39, 1.41, 1.43, 1.45, 1.47, 1.5, 1.52, 1.54, 1.57, 1.59, 1.62, 1.64, 1.67, 1.69, 1.72, 1.75, 1.78, 1.81, 1.84, 1.87, 1.9, 1.94, 1.97, 2.0, 2.04, 2.08, 2.12, 2.16, 2.2, 2.24, 2.28, 2.33, 2.37, 2.42, 2.47, 2.52, 2.58, 2.63, 2.69, 2.75, 2.82, 2.88, 2.95, 3.03, 3.1, 3.18, 3.27, 3.35, 3.45, 3.48, 3.47, 3.47, 3.46, 3.45, 3.45, 3.44, 3.43, 3.43, 3.42, 3.41, 3.41, 3.4, 3.39, 3.39, 3.38, 3.38, 3.37, 3.36, 3.36, 2.68, 2.67, 2.67, 2.66, 2.66, 2.65, 2.65, 2.64, 2.64, 3.3, 3.29, 3.28, 3.28, 3.27, 3.27, 3.26, 3.25, 3.25, 3.24, 3.24, 3.23, 3.22, 3.22, 3.21, 3.2, 3.2, 3.19, 3.19, 3.18, 3.17, 3.17, 3.16, 3.16, 3.15, 3.14, 3.14, 3.13, 3.12, 3.12, 3.11, 3.11, 3.1, 3.09, 3.09, 2.2, 2.12, 2.06, 2.05, 2.05, 2.04, 2.04, 2.04, 2.03, 2.03, 2.02, 2.02, 3.0, 2.99, 2.99, 2.98, 2.97, 2.96, 2.96, 2.95, 2.94, 2.93, 2.93, 2.92, 2.91, 2.9, 2.9, 2.89, 2.88, 2.87, 2.87, 2.86, 2.85, 2.84, 2.83, 2.82, 2.82, 2.81]
17 [0.89, 0.91, 0.92, 0.93, 0.95, 0.96, 0.97, 0.99, 1.0, 1.02, 1.03, 1.04, 1.06, 1.07, 1.09, 1.11, 1.12, 1.14, 1.15, 1.17, 1.19, 1.2, 1.22, 1.24, 1.26, 1.28, 1.29, 1.31, 1.33, 1.35, 1.37, 1.39, 1.41, 1.43, 1.46, 1.48, 1.5, 1.52, 1.55, 1.57, 1.6, 1.62, 1.65, 1.67, 1.7, 1.73, 1.76, 1.79, 1.82, 1.85, 1.88, 1.91, 1.95, 1.98, 2.02, 2.05, 2.09, 2.13, 2.17, 2.21, 2.25, 2.3, 2.34, 2.39, 2.44, 2.49, 2.54, 2.6, 2.66, 2.72, 2.78, 2.84, 2.91, 2.98, 3.06, 3.14, 3.22, 3.3, 3.4, 3.46, 3.45, 3.45, 3.44, 3.43, 3.43, 3.42, 3.41, 3.41, 3.4, 3.4, 3.39, 3.38, 3.38, 3.37, 3.37, 3.36, 3.35, 3.35, 3.34, 3.34, 2.65, 2.65, 2.64, 2.64, 2.64, 2.63, 2.63, 2.62, 2.74, 3.28, 3.27, 3.26, 3.26, 3.25, 3.25, 3.24, 3.23, 3.23, 3.22, 3.22, 3.21, 3.2, 3.2, 3.19, 3.19, 3.18, 3.18, 3.17, 3.16, 3.16, 3.15, 3.15, 3.14, 3.13, 3.13, 3.12, 3.12, 3.11, 3.1, 3.1, 3.09, 3.08, 3.08, 3.07, 2.17, 2.09, 2.04, 2.04, 2.03, 2.03, 2.03, 2.02, 2.02, 2.01, 2.01, 2.0, 2.99, 2.98, 2.97, 2.97, 2.96, 2.95, 2.95, 2.94, 2.93, 2.92, 2.92, 2.91, 2.9, 2.9, 2.89, 2.88, 2.87, 2.87, 2.86, 2.85, 2.84, 2.83, 2.83, 2.82, 2.81, 2.8]
18 [0.91, 0.92, 0.93, 0.95, 0.96, 0.97, 0.99, 1.0, 1.02, 1.03, 1.05, 1.06, 1.08, 1.1, 1.11, 1.13, 1.14, 1.16, 1.18, 1.2, 1.21, 1.23, 1.25, 1.27, 1.29, 1.31, 1.33, 1.35, 1.37, 1.39, 1.41, 1.43, 1.45, 1.47, 1.5, 1.52, 1.55, 1.57, 1.6, 1.62, 1.65, 1.67, 1.7, 1.73, 1.76, 1.79, 1.82, 1.85, 1.89, 1.92, 1.95, 1.99, 2.02, 2.06, 2.1, 2.14, 2.18, 2.23, 2.27, 2.32, 2.36, 2.41, 2.46, 2.52, 2.57, 2.63, 2.69, 2.75, 2.81, 2.88, 2.95, 3.03, 3.11, 3.19, 3.27, 3.36, 3.44, 3.43, 3.43, 3.42, 3.41, 3.41, 3.4, 3.4, 3.39, 3.39, 3.38, 3.38, 3.37, 3.37, 3.36, 3.35, 3.35, 3.34, 3.34, 3.33, 3.33, 2.65, 2.64, 2.64, 2.63, 2.63, 2.63, 2.62, 2.62, 2.64, 3.28, 3.27, 3.27, 3.26, 3.26, 3.25, 3.24, 3.24, 3.23, 3.23, 3.22, 3.22, 3.21, 3.21, 3.2, 3.2, 3.19, 3.19, 3.18, 3.18, 3.17, 3.17, 3.16, 3.16, 3.15, 3.15, 3.14, 3.13, 3.13, 3.12, 3.12, 3.11, 3.11, 3.1, 3.1, 2.22, 2.14, 2.06, 2.05, 2.05, 2.05, 2.04, 2.04, 2.03, 2.03, 2.03, 2.02, 3.02, 3.02, 3.01, 3.0, 3.0, 2.99, 2.99, 2.98, 2.97, 2.97, 2.96, 2.95, 2.95, 2.94, 2.94, 2.93, 2.92, 2.92, 2.91, 2.9, 2.89, 2.89, 2.88, 2.87, 2.87, 2.86, 2.85, 2.84, 2.84]
19 [0.92, 0.93, 0.95, 0.96, 0.98, 0.99, 1.01, 1.02, 1.04, 1.05, 1.07, 1.08, 1.1, 1.12, 1.13, 1.15, 1.17, 1.18, 1.2, 1.22, 1.24, 1.26, 1.28, 1.3, 1.32, 1.34, 1.36, 1.38, 1.4, 1.42, 1.44, 1.47, 1.49, 1.51, 1.54, 1.56, 1.59, 1.61, 1.64, 1.67, 1.7, 1.73, 1.76, 1.79, 1.82, 1.85, 1.88, 1.92, 1.95, 1.99, 2.02, 2.06, 2.1, 2.14, 2.18, 2.23, 2.27, 2.32, 2.37, 2.42, 2.47, 2.52, 2.58, 2.64, 2.7, 2.76, 2.83, 2.9, 2.97, 3.04, 3.12, 3.21, 3.29, 3.38, 3.42, 3.42, 3.41, 3.41, 3.4, 3.4, 3.39, 3.39, 3.38, 3.38, 3.37, 3.37, 3.36, 3.36, 3.36, 3.35, 3.35, 3.34, 3.34, 3.33, 2.65, 2.65, 2.64, 2.64, 2.63, 2.63, 2.63, 2.62, 2.62, 2.8, 3.28, 3.28, 3.27, 3.27, 3.26, 3.26, 3.25, 3.25, 3.24, 3.24, 3.23, 3.23, 3.23, 3.22, 3.22, 3.21, 3.21, 3.2, 3.2, 3.19, 3.19, 3.18, 3.18, 3.17, 3.17, 3.16, 3.16, 3.16, 3.15, 3.15, 3.14, 3.14, 3.13, 3.13, 3.12, 2.21, 2.13, 2.07, 2.07, 2.07, 2.06, 2.06, 2.06, 2.05, 2.05, 2.05, 2.04, 3.06, 3.05, 3.04, 3.04, 3.03, 3.03, 3.02, 3.02, 3.01, 3.01, 3.0, 3.0, 2.99, 2.98, 2.98, 2.97, 2.97, 2.96, 2.95, 2.95, 2.94, 2.94, 2.93, 2.92, 2.92, 2.91, 2.9, 2.9, 2.89, 2.88, 2.88]
20 [0.92, 0.94, 0.95, 0.96, 0.98, 0.99, 1.01, 1.02, 1.04, 1.06, 1.07, 1.09, 1.1, 1.12, 1.14, 1.15, 1.17, 1.19, 1.21, 1.23, 1.24, 1.26, 1.28, 1.3, 1.32, 1.34, 1.36, 1.38, 1.41, 1.43, 1.45, 1.47, 1.5, 1.52, 1.55, 1.57, 1.6, 1.62, 1.65, 1.68, 1.71, 1.74, 1.77, 1.8, 1.83, 1.86, 1.9, 1.93, 1.96, 2.0, 2.04, 2.08, 2.12, 2.16, 2.2, 2.25, 2.29, 2.34, 2.39, 2.44, 2.49, 2.55, 2.6, 2.66, 2.73, 2.79, 2.86, 2.93, 3.0, 3.08, 3.16, 3.25, 3.34, 3.42, 3.42, 3.41, 3.41, 3.4, 3.4, 3.39, 3.39, 3.39, 3.38, 3.38, 3.37, 3.37, 3.36, 3.36, 3.35, 3.35, 3.34, 3.34, 3.33, 3.33, 2.65, 2.64, 2.64, 2.64, 2.63, 2.63, 2.63, 2.62, 2.62, 3.28, 3.28, 3.28, 3.27, 3.27, 3.26, 3.26, 3.25, 3.25, 3.24, 3.24, 3.24, 3.23, 3.23, 3.22, 3.22, 3.21, 3.21, 3.2, 3.2, 3.19, 3.19, 3.19, 3.18, 3.18, 3.17, 3.17, 3.16, 3.16, 3.15, 3.15, 3.14, 3.14, 3.13, 3.13, 2.26, 2.18, 2.1, 2.08, 2.07, 2.07, 2.07, 2.06, 2.06, 2.06, 2.05, 2.05, 3.07, 3.06, 3.06, 3.05, 3.05, 3.04, 3.03, 3.03, 3.02, 3.02, 3.01, 3.01, 3.0, 3.0, 2.99, 2.99, 2.98, 2.97, 2.97, 2.96, 2.96, 2.95, 2.94, 2.94, 2.93, 2.92, 2.92, 2.91, 2.91, 2.9, 2.89, 2.89]
21 [0.92, 0.94, 0.95, 0.96, 0.98, 0.99, 1.01, 1.02, 1.04, 1.06, 1.07, 1.09, 1.1, 1.12, 1.14, 1.15, 1.17, 1.19, 1.21, 1.23, 1.24, 1.26, 1.28, 1.3, 1.32, 1.34, 1.36, 1.39, 1.41, 1.43, 1.45, 1.47, 1.5, 1.52, 1.55, 1.57, 1.6, 1.62, 1.65, 1.68, 1.71, 1.74, 1.77, 1.8, 1.83, 1.86, 1.9, 1.93, 1.97, 2.0, 2.04, 2.08, 2.12, 2.16, 2.2, 2.25, 2.29, 2.34, 2.39, 2.44, 2.49, 2.55, 2.61, 2.67, 2.73, 2.79, 2.86, 2.93, 3.0, 3.08, 3.16, 3.25, 3.34, 3.42, 3.42, 3.41, 3.41, 3.4, 3.4, 3.39, 3.39, 3.39, 3.38, 3.38, 3.37, 3.37, 3.36, 3.36, 3.35, 3.35, 3.34, 3.34, 3.33, 3.33, 2.65, 2.64, 2.64, 2.64, 2.63, 2.63, 2.63, 2.62, 2.62, 3.28, 3.28, 3.28, 3.27, 3.27, 3.26, 3.26, 3.25, 3.25, 3.24, 3.24, 3.24, 3.23, 3.23, 3.22, 3.22, 3.21, 3.21, 3.2, 3.2, 3.19, 3.19, 3.19, 3.18, 3.18, 3.17, 3.17, 3.16, 3.16, 3.15, 3.15, 3.14, 3.14, 3.13, 3.13, 2.25, 2.17, 2.1, 2.08, 2.07, 2.07, 2.07, 2.06, 2.06, 2.06, 2.05, 2.05, 3.07, 3.06, 3.06, 3.05, 3.05, 3.04, 3.04, 3.03, 3.02, 3.02, 3.01, 3.01, 3.0, 3.0, 2.99, 2.99, 2.98, 2.97, 2.97, 2.96, 2.96, 2.95, 2.94, 2.94, 2.93, 2.93, 2.92, 2.91, 2.91, 2.9, 2.89, 2.89]
22 [0.92, 0.94, 0.95, 0.96, 0.98, 0.99, 1.01, 1.02, 1.04, 1.06, 1.07, 1.09, 1.1, 1.12, 1.14, 1.15, 1.17, 1.19, 1.21, 1.23, 1.24, 1.26, 1.28, 1.3, 1.32, 1.34, 1.36, 1.39, 1.41, 1.43, 1.45, 1.47, 1.5, 1.52, 1.55, 1.57, 1.6, 1.62, 1.65, 1.68, 1.71, 1.74, 1.77, 1.8, 1.83, 1.86, 1.9, 1.93, 1.97, 2.0, 2.04, 2.08, 2.12, 2.16, 2.2, 2.25, 2.29, 2.34, 2.39, 2.44, 2.49, 2.55, 2.61, 2.66, 2.73, 2.79, 2.86, 2.93, 3.0, 3.08, 3.16, 3.25, 3.34, 3.42, 3.42, 3.41, 3.41, 3.4, 3.4, 3.39, 3.39, 3.39, 3.38, 3.38, 3.37, 3.37, 3.36, 3.36, 3.35, 3.35, 3.34, 3.34, 3.33, 3.33, 2.65, 2.64, 2.64, 2.64, 2.63, 2.63, 2.63, 2.62, 2.62, 3.28, 3.28, 3.28, 3.27, 3.27, 3.26, 3.26, 3.25, 3.25, 3.24, 3.24, 3.24, 3.23, 3.23, 3.22, 3.22, 3.21, 3.21, 3.2, 3.2, 3.19, 3.19, 3.19, 3.18, 3.18, 3.17, 3.17, 3.16, 3.16, 3.15, 3.15, 3.14, 3.14, 3.13, 3.13, 2.25, 2.17, 2.1, 2.08, 2.07, 2.07, 2.07, 2.06, 2.06, 2.06, 2.05, 2.05, 3.07, 3.06, 3.06, 3.05, 3.05, 3.04, 3.04, 3.03, 3.02, 3.02, 3.01, 3.01, 3.0, 3.0, 2.99, 2.99, 2.98, 2.97, 2.97, 2.96, 2.96, 2.95, 2.94, 2.94, 2.93, 2.93, 2.92, 2.91, 2.91, 2.9, 2.89, 2.89]
23 [0.92, 0.94, 0.95, 0.96, 0.98, 0.99, 1.01, 1.02, 1.04, 1.06, 1.07, 1.09, 1.1, 1.12, 1.14, 1.15, 1.17, 1.19, 1.21, 1.23, 1.24, 1.26, 1.28, 1.3, 1.32, 1.34, 1.36, 1.39, 1.41, 1.43, 1.45, 1.47, 1.5, 1.52, 1.55, 1.57, 1.6, 1.62, 1.65, 1.68, 1.71, 1.74, 1.77, 1.8, 1.83, 1.86, 1.9, 1.93, 1.97, 2.0, 2.04, 2.08, 2.12, 2.16, 2.2, 2.25, 2.29, 2.34, 2.39, 2.44, 2.49, 2.55, 2.61, 2.66, 2.73, 2.79, 2.86, 2.93, 3.0, 3.08, 3.16, 3.25, 3.34, 3.42, 3.42, 3.41, 3.41, 3.4, 3.4, 3.39, 3.39, 3.39, 3.38, 3.38, 3.37, 3.37, 3.36, 3.36, 3.35, 3.35, 3.34, 3.34, 3.33, 3.33, 2.65, 2.64, 2.64, 2.64, 2.63, 2.63, 2.63, 2.62, 2.62, 3.28, 3.28, 3.28, 3.27, 3.27, 3.26, 3.26, 3.25, 3.25, 3.24, 3.24, 3.24, 3.23, 3.23, 3.22, 3.22, 3.21, 3.21, 3.2, 3.2, 3.19, 3.19, 3.19, 3.18, 3.18, 3.17, 3.17, 3.16, 3.16, 3.15, 3.15, 3.14, 3.14, 3.13, 3.13, 2.25, 2.17, 2.1, 2.08, 2.07, 2.07, 2.07, 2.06, 2.06, 2.06, 2.05, 2.05, 3.07, 3.06, 3.06, 3.05, 3.05, 3.04, 3.04, 3.03, 3.02, 3.02, 3.01, 3.01, 3.0, 3.0, 2.99, 2.99, 2.98, 2.97, 2.97, 2.96, 2.96, 2.95, 2.94, 2.94, 2.93, 2.93, 2.92, 2.91, 2.91, 2.9, 2.89, 2.89]
24 [0.92, 0.93, 0.95, 0.96, 0.98, 0.99, 1.01, 1.02, 1.04, 1.05, 1.07, 1.08, 1.1, 1.12, 1.13, 1.15, 1.17, 1.19, 1.2, 1.22, 1.24, 1.26, 1.28, 1.3, 1.32, 1.34, 1.36, 1.38, 1.4, 1.42, 1.45, 1.47, 1.49, 1.52, 1.54, 1.57, 1.59, 1.62, 1.65, 1.67, 1.7, 1.73, 1.76, 1.79, 1.82, 1.85, 1.89, 1.92, 1.96, 1.99, 2.03, 2.07, 2.11, 2.15, 2.19, 2.24, 2.28, 2.33, 2.38, 2.43, 2.48, 2.53, 2.59, 2.65, 2.71, 2.77, 2.84, 2.91, 2.98, 3.06, 3.14, 3.22, 3.31, 3.41, 3.42, 3.42, 3.41, 3.41, 3.4, 3.4, 3.39, 3.39, 3.38, 3.38, 3.37, 3.37, 3.36, 3.36, 3.35, 3.35, 3.34, 3.34, 3.33, 3.33, 2.65, 2.65, 2.64, 2.64, 2.63, 2.63, 2.63, 2.62, 2.62, 3.28, 3.28, 3.28, 3.27, 3.27, 3.26, 3.26, 3.25, 3.25, 3.24, 3.24, 3.23, 3.23, 3.23, 3.22, 3.22, 3.21, 3.21, 3.2, 3.2, 3.19, 3.19, 3.18, 3.18, 3.17, 3.17, 3.17, 3.16, 3.16, 3.15, 3.15, 3.14, 3.14, 3.13, 3.13, 3.12, 2.2, 2.12, 2.08, 2.07, 2.07, 2.07, 2.06, 2.06, 2.06, 2.05, 2.05, 3.06, 3.06, 3.05, 3.05, 3.04, 3.04, 3.03, 3.03, 3.02, 3.01, 3.01, 3.0, 3.0, 2.99, 2.99, 2.98, 2.98, 2.97, 2.96, 2.96, 2.95, 2.95, 2.94, 2.93, 2.93, 2.92, 2.91, 2.91, 2.9, 2.89, 2.89, 2.88]
25 [0.92, 0.93, 0.94, 0.96, 0.97, 0.99, 1.0, 1.02, 1.03, 1.05, 1.06, 1.08, 1.1, 1.11, 1.13, 1.15, 1.16, 1.18, 1.2, 1.22, 1.23, 1.25, 1.27, 1.29, 1.31, 1.33, 1.35, 1.37, 1.39, 1.42, 1.44, 1.46, 1.48, 1.51, 1.53, 1.56, 1.58, 1.61, 1.63, 1.66, 1.69, 1.72, 1.75, 1.78, 1.81, 1.84, 1.87, 1.91, 1.94, 1.98, 2.01, 2.05, 2.09, 2.13, 2.17, 2.21, 2.26, 2.31, 2.35, 2.4, 2.45, 2.51, 2.56, 2.62, 2.68, 2.74, 2.81, 2.88, 2.95, 3.02, 3.1, 3.18, 3.27, 3.36, 3.42, 3.42, 3.41, 3.41, 3.4, 3.4, 3.39, 3.39, 3.38, 3.38, 3.37, 3.37, 3.36, 3.36, 3.35, 3.35, 3.34, 3.34, 3.33, 3.33, 3.32, 2.64, 2.64, 2.63, 2.63, 2.63, 2.62, 2.62, 2.62, 2.67, 3.28, 3.27, 3.27, 3.26, 3.26, 3.25, 3.25, 3.24, 3.24, 3.23, 3.23, 3.23, 3.22, 3.22, 3.21, 3.21, 3.2, 3.2, 3.19, 3.19, 3.18, 3.18, 3.17, 3.17, 3.16, 3.16, 3.15, 3.15, 3.14, 3.14, 3.13, 3.13, 3.13, 3.12, 3.12, 2.23, 2.15, 2.08, 2.07, 2.06, 2.06, 2.06, 2.05, 2.05, 2.05, 2.04, 2.04, 3.05, 3.04, 3.04, 3.03, 3.03, 3.02, 3.02, 3.01, 3.01, 3.0, 2.99, 2.99, 2.98, 2.98, 2.97, 2.96, 2.96, 2.95, 2.95, 2.94, 2.93, 2.93, 2.92, 2.91, 2.91, 2.9, 2.89, 2.89, 2.88, 2.87, 2.87]
26 [0.92, 0.93, 0.94, 0.96, 0.97, 0.99, 1.0, 1.02, 1.03, 1.05, 1.06, 1.08, 1.1, 1.11, 1.13, 1.15, 1.16, 1.18, 1.2, 1.22, 1.23, 1.25, 1.27, 1.29, 1.31, 1.33, 1.35, 1.37, 1.39, 1.42, 1.44, 1.46, 1.48, 1.51, 1.53, 1.56, 1.58, 1.61, 1.63, 1.66, 1.69, 1.72, 1.75, 1.78, 1.81, 1.84, 1.87, 1.91, 1.94, 1.98, 2.01, 2.05, 2.09, 2.13, 2.17, 2.21, 2.26, 2.3, 2.35, 2.4, 2.45, 2.51, 2.56, 2.62, 2.68, 2.74, 2.81, 2.87, 2.94, 3.02, 3.1, 3.18, 3.27, 3.36, 3.42, 3.42, 3.41, 3.41, 3.4, 3.4, 3.39, 3.39, 3.38, 3.38, 3.37, 3.37, 3.36, 3.36, 3.35, 3.35, 3.34, 3.34, 3.33, 3.33, 3.32, 2.64, 2.64, 2.63, 2.63, 2.63, 2.62, 2.62, 2.62, 2.66, 3.28, 3.27, 3.27, 3.26, 3.26, 3.25, 3.25, 3.24, 3.24, 3.23, 3.23, 3.23, 3.22, 3.22, 3.21, 3.21, 3.2, 3.2, 3.19, 3.19, 3.18, 3.18, 3.17, 3.17, 3.16, 3.16, 3.15, 3.15, 3.14, 3.14, 3.13, 3.13, 3.13, 3.12, 3.12, 2.24, 2.16, 2.08, 2.07, 2.06, 2.06, 2.06, 2.05, 2.05, 2.05, 2.04, 2.04, 3.05, 3.04, 3.04, 3.03, 3.03, 3.02, 3.02, 3.01, 3.0, 3.0, 2.99, 2.99, 2.98, 2.98, 2.97, 2.96, 2.96, 2.95, 2.95, 2.94, 2.93, 2.93, 2.92, 2.91, 2.91, 2.9, 2.89, 2.89, 2.88, 2.87, 2.87]
27 [0.91, 0.93, 0.94, 0.96, 0.97, 0.99, 1.0, 1.01, 1.03, 1.05, 1.06, 1.08, 1.09, 1.11, 1.13, 1.14, 1.16, 1.18, 1.19, 1.21, 1.23, 1.25, 1.27, 1.29, 1.31, 1.33, 1.35, 1.37, 1.39, 1.41, 1.43, 1.46, 1.48, 1.5, 1.53, 1.55, 1.58, 1.6, 1.63, 1.65, 1.68, 1.71, 1.74, 1.77, 1.8, 1.83, 1.86, 1.9, 1.93, 1.97, 2.0, 2.04, 2.08, 2.12, 2.16, 2.2, 2.25, 2.29, 2.34, 2.39, 2.44, 2.49, 2.54, 2.6, 2.66, 2.72, 2.79, 2.85, 2.92, 3.0, 3.07, 3.15, 3.24, 3.33, 3.42, 3.42, 3.41, 3.41, 3.4, 3.4, 3.39, 3.39, 3.38, 3.38, 3.37, 3.37, 3.36, 3.36, 3.35, 3.35, 3.34, 3.34, 3.33, 3.33, 3.32, 2.64, 2.64, 2.64, 2.63, 2.63, 2.62, 2.62, 2.62, 2.61, 3.28, 3.27, 3.27, 3.26, 3.26, 3.25, 3.25, 3.24, 3.24, 3.23, 3.23, 3.22, 3.22, 3.21, 3.21, 3.21, 3.2, 3.2, 3.19, 3.19, 3.18, 3.18, 3.17, 3.17, 3.16, 3.16, 3.15, 3.15, 3.14, 3.14, 3.13, 3.13, 3.12, 3.12, 3.11, 2.26, 2.18, 2.1, 2.06, 2.06, 2.06, 2.05, 2.05, 2.05, 2.04, 2.04, 2.04, 3.04, 3.04, 3.03, 3.03, 3.02, 3.02, 3.01, 3.01, 3.0, 2.99, 2.99, 2.98, 2.98, 2.97, 2.97, 2.96, 2.95, 2.95, 2.94, 2.93, 2.93, 2.92, 2.92, 2.91, 2.9, 2.9, 2.89, 2.88, 2.87, 2.87, 2.86]
28 [0.91, 0.93, 0.94, 0.95, 0.97, 0.98, 1.0, 1.01, 1.03, 1.04, 1.06, 1.07, 1.09, 1.11, 1.12, 1.14, 1.16, 1.17, 1.19, 1.21, 1.23, 1.25, 1.26, 1.28, 1.3, 1.32, 1.34, 1.36, 1.39, 1.41, 1.43, 1.45, 1.47, 1.5, 1.52, 1.55, 1.57, 1.6, 1.62, 1.65, 1.68, 1.71, 1.73, 1.76, 1.79, 1.83, 1.86, 1.89, 1.92, 1.96, 2.0, 2.03, 2.07, 2.11, 2.15, 2.19, 2.24, 2.28, 2.33, 2.38, 2.43, 2.48, 2.53, 2.59, 2.65, 2.71, 2.77, 2.84, 2.91, 2.98, 3.06, 3.14, 3.22, 3.31, 3.4, 3.41, 3.41, 3.4, 3.4, 3.39, 3.39, 3.38, 3.38, 3.37, 3.37, 3.36, 3.36, 3.35, 3.35, 3.34, 3.34, 3.33, 3.33, 3.32, 3.32, 2.64, 2.63, 2.63, 2.62, 2.62, 2.62, 2.61, 2.61, 2.61, 3.27, 3.26, 3.26, 3.26, 3.25, 3.25, 3.24, 3.24, 3.23, 3.23, 3.22, 3.22, 3.21, 3.21, 3.2, 3.2, 3.19, 3.19, 3.18, 3.18, 3.17, 3.17, 3.16, 3.16, 3.15, 3.15, 3.14, 3.14, 3.13, 3.13, 3.13, 3.12, 3.12, 3.11, 3.1, 3.1, 2.19, 2.12, 2.06, 2.05, 2.05, 2.05, 2.04, 2.04, 2.04, 2.03, 2.03, 2.02, 3.03, 3.03, 3.02, 3.02, 3.01, 3.0, 3.0, 2.99, 2.99, 2.98, 2.97, 2.97, 2.96, 2.96, 2.95, 2.94, 2.94, 2.93, 2.93, 2.92, 2.91, 2.91, 2.9, 2.89, 2.89, 2.88, 2.87, 2.87, 2.86, 2.85]
29 [0.91, 0.93, 0.94, 0.95, 0.97, 0.98, 1.0, 1.01, 1.03, 1.04, 1.06, 1.08, 1.09, 1.11, 1.12, 1.14, 1.16, 1.18, 1.19, 1.21, 1.23, 1.25, 1.27, 1.29, 1.31, 1.32, 1.35, 1.37, 1.39, 1.41, 1.43, 1.45, 1.48, 1.5, 1.52, 1.55, 1.57, 1.6, 1.63, 1.65, 1.68, 1.71, 1.74, 1.77, 1.8, 1.83, 1.86, 1.89, 1.93, 1.96, 2.0, 2.04, 2.08, 2.12, 2.16, 2.2, 2.24, 2.29, 2.34, 2.38, 2.43, 2.49, 2.54, 2.6, 2.66, 2.72, 2.78, 2.85, 2.92, 2.99, 3.07, 3.15, 3.24, 3.32, 3.41, 3.41, 3.4, 3.4, 3.39, 3.39, 3.38, 3.38, 3.37, 3.37, 3.36, 3.36, 3.35, 3.35, 3.34, 3.34, 3.33, 3.33, 3.32, 3.32, 3.31, 2.63, 2.63, 2.63, 2.62, 2.62, 2.61, 2.61, 2.61, 2.6, 3.27, 3.26, 3.26, 3.25, 3.25, 3.24, 3.24, 3.23, 3.23, 3.22, 3.22, 3.21, 3.21, 3.21, 3.2, 3.2, 3.19, 3.19, 3.18, 3.18, 3.17, 3.17, 3.16, 3.16, 3.15, 3.15, 3.14, 3.14, 3.13, 3.13, 3.12, 3.12, 3.11, 3.11, 3.1, 3.1, 2.18, 2.11, 2.05, 2.05, 2.05, 2.04, 2.04, 2.04, 2.03, 2.03, 2.03, 2.02, 3.03, 3.03, 3.02, 3.01, 3.01, 3.0, 3.0, 2.99, 2.99, 2.98, 2.97, 2.97, 2.96, 2.96, 2.95, 2.94, 2.94, 2.93, 2.93, 2.92, 2.91, 2.91, 2.9, 2.89, 2.89, 2.88, 2.87, 2.87, 2.86, 2.85]
30 [0.91, 0.92, 0.94, 0.95, 0.97, 0.98, 0.99, 1.01, 1.02, 1.04, 1.05, 1.07, 1.09, 1.1, 1.12, 1.14, 1.15, 1.17, 1.19, 1.2, 1.22, 1.24, 1.26, 1.28, 1.3, 1.32, 1.34, 1.36, 1.38, 1.4, 1.42, 1.44, 1.47, 1.49, 1.51, 1.54, 1.56, 1.59, 1.61, 1.64, 1.67, 1.7, 1.73, 1.75, 1.78, 1.82, 1.85, 1.88, 1.91, 1.95, 1.98, 2.02, 2.06, 2.1, 2.14, 2.18, 2.22, 2.27, 2.31, 2.36, 2.41, 2.46, 2.52, 2.57, 2.63, 2.69, 2.75, 2.82, 2.89, 2.96, 3.04, 3.11, 3.2, 3.28, 3.38, 3.4, 3.4, 3.39, 3.39, 3.38, 3.38, 3.37, 3.37, 3.36, 3.36, 3.35, 3.35, 3.34, 3.34, 3.33, 3.33, 3.32, 3.32, 3.31, 3.31, 2.63, 2.62, 2.62, 2.61, 2.61, 2.61, 2.6, 2.6, 2.6, 2.72, 3.25, 3.25, 3.24, 3.24, 3.24, 3.23, 3.23, 3.22, 3.22, 3.21, 3.21, 3.2, 3.2, 3.19, 3.19, 3.18, 3.18, 3.17, 3.17, 3.16, 3.16, 3.15, 3.15, 3.14, 3.14, 3.13, 3.13, 3.12, 3.12, 3.11, 3.11, 3.1, 3.1, 3.09, 3.09, 2.22, 2.14, 2.06, 2.04, 2.04, 2.03, 2.03, 2.03, 2.02, 2.02, 2.02, 2.01, 3.02, 3.01, 3.01, 3.0, 3.0, 2.99, 2.99, 2.98, 2.97, 2.97, 2.96, 2.96, 2.95, 2.94, 2.94, 2.93, 2.93, 2.92, 2.91, 2.91, 2.9, 2.89, 2.89, 2.88, 2.87, 2.87, 2.86, 2.85, 2.85, 2.84]
31 [0.91, 0.93, 0.94, 0.95, 0.97, 0.98, 1.0, 1.01, 1.03, 1.04, 1.06, 1.07, 1.09, 1.11, 1.12, 1.14, 1.16, 1.17, 1.19, 1.21, 1.23, 1.25, 1.26, 1.28, 1.3, 1.32, 1.34, 1.36, 1.38, 1.41, 1.43, 1.45, 1.47, 1.5, 1.52, 1.55, 1.57, 1.6, 1.62, 1.65, 1.68, 1.71, 1.73, 1.76, 1.79, 1.83, 1.86, 1.89, 1.93, 1.96, 2.0, 2.03, 2.07, 2.11, 2.15, 2.2, 2.24, 2.29, 2.33, 2.38, 2.43, 2.48, 2.54, 2.6, 2.65, 2.72, 2.78, 2.85, 2.92, 2.99, 3.07, 3.15, 3.23, 3.32, 3.4, 3.4, 3.39, 3.39, 3.38, 3.38, 3.37, 3.37, 3.36, 3.36, 3.35, 3.35, 3.34, 3.34, 3.33, 3.33, 3.32, 3.32, 3.31, 3.31, 3.3, 2.62, 2.62, 2.61, 2.61, 2.61, 2.6, 2.6, 2.6, 2.59, 3.26, 3.25, 3.25, 3.24, 3.24, 3.23, 3.23, 3.22, 3.22, 3.21, 3.21, 3.2, 3.2, 3.19, 3.19, 3.19, 3.18, 3.18, 3.17, 3.17, 3.16, 3.16, 3.15, 3.15, 3.14, 3.14, 3.13, 3.13, 3.12, 3.12, 3.11, 3.11, 3.1, 3.1, 3.09, 3.09, 2.19, 2.11, 2.04, 2.04, 2.04, 2.03, 2.03, 2.03, 2.02, 2.02, 2.02, 2.01, 3.02, 3.02, 3.01, 3.01, 3.0, 2.99, 2.99, 2.98, 2.98, 2.97, 2.97, 2.96, 2.95, 2.95, 2.94, 2.94, 2.93, 2.92, 2.92, 2.91, 2.9, 2.9, 2.89, 2.89, 2.88, 2.87, 2.86, 2.86, 2.85, 2.84]
32 [0.91, 0.93, 0.94, 0.95, 0.97, 0.98, 1.0, 1.01, 1.03, 1.04, 1.06, 1.07, 1.09, 1.11, 1.12, 1.14, 1.16, 1.17, 1.19, 1.21, 1.23, 1.25, 1.26, 1.28, 1.3, 1.32, 1.34, 1.36, 1.39, 1.41, 1.43, 1.45, 1.47, 1.5, 1.52, 1.55, 1.57, 1.6, 1.62, 1.65, 1.68, 1.71, 1.73, 1.76, 1.79, 1.83, 1.86, 1.89, 1.93, 1.96, 2.0, 2.03, 2.07, 2.11, 2.15, 2.2, 2.24, 2.29, 2.33, 2.38, 2.43, 2.48, 2.54, 2.6, 2.65, 2.72, 2.78, 2.85, 2.92, 2.99, 3.07, 3.15, 3.23, 3.32, 3.4, 3.4, 3.39, 3.39, 3.38, 3.38, 3.37, 3.37, 3.36, 3.36, 3.35, 3.35, 3.34, 3.34, 3.33, 3.33, 3.32, 3.32, 3.31, 3.31, 3.3, 2.62, 2.62, 2.61, 2.61, 2.61, 2.6, 2.6, 2.6, 2.59, 3.26, 3.25, 3.25, 3.24, 3.24, 3.23, 3.23, 3.22, 3.22, 3.21, 3.21, 3.2, 3.2, 3.19, 3.19, 3.19, 3.18, 3.18, 3.17, 3.17, 3.16, 3.16, 3.15, 3.15, 3.14, 3.14, 3.13, 3.13, 3.12, 3.12, 3.11, 3.11, 3.1, 3.1, 3.09, 3.09, 2.19, 2.11, 2.04, 2.04, 2.04, 2.03, 2.03, 2.03, 2.02, 2.02, 2.02, 2.01, 3.02, 3.02, 3.01, 3.01, 3.0, 2.99, 2.99, 2.98, 2.98, 2.97, 2.97, 2.96, 2.95, 2.95, 2.94, 2.94, 2.93, 2.92, 2.92, 2.91, 2.9, 2.9, 2.89, 2.89, 2.88, 2.87, 2.86, 2.86, 2.85, 2.84]
33 [0.91, 0.93, 0.94, 0.95, 0.97, 0.98, 1.0, 1.01, 1.03, 1.04, 1.06, 1.07, 1.09, 1.11, 1.12, 1.14, 1.16, 1.17, 1.19, 1.21, 1.23, 1.25, 1.26, 1.28, 1.3, 1.32, 1.34, 1.36, 1.39, 1.41, 1.43, 1.45, 1.47, 1.5, 1.52, 1.55, 1.57, 1.6, 1.62, 1.65, 1.68, 1.71, 1.73, 1.76, 1.79, 1.83, 1.86, 1.89, 1.93, 1.96, 2.0, 2.03, 2.07, 2.11, 2.15, 2.2, 2.24, 2.29, 2.33, 2.38, 2.43, 2.48, 2.54, 2.6, 2.65, 2.72, 2.78, 2.85, 2.92, 2.99, 3.07, 3.15, 3.23, 3.32, 3.4, 3.4, 3.39, 3.39, 3.38, 3.38, 3.37, 3.37, 3.36, 3.36, 3.35, 3.35, 3.34, 3.34, 3.33, 3.33, 3.32, 3.32, 3.31, 3.31, 3.3, 2.62, 2.62, 2.61, 2.61, 2.61, 2.6, 2.6, 2.6, 2.59, 3.26, 3.25, 3.25, 3.24, 3.24, 3.23, 3.23, 3.22, 3.22, 3.21, 3.21, 3.2, 3.2, 3.19, 3.19, 3.19, 3.18, 3.18, 3.17, 3.17, 3.16, 3.16, 3.15, 3.15, 3.14, 3.14, 3.13, 3.13, 3.12, 3.12, 3.11, 3.11, 3.1, 3.1, 3.09, 3.09, 2.19, 2.11, 2.04, 2.04, 2.04, 2.03, 2.03, 2.03, 2.02, 2.02, 2.02, 2.01, 3.02, 3.02, 3.01, 3.01, 3.0, 2.99, 2.99, 2.98, 2.98, 2.97, 2.97, 2.96, 2.95, 2.95, 2.94, 2.94, 2.93, 2.92, 2.92, 2.91, 2.9, 2.9, 2.89, 2.89, 2.88, 2.87, 2.87, 2.86, 2.85, 2.84]
34 [0.91, 0.93, 0.94, 0.95, 0.97, 0.98, 1.0, 1.01, 1.03, 1.04, 1.06, 1.07, 1.09, 1.11, 1.12, 1.14, 1.16, 1.17, 1.19, 1.21, 1.23, 1.25, 1.26, 1.28, 1.3, 1.32, 1.34, 1.36, 1.39, 1.41, 1.43, 1.45, 1.47, 1.5, 1.52, 1.55, 1.57, 1.6, 1.62, 1.65, 1.68, 1.71, 1.73, 1.76, 1.8, 1.83, 1.86, 1.89, 1.93, 1.96, 2.0, 2.03, 2.07, 2.11, 2.15, 2.2, 2.24, 2.29, 2.33, 2.38, 2.43, 2.48, 2.54, 2.6, 2.65, 2.72, 2.78, 2.85, 2.92, 2.99, 3.07, 3.15, 3.23, 3.32, 3.4, 3.4, 3.39, 3.39, 3.38, 3.38, 3.37, 3.37, 3.36, 3.36, 3.35, 3.35, 3.34, 3.34, 3.33, 3.33, 3.32, 3.32, 3.31, 3.31, 3.3, 2.62, 2.62, 2.61, 2.61, 2.61, 2.6, 2.6, 2.6, 2.59, 3.26, 3.25, 3.25, 3.24, 3.24, 3.23, 3.23, 3.22, 3.22, 3.21, 3.21, 3.2, 3.2, 3.19, 3.19, 3.19, 3.18, 3.18, 3.17, 3.17, 3.16, 3.16, 3.15, 3.15, 3.14, 3.14, 3.13, 3.13, 3.12, 3.12, 3.11, 3.11, 3.1, 3.1, 3.09, 3.09, 2.19, 2.11, 2.04, 2.04, 2.04, 2.03, 2.03, 2.03, 2.02, 2.02, 2.02, 2.01, 3.02, 3.02, 3.01, 3.01, 3.0, 2.99, 2.99, 2.98, 2.98, 2.97, 2.97, 2.96, 2.95, 2.95, 2.94, 2.94, 2.93, 2.92, 2.92, 2.91, 2.9, 2.9, 2.89, 2.89, 2.88, 2.87, 2.87, 2.86, 2.85, 2.84]
35 [0.91, 0.93, 0.94, 0.95, 0.97, 0.98, 1.0, 1.01, 1.03, 1.04, 1.06, 1.07, 1.09, 1.11, 1.12, 1.14, 1.16, 1.17, 1.19, 1.21, 1.23, 1.25, 1.26, 1.28, 1.3, 1.32, 1.34, 1.36, 1.39, 1.41, 1.43, 1.45, 1.47, 1.5, 1.52, 1.55, 1.57, 1.6, 1.62, 1.65, 1.68, 1.71, 1.73, 1.76, 1.79, 1.83, 1.86, 1.89, 1.93, 1.96, 2.0, 2.03, 2.07, 2.11, 2.15, 2.2, 2.24, 2.29, 2.33, 2.38, 2.43, 2.48, 2.54, 2.6, 2.65, 2.72, 2.78, 2.85, 2.92, 2.99, 3.07, 3.15, 3.23, 3.32, 3.4, 3.4, 3.39, 3.39, 3.38, 3.38, 3.37, 3.37, 3.36, 3.36, 3.35, 3.35, 3.34, 3.34, 3.33, 3.33, 3.32, 3.32, 3.31, 3.31, 3.3, 2.62, 2.62, 2.61, 2.61, 2.61, 2.6, 2.6, 2.6, 2.59, 3.26, 3.25, 3.25, 3.24, 3.24, 3.23, 3.23, 3.22, 3.22, 3.21, 3.21, 3.2, 3.2, 3.19, 3.19, 3.19, 3.18, 3.18, 3.17, 3.17, 3.16, 3.16, 3.15, 3.15, 3.14, 3.14, 3.13, 3.13, 3.12, 3.12, 3.11, 3.11, 3.1, 3.1, 3.09, 3.09, 2.19, 2.11, 2.04, 2.04, 2.04, 2.03, 2.03, 2.03, 2.02, 2.02, 2.02, 2.01, 3.02, 3.02, 3.01, 3.01, 3.0, 2.99, 2.99, 2.98, 2.98, 2.97, 2.97, 2.96, 2.95, 2.95, 2.94, 2.94, 2.93, 2.92, 2.92, 2.91, 2.9, 2.9, 2.89, 2.89, 2.88, 2.87, 2.87, 2.86, 2.85, 2.84]
36 [0.91, 0.92, 0.94, 0.95, 0.97, 0.98, 1.0, 1.01, 1.03, 1.04, 1.06, 1.07, 1.09, 1.11, 1.12, 1.14, 1.16, 1.17, 1.19, 1.21, 1.23, 1.24, 1.26, 1.28, 1.3, 1.32, 1.34, 1.36, 1.38, 1.41, 1.43, 1.45, 1.47, 1.5, 1.52, 1.55, 1.57, 1.6, 1.62, 1.65, 1.68, 1.71, 1.73, 1.76, 1.79, 1.83, 1.86, 1.89, 1.93, 1.96, 2.0, 2.03, 2.07, 2.11, 2.15, 2.2, 2.24, 2.28, 2.33, 2.38, 2.43, 2.48, 2.54, 2.59, 2.65, 2.72, 2.78, 2.85, 2.92, 2.99, 3.07, 3.15, 3.23, 3.32, 3.4, 3.4, 3.39, 3.39, 3.38, 3.37, 3.37, 3.36, 3.36, 3.35, 3.35, 3.35, 3.34, 3.34, 3.33, 3.33, 3.32, 3.32, 3.31, 3.31, 3.3, 2.62, 2.62, 2.61, 2.61, 2.61, 2.6, 2.6, 2.59, 2.59, 3.25, 3.25, 3.24, 3.24, 3.24, 3.23, 3.23, 3.22, 3.22, 3.21, 3.21, 3.2, 3.2, 3.19, 3.19, 3.18, 3.18, 3.17, 3.17, 3.16, 3.16, 3.16, 3.15, 3.15, 3.14, 3.14, 3.13, 3.13, 3.12, 3.12, 3.11, 3.11, 3.1, 3.1, 3.09, 3.09, 2.19, 2.11, 2.04, 2.04, 2.04, 2.03, 2.03, 2.03, 2.02, 2.02, 2.02, 2.01, 3.02, 3.01, 3.01, 3.0, 3.0, 2.99, 2.99, 2.98, 2.98, 2.97, 2.96, 2.96, 2.95, 2.95, 2.94, 2.93, 2.93, 2.92, 2.92, 2.91, 2.9, 2.9, 2.89, 2.88, 2.88, 2.87, 2.86, 2.86, 2.85, 2.84]
37 [0.91, 0.92, 0.94, 0.95, 0.97, 0.98, 1.0, 1.01, 1.02, 1.04, 1.06, 1.07, 1.09, 1.1, 1.12, 1.14, 1.15, 1.17, 1.19, 1.21, 1.22, 1.24, 1.26, 1.28, 1.3, 1.32, 1.34, 1.36, 1.38, 1.4, 1.43, 1.45, 1.47, 1.5, 1.52, 1.54, 1.57, 1.59, 1.62, 1.65, 1.68, 1.7, 1.73, 1.76, 1.79, 1.82, 1.86, 1.89, 1.92, 1.96, 2.0, 2.03, 2.07, 2.11, 2.15, 2.2, 2.24, 2.29, 2.33, 2.38, 2.43, 2.48, 2.54, 2.6, 2.66, 2.72, 2.78, 2.85, 2.92, 2.99, 3.07, 3.15, 3.24, 3.33, 3.38, 3.38, 3.37, 3.37, 3.36, 3.36, 3.35, 3.35, 3.34, 3.34, 3.33, 3.33, 3.32, 3.32, 3.31, 3.31, 3.3, 3.3, 3.3, 3.29, 3.29, 2.6, 2.6, 2.6, 2.59, 2.59, 2.59, 2.58, 2.58, 2.57, 3.24, 3.23, 3.23, 3.23, 3.22, 3.22, 3.21, 3.21, 3.2, 3.2, 3.19, 3.19, 3.18, 3.18, 3.17, 3.17, 3.16, 3.16, 3.16, 3.15, 3.15, 3.14, 3.14, 3.13, 3.13, 3.12, 3.12, 3.11, 3.11, 3.1, 3.1, 3.09, 3.09, 3.08, 3.08, 3.07, 2.19, 2.11, 2.04, 2.03, 2.02, 2.02, 2.02, 2.01, 2.01, 2.01, 2.0, 2.0, 3.01, 3.0, 3.0, 2.99, 2.99, 2.98, 2.97, 2.97, 2.96, 2.96, 2.95, 2.95, 2.94, 2.93, 2.93, 2.92, 2.92, 2.91, 2.9, 2.9, 2.89, 2.89, 2.88, 2.87, 2.87, 2.86, 2.85, 2.85, 2.84, 2.83]
38 [0.91, 0.92, 0.93, 0.95, 0.96, 0.98, 0.99, 1.01, 1.02, 1.04, 1.05, 1.07, 1.08, 1.1, 1.12, 1.13, 1.15, 1.17, 1.18, 1.2, 1.22, 1.24, 1.26, 1.28, 1.3, 1.32, 1.34, 1.36, 1.38, 1.4, 1.42, 1.44, 1.47, 1.49, 1.51, 1.54, 1.56, 1.59, 1.62, 1.64, 1.67, 1.7, 1.73, 1.76, 1.79, 1.82, 1.85, 1.88, 1.92, 1.95, 1.99, 2.03, 2.07, 2.11, 2.15, 2.19, 2.23, 2.28, 2.33, 2.37, 2.42, 2.48, 2.53, 2.59, 2.65, 2.71, 2.77, 2.84, 2.91, 2.99, 3.06, 3.14, 3.23, 3.32, 3.36, 3.35, 3.35, 3.34, 3.34, 3.33, 3.33, 3.32, 3.32, 3.31, 3.31, 3.3, 3.3, 3.29, 3.29, 3.28, 3.28, 3.27, 3.27, 3.26, 3.26, 2.58, 2.57, 2.57, 2.57, 2.56, 2.56, 2.56, 2.55, 2.55, 3.21, 3.21, 3.2, 3.2, 3.2, 3.19, 3.19, 3.18, 3.18, 3.17, 3.17, 3.16, 3.16, 3.15, 3.15, 3.14, 3.14, 3.14, 3.13, 3.13, 3.12, 3.12, 3.11, 3.11, 3.1, 3.1, 3.09, 3.09, 3.08, 3.08, 3.07, 3.07, 3.06, 3.06, 3.05, 3.05, 2.2, 2.12, 2.05, 2.0, 2.0, 2.0, 1.99, 1.99, 1.99, 1.98, 1.98, 1.98, 1.97, 2.98, 2.97, 2.97, 2.96, 2.96, 2.95, 2.95, 2.94, 2.94, 2.93, 2.92, 2.92, 2.91, 2.91, 2.9, 2.89, 2.89, 2.88, 2.88, 2.87, 2.86, 2.86, 2.85, 2.84, 2.84, 2.83, 2.82, 2.82, 2.81]
39 [0.91, 0.92, 0.93, 0.95, 0.96, 0.98, 0.99, 1.01, 1.02, 1.04, 1.05, 1.07, 1.08, 1.1, 1.12, 1.13, 1.15, 1.17, 1.19, 1.2, 1.22, 1.24, 1.26, 1.28, 1.3, 1.32, 1.34, 1.36, 1.38, 1.4, 1.42, 1.45, 1.47, 1.49, 1.52, 1.54, 1.57, 1.59, 1.62, 1.64, 1.67, 1.7, 1.73, 1.76, 1.79, 1.82, 1.85, 1.89, 1.92, 1.96, 1.99, 2.03, 2.07, 2.11, 2.15, 2.19, 2.24, 2.28, 2.33, 2.38, 2.43, 2.48, 2.54, 2.6, 2.66, 2.72, 2.78, 2.85, 2.92, 3.0, 3.07, 3.15, 3.24, 3.33, 3.34, 3.34, 3.33, 3.33, 3.32, 3.32, 3.31, 3.31, 3.3, 3.3, 3.29, 3.29, 3.28, 3.28, 3.27, 3.27, 3.26, 3.26, 3.26, 3.25, 3.25, 2.57, 2.56, 2.56, 2.55, 2.55, 2.55, 2.54, 2.54, 2.54, 3.2, 3.2, 3.19, 3.19, 3.18, 3.18, 3.17, 3.17, 3.16, 3.16, 3.16, 3.15, 3.15, 3.14, 3.14, 3.13, 3.13, 3.12, 3.12, 3.11, 3.11, 3.11, 3.1, 3.1, 3.09, 3.09, 3.08, 3.08, 3.07, 3.07, 3.06, 3.06, 3.05, 3.05, 3.04, 3.04, 2.19, 2.11, 2.04, 1.99, 1.99, 1.99, 1.98, 1.98, 1.98, 1.97, 1.97, 1.97, 1.96, 2.97, 2.96, 2.96, 2.95, 2.95, 2.94, 2.94, 2.93, 2.93, 2.92, 2.92, 2.91, 2.9, 2.9, 2.89, 2.89, 2.88, 2.87, 2.87, 2.86, 2.86, 2.85, 2.84, 2.84, 2.83, 2.82, 2.82, 2.81, 2.8]
40 [0.91, 0.92, 0.93, 0.95, 0.96, 0.98, 0.99, 1.01, 1.02, 1.04, 1.05, 1.07, 1.08, 1.1, 1.12, 1.13, 1.15, 1.17, 1.19, 1.2, 1.22, 1.24, 1.26, 1.28, 1.3, 1.32, 1.34, 1.36, 1.38, 1.4, 1.42, 1.45, 1.47, 1.49, 1.52, 1.54, 1.57, 1.59, 1.62, 1.65, 1.67, 1.7, 1.73, 1.76, 1.79, 1.82, 1.86, 1.89, 1.92, 1.96, 1.99, 2.03, 2.07, 2.11, 2.15, 2.2, 2.24, 2.29, 2.33, 2.38, 2.43, 2.49, 2.54, 2.6, 2.66, 2.72, 2.79, 2.85, 2.92, 3.0, 3.08, 3.16, 3.24, 3.34, 3.34, 3.33, 3.33, 3.32, 3.32, 3.32, 3.31, 3.31, 3.3, 3.3, 3.29, 3.29, 3.28, 3.28, 3.27, 3.27, 3.26, 3.26, 3.25, 3.25, 3.24, 2.56, 2.56, 2.56, 2.55, 2.55, 2.55, 2.54, 2.54, 2.54, 3.2, 3.2, 3.19, 3.19, 3.18, 3.18, 3.17, 3.17, 3.16, 3.16, 3.15, 3.15, 3.15, 3.14, 3.14, 3.13, 3.13, 3.12, 3.12, 3.11, 3.11, 3.1, 3.1, 3.1, 3.09, 3.09, 3.08, 3.08, 3.07, 3.07, 3.06, 3.06, 3.05, 3.05, 3.04, 3.04, 2.18, 2.11, 2.04, 1.99, 1.99, 1.98, 1.98, 1.98, 1.97, 1.97, 1.97, 1.96, 1.96, 2.97, 2.96, 2.96, 2.95, 2.95, 2.94, 2.94, 2.93, 2.93, 2.92, 2.92, 2.91, 2.9, 2.9, 2.89, 2.89, 2.88, 2.87, 2.87, 2.86, 2.86, 2.85, 2.84, 2.84, 2.83, 2.82, 2.82, 2.81, 2.8]
41 [0.91, 0.92, 0.93, 0.95, 0.96, 0.98, 0.99, 1.01, 1.02, 1.04, 1.05, 1.07, 1.08, 1.1, 1.12, 1.13, 1.15, 1.17, 1.18, 1.2, 1.22, 1.24, 1.26, 1.28, 1.3, 1.32, 1.34, 1.36, 1.38, 1.4, 1.42, 1.44, 1.47, 1.49, 1.52, 1.54, 1.57, 1.59, 1.62, 1.64, 1.67, 1.7, 1.73, 1.76, 1.79, 1.82, 1.85, 1.89, 1.92, 1.96, 1.99, 2.03, 2.07, 2.11, 2.15, 2.19, 2.24, 2.28, 2.33, 2.38, 2.43, 2.48, 2.54, 2.6, 2.66, 2.72, 2.78, 2.85, 2.92, 3.0, 3.07, 3.15, 3.24, 3.33, 3.34, 3.33, 3.33, 3.32, 3.32, 3.31, 3.31, 3.3, 3.3, 3.29, 3.29, 3.29, 3.28, 3.28, 3.27, 3.27, 3.26, 3.26, 3.25, 3.25, 3.24, 2.56, 2.56, 2.56, 2.55, 2.55, 2.54, 2.54, 2.54, 2.53, 3.2, 3.19, 3.19, 3.18, 3.18, 3.18, 3.17, 3.17, 3.16, 3.16, 3.15, 3.15, 3.14, 3.14, 3.13, 3.13, 3.13, 3.12, 3.12, 3.11, 3.11, 3.1, 3.1, 3.09, 3.09, 3.08, 3.08, 3.08, 3.07, 3.07, 3.06, 3.06, 3.05, 3.05, 3.04, 3.04, 3.03, 2.11, 2.04, 1.99, 1.99, 1.98, 1.98, 1.98, 1.97, 1.97, 1.97, 1.96, 1.96, 2.97, 2.96, 2.96, 2.95, 2.95, 2.94, 2.94, 2.93, 2.92, 2.92, 2.91, 2.91, 2.9, 2.9, 2.89, 2.88, 2.88, 2.87, 2.87, 2.86, 2.85, 2.85, 2.84, 2.83, 2.83, 2.82, 2.82, 2.81, 2.8]
42 [0.9, 0.92, 0.93, 0.94, 0.96, 0.97, 0.99, 1.0, 1.02, 1.03, 1.05, 1.06, 1.08, 1.1, 1.11, 1.13, 1.15, 1.16, 1.18, 1.2, 1.22, 1.23, 1.25, 1.27, 1.29, 1.31, 1.33, 1.35, 1.37, 1.4, 1.42, 1.44, 1.46, 1.49, 1.51, 1.53, 1.56, 1.58, 1.61, 1.64, 1.66, 1.69, 1.72, 1.75, 1.78, 1.81, 1.85, 1.88, 1.91, 1.95, 1.98, 2.02, 2.06, 2.1, 2.14, 2.18, 2.23, 2.27, 2.32, 2.37, 2.42, 2.47, 2.52, 2.58, 2.64, 2.7, 2.77, 2.83, 2.9, 2.98, 3.05, 3.13, 3.22, 3.31, 3.33, 3.32, 3.32, 3.31, 3.31, 3.3, 3.3, 3.29, 3.29, 3.28, 3.28, 3.27, 3.27, 3.27, 3.26, 3.26, 3.25, 3.25, 3.24, 3.24, 3.23, 2.55, 2.55, 2.54, 2.54, 2.54, 2.53, 2.53, 2.53, 2.52, 3.19, 3.18, 3.18, 3.17, 3.17, 3.16, 3.16, 3.16, 3.15, 3.15, 3.14, 3.14, 3.13, 3.13, 3.12, 3.12, 3.11, 3.11, 3.11, 3.1, 3.1, 3.09, 3.09, 3.08, 3.08, 3.07, 3.07, 3.06, 3.06, 3.05, 3.05, 3.04, 3.04, 3.04, 3.03, 3.03, 3.02, 2.13, 2.06, 1.99, 1.97, 1.97, 1.97, 1.96, 1.96, 1.96, 1.95, 1.95, 1.95, 2.96, 2.95, 2.94, 2.94, 2.93, 2.93, 2.92, 2.92, 2.91, 2.91, 2.9, 2.89, 2.89, 2.88, 2.88, 2.87, 2.87, 2.86, 2.85, 2.85, 2.84, 2.83, 2.83, 2.82, 2.82, 2.81, 2.8, 2.8, 2.79]
43 [0.9, 0.92, 0.93, 0.94, 0.96, 0.97, 0.99, 1.0, 1.02, 1.03, 1.05, 1.06, 1.08, 1.1, 1.11, 1.13, 1.15, 1.16, 1.18, 1.2, 1.22, 1.23, 1.25, 1.27, 1.29, 1.31, 1.33, 1.35, 1.37, 1.39, 1.42, 1.44, 1.46, 1.49, 1.51, 1.53, 1.56, 1.58, 1.61, 1.64, 1.66, 1.69, 1.72, 1.75, 1.78, 1.81, 1.84, 1.88, 1.91, 1.95, 1.98, 2.02, 2.06, 2.1, 2.14, 2.18, 2.23, 2.27, 2.32, 2.37, 2.42, 2.47, 2.52, 2.58, 2.64, 2.7, 2.76, 2.83, 2.9, 2.98, 3.05, 3.13, 3.22, 3.31, 3.33, 3.32, 3.32, 3.31, 3.31, 3.3, 3.3, 3.29, 3.29, 3.28, 3.28, 3.27, 3.27, 3.26, 3.26, 3.25, 3.25, 3.25, 3.24, 3.24, 3.23, 2.55, 2.55, 2.54, 2.54, 2.54, 2.53, 2.53, 2.53, 2.52, 3.19, 3.18, 3.18, 3.17, 3.17, 3.16, 3.16, 3.15, 3.15, 3.14, 3.14, 3.14, 3.13, 3.13, 3.12, 3.12, 3.11, 3.11, 3.1, 3.1, 3.09, 3.09, 3.09, 3.08, 3.08, 3.07, 3.07, 3.06, 3.06, 3.05, 3.05, 3.04, 3.04, 3.03, 3.03, 3.02, 3.02, 2.13, 2.06, 1.99, 1.97, 1.97, 1.97, 1.96, 1.96, 1.96, 1.95, 1.95, 1.95, 2.95, 2.95, 2.94, 2.94, 2.93, 2.93, 2.92, 2.92, 2.91, 2.9, 2.9, 2.89, 2.89, 2.88, 2.88, 2.87, 2.86, 2.86, 2.85, 2.85, 2.84, 2.83, 2.83, 2.82, 2.81, 2.81, 2.8, 2.79, 2.79]
44 [0.9, 0.92, 0.93, 0.94, 0.96, 0.97, 0.99, 1.0, 1.02, 1.03, 1.05, 1.06, 1.08, 1.09, 1.11, 1.13, 1.14, 1.16, 1.18, 1.2, 1.21, 1.23, 1.25, 1.27, 1.29, 1.31, 1.33, 1.35, 1.37, 1.39, 1.42, 1.44, 1.46, 1.48, 1.51, 1.53, 1.56, 1.58, 1.61, 1.63, 1.66, 1.69, 1.72, 1.75, 1.78, 1.81, 1.84, 1.88, 1.91, 1.94, 1.98, 2.02, 2.06, 2.1, 2.14, 2.18, 2.22, 2.27, 2.31, 2.36, 2.41, 2.46, 2.52, 2.58, 2.63, 2.7, 2.76, 2.83, 2.9, 2.97, 3.05, 3.13, 3.21, 3.3, 3.33, 3.32, 3.32, 3.31, 3.31, 3.3, 3.3, 3.29, 3.29, 3.28, 3.28, 3.27, 3.27, 3.26, 3.26, 3.25, 3.25, 3.24, 3.24, 3.23, 3.23, 2.55, 2.55, 2.54, 2.54, 2.53, 2.53, 2.53, 2.52, 2.52, 3.18, 3.18, 3.17, 3.17, 3.17, 3.16, 3.16, 3.15, 3.15, 3.14, 3.14, 3.13, 3.13, 3.12, 3.12, 3.12, 3.11, 3.11, 3.1, 3.1, 3.09, 3.09, 3.08, 3.08, 3.07, 3.07, 3.06, 3.06, 3.06, 3.05, 3.05, 3.04, 3.04, 3.03, 3.03, 3.02, 3.02, 2.14, 2.07, 2.0, 1.97, 1.97, 1.96, 1.96, 1.96, 1.95, 1.95, 1.95, 1.94, 1.94, 2.95, 2.94, 2.94, 2.93, 2.92, 2.92, 2.91, 2.91, 2.9, 2.9, 2.89, 2.89, 2.88, 2.87, 2.87, 2.86, 2.86, 2.85, 2.84, 2.84, 2.83, 2.82, 2.82, 2.81, 2.8, 2.8, 2.79, 2.78]
45 [0.9, 0.91, 0.92, 0.94, 0.95, 0.97, 0.98, 1.0, 1.01, 1.03, 1.04, 1.06, 1.07, 1.09, 1.1, 1.12, 1.14, 1.15, 1.17, 1.19, 1.21, 1.23, 1.24, 1.26, 1.28, 1.3, 1.32, 1.34, 1.36, 1.38, 1.41, 1.43, 1.45, 1.47, 1.5, 1.52, 1.55, 1.57, 1.6, 1.62, 1.65, 1.68, 1.71, 1.74, 1.77, 1.8, 1.83, 1.86, 1.89, 1.93, 1.96, 2.0, 2.04, 2.08, 2.12, 2.16, 2.2, 2.25, 2.29, 2.34, 2.39, 2.44, 2.49, 2.55, 2.61, 2.67, 2.73, 2.79, 2.86, 2.93, 3.01, 3.09, 3.17, 3.26, 3.31, 3.31, 3.3, 3.3, 3.29, 3.29, 3.28, 3.28, 3.27, 3.27, 3.26, 3.26, 3.25, 3.25, 3.24, 3.24, 3.24, 3.23, 3.23, 3.22, 3.22, 2.53, 2.53, 2.53, 2.52, 2.52, 2.52, 2.51, 2.51, 2.51, 2.54, 3.17, 3.16, 3.16, 3.15, 3.15, 3.14, 3.14, 3.13, 3.13, 3.12, 3.12, 3.11, 3.11, 3.11, 3.1, 3.1, 3.09, 3.09, 3.08, 3.08, 3.07, 3.07, 3.06, 3.06, 3.05, 3.05, 3.04, 3.04, 3.03, 3.03, 3.02, 3.02, 3.01, 3.01, 3.01, 3.0, 3.0, 2.1, 2.03, 1.96, 1.95, 1.95, 1.95, 1.94, 1.94, 1.94, 1.93, 1.93, 1.92, 2.93, 2.92, 2.92, 2.91, 2.91, 2.9, 2.9, 2.89, 2.88, 2.88, 2.87, 2.87, 2.86, 2.85, 2.85, 2.84, 2.84, 2.83, 2.82, 2.82, 2.81, 2.81, 2.8, 2.79, 2.79, 2.78, 2.77, 2.76]
46 [0.89, 0.9, 0.92, 0.93, 0.95, 0.96, 0.97, 0.99, 1.0, 1.02, 1.03, 1.05, 1.06, 1.08, 1.1, 1.11, 1.13, 1.15, 1.16, 1.18, 1.2, 1.22, 1.23, 1.25, 1.27, 1.29, 1.31, 1.33, 1.35, 1.37, 1.39, 1.41, 1.44, 1.46, 1.48, 1.51, 1.53, 1.56, 1.58, 1.61, 1.63, 1.66, 1.69, 1.72, 1.75, 1.78, 1.81, 1.84, 1.87, 1.91, 1.94, 1.98, 2.01, 2.05, 2.09, 2.13, 2.17, 2.22, 2.26, 2.31, 2.36, 2.41, 2.46, 2.51, 2.57, 2.63, 2.69, 2.75, 2.82, 2.89, 2.96, 3.04, 3.12, 3.2, 3.29, 3.29, 3.28, 3.28, 3.27, 3.27, 3.26, 3.26, 3.25, 3.25, 3.24, 3.24, 3.23, 3.23, 3.22, 3.22, 3.21, 3.21, 3.2, 3.2, 3.19, 3.19, 2.51, 2.5, 2.5, 2.49, 2.49, 2.49, 2.48, 2.48, 2.48, 3.14, 3.13, 3.13, 3.13, 3.12, 3.12, 3.11, 3.11, 3.1, 3.1, 3.09, 3.09, 3.08, 3.08, 3.07, 3.07, 3.06, 3.06, 3.05, 3.05, 3.05, 3.04, 3.04, 3.03, 3.03, 3.02, 3.02, 3.01, 3.01, 3.0, 3.0, 2.99, 2.99, 2.98, 2.98, 2.97, 2.97, 2.96, 2.07, 2.0, 1.94, 1.92, 1.92, 1.91, 1.91, 1.91, 1.9, 1.9, 1.9, 1.89, 1.89, 2.89, 2.88, 2.88, 2.87, 2.87, 2.86, 2.85, 2.85, 2.84, 2.84, 2.83, 2.83, 2.82, 2.81, 2.81, 2.8, 2.79, 2.79, 2.78, 2.77, 2.77, 2.76, 2.75, 2.75, 2.74, 2.73]
47 [0.89, 0.9, 0.92, 0.93, 0.94, 0.96, 0.97, 0.99, 1.0, 1.01, 1.03, 1.04, 1.06, 1.08, 1.09, 1.11, 1.12, 1.14, 1.16, 1.18, 1.19, 1.21, 1.23, 1.25, 1.27, 1.29, 1.31, 1.32, 1.35, 1.37, 1.39, 1.41, 1.43, 1.45, 1.48, 1.5, 1.52, 1.55, 1.57, 1.6, 1.63, 1.65, 1.68, 1.71, 1.74, 1.77, 1.8, 1.83, 1.86, 1.9, 1.93, 1.97, 2.0, 2.04, 2.08, 2.12, 2.16, 2.21, 2.25, 2.3, 2.35, 2.39, 2.45, 2.5, 2.56, 2.61, 2.67, 2.74, 2.8, 2.87, 2.95, 3.02, 3.1, 3.18, 3.27, 3.27, 3.27, 3.26, 3.26, 3.25, 3.25, 3.24, 3.24, 3.23, 3.23, 3.22, 3.22, 3.21, 3.21, 3.2, 3.2, 3.19, 3.19, 3.18, 3.18, 3.17, 2.49, 2.49, 2.48, 2.48, 2.48, 2.47, 2.47, 2.47, 2.46, 2.56, 3.12, 3.12, 3.11, 3.11, 3.1, 3.1, 3.09, 3.09, 3.08, 3.08, 3.07, 3.07, 3.06, 3.06, 3.05, 3.05, 3.05, 3.04, 3.04, 3.03, 3.03, 3.02, 3.02, 3.01, 3.01, 3.0, 3.0, 2.99, 2.99, 2.98, 2.98, 2.97, 2.97, 2.96, 2.96, 2.95, 2.95, 2.09, 2.02, 1.95, 1.91, 1.9, 1.9, 1.9, 1.89, 1.89, 1.89, 1.88, 1.88, 1.88, 2.87, 2.87, 2.86, 2.86, 2.85, 2.85, 2.84, 2.83, 2.83, 2.82, 2.82, 2.81, 2.8, 2.8, 2.79, 2.79, 2.78, 2.77, 2.77, 2.76, 2.75, 2.75, 2.74, 2.73, 2.73, 2.72]
48 [0.89, 0.9, 0.91, 0.93, 0.94, 0.96, 0.97, 0.99, 1.0, 1.01, 1.03, 1.04, 1.06, 1.08, 1.09, 1.11, 1.12, 1.14, 1.16, 1.18, 1.19, 1.21, 1.23, 1.25, 1.27, 1.29, 1.3, 1.32, 1.35, 1.37, 1.39, 1.41, 1.43, 1.45, 1.48, 1.5, 1.52, 1.55, 1.57, 1.6, 1.63, 1.65, 1.68, 1.71, 1.74, 1.77, 1.8, 1.83, 1.86, 1.9, 1.93, 1.97, 2.0, 2.04, 2.08, 2.12, 2.16, 2.21, 2.25, 2.3, 2.34, 2.39, 2.45, 2.5, 2.56, 2.61, 2.67, 2.74, 2.8, 2.87, 2.94, 3.02, 3.1, 3.18, 3.27, 3.27, 3.27, 3.26, 3.26, 3.25, 3.25, 3.24, 3.23, 3.23, 3.22, 3.22, 3.22, 3.21, 3.21, 3.2, 3.2, 3.19, 3.19, 3.18, 3.18, 3.17, 2.49, 2.49, 2.48, 2.48, 2.48, 2.47, 2.47, 2.46, 2.46, 2.56, 3.12, 3.11, 3.11, 3.1, 3.1, 3.1, 3.09, 3.09, 3.08, 3.08, 3.07, 3.07, 3.06, 3.06, 3.05, 3.05, 3.04, 3.04, 3.03, 3.03, 3.02, 3.02, 3.01, 3.01, 3.01, 3.0, 3.0, 2.99, 2.99, 2.98, 2.98, 2.97, 2.97, 2.96, 2.96, 2.95, 2.95, 2.09, 2.02, 1.95, 1.91, 1.9, 1.9, 1.9, 1.89, 1.89, 1.89, 1.88, 1.88, 1.87, 2.87, 2.87, 2.86, 2.86, 2.85, 2.84, 2.84, 2.83, 2.83, 2.82, 2.81, 2.81, 2.8, 2.8, 2.79, 2.78, 2.78, 2.77, 2.76, 2.76, 2.75, 2.74, 2.74, 2.73, 2.72, 2.72]
49 [0.89, 0.9, 0.91, 0.93, 0.94, 0.96, 0.97, 0.98, 1.0, 1.01, 1.03, 1.04, 1.06, 1.07, 1.09, 1.11, 1.12, 1.14, 1.16, 1.17, 1.19, 1.21, 1.23, 1.25, 1.26, 1.28, 1.3, 1.32, 1.34, 1.36, 1.38, 1.41, 1.43, 1.45, 1.47, 1.5, 1.52, 1.55, 1.57, 1.6, 1.62, 1.65, 1.68, 1.71, 1.74, 1.77, 1.8, 1.83, 1.86, 1.89, 1.93, 1.96, 2.0, 2.04, 2.08, 2.12, 2.16, 2.2, 2.25, 2.29, 2.34, 2.39, 2.44, 2.49, 2.55, 2.61, 2.67, 2.73, 2.8, 2.86, 2.94, 3.01, 3.09, 3.17, 3.26, 3.27, 3.26, 3.26, 3.25, 3.25, 3.24, 3.24, 3.23, 3.23, 3.22, 3.22, 3.21, 3.21, 3.2, 3.2, 3.19, 3.19, 3.18, 3.18, 3.17, 3.17, 2.49, 2.49, 2.48, 2.48, 2.47, 2.47, 2.47, 2.46, 2.46, 2.51, 3.12, 3.11, 3.11, 3.1, 3.1, 3.09, 3.09, 3.08, 3.08, 3.07, 3.07, 3.07, 3.06, 3.06, 3.05, 3.05, 3.04, 3.04, 3.03, 3.03, 3.02, 3.02, 3.01, 3.01, 3.0, 3.0, 2.99, 2.99, 2.98, 2.98, 2.97, 2.97, 2.96, 2.96, 2.95, 2.95, 2.94, 2.1, 2.03, 1.96, 1.9, 1.9, 1.9, 1.89, 1.89, 1.89, 1.88, 1.88, 1.88, 1.87, 2.87, 2.86, 2.86, 2.85, 2.85, 2.84, 2.84, 2.83, 2.82, 2.82, 2.81, 2.81, 2.8, 2.79, 2.79, 2.78, 2.77, 2.77, 2.76, 2.76, 2.75, 2.74, 2.74, 2.73, 2.72, 2.71]
