0 -3.1415925
0 -3.1415925
0 -3.1415925
0 3.1415925
0 -0.0
0 -0.0
0 -0.0
0 -0.0
0 -0.0
1 -3.1415925
1 -3.1415925
1 -3.1415925
1 3.1415925
1 -0.0
1 -0.0
1 -0.0
1 -0.0
1 -0.0
2 -3.1415925
2 -3.1415925
2 -3.1415925
2 3.1415925
2 -0.0
2 -0.0
2 -0.0
2 -0.0
2 -0.0
3 -3.1415925
3 -3.1415925
3 -3.1415925
3 3.1415925
3 -0.0
3 -0.0
3 -0.0
3 -0.0
3 -0.0
4 -3.1415925
4 -3.1415925
4 -3.1415925
4 3.1415925
4 -0.0
4 -0.0
4 -0.0
4 -0.0
4 -0.0
5 -3.1415925
5 -3.1415925
5 -3.1415925
5 3.1415925
5 -0.0
5 -0.0
5 -0.0
5 -0.0
5 -0.0
6 -3.1415925
6 -3.1415925
6 -3.1415925
6 3.1415925
6 -0.0
6 -0.0
6 -0.0
6 -0.0
6 -0.0
7 -3.1415925
7 -3.1415925
7 -3.1415925
7 3.1415925
7 -0.0
7 -0.0
7 -0.0
7 -0.0
7 -0.0
8 -3.1415925
8 -3.1415925
8 -3.1415925
8 3.1415925
8 -0.0
8 -0.0
8 -0.0
8 -0.0
8 -0.0
9 -3.1415925
9 -3.1415925
9 -3.1415925
9 3.1415925
9 -0.0
9 -0.0
9 -0.0
9 -0.0
9 -0.0
10 -3.1415925
10 -3.1415925
10 -3.1415925
10 3.1415925
10 -0.0
10 -0.0
10 -0.0
10 -0.0
10 -0.0
11 -3.1415925
11 -3.1415925
11 -3.1415925
11 3.1415925
11 -0.0
11 -0.0
11 -0.0
11 -0.0
11 -0.0
12 -3.1415925
12 -3.1415925
12 -3.1415925
12 3.1415925
12 -0.0
12 -0.0
12 -0.0
12 -0.0
12 -0.0
13 -3.1415925
13 -3.1415925
13 -3.1415925
13 3.1415925
13 -0.0
13 -0.0
13 -0.0
13 -0.0
13 -0.0
14 -3.1415925
14 -3.1415925
14 -3.1415925
14 3.1415925
14 -0.0
14 -0.0
14 -0.0
14 -0.0
14 -0.0
15 -3.1415925
15 -3.1415925
15 -3.1415925
15 3.1415925
15 -0.0
15 -0.0
15 -0.0
15 -0.0
15 -0.0
16 -3.1415925
16 -3.1415925
16 -3.1415925
16 3.1415925
16 -0.0
16 -0.0
16 -0.0
16 -0.0
16 -0.0
17 3.134978
17 3.1329947
17 3.1284802
17 3.1045918
17 0.039213974
17 0.013347542
17 0.008672125
17 0.006614587
17 0.00512552
18 3.134978
18 3.1329947
18 3.1284802
18 3.1045918
18 0.039213974
18 0.013347542
18 0.008672125
18 0.006614587
18 0.00512552
19 3.127543
19 3.1235008
19 3.1142719
19 3.067685
19 0.08896329
19 0.02891456
19 0.018595885
19 0.01404965
19 0.016368639
20 3.1294124
20 3.1261203
20 3.118552
20 3.0825827
20 0.08612824
20 0.025838392
20 0.016355006
20 0.012180353
20 0.03304555
21 3.1304867
21 3.127735
21 3.121318
21 3.0929163
21 0.09287038
21 0.024561448
21 0.015204391
21 0.011105893
21 0.055163436
22 3.12985
22 3.1272638
22 3.1210706
22 3.0957172
22 0.12778082
22 0.027457682
22 0.0164877
22 0.011742823
22 0.08329688
23 3.12985
23 3.1272638
23 3.1210706
23 3.0957172
23 0.12778082
23 0.027457682
23 0.0164877
23 0.011742823
23 0.08329688
24 3.1299622
24 3.1276915
24 3.1220572
24 3.1003954
24 0.17704217
24 0.028757736
24 0.016736176
24 0.011630601
24 0.10984755
25 3.131125
25 3.1292653
25 3.1244948
25 3.1068754
25 0.22501418
25 0.027017951
25 0.015342297
25 0.010467767
25 0.12914294
26 3.13061
26 3.1287785
26 3.123962
26 3.1065824
26 0.3164024
26 0.029153304
26 0.016287245
26 0.010982733
26 0.14129879
27 3.1309254
27 3.129206
27 3.1246195
27 3.108259
27 0.37365386
27 0.028742861
27 0.015917806
27 0.010667402
27 0.14760314
28 3.1309254
28 3.129206
28 3.1246195
28 3.108259
28 0.37365386
28 0.028742861
28 0.015917806
28 0.010667402
28 0.14760314
29 3.131197
29 3.1295428
29 3.1251063
29 3.1093466
29 0.3965952
29 0.02817068
29 0.015548702
29 0.010395637
29 0.14997154
30 3.131197
30 3.1295428
30 3.1251063
30 3.1093466
30 0.3965952
30 0.02817068
30 0.015548702
30 0.010395637
30 0.14997154
31 3.1302783
31 3.1284826
31 3.1236603
31 3.1065447
31 0.43392923
31 0.03068797
31 0.016929025
31 0.01131448
31 0.14860056
32 3.1308684
32 3.1291099
32 3.1244528
32 3.1077454
32 0.33928448
32 0.028679697
32 0.015953057
32 0.010724314
32 0.14444225
33 3.1308684
33 3.1291099
33 3.1244528
33 3.1077454
33 0.33928448
33 0.028679697
33 0.015953057
33 0.010724314
33 0.14444225
34 3.1312604
34 3.1295094
34 3.1249347
34 3.1083329
34 0.27533463
34 0.027235473
34 0.01527814
34 0.010332217
34 0.1382817
35 3.131815
35 3.130094
35 3.1256642
35 3.1093626
35 0.21941893
35 0.025347447
35 0.014357517
35 0.009777716
35 0.13102707
36 3.1327507
36 3.1311178
36 3.1269891
36 3.1114993
36 0.16414267
36 0.02243471
36 0.012866101
36 0.008841933
36 0.121490724
37 3.1350472
37 3.133747
37 3.1305413
37 3.1181202
37 0.095574446
37 0.016076358
37 0.009392567
37 0.0065455446
37 0.106548205
38 3.1383367
38 3.1376383
38 3.1359577
38 3.1291907
38 0.038560715
38 0.007731199
38 0.0046048686
38 0.003256082
38 0.09029071
39 -3.1415615
39 -3.1415577
39 -3.1415422
39 -3.1414773
39 -2.8133838E-4
39 -6.5065105E-5
39 -3.9495997E-5
39 -3.1149088E-5
39 0.073408894
40 -3.1395264
40 -3.1390226
40 -3.1378396
40 -3.132637
40 -0.017663086
40 -0.0045862906
40 -0.002831265
40 -0.002066105
40 0.057619337
41 -3.1395264
41 -3.1390226
41 -3.1378396
41 -3.132637
41 -0.017663086
41 -0.0045862906
41 -0.002831265
41 -0.002066105
41 0.057619337
42 -3.1390336
42 -3.138369
42 -3.1368284
42 -3.1297262
42 -0.019402208
42 -0.0055209976
42 -0.0034619907
42 -0.002558968
42 0.042472687
43 -3.1400568
43 -3.1396348
43 -3.138664
43 -3.1339583
43 -0.0104912715
43 -0.0032245438
43 -0.002051259
43 -0.001535772
43 0.027773788
44 3.140508
44 3.1401958
44 3.1394844
44 3.1358945
44 0.006922591
44 0.0022373765
44 0.0014377037
44 0.0010848471
44 0.017112061
45 3.140508
45 3.1401958
45 3.1394844
45 3.1358945
45 0.006922591
45 0.0022373765
45 0.0014377037
45 0.0010848471
45 0.017112061
46 3.1373432
46 3.1361127
46 3.1333058
46 3.11902
46 0.026716147
46 0.008724043
46 0.005618096
46 0.004249561
46 0.01482986
47 3.1373432
47 3.1361127
47 3.1333058
47 3.11902
47 0.026716147
47 0.008724043
47 0.005618096
47 0.004249561
47 0.01482986
48 3.1343153
48 3.1308193
48 3.1253076
48 3.0973287
48 0.052668728
48 0.017172582
48 0.011053974
48 0.008358588
48 0.0153129585
49 3.1332343
49 3.1308193
49 3.1253076
49 3.0973287
49 0.052668728
49 0.017172582
49 0.011053974
49 0.008358588
49 0.0153129585
