0 [1.0, 1.0, 1.0, 1.0, 1.0, 1.0, 1.0, 1.0]
1 [1.0, 1.0, 1.0, 1.0, 1.0, 1.0, 1.0, 1.0]
2 [1.0, 1.0, 1.0, 1.0, 1.0, 1.0, 1.0, 1.0]
3 [1.0, 1.0, 1.0, 1.0, 1.0, 1.0, 1.0, 1.0]
4 [1.0, 1.0, 1.0, 1.0, 1.0, 1.0, 1.0, 1.0]
5 [1.0, 1.0, 1.0, 1.0, 1.0, 1.0, 1.0, 1.0]
6 [1.0, 1.0, 1.0, 1.0, 1.0, 1.0, 1.0, 1.0]
7 [1.0, 1.0, 1.0, 1.0, 1.0, 1.0, 1.0, 1.0]
8 [1.0, 1.0, 1.0, 1.0, 1.0, 1.0, 1.0, 1.0]
9 [1.0, 1.0, 1.0, 1.0, 1.0, 1.0, 1.0, 1.0]
10 [1.0, 1.0, 1.0, 1.0, 1.0, 1.0, 1.0, 1.0]
11 [1.0, 1.0, 1.0, 1.0, 1.0, 1.0, 1.0, 1.0]
12 [1.0, 1.0, 1.0, 1.0, 1.0, 1.0, 1.0, 1.0]
13 [1.0, 1.0, 1.0, 1.0, 1.0, 1.0, 1.0, 1.0]
14 [1.0, 1.0, 1.0, 1.0, 1.0, 1.0, 1.0, 1.0]
15 [1.0, 1.0, 1.0, 1.0, 1.0, 1.0, 1.0, 1.0]
16 [1.0, 1.0, 1.0, 1.0, 1.0, 1.0, 1.0, 1.0]
17 [1.6084061, 1.0823388, 1.0002041, 1.0, 1.0, 1.0, 1.0, 1.0]
18 [1.4630189, 1.0626628, 1.0001553, 1.0, 1.0, 1.0, 1.0, 1.0]
19 [1.3499103, 1.0473552, 1.000348, 1.0930128, 1.6872768, 1.0930128, 1.0002306, 1.0]
20 [1.2366904, 1.0320326, 1.0002629, 1.0740091, 1.5468571, 1.0740091, 1.0001835, 1.0]
21 [1.1785297, 1.0241613, 1.0001988, 1.0560584, 1.4142191, 1.0561558, 1.0394498, 1.2904694]
22 [0.95621693, 0.9940746, 1.0000902, 1.0422975, 1.3125383, 1.0425272, 1.0927749, 1.6847432]
23 [0.47283548, 0.92865604, 0.9998789, 1.0224829, 1.1661274, 1.0226121, 1.0521767, 1.3851252]
24 [0.6003877, 0.9459184, 0.9997132, 0.9383714, 0.5446231, 0.93846905, 1.0392462, 1.2911214]
25 [0.6979072, 0.95911616, 0.99967307, 0.90899396, 0.3275512, 0.90906775, 1.029552, 1.2200278]
26 [0.771907, 0.969131, 0.999838, 0.96552545, 0.74526536, 0.9655812, 1.0223974, 1.1661274]
27 [0.82761073, 0.97666967, 1.0000383, 1.0387486, 1.2863159, 1.0385959, 0.9384675, 0.5446231]
28 [0.869711, 0.9823673, 1.0000386, 1.0332264, 1.2455113, 1.0330007, 0.90907633, 0.3275512]
29 [0.9016281, 0.9866868, 1.0000298, 1.0253264, 1.1871383, 1.0251493, 0.92864954, 0.47232354]
30 [0.9256521, 0.9899381, 1.0000225, 1.0191557, 1.1415427, 1.0190215, 0.9459119, 0.5999888]
31 [0.94386524, 0.992403, 1.000017, 1.014464, 1.1068752, 1.0143627, 0.95915204, 0.6979072]
32 [0.95757425, 0.9942583, 1.0000129, 1.0109317, 1.0807749, 1.0108551, 0.9691272, 0.77167875]
33 [0.9679353, 0.99566054, 1.0000098, 1.008262, 1.0610484, 1.0082041, 0.97666675, 0.82743824]
34 [0.97579026, 0.9967236, 0.99973994, 0.89834094, 0.24883538, 0.89829725, 0.9821153, 0.869711]
35 [1.0, 1.0, 0.9998098, 0.923268, 0.43302292, 0.923235, 0.9864966, 0.9016281]
36 [1.0, 1.0, 0.9998447, 0.9373234, 0.53687894, 0.9372985, 0.98978275, 0.9256521]
37 [1.0, 1.0, 0.999897, 0.9584683, 0.6931199, 0.9584518, 0.9932328, 0.95075756]
38 [1.0, 1.0, 0.9999276, 0.9707829, 0.78411317, 0.9707829, 0.9999276, 1.0]
39 [1.0, 1.0, 0.9999453, 0.97791815, 0.8368361, 0.97790873, 0.99613863, 0.97187227]
40 [1.0, 1.0, 0.9999587, 0.98332757, 0.8768066, 0.9833204, 0.99708456, 0.9787628]
41 [1.0, 1.0, 1.0, 1.0, 1.0, 1.0, 1.0, 1.0]
42 [1.0, 1.0, 0.9999764, 0.9904861, 0.92970115, 0.9904861, 0.9999764, 1.0]
43 [1.0, 1.0, 0.9999858, 0.99428123, 0.95774364, 0.99428123, 0.9999858, 1.0]
44 [1.0, 1.0, 0.9999893, 0.9956778, 0.9680633, 0.9956778, 0.9999893, 1.0]
45 [1.0, 1.0, 0.9999919, 0.99673665, 0.9758869, 0.99673665, 0.9999919, 1.0]
46 [1.0, 1.0, 1.0, 1.0, 1.0, 1.0, 1.0, 1.0]
47 [1.0, 1.0, 1.0, 1.0, 1.0, 1.0, 1.0, 1.0]
48 [1.0, 1.0, 1.0, 1.0, 1.0, 1.0, 1.0, 1.0]
49 [1.0, 1.0, 1.0, 1.0, 1.0, 1.0, 1.0, 1.0]
