0 1.5707964
0 2.3182098E-7
0 2.4088934E-7
0 9.078623E-8
0 -0.0
0 -2.0647656E-7
0 -9.272836E-8
0 -1.5707964
0 -1.5707968
1 1.5707964
1 2.3182098E-7
1 2.4088934E-7
1 9.078623E-8
1 -0.0
1 -2.0647656E-7
1 -9.272836E-8
1 -1.5707964
1 -1.5707968
2 1.5707964
2 2.3182098E-7
2 2.4088934E-7
2 9.078623E-8
2 -0.0
2 -2.0647656E-7
2 -9.272836E-8
2 -1.5707964
2 -1.5707968
3 1.5707964
3 2.3182098E-7
3 2.4088934E-7
3 9.078623E-8
3 -0.0
3 -2.0647656E-7
3 -9.272836E-8
3 -1.5707964
3 -1.5707968
4 1.5707964
4 2.3182098E-7
4 2.4088934E-7
4 9.078623E-8
4 -0.0
4 -2.0647656E-7
4 -9.272836E-8
4 -1.5707964
4 -1.5707968
5 1.5707964
5 2.3182098E-7
5 2.4088934E-7
5 9.078623E-8
5 -0.0
5 -2.0647656E-7
5 -9.272836E-8
5 -1.5707964
5 -1.5707968
6 1.5707964
6 2.3182098E-7
6 2.4088934E-7
6 9.078623E-8
6 -0.0
6 -2.0647656E-7
6 -9.272836E-8
6 -1.5707964
6 -1.5707968
7 1.5707964
7 2.3182098E-7
7 2.4088934E-7
7 9.078623E-8
7 -0.0
7 -2.0647656E-7
7 -9.272836E-8
7 -1.5707964
7 -1.5707968
8 1.5707964
8 2.3182098E-7
8 2.4088934E-7
8 9.078623E-8
8 -0.0
8 -2.0647656E-7
8 -9.272836E-8
8 -1.5707964
8 -1.5707968
9 1.5707964
9 2.3182098E-7
9 2.4088934E-7
9 9.078623E-8
9 -0.0
9 -2.0647656E-7
9 -9.272836E-8
9 -1.5707964
9 -1.5707968
10 1.5707964
10 2.3182098E-7
10 2.4088934E-7
10 9.078623E-8
10 -0.0
10 -2.0647656E-7
10 -9.272836E-8
10 -1.5707964
10 -1.5707968
11 1.5707964
11 2.3182098E-7
11 2.4088934E-7
11 9.078623E-8
11 -0.0
11 -2.0647656E-7
11 -9.272836E-8
11 -1.5707964
11 -1.5707968
12 -3.1371052
12 -9.1969945E-5
12 -6.798686E-5
12 -5.986559E-5
12 -5.9777038E-5
12 -6.803109E-5
12 -9.135984E-5
12 -0.004445089
12 -1.565882
13 -3.1371052
13 -9.1969945E-5
13 -6.798686E-5
13 -5.986559E-5
13 -5.9777038E-5
13 -6.803109E-5
13 -9.135984E-5
13 -0.004445089
13 -1.565882
14 -3.1371052
14 -9.1969945E-5
14 -6.798686E-5
14 -5.986559E-5
14 -5.9777038E-5
14 -6.803109E-5
14 -9.135984E-5
14 -0.004445089
14 -1.565882
15 3.1329577
15 1.5635935E-4
15 1.1509972E-4
15 1.0038919E-4
15 9.974514E-5
15 1.1245493E-4
15 1.5035059E-4
15 0.008650204
15 -1.55512
16 3.1327941
16 4.212137E-4
16 3.0617364E-4
16 2.6546154E-4
16 2.6218165E-4
16 2.940284E-4
16 3.8827845E-4
16 0.008803907
16 -1.5371021
17 3.1309524
17 9.393535E-4
17 6.7242695E-4
17 5.776726E-4
17 5.6619453E-4
17 6.295452E-4
17 8.2076044E-4
17 0.010644091
17 -1.514474
18 3.131002
18 0.001323925
18 9.343691E-4
18 7.959879E-4
18 7.74691E-4
18 8.5481146E-4
18 0.001102353
18 0.010592653
18 -1.4944457
19 3.1306734
19 0.0016478748
19 0.001151903
19 9.756494E-4
19 9.4507635E-4
19 0.0010376154
19 0.0013283371
19 0.010922135
19 -1.4810799
20 3.1306734
20 0.0016478748
20 0.001151903
20 9.756494E-4
20 9.4507635E-4
20 0.0010376154
20 0.0013283371
20 0.010922135
20 -1.4810799
21 3.1306734
21 0.0016478748
21 0.001151903
21 9.756494E-4
21 9.4507635E-4
21 0.0010376154
21 0.0013283371
21 0.010922135
21 -1.4810799
22 3.1296618
22 0.0020807958
22 0.0014420766
22 0.0012154186
22 0.0011725302
22 0.0012817398
22 0.0016310142
22 0.0119334115
22 -1.4695389
23 3.13044
23 0.0021215384
23 0.0014615475
23 0.0012275862
23 0.0011809329
23 0.0012871756
23 0.0016310891
23 0.011154668
23 -1.4616387
24 3.129693
24 0.0023519727
24 0.0016161669
24 0.0013554164
24 0.0013023005
24 0.0014177342
24 0.001793483
24 0.011901179
24 -1.4582555
25 3.1299055
25 0.002314991
25 0.0015903774
25 0.001333592
25 0.00128125
25 0.0013946788
25 0.0017639099
25 0.011689113
25 -1.4580059
26 3.1316571
26 0.001819208
26 0.0012562424
26 0.0010565963
26 0.0010175117
26 0.0011102915
26 0.0014092948
26 0.009937431
26 -1.4647424
27 3.131856
27 0.0014551213
27 0.0010174504
27 8.6200895E-4
27 8.3507545E-4
27 9.1704715E-4
27 0.0011742138
27 0.009739041
27 -1.4814482
28 3.131856
28 0.0014551213
28 0.0010174504
28 8.6200895E-4
28 8.3507545E-4
28 9.1704715E-4
28 0.0011742138
28 0.009739041
28 -1.4814482
29 3.1322656
29 0.0010170367
29 7.219218E-4
29 6.1708124E-4
29 6.023049E-4
29 6.667015E-4
29 8.6342247E-4
29 0.009329305
29 -1.5025846
30 3.1331143
30 5.272351E-4
30 3.8087345E-4
30 3.291445E-4
30 3.2414554E-4
30 3.6228553E-4
30 4.762118E-4
30 0.008484537
30 -1.528543
31 3.140273
31 -4.5567445E-5
31 -3.349319E-5
31 -2.9558973E-5
31 -2.960433E-5
31 -3.3783912E-5
31 -4.5263627E-5
31 0.0013656565
31 -1.5649915
32 -0.011032712
32 -7.195398E-4
32 -5.469813E-4
32 -4.888754E-4
32 -4.960416E-4
32 -5.736346E-4
32 -7.92925E-4
32 -3.1305637
32 -1.6113844
33 -0.011032712
33 -7.195398E-4
33 -5.469813E-4
33 -4.888754E-4
33 -4.960416E-4
33 -5.736346E-4
33 -7.92925E-4
33 -3.1305637
33 -1.6113844
34 -0.009050845
34 -0.0012203667
34 -9.544045E-4
34 -8.6995406E-4
34 -8.9880393E-4
34 -0.0010621828
34 -0.0015218575
34 -3.132544
34 -1.6626629
35 -0.009050845
35 -0.0012203667
35 -9.544045E-4
35 -8.6995406E-4
35 -8.9880393E-4
35 -0.0010621828
35 -0.0015218575
35 -3.132544
35 -1.6626629
36 -0.008208951
36 -0.0015925838
36 -0.0012769033
36 -0.0011850655
36 -0.0012456556
36 -0.0015041103
36 -0.002237769
36 -3.1333847
36 -1.7110841
37 -0.008208951
37 -0.0015925838
37 -0.0012769033
37 -0.0011850655
37 -0.0012456556
37 -0.0015041103
37 -0.002237769
37 -3.1333847
37 -1.7110841
38 -0.007402535
38 -0.0018329168
38 -0.0015037454
38 -0.001420101
38 -0.0015187876
38 -0.0018753129
38 -0.0029086673
38 -3.134191
38 -1.7588288
39 -0.007402535
39 -0.0018329168
39 -0.0015037454
39 -0.001420101
39 -0.0015187876
39 -0.0018753129
39 -0.0029086673
39 -3.134191
39 -1.7588288
40 -0.0054760533
40 -0.0016468767
40 -0.0013820584
40 -0.0013288085
40 -0.0014476159
40 -0.0018323842
40 -0.002985912
40 -3.1361175
40 -1.8086663
41 -0.0054760533
41 -0.0016468767
41 -0.0013820584
41 -0.0013288085
41 -0.0014476159
41 -0.0018323842
41 -0.002985912
41 -3.1361175
41 -1.8086663
42 -0.003369013
42 -0.0011780198
42 -0.0010085977
42 -9.859352E-4
42 -0.0010930733
42 -0.001418423
42 -0.0024368754
42 -3.1382241
42 -1.8549979
43 -0.003369013
43 -0.0011780198
43 -0.0010085977
43 -9.859352E-4
43 -0.0010930733
43 -0.001418423
43 -0.0024368754
43 -3.1382241
43 -1.8549979
44 -0.002052577
44 -8.031385E-4
44 -6.9854455E-4
44 -6.920694E-4
44 -7.786603E-4
44 -0.0010325103
44 -0.0018641343
44 -3.1395404
44 -1.8927828
45 -0.002052577
45 -8.031385E-4
45 -6.9854455E-4
45 -6.920694E-4
45 -7.786603E-4
45 -0.0010325103
45 -0.0018641343
45 -3.1395404
45 -1.8927828
46 -8.26218E-4
46 -3.674479E-4
46 -3.2335467E-4
46 -3.2372537E-4
46 -3.6852315E-4
46 -4.974232E-4
46 -9.3696057E-4
46 -3.1407669
46 -1.9217854
47 -8.26218E-4
47 -3.674479E-4
47 -3.2335467E-4
47 -3.2372537E-4
47 -3.6852315E-4
47 -4.974232E-4
47 -9.3696057E-4
47 -3.1407669
47 -1.9217854
48 -9.725946E-4
48 -4.4559542E-4
48 -3.9609006E-4
48 -4.001315E-4
48 -4.602255E-4
48 -6.311026E-4
48 -0.001241076
48 -3.1406205
48 -1.947402
49 1.7617541E-4
49 3.9614715E-5
49 3.5617864E-5
49 3.620692E-5
49 4.1982767E-5
49 5.8431524E-5
49 1.208189E-4
49 3.141416
49 -1.9740984
