0 [0.0, 0.0, 0.0, 0.0, 0.0, 0.0, 0.0, 0.0]
1 [0.0, 0.0, 0.0, 0.0, 0.0, 0.0, 0.0, 0.0]
2 [0.0, 0.0, 0.0, 0.0, 0.0, 0.0, 0.0, 0.0]
3 [0.0, 0.0, 0.0, 0.0, 0.0, 0.0, 0.0, 0.0]
4 [0.0, 0.0, 0.0, 0.0, 0.0, 0.0, 0.0, 0.0]
5 [0.0, 0.0, 0.0, 0.0, 0.0, 0.0, 0.0, 0.0]
6 [0.0, 0.0, 0.0, 0.0, 0.0, 0.0, 0.0, 0.0]
7 [0.0, 0.0, 0.0, 0.0, 0.0, 0.0, 0.0, 0.0]
8 [0.0, 0.0, 0.0, 0.0, 0.0, 0.0, 0.0, 0.0]
9 [0.0, 0.0, 0.0, 0.0, 0.0, 0.0, 0.0, 0.0]
10 [0.0, 0.0, 0.0, 0.0, 0.0, 0.0, 0.0, 0.0]
11 [0.0, 0.0, 0.0, 0.0, 0.0, 0.0, 0.0, 0.0]
12 [0.0, 0.0, 0.0, 0.0, 0.0, 0.0, 0.0, 0.0]
13 [0.0, 0.0, 0.0, 0.0, 0.0, 0.0, 0.0, 0.0]
14 [0.0, 0.0, 0.0, 0.0, 0.0, 0.0, 0.0, 0.0]
15 [0.0, 0.0, 0.0, 0.0, 0.0, 0.0, 0.0, 0.0]
16 [0.0, 0.0, 0.0, 0.0, 0.0, 0.0, 0.0, 0.0]
17 [0.0, 0.0, 0.0, 0.0, 0.0, 0.0, 0.0, 0.8849722]
18 [0.0, 0.0, 0.0, 0.0, 0.0, 0.0, 0.0, 0.89088106]
19 [0.0, 0.0, 0.0, 0.0, 0.0, 0.0, 0.0, 0.89432853]
20 [0.0, 0.0, 0.0, 0.0, 0.0, 0.0, 0.0, 0.8955084]
21 [0.0, 0.0, 0.0, 0.0, 0.0, 0.0, 0.0, 0.8943785]
22 [0.0, 0.0, 0.0, 0.0, 0.0, 0.0, 0.0, 0.891905]
23 [0.0, 0.0, 0.0, 0.0, 0.0, 0.0, 0.0, 0.88916975]
24 [0.0, 0.0, 0.0, 0.0, 0.0, 0.0, 0.0, 0.88916975]
25 [0.0, 0.0, 0.0, 0.0, 0.0, 0.0, 0.0, 0.88199854]
26 [0.0, 0.0, 0.0, 0.0, 0.0, 0.0, 0.0, 0.86956936]
27 [0.0, 0.0, 0.0, 0.0, 0.0, 0.0, 0.0, 0.8544869]
28 [0.0, 0.0, 0.0, 0.0, 0.0, 0.0, 0.0, 0.8544869]
29 [0.0, 0.0, 0.0, 0.0, 0.0, 0.0, 0.0, 0.8713015]
30 [0.0, 0.0, 0.0, 0.0, 0.0, 0.0, 0.0, 0.0]
31 [0.0, 0.0, 0.0, 0.0, 0.0, 0.0, 0.0, 0.0]
32 [0.0, 0.0, 0.0, 0.0, 0.0, 0.0, 0.8520609, 0.94885606]
33 [0.0, 0.0, 0.0, 0.0, 0.0, 0.0, 0.8568237, 0.9200747]
34 [0.0, 0.0, 0.0, 0.0, 0.0, 0.0, 0.85537374, 0.87553984]
35 [0.0, 0.0, 0.0, 0.0, 0.0, 0.0, 0.85537374, 0.87553984]
36 [0.0, 0.0, 0.0, 0.0, 0.0, 0.0, 0.8435046, 0.8468474]
37 [0.0, 0.0, 0.0, 0.0, 0.0, 0.0, 0.8435046, 0.8468474]
38 [0.0, 0.0, 0.0, 0.0, 0.0, 0.0, 0.8308887, 0.82676464]
39 [0.0, 0.0, 0.0, 0.0, 0.0, 0.82860535, 0.82006454, 0.80846536]
40 [0.0, 0.0, 0.0, 0.0, 0.0, 0.8368309, 0.85426813, 0.7948299]
41 [0.0, 0.0, 0.0, 0.0, 0.0, 0.83813816, 0.88856566, 0.7973681]
42 [0.0, 0.0, 0.0, 0.0, 0.0, 0.8379501, 0.0, 0.79846203]
43 [0.0, 0.0, 0.0, 0.0, 0.0, 0.83889896, 0.0, 0.7987528]
44 [0.0, 0.0, 0.0, 0.0, 0.82645017, 0.83557224, 0.9275067, 0.79943883]
45 [0.0, 0.0, 0.0, 0.0, 0.8290071, 0.8294042, 0.91081256, 0.79904014]
46 [0.0, 0.0, 0.0, 0.0, 0.82455724, 0.817238, 0.8801579, 0.79674715]
47 [0.0, 0.0, 0.0, 0.0, 0.8069963, 0.8127713, 0.8506606, 0.79115784]
48 [0.0, 0.0, 0.0, 0.0, 0.77880067, 0.80662, 0.819838, 0.7801863]
49 [0.0, 0.0, 0.0, 0.0, 0.7398509, 0.783758, 0.7996803, 0.7686121]
