0 -3.1415925
0 -3.1415925
0 -3.1415925
0 3.1415925
0 -0.0
0 -0.0
0 -0.0
0 -0.0
0 -0.0
1 -3.1415925
1 -3.1415925
1 -3.1415925
1 3.1415925
1 -0.0
1 -0.0
1 -0.0
1 -0.0
1 -0.0
2 -3.1415925
2 -3.1415925
2 -3.1415925
2 3.1415925
2 -0.0
2 -0.0
2 -0.0
2 -0.0
2 -0.0
3 -3.1415925
3 -3.1415925
3 -3.1415925
3 3.1415925
3 -0.0
3 -0.0
3 -0.0
3 -0.0
3 -0.0
4 -3.1415925
4 -3.1415925
4 -3.1415925
4 3.1415925
4 -0.0
4 -0.0
4 -0.0
4 -0.0
4 -0.0
5 -3.1415925
5 -3.1415925
5 -3.1415925
5 3.1415925
5 -0.0
5 -0.0
5 -0.0
5 -0.0
5 -0.0
6 -3.1415925
6 -3.1415925
6 -3.1415925
6 3.1415925
6 -0.0
6 -0.0
6 -0.0
6 -0.0
6 -0.0
7 -3.1415925
7 -3.1415925
7 -3.1415925
7 3.1415925
7 -0.0
7 -0.0
7 -0.0
7 -0.0
7 -0.0
8 -3.1415925
8 -3.1415925
8 -3.1415925
8 3.1415925
8 -0.0
8 -0.0
8 -0.0
8 -0.0
8 -0.0
9 -3.1415925
9 -3.1415925
9 -3.1415925
9 3.1415925
9 -0.0
9 -0.0
9 -0.0
9 -0.0
9 -0.0
10 -3.1415925
10 -3.1415925
10 -3.1415925
10 3.1415925
10 -0.0
10 -0.0
10 -0.0
10 -0.0
10 -0.0
11 -3.1415925
11 -3.1415925
11 -3.1415925
11 3.1415925
11 -0.0
11 -0.0
11 -0.0
11 -0.0
11 -0.0
12 -3.1415925
12 -3.1415925
12 -3.1415925
12 3.1415925
12 -0.0
12 -0.0
12 -0.0
12 -0.0
12 -0.0
13 -3.1415925
13 -3.1415925
13 -3.1415925
13 3.1415925
13 -0.0
13 -0.0
13 -0.0
13 -0.0
13 -0.0
14 -3.1415925
14 -3.1415925
14 -3.1415925
14 3.1415925
14 -0.0
14 -0.0
14 -0.0
14 -0.0
14 -0.0
15 -3.1415925
15 -3.1415925
15 -3.1415925
15 3.1415925
15 -0.0
15 -0.0
15 -0.0
15 -0.0
15 -0.0
16 -3.1415925
16 -3.1415925
16 -3.1415925
16 3.1415925
16 -0.0
16 -0.0
16 -0.0
16 -0.0
16 -0.0
17 -3.1415925
17 -3.1415925
17 -3.1415925
17 3.1415925
17 -0.0
17 -0.0
17 -0.0
17 -0.0
17 -0.0
18 -3.1415925
18 -3.1415925
18 -3.1415925
18 3.1415925
18 -0.0
18 -0.0
18 -0.0
18 -0.0
18 -0.0
19 -3.1415925
19 -3.1415925
19 -3.1415925
19 3.1415925
19 -0.0
19 -0.0
19 -0.0
19 -0.0
19 -0.0
20 -3.1415925
20 -3.1415925
20 -3.1415925
20 3.1415925
20 -0.0
20 -0.0
20 -0.0
20 -0.0
20 -0.0
21 -3.1415925
21 -3.1415925
21 -3.1415925
21 3.1415925
21 -0.0
21 -0.0
21 -0.0
21 -0.0
21 -0.0
22 -3.1415925
22 -3.1415925
22 -3.1415925
22 3.1415925
22 -0.0
22 -0.0
22 -0.0
22 -0.0
22 -0.0
23 -3.1415925
23 -3.1415925
23 -3.1415925
23 3.1415925
23 -0.0
23 -0.0
23 -0.0
23 -0.0
23 -0.0
24 -3.1415925
24 -3.1415925
24 -3.1415925
24 3.1415925
24 -0.0
24 -0.0
24 -0.0
24 -0.0
24 -0.0
25 -3.1415925
25 -3.1415925
25 -3.1415925
25 3.1415925
25 -0.0
25 -0.0
25 -0.0
25 -0.0
25 -0.0
26 -3.1415925
26 -3.1415925
26 -3.1415925
26 3.1415925
26 -0.0
26 -0.0
26 -0.0
26 -0.0
26 -0.0
27 -3.1415925
27 -3.1415925
27 -3.1415925
27 3.1415925
27 -0.0
27 -0.0
27 -0.0
27 -0.0
27 -0.0
28 -3.1415925
28 -3.1415925
28 -3.1415925
28 3.1415925
28 -0.0
28 -0.0
28 -0.0
28 -0.0
28 -0.0
29 -3.1415925
29 -3.1415925
29 -3.1415925
29 3.1415925
29 -0.0
29 -0.0
29 -0.0
29 -0.0
29 -0.0
30 -3.1415925
30 -3.1415925
30 -3.1415925
30 3.1415925
30 -0.0
30 -0.0
30 -0.0
30 -0.0
30 -0.0
31 -3.1415925
31 -3.1415925
31 -3.1415925
31 3.1415925
31 -0.0
31 -0.0
31 -0.0
31 -0.0
31 -0.0
32 -3.1415925
32 -3.1415925
32 -3.1415925
32 3.1415925
32 -0.0
32 -0.0
32 -0.0
32 -0.0
32 -0.0
33 -3.1415925
33 -3.1415925
33 -3.1415925
33 3.1415925
33 -0.0
33 -0.0
33 -0.0
33 -0.0
33 -0.0
34 -3.1415925
34 -3.1415925
34 -3.1415925
34 3.1415925
34 -0.0
34 -0.0
34 -0.0
34 -0.0
34 -0.0
35 3.1360822
35 3.134399
35 3.1305716
35 3.109868
35 0.031724393
35 0.011021053
35 0.007193605
35 0.0055106636
35 9.1948874E-7
36 3.1273336
36 3.1229794
36 3.11308
36 3.0596523
36 0.08193431
36 0.028512213
36 0.018613031
36 0.014259183
36 -6.4950027E-6
37 3.1288607
37 3.1249728
37 3.1161325
37 3.0683944
37 0.07318885
37 0.025459241
37 0.016619604
37 0.012731939
37 -1.0926654E-5
38 3.1297219
38 3.1260967
38 3.1178539
38 3.07333
38 0.06825439
38 0.02373802
38 0.015495672
38 0.01187083
38 -1.0582022E-5
39 3.129452
39 3.1257446
39 3.1173143
39 3.0717812
39 0.06979769
39 0.024277132
39 0.015847728
39 0.012140637
39 -1.7443916E-5
40 3.1293755
40 3.1256442
40 3.1171606
40 3.0713363
40 0.07023281
40 0.024429569
40 0.015947664
40 0.012217284
40 -2.9370029E-5
41 3.1293755
41 3.1256442
41 3.1171606
41 3.0713363
41 0.07023281
41 0.024429569
41 0.015947664
41 0.012217284
41 -2.9370029E-5
42 3.1294997
42 3.1257539
42 3.1172416
42 3.0704522
42 0.0679938
42 0.024016343
42 0.015732927
42 0.012093149
42 -0.0039999033
43 3.1294997
43 3.1257539
43 3.1172416
43 3.0704522
43 0.0679938
43 0.024016343
43 0.015732927
43 0.012093149
43 -0.0039999033
44 3.129545
44 3.1256766
44 3.1168928
44 3.0662608
44 0.064109646
44 0.023511577
44 0.015540534
44 0.0120478505
44 -0.0142359445
45 3.1284478
45 3.124048
45 3.1140556
45 3.052862
45 0.0657792
45 0.02513917
45 0.016787348
45 0.013145013
45 -0.026289178
46 3.128437
46 3.1238627
46 3.1134586
46 3.045614
46 0.06236698
46 0.024697084
46 0.016646188
46 0.013155623
46 -0.03756122
47 3.130074
47 3.1259408
47 3.116518
47 3.0513506
47 0.05230054
47 0.021294717
47 0.014462499
47 0.011518626
47 -0.047047425
48 3.130074
48 3.1259408
48 3.116518
48 3.0513506
48 0.05230054
48 0.021294717
48 0.014462499
48 0.011518626
48 -0.047047425
49 3.131971
49 3.12846
49 3.1204436
49 3.0630658
49 0.042722855
49 0.017643865
49 0.012031014
49 0.009621902
49 -0.052137904
