0 [10.0, 10.0, 10.0, 10.0, 10.0, 10.0, 10.0, 10.0, 10.0, 10.0, 10.0, 10.0, 10.0, 10.0, 10.0, 10.0, 10.0, 10.0, 10.0, 10.0, 10.0, 10.0, 10.0, 10.0, 10.0, 10.0, 10.0, 10.0, 10.0, 10.0, 10.0, 10.0, 10.0, 10.0, 10.0, 10.0, 10.0, 10.0, 10.0, 10.0, 10.0, 10.0, 10.0, 10.0, 10.0, 10.0, 10.0, 10.0, 10.0, 10.0, 10.0, 10.0, 10.0, 10.0, 10.0, 10.0, 10.0, 10.0, 10.0, 10.0, 10.0, 10.0, 10.0, 10.0, 10.0, 10.0, 10.0, 10.0, 10.0, 10.0, 10.0, 10.0, 10.0, 10.0, 10.0, 10.0, 10.0, 10.0, 10.0, 10.0, 10.0, 10.0, 10.0, 10.0, 10.0, 10.0, 10.0, 10.0, 10.0, 10.0, 10.0, 10.0, 10.0, 10.0, 10.0, 10.0, 10.0, 10.0, 10.0, 10.0, 10.0, 10.0, 10.0, 10.0, 10.0, 10.0, 10.0, 10.0, 10.0, 10.0, 10.0, 10.0, 10.0, 10.0, 10.0, 10.0, 10.0, 10.0, 10.0, 10.0, 10.0, 10.0, 10.0, 10.0, 10.0, 10.0, 10.0, 10.0, 10.0, 10.0, 10.0, 10.0, 10.0, 10.0, 10.0, 10.0, 10.0, 10.0, 10.0, 10.0, 10.0, 10.0, 10.0, 10.0, 10.0, 10.0, 10.0, 10.0, 10.0, 10.0, 10.0, 10.0, 10.0, 10.0, 10.0, 10.0, 10.0, 10.0, 10.0, 10.0, 10.0, 10.0, 10.0, 10.0, 10.0, 10.0, 10.0, 10.0, 10.0, 10.0, 10.0, 10.0, 10.0, 10.0, 10.0, 10.0, 10.0, 10.0, 10.0, 10.0, 10.0, 10.0]
1 [10.0, 10.0, 10.0, 10.0, 10.0, 10.0, 10.0, 10.0, 10.0, 10.0, 10.0, 10.0, 10.0, 10.0, 10.0, 10.0, 10.0, 10.0, 10.0, 10.0, 10.0, 10.0, 10.0, 10.0, 10.0, 10.0, 10.0, 10.0, 10.0, 10.0, 10.0, 10.0, 10.0, 10.0, 10.0, 10.0, 10.0, 10.0, 10.0, 10.0, 10.0, 10.0, 10.0, 10.0, 10.0, 10.0, 10.0, 10.0, 10.0, 10.0, 10.0, 10.0, 10.0, 10.0, 10.0, 10.0, 10.0, 10.0, 10.0, 10.0, 10.0, 10.0, 10.0, 10.0, 10.0, 10.0, 10.0, 10.0, 10.0, 10.0, 10.0, 10.0, 10.0, 10.0, 10.0, 10.0, 10.0, 10.0, 10.0, 10.0, 10.0, 10.0, 10.0, 10.0, 10.0, 10.0, 10.0, 10.0, 10.0, 10.0, 10.0, 10.0, 10.0, 10.0, 10.0, 10.0, 10.0, 10.0, 10.0, 10.0, 10.0, 10.0, 10.0, 10.0, 10.0, 10.0, 10.0, 10.0, 10.0, 10.0, 10.0, 10.0, 10.0, 10.0, 10.0, 10.0, 10.0, 10.0, 10.0, 10.0, 10.0, 10.0, 10.0, 10.0, 10.0, 10.0, 10.0, 10.0, 10.0, 10.0, 10.0, 10.0, 10.0, 10.0, 10.0, 10.0, 10.0, 10.0, 10.0, 10.0, 10.0, 10.0, 10.0, 10.0, 10.0, 10.0, 10.0, 10.0, 10.0, 10.0, 10.0, 10.0, 10.0, 10.0, 10.0, 10.0, 10.0, 10.0, 10.0, 10.0, 10.0, 10.0, 10.0, 10.0, 10.0, 10.0, 10.0, 10.0, 10.0, 10.0, 10.0, 10.0, 10.0, 10.0, 10.0, 10.0, 10.0, 10.0, 10.0, 10.0, 10.0, 10.0]
2 [10.0, 10.0, 10.0, 10.0, 10.0, 10.0, 10.0, 10.0, 10.0, 10.0, 10.0, 10.0, 10.0, 10.0, 10.0, 10.0, 10.0, 10.0, 10.0, 10.0, 10.0, 10.0, 10.0, 10.0, 10.0, 10.0, 10.0, 10.0, 10.0, 10.0, 10.0, 10.0, 10.0, 10.0, 10.0, 10.0, 10.0, 10.0, 10.0, 10.0, 10.0, 10.0, 10.0, 10.0, 10.0, 10.0, 10.0, 10.0, 10.0, 10.0, 10.0, 10.0, 10.0, 10.0, 10.0, 10.0, 10.0, 10.0, 10.0, 10.0, 10.0, 10.0, 10.0, 10.0, 10.0, 10.0, 10.0, 10.0, 10.0, 10.0, 10.0, 10.0, 10.0, 10.0, 10.0, 10.0, 10.0, 10.0, 10.0, 10.0, 10.0, 10.0, 10.0, 10.0, 10.0, 10.0, 10.0, 10.0, 10.0, 10.0, 10.0, 10.0, 10.0, 10.0, 10.0, 10.0, 10.0, 10.0, 10.0, 10.0, 10.0, 10.0, 10.0, 10.0, 10.0, 10.0, 10.0, 10.0, 10.0, 10.0, 10.0, 10.0, 10.0, 10.0, 10.0, 10.0, 10.0, 10.0, 10.0, 10.0, 10.0, 10.0, 10.0, 10.0, 10.0, 10.0, 10.0, 10.0, 10.0, 10.0, 10.0, 10.0, 10.0, 10.0, 10.0, 10.0, 10.0, 10.0, 10.0, 10.0, 10.0, 10.0, 10.0, 10.0, 10.0, 10.0, 10.0, 10.0, 10.0, 10.0, 10.0, 10.0, 10.0, 10.0, 10.0, 10.0, 10.0, 10.0, 10.0, 10.0, 10.0, 10.0, 10.0, 10.0, 10.0, 10.0, 10.0, 10.0, 10.0, 10.0, 10.0, 10.0, 10.0, 10.0, 10.0, 10.0, 10.0, 10.0, 10.0, 10.0, 10.0, 10.0]
3 [10.0, 10.0, 10.0, 10.0, 10.0, 10.0, 10.0, 10.0, 10.0, 10.0, 10.0, 10.0, 10.0, 10.0, 10.0, 10.0, 10.0, 10.0, 10.0, 10.0, 10.0, 10.0, 10.0, 10.0, 10.0, 10.0, 10.0, 10.0, 10.0, 10.0, 10.0, 10.0, 10.0, 10.0, 10.0, 10.0, 10.0, 10.0, 10.0, 10.0, 10.0, 10.0, 10.0, 10.0, 10.0, 10.0, 10.0, 10.0, 10.0, 10.0, 10.0, 10.0, 10.0, 10.0, 10.0, 10.0, 10.0, 10.0, 10.0, 10.0, 10.0, 10.0, 10.0, 10.0, 10.0, 10.0, 10.0, 10.0, 10.0, 10.0, 10.0, 10.0, 10.0, 10.0, 10.0, 10.0, 10.0, 10.0, 10.0, 10.0, 10.0, 10.0, 10.0, 10.0, 10.0, 10.0, 10.0, 10.0, 10.0, 10.0, 10.0, 10.0, 10.0, 10.0, 10.0, 10.0, 10.0, 10.0, 10.0, 10.0, 10.0, 10.0, 10.0, 10.0, 10.0, 10.0, 10.0, 10.0, 10.0, 10.0, 10.0, 10.0, 10.0, 10.0, 10.0, 10.0, 10.0, 10.0, 10.0, 10.0, 10.0, 10.0, 10.0, 10.0, 10.0, 10.0, 10.0, 10.0, 10.0, 10.0, 10.0, 10.0, 10.0, 10.0, 10.0, 10.0, 10.0, 10.0, 10.0, 10.0, 10.0, 10.0, 10.0, 10.0, 10.0, 10.0, 10.0, 10.0, 10.0, 10.0, 10.0, 10.0, 10.0, 10.0, 10.0, 10.0, 10.0, 10.0, 10.0, 10.0, 10.0, 10.0, 10.0, 10.0, 10.0, 10.0, 10.0, 10.0, 10.0, 10.0, 10.0, 10.0, 10.0, 10.0, 10.0, 10.0, 10.0, 10.0, 10.0, 10.0, 10.0, 10.0]
4 [10.0, 10.0, 10.0, 10.0, 10.0, 10.0, 10.0, 10.0, 10.0, 10.0, 10.0, 10.0, 10.0, 10.0, 10.0, 10.0, 10.0, 10.0, 10.0, 10.0, 10.0, 10.0, 10.0, 10.0, 10.0, 10.0, 10.0, 10.0, 10.0, 10.0, 10.0, 10.0, 10.0, 10.0, 10.0, 10.0, 10.0, 10.0, 10.0, 10.0, 10.0, 10.0, 10.0, 10.0, 10.0, 10.0, 10.0, 10.0, 10.0, 10.0, 10.0, 10.0, 10.0, 10.0, 10.0, 10.0, 10.0, 10.0, 10.0, 10.0, 10.0, 10.0, 10.0, 10.0, 10.0, 10.0, 10.0, 10.0, 10.0, 10.0, 10.0, 10.0, 10.0, 10.0, 10.0, 10.0, 10.0, 10.0, 10.0, 10.0, 10.0, 10.0, 10.0, 10.0, 10.0, 10.0, 10.0, 10.0, 10.0, 10.0, 10.0, 10.0, 10.0, 10.0, 10.0, 10.0, 10.0, 10.0, 10.0, 10.0, 10.0, 10.0, 10.0, 10.0, 10.0, 10.0, 10.0, 10.0, 10.0, 10.0, 10.0, 10.0, 10.0, 10.0, 10.0, 10.0, 10.0, 10.0, 10.0, 10.0, 10.0, 10.0, 10.0, 10.0, 10.0, 10.0, 10.0, 10.0, 10.0, 10.0, 10.0, 10.0, 10.0, 10.0, 10.0, 10.0, 10.0, 10.0, 10.0, 10.0, 10.0, 10.0, 10.0, 10.0, 10.0, 10.0, 10.0, 10.0, 10.0, 10.0, 10.0, 10.0, 10.0, 10.0, 10.0, 10.0, 10.0, 10.0, 10.0, 10.0, 10.0, 10.0, 10.0, 10.0, 10.0, 10.0, 10.0, 10.0, 10.0, 10.0, 10.0, 10.0, 10.0, 10.0, 10.0, 10.0, 10.0, 10.0, 10.0, 10.0, 10.0, 10.0]
5 [10.0, 10.0, 10.0, 10.0, 10.0, 10.0, 10.0, 10.0, 10.0, 10.0, 10.0, 10.0, 10.0, 10.0, 10.0, 10.0, 10.0, 10.0, 10.0, 10.0, 10.0, 10.0, 10.0, 10.0, 10.0, 10.0, 10.0, 10.0, 10.0, 10.0, 10.0, 10.0, 10.0, 10.0, 10.0, 10.0, 10.0, 10.0, 10.0, 10.0, 10.0, 10.0, 10.0, 10.0, 10.0, 10.0, 10.0, 10.0, 10.0, 10.0, 10.0, 10.0, 10.0, 10.0, 10.0, 10.0, 10.0, 10.0, 10.0, 10.0, 10.0, 10.0, 10.0, 10.0, 10.0, 10.0, 10.0, 10.0, 10.0, 10.0, 10.0, 10.0, 10.0, 10.0, 10.0, 10.0, 10.0, 10.0, 10.0, 10.0, 10.0, 10.0, 10.0, 10.0, 10.0, 10.0, 10.0, 10.0, 10.0, 10.0, 10.0, 10.0, 10.0, 10.0, 10.0, 10.0, 10.0, 10.0, 10.0, 10.0, 10.0, 10.0, 10.0, 10.0, 10.0, 10.0, 10.0, 10.0, 10.0, 10.0, 10.0, 10.0, 10.0, 10.0, 10.0, 10.0, 10.0, 10.0, 10.0, 10.0, 10.0, 10.0, 10.0, 10.0, 10.0, 10.0, 10.0, 10.0, 10.0, 10.0, 10.0, 10.0, 10.0, 10.0, 10.0, 10.0, 10.0, 10.0, 10.0, 10.0, 10.0, 10.0, 10.0, 10.0, 10.0, 10.0, 10.0, 10.0, 10.0, 10.0, 10.0, 10.0, 10.0, 10.0, 10.0, 10.0, 10.0, 10.0, 10.0, 10.0, 10.0, 10.0, 10.0, 10.0, 10.0, 10.0, 10.0, 10.0, 10.0, 10.0, 10.0, 10.0, 10.0, 10.0, 10.0, 10.0, 10.0, 10.0, 10.0, 10.0, 10.0, 10.0]
6 [10.0, 10.0, 10.0, 10.0, 10.0, 10.0, 10.0, 10.0, 10.0, 10.0, 10.0, 10.0, 10.0, 10.0, 10.0, 10.0, 10.0, 10.0, 10.0, 10.0, 10.0, 10.0, 10.0, 10.0, 10.0, 10.0, 10.0, 10.0, 10.0, 10.0, 10.0, 10.0, 10.0, 10.0, 10.0, 10.0, 10.0, 10.0, 10.0, 10.0, 10.0, 10.0, 10.0, 10.0, 10.0, 10.0, 10.0, 10.0, 10.0, 10.0, 10.0, 10.0, 10.0, 10.0, 10.0, 10.0, 10.0, 10.0, 10.0, 10.0, 10.0, 10.0, 10.0, 10.0, 10.0, 10.0, 10.0, 10.0, 10.0, 10.0, 10.0, 10.0, 10.0, 10.0, 10.0, 10.0, 10.0, 10.0, 10.0, 10.0, 10.0, 10.0, 10.0, 10.0, 10.0, 10.0, 10.0, 10.0, 10.0, 10.0, 10.0, 10.0, 10.0, 10.0, 10.0, 10.0, 10.0, 10.0, 10.0, 10.0, 10.0, 10.0, 10.0, 10.0, 10.0, 10.0, 10.0, 10.0, 10.0, 10.0, 10.0, 10.0, 10.0, 10.0, 10.0, 10.0, 10.0, 10.0, 10.0, 10.0, 10.0, 10.0, 10.0, 10.0, 10.0, 10.0, 10.0, 10.0, 10.0, 10.0, 10.0, 10.0, 10.0, 10.0, 10.0, 10.0, 10.0, 10.0, 10.0, 10.0, 10.0, 10.0, 10.0, 10.0, 10.0, 10.0, 10.0, 10.0, 10.0, 10.0, 10.0, 10.0, 10.0, 10.0, 10.0, 10.0, 10.0, 10.0, 10.0, 10.0, 10.0, 10.0, 10.0, 10.0, 10.0, 10.0, 10.0, 10.0, 10.0, 10.0, 10.0, 10.0, 10.0, 10.0, 10.0, 10.0, 10.0, 10.0, 10.0, 10.0, 10.0, 10.0]
7 [10.0, 10.0, 10.0, 10.0, 10.0, 10.0, 10.0, 10.0, 10.0, 10.0, 10.0, 10.0, 10.0, 10.0, 10.0, 10.0, 10.0, 10.0, 10.0, 10.0, 10.0, 10.0, 10.0, 10.0, 10.0, 10.0, 10.0, 10.0, 10.0, 10.0, 10.0, 10.0, 10.0, 10.0, 10.0, 10.0, 10.0, 10.0, 10.0, 10.0, 10.0, 10.0, 10.0, 10.0, 10.0, 10.0, 10.0, 10.0, 10.0, 10.0, 10.0, 10.0, 10.0, 10.0, 10.0, 10.0, 10.0, 10.0, 10.0, 10.0, 10.0, 10.0, 10.0, 10.0, 10.0, 10.0, 10.0, 10.0, 10.0, 10.0, 10.0, 10.0, 10.0, 10.0, 10.0, 10.0, 10.0, 10.0, 10.0, 10.0, 10.0, 10.0, 10.0, 10.0, 10.0, 10.0, 10.0, 10.0, 10.0, 10.0, 10.0, 10.0, 10.0, 10.0, 10.0, 10.0, 10.0, 10.0, 10.0, 10.0, 10.0, 10.0, 10.0, 10.0, 10.0, 10.0, 10.0, 10.0, 10.0, 10.0, 10.0, 10.0, 10.0, 10.0, 10.0, 10.0, 10.0, 10.0, 10.0, 10.0, 10.0, 10.0, 10.0, 10.0, 10.0, 10.0, 10.0, 10.0, 10.0, 10.0, 10.0, 10.0, 10.0, 10.0, 10.0, 10.0, 10.0, 10.0, 10.0, 10.0, 10.0, 10.0, 10.0, 10.0, 10.0, 10.0, 10.0, 10.0, 10.0, 10.0, 10.0, 10.0, 10.0, 10.0, 10.0, 10.0, 10.0, 10.0, 10.0, 10.0, 10.0, 10.0, 10.0, 10.0, 10.0, 10.0, 10.0, 10.0, 10.0, 10.0, 10.0, 10.0, 10.0, 10.0, 10.0, 10.0, 10.0, 10.0, 10.0, 10.0, 10.0, 10.0]
8 [10.0, 10.0, 10.0, 10.0, 10.0, 10.0, 10.0, 10.0, 10.0, 10.0, 10.0, 10.0, 10.0, 10.0, 10.0, 10.0, 10.0, 10.0, 10.0, 10.0, 10.0, 10.0, 10.0, 10.0, 10.0, 10.0, 10.0, 10.0, 10.0, 10.0, 10.0, 10.0, 10.0, 10.0, 10.0, 10.0, 10.0, 10.0, 10.0, 10.0, 10.0, 10.0, 10.0, 10.0, 10.0, 10.0, 10.0, 10.0, 10.0, 10.0, 10.0, 10.0, 10.0, 10.0, 10.0, 10.0, 10.0, 10.0, 10.0, 10.0, 10.0, 10.0, 10.0, 10.0, 10.0, 10.0, 10.0, 10.0, 10.0, 10.0, 10.0, 10.0, 10.0, 10.0, 10.0, 10.0, 10.0, 10.0, 10.0, 10.0, 10.0, 10.0, 10.0, 10.0, 10.0, 10.0, 10.0, 10.0, 10.0, 10.0, 10.0, 10.0, 10.0, 10.0, 10.0, 10.0, 10.0, 10.0, 10.0, 10.0, 10.0, 10.0, 10.0, 10.0, 10.0, 10.0, 10.0, 10.0, 10.0, 10.0, 10.0, 10.0, 10.0, 10.0, 10.0, 10.0, 10.0, 10.0, 10.0, 10.0, 10.0, 10.0, 10.0, 10.0, 10.0, 10.0, 10.0, 10.0, 10.0, 10.0, 10.0, 10.0, 10.0, 10.0, 10.0, 10.0, 10.0, 10.0, 10.0, 10.0, 10.0, 10.0, 10.0, 10.0, 10.0, 10.0, 10.0, 10.0, 10.0, 10.0, 10.0, 10.0, 10.0, 10.0, 10.0, 10.0, 10.0, 10.0, 10.0, 10.0, 10.0, 10.0, 10.0, 10.0, 10.0, 10.0, 10.0, 10.0, 10.0, 10.0, 10.0, 10.0, 10.0, 10.0, 10.0, 10.0, 10.0, 10.0, 10.0, 10.0, 10.0, 10.0]
9 [10.0, 10.0, 10.0, 10.0, 10.0, 10.0, 10.0, 10.0, 10.0, 10.0, 10.0, 10.0, 10.0, 10.0, 10.0, 10.0, 10.0, 10.0, 10.0, 10.0, 10.0, 10.0, 10.0, 10.0, 10.0, 10.0, 10.0, 10.0, 10.0, 10.0, 10.0, 10.0, 10.0, 10.0, 10.0, 10.0, 10.0, 10.0, 10.0, 10.0, 10.0, 10.0, 10.0, 10.0, 10.0, 10.0, 10.0, 10.0, 10.0, 10.0, 10.0, 10.0, 10.0, 10.0, 10.0, 10.0, 10.0, 10.0, 10.0, 10.0, 10.0, 10.0, 10.0, 10.0, 10.0, 10.0, 10.0, 10.0, 10.0, 10.0, 10.0, 10.0, 10.0, 10.0, 10.0, 10.0, 10.0, 10.0, 10.0, 10.0, 10.0, 10.0, 10.0, 10.0, 10.0, 10.0, 10.0, 10.0, 10.0, 10.0, 10.0, 10.0, 10.0, 10.0, 10.0, 10.0, 10.0, 10.0, 10.0, 10.0, 10.0, 10.0, 10.0, 10.0, 10.0, 10.0, 10.0, 10.0, 10.0, 10.0, 10.0, 10.0, 10.0, 10.0, 10.0, 10.0, 10.0, 10.0, 10.0, 10.0, 10.0, 10.0, 10.0, 10.0, 10.0, 10.0, 10.0, 10.0, 10.0, 10.0, 10.0, 10.0, 10.0, 10.0, 10.0, 10.0, 10.0, 10.0, 10.0, 10.0, 10.0, 10.0, 10.0, 10.0, 10.0, 10.0, 10.0, 10.0, 10.0, 10.0, 10.0, 10.0, 10.0, 10.0, 10.0, 10.0, 10.0, 10.0, 10.0, 10.0, 10.0, 10.0, 10.0, 10.0, 10.0, 10.0, 10.0, 10.0, 10.0, 10.0, 10.0, 10.0, 10.0, 10.0, 10.0, 10.0, 10.0, 10.0, 10.0, 10.0, 10.0, 10.0]
10 [10.0, 10.0, 10.0, 10.0, 10.0, 10.0, 10.0, 10.0, 10.0, 10.0, 10.0, 10.0, 10.0, 10.0, 10.0, 10.0, 10.0, 10.0, 10.0, 10.0, 10.0, 10.0, 10.0, 10.0, 10.0, 10.0, 10.0, 10.0, 10.0, 10.0, 10.0, 10.0, 10.0, 10.0, 10.0, 10.0, 10.0, 10.0, 10.0, 10.0, 10.0, 10.0, 10.0, 10.0, 10.0, 10.0, 10.0, 10.0, 10.0, 10.0, 10.0, 10.0, 10.0, 10.0, 10.0, 10.0, 10.0, 10.0, 10.0, 10.0, 10.0, 10.0, 10.0, 10.0, 10.0, 10.0, 10.0, 10.0, 10.0, 10.0, 10.0, 10.0, 10.0, 10.0, 10.0, 10.0, 10.0, 10.0, 10.0, 10.0, 10.0, 10.0, 10.0, 10.0, 10.0, 10.0, 10.0, 10.0, 10.0, 10.0, 10.0, 10.0, 10.0, 10.0, 10.0, 10.0, 10.0, 10.0, 10.0, 10.0, 10.0, 10.0, 10.0, 10.0, 10.0, 10.0, 10.0, 10.0, 10.0, 10.0, 10.0, 10.0, 10.0, 10.0, 10.0, 10.0, 10.0, 10.0, 10.0, 10.0, 10.0, 10.0, 10.0, 10.0, 10.0, 10.0, 10.0, 10.0, 10.0, 10.0, 10.0, 10.0, 10.0, 10.0, 10.0, 10.0, 10.0, 10.0, 10.0, 10.0, 10.0, 10.0, 10.0, 10.0, 10.0, 10.0, 10.0, 10.0, 10.0, 10.0, 10.0, 10.0, 10.0, 10.0, 10.0, 10.0, 10.0, 10.0, 10.0, 10.0, 10.0, 10.0, 10.0, 10.0, 10.0, 10.0, 10.0, 10.0, 10.0, 10.0, 10.0, 10.0, 10.0, 10.0, 10.0, 10.0, 10.0, 10.0, 10.0, 10.0, 10.0, 10.0]
11 [10.0, 10.0, 10.0, 10.0, 10.0, 10.0, 10.0, 10.0, 10.0, 10.0, 10.0, 10.0, 10.0, 10.0, 10.0, 10.0, 10.0, 10.0, 10.0, 10.0, 10.0, 10.0, 10.0, 10.0, 10.0, 10.0, 10.0, 10.0, 10.0, 10.0, 10.0, 10.0, 10.0, 10.0, 10.0, 10.0, 10.0, 10.0, 10.0, 10.0, 10.0, 10.0, 10.0, 10.0, 10.0, 10.0, 10.0, 10.0, 10.0, 10.0, 10.0, 10.0, 10.0, 10.0, 10.0, 10.0, 10.0, 10.0, 10.0, 10.0, 10.0, 10.0, 10.0, 10.0, 10.0, 10.0, 10.0, 10.0, 10.0, 10.0, 10.0, 10.0, 10.0, 10.0, 10.0, 10.0, 10.0, 10.0, 10.0, 10.0, 10.0, 10.0, 10.0, 10.0, 10.0, 10.0, 10.0, 10.0, 10.0, 10.0, 10.0, 10.0, 10.0, 10.0, 10.0, 10.0, 10.0, 10.0, 10.0, 10.0, 10.0, 10.0, 10.0, 10.0, 10.0, 10.0, 10.0, 10.0, 10.0, 10.0, 10.0, 10.0, 10.0, 10.0, 10.0, 10.0, 10.0, 10.0, 10.0, 10.0, 10.0, 10.0, 10.0, 10.0, 10.0, 10.0, 10.0, 10.0, 10.0, 10.0, 10.0, 10.0, 10.0, 10.0, 10.0, 10.0, 10.0, 10.0, 10.0, 10.0, 10.0, 10.0, 10.0, 10.0, 10.0, 10.0, 10.0, 10.0, 10.0, 10.0, 10.0, 10.0, 10.0, 10.0, 10.0, 10.0, 10.0, 10.0, 10.0, 10.0, 10.0, 10.0, 10.0, 10.0, 10.0, 10.0, 10.0, 10.0, 10.0, 10.0, 10.0, 10.0, 10.0, 10.0, 10.0, 10.0, 10.0, 10.0, 10.0, 10.0, 10.0, 10.0]
12 [10.0, 10.0, 10.0, 10.0, 10.0, 10.0, 10.0, 10.0, 10.0, 10.0, 10.0, 10.0, 10.0, 10.0, 10.0, 10.0, 10.0, 10.0, 10.0, 10.0, 10.0, 10.0, 10.0, 10.0, 10.0, 10.0, 10.0, 10.0, 10.0, 10.0, 10.0, 10.0, 10.0, 10.0, 10.0, 10.0, 10.0, 10.0, 10.0, 10.0, 10.0, 10.0, 10.0, 10.0, 10.0, 10.0, 10.0, 10.0, 10.0, 10.0, 10.0, 10.0, 10.0, 10.0, 10.0, 10.0, 10.0, 10.0, 10.0, 10.0, 10.0, 10.0, 10.0, 10.0, 10.0, 10.0, 10.0, 10.0, 10.0, 10.0, 10.0, 10.0, 10.0, 10.0, 10.0, 10.0, 10.0, 10.0, 10.0, 10.0, 10.0, 10.0, 10.0, 10.0, 10.0, 10.0, 10.0, 10.0, 10.0, 10.0, 10.0, 10.0, 10.0, 10.0, 10.0, 10.0, 10.0, 10.0, 10.0, 10.0, 10.0, 10.0, 10.0, 10.0, 10.0, 10.0, 10.0, 10.0, 10.0, 10.0, 10.0, 10.0, 10.0, 10.0, 10.0, 10.0, 10.0, 10.0, 10.0, 10.0, 10.0, 10.0, 10.0, 10.0, 10.0, 10.0, 10.0, 10.0, 10.0, 10.0, 10.0, 10.0, 10.0, 10.0, 10.0, 10.0, 10.0, 10.0, 10.0, 10.0, 10.0, 10.0, 10.0, 10.0, 10.0, 10.0, 10.0, 10.0, 10.0, 10.0, 10.0, 10.0, 10.0, 10.0, 10.0, 10.0, 10.0, 10.0, 10.0, 10.0, 10.0, 10.0, 10.0, 10.0, 10.0, 10.0, 10.0, 10.0, 10.0, 10.0, 10.0, 10.0, 10.0, 10.0, 10.0, 10.0, 10.0, 10.0, 10.0, 10.0, 10.0, 10.0]
13 [10.0, 10.0, 10.0, 10.0, 10.0, 10.0, 10.0, 10.0, 10.0, 10.0, 10.0, 10.0, 10.0, 10.0, 10.0, 10.0, 10.0, 10.0, 10.0, 10.0, 10.0, 10.0, 10.0, 10.0, 10.0, 10.0, 10.0, 10.0, 10.0, 10.0, 10.0, 10.0, 10.0, 10.0, 10.0, 10.0, 10.0, 10.0, 10.0, 10.0, 10.0, 10.0, 10.0, 10.0, 10.0, 10.0, 10.0, 10.0, 10.0, 10.0, 10.0, 10.0, 10.0, 10.0, 10.0, 10.0, 10.0, 10.0, 10.0, 10.0, 10.0, 10.0, 10.0, 10.0, 10.0, 10.0, 10.0, 10.0, 10.0, 10.0, 10.0, 10.0, 10.0, 10.0, 10.0, 10.0, 10.0, 10.0, 10.0, 10.0, 10.0, 10.0, 10.0, 10.0, 10.0, 10.0, 10.0, 10.0, 10.0, 10.0, 10.0, 10.0, 10.0, 10.0, 10.0, 10.0, 10.0, 10.0, 10.0, 10.0, 10.0, 10.0, 10.0, 10.0, 10.0, 10.0, 10.0, 10.0, 10.0, 10.0, 10.0, 10.0, 10.0, 10.0, 10.0, 10.0, 10.0, 10.0, 10.0, 10.0, 10.0, 10.0, 10.0, 10.0, 10.0, 10.0, 10.0, 10.0, 10.0, 10.0, 10.0, 10.0, 10.0, 10.0, 10.0, 10.0, 10.0, 10.0, 10.0, 10.0, 10.0, 10.0, 10.0, 10.0, 10.0, 10.0, 10.0, 10.0, 10.0, 10.0, 10.0, 10.0, 10.0, 10.0, 10.0, 10.0, 10.0, 10.0, 10.0, 10.0, 10.0, 10.0, 10.0, 10.0, 10.0, 10.0, 10.0, 10.0, 10.0, 10.0, 10.0, 10.0, 10.0, 10.0, 10.0, 10.0, 10.0, 10.0, 10.0, 10.0, 10.0, 10.0]
14 [10.0, 10.0, 10.0, 10.0, 10.0, 10.0, 10.0, 10.0, 10.0, 10.0, 10.0, 10.0, 10.0, 10.0, 10.0, 10.0, 10.0, 10.0, 10.0, 10.0, 10.0, 10.0, 10.0, 10.0, 10.0, 10.0, 10.0, 10.0, 10.0, 10.0, 10.0, 10.0, 10.0, 10.0, 10.0, 10.0, 10.0, 10.0, 10.0, 10.0, 10.0, 10.0, 10.0, 10.0, 10.0, 10.0, 10.0, 10.0, 10.0, 10.0, 10.0, 10.0, 10.0, 10.0, 10.0, 10.0, 10.0, 10.0, 10.0, 10.0, 10.0, 10.0, 10.0, 10.0, 10.0, 10.0, 10.0, 10.0, 10.0, 10.0, 10.0, 10.0, 10.0, 10.0, 10.0, 10.0, 10.0, 10.0, 10.0, 10.0, 10.0, 10.0, 10.0, 10.0, 10.0, 10.0, 10.0, 10.0, 10.0, 10.0, 10.0, 10.0, 10.0, 10.0, 10.0, 10.0, 10.0, 10.0, 10.0, 10.0, 10.0, 10.0, 10.0, 10.0, 10.0, 10.0, 10.0, 10.0, 10.0, 10.0, 10.0, 10.0, 10.0, 10.0, 10.0, 10.0, 10.0, 10.0, 10.0, 10.0, 10.0, 10.0, 10.0, 10.0, 10.0, 10.0, 10.0, 10.0, 10.0, 10.0, 10.0, 10.0, 10.0, 10.0, 10.0, 10.0, 10.0, 10.0, 10.0, 10.0, 10.0, 10.0, 10.0, 10.0, 10.0, 10.0, 10.0, 10.0, 10.0, 10.0, 10.0, 10.0, 10.0, 10.0, 10.0, 10.0, 10.0, 10.0, 10.0, 10.0, 10.0, 10.0, 10.0, 10.0, 10.0, 10.0, 10.0, 10.0, 10.0, 10.0, 10.0, 10.0, 10.0, 10.0, 10.0, 10.0, 10.0, 10.0, 10.0, 10.0, 10.0, 10.0]
15 [10.0, 10.0, 10.0, 10.0, 10.0, 10.0, 10.0, 10.0, 10.0, 10.0, 10.0, 10.0, 10.0, 10.0, 10.0, 10.0, 10.0, 10.0, 10.0, 10.0, 10.0, 10.0, 10.0, 10.0, 10.0, 10.0, 10.0, 10.0, 10.0, 10.0, 10.0, 10.0, 10.0, 10.0, 10.0, 10.0, 10.0, 10.0, 10.0, 10.0, 10.0, 10.0, 10.0, 10.0, 10.0, 10.0, 10.0, 10.0, 10.0, 10.0, 10.0, 10.0, 10.0, 10.0, 10.0, 10.0, 10.0, 10.0, 10.0, 10.0, 10.0, 10.0, 10.0, 10.0, 10.0, 10.0, 10.0, 10.0, 10.0, 10.0, 10.0, 10.0, 10.0, 10.0, 10.0, 10.0, 10.0, 10.0, 10.0, 10.0, 10.0, 10.0, 10.0, 10.0, 10.0, 10.0, 10.0, 10.0, 10.0, 10.0, 10.0, 10.0, 10.0, 10.0, 10.0, 10.0, 10.0, 10.0, 10.0, 10.0, 10.0, 10.0, 10.0, 10.0, 10.0, 10.0, 10.0, 10.0, 10.0, 10.0, 10.0, 10.0, 10.0, 10.0, 10.0, 10.0, 10.0, 10.0, 10.0, 10.0, 10.0, 10.0, 10.0, 10.0, 10.0, 10.0, 10.0, 10.0, 10.0, 10.0, 10.0, 10.0, 10.0, 10.0, 10.0, 10.0, 10.0, 10.0, 10.0, 10.0, 10.0, 10.0, 10.0, 10.0, 10.0, 10.0, 10.0, 10.0, 10.0, 10.0, 10.0, 10.0, 10.0, 10.0, 10.0, 10.0, 10.0, 10.0, 10.0, 10.0, 10.0, 10.0, 10.0, 10.0, 10.0, 10.0, 10.0, 10.0, 10.0, 10.0, 10.0, 10.0, 10.0, 10.0, 10.0, 10.0, 10.0, 10.0, 10.0, 10.0, 10.0, 10.0]
16 [10.0, 10.0, 10.0, 10.0, 10.0, 10.0, 10.0, 10.0, 10.0, 10.0, 10.0, 10.0, 10.0, 10.0, 10.0, 10.0, 10.0, 10.0, 10.0, 10.0, 10.0, 10.0, 10.0, 10.0, 10.0, 10.0, 10.0, 10.0, 10.0, 10.0, 10.0, 10.0, 10.0, 10.0, 10.0, 10.0, 10.0, 10.0, 10.0, 10.0, 10.0, 10.0, 10.0, 10.0, 10.0, 10.0, 10.0, 10.0, 10.0, 10.0, 10.0, 10.0, 10.0, 10.0, 10.0, 10.0, 10.0, 10.0, 10.0, 10.0, 10.0, 10.0, 10.0, 10.0, 10.0, 10.0, 10.0, 10.0, 10.0, 10.0, 10.0, 10.0, 10.0, 10.0, 10.0, 10.0, 10.0, 10.0, 10.0, 10.0, 10.0, 10.0, 10.0, 10.0, 10.0, 10.0, 10.0, 10.0, 10.0, 10.0, 10.0, 10.0, 10.0, 10.0, 10.0, 10.0, 10.0, 10.0, 10.0, 10.0, 10.0, 10.0, 10.0, 10.0, 10.0, 10.0, 10.0, 10.0, 10.0, 10.0, 10.0, 10.0, 10.0, 10.0, 10.0, 10.0, 10.0, 10.0, 10.0, 10.0, 10.0, 10.0, 10.0, 10.0, 10.0, 10.0, 10.0, 10.0, 10.0, 10.0, 10.0, 10.0, 10.0, 10.0, 10.0, 10.0, 10.0, 10.0, 10.0, 10.0, 10.0, 10.0, 10.0, 10.0, 10.0, 10.0, 10.0, 10.0, 10.0, 10.0, 10.0, 10.0, 10.0, 10.0, 10.0, 10.0, 10.0, 10.0, 10.0, 10.0, 10.0, 10.0, 10.0, 10.0, 10.0, 10.0, 10.0, 10.0, 10.0, 10.0, 10.0, 10.0, 10.0, 10.0, 10.0, 10.0, 10.0, 10.0, 10.0, 10.0, 10.0, 10.0]
17 [1.78, 1.81, 1.85, 1.88, 1.91, 1.94, 1.98, 2.01, 2.05, 2.09, 2.12, 2.16, 2.2, 2.2, 2.2, 2.2, 2.2, 2.2, 2.2, 2.2, 1.53, 1.53, 1.53, 1.53, 1.53, 1.53, 1.53, 1.53, 1.53, 1.53, 1.53, 1.56, 1.59, 1.62, 1.66, 1.69, 1.73, 2.2, 2.2, 2.2, 2.2, 2.2, 2.2, 2.2, 2.2, 2.2, 2.2, 2.2, 2.2, 2.2, 2.2, 2.2, 2.2, 2.2, 2.2, 2.2, 2.2, 2.2, 2.2, 2.2, 2.2, 2.2, 2.2, 2.2, 2.2, 2.2, 2.2, 2.2, 2.2, 2.2, 2.2, 2.2, 2.2, 2.2, 2.2, 2.2, 2.2, 2.2, 2.2, 1.11, 1.11, 1.11, 1.11, 1.11, 1.11, 1.11, 1.11, 1.11, 1.11, 1.11, 1.11, 1.11, 1.11, 1.11, 1.11, 1.11, 1.11, 1.11, 1.11, 2.2, 2.2, 2.2, 2.2, 2.2, 2.2, 2.2, 2.2, 2.2, 2.2, 2.2, 2.2, 2.2, 2.2, 2.2, 2.2, 2.2, 2.2, 2.2, 2.2, 2.2, 2.2, 2.2, 2.2, 2.2, 2.2, 2.2, 2.2, 2.2, 2.2, 2.2, 2.2, 2.2, 2.2, 2.2, 2.2, 2.2, 2.2, 2.2, 2.2, 2.2, 2.2, 2.2, 2.2, 2.2, 2.2, 2.2, 2.2, 2.2, 2.2, 2.2, 2.2, 2.2, 2.2, 2.2, 2.2, 2.2, 2.2, 2.2, 2.2, 2.2, 2.2, 2.2, 2.2, 2.2, 2.2, 2.2, 2.2, 2.2, 1.51, 1.48, 1.46, 1.43, 1.41, 1.38, 1.36, 1.33, 1.33, 1.33, 1.33, 1.33, 1.33, 1.33]
18 [1.78, 1.81, 1.85, 1.88, 1.91, 1.94, 1.98, 2.01, 2.05, 2.09, 2.12, 2.16, 2.2, 2.21, 2.21, 2.21, 2.21, 2.21, 2.21, 2.21, 1.53, 1.53, 1.53, 1.53, 1.53, 1.53, 1.53, 1.53, 1.53, 1.53, 1.53, 1.56, 1.59, 1.62, 1.66, 1.69, 1.73, 2.21, 2.21, 2.21, 2.21, 2.21, 2.21, 2.21, 2.21, 2.21, 2.21, 2.21, 2.21, 2.21, 2.21, 2.21, 2.21, 2.21, 2.21, 2.21, 2.21, 2.21, 2.21, 2.21, 2.21, 2.21, 2.21, 2.21, 2.21, 2.21, 2.21, 2.21, 2.21, 2.21, 2.21, 2.21, 2.21, 2.21, 2.21, 2.21, 2.21, 2.21, 2.21, 1.11, 1.11, 1.11, 1.11, 1.11, 1.11, 1.11, 1.11, 1.11, 1.11, 1.11, 1.11, 1.11, 1.11, 1.11, 1.11, 1.11, 1.11, 1.11, 1.11, 2.2, 2.2, 2.2, 2.2, 2.2, 2.2, 2.2, 2.2, 2.2, 2.2, 2.2, 2.2, 2.2, 2.2, 2.2, 2.2, 2.2, 2.2, 2.2, 2.2, 2.2, 2.2, 2.2, 2.2, 2.2, 2.2, 2.2, 2.2, 2.2, 2.2, 2.2, 2.2, 2.2, 2.2, 2.2, 2.2, 2.2, 2.2, 2.2, 2.2, 2.2, 2.2, 2.2, 2.2, 2.2, 2.2, 2.2, 2.2, 2.2, 2.2, 2.2, 2.2, 2.2, 2.2, 2.2, 2.2, 2.2, 2.2, 2.2, 2.2, 2.2, 2.2, 2.2, 2.2, 2.2, 2.2, 2.2, 2.2, 2.2, 1.51, 1.48, 1.46, 1.43, 1.41, 1.38, 1.36, 1.33, 1.33, 1.33, 1.33, 1.33, 1.33, 1.33]
19 [1.78, 1.81, 1.85, 1.88, 1.91, 1.94, 1.98, 2.01, 2.05, 2.09, 2.12, 2.16, 2.2, 2.21, 2.21, 2.21, 2.21, 2.21, 2.21, 2.21, 1.53, 1.53, 1.53, 1.53, 1.53, 1.53, 1.53, 1.53, 1.53, 1.53, 1.53, 1.56, 1.59, 1.62, 1.66, 1.69, 1.73, 2.21, 2.21, 2.21, 2.21, 2.21, 2.21, 2.21, 2.21, 2.21, 2.21, 2.21, 2.21, 2.21, 2.21, 2.21, 2.21, 2.21, 2.21, 2.21, 2.21, 2.21, 2.21, 2.21, 2.21, 2.21, 2.21, 2.21, 2.21, 2.21, 2.21, 2.21, 2.21, 2.21, 2.21, 2.21, 2.21, 2.2, 2.2, 2.2, 2.2, 2.2, 2.2, 1.11, 1.11, 1.11, 1.11, 1.11, 1.11, 1.11, 1.11, 1.11, 1.11, 1.11, 1.11, 1.11, 1.11, 1.11, 1.11, 1.11, 1.11, 1.11, 1.11, 2.2, 2.2, 2.2, 2.2, 2.2, 2.2, 2.2, 2.2, 2.2, 2.2, 2.2, 2.2, 2.2, 2.2, 2.2, 2.2, 2.2, 2.2, 2.2, 2.2, 2.2, 2.2, 2.2, 2.2, 2.2, 2.2, 2.2, 2.2, 2.2, 2.2, 2.2, 2.2, 2.2, 2.2, 2.2, 2.2, 2.2, 2.2, 2.2, 2.2, 2.2, 2.2, 2.2, 2.2, 2.2, 2.2, 2.2, 2.2, 2.2, 2.2, 2.2, 2.2, 2.2, 2.2, 2.2, 2.2, 2.2, 2.2, 2.2, 2.2, 2.2, 2.2, 2.2, 2.2, 2.2, 2.2, 2.2, 2.2, 2.2, 1.51, 1.48, 1.46, 1.43, 1.41, 1.38, 1.36, 1.33, 1.33, 1.33, 1.33, 1.33, 1.33, 1.33]
20 [1.78, 1.81, 1.85, 1.88, 1.91, 1.94, 1.98, 2.01, 2.05, 2.09, 2.12, 2.16, 2.2, 2.21, 2.21, 2.21, 2.21, 2.21, 2.21, 2.21, 1.53, 1.53, 1.53, 1.53, 1.53, 1.53, 1.53, 1.53, 1.53, 1.53, 1.53, 1.56, 1.59, 1.62, 1.66, 1.69, 1.73, 2.21, 2.21, 2.21, 2.21, 2.21, 2.21, 2.21, 2.21, 2.21, 2.21, 2.21, 2.21, 2.21, 2.21, 2.21, 2.21, 2.21, 2.21, 2.21, 2.21, 2.21, 2.21, 2.21, 2.21, 2.21, 2.21, 2.21, 2.21, 2.21, 2.21, 2.21, 2.21, 2.21, 2.21, 2.21, 2.21, 2.21, 2.21, 2.21, 2.21, 2.21, 2.21, 1.11, 1.11, 1.11, 1.11, 1.11, 1.11, 1.11, 1.11, 1.11, 1.11, 1.11, 1.11, 1.11, 1.11, 1.11, 1.11, 1.11, 1.11, 1.11, 1.11, 2.2, 2.2, 2.2, 2.2, 2.2, 2.2, 2.2, 2.2, 2.2, 2.2, 2.2, 2.2, 2.2, 2.2, 2.2, 2.2, 2.2, 2.2, 2.2, 2.2, 2.2, 2.2, 2.2, 2.2, 2.2, 2.2, 2.2, 2.2, 2.2, 2.2, 2.2, 2.2, 2.2, 2.2, 2.2, 2.2, 2.2, 2.2, 2.2, 2.2, 2.2, 2.2, 2.2, 2.2, 2.2, 2.2, 2.2, 2.2, 2.2, 2.2, 2.2, 2.2, 2.2, 2.2, 2.2, 2.2, 2.2, 2.2, 2.2, 2.2, 2.2, 2.2, 2.2, 2.2, 2.2, 2.2, 2.2, 2.2, 2.2, 1.51, 1.48, 1.46, 1.43, 1.41, 1.38, 1.36, 1.33, 1.33, 1.33, 1.33, 1.33, 1.33, 1.33]
21 [1.78, 1.81, 1.85, 1.88, 1.91, 1.94, 1.98, 2.01, 2.05, 2.09, 2.12, 2.16, 2.2, 2.21, 2.21, 2.21, 2.21, 2.21, 2.21, 2.21, 1.53, 1.53, 1.53, 1.53, 1.53, 1.53, 1.53, 1.53, 1.53, 1.53, 1.53, 1.56, 1.59, 1.62, 1.66, 1.69, 1.73, 2.21, 2.21, 2.21, 2.21, 2.21, 2.21, 2.21, 2.21, 2.21, 2.21, 2.21, 2.21, 2.21, 2.21, 2.21, 2.21, 2.21, 2.21, 2.21, 2.21, 2.21, 2.21, 2.21, 2.21, 2.21, 2.21, 2.21, 2.21, 2.21, 2.21, 2.21, 2.21, 2.21, 2.21, 2.21, 2.21, 2.21, 2.21, 2.21, 2.21, 2.21, 2.21, 1.11, 1.11, 1.11, 1.11, 1.11, 1.11, 1.11, 1.11, 1.11, 1.11, 1.11, 1.11, 1.11, 1.11, 1.11, 1.11, 1.11, 1.11, 1.11, 1.11, 2.2, 2.2, 2.2, 2.2, 2.2, 2.2, 2.2, 2.2, 2.2, 2.2, 2.2, 2.2, 2.2, 2.2, 2.2, 2.2, 2.2, 2.2, 2.2, 2.2, 2.2, 2.2, 2.2, 2.2, 2.2, 2.2, 2.2, 2.2, 2.2, 2.2, 2.2, 2.2, 2.2, 2.2, 2.2, 2.2, 2.2, 2.2, 2.2, 2.2, 2.2, 2.2, 2.2, 2.2, 2.2, 2.2, 2.2, 2.2, 2.2, 2.2, 2.2, 2.2, 2.2, 2.2, 2.2, 2.2, 2.2, 2.2, 2.2, 2.2, 2.2, 2.2, 2.2, 2.2, 2.2, 2.2, 2.2, 2.2, 2.2, 1.51, 1.48, 1.46, 1.43, 1.4, 1.38, 1.36, 1.33, 1.33, 1.33, 1.33, 1.33, 1.33, 1.33]
22 [1.81, 1.84, 1.87, 1.91, 1.94, 1.98, 2.01, 2.05, 2.08, 2.12, 2.16, 2.18, 2.18, 2.18, 2.18, 2.18, 2.18, 2.18, 2.18, 1.52, 1.52, 1.52, 1.52, 1.52, 1.52, 1.52, 1.52, 1.52, 1.52, 1.54, 1.57, 1.6, 1.63, 1.67, 1.7, 2.19, 2.19, 2.19, 2.19, 2.19, 2.19, 2.19, 2.19, 2.19, 2.19, 2.19, 2.19, 2.19, 2.19, 2.19, 2.19, 2.19, 2.19, 2.19, 2.2, 2.2, 2.2, 2.2, 2.2, 2.2, 2.2, 2.2, 2.2, 2.2, 2.2, 2.2, 2.2, 2.2, 2.2, 2.2, 2.2, 2.2, 2.2, 2.2, 2.2, 2.2, 2.2, 1.11, 1.11, 1.11, 1.11, 1.11, 1.11, 1.11, 1.11, 1.11, 1.11, 1.11, 1.11, 1.11, 1.11, 1.11, 1.11, 1.11, 1.11, 1.11, 1.11, 1.11, 2.21, 2.21, 2.21, 2.21, 2.21, 2.21, 2.21, 2.21, 2.21, 2.21, 2.21, 2.21, 2.21, 2.21, 2.21, 2.21, 2.21, 2.21, 2.21, 2.21, 2.21, 2.21, 2.21, 2.21, 2.21, 2.21, 2.21, 2.21, 2.21, 2.21, 2.21, 2.22, 2.22, 2.22, 2.22, 2.22, 2.22, 2.22, 2.22, 2.22, 2.22, 2.22, 2.22, 2.22, 2.22, 2.22, 2.22, 2.22, 2.22, 2.22, 2.22, 2.22, 2.22, 2.22, 2.22, 2.22, 2.22, 2.22, 2.22, 2.22, 2.22, 2.23, 2.23, 2.23, 2.23, 2.23, 2.23, 2.23, 1.53, 1.51, 1.48, 1.46, 1.43, 1.41, 1.38, 1.36, 1.35, 1.35, 1.35, 1.35, 1.35, 1.35, 1.35, 1.35]
23 [1.83, 1.86, 1.9, 1.93, 1.97, 2.0, 2.04, 2.08, 2.11, 2.15, 2.16, 2.16, 2.16, 2.16, 2.16, 2.16, 2.16, 1.5, 1.5, 1.5, 1.5, 1.51, 1.51, 1.51, 1.51, 1.51, 1.51, 1.51, 1.54, 1.57, 1.6, 1.64, 1.67, 1.71, 2.17, 2.17, 2.17, 2.18, 2.18, 2.18, 2.18, 2.18, 2.18, 2.18, 2.18, 2.18, 2.18, 2.18, 2.18, 2.18, 2.18, 2.18, 2.18, 2.18, 2.18, 2.19, 2.19, 2.19, 2.19, 2.19, 2.19, 2.19, 2.19, 2.19, 2.19, 2.19, 2.19, 2.19, 2.19, 2.19, 2.19, 2.19, 2.19, 2.19, 2.2, 1.1, 1.1, 1.1, 1.1, 1.1, 1.1, 1.11, 1.11, 1.11, 1.11, 1.11, 1.11, 1.11, 1.11, 1.11, 1.11, 1.11, 1.11, 1.11, 1.11, 1.11, 2.21, 2.21, 2.21, 2.21, 2.21, 2.21, 2.21, 2.21, 2.21, 2.21, 2.21, 2.21, 2.21, 2.21, 2.21, 2.21, 2.21, 2.21, 2.22, 2.22, 2.22, 2.22, 2.22, 2.22, 2.22, 2.22, 2.22, 2.22, 2.22, 2.22, 2.22, 2.22, 2.22, 2.22, 2.22, 2.22, 2.22, 2.23, 2.23, 2.23, 2.23, 2.23, 2.23, 2.23, 2.23, 2.23, 2.23, 2.23, 2.23, 2.23, 2.23, 2.23, 2.23, 2.24, 2.24, 2.24, 2.24, 2.24, 2.24, 2.24, 2.24, 2.24, 2.24, 2.24, 2.24, 2.24, 2.24, 2.25, 2.25, 1.54, 1.51, 1.48, 1.46, 1.43, 1.41, 1.39, 1.36, 1.36, 1.36, 1.37, 1.37, 1.37, 1.37, 1.37, 1.37, 2.11]
24 [1.87, 1.91, 1.94, 1.98, 2.02, 2.05, 2.09, 2.1, 2.1, 2.1, 2.11, 2.11, 2.11, 2.11, 1.46, 1.46, 1.47, 1.47, 1.47, 1.47, 1.47, 1.47, 1.47, 1.47, 1.47, 1.5, 1.53, 1.57, 1.6, 1.63, 1.67, 2.13, 2.13, 2.13, 2.14, 2.14, 2.14, 2.14, 2.14, 2.14, 2.14, 2.14, 2.14, 2.15, 2.15, 2.15, 2.15, 2.15, 2.15, 2.15, 2.15, 2.15, 2.15, 2.16, 2.16, 2.16, 2.16, 2.16, 2.16, 2.16, 2.16, 2.16, 2.16, 2.16, 2.17, 2.17, 2.17, 2.17, 2.17, 2.17, 2.17, 2.17, 2.17, 1.08, 1.09, 1.09, 1.09, 1.09, 1.09, 1.09, 1.09, 1.09, 1.09, 1.09, 1.09, 1.09, 1.09, 1.09, 1.09, 1.09, 1.09, 1.09, 1.09, 1.09, 2.19, 2.19, 2.19, 2.19, 2.2, 2.2, 2.2, 2.2, 2.2, 2.2, 2.2, 2.2, 2.2, 2.2, 2.2, 2.21, 2.21, 2.21, 2.21, 2.21, 2.21, 2.21, 2.21, 2.21, 2.21, 2.22, 2.22, 2.22, 2.22, 2.22, 2.22, 2.22, 2.22, 2.22, 2.22, 2.22, 2.23, 2.23, 2.23, 2.23, 2.23, 2.23, 2.23, 2.23, 2.23, 2.24, 2.24, 2.24, 2.24, 2.24, 2.24, 2.24, 2.24, 2.24, 2.25, 2.25, 2.25, 2.25, 2.25, 2.25, 2.25, 2.25, 2.26, 2.26, 2.26, 2.26, 2.26, 2.26, 2.26, 1.55, 1.52, 1.5, 1.47, 1.45, 1.42, 1.4, 1.37, 1.37, 1.37, 1.37, 1.38, 1.38, 1.38, 1.38, 1.38, 2.14, 2.1, 2.07]
25 [1.89, 1.92, 1.96, 1.99, 2.03, 2.07, 2.08, 2.08, 2.08, 2.08, 2.09, 2.09, 2.09, 1.44, 1.45, 1.45, 1.45, 1.45, 1.45, 1.45, 1.45, 1.45, 1.45, 1.46, 1.49, 1.52, 1.55, 1.58, 1.62, 1.65, 2.11, 2.11, 2.12, 2.12, 2.12, 2.12, 2.12, 2.12, 2.12, 2.12, 2.12, 2.13, 2.13, 2.13, 2.13, 2.13, 2.13, 2.13, 2.13, 2.13, 2.14, 2.14, 2.14, 2.14, 2.14, 2.14, 2.14, 2.14, 2.14, 2.15, 2.15, 2.15, 2.15, 2.15, 2.15, 2.15, 2.15, 2.15, 2.15, 2.16, 2.16, 2.16, 1.07, 1.07, 1.07, 1.07, 1.07, 1.07, 1.07, 1.07, 1.07, 1.08, 1.08, 1.08, 1.08, 1.08, 1.08, 1.08, 1.08, 1.08, 1.08, 1.08, 1.08, 2.18, 2.18, 2.18, 2.18, 2.18, 2.18, 2.18, 2.19, 2.19, 2.19, 2.19, 2.19, 2.19, 2.19, 2.19, 2.19, 2.19, 2.2, 2.2, 2.2, 2.2, 2.2, 2.2, 2.2, 2.2, 2.2, 2.21, 2.21, 2.21, 2.21, 2.21, 2.21, 2.21, 2.21, 2.21, 2.22, 2.22, 2.22, 2.22, 2.22, 2.22, 2.22, 2.22, 2.22, 2.23, 2.23, 2.23, 2.23, 2.23, 2.23, 2.23, 2.23, 2.24, 2.24, 2.24, 2.24, 2.24, 2.24, 2.24, 2.24, 2.25, 2.25, 2.25, 2.25, 2.25, 2.25, 2.26, 2.26, 2.26, 1.56, 1.54, 1.51, 1.49, 1.46, 1.44, 1.41, 1.39, 1.37, 1.37, 1.37, 1.37, 1.37, 1.37, 1.37, 1.37, 1.37, 2.13, 2.09, 2.06]
26 [1.89, 1.92, 1.96, 1.99, 2.03, 2.06, 2.06, 2.07, 2.07, 2.07, 2.07, 2.07, 1.43, 1.43, 1.43, 1.43, 1.43, 1.43, 1.43, 1.44, 1.44, 1.44, 1.44, 1.46, 1.49, 1.52, 1.55, 1.58, 1.62, 2.1, 2.1, 2.1, 2.1, 2.1, 2.1, 2.1, 2.11, 2.11, 2.11, 2.11, 2.11, 2.11, 2.11, 2.11, 2.11, 2.12, 2.12, 2.12, 2.12, 2.12, 2.12, 2.12, 2.12, 2.12, 2.12, 2.13, 2.13, 2.13, 2.13, 2.13, 2.13, 2.13, 2.13, 2.13, 2.13, 2.14, 2.14, 2.14, 2.14, 2.14, 2.14, 2.14, 1.05, 1.06, 1.06, 1.06, 1.06, 1.06, 1.06, 1.06, 1.06, 1.06, 1.06, 1.06, 1.06, 1.06, 1.06, 1.06, 1.06, 1.06, 1.06, 1.06, 1.06, 2.16, 2.16, 2.16, 2.17, 2.17, 2.17, 2.17, 2.17, 2.17, 2.17, 2.17, 2.17, 2.17, 2.18, 2.18, 2.18, 2.18, 2.18, 2.18, 2.18, 2.18, 2.18, 2.18, 2.19, 2.19, 2.19, 2.19, 2.19, 2.19, 2.19, 2.19, 2.19, 2.2, 2.2, 2.2, 2.2, 2.2, 2.2, 2.2, 2.2, 2.2, 2.21, 2.21, 2.21, 2.21, 2.21, 2.21, 2.21, 2.21, 2.21, 2.22, 2.22, 2.22, 2.22, 2.22, 2.22, 2.22, 2.23, 2.23, 2.23, 2.23, 2.23, 2.23, 2.23, 2.23, 2.24, 2.24, 2.24, 2.24, 2.24, 1.54, 1.51, 1.48, 1.46, 1.44, 1.41, 1.39, 1.36, 1.35, 1.35, 1.35, 1.35, 1.35, 1.35, 1.35, 1.36, 1.36, 10.0, 0.0]
27 [1.89, 1.92, 1.96, 1.99, 2.03, 2.06, 2.06, 2.07, 2.07, 2.07, 2.07, 2.07, 1.43, 1.43, 1.43, 1.43, 1.43, 1.43, 1.43, 1.44, 1.44, 1.44, 1.44, 1.46, 1.49, 1.52, 1.55, 1.58, 1.62, 2.1, 2.1, 2.1, 2.1, 2.1, 2.1, 2.1, 2.11, 2.11, 2.11, 2.11, 2.11, 2.11, 2.11, 2.11, 2.11, 2.12, 2.12, 2.12, 2.12, 2.12, 2.12, 2.12, 2.12, 2.12, 2.12, 2.13, 2.13, 2.13, 2.13, 2.13, 2.13, 2.13, 2.13, 2.13, 2.13, 2.14, 2.14, 2.14, 2.14, 2.14, 2.14, 2.14, 1.05, 1.06, 1.06, 1.06, 1.06, 1.06, 1.06, 1.06, 1.06, 1.06, 1.06, 1.06, 1.06, 1.06, 1.06, 1.06, 1.06, 1.06, 1.06, 1.06, 1.06, 2.16, 2.16, 2.16, 2.17, 2.17, 2.17, 2.17, 2.17, 2.17, 2.17, 2.17, 2.17, 2.17, 2.18, 2.18, 2.18, 2.18, 2.18, 2.18, 2.18, 2.18, 2.18, 2.18, 2.19, 2.19, 2.19, 2.19, 2.19, 2.19, 2.19, 2.19, 2.19, 2.2, 2.2, 2.2, 2.2, 2.2, 2.2, 2.2, 2.2, 2.2, 2.21, 2.21, 2.21, 2.21, 2.21, 2.21, 2.21, 2.21, 2.21, 2.22, 2.22, 2.22, 2.22, 2.22, 2.22, 2.22, 2.23, 2.23, 2.23, 2.23, 2.23, 2.23, 2.23, 2.23, 2.24, 2.24, 2.24, 2.24, 2.24, 1.54, 1.51, 1.48, 1.46, 1.44, 1.41, 1.39, 1.36, 1.35, 1.35, 1.35, 1.35, 1.35, 1.35, 1.35, 1.36, 1.36, 2.09, 2.06]
28 [1.87, 1.91, 1.94, 1.98, 2.02, 2.05, 2.06, 2.06, 2.06, 2.06, 2.06, 2.07, 1.42, 1.42, 1.42, 1.42, 1.42, 1.42, 1.42, 1.43, 1.43, 1.43, 1.43, 1.44, 1.47, 1.5, 1.53, 1.57, 1.6, 2.09, 2.09, 2.09, 2.09, 2.09, 2.09, 2.09, 2.09, 2.1, 2.1, 2.1, 2.1, 2.1, 2.1, 2.1, 2.1, 2.1, 2.1, 2.11, 2.11, 2.11, 2.11, 2.11, 2.11, 2.11, 2.11, 2.11, 2.11, 2.11, 2.11, 2.12, 2.12, 2.12, 2.12, 2.12, 2.12, 2.12, 2.12, 2.12, 2.12, 2.12, 2.13, 2.13, 1.04, 1.04, 1.04, 1.04, 1.04, 1.04, 1.04, 1.04, 1.04, 1.04, 1.04, 1.04, 1.04, 1.04, 1.04, 1.04, 1.04, 1.05, 1.05, 1.05, 1.05, 1.05, 2.15, 2.15, 2.15, 2.15, 2.15, 2.15, 2.15, 2.15, 2.15, 2.15, 2.15, 2.15, 2.16, 2.16, 2.16, 2.16, 2.16, 2.16, 2.16, 2.16, 2.16, 2.16, 2.16, 2.16, 2.17, 2.17, 2.17, 2.17, 2.17, 2.17, 2.17, 2.17, 2.17, 2.17, 2.17, 2.18, 2.18, 2.18, 2.18, 2.18, 2.18, 2.18, 2.18, 2.18, 2.18, 2.19, 2.19, 2.19, 2.19, 2.19, 2.19, 2.19, 2.19, 2.19, 2.2, 2.2, 2.2, 2.2, 2.2, 2.2, 2.2, 2.2, 2.2, 2.21, 2.21, 2.21, 2.21, 2.21, 2.21, 2.21, 1.52, 1.5, 1.47, 1.45, 1.42, 1.4, 1.37, 1.35, 1.33, 1.32, 1.32, 1.32, 1.33, 1.33, 1.33, 1.33, 1.33, 1.33]
29 [1.84, 1.87, 1.9, 1.94, 1.97, 2.01, 2.04, 2.06, 2.06, 2.06, 2.06, 2.06, 2.06, 1.41, 1.41, 1.41, 1.41, 1.41, 1.41, 1.41, 1.41, 1.41, 1.41, 1.41, 1.43, 1.46, 1.49, 1.52, 1.55, 1.58, 2.08, 2.08, 2.08, 2.08, 2.08, 2.08, 2.08, 2.08, 2.08, 2.08, 2.08, 2.08, 2.08, 2.08, 2.08, 2.08, 2.08, 2.08, 2.08, 2.09, 2.09, 2.09, 2.09, 2.09, 2.09, 2.09, 2.09, 2.09, 2.09, 2.09, 2.09, 2.09, 2.09, 2.09, 2.09, 2.09, 2.09, 2.09, 2.09, 2.1, 2.1, 2.1, 2.1, 2.1, 1.01, 1.01, 1.01, 1.01, 1.01, 1.01, 1.01, 1.01, 1.01, 1.01, 1.01, 1.01, 1.01, 1.01, 1.01, 1.01, 1.01, 1.01, 1.01, 1.01, 1.01, 1.01, 2.11, 2.11, 2.11, 2.11, 2.11, 2.11, 2.11, 2.11, 2.11, 2.11, 2.11, 2.11, 2.11, 2.11, 2.11, 2.11, 2.11, 2.12, 2.12, 2.12, 2.12, 2.12, 2.12, 2.12, 2.12, 2.12, 2.12, 2.12, 2.12, 2.12, 2.12, 2.12, 2.12, 2.12, 2.12, 2.12, 2.12, 2.13, 2.13, 2.13, 2.13, 2.13, 2.13, 2.13, 2.13, 2.13, 2.13, 2.13, 2.13, 2.13, 2.13, 2.13, 2.13, 2.13, 2.14, 2.14, 2.14, 2.14, 2.14, 2.14, 2.14, 2.14, 2.14, 2.14, 2.14, 2.14, 2.14, 2.14, 2.14, 2.15, 2.15, 2.15, 1.45, 1.43, 1.4, 1.38, 1.36, 1.33, 1.31, 1.29, 1.27, 1.26, 1.27, 1.27, 1.27, 1.27]
30 [1.82, 1.85, 1.88, 1.92, 1.95, 1.99, 2.02, 2.06, 2.06, 2.06, 2.06, 2.06, 2.06, 2.06, 1.4, 1.4, 1.4, 1.4, 1.4, 1.4, 1.4, 1.4, 1.4, 1.4, 1.41, 1.43, 1.46, 1.49, 1.52, 1.55, 1.59, 2.07, 2.07, 2.07, 2.07, 2.07, 2.07, 2.07, 2.07, 2.07, 2.07, 2.07, 2.07, 2.07, 2.07, 2.07, 2.07, 2.07, 2.07, 2.07, 2.08, 2.08, 2.08, 2.08, 2.08, 2.08, 2.08, 2.08, 2.08, 2.08, 2.08, 2.08, 2.08, 2.08, 2.08, 2.08, 2.08, 2.08, 2.08, 2.08, 2.08, 2.08, 2.08, 2.08, 0.99, 0.99, 0.99, 0.99, 0.99, 0.99, 0.99, 0.99, 0.99, 0.99, 0.99, 0.99, 0.99, 0.99, 0.99, 0.99, 0.99, 0.99, 0.99, 0.99, 0.99, 0.99, 0.99, 2.09, 2.09, 2.09, 2.09, 2.09, 2.09, 2.09, 2.09, 2.09, 2.09, 2.09, 2.09, 2.09, 2.09, 2.09, 2.09, 2.09, 2.09, 2.09, 2.09, 2.09, 2.09, 2.09, 2.1, 2.1, 2.1, 2.1, 2.1, 2.1, 2.1, 2.1, 2.1, 2.1, 2.1, 2.1, 2.1, 2.1, 2.1, 2.1, 2.1, 2.1, 2.1, 2.1, 2.1, 2.1, 2.1, 2.1, 2.1, 2.1, 2.1, 2.1, 2.1, 2.1, 2.11, 2.11, 2.11, 2.11, 2.11, 2.11, 2.11, 2.11, 2.11, 2.11, 2.11, 2.11, 2.11, 2.11, 2.11, 2.11, 2.11, 2.11, 2.11, 2.11, 1.42, 1.39, 1.37, 1.35, 1.32, 1.3, 1.28, 1.26, 1.24, 1.24, 1.24, 1.24]
31 [1.8, 1.83, 1.87, 1.9, 1.93, 1.97, 2.0, 2.04, 2.06, 2.06, 2.06, 2.06, 2.06, 2.06, 1.39, 1.39, 1.39, 1.39, 1.39, 1.39, 1.39, 1.39, 1.39, 1.39, 1.39, 1.41, 1.44, 1.47, 1.5, 1.53, 1.56, 1.59, 2.06, 2.06, 2.06, 2.06, 2.06, 2.06, 2.06, 2.06, 2.06, 2.06, 2.06, 2.06, 2.06, 2.06, 2.06, 2.06, 2.06, 2.06, 2.06, 2.07, 2.07, 2.07, 2.07, 2.07, 2.07, 2.07, 2.07, 2.07, 2.07, 2.07, 2.07, 2.07, 2.07, 2.07, 2.07, 2.07, 2.07, 2.07, 2.07, 2.07, 2.07, 2.07, 2.07, 0.97, 0.97, 0.97, 0.97, 0.97, 0.97, 0.97, 0.97, 0.97, 0.97, 0.97, 0.97, 0.97, 0.97, 0.97, 0.97, 0.97, 0.97, 0.97, 0.97, 0.97, 0.97, 0.97, 0.97, 2.07, 2.07, 2.07, 2.07, 2.07, 2.07, 2.07, 2.07, 2.07, 2.07, 2.07, 2.07, 2.07, 2.07, 2.07, 2.07, 2.07, 2.07, 2.07, 2.07, 2.07, 2.07, 2.07, 2.07, 2.07, 2.07, 2.07, 2.07, 2.07, 2.07, 2.07, 2.07, 2.07, 2.07, 2.07, 2.07, 2.07, 2.07, 2.07, 2.07, 2.07, 2.07, 2.07, 2.07, 2.07, 2.07, 2.07, 2.07, 2.07, 2.07, 2.07, 2.08, 2.08, 2.08, 2.08, 2.08, 2.08, 2.08, 2.08, 2.08, 2.08, 2.08, 2.08, 2.08, 2.08, 2.08, 2.08, 2.08, 2.08, 2.08, 2.08, 2.08, 2.08, 1.39, 1.36, 1.34, 1.31, 1.29, 1.27, 1.25, 1.23, 1.21, 1.21]
32 [1.78, 1.81, 1.85, 1.88, 1.91, 1.94, 1.98, 2.01, 2.05, 2.06, 2.06, 2.06, 2.06, 2.06, 2.06, 1.39, 1.39, 1.39, 1.39, 1.39, 1.39, 1.39, 1.39, 1.39, 1.39, 1.39, 1.42, 1.44, 1.47, 1.5, 1.53, 1.56, 2.06, 2.06, 2.06, 2.06, 2.06, 2.06, 2.06, 2.06, 2.06, 2.06, 2.06, 2.06, 2.06, 2.06, 2.06, 2.06, 2.06, 2.06, 2.06, 2.06, 2.06, 2.06, 2.06, 2.05, 2.05, 2.05, 2.05, 2.05, 2.05, 2.05, 2.05, 2.05, 2.05, 2.05, 2.05, 2.05, 2.05, 2.05, 2.05, 2.05, 2.05, 2.05, 2.05, 2.05, 0.96, 0.96, 0.96, 0.96, 0.96, 0.96, 0.96, 0.96, 0.96, 0.96, 0.96, 0.96, 0.96, 0.96, 0.96, 0.96, 0.96, 0.96, 0.96, 0.96, 0.96, 0.96, 0.96, 0.96, 2.05, 2.05, 2.05, 2.05, 2.05, 2.05, 2.05, 2.05, 2.05, 2.05, 2.05, 2.05, 2.05, 2.05, 2.05, 2.05, 2.05, 2.05, 2.05, 2.05, 2.05, 2.05, 2.05, 2.05, 2.05, 2.05, 2.05, 2.05, 2.05, 2.05, 2.05, 2.05, 2.05, 2.05, 2.05, 2.05, 2.05, 2.05, 2.05, 2.05, 2.05, 2.05, 2.05, 2.05, 2.05, 2.05, 2.05, 2.05, 2.05, 2.05, 2.05, 2.05, 2.05, 2.04, 2.04, 2.04, 2.04, 2.04, 2.04, 2.04, 2.04, 2.04, 2.04, 2.04, 2.04, 2.04, 2.04, 2.04, 2.04, 2.04, 2.04, 2.04, 2.04, 2.04, 1.35, 1.33, 1.31, 1.28, 1.26, 1.24, 1.22, 1.2]
33 [1.76, 1.79, 1.82, 1.85, 1.89, 1.92, 1.95, 1.99, 2.02, 2.06, 2.06, 2.06, 2.06, 2.06, 2.06, 1.38, 1.38, 1.38, 1.38, 1.38, 1.38, 1.38, 1.38, 1.38, 1.38, 1.38, 1.39, 1.42, 1.44, 1.47, 1.5, 1.53, 1.56, 2.05, 2.05, 2.05, 2.05, 2.05, 2.05, 2.05, 2.05, 2.05, 2.05, 2.05, 2.05, 2.05, 2.05, 2.05, 2.05, 2.05, 2.05, 2.05, 2.05, 2.05, 2.05, 2.05, 2.05, 2.04, 2.04, 2.04, 2.04, 2.04, 2.04, 2.04, 2.04, 2.04, 2.04, 2.04, 2.04, 2.04, 2.04, 2.04, 2.04, 2.04, 2.04, 2.04, 2.04, 0.94, 0.94, 0.94, 0.94, 0.94, 0.94, 0.94, 0.94, 0.94, 0.94, 0.94, 0.94, 0.94, 0.94, 0.94, 0.94, 0.94, 0.94, 0.94, 0.94, 0.94, 0.94, 0.94, 0.94, 0.94, 2.03, 2.03, 2.03, 2.03, 2.03, 2.03, 2.03, 2.03, 2.03, 2.03, 2.03, 2.03, 2.03, 2.03, 2.03, 2.03, 2.03, 2.03, 2.02, 2.02, 2.02, 2.02, 2.02, 2.02, 2.02, 2.02, 2.02, 2.02, 2.02, 2.02, 2.02, 2.02, 2.02, 2.02, 2.02, 2.02, 2.02, 2.02, 2.02, 2.02, 2.02, 2.02, 2.02, 2.02, 2.02, 2.02, 2.02, 2.01, 2.01, 2.01, 2.01, 2.01, 2.01, 2.01, 2.01, 2.01, 2.01, 2.01, 2.01, 2.01, 2.01, 2.01, 2.01, 2.01, 2.01, 2.01, 2.01, 2.01, 2.01, 2.0, 2.0, 2.0, 2.0, 2.0, 1.33, 1.3, 1.28, 1.26, 1.23, 1.21]
34 [1.74, 1.77, 1.8, 1.83, 1.86, 1.89, 1.92, 1.96, 1.99, 2.02, 2.06, 2.07, 2.07, 2.07, 2.07, 2.07, 1.38, 1.38, 1.38, 1.38, 1.38, 1.38, 1.37, 1.37, 1.37, 1.37, 1.37, 1.38, 1.41, 1.44, 1.46, 1.49, 1.52, 1.55, 2.05, 2.05, 2.05, 2.05, 2.05, 2.05, 2.05, 2.05, 2.05, 2.05, 2.04, 2.04, 2.04, 2.04, 2.04, 2.04, 2.04, 2.04, 2.04, 2.04, 2.04, 2.04, 2.04, 2.04, 2.04, 2.04, 2.03, 2.03, 2.03, 2.03, 2.03, 2.03, 2.03, 2.03, 2.03, 2.03, 2.03, 2.03, 2.03, 2.03, 2.03, 2.03, 2.03, 2.02, 2.02, 0.92, 0.92, 0.92, 0.92, 0.92, 0.92, 0.92, 0.92, 0.92, 0.92, 0.92, 0.92, 0.92, 0.92, 0.92, 0.92, 0.92, 0.92, 0.92, 0.92, 0.92, 0.92, 0.92, 0.92, 2.01, 2.01, 2.01, 2.01, 2.01, 2.01, 2.01, 2.01, 2.01, 2.01, 2.0, 2.0, 2.0, 2.0, 2.0, 2.0, 2.0, 2.0, 2.0, 2.0, 2.0, 2.0, 2.0, 2.0, 2.0, 2.0, 2.0, 2.0, 1.99, 1.99, 1.99, 1.99, 1.99, 1.99, 1.99, 1.99, 1.99, 1.99, 1.99, 1.99, 1.99, 1.99, 1.99, 1.98, 1.98, 1.98, 1.98, 1.98, 1.98, 1.98, 1.98, 1.98, 1.98, 1.98, 1.98, 1.98, 1.98, 1.97, 1.97, 1.97, 1.97, 1.97, 1.97, 1.97, 1.97, 1.97, 1.97, 1.97, 1.97, 1.96, 1.96, 1.96, 1.96, 1.96, 1.96, 1.3, 1.28, 1.25, 1.23]
35 [1.74, 1.77, 1.8, 1.83, 1.86, 1.89, 1.92, 1.96, 1.99, 2.02, 2.06, 2.07, 2.07, 2.07, 2.07, 2.07, 1.38, 1.38, 1.38, 1.38, 1.38, 1.38, 1.37, 1.37, 1.37, 1.37, 1.37, 1.38, 1.41, 1.44, 1.46, 1.49, 1.52, 1.55, 2.05, 2.05, 2.05, 2.05, 2.05, 2.05, 2.05, 2.05, 2.05, 2.05, 2.04, 2.04, 2.04, 2.04, 2.04, 2.04, 2.04, 2.04, 2.04, 2.04, 2.04, 2.04, 2.04, 2.04, 2.04, 2.04, 2.03, 2.03, 2.03, 2.03, 2.03, 2.03, 2.03, 2.03, 2.03, 2.03, 2.03, 2.03, 2.03, 2.03, 2.03, 2.03, 2.03, 2.02, 2.02, 0.92, 0.92, 0.92, 0.92, 0.92, 0.92, 0.92, 0.92, 0.92, 0.92, 0.92, 0.92, 0.92, 0.92, 0.92, 0.92, 0.92, 0.92, 0.92, 0.92, 0.92, 0.92, 0.92, 0.92, 2.01, 2.01, 2.01, 2.01, 2.01, 2.01, 2.01, 2.01, 2.01, 2.01, 2.0, 2.0, 2.0, 2.0, 2.0, 2.0, 2.0, 2.0, 2.0, 2.0, 2.0, 2.0, 2.0, 2.0, 2.0, 2.0, 2.0, 2.0, 1.99, 1.99, 1.99, 1.99, 1.99, 1.99, 1.99, 1.99, 1.99, 1.99, 1.99, 1.99, 1.99, 1.99, 1.99, 1.98, 1.98, 1.98, 1.98, 1.98, 1.98, 1.98, 1.98, 1.98, 1.98, 1.98, 1.98, 1.98, 1.98, 1.97, 1.97, 1.97, 1.97, 1.97, 1.97, 1.97, 1.97, 1.97, 1.97, 1.97, 1.97, 1.96, 1.96, 1.96, 1.96, 1.96, 1.96, 1.3, 1.28, 10.0, 0.0]
36 [1.69, 1.72, 1.75, 1.78, 1.81, 1.84, 1.87, 1.9, 1.93, 1.96, 1.99, 2.03, 2.06, 2.09, 2.08, 2.08, 2.08, 2.08, 1.37, 1.37, 1.37, 1.37, 1.37, 1.37, 1.37, 1.37, 1.36, 1.36, 1.36, 1.37, 1.4, 1.42, 1.45, 1.48, 1.5, 1.53, 2.05, 2.05, 2.05, 2.04, 2.04, 2.04, 2.04, 2.04, 2.04, 2.04, 2.04, 2.03, 2.03, 2.03, 2.03, 2.03, 2.03, 2.03, 2.03, 2.02, 2.02, 2.02, 2.02, 2.02, 2.02, 2.02, 2.02, 2.01, 2.01, 2.01, 2.01, 2.01, 2.01, 2.01, 2.01, 2.01, 2.0, 2.0, 2.0, 2.0, 2.0, 2.0, 2.0, 2.0, 2.0, 2.0, 0.89, 0.89, 0.89, 0.89, 0.89, 0.89, 0.89, 0.89, 0.89, 0.89, 0.89, 0.89, 0.89, 0.89, 0.88, 0.88, 0.88, 0.88, 0.88, 0.88, 0.88, 0.88, 0.88, 0.88, 0.88, 1.97, 1.97, 1.97, 1.96, 1.96, 1.96, 1.96, 1.96, 1.96, 1.96, 1.96, 1.96, 1.96, 1.95, 1.95, 1.95, 1.95, 1.95, 1.95, 1.95, 1.95, 1.95, 1.94, 1.94, 1.94, 1.94, 1.94, 1.94, 1.94, 1.94, 1.94, 1.93, 1.93, 1.93, 1.93, 1.93, 1.93, 1.93, 1.93, 1.92, 1.92, 1.92, 1.92, 1.92, 1.92, 1.92, 1.92, 1.91, 1.91, 1.91, 1.91, 1.91, 1.91, 1.91, 1.9, 1.9, 1.9, 1.9, 1.9, 1.9, 1.9, 1.89, 1.89, 1.89, 1.89, 1.89, 1.89, 1.88, 1.88, 1.88, 1.88, 1.88, 1.88, 1.87, 1.87]
37 [1.67, 1.69, 1.72, 1.75, 1.78, 1.81, 1.84, 1.87, 1.9, 1.93, 1.96, 1.99, 2.02, 2.06, 2.09, 2.09, 2.09, 2.09, 2.09, 1.37, 1.37, 1.37, 1.37, 1.37, 1.36, 1.36, 1.36, 1.36, 1.36, 1.36, 1.36, 1.39, 1.41, 1.44, 1.46, 1.49, 1.52, 1.55, 2.05, 2.04, 2.04, 2.04, 2.04, 2.04, 2.04, 2.03, 2.03, 2.03, 2.03, 2.03, 2.03, 2.02, 2.02, 2.02, 2.02, 2.02, 2.02, 2.02, 2.01, 2.01, 2.01, 2.01, 2.01, 2.01, 2.01, 2.0, 2.0, 2.0, 2.0, 2.0, 2.0, 2.0, 1.99, 1.99, 1.99, 1.99, 1.99, 1.99, 1.99, 1.98, 1.98, 1.98, 1.98, 0.88, 0.87, 0.87, 0.87, 0.87, 0.87, 0.87, 0.87, 0.87, 0.87, 0.87, 0.87, 0.87, 0.87, 0.87, 0.87, 0.87, 0.87, 0.86, 0.86, 0.86, 0.86, 0.86, 0.86, 0.86, 0.86, 0.86, 1.94, 1.94, 1.94, 1.94, 1.94, 1.94, 1.94, 1.94, 1.93, 1.93, 1.93, 1.93, 1.93, 1.93, 1.93, 1.92, 1.92, 1.92, 1.92, 1.92, 1.92, 1.92, 1.92, 1.91, 1.91, 1.91, 1.91, 1.91, 1.91, 1.91, 1.9, 1.9, 1.9, 1.9, 1.9, 1.9, 1.89, 1.89, 1.89, 1.89, 1.89, 1.89, 1.89, 1.88, 1.88, 1.88, 1.88, 1.88, 1.88, 1.87, 1.87, 1.87, 1.87, 1.87, 1.86, 1.86, 1.86, 1.86, 1.86, 1.86, 1.85, 1.85, 1.85, 1.85, 1.85, 1.84, 1.84, 1.84, 1.84, 1.84, 1.83, 1.83]
38 [1.64, 1.67, 1.7, 1.72, 1.75, 1.78, 1.81, 1.84, 1.87, 1.9, 1.93, 1.96, 1.99, 2.02, 2.06, 2.08, 2.08, 2.07, 2.07, 1.35, 1.35, 1.34, 1.34, 1.34, 1.34, 1.34, 1.34, 1.34, 1.33, 1.33, 1.33, 1.35, 1.38, 1.4, 1.43, 1.45, 1.48, 1.51, 2.02, 2.02, 2.02, 2.02, 2.02, 2.01, 2.01, 2.01, 2.01, 2.01, 2.0, 2.0, 2.0, 2.0, 2.0, 2.0, 1.99, 1.99, 1.99, 1.99, 1.99, 1.99, 1.98, 1.98, 1.98, 1.98, 1.98, 1.98, 1.97, 1.97, 1.97, 1.97, 1.97, 1.97, 1.96, 1.96, 1.96, 1.96, 1.96, 1.96, 1.95, 1.95, 1.95, 1.95, 1.95, 1.95, 1.94, 0.84, 0.84, 0.84, 0.84, 0.84, 0.83, 0.83, 0.83, 0.83, 0.83, 0.83, 0.83, 0.83, 0.83, 0.83, 0.83, 0.83, 0.83, 0.83, 0.83, 0.83, 0.82, 0.82, 0.82, 0.82, 0.82, 0.82, 1.9, 1.9, 1.9, 1.9, 1.9, 1.9, 1.89, 1.89, 1.89, 1.89, 1.89, 1.89, 1.88, 1.88, 1.88, 1.88, 1.88, 1.88, 1.87, 1.87, 1.87, 1.87, 1.87, 1.87, 1.87, 1.86, 1.86, 1.86, 1.86, 1.86, 1.85, 1.85, 1.85, 1.85, 1.85, 1.85, 1.84, 1.84, 1.84, 1.84, 1.84, 1.84, 1.83, 1.83, 1.83, 1.83, 1.83, 1.82, 1.82, 1.82, 1.82, 1.82, 1.81, 1.81, 1.81, 1.81, 1.81, 1.8, 1.8, 1.8, 1.8, 1.79, 1.79, 1.79, 1.79, 1.79, 1.78, 1.78, 10.0, 0.0]
39 [1.64, 1.67, 1.7, 1.73, 1.75, 1.78, 1.81, 1.84, 1.87, 1.9, 1.93, 1.96, 1.99, 2.02, 2.06, 2.06, 2.05, 2.05, 1.33, 1.33, 1.32, 1.32, 1.32, 1.32, 1.32, 1.32, 1.31, 1.31, 1.31, 1.31, 1.33, 1.35, 1.38, 1.4, 1.43, 1.45, 1.48, 1.51, 2.0, 2.0, 2.0, 2.0, 1.99, 1.99, 1.99, 1.99, 1.99, 1.99, 1.98, 1.98, 1.98, 1.98, 1.98, 1.97, 1.97, 1.97, 1.97, 1.97, 1.97, 1.96, 1.96, 1.96, 1.96, 1.96, 1.96, 1.95, 1.95, 1.95, 1.95, 1.95, 1.95, 1.95, 1.94, 1.94, 1.94, 1.94, 1.94, 1.94, 1.93, 1.93, 1.93, 1.93, 1.93, 1.93, 0.82, 0.82, 0.82, 0.82, 0.82, 0.82, 0.82, 0.82, 0.81, 0.81, 0.81, 0.81, 0.81, 0.81, 0.81, 0.81, 0.81, 0.81, 0.81, 0.81, 0.81, 0.81, 0.81, 0.81, 0.8, 0.8, 0.8, 0.8, 0.8, 1.88, 1.88, 1.88, 1.88, 1.88, 1.88, 1.87, 1.87, 1.87, 1.87, 1.87, 1.87, 1.86, 1.86, 1.86, 1.86, 1.86, 1.86, 1.86, 1.85, 1.85, 1.85, 1.85, 1.85, 1.85, 1.84, 1.84, 1.84, 1.84, 1.84, 1.84, 1.83, 1.83, 1.83, 1.83, 1.83, 1.83, 1.82, 1.82, 1.82, 1.82, 1.82, 1.82, 1.81, 1.81, 1.81, 1.81, 1.81, 1.8, 1.8, 1.8, 1.8, 1.8, 1.79, 1.79, 1.79, 1.79, 1.79, 1.78, 1.78, 1.78, 1.78, 1.77, 1.77, 1.77, 1.77, 1.76, 1.76, 1.76]
40 [1.64, 1.67, 1.7, 1.73, 1.75, 1.78, 1.81, 1.84, 1.87, 1.9, 1.93, 1.96, 1.99, 2.02, 2.06, 2.06, 2.05, 2.05, 1.33, 1.33, 1.32, 1.32, 1.32, 1.32, 1.32, 1.32, 1.31, 1.31, 1.31, 1.31, 1.33, 1.35, 1.38, 1.4, 1.43, 1.45, 1.48, 1.51, 2.0, 2.0, 2.0, 2.0, 1.99, 1.99, 1.99, 1.99, 1.99, 1.99, 1.98, 1.98, 1.98, 1.98, 1.98, 1.97, 1.97, 1.97, 1.97, 1.97, 1.97, 1.96, 1.96, 1.96, 1.96, 1.96, 1.96, 1.95, 1.95, 1.95, 1.95, 1.95, 1.95, 1.95, 1.94, 1.94, 1.94, 1.94, 1.94, 1.94, 1.93, 1.93, 1.93, 1.93, 1.93, 1.93, 0.82, 0.82, 0.82, 0.82, 0.82, 0.82, 0.82, 0.82, 0.81, 0.81, 0.81, 0.81, 0.81, 0.81, 0.81, 0.81, 0.81, 0.81, 0.81, 0.81, 0.81, 0.81, 0.81, 0.81, 0.8, 0.8, 0.8, 0.8, 0.8, 1.88, 1.88, 1.88, 1.88, 1.88, 1.88, 1.87, 1.87, 1.87, 1.87, 1.87, 1.87, 1.86, 1.86, 1.86, 1.86, 1.86, 1.86, 1.86, 1.85, 1.85, 1.85, 1.85, 1.85, 1.85, 1.84, 1.84, 1.84, 1.84, 1.84, 1.84, 1.83, 1.83, 1.83, 1.83, 1.83, 1.83, 1.82, 1.82, 1.82, 1.82, 1.82, 1.82, 1.81, 1.81, 1.81, 1.81, 1.81, 1.8, 1.8, 1.8, 1.8, 1.8, 1.79, 1.79, 1.79, 1.79, 1.79, 1.78, 1.78, 1.78, 1.78, 1.77, 1.77, 1.77, 1.77, 1.76, 10.0, 0.0]
41 [1.64, 1.67, 1.7, 1.73, 1.75, 1.78, 1.81, 1.84, 1.87, 1.9, 1.93, 1.96, 1.99, 2.03, 2.04, 2.03, 2.03, 1.31, 1.31, 1.3, 1.3, 1.3, 1.3, 1.3, 1.3, 1.29, 1.29, 1.29, 1.29, 1.31, 1.33, 1.35, 1.38, 1.4, 1.43, 1.45, 1.48, 1.98, 1.98, 1.98, 1.98, 1.98, 1.97, 1.97, 1.97, 1.97, 1.97, 1.96, 1.96, 1.96, 1.96, 1.96, 1.96, 1.95, 1.95, 1.95, 1.95, 1.95, 1.95, 1.94, 1.94, 1.94, 1.94, 1.94, 1.94, 1.93, 1.93, 1.93, 1.93, 1.93, 1.93, 1.93, 1.92, 1.92, 1.92, 1.92, 1.92, 1.92, 1.91, 1.91, 1.91, 1.91, 1.91, 1.91, 0.8, 0.8, 0.8, 0.8, 0.8, 0.8, 0.8, 0.8, 0.8, 0.8, 0.79, 0.79, 0.79, 0.79, 0.79, 0.79, 0.79, 0.79, 0.79, 0.79, 0.79, 0.79, 0.79, 0.79, 0.79, 0.79, 0.79, 0.78, 0.78, 1.86, 1.86, 1.86, 1.86, 1.86, 1.86, 1.86, 1.85, 1.85, 1.85, 1.85, 1.85, 1.85, 1.85, 1.84, 1.84, 1.84, 1.84, 1.84, 1.84, 1.84, 1.83, 1.83, 1.83, 1.83, 1.83, 1.83, 1.82, 1.82, 1.82, 1.82, 1.82, 1.82, 1.81, 1.81, 1.81, 1.81, 1.81, 1.81, 1.8, 1.8, 1.8, 1.8, 1.8, 1.8, 1.79, 1.79, 1.79, 1.79, 1.79, 1.78, 1.78, 1.78, 1.78, 1.78, 1.77, 1.77, 1.77, 1.77, 1.77, 1.76, 1.76, 1.76, 1.76, 1.76, 1.75, 1.75, 1.75, 1.75]
42 [1.65, 1.67, 1.7, 1.73, 1.76, 1.78, 1.81, 1.84, 1.87, 1.9, 1.93, 1.96, 2.0, 1.99, 1.99, 1.99, 1.27, 1.26, 1.26, 1.26, 1.26, 1.26, 1.26, 1.26, 1.25, 1.25, 1.25, 1.26, 1.29, 1.31, 1.33, 1.35, 1.38, 1.4, 1.43, 1.94, 1.94, 1.94, 1.94, 1.94, 1.94, 1.93, 1.93, 1.93, 1.93, 1.93, 1.93, 1.92, 1.92, 1.92, 1.92, 1.92, 1.92, 1.91, 1.91, 1.91, 1.91, 1.91, 1.91, 1.9, 1.9, 1.9, 1.9, 1.9, 1.9, 1.9, 1.89, 1.89, 1.89, 1.89, 1.89, 1.89, 1.89, 1.88, 1.88, 1.88, 1.88, 1.88, 1.88, 1.88, 1.87, 1.87, 1.87, 1.87, 0.76, 0.76, 0.76, 0.76, 0.76, 0.76, 0.76, 0.76, 0.76, 0.76, 0.76, 0.76, 0.76, 0.76, 0.76, 0.76, 0.75, 0.75, 0.75, 0.75, 0.75, 0.75, 0.75, 0.75, 0.75, 0.75, 0.75, 0.75, 0.75, 0.75, 1.83, 1.83, 1.83, 1.82, 1.82, 1.82, 1.82, 1.82, 1.82, 1.82, 1.81, 1.81, 1.81, 1.81, 1.81, 1.81, 1.81, 1.8, 1.8, 1.8, 1.8, 1.8, 1.8, 1.8, 1.79, 1.79, 1.79, 1.79, 1.79, 1.79, 1.78, 1.78, 1.78, 1.78, 1.78, 1.78, 1.78, 1.77, 1.77, 1.77, 1.77, 1.77, 1.77, 1.76, 1.76, 1.76, 1.76, 1.76, 1.75, 1.75, 1.75, 1.75, 1.75, 1.75, 1.74, 1.74, 1.74, 1.74, 1.74, 1.73, 1.73, 1.73, 1.73, 1.73, 1.72, 1.72, 1.72, 1.72]
43 [1.64, 1.67, 1.7, 1.73, 1.75, 1.78, 1.81, 1.84, 1.87, 1.9, 1.93, 1.96, 1.98, 1.97, 1.97, 1.25, 1.25, 1.24, 1.24, 1.24, 1.24, 1.24, 1.24, 1.24, 1.23, 1.23, 1.24, 1.26, 1.28, 1.31, 1.33, 1.35, 1.38, 1.4, 1.43, 1.92, 1.92, 1.92, 1.92, 1.92, 1.92, 1.91, 1.91, 1.91, 1.91, 1.91, 1.91, 1.9, 1.9, 1.9, 1.9, 1.9, 1.9, 1.89, 1.89, 1.89, 1.89, 1.89, 1.89, 1.88, 1.88, 1.88, 1.88, 1.88, 1.88, 1.88, 1.87, 1.87, 1.87, 1.87, 1.87, 1.87, 1.87, 1.86, 1.86, 1.86, 1.86, 1.86, 1.86, 1.86, 1.85, 1.85, 1.85, 0.74, 0.74, 0.74, 0.74, 0.74, 0.74, 0.74, 0.74, 0.74, 0.74, 0.74, 0.74, 0.74, 0.74, 0.74, 0.74, 0.74, 0.74, 0.73, 0.73, 0.73, 0.73, 0.73, 0.73, 0.73, 0.73, 0.73, 0.73, 0.73, 0.73, 0.73, 1.81, 1.81, 1.81, 1.8, 1.8, 1.8, 1.8, 1.8, 1.8, 1.8, 1.79, 1.79, 1.79, 1.79, 1.79, 1.79, 1.79, 1.79, 1.78, 1.78, 1.78, 1.78, 1.78, 1.78, 1.77, 1.77, 1.77, 1.77, 1.77, 1.77, 1.77, 1.76, 1.76, 1.76, 1.76, 1.76, 1.76, 1.75, 1.75, 1.75, 1.75, 1.75, 1.75, 1.74, 1.74, 1.74, 1.74, 1.74, 1.74, 1.73, 1.73, 1.73, 1.73, 1.73, 1.72, 1.72, 1.72, 1.72, 1.72, 1.71, 1.71, 1.71, 1.71, 1.71, 1.7, 1.7, 1.7, 1.7]
44 [1.64, 1.67, 1.7, 1.73, 1.75, 1.78, 1.81, 1.84, 1.87, 1.9, 1.93, 1.96, 1.98, 1.97, 1.97, 1.25, 1.25, 1.24, 1.24, 1.24, 1.24, 1.24, 1.24, 1.24, 1.23, 1.23, 1.24, 1.26, 1.28, 1.31, 1.33, 1.35, 1.38, 1.4, 1.43, 1.92, 1.92, 1.92, 1.92, 1.92, 1.92, 1.91, 1.91, 1.91, 1.91, 1.91, 1.91, 1.9, 1.9, 1.9, 1.9, 1.9, 1.9, 1.89, 1.89, 1.89, 1.89, 1.89, 1.89, 1.88, 1.88, 1.88, 1.88, 1.88, 1.88, 1.88, 1.87, 1.87, 1.87, 1.87, 1.87, 1.87, 1.87, 1.86, 1.86, 1.86, 1.86, 1.86, 1.86, 1.86, 1.85, 1.85, 1.85, 0.74, 0.74, 0.74, 0.74, 0.74, 0.74, 0.74, 0.74, 0.74, 0.74, 0.74, 0.74, 0.74, 0.74, 0.74, 0.74, 0.74, 0.74, 0.73, 0.73, 0.73, 0.73, 0.73, 0.73, 0.73, 0.73, 0.73, 0.73, 0.73, 0.73, 0.73, 1.81, 1.81, 1.81, 1.8, 1.8, 1.8, 1.8, 1.8, 1.8, 1.8, 1.79, 1.79, 1.79, 1.79, 1.79, 1.79, 1.79, 1.79, 1.78, 1.78, 1.78, 1.78, 1.78, 1.78, 1.77, 1.77, 1.77, 1.77, 1.77, 1.77, 1.77, 1.76, 1.76, 1.76, 1.76, 1.76, 1.76, 1.75, 1.75, 1.75, 1.75, 1.75, 1.75, 1.74, 1.74, 1.74, 1.74, 1.74, 1.74, 1.73, 1.73, 1.73, 1.73, 1.73, 1.72, 1.72, 1.72, 1.72, 1.72, 1.71, 1.71, 1.71, 1.71, 1.71, 1.7, 1.7, 1.7, 1.7]
45 [1.64, 1.67, 1.69, 1.72, 1.75, 1.78, 1.81, 1.84, 1.86, 1.89, 1.93, 1.94, 1.93, 1.21, 1.21, 1.2, 1.2, 1.2, 1.2, 1.2, 1.2, 1.2, 1.19, 1.19, 1.19, 1.21, 1.23, 1.26, 1.28, 1.3, 1.32, 1.35, 1.37, 1.89, 1.88, 1.88, 1.88, 1.88, 1.88, 1.88, 1.87, 1.87, 1.87, 1.87, 1.87, 1.87, 1.86, 1.86, 1.86, 1.86, 1.86, 1.86, 1.85, 1.85, 1.85, 1.85, 1.85, 1.85, 1.84, 1.84, 1.84, 1.84, 1.84, 1.84, 1.84, 1.83, 1.83, 1.83, 1.83, 1.83, 1.83, 1.83, 1.82, 1.82, 1.82, 1.82, 1.82, 1.82, 1.82, 1.81, 1.81, 1.81, 1.81, 0.7, 0.7, 0.7, 0.7, 0.7, 0.7, 0.7, 0.7, 0.7, 0.7, 0.7, 0.7, 0.7, 0.7, 0.7, 0.7, 0.7, 0.69, 0.69, 0.69, 0.69, 0.69, 0.69, 0.69, 0.69, 0.69, 0.69, 0.69, 0.69, 0.69, 0.69, 0.69, 0.69, 1.77, 1.76, 1.76, 1.76, 1.76, 1.76, 1.76, 1.76, 1.75, 1.75, 1.75, 1.75, 1.75, 1.75, 1.75, 1.75, 1.74, 1.74, 1.74, 1.74, 1.74, 1.74, 1.74, 1.73, 1.73, 1.73, 1.73, 1.73, 1.73, 1.72, 1.72, 1.72, 1.72, 1.72, 1.72, 1.72, 1.71, 1.71, 1.71, 1.71, 1.71, 1.71, 1.7, 1.7, 1.7, 1.7, 1.7, 1.7, 1.69, 1.69, 1.69, 1.69, 1.69, 1.68, 1.68, 1.68, 1.68, 1.68, 1.67, 1.67, 1.67, 1.67, 1.67, 1.66, 1.66, 1.66]
46 [1.64, 1.66, 1.69, 1.72, 1.75, 1.78, 1.8, 1.83, 1.86, 1.89, 1.92, 1.91, 1.19, 1.19, 1.18, 1.18, 1.18, 1.18, 1.18, 1.18, 1.18, 1.17, 1.17, 1.17, 1.19, 1.21, 1.23, 1.25, 1.27, 1.3, 1.32, 1.34, 1.37, 1.87, 1.86, 1.86, 1.86, 1.86, 1.86, 1.85, 1.85, 1.85, 1.85, 1.85, 1.85, 1.84, 1.84, 1.84, 1.84, 1.84, 1.84, 1.83, 1.83, 1.83, 1.83, 1.83, 1.83, 1.83, 1.82, 1.82, 1.82, 1.82, 1.82, 1.82, 1.81, 1.81, 1.81, 1.81, 1.81, 1.81, 1.81, 1.81, 1.8, 1.8, 1.8, 1.8, 1.8, 1.8, 1.8, 1.79, 1.79, 1.79, 1.79, 0.68, 0.68, 0.68, 0.68, 0.68, 0.68, 0.68, 0.68, 0.68, 0.68, 0.68, 0.68, 0.68, 0.68, 0.68, 0.68, 0.67, 0.67, 0.67, 0.67, 0.67, 0.67, 0.67, 0.67, 0.67, 0.67, 0.67, 0.67, 0.67, 0.67, 0.67, 0.67, 0.67, 1.75, 1.74, 1.74, 1.74, 1.74, 1.74, 1.74, 1.74, 1.73, 1.73, 1.73, 1.73, 1.73, 1.73, 1.73, 1.73, 1.72, 1.72, 1.72, 1.72, 1.72, 1.72, 1.72, 1.71, 1.71, 1.71, 1.71, 1.71, 1.71, 1.71, 1.7, 1.7, 1.7, 1.7, 1.7, 1.7, 1.69, 1.69, 1.69, 1.69, 1.69, 1.69, 1.68, 1.68, 1.68, 1.68, 1.68, 1.68, 1.67, 1.67, 1.67, 1.67, 1.67, 1.66, 1.66, 1.66, 1.66, 1.66, 1.65, 1.65, 1.65, 1.65, 1.65, 1.64, 1.64, 1.64]
47 [1.64, 1.66, 1.69, 1.72, 1.75, 1.77, 1.8, 1.83, 1.86, 1.89, 1.89, 1.17, 1.17, 1.16, 1.16, 1.16, 1.16, 1.16, 1.16, 1.16, 1.15, 1.15, 1.15, 1.17, 1.19, 1.21, 1.23, 1.25, 1.27, 1.29, 1.32, 1.34, 1.85, 1.84, 1.84, 1.84, 1.84, 1.84, 1.84, 1.83, 1.83, 1.83, 1.83, 1.83, 1.83, 1.82, 1.82, 1.82, 1.82, 1.82, 1.82, 1.81, 1.81, 1.81, 1.81, 1.81, 1.81, 1.8, 1.8, 1.8, 1.8, 1.8, 1.8, 1.8, 1.79, 1.79, 1.79, 1.79, 1.79, 1.79, 1.79, 1.78, 1.78, 1.78, 1.78, 1.78, 1.78, 1.78, 1.78, 1.77, 1.77, 1.77, 0.66, 0.66, 0.66, 0.66, 0.66, 0.66, 0.66, 0.66, 0.66, 0.66, 0.66, 0.66, 0.66, 0.66, 0.66, 0.66, 0.66, 0.66, 0.65, 0.65, 0.65, 0.65, 0.65, 0.65, 0.65, 0.65, 0.65, 0.65, 0.65, 0.65, 0.65, 0.65, 0.65, 0.65, 0.65, 1.72, 1.72, 1.72, 1.72, 1.72, 1.72, 1.72, 1.72, 1.71, 1.71, 1.71, 1.71, 1.71, 1.71, 1.71, 1.7, 1.7, 1.7, 1.7, 1.7, 1.7, 1.7, 1.69, 1.69, 1.69, 1.69, 1.69, 1.69, 1.69, 1.68, 1.68, 1.68, 1.68, 1.68, 1.68, 1.68, 1.67, 1.67, 1.67, 1.67, 1.67, 1.67, 1.66, 1.66, 1.66, 1.66, 1.66, 1.66, 1.65, 1.65, 1.65, 1.65, 1.65, 1.64, 1.64, 1.64, 1.64, 1.64, 1.63, 1.63, 1.63, 1.63, 1.63, 1.62, 1.62]
48 [1.64, 1.66, 1.69, 1.72, 1.75, 1.77, 1.8, 1.83, 1.86, 1.89, 1.89, 1.17, 1.17, 1.16, 1.16, 1.16, 1.16, 1.16, 1.16, 1.16, 1.15, 1.15, 1.15, 1.17, 1.19, 1.21, 1.23, 1.25, 1.27, 1.29, 1.32, 1.34, 1.85, 1.84, 1.84, 1.84, 1.84, 1.84, 1.84, 1.83, 1.83, 1.83, 1.83, 1.83, 1.83, 1.82, 1.82, 1.82, 1.82, 1.82, 1.82, 1.81, 1.81, 1.81, 1.81, 1.81, 1.81, 1.8, 1.8, 1.8, 1.8, 1.8, 1.8, 1.8, 1.79, 1.79, 1.79, 1.79, 1.79, 1.79, 1.79, 1.78, 1.78, 1.78, 1.78, 1.78, 1.78, 1.78, 1.78, 1.77, 1.77, 1.77, 0.66, 0.66, 0.66, 0.66, 0.66, 0.66, 0.66, 0.66, 0.66, 0.66, 0.66, 0.66, 0.66, 0.66, 0.66, 0.66, 0.66, 0.66, 0.65, 0.65, 0.65, 0.65, 0.65, 0.65, 0.65, 0.65, 0.65, 0.65, 0.65, 0.65, 0.65, 0.65, 0.65, 0.65, 0.65, 1.72, 1.72, 1.72, 1.72, 1.72, 1.72, 1.72, 1.72, 1.71, 1.71, 1.71, 1.71, 1.71, 1.71, 1.71, 1.7, 1.7, 1.7, 1.7, 1.7, 1.7, 1.7, 1.69, 1.69, 1.69, 1.69, 1.69, 1.69, 1.69, 1.68, 1.68, 1.68, 1.68, 1.68, 1.68, 1.68, 1.67, 1.67, 1.67, 1.67, 1.67, 1.67, 1.66, 1.66, 1.66, 1.66, 1.66, 1.66, 1.65, 1.65, 1.65, 1.65, 1.65, 1.64, 1.64, 1.64, 1.64, 1.64, 1.63, 1.63, 1.63, 1.63, 1.63, 1.62, 1.62]
49 [1.64, 1.66, 1.69, 1.72, 1.74, 1.77, 1.8, 1.83, 1.86, 1.88, 1.15, 1.15, 1.14, 1.14, 1.14, 1.14, 1.14, 1.14, 1.14, 1.13, 1.13, 1.13, 1.15, 1.17, 1.19, 1.21, 1.23, 1.25, 1.27, 1.29, 1.31, 1.83, 1.83, 1.82, 1.82, 1.82, 1.82, 1.82, 1.82, 1.81, 1.81, 1.81, 1.81, 1.81, 1.8, 1.8, 1.8, 1.8, 1.8, 1.8, 1.8, 1.79, 1.79, 1.79, 1.79, 1.79, 1.79, 1.78, 1.78, 1.78, 1.78, 1.78, 1.78, 1.78, 1.77, 1.77, 1.77, 1.77, 1.77, 1.77, 1.77, 1.77, 1.76, 1.76, 1.76, 1.76, 1.76, 1.76, 1.76, 1.75, 1.75, 1.75, 0.64, 0.64, 0.64, 0.64, 0.64, 0.64, 0.64, 0.64, 0.64, 0.64, 0.64, 0.64, 0.64, 0.64, 0.64, 0.64, 0.64, 0.64, 0.64, 0.63, 0.63, 0.63, 0.63, 0.63, 0.63, 0.63, 0.63, 0.63, 0.63, 0.63, 0.63, 0.63, 0.63, 0.63, 0.63, 0.63, 1.7, 1.7, 1.7, 1.7, 1.7, 1.7, 1.7, 1.7, 1.69, 1.69, 1.69, 1.69, 1.69, 1.69, 1.69, 1.68, 1.68, 1.68, 1.68, 1.68, 1.68, 1.68, 1.67, 1.67, 1.67, 1.67, 1.67, 1.67, 1.67, 1.66, 1.66, 1.66, 1.66, 1.66, 1.66, 1.66, 1.65, 1.65, 1.65, 1.65, 1.65, 1.65, 1.64, 1.64, 1.64, 1.64, 1.64, 1.64, 1.63, 1.63, 1.63, 1.63, 1.63, 1.62, 1.62, 1.62, 1.62, 1.62, 1.61, 1.61, 1.61, 1.61, 1.61, 1.6]
