-0.85000795 -0.69976854
-0.85000795 -0.69976854
-0.8503358 -0.6998631
-0.8499729 -0.70010084
-0.84928524 -0.70068306
-0.84842813 -0.7014838
-0.8479351 -0.7076921
-0.84757864 -0.7102517
-0.8466711 -0.7117302
-0.8466711 -0.7117302
-0.84408313 -0.7048577
-0.8425814 -0.69963586
-0.8376713 -0.68343675
-0.8339939 -0.6720373
-0.824488 -0.6399687
-0.824488 -0.6399687
-0.813342 -0.6063325
-0.8078822 -0.5909204
-0.8036722 -0.5786375
-0.79896384 -0.5645744
-0.7984134 -0.56160647
-0.7946205 -0.5506052
-0.790137 -0.54101706
-0.7757205 -0.515312
-0.76733917 -0.501709
-0.7496089 -0.474231
-0.7405406 -0.4609372
-0.72223455 -0.43670392
-0.7125731 -0.4262565
-0.70242965 -0.4159422
-0.68058056 -0.3965225
-0.6675543 -0.38687563
-0.6386751 -0.37130558
-0.62365156 -0.3658661
-0.6006255 -0.35875794
-0.5928801 -0.35639018
-0.5770834 -0.3525158
-0.5677403 -0.35131294
-0.55912113 -0.35071766
-0.54452384 -0.3507648
-0.53699404 -0.3511534
-0.51797324 -0.35417175
-0.50901455 -0.35644692
-0.49520501 -0.36079168
-0.49021488 -0.36272806
-0.48220652 -0.36641032
-0.48011103 -0.36747298
-0.4777966 -0.36879474
-0.47361022 -0.37170443
-0.46834445 -0.3755542
-0.4599564 -0.38165885
-0.45255446 -0.3873841
-0.43028063 -0.40662664
-0.41740185 -0.4183166
-0.3963629 -0.4381846
-0.3853849 -0.44918227
-0.35859838 -0.47674918
-0.34535885 -0.49054822
-0.33219585 -0.5042578
-0.30470747 -0.53333074
-0.2923004 -0.5467435
-0.2734403 -0.56700313
-0.26325244 -0.57785475
-0.24028309 -0.6006136
-0.22858164 -0.6118302
-0.206947 -0.6314305
-0.19844148 -0.6385887
-0.18049231 -0.65086967
-0.17216893 -0.6557079
-0.16621241 -0.65919524
-0.148653 -0.6668068
-0.13739607 -0.6702789
-0.11457051 -0.6750869
-0.10289277 -0.6768162
-0.08134147 -0.6782197
-0.07314117 -0.6783186
-0.05619777 -0.6777978
-0.04760405 -0.6772634
-0.039156135 -0.6766525
-0.023743084 -0.67515796
-0.023743084 -0.67515796
