0 [0.0, 0.0, 0.0, 0.0, 0.0, 0.0, 0.0, 0.0]
1 [0.0, 0.0, 0.0, 0.0, 0.0, 0.0, 0.0, 0.0]
2 [0.0, 0.0, 0.0, 0.0, 0.0, 0.0, 0.0, 0.0]
3 [0.0, 0.0, 0.0, 0.0, 0.0, 0.0, 0.0, 0.0]
4 [0.0, 0.0, 0.0, 0.0, 0.0, 0.0, 0.0, 0.0]
5 [0.0, 0.0, 0.0, 0.0, 0.0, 0.0, 0.0, 0.0]
6 [0.0, 0.0, 0.0, 0.0, 0.0, 0.0, 0.0, 0.0]
7 [0.0, 0.0, 0.0, 0.0, 0.0, 0.0, 0.0, 0.0]
8 [0.0, 0.0, 0.0, 0.0, 0.0, 0.0, 0.0, 0.0]
9 [0.0, 0.0, 0.0, 0.0, 0.0, 0.0, 0.0, 0.0]
10 [0.0, 0.0, 0.0, 0.0, 0.0, 0.0, 0.0, 0.0]
11 [0.027945055, 0.04005495, 0.026945055, 0.08405495, 0.08405495, 0.024945056, 0.023945058, 0.06405495]
12 [0.117684975, 0.120981686, 0.11368498, 1.001315, 1.002315, 0.022351652, 0.020351654, 0.1509817]
13 [0.03435164, 0.03764835, 0.030351644, 0.9596484, 0.46064836, 0.022351652, 0.020351654, 0.44264835]
14 [0.037527468, 0.9758059, 0.10113919, 0.097139195, 1.0218608, 0.019472536, 0.013472517, 0.12619415]
15 [0.037527468, 0.042472538, 0.03447252, 0.030472524, 0.96352744, 0.019472536, 0.013472517, 0.93452746]
16 [0.045851648, 0.05714835, 0.04314836, 0.04014834, 0.96185166, 0.088851646, 0.011148346, 0.009851646]
17 [0.051532973, 1.0140125, 0.16137615, 0.14037614, 0.12837613, 1.0450784, 0.010467029, 0.017532967]
18 [0.051532973, 0.05946703, 0.07046705, 0.04946704, 0.912467, 0.96553296, 0.010467029, 0.017532967]
19 [0.053796705, 0.04220329, 0.100181326, 0.07518133, 0.06618131, 1.0788077, 0.0917967, 0.021796698]
20 [0.056489006, 0.029510995, 0.08251099, 0.076510996, 0.051510997, 0.08848901, 0.09548901, 0.025489012]
21 [0.056489006, 0.029510995, 0.08251099, 0.076510996, 0.801511, 0.838489, 0.09548901, 0.025489012]
22 [0.056247257, 0.023752738, 0.68475276, 0.9837527, 0.95475274, 0.6327528, 0.69724727, 0.02624725]
23 [0.05406044, 0.024939554, 0.08493957, 0.08293957, 0.05393955, 0.90793955, 1.0860714, 0.098060444]
24 [0.05406044, 0.024939554, 0.08493957, 0.08293957, 0.05393955, 0.90793955, 0.097060435, 0.098060444]
25 [0.051494505, 0.02650549, 0.084505506, 0.081505485, 0.053505488, 0.9075055, 0.0964945, 0.09849451]
26 [0.049164835, 0.027835162, 0.083835155, 0.080835156, 0.052835163, 0.032835156, 1.0851759, 0.099164836]
27 [0.047357142, 0.029642856, 0.083642855, 0.079642855, 0.05264286, 0.032642853, 1.0843681, 0.09935714]
28 [0.045142855, 0.030857144, 0.08285714, 0.078857146, 0.051857147, 0.90685713, 1.0784762, 0.10014286]
29 [0.045142855, 0.030857144, 0.08285714, 0.078857146, 0.051857147, 0.031857144, 0.095142856, 0.10014286]
30 [0.042208787, 0.032791212, 0.08379121, 0.078791216, 0.052791215, 0.7827912, 1.0775422, 0.1002088]
31 [0.042208787, 0.032791212, 0.08379121, 0.078791216, 0.052791215, 0.7827912, 0.8442088, 0.1002088]
32 [0.04111538, 0.03388462, 0.082884625, 0.07788463, 0.051884625, 0.03288462, 0.094115384, 0.10011538]
33 [0.039302193, 0.0336978, 0.08069781, 0.075697795, 0.050697792, 0.7816978, 1.07208, 0.1013022]
34 [0.039302193, 0.0336978, 0.08069781, 0.075697795, 0.050697792, 0.0316978, 0.0943022, 0.1013022]
35 [0.038412094, 0.03358791, 0.0795879, 0.07358791, 0.048587907, 0.029587913, 1.0731899, 0.10141209]
36 [0.038626377, 0.033373624, 0.07637362, 0.070373625, 0.046373624, 0.77837366, 1.049293, 1.069293]
37 [0.038626377, 0.033373624, 0.07637362, 0.070373625, 0.046373624, 0.02837363, 0.08262637, 0.102626376]
38 [0.0384011, 0.0325989, 0.075598896, 0.0675989, 0.043598905, 0.7765989, 0.97626555, 1.0700678]
39 [0.0384011, 0.0325989, 0.075598896, 0.0675989, 0.043598905, 0.7765989, 0.7595989, 0.1034011]
40 [0.037615385, 0.03238462, 0.07238462, 0.06538463, 0.04238462, 0.024384614, 0.008384618, 0.10461538]
41 [0.037615385, 0.03238462, 0.07238462, 0.06538463, 0.04238462, 0.7743846, 0.75838464, 0.10461538]
42 [0.0370989, 0.03190109, 0.06890111, 0.032098904, 0.0379011, 0.021901103, 0.009098903, 1.0505433]
43 [1.0153327, 0.03044505, 0.06744506, 0.032554947, 0.037445057, 0.02044506, 0.010554945, 0.5287772]
44 [0.03674725, 0.030252745, 0.06625276, 0.03474725, 0.035252754, 0.76825273, 0.76074725, 1.0471916]
45 [0.03674725, 0.030252745, 0.06625276, 0.03474725, 0.035252754, 0.018252745, 0.010747251, 0.102747254]
46 [0.036170326, 0.02982967, 0.062829666, 0.037170324, 0.03282967, 0.76682967, 0.7621703, 1.0587088]
47 [0.036170326, 0.02982967, 0.062829666, 0.78717035, 0.03282967, 0.016829671, 0.7621703, 0.09717033]
48 [0.03591208, 0.030087914, 0.06208791, 0.03891209, 0.031087913, 0.0150879165, 0.012912093, 0.026912091]
49 [0.033362642, 0.031637367, 0.060637362, 0.78936267, 0.030637367, 0.015637359, 0.76236266, 0.026362637]
