0 [0.0, 0.0, 0.0, 0.0, 0.0, 0.0, 0.0, 0.0]
1 [0.0, 0.0, 0.0, 0.0, 0.0, 0.0, 0.0, 0.0]
2 [0.0, 0.0, 0.0, 0.0, 0.0, 0.0, 0.0, 0.0]
3 [0.0, 0.0, 0.0, 0.0, 0.0, 0.0, 0.0, 0.0]
4 [0.0, 0.0, 0.0, 0.0, 0.0, 0.0, 0.0, 0.0]
5 [0.0, 0.0, 0.0, 0.0, 0.0, 0.0, 0.0, 0.0]
6 [0.0, 0.0, 0.0, 0.0, 0.0, 0.0, 0.0, 0.0]
7 [0.0, 0.0, 0.0, 0.0, 0.0, 0.0, 0.0, 0.0]
8 [0.0, 0.0, 0.0, 0.0, 0.0, 0.0, 0.0, 0.0]
9 [0.0, 0.0, 0.0, 0.0, 0.0, 0.0, 0.0, 0.0]
10 [0.0, 0.0, 0.0, 0.0, 0.0, 0.0, 0.0, 0.0]
11 [0.027945055, 0.04005495, 0.026945055, 0.08405495, 0.08405495, 0.024945056, 0.023945058, 0.06405495]
12 [0.117684975, 0.120981686, 0.11368498, 1.001315, 1.002315, 0.022351652, 0.020351654, 0.1509817]
13 [0.03435164, 0.03764835, 0.030351644, 0.9596484, 0.46064836, 0.022351652, 0.020351654, 0.44264835]
14 [0.037527468, 0.9758059, 0.10113919, 0.097139195, 1.0218608, 0.019472536, 0.013472517, 0.12619415]
15 [0.037527468, 0.042472538, 0.03447252, 0.030472524, 0.96352744, 0.019472536, 0.013472517, 0.93452746]
16 [0.045851648, 0.05714835, 0.04314836, 0.04014834, 0.96185166, 0.088851646, 0.011148346, 0.009851646]
17 [0.051532973, 1.0140125, 0.16137615, 0.14037614, 0.12837613, 1.0450784, 0.010467029, 0.017532967]
18 [0.051532973, 0.05946703, 0.07046705, 0.04946704, 0.912467, 0.96553296, 0.010467029, 0.017532967]
19 [0.053796705, 0.04220329, 0.100181326, 0.07518133, 0.06618131, 1.0788077, 0.0917967, 0.021796698]
20 [0.056489006, 0.02951789, 0.09028757, 0.12979409, 0.05636586, 0.08850969, 0.09548901, 0.025489012]
21 [0.056489006, 0.0295168, 0.08907736, 0.1285802, 1.4232229, 0.9176711, 0.095511325, 0.025489012]
22 [0.056247257, 0.023756294, 0.726249, 1.5008851, 1.5722022, 0.6830552, 0.6973844, 0.02624725]
23 [0.05406044, 0.024942378, 0.08883248, 0.11595021, 0.08050211, 0.9629396, 1.0862341, 0.098060444]
24 [0.051494505, 0.02650776, 0.08743283, 0.10602654, 0.07343145, 0.949081, 0.09650544, 0.09849451]
25 [0.049164835, 0.027836962, 0.086027846, 0.099197194, 0.067692064, 0.033970986, 1.0852687, 0.099164836]
26 [0.047357142, 0.029644305, 0.08529626, 0.09333451, 0.06879092, 0.05622336, 1.1866131, 0.099380344]
27 [0.045142855, 0.03085003, 0.07515441, 0.02622968, 0.058701906, 1.4567019, 1.1641827, 0.100162566]
28 [0.045142855, 0.03085003, 0.07515441, 0.02622968, 0.058701906, 0.051172737, 0.102703854, 0.100162566]
29 [0.042208787, 0.032784544, 0.07689702, 0.023711534, 0.015396136, 1.0599437, 1.1425107, 0.100223824]
30 [0.042208787, 0.032786112, 0.07851835, 0.03581177, 0.019862935, 0.983142, 0.882679, 0.100220166]
31 [0.04111538, 0.033880636, 0.07896215, 0.05306481, 0.06329488, 0.042314686, 0.09737553, 0.100123964]
32 [0.039302193, 0.033694807, 0.077812925, 0.058088116, 0.062209666, 0.9575547, 1.1001694, 0.101308756]
33 [0.039302193, 0.033695538, 0.07851755, 0.062426515, 0.059585907, 0.037103157, 0.09616972, 0.10130716]
34 [0.038412094, 0.033586208, 0.07796439, 0.06382958, 0.0497927, 0.009831011, 0.9735496, 0.10138874]
35 [0.038626377, 0.033372346, 0.075196154, 0.063318625, 0.04668741, 0.31661204, 0.9630849, 1.0690752]
36 [0.038626377, 0.033372656, 0.07548371, 0.065041445, 0.04657701, 0.015499191, 0.077435546, 0.10261039]
37 [0.0384011, 0.03259819, 0.07493513, 0.06373942, 0.04374106, 0.51082003, 0.9300075, 1.069942]
38 [0.0384011, 0.032598365, 0.07507752, 0.057391703, 0.008949204, 0.4921269, 0.732219, 0.10339192]
39 [0.037615385, 0.032384217, 0.07200521, 0.057154603, 0.013246326, 0.017347246, 0.008155955, 0.104608364]
40 [0.037615385, 0.032384314, 0.07209774, 0.05911779, 0.020138588, 0.60492384, 0.74275184, 0.104610085]
41 [0.0370989, 0.031900864, 0.06869493, 0.029774632, 0.022869302, 0.018281542, 0.00895729, 1.0505031]
42 [1.0153327, 0.03044505, 0.06743907, 0.031387605, 0.027094979, 0.017950026, 0.010430864, 0.5287619]
43 [0.03674725, 0.030252745, 0.06624832, 0.033807274, 0.028206168, 0.7474701, 0.76069623, 1.0471916]
44 [0.03674725, 0.030252745, 0.0662494, 0.034036256, 0.02969236, 0.01698165, 0.010675156, 0.102745555]
45 [0.036170326, 0.02982967, 0.06282726, 0.036595497, 0.028916067, 0.7264701, 0.7583061, 1.0586956]
46 [0.036170326, 0.02982967, 0.06282785, 0.7779791, 0.029874789, 0.016160887, 0.7592527, 0.097169414]
47 [0.03591208, 0.030087914, 0.062086556, 0.038570073, 0.028981587, 0.014636581, 0.012874885, 0.026911901]
48 [0.033362642, 0.031637367, 0.060637362, 0.78936267, 0.030637367, 0.015637359, 0.76236266, 0.026362637]
49 [0.033362642, 0.031637367, 0.06063661, 0.03916576, 0.0295051, 0.015559147, 0.012362486, 0.026362637]
