0 -1
1 -1
2 -1
3 -1
4 -1
5 -1
6 -1
7 -1
8 -1
9 -1
10 -1
11 1409255
12 1174875
13 1174395
14 705625
15 393125
16 403145
17 405625
18 403125
19 448076
20 1183750
21 1212425
22 1246875
23 1184375
24 1234375
25 1234375
26 1231250
27 1246875
28 1246875
29 1548325
30 1246875
31 1547825
32 1234375
33 1550000
34 1532206
35 1553125
36 1243750
37 1484706
38 1246875
39 1484375
40 1540625
41 1485206
42 1540625
43 1234875
44 1250982
45 1234875
46 1250982
47 1250986
48 1484375
49 -1
50 1251111
51 1484375
52 1251111
53 1485875
54 1251740
55 1485875
56 1485875
57 1251740
58 1486500
59 1255495
60 396121
61 703125
62 396121
63 703125
64 1484399
65 1175472
66 1486274
67 393125
68 393024
69 547499
70 414374
71 547387
72 414999
73 547387
74 547387
75 415623
76 703129
77 421092
78 703655
79 703495
80 703145
81 703174
82 410349
83 407224
84 546985
85 703193
86 390725
87 546889
88 391599
89 390629
90 703249
91 393145
92 468874
93 468770
94 606270
95 468860
96 700600
97 703145
98 394724
99 687615
100 394724
101 394724
102 625515
103 390725
104 468764
105 -1
106 391225
107 546889
108 780625
109 394724
110 468859
111 394724
112 469259
113 394724
114 391574
115 391574
116 391574
117 391599
118 547384
119 394724
120 546984
121 703125
122 703125
123 546984
124 391225
125 703137
126 395474
127 390725
128 703137
129 768129
130 703137
131 781225
132 703137
133 781245
134 391225
135 703137
136 703137
137 703137
138 390629
139 391125
140 703138
141 703138
142 394694
143 703143
144 391574
145 724990
146 395473
147 395474
148 395474
149 737493
150 703127
151 411854
152 411859
153 414987
154 737480
155 399367
156 399368
157 396248
158 414999
159 722481
160 414999
161 414999
162 706125
163 414999
164 414999
165 722481
166 414999
167 -1
168 414999
169 706225
170 414999
171 703125
172 706125
173 399349
174 743675
175 741186
176 396219
177 704625
178 625022
179 396219
180 414969
181 414969
182 499860
183 1174375
184 1174375
185 1374865
186 1174375
187 1561975
188 1174375
189 1246875
190 1174875
191 1487381
192 1174875
193 1094351
194 1234975
195 1468570
196 1186975
197 1256019
198 1256019
199 1484375
200 1484375
201 1172379
202 1500240
203 1422115
204 1422115
205 1484375
206 1234375
207 1187539
208 1184375
209 1171884
210 1174375
211 1484375
212 1174875
213 1484375
214 1484375
215 1484975
216 1172495
217 1172475
218 1484375
219 -1
220 1484375
221 1484375
222 1484375
223 1484375
224 1553163
225 1553163
226 1553163
227 1484375
228 1484375
229 1484375
230 1484375
231 1143782
232 1093750
233 1159412
234 781850
235 781870
236 928194
237 1081319
238 1162569
239 1159569
240 1106254
241 1106254
242 1143788
243 325004
244 362538
245 362537
246 312504
247 375004
248 -1
249 343782
250 453129
251 734407
252 453129
253 1515657
254 1234379
255 1234379
256 1515657
257 1234379
258 1500001
259 1484375
260 1234379
261 1403125
262 1211875
263 1484399
264 1328749
265 1328000
266 1246875
267 1390625
268 1246875
269 1246969
270 1171999
271 1515631
272 1500006
273 1484375
274 1484375
275 1484375
276 1485433
277 1485433
278 1546875
279 1484375
280 1546875
281 1234375
282 1234375
283 1254989
284 1234375
285 1254989
286 1176864
287 1234375
288 1176859
289 1236875
290 1235875
291 1177484
292 1177484
293 1180608
294 1180608
295 1171899
296 1180603
297 1246975
298 1183728
299 1246975
300 1093750
301 796852
302 -1
303 796852
304 1521875
305 1187482
306 1187482
307 1187486
308 1521875
309 1187486
310 1521875
311 1531250
312 1218735
313 1531250
314 1249360
315 1246240
316 1229990
317 1484375
318 1484375
319 1484375
320 1484375
321 1172370
322 1184495
323 1217769
324 1178189
325 1178699
326 1214514
327 1240699
328 -1
329 1311529
330 1545659
331 1311529
332 1184375
333 1311529
334 403245
335 778238
336 605254
337 741377
338 1184379
339 1171879
340 1178235
341 1484379
342 1538879
343 1554504
344 1515627
345 1246895
346 1234879
347 1246895
348 1234375
349 1246895
350 1500000
351 1171895
352 1547375
353 1093750
354 781270
355 1093875
356 1096274
357 -1
358 1093750
359 781254
360 1093875
361 781750
362 781254
363 781254
364 781750
365 1058120
366 781254
367 828628
368 1136245
369 1406754
370 1448370
371 1370245
372 1484478
373 1213995
374 1406350
375 1171879
376 1210249
377 1484375
378 1406350
379 1213999
380 1406350
381 1406350
382 1213374
383 1171975
384 1229624
385 1229624
386 -1
387 1554829
388 1547475
389 1226499
390 1229624
391 1546953
392 1226499
393 1546975
394 1546950
395 1484375
396 1484375
397 1206374
398 1206374
399 1249405
400 1172375
401 1178020
402 783754
403 794977
404 85629
405 2770
406 331127
407 -1
408 344352
409 312604
410 347122
411 375022
412 346972
413 343760
414 312500
415 346949
416 365626
417 346913
418 309387
419 346913
420 384379
421 4
422 375004
423 112569
424 4
425 206319
426 284414
427 4
428 1534444
429 1171879
430 1234379
431 1518794
432 1484377
433 1484375
434 1484375
435 1171879
436 -1
437 1171879
438 1534388
439 1484375
440 1484375
441 1484377
442 1484375
443 1484378
444 1518788
445 1484377
446 1171879
447 1518757
448 1518788
449 1484378
450 1518788
451 1484379
452 1296939
453 1203139
454 1375159
455 1484375
456 1484375
457 1486895
458 1344866
459 1171895
460 1171899
461 1344741
462 -1
463 1484555
464 1171895
465 1344741
466 1344741
467 1344741
468 1344741
469 1344741
470 1484375
471 1484405
472 1484643
473 1171879
474 1172399
475 1484377
476 1172379
477 1172379
478 1171879
479 1172379
480 1171879
481 1174879
482 1171879
483 1174879
484 1174879
485 1171879
486 1174879
487 1174879
488 1171879
489 1267246
490 1173379
491 -1
492 1174524
493 1250997
494 860372
495 782379
496 875348
497 875348
498 781824
499 859723
500 78473
501 234698
502 234389
503 391131
504 547199
505 546889
506 546889
507 390949
508 391125
509 390949
510 390949
511 468764
512 390824
513 547387
514 390649
515 390824
516 546889
517 390824
518 546889
519 391439
520 -1
521 391409
522 391409
523 546889
524 391409
525 394659
526 703125
527 703125
528 703145
529 703625
530 396193
531 395414
532 1266235
533 1363735
534 1484375
535 1484622
536 1343865
537 1172064
538 1187740
539 1328154
540 1265872
541 1265872
542 1484384
543 1343798
544 1343798
545 1171999
546 1343824
547 1343824
548 1171924
549 1343824
550 -1
551 1343814
552 1343814
553 1343814
554 1171899
555 1171895
556 1343814
557 390645
558 465625
559 468125
560 390645
561 250069
562 21
563 24
564 546977
565 671879
566 78229
567 218752
568 75000
569 2500
570 1128163
571 783750
572 1084538
573 1156718
574 1234375
575 1171999
576 1184375
577 1171879
578 1236879
579 -1
580 1234875
581 1172375
582 1171895
583 765871
584 765625
585 766249
586 2500
587 500
588 600
589 390649
590 124
591 253764
592 12500
593 600
594 3000
595 120
596 100
597 520
598 781374
599 781270
600 1015649
601 784370
602 781354
603 781254
604 1093754
605 1093750
606 781874
607 1156250
608 -1
609 1171939
610 1246875
611 1171939
612 1184375
613 1186875
614 1171999
615 1174375
616 1171899
617 1171899
618 1174390
619 1409125
620 1171899
621 1487475
622 1171899
623 1171899
624 1171899
625 1484899
626 1484376
627 1171899
628 1171879
629 1171899
630 1484375
631 1184387
632 1547004
633 844254
634 781274
635 1093754
636 1096274
637 -1
638 1093752
639 1093879
640 1129226
641 1096274
642 1094128
643 781254
644 781254
645 781254
646 859404
647 1035120
648 1171975
649 1171879
650 1171979
651 1171975
652 1171879
653 1171975
654 1440749
655 1171879
656 1234979
657 1190729
658 1171975
659 1209379
660 390745
661 562574
662 390645
663 453129
664 453154
665 390629
666 -1
667 1234379
668 1250024
669 1186258
670 1184375
671 1186258
672 1234375
673 1246875
674 1202508
675 1202508
676 1234375
677 1218133
678 1234375
679 1546875
680 1200007
681 1312500
682 1216257
683 1390625
684 1216257
685 1234375
686 1546875
687 1390625
688 1484375
689 1401257
690 1468750
691 1404388
692 1234375
693 1013763
694 1109375
695 1095002
696 1045038
697 1095002
698 1076288
699 1093750
700 1076288
701 1105250
702 1076288
703 784250
704 983758
705 315154
706 49375
707 -1
708 824225
709 1183739
710 784284
711 1078440
712 453376
713 703145
714 1388751
715 806201
716 1203374
717 1484954
718 1285009
719 1171995
720 1171895
721 1477810
722 1174379
723 1336843
724 1489364
725 1507840
726 1484375
727 1499374
728 1487662
729 1485150
730 1455645
731 1184895
732 1501530
733 1531510
734 1546875
735 1546875
736 -1
737 1546875
738 1502305
739 1559375
740 1172399
741 778125
742 703125
743 703125
744 703629
745 391129
746 767150
747 391129
748 719375
749 719500
750 393729
751 390729
752 390729
753 712343
754 390729
755 403093
756 390729
757 390729
758 559343
759 637468
760 484479
761 718713
762 393854
763 718587
764 390729
765 640431
766 718555
767 -1
768 1252852
769 1171975
770 1172479
771 1330725
772 1172479
773 1486975
774 1172479
775 1171975
776 1408850
777 1171895
778 1486975
779 781270
780 781270
781 783850
782 783850
783 1249175
784 1174879
785 1344984
786 1344984
787 1172104
788 1344984
789 1484427
790 1171879
791 1344984
792 -1
793 1171979
794 1171895
795 1171895
796 1484375
797 1171895
798 1171895
799 1171895
800 1174395
801 1171895
802 1174395
803 1171895
804 1171895
805 1174395
806 1173395
807 1171895
808 1195611
809 1171895
810 1176860
811 1174879
812 1406270
813 1176860
814 1171895
815 1176860
816 468774
817 476860
818 476860
819 476860
820 1258110
821 1171879
822 1258110
823 1484379
824 1171879
825 1258110
826 1171879
827 1258110
828 1258110
829 1484379
830 1258118
831 1093750
832 1015689
833 1258116
834 1484378
835 1328129
836 1293110
837 1484375
838 1293110
839 1172377
840 1211235
841 1271750
842 1499878
843 1367460
844 1498629
845 1173626
846 1234899
847 1562430
848 1093774
849 -1
850 1163905
851 1026995
852 1160030
853 1160030
854 783745
855 1484975
856 1391225
857 1406856
858 1406856
859 1546875
860 1546875
861 1331239
862 1546875
863 1331238
864 1485625
865 1484376
866 1253105
867 1253106
868 1408752
869 1253106
870 1172378
871 1234379
872 1253107
873 1409357
874 1172379
875 1331232
876 1331232
877 1546875
878 1253107
879 1252875
880 1174982
881 1468750
882 1174982
883 1484375
884 1484375
885 1546875
886 1484375
887 1546875
888 1484375
889 1487379
890 1174987
891 1408750
892 -1
893 1486875
894 1440003
895 1174987
896 1174875
897 1174997
898 1484379
899 1171979
900 1171979
901 1484387
902 1174997
903 1484375
904 1174997
905 1484375
906 1174998
907 1174998
908 1174998
909 1484375
910 1250004
911 1196874
912 1468774
913 1196869
914 1484375
915 1344362
916 1344362
917 1171899
918 -1
919 1484375
920 1484399
921 1422485
922 1422485
923 1171895
924 1422485
925 1422485
926 1500455
927 1500580
928 1171895
929 1500610
930 1171895
931 1484375
932 1422485
933 1171895
934 1188736
935 1172375
936 1171895
937 1174875
938 1250020
939 1266235
940 1344360
941 703125
942 703125
943 703125
944 703145
945 703335
946 703125
947 -1
948 703145
949 563365
950 765687
951 390749
952 703125
953 563366
954 390629
955 390749
956 719617
957 484364
958 390749
959 393125
960 393240
961 563365
962 781229
963 390745
964 407116
965 468869
966 703128
967 468869
968 485367
969 703129
970 485367
971 625064
972 1171995
973 1171939
974 1171879
975 1267247
976 -1
977 1171879
978 1171939
979 1171939
980 1171995
981 1171879
982 1172873
983 1171899
984 1175824
985 1171879
986 1184375
987 393784
988 397504
989 468629
990 437499
991 467503
992 399377
993 403125
994 465628
995 1187375
996 1174379
997 1174879
998 1358753
999 1174379
