0 [0.0, 0.0, 0.0, 0.0, 0.0, 0.0, 0.0, 0.0]
1 [0.0, 0.0, 0.0, 0.0, 0.0, 0.0, 0.0, 0.0]
2 [0.0, 0.0, 0.0, 0.0, 0.0, 0.0, 0.0, 0.0]
3 [0.0, 0.0, 0.0, 0.0, 0.0, 0.0, 0.0, 0.0]
4 [0.0, 0.0, 0.0, 0.0, 0.0, 0.0, 0.0, 0.0]
5 [0.0, 0.0, 0.0, 0.0, 0.0, 0.0, 0.0, 0.0]
6 [0.0, 0.0, 0.0, 0.0, 0.0, 0.0, 0.0, 0.0]
7 [0.0, 0.0, 0.0, 0.0, 0.0, 0.0, 0.0, 0.0]
8 [0.0, 0.0, 0.8, 0.8, 0.8, 0.0, 0.0, 0.0]
9 [0.0, 0.0, 0.0, 0.0, 0.0, 0.0, 0.0, 0.0]
10 [0.0, 0.0, 0.0, 0.0, 0.0, 0.0, 0.0, 0.0]
11 [0.0, 0.0, 0.0, 0.0, 0.0, 0.0, 0.0, 0.0]
12 [0.0054945056, 0.0054945056, 0.0054945056, 0.0054945056, 0.99450547, 0.0, 0.0, 0.0054945056]
13 [0.0, 0.0, 0.0, 0.0, 0.0, 0.0, 0.0, 0.0]
14 [0.027777778, 0.027777778, 0.027777778, 0.027777778, 0.9722222, 0.9722222, 0.0, 0.0]
15 [0.0054945056, 0.99450547, 0.0054945056, 0.0054945056, 0.0054945056, 0.0054945056, 0.0, 0.0]
16 [0.0, 0.0, 0.0, 0.0, 0.0, 0.0, 0.0, 0.0]
17 [0.5, 0.5, 0.5, 0.5, 0.5, 0.5, 0.5, 0.0]
18 [0.0, 0.0, 0.0, 0.0, 0.0, 0.0, 0.0, 0.0]
19 [0.0, 0.0, 0.0, 0.0, 0.0, 0.0, 0.0, 0.0]
20 [0.0, 0.010989011, 0.989011, 0.010989011, 0.010989011, 0.010989011, 0.989011, 0.010989011]
21 [0.0, 0.0, 0.0, 0.0, 0.0, 0.0, 0.0, 0.0]
22 [0.0, 0.0, 0.0, 0.0, 0.0, 0.0, 0.0, 0.0]
23 [0.9285714, 0.0, 0.071428575, 0.071428575, 0.071428575, 0.071428575, 0.071428575, 0.9285714]
24 [0.0, 0.0, 0.0, 0.0, 0.0, 0.0, 0.0, 0.0]
25 [0.0, 0.0, 0.0, 0.0, 0.0, 0.0, 0.0, 0.0]
26 [0.9777778, 0.0, 0.0, 0.022222223, 0.0, 0.9777778, 0.022222223, 0.022222223]
27 [0.0, 0.0, 0.0, 0.0, 0.0, 0.0, 0.0, 0.0]
28 [0.0, 0.0, 0.0, 0.0, 0.0, 0.0, 0.0, 0.99450547]
29 [0.9444444, 0.0, 0.0, 0.055555556, 0.055555556, 0.055555556, 0.055555556, 0.055555556]
30 [0.96153843, 0.0, 0.0, 0.03846154, 0.03846154, 0.03846154, 0.03846154, 0.03846154]
31 [0.875, 0.0, 0.0, 0.0, 0.0, 0.0, 0.0, 0.0]
32 [0.9777778, 0.9777778, 0.0, 0.0, 0.9777778, 0.0, 0.022222223, 0.022222223]
33 [0.9444444, 0.9444444, 0.0, 0.0, 0.11111111, 0.9444444, 0.11111111, 0.11111111]
34 [0.0, 0.0, 0.0, 0.0, 0.0, 0.0, 0.0, 0.0]
35 [0.0, 0.0, 0.0, 0.0, 0.0, 0.0, 0.0, 0.0]
36 [0.0, 0.0, 0.0, 0.0, 0.0, 0.0, 0.0, 0.0]
37 [0.875, 0.5, 0.0, 0.0, 0.0, 0.5, 0.0, 0.5]
38 [0.875, 0.07692308, 0.96153843, 0.0, 0.0, 0.07692308, 0.07692308, 0.07692308]
39 [0.0, 0.0, 0.0, 0.0, 0.0, 0.0, 0.0, 0.0]
40 [0.0, 0.0, 0.0, 0.0, 0.0, 0.0, 0.0, 0.9375]
41 [0.875, 0.033333335, 0.98333335, 0.0, 0.0, 0.0, 0.033333335, 0.98333335]
42 [0.0, 0.0, 0.0, 0.0, 0.0, 0.0, 0.0, 0.0]
43 [0.75, 0.75, 0.0, 0.0, 0.0, 0.0, 0.0, 0.0]
44 [0.75, 0.75, 0.010989011, 0.99450547, 0.0, 0.0, 0.010989011, 0.010989011]
45 [0.0, 0.0, 0.0, 0.0, 0.0, 0.0, 0.0, 0.0]
46 [0.0, 0.0, 0.0, 0.0, 0.0, 0.0, 0.0, 0.0]
47 [0.75, 0.75, 0.9722222, 0.9722222, 0.9722222, 0.0, 0.0, 0.055555556]
48 [0.75, 0.75, 0.25, 0.9375, 0.9375, 0.0, 0.0, 0.25]
49 [0.0, 0.0, 0.0, 0.0, 0.0, 0.0, 0.0, 0.0]
