0 1.5707964
0 2.3182098E-7
0 2.4088934E-7
0 9.078623E-8
0 -0.0
0 -2.0647656E-7
0 -9.272836E-8
0 -1.5707964
0 -1.5707968
1 1.5707964
1 2.3182098E-7
1 2.4088934E-7
1 9.078623E-8
1 -0.0
1 -2.0647656E-7
1 -9.272836E-8
1 -1.5707964
1 -1.5707968
2 1.5707964
2 2.3182098E-7
2 2.4088934E-7
2 9.078623E-8
2 -0.0
2 -2.0647656E-7
2 -9.272836E-8
2 -1.5707964
2 -1.5707968
3 1.5707964
3 2.3182098E-7
3 2.4088934E-7
3 9.078623E-8
3 -0.0
3 -2.0647656E-7
3 -9.272836E-8
3 -1.5707964
3 -1.5707968
4 1.5707964
4 2.3182098E-7
4 2.4088934E-7
4 9.078623E-8
4 -0.0
4 -2.0647656E-7
4 -9.272836E-8
4 -1.5707964
4 -1.5707968
5 1.5707964
5 2.3182098E-7
5 2.4088934E-7
5 9.078623E-8
5 -0.0
5 -2.0647656E-7
5 -9.272836E-8
5 -1.5707964
5 -1.5707968
6 1.5707964
6 2.3182098E-7
6 2.4088934E-7
6 9.078623E-8
6 -0.0
6 -2.0647656E-7
6 -9.272836E-8
6 -1.5707964
6 -1.5707968
7 1.5707964
7 2.3182098E-7
7 2.4088934E-7
7 9.078623E-8
7 -0.0
7 -2.0647656E-7
7 -9.272836E-8
7 -1.5707964
7 -1.5707968
8 1.5707964
8 2.3182098E-7
8 2.4088934E-7
8 9.078623E-8
8 -0.0
8 -2.0647656E-7
8 -9.272836E-8
8 -1.5707964
8 -1.5707968
9 1.5707964
9 2.3182098E-7
9 2.4088934E-7
9 9.078623E-8
9 -0.0
9 -2.0647656E-7
9 -9.272836E-8
9 -1.5707964
9 -1.5707968
10 -3.1371052
10 -9.1969945E-5
10 -6.798686E-5
10 -5.986559E-5
10 -5.9777038E-5
10 -6.803109E-5
10 -9.135984E-5
10 -0.004445089
10 -1.565882
11 -3.1371052
11 -9.1969945E-5
11 -6.798686E-5
11 -5.986559E-5
11 -5.9777038E-5
11 -6.803109E-5
11 -9.135984E-5
11 -0.004445089
11 -1.565882
12 3.1329577
12 1.5635935E-4
12 1.1509972E-4
12 1.0038919E-4
12 9.974514E-5
12 1.1245493E-4
12 1.5035059E-4
12 0.008650204
12 -1.55512
13 3.1327941
13 4.212137E-4
13 3.0617364E-4
13 2.6546154E-4
13 2.6218165E-4
13 2.940284E-4
13 3.8827845E-4
13 0.008803907
13 -1.5371021
14 3.1309524
14 9.393535E-4
14 6.7242695E-4
14 5.776726E-4
14 5.6619453E-4
14 6.295452E-4
14 8.2076044E-4
14 0.010644091
14 -1.514474
15 3.1309524
15 9.393535E-4
15 6.7242695E-4
15 5.776726E-4
15 5.6619453E-4
15 6.295452E-4
15 8.2076044E-4
15 0.010644091
15 -1.514474
16 3.1311715
16 0.0014677976
16 0.0010297574
16 8.7410095E-4
16 8.4821985E-4
16 9.330827E-4
16 0.0011977805
16 0.010422968
16 -1.4861029
17 3.13108
17 0.0022328529
17 0.0015255472
17 0.0012751997
17 0.0012221304
17 0.001326745
17 0.001672009
17 0.010514496
17 -1.450956
18 3.1310673
18 0.003274345
18 0.0021591783
18 0.0017697972
18 0.0016700524
18 0.0017847128
18 0.0022016042
18 0.010526606
18 -1.4079636
19 3.1310673
19 0.003274345
19 0.0021591783
19 0.0017697972
19 0.0016700524
19 0.0017847128
19 0.0022016042
19 0.010526606
19 -1.4079636
20 3.1327646
20 0.0039519942
20 0.002485419
20 0.0019873409
20 0.0018405751
20 0.0019307134
20 0.0023254578
20 0.008829147
20 -1.3567642
21 3.1347768
21 0.0043867608
21 0.002585859
21 0.0020045869
21 0.0018154279
21 0.0018643034
21 0.0021872532
21 0.006816764
21 -1.297143
22 3.137178
22 0.0041416795
22 0.0022286966
22 0.001661533
22 0.0014652632
22 0.0014688574
22 0.0016752762
22 0.004415461
22 -1.2290431
23 3.1395326
23 0.0028201372
23 0.0013385928
23 9.530499E-4
23 8.161988E-4
23 7.9775637E-4
23 8.848529E-4
23 0.0020607424
23 -1.1578248
24 -3.1414578
24 -4.4633323E-4
24 -1.7795833E-4
24 -1.20245386E-4
24 -1.0002034E-4
24 -9.554779E-5
24 -1.03054634E-4
24 -1.3450684E-4
24 -1.0875834
25 -3.1414578
25 -4.4633323E-4
25 -1.7795833E-4
25 -1.20245386E-4
25 -1.0002034E-4
25 -9.554779E-5
25 -1.03054634E-4
25 -1.3450684E-4
25 -1.0875834
26 -3.1414578
26 -4.4633323E-4
26 -1.7795833E-4
26 -1.20245386E-4
26 -1.0002034E-4
26 -9.554779E-5
26 -1.03054634E-4
26 -1.3450684E-4
26 -1.0875834
27 -3.1400628
27 -0.0055859042
27 -0.0017363359
27 -0.0011071794
27 -8.9160586E-4
27 -8.302061E-4
27 -8.7529287E-4
27 -0.0015293349
27 -1.021738
28 -3.1399758
28 -0.010260676
28 -0.002222279
28 -0.0013366404
28 -0.0010459918
28 -9.536589E-4
28 -9.853981E-4
28 -0.0016165241
28 -0.96540505
29 -3.1408095
29 -0.010669843
29 -0.001304955
29 -7.4268755E-4
29 -5.669262E-4
29 -5.081136E-4
29 -5.165474E-4
29 -7.8275555E-4
29 -0.91989565
30 3.1412418
30 0.025866654
30 5.5865804E-4
30 3.0094266E-4
30 2.2419271E-4
30 1.9761891E-4
30 1.9817559E-4
30 3.510359E-4
30 -0.8802074
31 3.1388955
31 3.0838017
31 0.005648597
31 0.0028570532
31 0.0020799453
31 0.0018063722
31 0.0017870824
31 0.0026975283
31 -0.8420871
32 3.1388955
32 3.0838017
32 0.005648597
32 0.0028570532
32 0.0020799453
32 0.0018063722
32 0.0017870824
32 0.0026975283
32 -0.8420871
33 3.137081
33 3.0921733
33 0.010903125
33 0.0051924586
33 0.0037005253
33 0.0031716328
33 0.003102618
33 0.00451198
33 -0.810284
34 3.135631
34 3.0963197
34 0.016648872
34 0.007410375
34 0.0051662955
34 0.0043699266
34 0.004228349
34 0.005961839
34 -0.7795017
35 3.1343012
35 3.1008894
35 0.024853215
35 0.009983939
35 0.006756174
35 0.0056175124
35 0.005360802
35 0.0072917184
35 -0.7407653
36 3.1330137
36 3.104683
36 0.038806118
36 0.013246474
36 0.008612006
36 0.0070057805
36 0.006572746
36 0.008579245
36 -0.693711
37 3.1330137
37 3.104683
37 0.038806118
37 0.013246474
37 0.008612006
37 0.0070057805
37 0.006572746
37 0.008579245
37 -0.693711
38 3.1330137
38 3.104683
38 0.038806118
38 0.013246474
38 0.008612006
38 0.0070057805
38 0.006572746
38 0.008579245
38 -0.693711
39 3.1330137
39 3.104683
39 0.038806118
39 0.013246474
39 0.008612006
39 0.0070057805
39 0.006572746
39 0.008579245
39 -0.64146036
40 3.1319268
40 3.1079035
40 0.06558155
40 0.01715477
40 0.010601823
40 0.008404846
40 0.0077350056
40 0.009666125
40 -0.64146036
41 3.1320744
41 3.1135857
41 0.12511924
41 0.019745257
41 0.011464788
41 0.008827372
41 0.0079566715
41 0.009518436
41 -0.586509
42 3.1342728
42 3.1226597
42 0.5182422
42 0.01782135
42 0.009643577
42 0.0072057145
42 0.00636464
42 0.007320035
42 -0.5346122
43 3.1362967
43 3.1291618
43 3.0096602
43 0.015086796
43 0.007569893
43 0.0054947673
43 0.0047635864
43 0.005296084
43 -0.48848012
44 3.1380498
44 3.1339662
44 3.1027606
44 0.01208326
44 0.005516638
44 0.0038771597
44 0.003295373
44 0.003542952
44 -0.4414662
45 3.1380498
45 3.1339662
45 3.1027606
45 0.01208326
45 0.005516638
45 0.0038771597
45 0.003295373
45 0.003542952
45 -0.4414662
46 3.1380498
46 3.1339662
46 3.1027606
46 0.01208326
46 0.005516638
46 0.0038771597
46 0.003295373
46 0.003542952
46 -0.4414662
47 3.1402268
47 3.1388967
47 3.1321461
47 0.005813625
47 0.0023302399
47 0.0015759998
47 0.0013100412
47 0.0013660439
47 -0.39102533
48 -3.1404042
48 -3.1393764
48 -3.1355307
48 -0.007082183
48 -0.002323832
48 -0.0014981661
48 -0.0012132651
48 -0.0011882887
48 -0.33537012
49 -3.139389
49 -3.1378174
49 -3.1330106
49 -0.021789173
49 -0.004931869
49 -0.0029836383
49 -0.0023410702
49 -0.002203535
49 -0.27252865
