0.14999999 1.0499998
0.14999999 1.0499998
0.14999999 1.0499998
0.14999999 1.0499998
0.14999999 1.0499998
0.14999999 1.0499998
0.14983208 1.0501792
0.15018083 1.0502586
0.14880572 1.0504289
0.14880572 1.0504289
0.14441043 1.0510252
0.14441043 1.0510252
0.14222574 1.0504711
0.13981424 1.0489886
0.13572285 1.0419482
0.13586476 1.0341209
0.13586476 1.0341209
0.14159791 1.0141151
0.14664538 1.0036516
0.15381917 0.98904645
0.1559078 0.9848081
0.16068748 0.97617704
0.16068748 0.97617704
0.16280484 0.9716805
0.16280484 0.9716805
0.16597143 0.9661285
0.17094582 0.9591562
0.18241683 0.946931
0.18798006 0.94193804
0.18798006 0.94193804
0.1956106 0.9360833
0.20456116 0.93003666
0.21409445 0.9242541
0.22195587 0.91934454
0.23830673 0.91138685
0.23830673 0.91138685
0.23830673 0.91138685
0.24907038 0.908136
0.25964817 0.90556896
0.2753144 0.9023137
0.2753144 0.9023137
0.28159732 0.901214
0.2883383 0.90063393
0.29571384 0.900245
0.29571384 0.900245
0.29571384 0.900245
0.3048575 0.90045655
0.32549205 0.9028632
0.33616474 0.90542144
0.34516376 0.90782464
0.35215604 0.9099067
0.35215604 0.9099067
0.3591151 0.9122343
0.3591151 0.9122343
0.37745985 0.9207075
0.37745985 0.9207075
0.3877304 0.92699796
0.3877304 0.92699796
0.39824283 0.93443984
0.40853915 0.942448
0.40853915 0.942448
0.41856152 0.9509636
0.42829674 0.95997095
0.42829674 0.95997095
0.437836 0.96932286
0.4454279 0.9775874
0.4501907 0.98290235
0.4521637 0.9855736
0.45286804 0.98729646
0.45358133 0.9893389
0.45572394 0.9950943
0.4575738 0.99851304
0.46194124 1.004209
0.46563482 1.0078624
0.4696075 1.0119736
0.47531992 1.0168478
0.47531992 1.0168478
0.4838891 1.0226268
0.49788707 1.0315475
0.5026441 1.0344317
0.5026441 1.0344317
0.50943685 1.0384878
0.50943685 1.0384878
0.50943685 1.0384878
0.5119544 1.0396675
0.51416135 1.0404543
0.5176868 1.0413325
0.52239776 1.042216
0.52239776 1.042216
0.53101885 1.0428817
0.53654045 1.0431869
0.5454658 1.0441179
0.5559192 1.0452952
0.5559192 1.0452952
0.5559192 1.0452952
0.56773734 1.0468316
0.58839977 1.0500586
0.60994583 1.0552046
0.60994583 1.0552046
0.6161772 1.0565655
0.623577 1.0589644
0.63371235 1.0629771
0.64508075 1.0684074
0.6566687 1.0744275
0.66901654 1.0821899
0.68244404 1.0916532
0.68244404 1.0916532
0.6960976 1.1021606
0.7106125 1.1141303
0.72524256 1.126487
0.72524256 1.126487
0.7390867 1.1387385
0.75276035 1.1509225
0.7678947 1.164074
0.7678947 1.164074
0.78445375 1.1778424
0.78445375 1.1778424
0.78445375 1.1778424
0.8013874 1.1909399
0.8013874 1.1909399
0.81846285 1.2033272
0.83427286 1.2141225
0.84904397 1.2236526
0.8621477 1.2317007
0.87580204 1.2396557
0.87580204 1.2396557
0.87580204 1.2396557
0.8913621 1.2483361
0.8913621 1.2483361
0.9213398 1.2643028
0.9213398 1.2643028
0.94337 1.2761912
0.95132124 1.2802545
0.95937884 1.2843429
0.95937884 1.2843429
0.9657335 1.2877264
0.97059584 1.2903417
0.97059584 1.2903417
0.9780674 1.2939062
0.9780674 1.2939062
0.97927237 1.2945521
0.97927237 1.2945521
0.9803872 1.295015
0.9815046 1.2950575
0.9857513 1.2965366
0.9857513 1.2965366
0.9947276 1.2998718
0.9972968 1.3004192
1.0001032 1.3010675
1.0001032 1.3010675
1.0001032 1.3010675
1.0061277 1.3024304
1.0061277 1.3024304
1.0128334 1.3043333
1.0196192 1.306965
1.0294623 1.3111477
1.0294623 1.3111477
1.0571064 1.324902
1.0571064 1.324902
1.0701025 1.3319753
1.0701025 1.3319753
1.0798085 1.3374208
1.0864863 1.3413068
1.0864863 1.3413068
1.093622 1.3454597
1.093622 1.3454597
1.1126049 1.3568652
1.1126049 1.3568652
1.1255624 1.3649372
1.1415781 1.3750191
1.1415781 1.3750191
1.1568156 1.3843964
1.1568156 1.3843964
1.1568156 1.3843964
1.1690017 1.39193
1.1799064 1.3987474
1.192051 1.4065835
1.203783 1.4139582
1.203783 1.4139582
1.211762 1.4189818
1.211762 1.4189818
1.216822 1.422514
1.2225705 1.4262621
1.2225705 1.4262621
1.2286551 1.4300482
1.2340914 1.4333528
1.2485095 1.4418142
1.2485095 1.4418142
1.2619836 1.4489067
1.2619836 1.4489067
1.2619836 1.4489067
1.2730527 1.4545952
1.2875044 1.4620383
1.3225731 1.4801123
1.3225731 1.4801123
1.3400815 1.4892981
1.357353 1.498334
1.357353 1.498334
1.372492 1.5060883
1.3843397 1.5120466
1.3843397 1.5120466
1.3946897 1.5175453
1.4088538 1.5251508
1.4088538 1.5251508
1.4127873 1.5276797
1.4151393 1.5288416
1.4161971 1.5294844
1.4161971 1.5294844
1.4170301 1.5296733
1.4170606 1.5296348
1.4170606 1.5296348
1.417053 1.5296179
1.4187757 1.530703
1.4239267 1.5335115
1.4239267 1.5335115
1.4325054 1.5379149
1.4444568 1.5440836
1.4444568 1.5440836
1.4596967 1.5519565
1.4596967 1.5519565
1.4596967 1.5519565
1.4773648 1.561059
1.4932592 1.5691236
1.4932592 1.5691236
