0 [0.0, 0.0, 0.0, 0.0, 0.0, 0.0, 0.0, 0.0]
1 [0.0, 0.0, 0.0, 0.0, 0.0, 0.0, 0.0, 0.0]
2 [0.0, 0.0, 0.0, 0.0, 0.0, 0.0, 0.0, 0.0]
3 [0.0, 0.0, 0.0, 0.0, 0.0, 0.0, 0.0, 0.0]
4 [0.0, 0.0, 0.0, 0.0, 0.0, 0.0, 0.0, 0.0]
5 [0.0, 0.0, 0.0, 0.0, 0.0, 0.0, 0.0, 0.0]
6 [0.0, 0.0, 0.0, 0.0, 0.0, 0.0, 0.0, 0.0]
7 [0.0, 0.0, 0.0, 0.0, 0.0, 0.0, 0.0, 0.0]
8 [0.17667033, 0.06367032, 0.033329684, 0.033329684, 0.09167033, 0.03232966, 0.03132966, 0.10267033]
9 [0.17667033, 0.06367032, 0.033329684, 0.033329684, 0.09167033, 0.03232966, 0.03132966, 0.10267033]
10 [0.17721978, 0.060219772, 0.83678025, 0.8347802, 0.8902198, 0.032780208, 0.03178021, 0.10221978]
11 [0.17678571, 0.051785715, 0.04621429, 0.042214293, 0.08778571, 0.034214277, 0.03021428, 0.10578571]
12 [0.17678571, 0.051785715, 0.04621429, 0.042214293, 0.08778571, 0.034214277, 0.03021428, 0.10578571]
13 [0.17786813, 0.057131864, 0.05213187, 0.04613187, 0.08686813, 0.03513186, 0.030131863, 0.107868135]
14 [0.17521429, 0.07977473, 0.07177471, 0.06477472, 1.0782253, 0.08571978, 0.027280224, 0.021774717]
15 [0.16971979, 0.074280225, 0.06628021, 0.059280217, 0.083719775, 0.08571978, 0.027280224, 0.016280212]
16 [0.31637254, 0.19116984, 0.114584245, 0.09855799, 1.0280024, 1.056442, 0.028780226, 0.014780215]
17 [0.23017643, 1.2308723, 0.115095004, 0.09907143, 0.08207142, 0.08691758, 0.085423075, 0.011576931]
18 [0.19589843, 0.15062478, 0.10961804, 0.10235117, 0.12963207, 0.089057714, 0.08544293, 0.011576931]
19 [0.78070664, 0.6519914, 0.6249981, 0.6758454, 0.94600564, 0.61559683, 0.5899241, 0.089813195]
20 [0.11287398, 0.12891658, 0.1248412, 0.13557605, 0.15141572, 0.076347984, 0.08982603, 0.089813195]
21 [0.10746975, 0.12791137, 0.12483433, 0.13376828, 0.14035049, 0.07532995, 0.08982288, 0.089813195]
22 [0.09955479, 0.06360418, 1.1015971, 0.14309877, 0.18338606, 0.10901384, 1.044651, 0.108434066]
23 [0.026976053, 0.046630543, 0.11242562, 0.13059704, 0.16061918, 0.096810006, 0.05555824, 0.097445056]
24 [0.037415586, 0.048662838, 0.10661268, 0.10473261, 0.12010106, 0.10740921, 0.06535974, 0.10063737]
25 [0.0376682, 0.0510401, 0.1001856, 0.10431169, 0.11873703, 0.10291942, 0.06878816, 0.1002088]
26 [0.096906126, 0.08907911, 0.024263848, 0.093977965, 0.05364978, 0.12576744, 0.07978624, 0.03380219]
27 [0.9025198, 0.07316344, 0.021324597, 0.10791622, 0.055895794, 1.0466205, 0.12047863, 0.070496954]
28 [0.10376613, 0.06691124, 0.02094556, 0.0884397, 0.06723097, 0.13090906, 0.09826344, 0.048274733]
29 [0.11044769, 0.06606114, 0.023868153, 0.092458904, 0.07353325, 0.12949899, 0.09518955, 1.7737033]
30 [0.9760973, 0.052096628, 0.01739469, 0.1308211, 0.11570028, 0.18668908, 0.15174341, 0.11375336]
31 [1.0051738, 0.1134283, 0.017102454, 0.0723369, 0.10585096, 0.16543956, 0.16879387, 0.10580219]
32 [0.9372818, 0.10908883, 0.01699424, 0.034810353, 0.07612997, 0.1283783, 0.13033581, 0.06734066]
33 [0.9196125, 0.31763864, 0.010884512, 0.028675335, 0.9755878, 0.09399574, 0.145202, 0.10120574]
34 [0.87999445, 0.43590453, 0.00894846, 0.027082384, 0.16748245, 1.0186766, 0.22840886, 0.18341333]
35 [0.03769047, 0.05454098, 0.065614425, 0.024854865, 0.044857133, 0.07714286, 0.10885714, 0.10985714]
36 [0.038046256, 0.059587732, 0.06623332, 0.024785046, 0.043918673, 0.07694243, 0.11909823, 0.18623]
37 [0.9298187, 0.56181866, 0.061818678, 0.022181313, 0.034181327, 0.5679314, 0.082970165, 0.93780065]
38 [0.923249, 0.07376708, 1.0005306, 0.022735361, 0.031736255, 0.11967746, 0.16254151, 0.22299483]
39 [0.062499356, 0.006134865, 0.054596014, 0.022735583, 0.031736255, 0.04274115, 0.07978259, 0.10289837]
40 [0.05529082, 0.012780134, 0.047387473, 0.030032067, 0.039032955, 0.050038688, 0.07214922, 1.3550595]
41 [0.93647397, 0.052350156, 1.0151345, 0.039482687, 0.033516485, 0.03651941, 0.10098484, 1.3109612]
42 [0.06903817, 0.021450125, 0.04022404, 0.039482888, 0.033516485, 0.036518697, 0.06606191, 0.08795503]
43 [0.8155139, 0.7448657, 0.04028741, 0.039483044, 0.033516485, 0.036518157, 0.06567644, 0.08466507]
44 [0.82286406, 0.76464623, 0.044939436, 1.0303807, 0.035884615, 0.030108346, 0.036326393, 0.052843727]
45 [0.075674854, 0.035151675, 0.034021087, 0.03588437, 0.035884615, 0.030109597, 0.026860218, 0.06966135]
46 [0.07588462, 0.035884615, 0.03411539, 0.035884615, 0.035884615, 0.030115379, 0.02911538, 0.16288461]
47 [0.833489, 0.801489, 1.0127332, 1.0097332, 1.0097113, 0.027507951, 0.020553542, 0.08526143]
48 [0.83266485, 0.80366486, 0.29433516, 0.97983515, 0.97416484, 0.029332723, 0.02158529, 0.19951078]
49 [0.08266484, 0.05366484, 0.04433516, 0.042335164, 0.036664832, 0.029333323, 0.021769553, 0.012465635]
