0 [0.0, 0.0, 0.0, 0.0, 0.0, 0.0, 0.0, 0.0, 0.0, 0.0, 0.0, 0.0, 0.0, 0.0, 0.0, 0.0, 0.0, 0.0, 0.0, 0.0, 0.0, 0.0, 0.0, 0.0, 0.0, 0.0, 0.0, 0.0, 0.0, 0.0, 0.0, 0.0, 0.0, 0.0, 0.0, 0.0, 0.0, 0.0, 0.0, 0.0, 0.0, 0.0, 0.0, 0.0, 0.0, 0.0, 0.0, 0.0, 0.0, 0.0, 0.0, 0.0, 0.0, 0.0, 0.0, 0.0, 0.0, 0.0, 0.0, 0.0, 0.0, 0.0, 0.0, 0.0, 0.0, 0.0, 0.0, 0.0, 0.0, 0.0, 0.0, 0.0, 0.0, 0.0, 0.0, 0.0, 0.0, 0.0, 0.0, 0.0, 0.0, 0.0, 0.0, 0.0, 0.0, 0.0, 0.0, 0.0, 0.0, 0.0, 0.0, 0.0, 0.0, 0.0, 0.0, 0.0, 0.0, 0.0, 0.0, 0.0, 0.0, 0.0, 0.0, 0.0, 0.0, 0.0, 0.0, 0.0, 0.0, 0.0, 0.0, 0.0, 0.0, 0.0, 0.0, 0.0, 0.0, 0.0, 0.0, 0.0, 0.0, 0.0, 0.0, 0.0, 0.0, 0.0, 0.0, 0.0, 0.0, 0.0, 0.0, 0.0, 0.0, 0.0, 0.0, 0.0, 0.0, 0.0, 0.0, 0.0, 0.0, 0.0, 0.0, 0.0, 0.0, 0.0, 0.0, 0.0, 0.0, 0.0, 0.0, 0.0, 0.0, 0.0, 0.0, 0.0, 0.0, 0.0, 0.0, 0.0, 0.0, 0.0, 0.0, 0.0, 0.0, 0.0, 0.0, 0.0, 0.0, 0.0, 0.0, 0.0, 0.0, 0.0, 0.0, 0.0, 0.0, 0.0, 0.0, 0.0, 0.0, 0.0]
1 [0.0, 0.0, 0.0, 0.0, 0.0, 0.0, 0.0, 0.0, 0.0, 0.0, 0.0, 0.0, 0.0, 0.0, 0.0, 0.0, 0.0, 0.0, 0.0, 0.0, 0.0, 0.0, 0.0, 0.0, 0.0, 0.0, 0.0, 0.0, 0.0, 0.0, 0.0, 0.0, 0.0, 0.0, 0.0, 0.0, 0.0, 0.0, 0.0, 0.0, 0.0, 0.0, 0.0, 0.0, 0.0, 0.0, 0.0, 0.0, 0.0, 0.0, 0.0, 0.0, 0.0, 0.0, 0.0, 0.0, 0.0, 0.0, 0.0, 0.0, 0.0, 0.0, 0.0, 0.0, 0.0, 0.0, 0.0, 0.0, 0.0, 0.0, 0.0, 0.0, 0.0, 0.0, 0.0, 0.0, 0.0, 0.0, 0.0, 0.0, 0.0, 0.0, 0.0, 0.0, 0.0, 0.0, 0.0, 0.0, 0.0, 0.0, 0.0, 0.0, 0.0, 0.0, 0.0, 0.0, 0.0, 0.0, 0.0, 0.0, 0.0, 0.0, 0.0, 0.0, 0.0, 0.0, 0.0, 0.0, 0.0, 0.0, 0.0, 0.0, 0.0, 0.0, 0.0, 0.0, 0.0, 0.0, 0.0, 0.0, 0.0, 0.0, 0.0, 0.0, 0.0, 0.0, 0.0, 0.0, 0.0, 0.0, 0.0, 0.0, 0.0, 0.0, 0.0, 0.0, 0.0, 0.0, 0.0, 0.0, 0.0, 0.0, 0.0, 0.0, 0.0, 0.0, 0.0, 0.0, 0.0, 0.0, 0.0, 0.0, 0.0, 0.0, 0.0, 0.0, 0.0, 0.0, 0.0, 0.0, 0.0, 0.0, 0.0, 0.0, 0.0, 0.0, 0.0, 0.0, 0.0, 0.0, 0.0, 0.0, 0.0, 0.0, 0.0, 0.0, 0.0, 0.0, 0.0, 0.0, 0.0, 0.0]
2 [0.0, 0.0, 0.0, 0.0, 0.0, 0.0, 0.0, 0.0, 0.0, 0.0, 0.0, 0.0, 0.0, 0.0, 0.0, 0.0, 0.0, 0.0, 0.0, 0.0, 0.0, 0.0, 0.0, 0.0, 0.0, 0.0, 0.0, 0.0, 0.0, 0.0, 0.0, 0.0, 0.0, 0.0, 0.0, 0.0, 0.0, 0.0, 0.0, 0.0, 0.0, 0.0, 0.0, 0.0, 0.0, 0.0, 0.0, 0.0, 0.0, 0.0, 0.0, 0.0, 0.0, 0.0, 0.0, 0.0, 0.0, 0.0, 0.0, 0.0, 0.0, 0.0, 0.0, 0.0, 0.0, 0.0, 0.0, 0.0, 0.0, 0.0, 0.0, 0.0, 0.0, 0.0, 0.0, 0.0, 0.0, 0.0, 0.0, 0.0, 0.0, 0.0, 0.0, 0.0, 0.0, 0.0, 0.0, 0.0, 0.0, 0.0, 0.0, 0.0, 0.0, 0.0, 0.0, 0.0, 0.0, 0.0, 0.0, 0.0, 0.0, 0.0, 0.0, 0.0, 0.0, 0.0, 0.0, 0.0, 0.0, 0.0, 0.0, 0.0, 0.0, 0.0, 0.0, 0.0, 0.0, 0.0, 0.0, 0.0, 0.0, 0.0, 0.0, 0.0, 0.0, 0.0, 0.0, 0.0, 0.0, 0.0, 0.0, 0.0, 0.0, 0.0, 0.0, 0.0, 0.0, 0.0, 0.0, 0.0, 0.0, 0.0, 0.0, 0.0, 0.0, 0.0, 0.0, 0.0, 0.0, 0.0, 0.0, 0.0, 0.0, 0.0, 0.0, 0.0, 0.0, 0.0, 0.0, 0.0, 0.0, 0.0, 0.0, 0.0, 0.0, 0.0, 0.0, 0.0, 0.0, 0.0, 0.0, 0.0, 0.0, 0.0, 0.0, 0.0, 0.0, 0.0, 0.0, 0.0, 0.0, 0.0]
3 [0.0, 0.0, 0.0, 0.0, 0.0, 0.0, 0.0, 0.0, 0.0, 0.0, 0.0, 0.0, 0.0, 0.0, 0.0, 0.0, 0.0, 0.0, 0.0, 0.0, 0.0, 0.0, 0.0, 0.0, 0.0, 0.0, 0.0, 0.0, 0.0, 0.0, 0.0, 0.0, 0.0, 0.0, 0.0, 0.0, 0.0, 0.0, 0.0, 0.0, 0.0, 0.0, 0.0, 0.0, 0.0, 0.0, 0.0, 0.0, 0.0, 0.0, 0.0, 0.0, 0.0, 0.0, 0.0, 0.0, 0.0, 0.0, 0.0, 0.0, 0.0, 0.0, 0.0, 0.0, 0.0, 0.0, 0.0, 0.0, 0.0, 0.0, 0.0, 0.0, 0.0, 0.0, 0.0, 0.0, 0.0, 0.0, 0.0, 0.0, 0.0, 0.0, 0.0, 0.0, 0.0, 0.0, 0.0, 0.0, 0.0, 0.0, 0.0, 0.0, 0.0, 0.0, 0.0, 0.0, 0.0, 0.0, 0.0, 0.0, 0.0, 0.0, 0.0, 0.0, 0.0, 0.0, 0.0, 0.0, 0.0, 0.0, 0.0, 0.0, 0.0, 0.0, 0.0, 0.0, 0.0, 0.0, 0.0, 0.0, 0.0, 0.0, 0.0, 0.0, 0.0, 0.0, 0.0, 0.0, 0.0, 0.0, 0.0, 0.0, 0.0, 0.0, 0.0, 0.0, 0.0, 0.0, 0.0, 0.0, 0.0, 0.0, 0.0, 0.0, 0.0, 0.0, 0.0, 0.0, 0.0, 0.0, 0.0, 0.0, 0.0, 0.0, 0.0, 0.0, 0.0, 0.0, 0.0, 0.0, 0.0, 0.0, 0.0, 0.0, 0.0, 0.0, 0.0, 0.0, 0.0, 0.0, 0.0, 0.0, 0.0, 0.0, 0.0, 0.0, 0.0, 0.0, 0.0, 0.0, 0.0, 0.0]
4 [0.0, 0.0, 0.0, 0.0, 0.0, 0.0, 0.0, 0.0, 0.0, 0.0, 0.0, 0.0, 0.0, 0.0, 0.0, 0.0, 0.0, 0.0, 0.0, 0.0, 0.0, 0.0, 0.0, 0.0, 0.0, 0.0, 0.0, 0.0, 0.0, 0.0, 0.0, 0.0, 0.0, 0.0, 0.0, 0.0, 0.0, 0.0, 0.0, 0.0, 0.0, 0.0, 0.0, 0.0, 0.0, 0.0, 0.0, 0.0, 0.0, 0.0, 0.0, 0.0, 0.0, 0.0, 0.0, 0.0, 0.0, 0.0, 0.0, 0.0, 0.0, 0.0, 0.0, 0.0, 0.0, 0.0, 0.0, 0.0, 0.0, 0.0, 0.0, 0.0, 0.0, 0.0, 0.0, 0.0, 0.0, 0.0, 0.0, 0.0, 0.0, 0.0, 0.0, 0.0, 0.0, 0.0, 0.0, 0.0, 0.0, 0.0, 0.0, 0.0, 0.0, 0.0, 0.0, 0.0, 0.0, 0.0, 0.0, 0.0, 0.0, 0.0, 0.0, 0.0, 0.0, 0.0, 0.0, 0.0, 0.0, 0.0, 0.0, 0.0, 0.0, 0.0, 0.0, 0.0, 0.0, 0.0, 0.0, 0.0, 0.0, 0.0, 0.0, 0.0, 0.0, 0.0, 0.0, 0.0, 0.0, 0.0, 0.0, 0.0, 0.0, 0.0, 0.0, 0.0, 0.0, 0.0, 0.0, 0.0, 0.0, 0.0, 0.0, 0.0, 0.0, 0.0, 0.0, 0.0, 0.0, 0.0, 0.0, 0.0, 0.0, 0.0, 0.0, 0.0, 0.0, 0.0, 0.0, 0.0, 0.0, 0.0, 0.0, 0.0, 0.0, 0.0, 0.0, 0.0, 0.0, 0.0, 0.0, 0.0, 0.0, 0.0, 0.0, 0.0, 0.0, 0.0, 0.0, 0.0, 0.0, 0.0]
5 [0.0, 0.0, 0.0, 0.0, 0.0, 0.0, 0.0, 0.0, 0.0, 0.0, 0.0, 0.0, 0.0, 0.0, 0.0, 0.0, 0.0, 0.0, 0.0, 0.0, 0.0, 0.0, 0.0, 0.0, 0.0, 0.0, 0.0, 0.0, 0.0, 0.0, 0.0, 0.0, 0.0, 0.0, 0.0, 0.0, 0.0, 0.0, 0.0, 0.0, 0.0, 0.0, 0.0, 0.0, 0.0, 0.0, 0.0, 0.0, 0.0, 0.0, 0.0, 0.0, 0.0, 0.0, 0.0, 0.0, 0.0, 0.0, 0.0, 0.0, 0.0, 0.0, 0.0, 0.0, 0.0, 0.0, 0.0, 0.0, 0.0, 0.0, 0.0, 0.0, 0.0, 0.0, 0.0, 0.0, 0.0, 0.0, 0.0, 0.0, 0.0, 0.0, 0.0, 0.0, 0.0, 0.0, 0.0, 0.0, 0.0, 0.0, 0.0, 0.0, 0.0, 0.0, 0.0, 0.0, 0.0, 0.0, 0.0, 0.0, 0.0, 0.0, 0.0, 0.0, 0.0, 0.0, 0.0, 0.0, 0.0, 0.0, 0.0, 0.0, 0.0, 0.0, 0.0, 0.0, 0.0, 0.0, 0.0, 0.0, 0.0, 0.0, 0.0, 0.0, 0.0, 0.0, 0.0, 0.0, 0.0, 0.0, 0.0, 0.0, 0.0, 0.0, 0.0, 0.0, 0.0, 0.0, 0.0, 0.0, 0.0, 0.0, 0.0, 0.0, 0.0, 0.0, 0.0, 0.0, 0.0, 0.0, 0.0, 0.0, 0.0, 0.0, 0.0, 0.0, 0.0, 0.0, 0.0, 0.0, 0.0, 0.0, 0.0, 0.0, 0.0, 0.0, 0.0, 0.0, 0.0, 0.0, 0.0, 0.0, 0.0, 0.0, 0.0, 0.0, 0.0, 0.0, 0.0, 0.0, 0.0, 0.0]
6 [0.0, 0.0, 0.0, 0.0, 0.0, 0.0, 0.0, 0.0, 0.0, 0.0, 0.0, 0.0, 0.0, 0.0, 0.0, 0.0, 0.0, 0.0, 0.0, 0.0, 0.0, 0.0, 0.0, 0.0, 0.0, 0.0, 0.0, 0.0, 0.0, 0.0, 0.0, 0.0, 0.0, 0.0, 0.0, 0.0, 0.0, 0.0, 0.0, 0.0, 0.0, 0.0, 0.0, 0.0, 0.0, 0.0, 0.0, 0.0, 0.0, 0.0, 0.0, 0.0, 0.0, 0.0, 0.0, 0.0, 0.0, 0.0, 0.0, 0.0, 0.0, 0.0, 0.0, 0.0, 0.0, 0.0, 0.0, 0.0, 0.0, 0.0, 0.0, 0.0, 0.0, 0.0, 0.0, 0.0, 0.0, 0.0, 0.0, 0.0, 0.0, 0.0, 0.0, 0.0, 0.0, 0.0, 0.0, 0.0, 0.0, 0.0, 0.0, 0.0, 0.0, 0.0, 0.0, 0.0, 0.0, 0.0, 0.0, 0.0, 0.0, 0.0, 0.0, 0.0, 0.0, 0.0, 0.0, 0.0, 0.0, 0.0, 0.0, 0.0, 0.0, 0.0, 0.0, 0.0, 0.0, 0.0, 0.0, 0.0, 0.0, 0.0, 0.0, 0.0, 0.0, 0.0, 0.0, 0.0, 0.0, 0.0, 0.0, 0.0, 0.0, 0.0, 0.0, 0.0, 0.0, 0.0, 0.0, 0.0, 0.0, 0.0, 0.0, 0.0, 0.0, 0.0, 0.0, 0.0, 0.0, 0.0, 0.0, 0.0, 0.0, 0.0, 0.0, 0.0, 0.0, 0.0, 0.0, 0.0, 0.0, 0.0, 0.0, 0.0, 0.0, 0.0, 0.0, 0.0, 0.0, 0.0, 0.0, 0.0, 0.0, 0.0, 0.0, 0.0, 0.0, 0.0, 0.0, 0.0, 0.0, 0.0]
7 [0.0, 0.0, 0.0, 0.0, 0.0, 0.0, 0.0, 0.0, 0.0, 0.0, 0.0, 0.0, 0.0, 0.0, 0.0, 0.0, 0.0, 0.0, 0.0, 0.0, 0.0, 0.0, 0.0, 0.0, 0.0, 0.0, 0.0, 0.0, 0.0, 0.0, 0.0, 0.0, 0.0, 0.0, 0.0, 0.0, 0.0, 0.0, 0.0, 0.0, 0.0, 0.0, 0.0, 0.0, 0.0, 0.0, 0.0, 0.0, 0.0, 0.0, 0.0, 0.0, 0.0, 0.0, 0.0, 0.0, 0.0, 0.0, 0.0, 0.0, 0.0, 0.0, 0.0, 0.0, 0.0, 0.0, 0.0, 0.0, 0.0, 0.0, 0.0, 0.0, 0.0, 0.0, 0.0, 0.0, 0.0, 0.0, 0.0, 0.0, 0.0, 0.0, 0.0, 0.0, 0.0, 0.0, 0.0, 0.0, 0.0, 0.0, 0.0, 0.0, 0.0, 0.0, 0.0, 0.0, 0.0, 0.0, 0.0, 0.0, 0.0, 0.0, 0.0, 0.0, 0.0, 0.0, 0.0, 0.0, 0.0, 0.0, 0.0, 0.0, 0.0, 0.0, 0.0, 0.0, 0.0, 0.0, 0.0, 0.0, 0.0, 0.0, 0.0, 0.0, 0.0, 0.0, 0.0, 0.0, 0.0, 0.0, 0.0, 0.0, 0.0, 0.0, 0.0, 0.0, 0.0, 0.0, 0.0, 0.0, 0.0, 0.0, 0.0, 0.0, 0.0, 0.0, 0.0, 0.0, 0.0, 0.0, 0.0, 0.0, 0.0, 0.0, 0.0, 0.0, 0.0, 0.0, 0.0, 0.0, 0.0, 0.0, 0.0, 0.0, 0.0, 0.0, 0.0, 0.0, 0.0, 0.0, 0.0, 0.0, 0.0, 0.0, 0.0, 0.0, 0.0, 0.0, 0.0, 0.0, 0.0, 0.0]
8 [0.0, 0.0, 0.0, 0.0, 0.0, 0.0, 0.0, 0.0, 0.0, 0.0, 0.0, 0.0, 0.0, 0.0, 0.0, 0.0, 0.0, 0.0, 0.0, 0.0, 0.0, 0.0, 0.0, 0.0, 0.0, 0.0, 0.0, 0.0, 0.0, 0.0, 0.0, 0.0, 0.0, 0.0, 0.0, 0.0, 0.0, 0.0, 0.0, 0.0, 0.0, 0.0, 0.0, 0.0, 0.0, 0.0, 0.0, 0.0, 0.0, 0.0, 0.0, 0.0, 0.0, 0.0, 0.0, 0.0, 0.0, 0.0, 0.0, 0.0, 0.0, 0.0, 0.0, 0.0, 0.0, 0.0, 0.0, 0.0, 0.0, 0.0, 0.0, 0.0, 0.0, 0.0, 0.0, 0.0, 0.0, 0.0, 0.0, 0.0, 0.0, 0.0, 0.0, 0.0, 0.0, 0.0, 0.0, 0.0, 0.0, 0.0, 0.0, 0.0, 0.0, 0.0, 0.0, 0.0, 0.0, 0.0, 0.0, 0.0, 0.0, 0.0, 0.0, 0.0, 0.0, 0.0, 0.0, 0.0, 0.0, 0.0, 0.0, 0.0, 0.0, 0.0, 0.0, 0.0, 0.0, 0.0, 0.0, 0.0, 0.0, 0.0, 0.0, 0.0, 0.0, 0.0, 0.0, 0.0, 0.0, 0.0, 0.0, 0.0, 0.0, 0.0, 0.0, 0.0, 0.0, 0.0, 0.0, 0.0, 0.0, 0.0, 0.0, 0.0, 0.0, 0.0, 0.0, 0.0, 0.0, 0.0, 0.0, 0.0, 0.0, 0.0, 0.0, 0.0, 0.0, 0.0, 0.0, 0.0, 0.0, 0.0, 0.0, 0.0, 0.0, 0.0, 0.0, 0.0, 0.0, 0.0, 0.0, 0.0, 0.0, 0.0, 0.0, 0.0, 0.0, 0.0, 0.0, 0.0, 0.0, 0.0]
9 [0.0, 0.0, 0.0, 0.0, 0.0, 0.0, 0.0, 0.0, 0.0, 0.0, 0.0, 0.0, 0.0, 0.0, 0.0, 0.0, 0.0, 0.0, 0.0, 0.0, 0.0, 0.0, 0.0, 0.0, 0.0, 0.0, 0.0, 0.0, 0.0, 0.0, 0.0, 0.0, 0.0, 0.0, 0.0, 0.0, 0.0, 0.0, 0.0, 0.0, 0.0, 0.0, 0.0, 0.0, 0.0, 0.0, 0.0, 0.0, 0.0, 0.0, 0.0, 0.0, 0.0, 0.0, 0.0, 0.0, 0.0, 0.0, 0.0, 0.0, 0.0, 0.0, 0.0, 0.0, 0.0, 0.0, 0.0, 0.0, 0.0, 0.0, 0.0, 0.0, 0.0, 0.0, 0.0, 0.0, 0.0, 0.0, 0.0, 0.0, 0.0, 0.0, 0.0, 0.0, 0.0, 0.0, 0.0, 0.0, 0.0, 0.0, 0.0, 0.0, 0.0, 0.0, 0.0, 0.0, 0.0, 0.0, 0.0, 0.0, 0.0, 0.0, 0.0, 0.0, 0.0, 0.0, 0.0, 0.0, 0.0, 0.0, 0.0, 0.0, 0.0, 0.0, 0.0, 0.0, 0.0, 0.0, 0.0, 0.0, 0.0, 0.0, 0.0, 0.0, 0.0, 0.0, 0.0, 0.0, 0.0, 0.0, 0.0, 0.0, 0.0, 0.0, 0.0, 0.0, 0.0, 0.0, 0.0, 0.0, 0.0, 0.0, 0.0, 0.0, 0.0, 0.0, 0.0, 0.0, 0.0, 0.0, 0.0, 0.0, 0.0, 0.0, 0.0, 0.0, 0.0, 0.0, 0.0, 0.0, 0.0, 0.0, 0.0, 0.0, 0.0, 0.0, 0.0, 0.0, 0.0, 0.0, 0.0, 0.0, 0.0, 0.0, 0.0, 0.0, 0.0, 0.0, 0.0, 0.0, 0.0, 0.0]
10 [0.0, 0.0, 0.0, 0.0, 0.0, 0.0, 0.0, 0.0, 0.0, 0.0, 0.0, 0.0, 0.0, 0.0, 0.0, 0.0, 0.0, 0.0, 0.0, 0.0, 0.0, 0.0, 0.0, 0.0, 0.0, 0.0, 0.0, 0.0, 0.0, 0.0, 0.0, 0.0, 0.0, 0.0, 0.0, 0.0, 0.0, 0.0, 0.0, 0.0, 0.0, 0.0, 0.0, 0.0, 0.0, 0.0, 0.0, 0.0, 0.0, 0.0, 0.0, 0.0, 0.0, 0.0, 0.0, 0.0, 0.0, 0.0, 0.0, 0.0, 0.0, 0.0, 0.0, 0.0, 0.0, 0.0, 0.0, 0.0, 0.0, 0.0, 0.0, 0.0, 0.0, 0.0, 0.0, 0.0, 0.0, 0.0, 0.0, 0.0, 0.0, 0.0, 0.0, 0.0, 0.0, 0.0, 0.0, 0.0, 0.0, 0.0, 0.0, 0.0, 0.0, 0.0, 0.0, 0.0, 0.0, 0.0, 0.0, 0.0, 0.0, 0.0, 0.0, 0.0, 0.0, 0.0, 0.0, 0.0, 0.0, 0.0, 0.0, 0.0, 0.0, 0.0, 0.0, 0.0, 0.0, 0.0, 0.0, 0.0, 0.0, 0.0, 0.0, 0.0, 0.0, 0.0, 0.0, 0.0, 0.0, 0.0, 0.0, 0.0, 0.0, 0.0, 0.0, 0.0, 0.0, 0.0, 0.0, 0.0, 0.0, 0.0, 0.0, 0.0, 0.0, 0.0, 0.0, 0.0, 0.0, 0.0, 0.0, 0.0, 0.0, 0.0, 0.0, 0.0, 0.0, 0.0, 0.0, 0.0, 0.0, 0.0, 0.0, 0.0, 0.0, 0.0, 0.0, 0.0, 0.0, 0.0, 0.0, 0.0, 0.0, 0.0, 0.0, 0.0, 0.0, 0.0, 0.0, 0.0, 0.0, 0.0]
11 [0.0, 0.0, 0.0, 0.0, 0.0, 0.0, 0.0, 0.0, 0.0, 0.0, 0.0, 0.0, 0.0, 0.0, 0.0, 0.0, 0.0, 0.0, 0.0, 0.0, 0.0, 0.0, 0.0, 0.0, 0.0, 0.0, 0.0, 0.0, 0.0, 0.0, 0.0, 0.0, 0.0, 0.0, 0.0, 0.0, 0.0, 0.0, 0.0, 0.0, 0.0, 0.0, 0.0, 0.0, 0.0, 0.0, 0.0, 0.0, 0.0, 0.0, 0.0, 0.0, 0.0, 0.0, 0.0, 0.0, 0.0, 0.0, 0.0, 0.0, 0.0, 0.0, 0.0, 0.0, 0.0, 0.0, 0.0, 0.0, 0.0, 0.0, 0.0, 0.0, 0.0, 0.0, 0.0, 0.0, 0.0, 0.0, 0.0, 0.0, 0.0, 0.0, 0.0, 0.0, 0.0, 0.0, 0.0, 0.0, 0.0, 0.0, 0.0, 0.0, 0.0, 0.0, 0.0, 0.0, 0.0, 0.0, 0.0, 0.0, 0.0, 0.0, 0.0, 0.0, 0.0, 0.0, 0.0, 0.0, 0.0, 0.0, 0.0, 0.0, 0.0, 0.0, 0.0, 0.0, 0.0, 0.0, 0.0, 0.0, 0.0, 0.0, 0.0, 0.0, 0.0, 0.0, 0.0, 0.0, 0.0, 0.0, 0.0, 0.0, 0.0, 0.0, 0.0, 0.0, 0.0, 0.0, 0.0, 0.0, 0.0, 0.0, 0.0, 0.0, 0.0, 0.0, 0.0, 0.0, 0.0, 0.0, 0.0, 0.0, 0.0, 0.0, 0.0, 0.0, 0.0, 0.0, 0.0, 0.0, 0.0, 0.0, 0.0, 0.0, 0.0, 0.0, 0.0, 0.0, 0.0, 0.0, 0.0, 0.0, 0.0, 0.0, 0.0, 0.0, 0.0, 0.0, 0.0, 0.0, 0.0, 0.0]
12 [0.0, 0.0, 0.0, 0.0, 0.0, 0.0, 0.0, 0.0, 0.0, 0.0, 0.0, 0.0, 0.0, 0.0, 0.0, 0.0, 0.0, 0.0, 0.0, 0.0, 0.0, 0.0, 0.0, 0.0, 0.0, 0.0, 0.0, 0.0, 0.0, 0.0, 0.0, 0.0, 0.0, 0.0, 0.0, 0.0, 0.0, 0.0, 0.0, 0.0, 0.0, 0.0, 0.0, 0.0, 0.0, 0.0, 0.0, 0.0, 0.0, 0.0, 0.0, 0.0, 0.0, 0.0, 0.0, 0.0, 0.0, 0.0, 0.0, 0.0, 0.0, 0.0, 0.0, 0.0, 0.0, 0.0, 0.0, 0.0, 0.0, 0.0, 0.0, 0.0, 0.0, 0.0, 0.0, 0.0, 0.0, 0.0, 0.0, 0.0, 0.0, 0.0, 0.0, 0.0, 0.0, 0.0, 0.0, 0.0, 0.0, 0.0, 0.0, 0.0, 0.0, 0.0, 0.0, 0.0, 0.0, 0.0, 0.0, 0.0, 0.0, 0.0, 0.0, 0.0, 0.0, 0.0, 0.0, 0.0, 0.0, 0.0, 0.0, 0.0, 0.0, 0.0, 0.0, 0.0, 0.0, 0.0, 0.0, 0.0, 0.0, 0.0, 0.0, 0.0, 0.0, 0.0, 0.0, 0.0, 0.0, 0.0, 0.0, 0.0, 0.0, 0.0, 0.0, 0.0, 0.0, 0.0, 0.0, 0.0, 0.0, 0.0, 0.0, 0.0, 0.0, 0.0, 0.0, 0.0, 0.0, 0.0, 0.0, 0.0, 0.0, 0.0, 0.0, 0.0, 0.0, 0.0, 0.0, 0.0, 0.0, 0.0, 0.0, 0.0, 0.0, 0.0, 0.0, 0.0, 0.0, 0.0, 0.0, 0.0, 0.0, 0.0, 0.0, 0.0, 0.0, 0.0, 0.0, 0.0, 0.0, 0.0]
13 [0.0, 0.0, 0.0, 0.0, 0.0, 0.0, 0.0, 0.0, 0.0, 0.0, 0.0, 0.0, 0.0, 0.0, 0.0, 0.0, 0.0, 0.0, 0.0, 0.0, 0.0, 0.0, 0.0, 0.0, 0.0, 0.0, 0.0, 0.0, 0.0, 0.0, 0.0, 0.0, 0.0, 0.0, 0.0, 0.0, 0.0, 0.0, 0.0, 0.0, 0.0, 0.0, 0.0, 0.0, 0.0, 0.0, 0.0, 0.0, 0.0, 0.0, 0.0, 0.0, 0.0, 0.0, 0.0, 0.0, 0.0, 0.0, 0.0, 0.0, 0.0, 0.0, 0.0, 0.0, 0.0, 0.0, 0.0, 0.0, 0.0, 0.0, 0.0, 0.0, 0.0, 0.0, 0.0, 0.0, 0.0, 0.0, 0.0, 0.0, 0.0, 0.0, 0.0, 0.0, 0.0, 0.0, 0.0, 0.0, 0.0, 0.0, 0.0, 0.0, 0.0, 0.0, 0.0, 0.0, 0.0, 0.0, 0.0, 0.0, 0.0, 0.0, 0.0, 0.0, 0.0, 0.0, 0.0, 0.0, 0.0, 0.0, 0.0, 0.0, 0.0, 0.0, 0.0, 0.0, 0.0, 0.0, 0.0, 0.0, 0.0, 0.0, 0.0, 0.0, 0.0, 0.0, 0.0, 0.0, 0.0, 0.0, 0.0, 0.0, 0.0, 0.0, 0.0, 0.0, 0.0, 0.0, 0.0, 0.0, 0.0, 0.0, 0.0, 0.0, 0.0, 0.0, 0.0, 0.0, 0.0, 0.0, 0.0, 0.0, 0.0, 0.0, 0.0, 0.0, 0.0, 0.0, 0.0, 0.0, 0.0, 0.0, 0.0, 0.0, 0.0, 0.0, 0.0, 0.0, 0.0, 0.0, 0.0, 0.0, 0.0, 0.0, 0.0, 0.0, 0.0, 0.0, 0.0, 0.0, 0.0, 0.0]
14 [0.0, 0.0, 0.0, 0.0, 0.0, 0.0, 0.0, 0.0, 0.0, 0.0, 0.0, 0.0, 0.0, 0.0, 0.0, 0.0, 0.0, 0.0, 0.0, 0.0, 0.0, 0.0, 0.0, 0.0, 0.0, 0.0, 0.0, 0.0, 0.0, 0.0, 0.0, 0.0, 0.0, 0.0, 0.0, 0.0, 0.0, 0.0, 0.0, 0.0, 0.0, 0.0, 0.0, 0.0, 0.0, 0.0, 0.0, 0.0, 0.0, 0.0, 0.0, 0.0, 0.0, 0.0, 0.0, 0.0, 0.0, 0.0, 0.0, 0.0, 0.0, 0.0, 0.0, 0.0, 0.0, 0.0, 0.0, 0.0, 0.0, 0.0, 0.0, 0.0, 0.0, 0.0, 0.0, 0.0, 0.0, 0.0, 0.0, 0.0, 0.0, 0.0, 0.0, 0.0, 0.0, 0.0, 0.0, 0.0, 0.0, 0.0, 0.0, 0.0, 0.0, 0.0, 0.0, 0.0, 0.0, 0.0, 0.0, 0.0, 0.0, 0.0, 0.0, 0.0, 0.0, 0.0, 0.0, 0.0, 0.0, 0.0, 0.0, 0.0, 0.0, 0.0, 0.0, 0.0, 0.0, 0.0, 0.0, 0.0, 0.0, 0.0, 0.0, 0.0, 0.0, 0.0, 0.0, 0.0, 0.0, 0.0, 0.0, 0.0, 0.0, 0.0, 0.0, 0.0, 0.0, 0.0, 0.0, 0.0, 0.0, 0.0, 0.0, 0.0, 0.0, 0.0, 0.0, 0.0, 0.0, 0.0, 0.0, 0.0, 0.0, 0.0, 0.0, 0.0, 0.0, 0.0, 0.0, 0.0, 0.0, 0.0, 0.0, 0.0, 0.0, 0.0, 0.0, 0.0, 0.0, 0.0, 0.0, 0.0, 0.0, 0.0, 0.0, 0.0, 0.0, 0.0, 0.0, 0.0, 0.0, 0.0]
15 [0.0, 0.0, 0.0, 0.0, 0.0, 0.0, 0.0, 0.0, 0.0, 0.0, 0.0, 0.0, 0.0, 0.0, 0.0, 0.0, 0.0, 0.0, 0.0, 0.0, 0.0, 0.0, 0.0, 0.0, 0.0, 0.0, 0.0, 0.0, 0.0, 0.0, 0.0, 0.0, 0.0, 0.0, 0.0, 0.0, 0.0, 0.0, 0.0, 0.0, 0.0, 0.0, 0.0, 0.0, 0.0, 0.0, 0.0, 0.0, 0.0, 0.0, 0.0, 0.0, 0.0, 0.0, 0.0, 0.0, 0.0, 0.0, 0.0, 0.0, 0.0, 0.0, 0.0, 0.0, 0.0, 0.0, 0.0, 0.0, 0.0, 0.0, 0.0, 0.0, 0.0, 0.0, 0.0, 0.0, 0.0, 0.0, 0.0, 0.0, 0.0, 0.0, 0.0, 0.0, 0.0, 0.0, 0.0, 0.0, 0.0, 0.0, 0.0, 0.0, 0.0, 0.0, 0.0, 0.0, 0.0, 0.0, 0.0, 0.0, 0.0, 0.0, 0.0, 0.0, 0.0, 0.0, 0.0, 0.0, 0.0, 0.0, 0.0, 0.0, 0.0, 0.0, 0.0, 0.0, 0.0, 0.0, 0.0, 0.0, 0.0, 0.0, 0.0, 0.0, 0.0, 0.0, 0.0, 0.0, 0.0, 0.0, 0.0, 0.0, 0.0, 0.0, 0.0, 0.0, 0.0, 0.0, 0.0, 0.0, 0.0, 0.0, 0.0, 0.0, 0.0, 0.0, 0.0, 0.0, 0.0, 0.0, 0.0, 0.0, 0.0, 0.0, 0.0, 0.0, 0.0, 0.0, 0.0, 0.0, 0.0, 0.0, 0.0, 0.0, 0.0, 0.0, 0.0, 0.0, 0.0, 0.0, 0.0, 0.0, 0.0, 0.0, 0.0, 0.0, 0.0, 0.0, 0.0, 0.0, 0.0, 0.0]
16 [0.0, 0.0, 0.0, 0.0, 0.0, 0.0, 0.0, 0.0, 0.0, 0.0, 0.0, 0.0, 0.0, 0.0, 0.0, 0.0, 0.0, 0.0, 0.0, 0.0, 0.0, 0.0, 0.0, 0.0, 0.0, 0.0, 0.0, 0.0, 0.0, 0.0, 0.0, 0.0, 0.0, 0.0, 0.0, 0.0, 0.0, 0.0, 0.0, 0.0, 0.0, 0.0, 0.0, 0.0, 0.0, 0.0, 0.0, 0.0, 0.0, 0.0, 0.0, 0.0, 0.0, 0.0, 0.0, 0.0, 0.0, 0.0, 0.0, 0.0, 0.0, 0.0, 0.0, 0.0, 0.0, 0.0, 0.0, 0.0, 0.0, 0.0, 0.0, 0.0, 0.0, 0.0, 0.0, 0.0, 0.0, 0.0, 0.0, 0.0, 0.0, 0.0, 0.0, 0.0, 0.0, 0.0, 0.0, 0.0, 0.0, 0.0, 0.0, 0.0, 0.0, 0.0, 0.0, 0.0, 0.0, 0.0, 0.0, 0.0, 0.0, 0.0, 0.0, 0.0, 0.0, 0.0, 0.0, 0.0, 0.0, 0.0, 0.0, 0.0, 0.0, 0.0, 0.0, 0.0, 0.0, 0.0, 0.0, 0.0, 0.0, 0.0, 0.0, 0.0, 0.0, 0.0, 0.0, 0.0, 0.0, 0.0, 0.0, 0.0, 0.0, 0.0, 0.0, 0.0, 0.0, 0.0, 0.0, 0.0, 0.0, 0.0, 0.0, 0.0, 0.0, 0.0, 0.0, 0.0, 0.0, 0.0, 0.0, 0.0, 0.0, 0.0, 0.0, 0.0, 0.0, 0.0, 0.0, 0.0, 0.0, 0.0, 0.0, 0.0, 0.0, 0.0, 0.0, 0.0, 0.0, 0.0, 0.0, 0.0, 0.0, 0.0, 0.0, 0.0, 0.0, 0.0, 0.0, 0.0, 0.0, 0.0]
17 [0.0, 0.0, 0.0, 0.0, 0.0, 0.0, 0.0, 0.0, 0.0, 0.0, 0.0, 0.0, 0.0, 0.0, 0.0, 0.0, 0.0, 0.0, 0.0, 0.0, 0.0, 0.0, 0.0, 0.0, 0.0, 0.0, 0.0, 0.0, 0.0, 0.0, 0.0, 0.0, 0.0, 0.0, 0.0, 0.0, 0.0, 0.0, 0.0, 0.0, 0.0, 0.0, 0.0, 0.0, 0.0, 0.0, 0.0, 0.0, 0.0, 0.0, 0.0, 0.0, 0.0, 0.0, 0.0, 0.0, 0.0, 0.0, 0.0, 0.0, 0.0, 0.0, 0.0, 0.0, 0.0, 0.0, 0.0, 0.0, 0.0, 0.0, 0.0, 0.0, 0.0, 0.0, 0.0, 0.0, 0.0, 0.0, 0.0, 0.0, 0.0, 0.0, 0.0, 0.0, 0.0, 0.0, 0.0, 0.0, 0.0, 0.0, 0.0, 0.0, 0.0, 0.0, 0.0, 0.0, 0.0, 0.0, 0.0, 0.0, 0.0, 0.0, 0.0, 0.0, 0.0, 0.0, 0.0, 0.0, 0.0, 0.0, 0.0, 0.0, 0.0, 0.0, 0.0, 0.0, 0.0, 0.0, 0.0, 0.0, 0.0, 0.0, 0.0, 0.0, 0.0, 0.0, 0.0, 0.0, 0.0, 0.0, 0.0, 0.0, 0.0, 0.0, 0.0, 0.0, 0.0, 0.0, 0.0, 0.0, 0.0, 0.0, 0.0, 0.0, 0.0, 0.0, 0.0, 0.0, 0.0, 0.0, 0.0, 0.0, 0.0, 0.0, 0.0, 0.0, 0.0, 0.0, 0.0, 0.0, 0.0, 0.0, 0.0, 0.0, 0.0, 0.0, 0.0, 0.0, 0.0, 0.0, 0.0, 0.0, 0.0, 0.0, 0.0, 0.0, 0.0, 0.0, 0.0, 0.0, 0.0, 0.0]
18 [0.0, 0.0, 0.0, 0.0, 0.0, 0.0, 0.0, 0.0, 0.0, 0.0, 0.0, 0.0, 0.0, 0.0, 0.0, 0.0, 0.0, 0.0, 0.0, 0.0, 0.0, 0.0, 0.0, 0.0, 0.0, 0.0, 0.0, 0.0, 0.0, 0.0, 0.0, 0.0, 0.0, 0.0, 0.0, 0.0, 0.0, 0.0, 0.0, 0.0, 0.0, 0.0, 0.0, 0.0, 0.0, 0.0, 0.0, 0.0, 0.0, 0.0, 0.0, 0.0, 0.0, 0.0, 0.0, 0.0, 0.0, 0.0, 0.0, 0.0, 0.0, 0.0, 0.0, 0.0, 0.0, 0.0, 0.0, 0.0, 0.0, 0.0, 0.0, 0.0, 0.0, 0.0, 0.0, 0.0, 0.0, 0.0, 0.0, 0.0, 0.0, 0.0, 0.0, 0.0, 0.0, 0.0, 0.0, 0.0, 0.0, 0.0, 0.0, 0.0, 0.0, 0.0, 0.0, 0.0, 0.0, 0.0, 0.0, 0.0, 0.0, 0.0, 0.0, 0.0, 0.0, 0.0, 0.0, 0.0, 0.0, 0.0, 0.0, 0.0, 0.0, 0.0, 0.0, 0.0, 0.0, 0.0, 0.0, 0.0, 0.0, 0.0, 0.0, 0.0, 0.0, 0.0, 0.0, 0.0, 0.0, 0.0, 0.0, 0.0, 0.0, 0.0, 0.0, 0.0, 0.0, 0.0, 0.0, 0.0, 0.0, 0.0, 0.0, 0.0, 0.0, 0.0, 0.0, 0.0, 0.0, 0.0, 0.0, 0.0, 0.0, 0.0, 0.0, 0.0, 0.0, 0.0, 0.0, 0.0, 0.0, 0.0, 0.0, 0.0, 0.0, 0.0, 0.0, 0.0, 0.0, 0.0, 0.0, 0.0, 0.0, 0.0, 0.0, 0.0, 0.0, 0.0, 0.0, 0.0, 0.0, 0.0]
19 [0.0, 0.0, 0.0, 0.0, 0.0, 0.0, 0.0, 0.0, 0.0, 0.0, 0.0, 0.0, 0.0, 0.0, 0.0, 0.0, 0.0, 0.0, 0.0, 0.0, 0.0, 0.0, 0.0, 0.0, 0.0, 0.0, 0.0, 0.0, 0.0, 0.0, 0.0, 0.0, 0.0, 0.0, 0.0, 0.0, 0.0, 0.0, 0.0, 0.0, 0.0, 0.0, 0.0, 0.0, 0.0, 0.0, 0.0, 0.0, 0.0, 0.0, 0.0, 0.0, 0.0, 0.0, 0.0, 0.0, 0.0, 0.0, 0.0, 0.0, 0.0, 0.0, 0.0, 0.0, 0.0, 0.0, 0.0, 0.0, 0.0, 0.0, 0.0, 0.0, 0.0, 0.0, 0.0, 0.0, 0.0, 0.0, 0.0, 0.0, 0.0, 0.0, 0.0, 0.0, 0.0, 0.0, 0.0, 0.0, 0.0, 0.0, 0.0, 0.0, 0.0, 0.0, 0.0, 0.0, 0.0, 0.0, 0.0, 0.0, 0.0, 0.0, 0.0, 0.0, 0.0, 0.0, 0.0, 0.0, 0.0, 0.0, 0.0, 0.0, 0.0, 0.0, 0.0, 0.0, 0.0, 0.0, 0.0, 0.0, 0.0, 0.0, 0.0, 0.0, 0.0, 0.0, 0.0, 0.0, 0.0, 0.0, 0.0, 0.0, 0.0, 0.0, 0.0, 0.0, 0.0, 0.0, 0.0, 0.0, 0.0, 0.0, 0.0, 0.0, 0.0, 0.0, 0.0, 0.0, 0.0, 0.0, 0.0, 0.0, 0.0, 0.0, 0.0, 0.0, 0.0, 0.0, 0.0, 0.0, 0.0, 0.0, 0.0, 0.0, 0.0, 0.0, 0.0, 0.0, 0.0, 0.0, 0.0, 0.0, 0.0, 0.0, 0.0, 0.0, 0.0, 0.0, 0.0, 0.0, 0.0, 0.0]
20 [0.0, 0.0, 0.0, 0.0, 0.0, 0.0, 0.0, 0.0, 0.0, 0.0, 0.0, 0.0, 0.0, 0.0, 0.0, 0.0, 0.0, 0.0, 0.0, 0.0, 0.0, 0.0, 0.0, 0.0, 0.0, 0.0, 0.0, 0.0, 0.0, 0.0, 0.0, 0.0, 0.0, 0.0, 0.0, 0.0, 0.0, 0.0, 0.0, 0.0, 0.0, 0.0, 0.0, 0.0, 0.0, 0.0, 0.0, 0.0, 0.0, 0.0, 0.0, 0.0, 0.0, 0.0, 0.0, 0.0, 0.0, 0.0, 0.0, 0.0, 0.0, 0.0, 0.0, 0.0, 0.0, 0.0, 0.0, 0.0, 0.0, 0.0, 0.0, 0.0, 0.0, 0.0, 0.0, 0.0, 0.0, 0.0, 0.0, 0.0, 0.0, 0.0, 0.0, 0.0, 0.0, 0.0, 0.0, 0.0, 0.0, 0.0, 0.0, 0.0, 0.0, 0.0, 0.0, 0.0, 0.0, 0.0, 0.0, 0.0, 0.0, 0.0, 0.0, 0.0, 0.0, 0.0, 0.0, 0.0, 0.0, 0.0, 0.0, 0.0, 0.0, 0.0, 0.0, 0.0, 0.0, 0.0, 0.0, 0.0, 0.0, 0.0, 0.0, 0.0, 0.0, 0.0, 0.0, 0.0, 0.0, 0.0, 0.0, 0.0, 0.0, 0.0, 0.0, 0.0, 0.0, 0.0, 0.0, 0.0, 0.0, 0.0, 0.0, 0.0, 0.0, 0.0, 0.0, 0.0, 0.0, 0.0, 0.0, 0.0, 0.0, 0.0, 0.0, 0.0, 0.0, 0.0, 0.0, 0.0, 0.0, 0.0, 0.0, 0.0, 0.0, 0.0, 0.0, 0.0, 0.0, 0.0, 0.0, 0.0, 0.0, 0.0, 0.0, 0.0, 0.0, 0.0, 0.0, 0.0, 0.0, 0.0]
21 [0.0, 0.0, 0.0, 0.0, 0.0, 0.0, 0.0, 0.0, 0.0, 0.0, 0.0, 0.0, 0.0, 0.0, 0.0, 0.0, 0.0, 0.0, 0.0, 0.0, 0.0, 0.0, 0.0, 0.0, 0.0, 0.0, 0.0, 0.0, 0.0, 0.0, 0.0, 0.0, 0.0, 0.0, 0.0, 0.0, 0.0, 0.0, 0.0, 0.0, 0.0, 0.0, 0.0, 0.0, 0.0, 0.0, 0.0, 0.0, 0.0, 0.0, 0.0, 0.0, 0.0, 0.0, 0.0, 0.0, 0.0, 0.0, 0.0, 0.0, 0.0, 0.0, 0.0, 0.0, 0.0, 0.0, 0.0, 0.0, 0.0, 0.0, 0.0, 0.0, 0.0, 0.0, 0.0, 0.0, 0.0, 0.0, 0.0, 0.0, 0.0, 0.0, 0.0, 0.0, 0.0, 0.0, 0.0, 0.0, 0.0, 0.0, 0.0, 0.0, 0.0, 0.0, 0.0, 0.0, 0.0, 0.0, 0.0, 0.0, 0.0, 0.0, 0.0, 0.0, 0.0, 0.0, 0.0, 0.0, 0.0, 0.0, 0.0, 0.0, 0.0, 0.0, 0.0, 0.0, 0.0, 0.0, 0.0, 0.0, 0.0, 0.0, 0.0, 0.0, 0.0, 0.0, 0.0, 0.0, 0.0, 0.0, 0.0, 0.0, 0.0, 0.0, 0.0, 0.0, 0.0, 0.0, 0.0, 0.0, 0.0, 0.0, 0.0, 0.0, 0.0, 0.0, 0.0, 0.0, 0.0, 0.0, 0.0, 0.0, 0.0, 0.0, 0.0, 0.0, 0.0, 0.0, 0.0, 0.0, 0.0, 0.0, 0.0, 0.0, 0.0, 0.0, 0.0, 0.0, 0.0, 0.0, 0.0, 0.0, 0.0, 0.0, 0.0, 0.0, 0.0, 0.0, 0.0, 0.0, 0.0, 0.0]
22 [0.0, 0.0, 0.0, 0.0, 0.0, 0.0, 0.0, 0.0, 0.0, 0.0, 0.0, 0.0, 0.0, 0.0, 0.0, 0.0, 0.0, 0.0, 0.0, 0.0, 0.0, 0.0, 0.0, 0.0, 0.0, 0.0, 0.0, 0.0, 0.0, 0.0, 0.0, 0.0, 0.0, 0.0, 0.0, 0.0, 0.0, 0.0, 0.0, 0.0, 0.0, 0.0, 0.0, 0.0, 0.0, 0.0, 0.0, 0.0, 0.0, 0.0, 0.0, 0.0, 0.0, 0.0, 0.0, 0.0, 0.0, 0.0, 0.0, 0.0, 0.0, 0.0, 0.0, 0.0, 0.0, 0.0, 0.0, 0.0, 0.0, 0.0, 0.0, 0.0, 0.0, 0.0, 0.0, 0.0, 0.0, 0.0, 0.0, 0.0, 0.0, 0.0, 0.0, 0.0, 0.0, 0.0, 0.0, 0.0, 0.0, 0.0, 0.0, 0.0, 0.0, 0.0, 0.0, 0.0, 0.0, 0.0, 0.0, 0.0, 0.0, 0.0, 0.0, 0.0, 0.0, 0.0, 0.0, 0.0, 0.0, 0.0, 0.0, 0.0, 0.0, 0.0, 0.0, 0.0, 0.0, 0.0, 0.0, 0.0, 0.0, 0.0, 0.0, 0.0, 0.0, 0.0, 0.0, 0.0, 0.0, 0.0, 0.0, 0.0, 0.0, 0.0, 0.0, 0.0, 0.0, 0.0, 0.0, 0.0, 0.0, 0.0, 0.0, 0.0, 0.0, 0.0, 0.0, 0.0, 0.0, 0.0, 0.0, 0.0, 0.0, 0.0, 0.0, 0.0, 0.0, 0.0, 0.0, 0.0, 0.0, 0.0, 0.0, 0.0, 0.0, 0.0, 0.0, 0.0, 0.0, 0.0, 0.0, 0.0, 0.0, 0.0, 0.0, 0.0, 0.0, 0.0, 0.0, 0.0, 0.0, 0.0]
23 [0.0, 0.0, 0.0, 0.0, 0.0, 0.0, 0.0, 0.0, 0.0, 0.0, 0.0, 0.0, 0.0, 0.0, 0.0, 0.0, 0.0, 0.0, 0.0, 0.0, 0.0, 0.0, 0.0, 0.0, 0.0, 0.0, 0.0, 0.0, 0.0, 0.0, 0.0, 0.0, 0.0, 0.0, 0.0, 0.0, 0.0, 0.0, 0.0, 0.0, 0.0, 0.0, 0.0, 0.0, 0.0, 0.0, 0.0, 0.0, 0.0, 0.0, 0.0, 0.0, 0.0, 0.0, 0.0, 0.0, 0.0, 0.0, 0.0, 0.0, 0.0, 0.0, 0.0, 0.0, 0.0, 0.0, 0.0, 0.0, 0.0, 0.0, 0.0, 0.0, 0.0, 0.0, 0.0, 0.0, 0.0, 0.0, 0.0, 0.0, 0.0, 0.0, 0.0, 0.0, 0.0, 0.0, 0.0, 0.0, 0.0, 0.0, 0.0, 0.0, 0.0, 0.0, 0.0, 0.0, 0.0, 0.0, 0.0, 0.0, 0.0, 0.0, 0.0, 0.0, 0.0, 0.0, 0.0, 0.0, 0.0, 0.0, 0.0, 0.0, 0.0, 0.0, 0.0, 0.0, 0.0, 0.0, 0.0, 0.0, 0.0, 0.0, 0.0, 0.0, 0.0, 0.0, 0.0, 0.0, 0.0, 0.0, 0.0, 0.0, 0.0, 0.0, 0.0, 0.0, 0.0, 0.0, 0.0, 0.0, 0.0, 0.0, 0.0, 0.0, 0.0, 0.0, 0.0, 0.0, 0.0, 0.0, 0.0, 0.0, 0.0, 0.0, 0.0, 0.0, 0.0, 0.0, 0.0, 0.0, 0.0, 0.0, 0.0, 0.0, 0.0, 0.0, 0.0, 0.0, 0.0, 0.0, 0.0, 0.0, 0.0, 0.0, 0.0, 0.0, 0.0, 0.0, 0.0, 0.0, 0.0, 0.0]
24 [0.0, 0.0, 0.0, 0.0, 0.0, 0.0, 0.0, 0.0, 0.0, 0.0, 0.0, 0.0, 0.0, 0.0, 0.0, 0.0, 0.0, 0.0, 0.0, 0.0, 0.0, 0.0, 0.0, 0.0, 0.0, 0.0, 0.0, 0.0, 0.0, 0.0, 0.0, 0.0, 0.0, 0.0, 0.0, 0.0, 0.0, 0.0, 0.0, 0.0, 0.0, 0.0, 0.0, 0.0, 0.0, 0.0, 0.0, 0.0, 0.0, 0.0, 0.0, 0.0, 0.0, 0.0, 0.0, 0.0, 0.0, 0.0, 0.0, 0.0, 0.0, 0.0, 0.0, 0.0, 0.0, 0.0, 0.0, 0.0, 0.0, 0.0, 0.0, 0.0, 0.0, 0.0, 0.0, 0.0, 0.0, 0.0, 0.0, 0.0, 0.0, 0.0, 0.0, 0.0, 0.0, 0.0, 0.0, 0.0, 0.0, 0.0, 0.0, 0.0, 0.0, 0.0, 0.0, 0.0, 0.0, 0.0, 0.0, 0.0, 0.0, 0.0, 0.0, 0.0, 0.0, 0.0, 0.0, 0.0, 0.0, 0.0, 0.0, 0.0, 0.0, 0.0, 0.0, 0.0, 0.0, 0.0, 0.0, 0.0, 0.0, 0.0, 0.0, 0.0, 0.0, 0.0, 0.0, 0.0, 0.0, 0.0, 0.0, 0.0, 0.0, 0.0, 0.0, 0.0, 0.0, 0.0, 0.0, 0.0, 0.0, 0.0, 0.0, 0.0, 0.0, 0.0, 0.0, 0.0, 0.0, 0.0, 0.0, 0.0, 0.0, 0.0, 0.0, 0.0, 0.0, 0.0, 0.0, 0.0, 0.0, 0.0, 0.0, 0.0, 0.0, 0.0, 0.0, 0.0, 0.0, 0.0, 0.0, 0.0, 0.0, 0.0, 0.0, 0.0, 0.0, 0.0, 0.0, 0.0, 0.0, 0.0]
25 [0.0, 0.0, 0.0, 0.0, 0.0, 0.0, 0.0, 0.0, 0.0, 0.0, 0.0, 0.0, 0.0, 0.0, 0.0, 0.0, 0.0, 0.0, 0.0, 0.0, 0.0, 0.0, 0.0, 0.0, 0.0, 0.0, 0.0, 0.0, 0.0, 0.0, 0.0, 0.0, 0.0, 0.0, 0.0, 0.0, 0.0, 0.0, 0.0, 0.0, 0.0, 0.0, 0.0, 0.0, 0.0, 0.0, 0.0, 0.0, 0.0, 0.0, 0.0, 0.0, 0.0, 0.0, 0.0, 0.0, 0.0, 0.0, 0.0, 0.0, 0.0, 0.0, 0.0, 0.0, 0.0, 0.0, 0.0, 0.0, 0.0, 0.0, 0.0, 0.0, 0.0, 0.0, 0.0, 0.0, 0.0, 0.0, 0.0, 0.0, 0.0, 0.0, 0.0, 0.0, 0.0, 0.0, 0.0, 0.0, 0.0, 0.0, 0.0, 0.0, 0.0, 0.0, 0.0, 0.0, 0.0, 0.0, 0.0, 0.0, 0.0, 0.0, 0.0, 0.0, 0.0, 0.0, 0.0, 0.0, 0.0, 0.0, 0.0, 0.0, 0.0, 0.0, 0.0, 0.0, 0.0, 0.0, 0.0, 0.0, 0.0, 0.0, 0.0, 0.0, 0.0, 0.0, 0.0, 0.0, 0.0, 0.0, 0.0, 0.0, 0.0, 0.0, 0.0, 0.0, 0.0, 0.0, 0.0, 0.0, 0.0, 0.0, 0.0, 0.0, 0.0, 0.0, 0.0, 0.0, 0.0, 0.0, 0.0, 0.0, 0.0, 0.0, 0.0, 0.0, 0.0, 0.0, 0.0, 0.0, 0.0, 0.0, 0.0, 0.0, 0.0, 0.0, 0.0, 0.0, 0.0, 0.0, 0.0, 0.0, 0.0, 0.0, 0.0, 0.0, 0.0, 0.0, 0.0, 0.0, 0.0, 0.0]
26 [0.0, 0.0, 0.0, 0.0, 0.0, 0.0, 0.0, 0.0, 0.0, 0.0, 0.0, 0.0, 0.0, 0.0, 0.0, 0.0, 0.0, 0.0, 0.0, 0.0, 0.0, 0.0, 0.0, 0.0, 0.0, 0.0, 0.0, 0.0, 0.0, 0.0, 0.0, 0.0, 0.0, 0.0, 0.0, 0.0, 0.0, 0.0, 0.0, 0.0, 0.0, 0.0, 0.0, 0.0, 0.0, 0.0, 0.0, 0.0, 0.0, 0.0, 0.0, 0.0, 0.0, 0.0, 0.0, 0.0, 0.0, 0.0, 0.0, 0.0, 0.0, 0.0, 0.0, 0.0, 0.0, 0.0, 0.0, 0.0, 0.0, 0.0, 0.0, 0.0, 0.0, 0.0, 0.0, 0.0, 0.0, 0.0, 0.0, 0.0, 0.0, 0.0, 0.0, 0.0, 0.0, 0.0, 0.0, 0.0, 0.0, 0.0, 0.0, 0.0, 0.0, 0.0, 0.0, 0.0, 0.0, 0.0, 0.0, 0.0, 0.0, 0.0, 0.0, 0.0, 0.0, 0.0, 0.0, 0.0, 0.0, 0.0, 0.0, 0.0, 0.0, 0.0, 0.0, 0.0, 0.0, 0.0, 0.0, 0.0, 0.0, 0.0, 0.0, 0.0, 0.0, 0.0, 0.0, 0.0, 0.0, 0.0, 0.0, 0.0, 0.0, 0.0, 0.0, 0.0, 0.0, 0.0, 0.0, 0.0, 0.0, 0.0, 0.0, 0.0, 0.0, 0.0, 0.0, 0.0, 0.0, 0.0, 0.0, 0.0, 0.0, 0.0, 0.0, 0.0, 0.0, 0.0, 0.0, 0.0, 0.0, 0.0, 0.0, 0.0, 0.0, 0.0, 0.0, 0.0, 0.0, 0.0, 0.0, 0.0, 0.0, 0.0, 0.0, 0.0, 0.0, 0.0, 0.0, 0.0, 0.0, 0.0]
27 [0.0, 0.0, 0.0, 0.0, 0.0, 0.0, 0.0, 0.0, 0.0, 0.0, 0.0, 0.0, 0.0, 0.0, 0.0, 0.0, 0.0, 0.0, 0.0, 0.0, 0.0, 0.0, 0.0, 0.0, 0.0, 0.0, 0.0, 0.0, 0.0, 0.0, 0.0, 0.0, 0.0, 0.0, 0.0, 0.0, 0.0, 0.0, 0.0, 0.0, 0.0, 0.0, 0.0, 0.0, 0.0, 0.0, 0.0, 0.0, 0.0, 0.0, 0.0, 0.0, 0.0, 0.0, 0.0, 0.0, 0.0, 0.0, 0.0, 0.0, 0.0, 0.0, 0.0, 0.0, 0.0, 0.0, 0.0, 0.0, 0.0, 0.0, 0.0, 0.0, 0.0, 0.0, 0.0, 0.0, 0.0, 0.0, 0.0, 0.0, 0.0, 0.0, 0.0, 0.0, 0.0, 0.0, 0.0, 0.0, 0.0, 0.0, 0.0, 0.0, 0.0, 0.0, 0.0, 0.0, 0.0, 0.0, 0.0, 0.0, 0.0, 0.0, 0.0, 0.0, 0.0, 0.0, 0.0, 0.0, 0.0, 0.0, 0.0, 0.0, 0.0, 0.0, 0.0, 0.0, 0.0, 0.0, 0.0, 0.0, 0.0, 0.0, 0.0, 0.0, 0.0, 0.0, 0.0, 0.0, 0.0, 0.0, 0.0, 0.0, 0.0, 0.0, 0.0, 0.0, 0.0, 0.0, 0.0, 0.0, 0.0, 0.0, 0.0, 0.0, 0.0, 0.0, 0.0, 0.0, 0.0, 0.0, 0.0, 0.0, 0.0, 0.0, 0.0, 0.0, 0.0, 0.0, 0.0, 0.0, 0.0, 0.0, 0.0, 0.0, 0.0, 0.0, 0.0, 0.0, 0.0, 0.0, 0.0, 0.0, 0.0, 0.0, 0.0, 0.0, 0.0, 0.0, 0.0, 0.0, 0.0, 0.0]
28 [0.0, 0.0, 0.0, 0.0, 0.0, 0.0, 0.0, 0.0, 0.0, 0.0, 0.0, 0.0, 0.0, 0.0, 0.0, 0.0, 0.0, 0.0, 0.0, 0.0, 0.0, 0.0, 0.0, 0.0, 0.0, 0.0, 0.0, 0.0, 0.0, 0.0, 0.0, 0.0, 0.0, 0.0, 0.0, 0.0, 0.0, 0.0, 0.0, 0.0, 0.0, 0.0, 0.0, 0.0, 0.0, 0.0, 0.0, 0.0, 0.0, 0.0, 0.0, 0.0, 0.0, 0.0, 0.0, 0.0, 0.0, 0.0, 0.0, 0.0, 0.0, 0.0, 0.0, 0.0, 0.0, 0.0, 0.0, 0.0, 0.0, 0.0, 0.0, 0.0, 0.0, 0.0, 0.0, 0.0, 0.0, 0.0, 0.0, 0.0, 0.0, 0.0, 0.0, 0.0, 0.0, 0.0, 0.0, 0.0, 0.0, 0.0, 0.0, 0.0, 0.0, 0.0, 0.0, 0.0, 0.0, 0.0, 0.0, 0.0, 0.0, 0.0, 0.0, 0.0, 0.0, 0.0, 0.0, 0.0, 0.0, 0.0, 0.0, 0.0, 0.0, 0.0, 0.0, 0.0, 0.0, 0.0, 0.0, 0.0, 0.0, 0.0, 0.0, 0.0, 0.0, 0.0, 0.0, 0.0, 0.0, 0.0, 0.0, 0.0, 0.0, 0.0, 0.0, 0.0, 0.0, 0.0, 0.0, 0.0, 0.0, 0.0, 0.0, 0.0, 0.0, 0.0, 0.0, 0.0, 0.0, 0.0, 0.0, 0.0, 0.0, 0.0, 0.0, 0.0, 0.0, 0.0, 0.0, 0.0, 0.0, 0.0, 0.0, 0.0, 0.0, 0.0, 0.0, 0.0, 0.0, 0.0, 0.0, 0.0, 0.0, 0.0, 0.0, 0.0, 0.0, 0.0, 0.0, 0.0, 0.0, 0.0]
29 [0.0, 0.0, 0.0, 0.0, 0.0, 0.0, 0.0, 0.0, 0.0, 0.0, 0.0, 0.0, 0.0, 0.0, 0.0, 0.0, 0.0, 0.0, 0.0, 0.0, 0.0, 0.0, 0.0, 0.0, 0.0, 0.0, 0.0, 0.0, 0.0, 0.0, 0.0, 0.0, 0.0, 0.0, 0.0, 0.0, 0.0, 0.0, 0.0, 0.0, 0.0, 0.0, 0.0, 0.0, 0.0, 0.0, 0.0, 0.0, 0.0, 0.0, 0.0, 0.0, 0.0, 0.0, 0.0, 0.0, 0.0, 0.0, 0.0, 0.0, 0.0, 0.0, 0.0, 0.0, 0.0, 0.0, 0.0, 0.0, 0.0, 0.0, 0.0, 0.0, 0.0, 0.0, 0.0, 0.0, 0.0, 0.0, 0.0, 0.0, 0.0, 0.0, 0.0, 0.0, 0.0, 0.0, 0.0, 0.0, 0.0, 0.0, 0.0, 0.0, 0.0, 0.0, 0.0, 0.0, 0.0, 0.0, 0.0, 0.0, 0.0, 0.0, 0.0, 0.0, 0.0, 0.0, 0.0, 0.0, 0.0, 0.0, 0.0, 0.0, 0.0, 0.0, 0.0, 0.0, 0.0, 0.0, 0.0, 0.0, 0.0, 0.0, 0.0, 0.0, 0.0, 0.0, 0.0, 0.0, 0.0, 0.0, 0.0, 0.0, 0.0, 0.0, 0.0, 0.0, 0.0, 0.0, 0.0, 0.0, 0.0, 0.0, 0.0, 0.0, 0.0, 0.0, 0.0, 0.0, 0.0, 0.0, 0.0, 0.0, 0.0, 0.0, 0.0, 0.0, 0.0, 0.0, 0.0, 0.0, 0.0, 0.0, 0.0, 0.0, 0.0, 0.0, 0.0, 0.0, 0.0, 0.0, 0.0, 0.0, 0.0, 0.0, 0.0, 0.0, 0.0, 0.0, 0.0, 0.0, 0.0, 0.0]
30 [0.016285721, 0.0132857235, 0.009285715, 0.0062857177, 0.0032857207, 2.8571172E-4, 0.0037142844, 0.0067142816, 0.010714278, 0.014714274, 0.017714271, 0.02171429, 0.025714288, 0.025714288, 0.025714288, 0.025714288, 0.025714288, 0.025714288, 0.025714288, 0.025714288, 0.04128572, 0.04128572, 0.04128572, 0.04128572, 0.04128572, 0.04128572, 0.04128572, 0.04128572, 0.04128572, 0.04128572, 0.04128572, 0.038285725, 0.035285715, 0.032285716, 0.028285721, 0.025285712, 0.021285716, 0.025714288, 0.025714288, 0.025714288, 0.025714288, 0.025714288, 0.025714288, 0.025714288, 0.025714288, 0.025714288, 0.025714288, 0.025714288, 0.025714288, 0.025714288, 0.025714288, 0.025714288, 0.025714288, 0.025714288, 0.025714288, 0.025714288, 0.025714288, 0.025714288, 0.025714288, 0.025714288, 0.025714288, 0.025714288, 0.025714288, 0.025714288, 0.025714288, 0.025714288, 0.025714288, 0.025714288, 0.025714288, 0.025714288, 0.025714288, 0.025714288, 0.025714288, 0.025714288, 0.025714288, 0.025714288, 0.025714288, 0.025714288, 0.025714288, 0.08328572, 0.08328572, 0.08328572, 0.08328572, 0.08328572, 0.08328572, 0.08328572, 0.08328572, 0.08328572, 0.08328572, 0.08328572, 0.08328572, 0.08328572, 0.08328572, 0.08328572, 0.08328572, 0.08328572, 0.08328572, 0.08328572, 0.08328572, 0.025714288, 0.025714288, 0.025714288, 0.025714288, 0.025714288, 0.025714288, 0.025714288, 0.025714288, 0.025714288, 0.025714288, 0.025714288, 0.025714288, 0.025714288, 0.025714288, 0.025714288, 0.025714288, 0.025714288, 0.025714288, 0.025714288, 0.025714288, 0.025714288, 0.025714288, 0.025714288, 0.025714288, 0.025714288, 0.025714288, 0.025714288, 0.025714288, 0.025714288, 0.025714288, 0.025714288, 0.025714288, 0.025714288, 0.025714288, 0.025714288, 0.025714288, 0.025714288, 0.025714288, 0.025714288, 0.025714288, 0.025714288, 0.025714288, 0.025714288, 0.025714288, 0.025714288, 0.025714288, 0.025714288, 0.025714288, 0.025714288, 0.025714288, 0.025714288, 0.025714288, 0.025714288, 0.025714288, 0.025714288, 0.025714288, 0.025714288, 0.025714288, 0.025714288, 0.025714288, 0.025714288, 0.025714288, 0.025714288, 0.025714288, 0.025714288, 0.025714288, 0.025714288, 0.025714288, 0.025714288, 0.04328572, 0.046285715, 0.048285715, 0.05128572, 0.05328572, 0.056285717, 0.058285717, 0.06128571, 0.06128571, 0.06128571, 0.06128571, 0.06128571, 0.06128571, 0.06128571]
31 [0.016285721, 0.0132857235, 0.009285715, 0.0062857177, 0.0032857207, 2.8571172E-4, 0.0037142844, 0.0067142816, 0.010714278, 0.014714274, 0.017714271, 0.02171429, 0.025714288, 0.025714288, 0.025714288, 0.025714288, 0.025714288, 0.025714288, 0.025714288, 0.025714288, 0.04128572, 0.04128572, 0.04128572, 0.04128572, 0.04128572, 0.04128572, 0.04128572, 0.04128572, 0.04128572, 0.04128572, 0.04128572, 0.038285725, 0.035285715, 0.032285716, 0.028285721, 0.025285712, 0.021285716, 0.025714288, 0.025714288, 0.025714288, 0.025714288, 0.025714288, 0.025714288, 0.025714288, 0.025714288, 0.025714288, 0.025714288, 0.025714288, 0.025714288, 0.025714288, 0.025714288, 0.025714288, 0.025714288, 0.025714288, 0.025714288, 0.025714288, 0.025714288, 0.025714288, 0.025714288, 0.025714288, 0.025714288, 0.025714288, 0.025714288, 0.025714288, 0.025714288, 0.025714288, 0.025714288, 0.025714288, 0.025714288, 0.025714288, 0.025714288, 0.025714288, 0.025714288, 0.025714288, 0.025714288, 0.025714288, 0.025714288, 0.025714288, 0.025714288, 0.08328572, 0.08328572, 0.08328572, 0.08328572, 0.08328572, 0.08328572, 0.08328572, 0.08328572, 0.08328572, 0.08328572, 0.08328572, 0.08328572, 0.08328572, 0.08328572, 0.08328572, 0.08328572, 0.08328572, 0.08328572, 0.08328572, 0.08328572, 0.025714288, 0.025714288, 0.025714288, 0.025714288, 0.025714288, 0.025714288, 0.025714288, 0.025714288, 0.025714288, 0.025714288, 0.025714288, 0.025714288, 0.025714288, 0.025714288, 0.025714288, 0.025714288, 0.025714288, 0.025714288, 0.025714288, 0.025714288, 0.025714288, 0.025714288, 0.025714288, 0.025714288, 0.025714288, 0.025714288, 0.025714288, 0.025714288, 0.025714288, 0.025714288, 0.025714288, 0.025714288, 0.025714288, 0.025714288, 0.025714288, 0.025714288, 0.025714288, 0.025714288, 0.025714288, 0.025714288, 0.025714288, 0.025714288, 0.025714288, 0.025714288, 0.025714288, 0.025714288, 0.025714288, 0.025714288, 0.025714288, 0.025714288, 0.025714288, 0.025714288, 0.025714288, 0.025714288, 0.025714288, 0.025714288, 0.025714288, 0.025714288, 0.025714288, 0.025714288, 0.025714288, 0.025714288, 0.025714288, 0.025714288, 0.025714288, 0.025714288, 0.025714288, 0.025714288, 0.025714288, 0.04328572, 0.046285715, 0.048285715, 0.05128572, 0.05328572, 0.056285717, 0.058285717, 0.06128571, 0.06128571, 0.06128571, 0.06128571, 0.06128571, 0.06128571, 0.06128571]
32 [0.016692312, 0.013692317, 0.0096923085, 0.006692311, 0.0036923138, 6.9230475E-4, 0.0033076915, 0.0063076885, 0.010307685, 0.014307681, 0.017307678, 0.021307698, 0.025307694, 0.026307693, 0.026307693, 0.026307693, 0.026307693, 0.026307693, 0.026307693, 0.026307693, 0.041692313, 0.041692313, 0.041692313, 0.041692313, 0.041692313, 0.041692313, 0.041692313, 0.041692313, 0.041692313, 0.041692313, 0.041692313, 0.038692318, 0.035692308, 0.03269231, 0.028692314, 0.025692305, 0.021692308, 0.026307693, 0.026307693, 0.026307693, 0.026307693, 0.026307693, 0.026307693, 0.026307693, 0.026307693, 0.026307693, 0.026307693, 0.026307693, 0.026307693, 0.026307693, 0.026307693, 0.026307693, 0.026307693, 0.026307693, 0.026307693, 0.026307693, 0.026307693, 0.026307693, 0.026307693, 0.026307693, 0.026307693, 0.026307693, 0.026307693, 0.026307693, 0.026307693, 0.026307693, 0.026307693, 0.026307693, 0.026307693, 0.026307693, 0.026307693, 0.026307693, 0.026307693, 0.026307693, 0.026307693, 0.026307693, 0.026307693, 0.026307693, 0.026307693, 0.08369231, 0.08369231, 0.08369231, 0.08369231, 0.08369231, 0.08369231, 0.08369231, 0.08369231, 0.08369231, 0.08369231, 0.08369231, 0.08369231, 0.08369231, 0.08369231, 0.08369231, 0.08369231, 0.08369231, 0.08369231, 0.08369231, 0.08369231, 0.026307693, 0.026307693, 0.026307693, 0.026307693, 0.026307693, 0.026307693, 0.026307693, 0.026307693, 0.026307693, 0.026307693, 0.026307693, 0.026307693, 0.026307693, 0.026307693, 0.026307693, 0.026307693, 0.026307693, 0.026307693, 0.026307693, 0.026307693, 0.026307693, 0.026307693, 0.026307693, 0.026307693, 0.026307693, 0.025307694, 0.025307694, 0.025307694, 0.025307694, 0.025307694, 0.025307694, 0.025307694, 0.025307694, 0.025307694, 0.025307694, 0.025307694, 0.025307694, 0.025307694, 0.025307694, 0.025307694, 0.025307694, 0.025307694, 0.025307694, 0.025307694, 0.025307694, 0.025307694, 0.025307694, 0.025307694, 0.025307694, 0.025307694, 0.025307694, 0.025307694, 0.025307694, 0.025307694, 0.025307694, 0.025307694, 0.025307694, 0.025307694, 0.025307694, 0.025307694, 0.025307694, 0.025307694, 0.025307694, 0.025307694, 0.025307694, 0.025307694, 0.025307694, 0.025307694, 0.025307694, 0.043692313, 0.046692308, 0.04869231, 0.051692314, 0.053692315, 0.05669231, 0.05869231, 0.061692305, 0.061692305, 0.061692305, 0.061692305, 0.061692305, 0.061692305, 0.061692305]
33 [0.016692312, 0.013692317, 0.0096923085, 0.006692311, 0.0036923138, 6.9230475E-4, 0.0033076915, 0.0063076885, 0.010307685, 0.014307681, 0.017307678, 0.021307698, 0.025307694, 0.026307693, 0.026307693, 0.026307693, 0.026307693, 0.026307693, 0.026307693, 0.026307693, 0.041692313, 0.041692313, 0.041692313, 0.041692313, 0.041692313, 0.041692313, 0.041692313, 0.041692313, 0.041692313, 0.041692313, 0.041692313, 0.038692318, 0.035692308, 0.03269231, 0.028692314, 0.025692305, 0.021692308, 0.026307693, 0.026307693, 0.026307693, 0.026307693, 0.026307693, 0.026307693, 0.026307693, 0.026307693, 0.026307693, 0.026307693, 0.026307693, 0.026307693, 0.026307693, 0.026307693, 0.026307693, 0.026307693, 0.026307693, 0.026307693, 0.026307693, 0.026307693, 0.026307693, 0.026307693, 0.026307693, 0.026307693, 0.026307693, 0.026307693, 0.026307693, 0.026307693, 0.026307693, 0.026307693, 0.026307693, 0.026307693, 0.026307693, 0.026307693, 0.026307693, 0.026307693, 0.026307693, 0.026307693, 0.026307693, 0.026307693, 0.026307693, 0.026307693, 0.08369231, 0.08369231, 0.08369231, 0.08369231, 0.08369231, 0.08369231, 0.08369231, 0.08369231, 0.08369231, 0.08369231, 0.08369231, 0.08369231, 0.08369231, 0.08369231, 0.08369231, 0.08369231, 0.08369231, 0.08369231, 0.08369231, 0.08369231, 0.026307693, 0.026307693, 0.026307693, 0.026307693, 0.026307693, 0.026307693, 0.026307693, 0.026307693, 0.026307693, 0.026307693, 0.026307693, 0.026307693, 0.026307693, 0.026307693, 0.026307693, 0.026307693, 0.026307693, 0.026307693, 0.026307693, 0.026307693, 0.026307693, 0.026307693, 0.026307693, 0.026307693, 0.026307693, 0.025307694, 0.025307694, 0.025307694, 0.025307694, 0.025307694, 0.025307694, 0.025307694, 0.025307694, 0.025307694, 0.025307694, 0.025307694, 0.025307694, 0.025307694, 0.025307694, 0.025307694, 0.025307694, 0.025307694, 0.025307694, 0.025307694, 0.025307694, 0.025307694, 0.025307694, 0.025307694, 0.025307694, 0.025307694, 0.025307694, 0.025307694, 0.025307694, 0.025307694, 0.025307694, 0.025307694, 0.025307694, 0.025307694, 0.025307694, 0.025307694, 0.025307694, 0.025307694, 0.025307694, 0.025307694, 0.025307694, 0.025307694, 0.025307694, 0.025307694, 0.025307694, 0.043692313, 0.046692308, 0.04869231, 0.051692314, 0.053692315, 0.05669231, 0.05869231, 0.061692305, 0.061692305, 0.061692305, 0.061692305, 0.061692305, 0.061692305, 0.061692305]
34 [0.016692312, 0.013692317, 0.0096923085, 0.006692311, 0.0036923138, 6.9230475E-4, 0.0033076915, 0.0063076885, 0.010307685, 0.014307681, 0.017307678, 0.021307698, 0.025307694, 0.026307693, 0.026307693, 0.026307693, 0.026307693, 0.026307693, 0.026307693, 0.026307693, 0.041692313, 0.041692313, 0.041692313, 0.041692313, 0.041692313, 0.041692313, 0.041692313, 0.041692313, 0.041692313, 0.041692313, 0.041692313, 0.038692318, 0.035692308, 0.03269231, 0.028692314, 0.025692305, 0.021692308, 0.026307693, 0.026307693, 0.026307693, 0.026307693, 0.026307693, 0.026307693, 0.026307693, 0.026307693, 0.026307693, 0.026307693, 0.026307693, 0.026307693, 0.026307693, 0.026307693, 0.026307693, 0.026307693, 0.026307693, 0.026307693, 0.026307693, 0.026307693, 0.026307693, 0.026307693, 0.026307693, 0.026307693, 0.026307693, 0.026307693, 0.026307693, 0.026307693, 0.026307693, 0.026307693, 0.026307693, 0.026307693, 0.026307693, 0.026307693, 0.026307693, 0.026307693, 0.026307693, 0.026307693, 0.026307693, 0.026307693, 0.026307693, 0.026307693, 0.08369231, 0.08369231, 0.08369231, 0.08369231, 0.08369231, 0.08369231, 0.08369231, 0.08369231, 0.08369231, 0.08369231, 0.08369231, 0.08369231, 0.08369231, 0.08369231, 0.08369231, 0.08369231, 0.08369231, 0.08369231, 0.08369231, 0.08369231, 0.026307693, 0.026307693, 0.026307693, 0.026307693, 0.026307693, 0.026307693, 0.026307693, 0.026307693, 0.026307693, 0.026307693, 0.026307693, 0.026307693, 0.026307693, 0.026307693, 0.026307693, 0.026307693, 0.026307693, 0.026307693, 0.026307693, 0.026307693, 0.026307693, 0.026307693, 0.026307693, 0.026307693, 0.026307693, 0.025307694, 0.025307694, 0.025307694, 0.025307694, 0.025307694, 0.025307694, 0.025307694, 0.025307694, 0.025307694, 0.025307694, 0.025307694, 0.025307694, 0.025307694, 0.025307694, 0.025307694, 0.025307694, 0.025307694, 0.025307694, 0.025307694, 0.025307694, 0.025307694, 0.025307694, 0.025307694, 0.025307694, 0.025307694, 0.025307694, 0.025307694, 0.025307694, 0.025307694, 0.025307694, 0.025307694, 0.025307694, 0.025307694, 0.025307694, 0.025307694, 0.025307694, 0.025307694, 0.025307694, 0.025307694, 0.025307694, 0.025307694, 0.025307694, 0.025307694, 0.025307694, 0.043692313, 0.046692308, 0.04869231, 0.051692314, 0.053692315, 0.05669231, 0.05869231, 0.061692305, 0.061692305, 0.061692305, 0.061692305, 0.061692305, 0.061692305, 0.061692305]
35 [0.016554952, 0.013554954, 0.009554946, 0.0065549486, 0.0035549514, 5.5494223E-4, 0.003445054, 0.006445051, 0.010445047, 0.014445043, 0.01744504, 0.02144506, 0.025445057, 0.026445055, 0.026445055, 0.026445055, 0.026445055, 0.026445055, 0.026445055, 0.026445055, 0.04155495, 0.04155495, 0.04155495, 0.04155495, 0.04155495, 0.04155495, 0.04155495, 0.04155495, 0.04155495, 0.04155495, 0.04155495, 0.038554955, 0.035554945, 0.032554947, 0.028554952, 0.025554942, 0.021554947, 0.026445055, 0.026445055, 0.026445055, 0.026445055, 0.026445055, 0.026445055, 0.026445055, 0.026445055, 0.026445055, 0.026445055, 0.026445055, 0.026445055, 0.026445055, 0.026445055, 0.026445055, 0.026445055, 0.026445055, 0.026445055, 0.026445055, 0.026445055, 0.026445055, 0.026445055, 0.026445055, 0.026445055, 0.026445055, 0.026445055, 0.026445055, 0.026445055, 0.026445055, 0.026445055, 0.026445055, 0.026445055, 0.026445055, 0.026445055, 0.026445055, 0.026445055, 0.026445055, 0.026445055, 0.026445055, 0.026445055, 0.026445055, 0.026445055, 0.083554946, 0.083554946, 0.083554946, 0.083554946, 0.083554946, 0.083554946, 0.083554946, 0.083554946, 0.083554946, 0.083554946, 0.083554946, 0.083554946, 0.083554946, 0.083554946, 0.083554946, 0.083554946, 0.083554946, 0.083554946, 0.083554946, 0.083554946, 0.025445057, 0.025445057, 0.025445057, 0.025445057, 0.025445057, 0.025445057, 0.025445057, 0.025445057, 0.025445057, 0.025445057, 0.025445057, 0.025445057, 0.025445057, 0.025445057, 0.025445057, 0.025445057, 0.025445057, 0.025445057, 0.025445057, 0.025445057, 0.025445057, 0.025445057, 0.025445057, 0.025445057, 0.025445057, 0.025445057, 0.025445057, 0.025445057, 0.025445057, 0.025445057, 0.025445057, 0.025445057, 0.025445057, 0.025445057, 0.025445057, 0.025445057, 0.025445057, 0.025445057, 0.025445057, 0.025445057, 0.025445057, 0.025445057, 0.025445057, 0.025445057, 0.025445057, 0.025445057, 0.025445057, 0.025445057, 0.025445057, 0.025445057, 0.025445057, 0.025445057, 0.025445057, 0.025445057, 0.025445057, 0.025445057, 0.025445057, 0.025445057, 0.025445057, 0.025445057, 0.025445057, 0.025445057, 0.025445057, 0.025445057, 0.025445057, 0.025445057, 0.025445057, 0.025445057, 0.025445057, 0.04355495, 0.046554945, 0.048554946, 0.05155495, 0.053554952, 0.056554947, 0.058554947, 0.061554942, 0.061554942, 0.061554942, 0.061554942, 0.061554942, 0.061554942, 0.061554942]
36 [0.016554952, 0.013554954, 0.009554946, 0.0065549486, 0.0035549514, 5.5494223E-4, 0.003445054, 0.006445051, 0.010445047, 0.014445043, 0.01744504, 0.02144506, 0.025445057, 0.026445055, 0.026445055, 0.026445055, 0.026445055, 0.026445055, 0.026445055, 0.026445055, 0.04155495, 0.04155495, 0.04155495, 0.04155495, 0.04155495, 0.04155495, 0.04155495, 0.04155495, 0.04155495, 0.04155495, 0.04155495, 0.038554955, 0.035554945, 0.032554947, 0.028554952, 0.025554942, 0.021554947, 0.026445055, 0.026445055, 0.026445055, 0.026445055, 0.026445055, 0.026445055, 0.026445055, 0.026445055, 0.026445055, 0.026445055, 0.026445055, 0.026445055, 0.026445055, 0.026445055, 0.026445055, 0.026445055, 0.026445055, 0.026445055, 0.026445055, 0.026445055, 0.026445055, 0.026445055, 0.026445055, 0.026445055, 0.026445055, 0.026445055, 0.026445055, 0.026445055, 0.026445055, 0.026445055, 0.026445055, 0.026445055, 0.026445055, 0.026445055, 0.026445055, 0.026445055, 0.026445055, 0.026445055, 0.026445055, 0.026445055, 0.026445055, 0.026445055, 0.083554946, 0.083554946, 0.083554946, 0.083554946, 0.083554946, 0.083554946, 0.083554946, 0.083554946, 0.083554946, 0.083554946, 0.083554946, 0.083554946, 0.083554946, 0.083554946, 0.083554946, 0.083554946, 0.083554946, 0.083554946, 0.083554946, 0.083554946, 0.025445057, 0.025445057, 0.025445057, 0.025445057, 0.025445057, 0.025445057, 0.025445057, 0.025445057, 0.025445057, 0.025445057, 0.025445057, 0.025445057, 0.025445057, 0.025445057, 0.025445057, 0.025445057, 0.025445057, 0.025445057, 0.025445057, 0.025445057, 0.025445057, 0.025445057, 0.025445057, 0.025445057, 0.025445057, 0.025445057, 0.025445057, 0.025445057, 0.025445057, 0.025445057, 0.025445057, 0.025445057, 0.025445057, 0.025445057, 0.025445057, 0.025445057, 0.025445057, 0.025445057, 0.025445057, 0.025445057, 0.025445057, 0.025445057, 0.025445057, 0.025445057, 0.025445057, 0.025445057, 0.025445057, 0.025445057, 0.025445057, 0.025445057, 0.025445057, 0.025445057, 0.025445057, 0.025445057, 0.025445057, 0.025445057, 0.025445057, 0.025445057, 0.025445057, 0.025445057, 0.025445057, 0.025445057, 0.025445057, 0.025445057, 0.025445057, 0.025445057, 0.025445057, 0.025445057, 0.025445057, 0.04355495, 0.046554945, 0.048554946, 0.05155495, 0.053554952, 0.056554947, 0.058554947, 0.061554942, 0.061554942, 0.061554942, 0.061554942, 0.061554942, 0.061554942, 0.061554942]
37 [0.016554952, 0.013554954, 0.009554946, 0.0065549486, 0.0035549514, 5.5494223E-4, 0.003445054, 0.006445051, 0.010445047, 0.014445043, 0.01744504, 0.02144506, 0.025445057, 0.026445055, 0.026445055, 0.026445055, 0.026445055, 0.026445055, 0.026445055, 0.026445055, 0.04155495, 0.04155495, 0.04155495, 0.04155495, 0.04155495, 0.04155495, 0.04155495, 0.04155495, 0.04155495, 0.04155495, 0.04155495, 0.038554955, 0.035554945, 0.032554947, 0.028554952, 0.025554942, 0.021554947, 0.026445055, 0.026445055, 0.026445055, 0.026445055, 0.026445055, 0.026445055, 0.026445055, 0.026445055, 0.026445055, 0.026445055, 0.026445055, 0.026445055, 0.026445055, 0.026445055, 0.026445055, 0.026445055, 0.026445055, 0.026445055, 0.026445055, 0.026445055, 0.026445055, 0.026445055, 0.026445055, 0.026445055, 0.026445055, 0.026445055, 0.026445055, 0.026445055, 0.026445055, 0.026445055, 0.026445055, 0.026445055, 0.026445055, 0.026445055, 0.026445055, 0.026445055, 0.026445055, 0.026445055, 0.026445055, 0.026445055, 0.026445055, 0.026445055, 0.083554946, 0.083554946, 0.083554946, 0.083554946, 0.083554946, 0.083554946, 0.083554946, 0.083554946, 0.083554946, 0.083554946, 0.083554946, 0.083554946, 0.083554946, 0.083554946, 0.083554946, 0.083554946, 0.083554946, 0.083554946, 0.083554946, 0.083554946, 0.025445057, 0.025445057, 0.025445057, 0.025445057, 0.025445057, 0.025445057, 0.025445057, 0.025445057, 0.025445057, 0.025445057, 0.025445057, 0.025445057, 0.025445057, 0.025445057, 0.025445057, 0.025445057, 0.025445057, 0.025445057, 0.025445057, 0.025445057, 0.025445057, 0.025445057, 0.025445057, 0.025445057, 0.025445057, 0.025445057, 0.025445057, 0.025445057, 0.025445057, 0.025445057, 0.025445057, 0.025445057, 0.025445057, 0.025445057, 0.025445057, 0.025445057, 0.025445057, 0.025445057, 0.025445057, 0.025445057, 0.025445057, 0.025445057, 0.025445057, 0.025445057, 0.025445057, 0.025445057, 0.025445057, 0.025445057, 0.025445057, 0.025445057, 0.025445057, 0.025445057, 0.025445057, 0.025445057, 0.025445057, 0.025445057, 0.025445057, 0.025445057, 0.025445057, 0.025445057, 0.025445057, 0.025445057, 0.025445057, 0.025445057, 0.025445057, 0.025445057, 0.025445057, 0.025445057, 0.025445057, 0.04355495, 0.046554945, 0.048554946, 0.05155495, 0.053554952, 0.056554947, 0.058554947, 0.061554942, 0.061554942, 0.061554942, 0.061554942, 0.061554942, 0.061554942, 0.061554942]
38 [0.016549457, 0.013549459, 0.009549451, 0.006549454, 0.0035494568, 5.494477E-4, 0.0034505485, 0.0064505455, 0.010450542, 0.014450538, 0.017450536, 0.021450555, 0.025450552, 0.02645055, 0.02645055, 0.02645055, 0.02645055, 0.02645055, 0.02645055, 0.02645055, 0.041549455, 0.041549455, 0.041549455, 0.041549455, 0.041549455, 0.041549455, 0.041549455, 0.041549455, 0.041549455, 0.041549455, 0.041549455, 0.03854946, 0.03554945, 0.032549452, 0.028549457, 0.025549447, 0.021549452, 0.02645055, 0.02645055, 0.02645055, 0.02645055, 0.02645055, 0.02645055, 0.02645055, 0.02645055, 0.02645055, 0.02645055, 0.02645055, 0.02645055, 0.02645055, 0.02645055, 0.02645055, 0.02645055, 0.02645055, 0.02645055, 0.02645055, 0.02645055, 0.02645055, 0.02645055, 0.02645055, 0.02645055, 0.02645055, 0.02645055, 0.02645055, 0.02645055, 0.02645055, 0.02645055, 0.02645055, 0.02645055, 0.02645055, 0.02645055, 0.02645055, 0.02645055, 0.02645055, 0.02645055, 0.02645055, 0.02645055, 0.02645055, 0.02645055, 0.083549455, 0.083549455, 0.083549455, 0.083549455, 0.083549455, 0.083549455, 0.083549455, 0.083549455, 0.083549455, 0.083549455, 0.083549455, 0.083549455, 0.083549455, 0.083549455, 0.083549455, 0.083549455, 0.083549455, 0.083549455, 0.083549455, 0.083549455, 0.025450552, 0.025450552, 0.025450552, 0.025450552, 0.025450552, 0.025450552, 0.025450552, 0.025450552, 0.025450552, 0.025450552, 0.025450552, 0.025450552, 0.025450552, 0.025450552, 0.025450552, 0.025450552, 0.025450552, 0.025450552, 0.025450552, 0.025450552, 0.025450552, 0.025450552, 0.025450552, 0.025450552, 0.025450552, 0.025450552, 0.025450552, 0.025450552, 0.025450552, 0.025450552, 0.025450552, 0.025450552, 0.025450552, 0.025450552, 0.025450552, 0.025450552, 0.025450552, 0.025450552, 0.025450552, 0.025450552, 0.025450552, 0.025450552, 0.025450552, 0.025450552, 0.025450552, 0.025450552, 0.025450552, 0.025450552, 0.025450552, 0.025450552, 0.025450552, 0.025450552, 0.025450552, 0.025450552, 0.025450552, 0.025450552, 0.025450552, 0.025450552, 0.025450552, 0.025450552, 0.025450552, 0.025450552, 0.025450552, 0.025450552, 0.025450552, 0.025450552, 0.025450552, 0.025450552, 0.025450552, 0.043549456, 0.04654945, 0.04854945, 0.051549457, 0.054549456, 0.056549452, 0.058549453, 0.061549447, 0.061549447, 0.061549447, 0.061549447, 0.061549447, 0.061549447, 0.061549447]
39 [0.016549457, 0.013549459, 0.009549451, 0.006549454, 0.0035494568, 5.494477E-4, 0.0034505485, 0.0064505455, 0.010450542, 0.014450538, 0.017450536, 0.021450555, 0.025450552, 0.02645055, 0.02645055, 0.02645055, 0.02645055, 0.02645055, 0.02645055, 0.02645055, 0.041549455, 0.041549455, 0.041549455, 0.041549455, 0.041549455, 0.041549455, 0.041549455, 0.041549455, 0.041549455, 0.041549455, 0.041549455, 0.03854946, 0.03554945, 0.032549452, 0.028549457, 0.025549447, 0.021549452, 0.02645055, 0.02645055, 0.02645055, 0.02645055, 0.02645055, 0.02645055, 0.02645055, 0.02645055, 0.02645055, 0.02645055, 0.02645055, 0.02645055, 0.02645055, 0.02645055, 0.02645055, 0.02645055, 0.02645055, 0.02645055, 0.02645055, 0.02645055, 0.02645055, 0.02645055, 0.02645055, 0.02645055, 0.02645055, 0.02645055, 0.02645055, 0.02645055, 0.02645055, 0.02645055, 0.02645055, 0.02645055, 0.02645055, 0.02645055, 0.02645055, 0.02645055, 0.02645055, 0.02645055, 0.02645055, 0.02645055, 0.02645055, 0.02645055, 0.083549455, 0.083549455, 0.083549455, 0.083549455, 0.083549455, 0.083549455, 0.083549455, 0.083549455, 0.083549455, 0.083549455, 0.083549455, 0.083549455, 0.083549455, 0.083549455, 0.083549455, 0.083549455, 0.083549455, 0.083549455, 0.083549455, 0.083549455, 0.025450552, 0.025450552, 0.025450552, 0.025450552, 0.025450552, 0.025450552, 0.025450552, 0.025450552, 0.025450552, 0.025450552, 0.025450552, 0.025450552, 0.025450552, 0.025450552, 0.025450552, 0.025450552, 0.025450552, 0.025450552, 0.025450552, 0.025450552, 0.025450552, 0.025450552, 0.025450552, 0.025450552, 0.025450552, 0.025450552, 0.025450552, 0.025450552, 0.025450552, 0.025450552, 0.025450552, 0.025450552, 0.025450552, 0.025450552, 0.025450552, 0.025450552, 0.025450552, 0.025450552, 0.025450552, 0.025450552, 0.025450552, 0.025450552, 0.025450552, 0.025450552, 0.025450552, 0.025450552, 0.025450552, 0.025450552, 0.025450552, 0.025450552, 0.025450552, 0.025450552, 0.025450552, 0.025450552, 0.025450552, 0.025450552, 0.025450552, 0.025450552, 0.025450552, 0.025450552, 0.025450552, 0.025450552, 0.025450552, 0.025450552, 0.025450552, 0.025450552, 0.025450552, 0.025450552, 0.025450552, 0.043549456, 0.04654945, 0.04854945, 0.051549457, 0.054549456, 0.056549452, 0.058549453, 0.061549447, 0.061549447, 0.061549447, 0.061549447, 0.061549447, 0.061549447, 0.061549447]
40 [0.016549457, 0.013549459, 0.009549451, 0.006549454, 0.0035494568, 5.494477E-4, 0.0034505485, 0.0064505455, 0.010450542, 0.014450538, 0.017450536, 0.021450555, 0.025450552, 0.02645055, 0.02645055, 0.02645055, 0.02645055, 0.02645055, 0.02645055, 0.02645055, 0.041549455, 0.041549455, 0.041549455, 0.041549455, 0.041549455, 0.041549455, 0.041549455, 0.041549455, 0.041549455, 0.041549455, 0.041549455, 0.03854946, 0.03554945, 0.032549452, 0.028549457, 0.025549447, 0.021549452, 0.02645055, 0.02645055, 0.02645055, 0.02645055, 0.02645055, 0.02645055, 0.02645055, 0.02645055, 0.02645055, 0.02645055, 0.02645055, 0.02645055, 0.02645055, 0.02645055, 0.02645055, 0.02645055, 0.02645055, 0.02645055, 0.02645055, 0.02645055, 0.02645055, 0.02645055, 0.02645055, 0.02645055, 0.02645055, 0.02645055, 0.02645055, 0.02645055, 0.02645055, 0.02645055, 0.02645055, 0.02645055, 0.02645055, 0.02645055, 0.02645055, 0.02645055, 0.02645055, 0.02645055, 0.02645055, 0.02645055, 0.02645055, 0.02645055, 0.083549455, 0.083549455, 0.083549455, 0.083549455, 0.083549455, 0.083549455, 0.083549455, 0.083549455, 0.083549455, 0.083549455, 0.083549455, 0.083549455, 0.083549455, 0.083549455, 0.083549455, 0.083549455, 0.083549455, 0.083549455, 0.083549455, 0.083549455, 0.025450552, 0.025450552, 0.025450552, 0.025450552, 0.025450552, 0.025450552, 0.025450552, 0.025450552, 0.025450552, 0.025450552, 0.025450552, 0.025450552, 0.025450552, 0.025450552, 0.025450552, 0.025450552, 0.025450552, 0.025450552, 0.025450552, 0.025450552, 0.025450552, 0.025450552, 0.025450552, 0.025450552, 0.025450552, 0.025450552, 0.025450552, 0.025450552, 0.025450552, 0.025450552, 0.025450552, 0.025450552, 0.025450552, 0.025450552, 0.025450552, 0.025450552, 0.025450552, 0.025450552, 0.025450552, 0.025450552, 0.025450552, 0.025450552, 0.025450552, 0.025450552, 0.025450552, 0.025450552, 0.025450552, 0.025450552, 0.025450552, 0.025450552, 0.025450552, 0.025450552, 0.025450552, 0.025450552, 0.025450552, 0.025450552, 0.025450552, 0.025450552, 0.025450552, 0.025450552, 0.025450552, 0.025450552, 0.025450552, 0.025450552, 0.025450552, 0.025450552, 0.025450552, 0.025450552, 0.025450552, 0.043549456, 0.04654945, 0.04854945, 0.051549457, 0.054549456, 0.056549452, 0.058549453, 0.061549447, 0.061549447, 0.061549447, 0.061549447, 0.061549447, 0.061549447, 0.061549447]
41 [0.016549457, 0.013549459, 0.009549451, 0.006549454, 0.0035494568, 5.494477E-4, 0.0034505485, 0.0064505455, 0.010450542, 0.014450538, 0.017450536, 0.021450555, 0.025450552, 0.02645055, 0.02645055, 0.02645055, 0.02645055, 0.02645055, 0.02645055, 0.02645055, 0.041549455, 0.041549455, 0.041549455, 0.041549455, 0.041549455, 0.041549455, 0.041549455, 0.041549455, 0.041549455, 0.041549455, 0.041549455, 0.03854946, 0.03554945, 0.032549452, 0.028549457, 0.025549447, 0.021549452, 0.02645055, 0.02645055, 0.02645055, 0.02645055, 0.02645055, 0.02645055, 0.02645055, 0.02645055, 0.02645055, 0.02645055, 0.02645055, 0.02645055, 0.02645055, 0.02645055, 0.02645055, 0.02645055, 0.02645055, 0.02645055, 0.02645055, 0.02645055, 0.02645055, 0.02645055, 0.02645055, 0.02645055, 0.02645055, 0.02645055, 0.02645055, 0.02645055, 0.02645055, 0.02645055, 0.02645055, 0.02645055, 0.02645055, 0.02645055, 0.02645055, 0.02645055, 0.02645055, 0.02645055, 0.02645055, 0.02645055, 0.02645055, 0.02645055, 0.083549455, 0.083549455, 0.083549455, 0.083549455, 0.083549455, 0.083549455, 0.083549455, 0.083549455, 0.083549455, 0.083549455, 0.083549455, 0.083549455, 0.083549455, 0.083549455, 0.083549455, 0.083549455, 0.083549455, 0.083549455, 0.083549455, 0.083549455, 0.025450552, 0.025450552, 0.025450552, 0.025450552, 0.025450552, 0.025450552, 0.025450552, 0.025450552, 0.025450552, 0.025450552, 0.025450552, 0.025450552, 0.025450552, 0.025450552, 0.025450552, 0.025450552, 0.025450552, 0.025450552, 0.025450552, 0.025450552, 0.025450552, 0.025450552, 0.025450552, 0.025450552, 0.025450552, 0.025450552, 0.025450552, 0.025450552, 0.025450552, 0.025450552, 0.025450552, 0.025450552, 0.025450552, 0.025450552, 0.025450552, 0.025450552, 0.025450552, 0.025450552, 0.025450552, 0.025450552, 0.025450552, 0.025450552, 0.025450552, 0.025450552, 0.025450552, 0.025450552, 0.025450552, 0.025450552, 0.025450552, 0.025450552, 0.025450552, 0.025450552, 0.025450552, 0.025450552, 0.025450552, 0.025450552, 0.025450552, 0.025450552, 0.025450552, 0.025450552, 0.025450552, 0.025450552, 0.025450552, 0.025450552, 0.025450552, 0.025450552, 0.025450552, 0.025450552, 0.025450552, 0.043549456, 0.04654945, 0.04854945, 0.051549457, 0.054549456, 0.056549452, 0.058549453, 0.061549447, 0.061549447, 0.061549447, 0.061549447, 0.061549447, 0.061549447, 0.061549447]
42 [0.016549457, 0.013549459, 0.009549451, 0.006549454, 0.0035494568, 5.494477E-4, 0.0034505485, 0.0064505455, 0.010450542, 0.014450538, 0.017450536, 0.021450555, 0.025450552, 0.02645055, 0.02645055, 0.02645055, 0.02645055, 0.02645055, 0.02645055, 0.02645055, 0.041549455, 0.041549455, 0.041549455, 0.041549455, 0.041549455, 0.041549455, 0.041549455, 0.041549455, 0.041549455, 0.041549455, 0.041549455, 0.03854946, 0.03554945, 0.032549452, 0.028549457, 0.025549447, 0.021549452, 0.02645055, 0.02645055, 0.02645055, 0.02645055, 0.02645055, 0.02645055, 0.02645055, 0.02645055, 0.02645055, 0.02645055, 0.02645055, 0.02645055, 0.02645055, 0.02645055, 0.02645055, 0.02645055, 0.02645055, 0.02645055, 0.02645055, 0.02645055, 0.02645055, 0.02645055, 0.02645055, 0.02645055, 0.02645055, 0.02645055, 0.02645055, 0.02645055, 0.02645055, 0.02645055, 0.02645055, 0.02645055, 0.02645055, 0.02645055, 0.02645055, 0.02645055, 0.02645055, 0.02645055, 0.02645055, 0.02645055, 0.02645055, 0.02645055, 0.083549455, 0.083549455, 0.083549455, 0.083549455, 0.083549455, 0.083549455, 0.083549455, 0.083549455, 0.083549455, 0.083549455, 0.083549455, 0.083549455, 0.083549455, 0.083549455, 0.083549455, 0.083549455, 0.083549455, 0.083549455, 0.083549455, 0.083549455, 0.025450552, 0.025450552, 0.025450552, 0.025450552, 0.025450552, 0.025450552, 0.025450552, 0.025450552, 0.025450552, 0.025450552, 0.025450552, 0.025450552, 0.025450552, 0.025450552, 0.025450552, 0.025450552, 0.025450552, 0.025450552, 0.025450552, 0.025450552, 0.025450552, 0.025450552, 0.025450552, 0.025450552, 0.025450552, 0.025450552, 0.025450552, 0.025450552, 0.025450552, 0.025450552, 0.025450552, 0.025450552, 0.025450552, 0.025450552, 0.025450552, 0.025450552, 0.025450552, 0.025450552, 0.025450552, 0.025450552, 0.025450552, 0.025450552, 0.025450552, 0.025450552, 0.025450552, 0.025450552, 0.025450552, 0.025450552, 0.025450552, 0.025450552, 0.025450552, 0.025450552, 0.025450552, 0.025450552, 0.025450552, 0.025450552, 0.025450552, 0.025450552, 0.025450552, 0.025450552, 0.025450552, 0.025450552, 0.025450552, 0.025450552, 0.025450552, 0.025450552, 0.025450552, 0.025450552, 0.025450552, 0.043549456, 0.04654945, 0.04854945, 0.051549457, 0.054549456, 0.056549452, 0.058549453, 0.061549447, 0.061549447, 0.061549447, 0.061549447, 0.061549447, 0.061549447, 0.061549447]
43 [0.016549457, 0.013549459, 0.009549451, 0.006549454, 0.0035494568, 5.494477E-4, 0.0034505485, 0.0064505455, 0.010450542, 0.014450538, 0.017450536, 0.021450555, 0.025450552, 0.02645055, 0.02645055, 0.02645055, 0.02645055, 0.02645055, 0.02645055, 0.02645055, 0.041549455, 0.041549455, 0.041549455, 0.041549455, 0.041549455, 0.041549455, 0.041549455, 0.041549455, 0.041549455, 0.041549455, 0.041549455, 0.03854946, 0.03554945, 0.032549452, 0.028549457, 0.025549447, 0.021549452, 0.02645055, 0.02645055, 0.02645055, 0.02645055, 0.02645055, 0.02645055, 0.02645055, 0.02645055, 0.02645055, 0.02645055, 0.02645055, 0.02645055, 0.02645055, 0.02645055, 0.02645055, 0.02645055, 0.02645055, 0.02645055, 0.02645055, 0.02645055, 0.02645055, 0.02645055, 0.02645055, 0.02645055, 0.02645055, 0.02645055, 0.02645055, 0.02645055, 0.02645055, 0.02645055, 0.02645055, 0.02645055, 0.02645055, 0.02645055, 0.02645055, 0.02645055, 0.02645055, 0.02645055, 0.02645055, 0.02645055, 0.02645055, 0.02645055, 0.083549455, 0.083549455, 0.083549455, 0.083549455, 0.083549455, 0.083549455, 0.083549455, 0.083549455, 0.083549455, 0.083549455, 0.083549455, 0.083549455, 0.083549455, 0.083549455, 0.083549455, 0.083549455, 0.083549455, 0.083549455, 0.083549455, 0.083549455, 0.025450552, 0.025450552, 0.025450552, 0.025450552, 0.025450552, 0.025450552, 0.025450552, 0.025450552, 0.025450552, 0.025450552, 0.025450552, 0.025450552, 0.025450552, 0.025450552, 0.025450552, 0.025450552, 0.025450552, 0.025450552, 0.025450552, 0.025450552, 0.025450552, 0.025450552, 0.025450552, 0.025450552, 0.025450552, 0.025450552, 0.025450552, 0.025450552, 0.025450552, 0.025450552, 0.025450552, 0.025450552, 0.025450552, 0.025450552, 0.025450552, 0.025450552, 0.025450552, 0.025450552, 0.025450552, 0.025450552, 0.025450552, 0.025450552, 0.025450552, 0.025450552, 0.025450552, 0.025450552, 0.025450552, 0.025450552, 0.025450552, 0.025450552, 0.025450552, 0.025450552, 0.025450552, 0.025450552, 0.025450552, 0.025450552, 0.025450552, 0.025450552, 0.025450552, 0.025450552, 0.025450552, 0.025450552, 0.025450552, 0.025450552, 0.025450552, 0.025450552, 0.025450552, 0.025450552, 0.025450552, 0.043549456, 0.04654945, 0.04854945, 0.051549457, 0.054549456, 0.056549452, 0.058549453, 0.061549447, 0.061549447, 0.061549447, 0.061549447, 0.061549447, 0.061549447, 0.061549447]
44 [0.016549457, 0.013549459, 0.009549451, 0.006549454, 0.0035494568, 5.494477E-4, 0.0034505485, 0.0064505455, 0.010450542, 0.014450538, 0.017450536, 0.021450555, 0.025450552, 0.02645055, 0.02645055, 0.02645055, 0.02645055, 0.02645055, 0.02645055, 0.02645055, 0.041549455, 0.041549455, 0.041549455, 0.041549455, 0.041549455, 0.041549455, 0.041549455, 0.041549455, 0.041549455, 0.041549455, 0.041549455, 0.03854946, 0.03554945, 0.032549452, 0.028549457, 0.025549447, 0.021549452, 0.02645055, 0.02645055, 0.02645055, 0.02645055, 0.02645055, 0.02645055, 0.02645055, 0.02645055, 0.02645055, 0.02645055, 0.02645055, 0.02645055, 0.02645055, 0.02645055, 0.02645055, 0.02645055, 0.02645055, 0.02645055, 0.02645055, 0.02645055, 0.02645055, 0.02645055, 0.02645055, 0.02645055, 0.02645055, 0.02645055, 0.02645055, 0.02645055, 0.02645055, 0.02645055, 0.02645055, 0.02645055, 0.02645055, 0.02645055, 0.02645055, 0.02645055, 0.02645055, 0.02645055, 0.02645055, 0.02645055, 0.02645055, 0.02645055, 0.083549455, 0.083549455, 0.083549455, 0.083549455, 0.083549455, 0.083549455, 0.083549455, 0.083549455, 0.083549455, 0.083549455, 0.083549455, 0.083549455, 0.083549455, 0.083549455, 0.083549455, 0.083549455, 0.083549455, 0.083549455, 0.083549455, 0.083549455, 0.025450552, 0.025450552, 0.025450552, 0.025450552, 0.025450552, 0.025450552, 0.025450552, 0.025450552, 0.025450552, 0.025450552, 0.025450552, 0.025450552, 0.025450552, 0.025450552, 0.025450552, 0.025450552, 0.025450552, 0.025450552, 0.025450552, 0.025450552, 0.025450552, 0.025450552, 0.025450552, 0.025450552, 0.025450552, 0.025450552, 0.025450552, 0.025450552, 0.025450552, 0.025450552, 0.025450552, 0.025450552, 0.025450552, 0.025450552, 0.025450552, 0.025450552, 0.025450552, 0.025450552, 0.025450552, 0.025450552, 0.025450552, 0.025450552, 0.025450552, 0.025450552, 0.025450552, 0.025450552, 0.025450552, 0.025450552, 0.025450552, 0.025450552, 0.025450552, 0.025450552, 0.025450552, 0.025450552, 0.025450552, 0.025450552, 0.025450552, 0.025450552, 0.025450552, 0.025450552, 0.025450552, 0.025450552, 0.025450552, 0.025450552, 0.025450552, 0.025450552, 0.025450552, 0.025450552, 0.025450552, 0.043549456, 0.04654945, 0.04854945, 0.051549457, 0.054549456, 0.056549452, 0.058549453, 0.061549447, 0.061549447, 0.061549447, 0.061549447, 0.061549447, 0.061549447, 0.061549447]
45 [0.016549457, 0.013549459, 0.009549451, 0.006549454, 0.0035494568, 5.494477E-4, 0.0034505485, 0.0064505455, 0.010450542, 0.014450538, 0.017450536, 0.021450555, 0.025450552, 0.02645055, 0.02645055, 0.02645055, 0.02645055, 0.02645055, 0.02645055, 0.02645055, 0.041549455, 0.041549455, 0.041549455, 0.041549455, 0.041549455, 0.041549455, 0.041549455, 0.041549455, 0.041549455, 0.041549455, 0.041549455, 0.03854946, 0.03554945, 0.032549452, 0.028549457, 0.025549447, 0.021549452, 0.02645055, 0.02645055, 0.02645055, 0.02645055, 0.02645055, 0.02645055, 0.02645055, 0.02645055, 0.02645055, 0.02645055, 0.02645055, 0.02645055, 0.02645055, 0.02645055, 0.02645055, 0.02645055, 0.02645055, 0.02645055, 0.02645055, 0.02645055, 0.02645055, 0.02645055, 0.02645055, 0.02645055, 0.02645055, 0.02645055, 0.02645055, 0.02645055, 0.02645055, 0.02645055, 0.02645055, 0.02645055, 0.02645055, 0.02645055, 0.02645055, 0.02645055, 0.02645055, 0.02645055, 0.02645055, 0.02645055, 0.02645055, 0.02645055, 0.083549455, 0.083549455, 0.083549455, 0.083549455, 0.083549455, 0.083549455, 0.083549455, 0.083549455, 0.083549455, 0.083549455, 0.083549455, 0.083549455, 0.083549455, 0.083549455, 0.083549455, 0.083549455, 0.083549455, 0.083549455, 0.083549455, 0.083549455, 0.025450552, 0.025450552, 0.025450552, 0.025450552, 0.025450552, 0.025450552, 0.025450552, 0.025450552, 0.025450552, 0.025450552, 0.025450552, 0.025450552, 0.025450552, 0.025450552, 0.025450552, 0.025450552, 0.025450552, 0.025450552, 0.025450552, 0.025450552, 0.025450552, 0.025450552, 0.025450552, 0.025450552, 0.025450552, 0.025450552, 0.025450552, 0.025450552, 0.025450552, 0.025450552, 0.025450552, 0.025450552, 0.025450552, 0.025450552, 0.025450552, 0.025450552, 0.025450552, 0.025450552, 0.025450552, 0.025450552, 0.025450552, 0.025450552, 0.025450552, 0.025450552, 0.025450552, 0.025450552, 0.025450552, 0.025450552, 0.025450552, 0.025450552, 0.025450552, 0.025450552, 0.025450552, 0.025450552, 0.025450552, 0.025450552, 0.025450552, 0.025450552, 0.025450552, 0.025450552, 0.025450552, 0.025450552, 0.025450552, 0.025450552, 0.025450552, 0.025450552, 0.025450552, 0.025450552, 0.025450552, 0.043549456, 0.04654945, 0.04854945, 0.051549457, 0.054549456, 0.056549452, 0.058549453, 0.061549447, 0.061549447, 0.061549447, 0.061549447, 0.061549447, 0.061549447, 0.061549447]
46 [0.016549457, 0.013549459, 0.009549451, 0.006549454, 0.0035494568, 5.494477E-4, 0.0034505485, 0.0064505455, 0.010450542, 0.014450538, 0.017450536, 0.021450555, 0.025450552, 0.02645055, 0.02645055, 0.02645055, 0.02645055, 0.02645055, 0.02645055, 0.02645055, 0.041549455, 0.041549455, 0.041549455, 0.041549455, 0.041549455, 0.041549455, 0.041549455, 0.041549455, 0.041549455, 0.041549455, 0.041549455, 0.03854946, 0.03554945, 0.032549452, 0.028549457, 0.025549447, 0.021549452, 0.02645055, 0.02645055, 0.02645055, 0.02645055, 0.02645055, 0.02645055, 0.02645055, 0.02645055, 0.02645055, 0.02645055, 0.02645055, 0.02645055, 0.02645055, 0.02645055, 0.02645055, 0.02645055, 0.02645055, 0.02645055, 0.02645055, 0.02645055, 0.02645055, 0.02645055, 0.02645055, 0.02645055, 0.02645055, 0.02645055, 0.02645055, 0.02645055, 0.02645055, 0.02645055, 0.02645055, 0.02645055, 0.02645055, 0.02645055, 0.02645055, 0.02645055, 0.02645055, 0.02645055, 0.02645055, 0.02645055, 0.02645055, 0.02645055, 0.083549455, 0.083549455, 0.083549455, 0.083549455, 0.083549455, 0.083549455, 0.083549455, 0.083549455, 0.083549455, 0.083549455, 0.083549455, 0.083549455, 0.083549455, 0.083549455, 0.083549455, 0.083549455, 0.083549455, 0.083549455, 0.083549455, 0.083549455, 0.025450552, 0.025450552, 0.025450552, 0.025450552, 0.025450552, 0.025450552, 0.025450552, 0.025450552, 0.025450552, 0.025450552, 0.025450552, 0.025450552, 0.025450552, 0.025450552, 0.025450552, 0.025450552, 0.025450552, 0.025450552, 0.025450552, 0.025450552, 0.025450552, 0.025450552, 0.025450552, 0.025450552, 0.025450552, 0.025450552, 0.025450552, 0.025450552, 0.025450552, 0.025450552, 0.025450552, 0.025450552, 0.025450552, 0.025450552, 0.025450552, 0.025450552, 0.025450552, 0.025450552, 0.025450552, 0.025450552, 0.025450552, 0.025450552, 0.025450552, 0.025450552, 0.025450552, 0.025450552, 0.025450552, 0.025450552, 0.025450552, 0.025450552, 0.025450552, 0.025450552, 0.025450552, 0.025450552, 0.025450552, 0.025450552, 0.025450552, 0.025450552, 0.025450552, 0.025450552, 0.025450552, 0.025450552, 0.025450552, 0.025450552, 0.025450552, 0.025450552, 0.025450552, 0.025450552, 0.025450552, 0.043549456, 0.04654945, 0.04854945, 0.051549457, 0.054549456, 0.056549452, 0.058549453, 0.061549447, 0.061549447, 0.061549447, 0.061549447, 0.061549447, 0.061549447, 0.061549447]
47 [0.020582423, 0.017582426, 0.013582418, 0.010582421, 0.0075824237, 0.004582415, 5.824185E-4, 0.0024175786, 0.006417575, 0.010417571, 0.013417568, 0.017417587, 0.021417584, 0.022417583, 0.022417583, 0.022417583, 0.022417583, 0.022417583, 0.022417583, 0.022417583, 0.045582425, 0.045582425, 0.045582425, 0.045582425, 0.045582425, 0.045582425, 0.045582425, 0.045582425, 0.045582425, 0.045582425, 0.045582425, 0.042582426, 0.039582416, 0.03658242, 0.032582425, 0.029582415, 0.025582418, 0.022417583, 0.022417583, 0.022417583, 0.022417583, 0.022417583, 0.022417583, 0.022417583, 0.022417583, 0.022417583, 0.022417583, 0.022417583, 0.022417583, 0.022417583, 0.022417583, 0.022417583, 0.022417583, 0.022417583, 0.022417583, 0.022417583, 0.022417583, 0.022417583, 0.022417583, 0.022417583, 0.022417583, 0.022417583, 0.022417583, 0.022417583, 0.022417583, 0.022417583, 0.022417583, 0.022417583, 0.022417583, 0.022417583, 0.022417583, 0.022417583, 0.022417583, 0.022417583, 0.022417583, 0.022417583, 0.022417583, 0.022417583, 0.022417583, 0.08758242, 0.08758242, 0.08758242, 0.08758242, 0.08758242, 0.08758242, 0.08758242, 0.08758242, 0.08758242, 0.08758242, 0.08758242, 0.08758242, 0.08758242, 0.08758242, 0.08758242, 0.08758242, 0.08758242, 0.08758242, 0.08758242, 0.08758242, 0.021417584, 0.021417584, 0.021417584, 0.021417584, 0.021417584, 0.021417584, 0.021417584, 0.021417584, 0.021417584, 0.021417584, 0.021417584, 0.021417584, 0.021417584, 0.021417584, 0.021417584, 0.021417584, 0.021417584, 0.021417584, 0.021417584, 0.021417584, 0.021417584, 0.021417584, 0.021417584, 0.021417584, 0.021417584, 0.021417584, 0.021417584, 0.021417584, 0.021417584, 0.021417584, 0.021417584, 0.021417584, 0.021417584, 0.021417584, 0.021417584, 0.021417584, 0.021417584, 0.021417584, 0.021417584, 0.021417584, 0.021417584, 0.021417584, 0.021417584, 0.021417584, 0.021417584, 0.021417584, 0.021417584, 0.021417584, 0.021417584, 0.021417584, 0.021417584, 0.021417584, 0.021417584, 0.021417584, 0.021417584, 0.021417584, 0.021417584, 0.021417584, 0.021417584, 0.021417584, 0.021417584, 0.021417584, 0.021417584, 0.021417584, 0.021417584, 0.021417584, 0.021417584, 0.021417584, 0.021417584, 0.04758242, 0.05058242, 0.052582417, 0.055582426, 0.05858242, 0.06058242, 0.06258242, 0.06558242, 0.06558242, 0.06558242, 0.06558242, 0.06558242, 0.8014176, 0.19858243]
48 [0.020582423, 0.017582426, 0.013582418, 0.010582421, 0.0075824237, 0.004582415, 5.824185E-4, 0.0024175786, 0.006417575, 0.010417571, 0.013417568, 0.017417587, 0.021417584, 0.022417583, 0.022417583, 0.022417583, 0.022417583, 0.022417583, 0.022417583, 0.022417583, 0.045582425, 0.045582425, 0.045582425, 0.045582425, 0.045582425, 0.045582425, 0.045582425, 0.045582425, 0.045582425, 0.045582425, 0.045582425, 0.042582426, 0.039582416, 0.03658242, 0.032582425, 0.029582415, 0.025582418, 0.022417583, 0.022417583, 0.022417583, 0.022417583, 0.022417583, 0.022417583, 0.022417583, 0.022417583, 0.022417583, 0.022417583, 0.022417583, 0.022417583, 0.022417583, 0.022417583, 0.022417583, 0.022417583, 0.022417583, 0.022417583, 0.022417583, 0.022417583, 0.022417583, 0.022417583, 0.022417583, 0.022417583, 0.022417583, 0.022417583, 0.022417583, 0.022417583, 0.022417583, 0.022417583, 0.022417583, 0.022417583, 0.022417583, 0.022417583, 0.022417583, 0.022417583, 0.022417583, 0.022417583, 0.022417583, 0.022417583, 0.022417583, 0.022417583, 0.08758242, 0.08758242, 0.08758242, 0.08758242, 0.08758242, 0.08758242, 0.08758242, 0.08758242, 0.08758242, 0.08758242, 0.08758242, 0.08758242, 0.08758242, 0.08758242, 0.08758242, 0.08758242, 0.08758242, 0.08758242, 0.08758242, 0.08758242, 0.021417584, 0.021417584, 0.021417584, 0.021417584, 0.021417584, 0.021417584, 0.021417584, 0.021417584, 0.021417584, 0.021417584, 0.021417584, 0.021417584, 0.021417584, 0.021417584, 0.021417584, 0.021417584, 0.021417584, 0.021417584, 0.021417584, 0.021417584, 0.021417584, 0.021417584, 0.021417584, 0.021417584, 0.021417584, 0.021417584, 0.021417584, 0.021417584, 0.021417584, 0.021417584, 0.021417584, 0.021417584, 0.021417584, 0.021417584, 0.021417584, 0.021417584, 0.021417584, 0.021417584, 0.021417584, 0.021417584, 0.021417584, 0.021417584, 0.021417584, 0.021417584, 0.021417584, 0.021417584, 0.021417584, 0.021417584, 0.021417584, 0.021417584, 0.021417584, 0.021417584, 0.021417584, 0.021417584, 0.021417584, 0.021417584, 0.021417584, 0.021417584, 0.021417584, 0.021417584, 0.021417584, 0.021417584, 0.021417584, 0.021417584, 0.021417584, 0.021417584, 0.021417584, 0.021417584, 0.021417584, 0.04758242, 0.05058242, 0.052582417, 0.055582426, 0.05858242, 0.06058242, 0.06258242, 0.06558242, 0.06558242, 0.06558242, 0.06558242, 0.06558242, 0.8014176, 0.19858243]
49 [0.016549457, 0.013549459, 0.009549451, 0.006549454, 0.0035494568, 5.494477E-4, 0.0034505485, 0.0064505455, 0.010450542, 0.014450538, 0.017450536, 0.021450555, 0.025450552, 0.02645055, 0.02645055, 0.02645055, 0.02645055, 0.02645055, 0.02645055, 0.02645055, 0.041549455, 0.041549455, 0.041549455, 0.041549455, 0.041549455, 0.041549455, 0.041549455, 0.041549455, 0.041549455, 0.041549455, 0.041549455, 0.03854946, 0.03554945, 0.032549452, 0.028549457, 0.025549447, 0.021549452, 0.02645055, 0.02645055, 0.02645055, 0.02645055, 0.02645055, 0.02645055, 0.02645055, 0.02645055, 0.02645055, 0.02645055, 0.02645055, 0.02645055, 0.02645055, 0.02645055, 0.02645055, 0.02645055, 0.02645055, 0.02645055, 0.02645055, 0.02645055, 0.02645055, 0.02645055, 0.02645055, 0.02645055, 0.02645055, 0.02645055, 0.02645055, 0.02645055, 0.02645055, 0.02645055, 0.02645055, 0.02645055, 0.02645055, 0.02645055, 0.02645055, 0.02645055, 0.02645055, 0.02645055, 0.02645055, 0.02645055, 0.02645055, 0.02645055, 0.083549455, 0.083549455, 0.083549455, 0.083549455, 0.083549455, 0.083549455, 0.083549455, 0.083549455, 0.083549455, 0.083549455, 0.083549455, 0.083549455, 0.083549455, 0.083549455, 0.083549455, 0.083549455, 0.083549455, 0.083549455, 0.083549455, 0.083549455, 0.025450552, 0.025450552, 0.025450552, 0.025450552, 0.025450552, 0.025450552, 0.025450552, 0.025450552, 0.025450552, 0.025450552, 0.025450552, 0.025450552, 0.025450552, 0.025450552, 0.025450552, 0.025450552, 0.025450552, 0.025450552, 0.025450552, 0.025450552, 0.025450552, 0.025450552, 0.025450552, 0.025450552, 0.025450552, 0.025450552, 0.025450552, 0.025450552, 0.025450552, 0.025450552, 0.025450552, 0.025450552, 0.025450552, 0.025450552, 0.025450552, 0.025450552, 0.025450552, 0.025450552, 0.025450552, 0.025450552, 0.025450552, 0.025450552, 0.025450552, 0.025450552, 0.025450552, 0.025450552, 0.025450552, 0.025450552, 0.025450552, 0.025450552, 0.025450552, 0.025450552, 0.025450552, 0.025450552, 0.025450552, 0.025450552, 0.025450552, 0.025450552, 0.025450552, 0.025450552, 0.025450552, 0.025450552, 0.025450552, 0.025450552, 0.025450552, 0.025450552, 0.025450552, 0.025450552, 0.025450552, 0.043549456, 0.04654945, 0.04854945, 0.051549457, 0.054549456, 0.056549452, 0.058549453, 0.061549447, 0.061549447, 0.061549447, 0.061549447, 0.061549447, 0.061549447, 0.061549447]
