0 -3.1415925
0 -3.1415925
0 -3.1415925
0 3.1415925
0 -0.0
0 -0.0
0 -0.0
0 -0.0
0 -0.0
1 -3.1415925
1 -3.1415925
1 -3.1415925
1 3.1415925
1 -0.0
1 -0.0
1 -0.0
1 -0.0
1 -0.0
2 -3.1415925
2 -3.1415925
2 -3.1415925
2 3.1415925
2 -0.0
2 -0.0
2 -0.0
2 -0.0
2 -0.0
3 -3.1415925
3 -3.1415925
3 -3.1415925
3 3.1415925
3 -0.0
3 -0.0
3 -0.0
3 -0.0
3 -0.0
4 -3.1415925
4 -3.1415925
4 -3.1415925
4 3.1415925
4 -0.0
4 -0.0
4 -0.0
4 -0.0
4 -0.0
5 -3.1415925
5 -3.1415925
5 -3.1415925
5 3.1415925
5 -0.0
5 -0.0
5 -0.0
5 -0.0
5 -0.0
6 -3.1415925
6 -3.1415925
6 -3.1415925
6 3.1415925
6 -0.0
6 -0.0
6 -0.0
6 -0.0
6 -0.0
7 -3.1415925
7 -3.1415925
7 -3.1415925
7 3.1415925
7 -0.0
7 -0.0
7 -0.0
7 -0.0
7 -0.0
8 -3.1415925
8 -3.1415925
8 -3.1415925
8 3.1415925
8 -0.0
8 -0.0
8 -0.0
8 -0.0
8 -0.0
9 -3.1415925
9 -3.1415925
9 -3.1415925
9 3.1415925
9 -0.0
9 -0.0
9 -0.0
9 -0.0
9 -0.0
10 -3.1415925
10 -3.1415925
10 -3.1415925
10 3.1415925
10 -0.0
10 -0.0
10 -0.0
10 -0.0
10 -0.0
11 -3.1415925
11 -3.1415925
11 -3.1415925
11 3.1415925
11 -0.0
11 -0.0
11 -0.0
11 -0.0
11 -0.0
12 -3.1415925
12 -3.1415925
12 -3.1415925
12 3.1415925
12 -0.0
12 -0.0
12 -0.0
12 -0.0
12 -0.0
13 -3.1415925
13 -3.1415925
13 -3.1415925
13 3.1415925
13 -0.0
13 -0.0
13 -0.0
13 -0.0
13 -0.0
14 -3.1415925
14 -3.1415925
14 -3.1415925
14 3.1415925
14 -0.0
14 -0.0
14 -0.0
14 -0.0
14 -0.0
15 -3.1415925
15 -3.1415925
15 -3.1415925
15 3.1415925
15 -0.0
15 -0.0
15 -0.0
15 -0.0
15 -0.0
16 -3.1415925
16 -3.1415925
16 -3.1415925
16 3.1415925
16 -0.0
16 -0.0
16 -0.0
16 -0.0
16 -0.0
17 -3.1415925
17 -3.1415925
17 -3.1415925
17 3.1415925
17 -0.0
17 -0.0
17 -0.0
17 -0.0
17 -0.0
18 -3.1415925
18 -3.1415925
18 -3.1415925
18 3.1415925
18 -0.0
18 -0.0
18 -0.0
18 -0.0
18 -0.0
19 -3.1415925
19 -3.1415925
19 -3.1415925
19 3.1415925
19 -0.0
19 -0.0
19 -0.0
19 -0.0
19 -0.0
20 -3.1415925
20 -3.1415925
20 -3.1415925
20 3.1415925
20 -0.0
20 -0.0
20 -0.0
20 -0.0
20 -0.0
21 -3.1415925
21 -3.1415925
21 -3.1415925
21 3.1415925
21 -0.0
21 -0.0
21 -0.0
21 -0.0
21 -0.0
22 -3.1415925
22 -3.1415925
22 -3.1415925
22 3.1415925
22 -0.0
22 -0.0
22 -0.0
22 -0.0
22 -0.0
23 -3.1415925
23 -3.1415925
23 -3.1415925
23 3.1415925
23 -0.0
23 -0.0
23 -0.0
23 -0.0
23 -0.0
24 -3.1415925
24 -3.1415925
24 -3.1415925
24 3.1415925
24 -0.0
24 -0.0
24 -0.0
24 -0.0
24 -0.0
25 -3.1415925
25 -3.1415925
25 -3.1415925
25 3.1415925
25 -0.0
25 -0.0
25 -0.0
25 -0.0
25 -0.0
26 -3.1415925
26 -3.1415925
26 -3.1415925
26 3.1415925
26 -0.0
26 -0.0
26 -0.0
26 -0.0
26 -0.0
27 -3.1415925
27 -3.1415925
27 -3.1415925
27 3.1415925
27 -0.0
27 -0.0
27 -0.0
27 -0.0
27 -0.0
28 -3.1415925
28 -3.1415925
28 -3.1415925
28 3.1415925
28 -0.0
28 -0.0
28 -0.0
28 -0.0
28 -0.0
29 -3.1415925
29 -3.1415925
29 -3.1415925
29 3.1415925
29 -0.0
29 -0.0
29 -0.0
29 -0.0
29 -0.0
30 -3.1415925
30 -3.1415925
30 -3.1415925
30 3.1415925
30 -0.0
30 -0.0
30 -0.0
30 -0.0
30 -0.0
31 -3.1415925
31 -3.1415925
31 -3.1415925
31 3.1415925
31 -0.0
31 -0.0
31 -0.0
31 -0.0
31 -0.0
32 -3.1415925
32 -3.1415925
32 -3.1415925
32 3.1415925
32 -0.0
32 -0.0
32 -0.0
32 -0.0
32 -0.0
33 -3.1415925
33 -3.1415925
33 -3.1415925
33 3.1415925
33 -0.0
33 -0.0
33 -0.0
33 -0.0
33 -0.0
34 -3.1415925
34 -3.1415925
34 -3.1415925
34 3.1415925
34 -0.0
34 -0.0
34 -0.0
34 -0.0
34 -0.0
35 -3.1415925
35 -3.1415925
35 -3.1415925
35 3.1415925
35 -0.0
35 -0.0
35 -0.0
35 -0.0
35 -0.0
36 -3.1415925
36 -3.1415925
36 -3.1415925
36 3.1415925
36 -0.0
36 -0.0
36 -0.0
36 -0.0
36 -0.0
37 -3.1415925
37 -3.1415925
37 -3.1415925
37 3.1415925
37 -0.0
37 -0.0
37 -0.0
37 -0.0
37 -0.0
38 3.1360822
38 3.134399
38 3.1305716
38 3.109868
38 0.031724393
38 0.011021053
38 0.007193605
38 0.0055106636
38 9.1948874E-7
39 3.1360822
39 3.134399
39 3.1305716
39 3.109868
39 0.031724393
39 0.011021053
39 0.007193605
39 0.0055106636
39 9.1948874E-7
40 3.1273336
40 3.1229794
40 3.11308
40 3.0596523
40 0.08193431
40 0.028512213
40 0.018613031
40 0.014259183
40 -6.4950027E-6
41 3.1273336
41 3.1229794
41 3.11308
41 3.0596523
41 0.08193431
41 0.028512213
41 0.018613031
41 0.014259183
41 -6.4950027E-6
42 3.1288607
42 3.1249728
42 3.1161325
42 3.0683944
42 0.07318885
42 0.025459241
42 0.016619604
42 0.012731939
42 -1.0926654E-5
43 3.1297219
43 3.1260967
43 3.1178539
43 3.07333
43 0.06825439
43 0.02373802
43 0.015495672
43 0.01187083
43 -1.0582022E-5
44 3.129452
44 3.1257446
44 3.1173143
44 3.0717812
44 0.06979769
44 0.024277132
44 0.015847728
44 0.012140637
44 -1.7443916E-5
45 3.129452
45 3.1257446
45 3.1173143
45 3.0717812
45 0.06979769
45 0.024277132
45 0.015847728
45 0.012140637
45 -1.7443916E-5
46 3.1293755
46 3.1256442
46 3.1171606
46 3.0713363
46 0.07023281
46 0.024429569
46 0.015947664
46 0.012217284
46 -2.9370029E-5
47 3.129481
47 3.125782
47 3.1173716
47 3.0719411
47 0.06962648
47 0.024218692
47 0.015809672
47 0.012111699
47 -3.275232E-5
48 3.1294568
48 3.12575
48 3.1173224
48 3.071797
48 0.06976204
48 0.024266748
48 0.015841473
48 0.012136085
48 -4.324644E-5
49 3.1294568
49 3.12575
49 3.1173224
49 3.071797
49 0.06976204
49 0.024266748
49 0.015841473
49 0.012136085
49 -4.324644E-5
