0 [0.0, 0.0, 0.0, 0.0, 0.0, 0.0, 0.0, 0.0]
1 [0.0, 0.0, 0.0, 0.0, 0.0, 0.0, 0.0, 0.0]
2 [0.0, 0.0, 0.0, 0.0, 0.0, 0.0, 0.0, 0.0]
3 [0.0, 0.0, 0.0, 0.0, 0.0, 0.0, 0.0, 0.0]
4 [0.0, 0.0, 0.0, 0.0, 0.0, 0.0, 0.0, 0.0]
5 [0.0, 0.0, 0.0, 0.0, 0.0, 0.0, 0.0, 0.0]
6 [0.0, 0.0, 0.0, 0.0, 0.0, 0.0, 0.0, 0.0]
7 [0.0, 0.0, 0.0, 0.0, 0.0, 0.0, 0.0, 0.0]
8 [0.0, 0.0, 0.0, 0.0, 0.0, 0.0, 0.0, 0.0]
9 [0.0, 0.0, 0.0, 0.0, 0.0, 0.0, 0.0, 0.0]
10 [0.0, 0.0, 0.0, 0.0, 0.0, 0.0, 0.0, 0.0]
11 [0.0, 0.0, 0.0, 0.0, 0.0, 0.0, 0.0, 0.0]
12 [0.0, 0.0, 0.0, 0.0, 0.0, 0.0, 0.0, 0.0]
13 [0.0, 0.0, 0.0, 0.0, 0.0, 0.0, 0.0, 0.0]
14 [0.0, 0.0, 0.0, 0.0, 0.0, 0.0, 0.0, 0.0]
15 [0.0, 0.0, 0.0, 0.0, 0.0, 0.0, 0.0, 0.0]
16 [0.0, 0.0, 0.0, 0.0, 0.0, 0.0, 0.0, 0.0]
17 [0.0, 0.0, 0.0, 0.0, 0.0, 0.0, 0.0, 0.0]
18 [0.0, 0.0, 0.0, 0.0, 0.0, 0.0, 0.0, 0.0]
19 [0.0, 0.0, 0.0, 0.0, 0.0, 0.0, 0.0, 0.0]
20 [0.0, 0.0, 0.0, 0.9768226, 0.97682273, 0.0, 0.0, 0.7868698]
21 [0.0, 0.0, 0.0, 0.9783458, 0.9783428, 0.0, 0.0, 0.7868783]
22 [0.0, 0.0, 0.0, 0.9782172, 0.9782125, 0.0, 0.0, 0.78687716]
23 [0.0, 0.0, 0.0, 0.97824365, 0.97823524, 0.0, 0.0, 0.786878]
24 [0.0, 0.0, 0.0, 0.9782454, 0.97823274, 0.0, 0.0, 0.7868714]
25 [0.0, 0.0, 0.0, 0.9782571, 0.9782424, 0.0, 0.0, 0.78687257]
26 [0.0, 0.0, 0.0, 0.9782642, 0.97824657, 0.0, 0.0, 0.7868711]
27 [0.0, 0.0, 0.0, 0.9782642, 0.97824657, 0.0, 0.0, 0.7868711]
28 [0.0, 0.0, 0.0, 0.97826797, 0.9782472, 0.0, 0.0, 0.78687024]
29 [0.0, 0.0, 0.0, 0.9782932, 0.97826976, 0.0, 0.0, 0.7868722]
30 [0.0, 0.0, 0.0, 0.9782932, 0.97826976, 0.0, 0.0, 0.7868722]
31 [0.0, 0.0, 0.0, 0.9783043, 0.97827727, 0.0, 0.0, 0.7868665]
32 [0.0, 0.0, 0.0, 0.978318, 0.97828907, 0.0, 0.0, 0.7868681]
33 [0.0, 0.0, 0.0, 0.978318, 0.97828907, 0.0, 0.0, 0.7868681]
34 [0.0, 0.0, 0.0, 0.9783132, 0.97828305, 0.0, 0.0, 0.786867]
35 [0.0, 0.0, 0.0, 0.9783315, 0.9782998, 0.0, 0.0, 0.78686637]
36 [0.0, 0.0, 0.0, 0.97652453, 0.9764169, 0.0, 0.0, 0.78679925]
37 [0.0, 0.0, 0.0, 0.9710195, 0.9706839, 0.0, 0.0, 0.786727]
38 [0.0, 0.0, 0.0, 0.96185195, 0.9610282, 0.0, 0.0, 0.7865337]
39 [0.0, 0.0, 0.0, 0.9332948, 0.93014336, 0.0, 0.0, 0.78574055]
40 [0.0, 0.0, 0.0, 0.89541006, 0.8898077, 0.0, 0.0, 0.78563106]
41 [0.0, 0.0, 0.0, 0.8782653, 0.87074643, 0.0, 0.0, 0.78544754]
42 [0.0, 0.0, 0.0, 0.8642318, 0.8518745, 0.0, 0.0, 0.78500706]
43 [0.0, 0.0, 0.0, 0.852707, 0.83567804, 0.0, 0.0, 0.78385353]
44 [0.0, 0.0, 0.0, 0.8343017, 0.0, 0.0, 0.0, 0.7752495]
45 [0.0, 0.0, 0.0, 0.8343017, 0.0, 0.0, 0.0, 0.7752495]
46 [0.0, 0.0, 0.8081921, 0.8256385, 0.0, 0.0, 0.0, 0.7656273]
47 [0.0, 0.0, 0.80785215, 0.81510884, 0.0, 0.0, 0.0, 0.75051785]
48 [0.0, 0.0, 0.81398296, 0.80170804, 0.0, 0.0, 0.0, 0.75280863]
49 [0.0, 0.0, 0.8177224, 0.0, 0.0, 0.0, 0.0, 0.76884747]
