0 [0.0, 0.0, 0.0, 0.0, 0.0, 0.0, 0.0, 0.0, 0.0, 0.0, 0.0, 0.0, 0.0, 0.0, 0.0, 0.0, 0.0, 0.0, 0.0, 0.0, 0.0, 0.0, 0.0, 0.0, 0.0, 0.0, 0.0, 0.0, 0.0, 0.0, 0.0, 0.0, 0.0, 0.0, 0.0, 0.0, 0.0, 0.0, 0.0, 0.0, 0.0, 0.0, 0.0, 0.0, 0.0, 0.0, 0.0, 0.0, 0.0, 0.0, 0.0, 0.0, 0.0, 0.0, 0.0, 0.0, 0.0, 0.0, 0.0, 0.0, 0.0, 0.0, 0.0, 0.0, 0.0, 0.0, 0.0, 0.0, 0.0, 0.0, 0.0, 0.0, 0.0, 0.0, 0.0, 0.0, 0.0, 0.0, 0.0, 0.0, 0.0, 0.0, 0.0, 0.0, 0.0, 0.0, 0.0, 0.0, 0.0, 0.0, 0.0, 0.0, 0.0, 0.0, 0.0, 0.0, 0.0, 0.0, 0.0, 0.0, 0.0, 0.0, 0.0, 0.0, 0.0, 0.0, 0.0, 0.0, 0.0, 0.0, 0.0, 0.0, 0.0, 0.0, 0.0, 0.0, 0.0, 0.0, 0.0, 0.0, 0.0, 0.0, 0.0, 0.0, 0.0, 0.0, 0.0, 0.0, 0.0, 0.0, 0.0, 0.0, 0.0, 0.0, 0.0, 0.0, 0.0, 0.0, 0.0, 0.0, 0.0, 0.0, 0.0, 0.0, 0.0, 0.0, 0.0, 0.0, 0.0, 0.0, 0.0, 0.0, 0.0, 0.0, 0.0, 0.0, 0.0, 0.0, 0.0, 0.0, 0.0, 0.0, 0.0, 0.0, 0.0, 0.0, 0.0, 0.0, 0.0, 0.0, 0.0, 0.0, 0.0, 0.0, 0.0, 0.0, 0.0, 0.0, 0.0, 0.0, 0.0, 0.0]
1 [0.0, 0.0, 0.0, 0.0, 0.0, 0.0, 0.0, 0.0, 0.0, 0.0, 0.0, 0.0, 0.0, 0.0, 0.0, 0.0, 0.0, 0.0, 0.0, 0.0, 0.0, 0.0, 0.0, 0.0, 0.0, 0.0, 0.0, 0.0, 0.0, 0.0, 0.0, 0.0, 0.0, 0.0, 0.0, 0.0, 0.0, 0.0, 0.0, 0.0, 0.0, 0.0, 0.0, 0.0, 0.0, 0.0, 0.0, 0.0, 0.0, 0.0, 0.0, 0.0, 0.0, 0.0, 0.0, 0.0, 0.0, 0.0, 0.0, 0.0, 0.0, 0.0, 0.0, 0.0, 0.0, 0.0, 0.0, 0.0, 0.0, 0.0, 0.0, 0.0, 0.0, 0.0, 0.0, 0.0, 0.0, 0.0, 0.0, 0.0, 0.0, 0.0, 0.0, 0.0, 0.0, 0.0, 0.0, 0.0, 0.0, 0.0, 0.0, 0.0, 0.0, 0.0, 0.0, 0.0, 0.0, 0.0, 0.0, 0.0, 0.0, 0.0, 0.0, 0.0, 0.0, 0.0, 0.0, 0.0, 0.0, 0.0, 0.0, 0.0, 0.0, 0.0, 0.0, 0.0, 0.0, 0.0, 0.0, 0.0, 0.0, 0.0, 0.0, 0.0, 0.0, 0.0, 0.0, 0.0, 0.0, 0.0, 0.0, 0.0, 0.0, 0.0, 0.0, 0.0, 0.0, 0.0, 0.0, 0.0, 0.0, 0.0, 0.0, 0.0, 0.0, 0.0, 0.0, 0.0, 0.0, 0.0, 0.0, 0.0, 0.0, 0.0, 0.0, 0.0, 0.0, 0.0, 0.0, 0.0, 0.0, 0.0, 0.0, 0.0, 0.0, 0.0, 0.0, 0.0, 0.0, 0.0, 0.0, 0.0, 0.0, 0.0, 0.0, 0.0, 0.0, 0.0, 0.0, 0.0, 0.0, 0.0]
2 [0.0, 0.0, 0.0, 0.0, 0.0, 0.0, 0.0, 0.0, 0.0, 0.0, 0.0, 0.0, 0.0, 0.0, 0.0, 0.0, 0.0, 0.0, 0.0, 0.0, 0.0, 0.0, 0.0, 0.0, 0.0, 0.0, 0.0, 0.0, 0.0, 0.0, 0.0, 0.0, 0.0, 0.0, 0.0, 0.0, 0.0, 0.0, 0.0, 0.0, 0.0, 0.0, 0.0, 0.0, 0.0, 0.0, 0.0, 0.0, 0.0, 0.0, 0.0, 0.0, 0.0, 0.0, 0.0, 0.0, 0.0, 0.0, 0.0, 0.0, 0.0, 0.0, 0.0, 0.0, 0.0, 0.0, 0.0, 0.0, 0.0, 0.0, 0.0, 0.0, 0.0, 0.0, 0.0, 0.0, 0.0, 0.0, 0.0, 0.0, 0.0, 0.0, 0.0, 0.0, 0.0, 0.0, 0.0, 0.0, 0.0, 0.0, 0.0, 0.0, 0.0, 0.0, 0.0, 0.0, 0.0, 0.0, 0.0, 0.0, 0.0, 0.0, 0.0, 0.0, 0.0, 0.0, 0.0, 0.0, 0.0, 0.0, 0.0, 0.0, 0.0, 0.0, 0.0, 0.0, 0.0, 0.0, 0.0, 0.0, 0.0, 0.0, 0.0, 0.0, 0.0, 0.0, 0.0, 0.0, 0.0, 0.0, 0.0, 0.0, 0.0, 0.0, 0.0, 0.0, 0.0, 0.0, 0.0, 0.0, 0.0, 0.0, 0.0, 0.0, 0.0, 0.0, 0.0, 0.0, 0.0, 0.0, 0.0, 0.0, 0.0, 0.0, 0.0, 0.0, 0.0, 0.0, 0.0, 0.0, 0.0, 0.0, 0.0, 0.0, 0.0, 0.0, 0.0, 0.0, 0.0, 0.0, 0.0, 0.0, 0.0, 0.0, 0.0, 0.0, 0.0, 0.0, 0.0, 0.0, 0.0, 0.0]
3 [0.20337363, 0.20237362, 0.20037362, 0.19937363, 0.19737363, 0.19437362, 0.19237362, 0.19037363, 0.18737362, 0.058373626, 0.057373628, 0.05637363, 0.05537363, 0.05437363, 0.05337363, 0.05237362, 0.051373623, 0.05037362, 0.10137362, 0.100373626, 0.099373624, 0.09837362, 0.09737363, 0.09737363, 0.096373625, 0.09537363, 0.09437363, 0.09437363, 0.09337363, 0.09237363, 0.09137363, 0.035373636, 0.034373637, 0.033373617, 0.032373615, 0.031373616, 0.030373618, 0.029373618, 0.02837362, 0.027373621, 0.026373621, 0.025373623, 0.024373623, 0.023373624, 0.022373626, 0.021373626, 0.020373628, 0.019373627, 0.01837363, 0.01637363, 0.015373632, 0.014373633, 0.013373634, 0.012373635, 0.011373635, 0.010373637, 0.009373638, 0.008373614, 0.0073736156, 0.006373617, 0.0053736176, 0.0043736184, 0.0033736196, 0.0013736215, 3.736224E-4, 6.2637666E-4, 0.0016263757, 0.0026263748, 0.0036263738, 0.004626373, 0.005626372, 0.00762637, 0.008626369, 0.009626368, 0.010626367, 0.0116263665, 0.012626365, 0.014626363, 0.015626362, 0.016626386, 0.017626384, 0.019626383, 0.020626381, 0.021626381, 0.02262638, 0.024626378, 0.025626376, 0.026626376, 0.027626375, 0.029626373, 0.030626372, 0.03162637, 0.03362637, 0.03462637, 0.036626365, 0.037626363, 0.038626365, 0.040626362, 0.041626386, 0.043626383, 0.04462638, 0.04662638, 0.04762638, 0.049626376, 0.050626375, 0.052626375, 0.053626373, 0.05562637, 0.05762637, 0.05862637, 0.060626365, 0.06262636, 0.063626364, 0.06562636, 0.06762639, 0.06962638, 0.07162638, 0.07262638, 0.07462638, 0.076626375, 0.07862637, 0.08062637, 0.08262637, 0.08462637, 0.086626366, 0.08862636, 0.09162638, 0.09362638, 0.095626384, 0.09762638, 0.10062638, 0.102626376, 0.10462637, 0.10762637, 0.10962637, 0.11262637, 0.115626365, 0.115626365, 0.111626364, 0.10762637, 0.10462637, 0.10062638, 0.09762638, 0.019626383, 0.017626384, 0.014626363, 0.0116263665, 0.009626368, 0.006626371, 0.004626373, 0.00762637, 0.009626368, 0.012626365, 0.060626365, 0.05762637, 0.05462637, 0.050626375, 0.04762638, 0.04462638, 0.041626386, 0.038626365, 0.035626367, 0.03362637, 0.030626372, 0.027626375, 0.024626378, 0.021626381, 0.018626383, 0.016626386, 0.013626364, 0.010626367, 0.00762637, 0.005626372, 0.085373625, 0.08737362, 0.088373624, 0.090373635, 0.09237363, 0.09437363, 0.09537363, 0.09737363, 0.099373624]
4 [0.19792858, 0.19792858, 0.19792858, 0.19692858, 0.19692858, 0.19692858, 0.19592857, 0.19492857, 0.19292857, 0.19092858, 0.18792857, 0.18592857, 0.18292858, 0.18092857, 0.046928566, 0.045928568, 0.04492857, 0.04492857, 0.04392857, 0.04292857, 0.04192857, 0.040928572, 0.039928574, 0.09192857, 0.09092857, 0.09092857, 0.089928575, 0.08892857, 0.08892857, 0.08792858, 0.086928576, 0.085928574, 0.085928574, 0.084928565, 0.08392857, 0.06592857, 0.025928563, 0.024928564, 0.023928564, 0.022928566, 0.021928567, 0.020928567, 0.019928569, 0.018928569, 0.01792857, 0.01792857, 0.016928572, 0.015928572, 0.014928574, 0.0139285745, 0.012928575, 0.011928576, 0.010928578, 0.0099285785, 0.008928579, 0.00792858, 0.0069285813, 0.005928582, 0.004928583, 0.0039285603, 0.002928561, 0.0019285621, 9.28563E-4, 7.1436036E-5, 0.001071435, 0.0020714342, 0.0030714332, 0.004071432, 0.0050714314, 0.00607143, 0.0070714294, 0.008071428, 0.009071427, 0.010071427, 0.011071426, 0.012071424, 0.014071423, 0.015071422, 0.01607142, 0.01707142, 0.018071419, 0.019071419, 0.020071417, 0.02107144, 0.02207144, 0.023071438, 0.025071437, 0.026071435, 0.027071435, 0.028071433, 0.029071432, 0.030071432, 0.03207143, 0.03307143, 0.034071427, 0.035071425, 0.037071425, 0.038071424, 0.039071422, 0.04007142, 0.04207142, 0.04307142, 0.044071417, 0.04607144, 0.04707144, 0.048071437, 0.050071437, 0.051071435, 0.05307143, 0.054071434, 0.05607143, 0.05707143, 0.05907143, 0.060071427, 0.062071424, 0.06307142, 0.06507142, 0.06607142, 0.06807142, 0.070071414, 0.07107144, 0.073071435, 0.07507144, 0.07607143, 0.07807143, 0.080071434, 0.08207143, 0.08407143, 0.086071424, 0.08807142, 0.090071425, 0.09207142, 0.09407142, 0.09607144, 0.09807144, 0.10007144, 0.102071434, 0.10507143, 0.10707143, 0.109071426, 0.112071425, 0.11407142, 0.112071425, 0.10807143, 0.10507143, 0.10107143, 0.09707144, 0.02107144, 0.018071419, 0.015071422, 0.013071423, 0.010071427, 0.0070714294, 0.004071432, 0.004071432, 0.00607143, 0.009071427, 0.011071426, 0.05607143, 0.05307143, 0.050071437, 0.04707144, 0.04307142, 0.04007142, 0.037071425, 0.034071427, 0.03107143, 0.028071433, 0.025071437, 0.02207144, 0.020071417, 0.01707142, 0.014071423, 0.011071426, 0.008071428, 0.0050714314, 0.0030714332, 0.085928574, 0.086928576, 0.08892857, 0.09092857, 0.09292857]
5 [0.19792858, 0.19792858, 0.19792858, 0.19692858, 0.19692858, 0.19692858, 0.19592857, 0.19492857, 0.19292857, 0.19092858, 0.18792857, 0.18592857, 0.18292858, 0.18092857, 0.046928566, 0.045928568, 0.04492857, 0.04492857, 0.04392857, 0.04292857, 0.04192857, 0.040928572, 0.039928574, 0.09192857, 0.09092857, 0.09092857, 0.089928575, 0.08892857, 0.08892857, 0.08792858, 0.086928576, 0.085928574, 0.085928574, 0.084928565, 0.08392857, 0.06592857, 0.025928563, 0.024928564, 0.023928564, 0.022928566, 0.021928567, 0.020928567, 0.019928569, 0.018928569, 0.01792857, 0.01792857, 0.016928572, 0.015928572, 0.014928574, 0.0139285745, 0.012928575, 0.011928576, 0.010928578, 0.0099285785, 0.008928579, 0.00792858, 0.0069285813, 0.005928582, 0.004928583, 0.0039285603, 0.002928561, 0.0019285621, 9.28563E-4, 7.1436036E-5, 0.001071435, 0.0020714342, 0.0030714332, 0.004071432, 0.0050714314, 0.00607143, 0.0070714294, 0.008071428, 0.009071427, 0.010071427, 0.011071426, 0.012071424, 0.014071423, 0.015071422, 0.01607142, 0.01707142, 0.018071419, 0.019071419, 0.020071417, 0.02107144, 0.02207144, 0.023071438, 0.025071437, 0.026071435, 0.027071435, 0.028071433, 0.029071432, 0.030071432, 0.03207143, 0.03307143, 0.034071427, 0.035071425, 0.037071425, 0.038071424, 0.039071422, 0.04007142, 0.04207142, 0.04307142, 0.044071417, 0.04607144, 0.04707144, 0.048071437, 0.050071437, 0.051071435, 0.05307143, 0.054071434, 0.05607143, 0.05707143, 0.05907143, 0.060071427, 0.062071424, 0.06307142, 0.06507142, 0.06607142, 0.06807142, 0.070071414, 0.07107144, 0.073071435, 0.07507144, 0.07607143, 0.07807143, 0.080071434, 0.08207143, 0.08407143, 0.086071424, 0.08807142, 0.090071425, 0.09207142, 0.09407142, 0.09607144, 0.09807144, 0.10007144, 0.102071434, 0.10507143, 0.10707143, 0.109071426, 0.112071425, 0.11407142, 0.112071425, 0.10807143, 0.10507143, 0.10107143, 0.09707144, 0.02107144, 0.018071419, 0.015071422, 0.013071423, 0.010071427, 0.0070714294, 0.004071432, 0.004071432, 0.00607143, 0.009071427, 0.011071426, 0.05607143, 0.05307143, 0.050071437, 0.04707144, 0.04307142, 0.04007142, 0.037071425, 0.034071427, 0.03107143, 0.028071433, 0.025071437, 0.02207144, 0.020071417, 0.01707142, 0.014071423, 0.011071426, 0.008071428, 0.0050714314, 0.0030714332, 0.085928574, 0.086928576, 0.08892857, 0.09092857, 0.09292857]
6 [0.18947253, 0.18947253, 0.18947253, 0.18847252, 0.18847252, 0.18847252, 0.18847252, 0.18747252, 0.18747252, 0.18747252, 0.18747252, 0.18747252, 0.18647254, 0.18647254, 0.18647254, 0.18447253, 0.18247253, 0.17947252, 0.17747253, 0.17547253, 0.17247252, 0.16947253, 0.029472532, 0.029472532, 0.028472533, 0.027472533, 0.026472535, 0.025472535, 0.024472537, 0.023472538, 0.07847253, 0.07847253, 0.07747252, 0.07647252, 0.07647252, 0.075472526, 0.075472526, 0.074472524, 0.07347252, 0.07347252, 0.07247253, 0.071472526, 0.071472526, 0.012472524, 0.011472525, 0.010472526, 0.009472528, 0.008472528, 0.008472528, 0.007472529, 0.00647253, 0.005472531, 0.004472532, 0.0034725328, 0.0034725328, 0.0024725338, 0.0014725347, 4.7253567E-4, 5.274634E-4, 0.0015274624, 0.0015274624, 0.0025274614, 0.0035274844, 0.0045274836, 0.0055274824, 0.0065274816, 0.0075274804, 0.0075274804, 0.008527479, 0.009527478, 0.010527478, 0.011527477, 0.012527476, 0.013527474, 0.014527474, 0.014527474, 0.015527473, 0.016527472, 0.01752747, 0.01852747, 0.019527469, 0.020527469, 0.021527467, 0.022527466, 0.023527466, 0.024527464, 0.025527464, 0.026527463, 0.026527463, 0.02752746, 0.028527485, 0.029527484, 0.030527482, 0.031527482, 0.03252748, 0.03352748, 0.034527477, 0.03552748, 0.036527477, 0.038527474, 0.039527472, 0.040527474, 0.041527472, 0.04252747, 0.04352747, 0.044527467, 0.04552747, 0.046527468, 0.047527466, 0.049527463, 0.050527465, 0.051527463, 0.05252746, 0.053527486, 0.054527484, 0.05652748, 0.05752748, 0.05852748, 0.060527477, 0.061527476, 0.06252748, 0.06352747, 0.06552748, 0.06652747, 0.06852747, 0.06952747, 0.07052747, 0.07252747, 0.07352746, 0.07552747, 0.07652746, 0.07852749, 0.07952748, 0.08152748, 0.08352748, 0.08452748, 0.086527474, 0.08852748, 0.08952747, 0.09152747, 0.09352747, 0.09552747, 0.09752747, 0.09952746, 0.10152746, 0.10352749, 0.10552748, 0.10752748, 0.109527476, 0.109527476, 0.10552748, 0.10252746, 0.09852747, 0.09452747, 0.090527475, 0.01752747, 0.014527474, 0.011527477, 0.008527479, 0.0065274816, 0.0035274844, 5.274634E-4, 0.0025274614, 0.0045274836, 0.0065274816, 0.051527463, 0.048527464, 0.04552747, 0.041527472, 0.038527474, 0.03552748, 0.03252748, 0.029527484, 0.026527463, 0.023527466, 0.020527469, 0.01752747, 0.014527474, 0.011527477, 0.008527479, 0.0055274824, 0.0025274614]
7 [0.18947253, 0.18947253, 0.18947253, 0.18847252, 0.18847252, 0.18847252, 0.18847252, 0.18747252, 0.18747252, 0.18747252, 0.18747252, 0.18747252, 0.18647254, 0.18647254, 0.18647254, 0.18447253, 0.18247253, 0.17947252, 0.17747253, 0.17547253, 0.17247252, 0.16947253, 0.029472532, 0.029472532, 0.028472533, 0.027472533, 0.026472535, 0.025472535, 0.024472537, 0.023472538, 0.07847253, 0.07847253, 0.07747252, 0.07647252, 0.07647252, 0.075472526, 0.075472526, 0.074472524, 0.07347252, 0.07347252, 0.07247253, 0.071472526, 0.071472526, 0.012472524, 0.011472525, 0.010472526, 0.009472528, 0.008472528, 0.008472528, 0.007472529, 0.00647253, 0.005472531, 0.004472532, 0.0034725328, 0.0034725328, 0.0024725338, 0.0014725347, 4.7253567E-4, 5.274634E-4, 0.0015274624, 0.0015274624, 0.0025274614, 0.0035274844, 0.0045274836, 0.0055274824, 0.0065274816, 0.0075274804, 0.0075274804, 0.008527479, 0.009527478, 0.010527478, 0.011527477, 0.012527476, 0.013527474, 0.014527474, 0.014527474, 0.015527473, 0.016527472, 0.01752747, 0.01852747, 0.019527469, 0.020527469, 0.021527467, 0.022527466, 0.023527466, 0.024527464, 0.025527464, 0.026527463, 0.026527463, 0.02752746, 0.028527485, 0.029527484, 0.030527482, 0.031527482, 0.03252748, 0.03352748, 0.034527477, 0.03552748, 0.036527477, 0.038527474, 0.039527472, 0.040527474, 0.041527472, 0.04252747, 0.04352747, 0.044527467, 0.04552747, 0.046527468, 0.047527466, 0.049527463, 0.050527465, 0.051527463, 0.05252746, 0.053527486, 0.054527484, 0.05652748, 0.05752748, 0.05852748, 0.060527477, 0.061527476, 0.06252748, 0.06352747, 0.06552748, 0.06652747, 0.06852747, 0.06952747, 0.07052747, 0.07252747, 0.07352746, 0.07552747, 0.07652746, 0.07852749, 0.07952748, 0.08152748, 0.08352748, 0.08452748, 0.086527474, 0.08852748, 0.08952747, 0.09152747, 0.09352747, 0.09552747, 0.09752747, 0.09952746, 0.10152746, 0.10352749, 0.10552748, 0.10752748, 0.109527476, 0.109527476, 0.10552748, 0.10252746, 0.09852747, 0.09452747, 0.090527475, 0.01752747, 0.014527474, 0.011527477, 0.008527479, 0.0065274816, 0.0035274844, 5.274634E-4, 0.0025274614, 0.0045274836, 0.0065274816, 0.051527463, 0.048527464, 0.04552747, 0.041527472, 0.038527474, 0.03552748, 0.03252748, 0.029527484, 0.026527463, 0.023527466, 0.020527469, 0.01752747, 0.014527474, 0.011527477, 0.008527479, 0.0055274824, 0.0025274614]
8 [0.1737967, 0.1737967, 0.1737967, 0.1737967, 0.1737967, 0.17279671, 0.17279671, 0.17279671, 0.17279671, 0.17279671, 0.17179671, 0.17179671, 0.17179671, 0.17179671, 0.17179671, 0.17179671, 0.1707967, 0.1707967, 0.1707967, 0.1707967, 0.1707967, 0.1697967, 0.1697967, 0.1697967, 0.1697967, 0.1677967, 0.1657967, 0.16379671, 0.1617967, 0.1587967, 0.1557967, 0.1527967, 0.0047966945, 0.0037966957, 0.0037966957, 0.0027966965, 0.0017966975, 0.0017966975, 7.966985E-4, 2.0330054E-4, 0.057796706, 0.057796706, 0.056796703, 0.056796703, 0.055796705, 0.055796705, 0.054796707, 0.054796707, 0.05379671, 0.05379671, 0.05279671, 0.05279671, 0.051796697, 0.0092032915, 0.010203291, 0.010203291, 0.01120329, 0.012203289, 0.012203289, 0.013203288, 0.014203287, 0.014203287, 0.015203286, 0.016203286, 0.016203286, 0.017203309, 0.018203307, 0.018203307, 0.019203307, 0.020203305, 0.020203305, 0.021203304, 0.022203304, 0.022203304, 0.023203302, 0.024203302, 0.024203302, 0.0252033, 0.026203299, 0.026203299, 0.0272033, 0.028203297, 0.028203297, 0.029203298, 0.030203296, 0.031203294, 0.031203294, 0.032203294, 0.033203293, 0.033203293, 0.03420329, 0.03520329, 0.03620329, 0.03620329, 0.03720329, 0.038203288, 0.039203286, 0.039203286, 0.040203284, 0.041203286, 0.042203307, 0.042203307, 0.043203305, 0.044203307, 0.045203306, 0.046203304, 0.046203304, 0.047203302, 0.0482033, 0.049203303, 0.0502033, 0.0512033, 0.0512033, 0.052203298, 0.053203296, 0.054203298, 0.055203296, 0.056203295, 0.057203293, 0.05820329, 0.059203293, 0.059203293, 0.06020329, 0.06120329, 0.062203288, 0.06320329, 0.064203285, 0.06520329, 0.06620329, 0.067203306, 0.06820331, 0.070203304, 0.07120331, 0.0722033, 0.0732033, 0.074203305, 0.0752033, 0.0762033, 0.077203296, 0.0792033, 0.080203295, 0.0812033, 0.08220329, 0.084203295, 0.08520329, 0.08620329, 0.08820329, 0.08920329, 0.090203285, 0.09220331, 0.093203306, 0.0952033, 0.096203305, 0.0982033, 0.0992033, 0.1012033, 0.1022033, 0.1042033, 0.106203295, 0.106203295, 0.1012033, 0.09720331, 0.093203306, 0.08920329, 0.08520329, 0.016203286, 0.013203288, 0.010203291, 0.007203294, 0.005203296, 0.0022032987, 7.966985E-4, 0.0012032996, 0.0022032987, 0.0042032967, 0.045203306, 0.042203307, 0.039203286, 0.03520329, 0.032203294, 0.029203298, 0.0252033]
9 [0.16124175, 0.16124175, 0.16124175, 0.16124175, 0.16024175, 0.16024175, 0.16024175, 0.16024175, 0.16024175, 0.16024175, 0.15924175, 0.15924175, 0.15924175, 0.15924175, 0.15924175, 0.15924175, 0.15924175, 0.15824176, 0.15824176, 0.15824176, 0.15824176, 0.15824176, 0.15824176, 0.15824176, 0.15724176, 0.15724176, 0.15724176, 0.15724176, 0.15724176, 0.15724176, 0.15724176, 0.15624176, 0.15624176, 0.15424176, 0.15124176, 0.14924176, 0.14624175, 0.14424177, 0.14124176, 0.13724175, 0.013758244, 0.014758243, 0.014758243, 0.015758242, 0.015758242, 0.01675824, 0.01675824, 0.01775824, 0.042241763, 0.04124176, 0.04124176, 0.04024175, 0.04024175, 0.04024175, 0.039241754, 0.039241754, 0.038241755, 0.038241755, 0.038241755, 0.037241753, 0.021241758, 0.024758233, 0.025758233, 0.025758233, 0.026758231, 0.026758231, 0.027758231, 0.027758231, 0.028758254, 0.029758252, 0.029758252, 0.030758252, 0.030758252, 0.031758253, 0.031758253, 0.03275825, 0.03275825, 0.03375825, 0.03375825, 0.034758247, 0.034758247, 0.035758246, 0.036758248, 0.036758248, 0.037758246, 0.037758246, 0.038758244, 0.038758244, 0.039758243, 0.039758243, 0.04075824, 0.041758243, 0.041758243, 0.04275824, 0.04275824, 0.04375824, 0.04375824, 0.044758238, 0.045758236, 0.045758236, 0.04675824, 0.04675824, 0.047758237, 0.048758235, 0.048758235, 0.049758233, 0.049758233, 0.05075823, 0.051758233, 0.051758233, 0.05275823, 0.05275823, 0.053758252, 0.054758254, 0.054758254, 0.055758253, 0.05675825, 0.05675825, 0.05775825, 0.058758248, 0.058758248, 0.05975825, 0.060758248, 0.061758246, 0.061758246, 0.062758245, 0.06375825, 0.06375825, 0.06475824, 0.06575824, 0.06675824, 0.06675824, 0.06775824, 0.06875824, 0.06975824, 0.07075824, 0.07075824, 0.07175823, 0.072758235, 0.07375824, 0.07475823, 0.07575823, 0.07675823, 0.07775823, 0.07775823, 0.078758255, 0.07975825, 0.08075825, 0.08175825, 0.08275825, 0.08375825, 0.084758244, 0.08575825, 0.08675825, 0.088758245, 0.08975824, 0.09075824, 0.091758244, 0.09275824, 0.09375824, 0.09575824, 0.09675824, 0.09775823, 0.098758236, 0.10075823, 0.101758234, 0.10275823, 0.09975823, 0.09575824, 0.091758244, 0.08775824, 0.08375825, 0.01775824, 0.014758243, 0.0117582455, 0.008758249, 0.0057582515, 0.0027582308, 2.4176642E-4, 0.0012417655, 2.4176642E-4, 0.0017582317]
10 [0.16124175, 0.16124175, 0.16124175, 0.16124175, 0.16024175, 0.16024175, 0.16024175, 0.16024175, 0.16024175, 0.16024175, 0.15924175, 0.15924175, 0.15924175, 0.15924175, 0.15924175, 0.15924175, 0.15924175, 0.15824176, 0.15824176, 0.15824176, 0.15824176, 0.15824176, 0.15824176, 0.15824176, 0.15724176, 0.15724176, 0.15724176, 0.15724176, 0.15724176, 0.15724176, 0.15724176, 0.15624176, 0.15624176, 0.15424176, 0.15124176, 0.14924176, 0.14624175, 0.14424177, 0.14124176, 0.13724175, 0.013758244, 0.014758243, 0.014758243, 0.015758242, 0.015758242, 0.01675824, 0.01675824, 0.01775824, 0.042241763, 0.04124176, 0.04124176, 0.04024175, 0.04024175, 0.04024175, 0.039241754, 0.039241754, 0.038241755, 0.038241755, 0.038241755, 0.037241753, 0.021241758, 0.024758233, 0.025758233, 0.025758233, 0.026758231, 0.026758231, 0.027758231, 0.027758231, 0.028758254, 0.029758252, 0.029758252, 0.030758252, 0.030758252, 0.031758253, 0.031758253, 0.03275825, 0.03275825, 0.03375825, 0.03375825, 0.034758247, 0.034758247, 0.035758246, 0.036758248, 0.036758248, 0.037758246, 0.037758246, 0.038758244, 0.038758244, 0.039758243, 0.039758243, 0.04075824, 0.041758243, 0.041758243, 0.04275824, 0.04275824, 0.04375824, 0.04375824, 0.044758238, 0.045758236, 0.045758236, 0.04675824, 0.04675824, 0.047758237, 0.048758235, 0.048758235, 0.049758233, 0.049758233, 0.05075823, 0.051758233, 0.051758233, 0.05275823, 0.05275823, 0.053758252, 0.054758254, 0.054758254, 0.055758253, 0.05675825, 0.05675825, 0.05775825, 0.058758248, 0.058758248, 0.05975825, 0.060758248, 0.061758246, 0.061758246, 0.062758245, 0.06375825, 0.06375825, 0.06475824, 0.06575824, 0.06675824, 0.06675824, 0.06775824, 0.06875824, 0.06975824, 0.07075824, 0.07075824, 0.07175823, 0.072758235, 0.07375824, 0.07475823, 0.07575823, 0.07675823, 0.07775823, 0.07775823, 0.078758255, 0.07975825, 0.08075825, 0.08175825, 0.08275825, 0.08375825, 0.084758244, 0.08575825, 0.08675825, 0.088758245, 0.08975824, 0.09075824, 0.091758244, 0.09275824, 0.09375824, 0.09575824, 0.09675824, 0.09775823, 0.098758236, 0.10075823, 0.101758234, 0.10275823, 0.09975823, 0.09575824, 0.091758244, 0.08775824, 0.08375825, 0.01775824, 0.014758243, 0.0117582455, 0.008758249, 0.0057582515, 0.0027582308, 2.4176642E-4, 0.0012417655, 2.4176642E-4, 0.0017582317]
11 [0.09770879, 0.09770879, 0.0947088, 0.09270879, 0.09070879, 0.08770879, 0.0857088, 0.1507088, 0.1507088, 0.1507088, 0.1497088, 0.1497088, 0.1497088, 0.1497088, 0.1497088, 0.1497088, 0.1497088, 0.1497088, 0.1497088, 0.14870879, 0.14870879, 0.14870879, 0.14870879, 0.14870879, 0.14870879, 0.14870879, 0.14870879, 0.14870879, 0.14770879, 0.14770879, 0.14770879, 0.14770879, 0.14770879, 0.14770879, 0.14770879, 0.14770879, 0.14770879, 0.14770879, 0.14670879, 0.14670879, 0.14670879, 0.1447088, 0.1427088, 0.13970879, 0.1377088, 0.13470879, 0.13170879, 0.1287088, 0.028291205, 0.028291205, 0.029291203, 0.029291203, 0.030291203, 0.030291203, 0.030291203, 0.0312912, 0.029708788, 0.029708788, 0.029708788, 0.029708788, 0.028708788, 0.028708788, 0.028708788, 0.02770879, 0.02770879, 0.02770879, 0.02770879, 0.026708791, 0.026708791, 0.036291197, 0.036291197, 0.03729122, 0.03729122, 0.03829122, 0.03829122, 0.03829122, 0.039291218, 0.039291218, 0.039291218, 0.040291216, 0.040291216, 0.041291215, 0.041291215, 0.041291215, 0.042291217, 0.042291217, 0.042291217, 0.043291215, 0.043291215, 0.044291213, 0.044291213, 0.044291213, 0.04529121, 0.04529121, 0.04629121, 0.04629121, 0.04629121, 0.04729121, 0.04729121, 0.04829121, 0.04829121, 0.04829121, 0.04929121, 0.04929121, 0.050291207, 0.050291207, 0.050291207, 0.051291205, 0.051291205, 0.052291207, 0.052291207, 0.052291207, 0.053291205, 0.053291205, 0.054291204, 0.054291204, 0.055291202, 0.055291202, 0.055291202, 0.0562912, 0.0562912, 0.057291202, 0.057291202, 0.0582912, 0.0582912, 0.0592912, 0.0592912, 0.060291197, 0.060291197, 0.061291195, 0.061291195, 0.06229122, 0.06229122, 0.06329122, 0.06329122, 0.06429122, 0.06429122, 0.06529122, 0.06529122, 0.06629121, 0.06629121, 0.067291215, 0.067291215, 0.06829122, 0.06929121, 0.06929121, 0.07029121, 0.07029121, 0.07129121, 0.07229121, 0.07229121, 0.07329121, 0.07429121, 0.07429121, 0.07529121, 0.0762912, 0.0762912, 0.077291206, 0.07829121, 0.07829121, 0.0792912, 0.080291204, 0.0812912, 0.0812912, 0.0822912, 0.0832912, 0.0842912, 0.0852912, 0.086291194, 0.086291194, 0.08729122, 0.08829122, 0.089291215, 0.09029122, 0.09129122, 0.09229121, 0.08729122, 0.0832912, 0.0792912, 0.07529121, 0.07129121, 0.009291199]
12 [0.010434067, 0.07543407, 0.074434064, 0.074434064, 0.074434064, 0.074434064, 0.074434064, 0.074434064, 0.074434064, 0.07343406, 0.07343406, 0.07343406, 0.07343406, 0.071434066, 0.06943407, 0.06743407, 0.06443406, 0.062434066, 0.13243407, 0.13243407, 0.13243407, 0.13143407, 0.13143407, 0.13143407, 0.13143407, 0.13143407, 0.13143407, 0.13143407, 0.13143407, 0.13143407, 0.13143407, 0.13143407, 0.13143407, 0.13143407, 0.13143407, 0.13143407, 0.13143407, 0.13143407, 0.13143407, 0.13143407, 0.13143407, 0.13143407, 0.13043407, 0.13043407, 0.13043407, 0.13043407, 0.13043407, 0.13043407, 0.13043407, 0.13043407, 0.13043407, 0.13043407, 0.12943406, 0.12743407, 0.12543407, 0.12343407, 0.12043407, 0.11743406, 0.11443407, 0.111434065, 0.050565924, 0.050565924, 0.050565924, 0.050565924, 0.051565923, 0.051565923, 0.051565923, 0.051565923, 0.011434065, 0.011434065, 0.011434065, 0.011434065, 0.010434067, 0.010434067, 0.010434067, 0.010434067, 0.010434067, 0.010434067, 0.010434067, 0.010434067, 0.010434067, 0.053565945, 0.054565944, 0.054565944, 0.054565944, 0.054565944, 0.054565944, 0.054565944, 0.055565942, 0.055565942, 0.055565942, 0.055565942, 0.055565942, 0.055565942, 0.05656594, 0.05656594, 0.05656594, 0.05656594, 0.05656594, 0.05656594, 0.05756594, 0.05756594, 0.05756594, 0.05756594, 0.05756594, 0.05756594, 0.05856594, 0.05856594, 0.05856594, 0.05856594, 0.05856594, 0.05856594, 0.05956594, 0.05956594, 0.05956594, 0.05956594, 0.05956594, 0.05956594, 0.060565937, 0.060565937, 0.060565937, 0.060565937, 0.060565937, 0.061565936, 0.061565936, 0.061565936, 0.061565936, 0.061565936, 0.061565936, 0.06256594, 0.06256594, 0.06256594, 0.06256594, 0.06256594, 0.06356593, 0.06356593, 0.06356593, 0.06356593, 0.06356593, 0.064565934, 0.064565934, 0.064565934, 0.064565934, 0.065565936, 0.065565936, 0.065565936, 0.065565936, 0.065565936, 0.06656593, 0.06656593, 0.06656593, 0.06656593, 0.06756593, 0.06756593, 0.06756593, 0.06756593, 0.06856593, 0.06856593, 0.06856593, 0.06856593, 0.06956593, 0.06956593, 0.06956593, 0.06956593, 0.07056593, 0.07056593, 0.07056593, 0.071565926, 0.071565926, 0.071565926, 0.071565926, 0.07256593, 0.07256593, 0.07256593, 0.07356592, 0.07356592, 0.07356592, 0.074565925, 0.074565925, 0.07556593, 0.07556593, 0.07556593]
13 [0.010434067, 0.07543407, 0.074434064, 0.074434064, 0.074434064, 0.074434064, 0.074434064, 0.074434064, 0.074434064, 0.07343406, 0.07343406, 0.07343406, 0.07343406, 0.071434066, 0.06943407, 0.06743407, 0.06443406, 0.062434066, 0.13243407, 0.13243407, 0.13243407, 0.13143407, 0.13143407, 0.13143407, 0.13143407, 0.13143407, 0.13143407, 0.13143407, 0.13143407, 0.13143407, 0.13143407, 0.13143407, 0.13143407, 0.13143407, 0.13143407, 0.13143407, 0.13143407, 0.13143407, 0.13143407, 0.13143407, 0.13143407, 0.13143407, 0.13043407, 0.13043407, 0.13043407, 0.13043407, 0.13043407, 0.13043407, 0.13043407, 0.13043407, 0.13043407, 0.13043407, 0.12943406, 0.12743407, 0.12543407, 0.12343407, 0.12043407, 0.11743406, 0.11443407, 0.111434065, 0.050565924, 0.050565924, 0.050565924, 0.050565924, 0.051565923, 0.051565923, 0.051565923, 0.051565923, 0.011434065, 0.011434065, 0.011434065, 0.011434065, 0.010434067, 0.010434067, 0.010434067, 0.010434067, 0.010434067, 0.010434067, 0.010434067, 0.010434067, 0.010434067, 0.053565945, 0.054565944, 0.054565944, 0.054565944, 0.054565944, 0.054565944, 0.054565944, 0.055565942, 0.055565942, 0.055565942, 0.055565942, 0.055565942, 0.055565942, 0.05656594, 0.05656594, 0.05656594, 0.05656594, 0.05656594, 0.05656594, 0.05756594, 0.05756594, 0.05756594, 0.05756594, 0.05756594, 0.05756594, 0.05856594, 0.05856594, 0.05856594, 0.05856594, 0.05856594, 0.05856594, 0.05956594, 0.05956594, 0.05956594, 0.05956594, 0.05956594, 0.05956594, 0.060565937, 0.060565937, 0.060565937, 0.060565937, 0.060565937, 0.061565936, 0.061565936, 0.061565936, 0.061565936, 0.061565936, 0.061565936, 0.06256594, 0.06256594, 0.06256594, 0.06256594, 0.06256594, 0.06356593, 0.06356593, 0.06356593, 0.06356593, 0.06356593, 0.064565934, 0.064565934, 0.064565934, 0.064565934, 0.065565936, 0.065565936, 0.065565936, 0.065565936, 0.065565936, 0.06656593, 0.06656593, 0.06656593, 0.06656593, 0.06756593, 0.06756593, 0.06756593, 0.06756593, 0.06856593, 0.06856593, 0.06856593, 0.06856593, 0.06956593, 0.06956593, 0.06956593, 0.06956593, 0.07056593, 0.07056593, 0.07056593, 0.071565926, 0.071565926, 0.071565926, 0.071565926, 0.07256593, 0.07256593, 0.07256593, 0.07356592, 0.07356592, 0.07356592, 0.074565925, 0.074565925, 0.07556593, 0.07556593, 0.07556593]
14 [0.017681321, 0.014681324, 0.011681328, 0.008681319, 0.0056813215, 0.0026813243, 3.1867283E-4, 0.00331867, 0.006318679, 0.010318675, 0.05968133, 0.05968133, 0.05968133, 0.05968133, 0.05968133, 0.05968133, 0.05968133, 0.05968133, 0.05968133, 0.05968133, 0.05968133, 0.05968133, 0.05768132, 0.05568132, 0.053681325, 0.050681327, 0.04868133, 0.12268132, 0.12268132, 0.12268132, 0.12268132, 0.12268132, 0.12268132, 0.12268132, 0.12268132, 0.12268132, 0.12268132, 0.12268132, 0.12268132, 0.12268132, 0.12268132, 0.12268132, 0.12268132, 0.12268132, 0.12268132, 0.12268132, 0.12268132, 0.12268132, 0.12268132, 0.12268132, 0.12268132, 0.12268132, 0.12268132, 0.12268132, 0.12268132, 0.12268132, 0.12268132, 0.12268132, 0.12268132, 0.12268132, 0.12268132, 0.121681325, 0.11968133, 0.117681324, 0.11568132, 0.11268133, 0.110681325, 0.10768133, 0.10468132, 0.062318686, 0.062318686, 0.062318686, 0.062318686, 0.062318686, 0.062318686, 0.062318686, 0.062318686, 0.0026813243, 0.0026813243, 0.0026813243, 0.0026813243, 0.0026813243, 0.0026813243, 0.0026813243, 0.0026813243, 0.0026813243, 0.0026813243, 0.0026813243, 0.0026813243, 0.0026813243, 0.061318684, 0.061318684, 0.061318684, 0.061318684, 0.061318684, 0.061318684, 0.061318684, 0.061318684, 0.061318684, 0.061318684, 0.061318684, 0.061318684, 0.061318684, 0.061318684, 0.061318684, 0.061318684, 0.061318684, 0.061318684, 0.061318684, 0.061318684, 0.061318684, 0.061318684, 0.061318684, 0.061318684, 0.061318684, 0.061318684, 0.061318684, 0.061318684, 0.061318684, 0.061318684, 0.061318684, 0.061318684, 0.061318684, 0.061318684, 0.061318684, 0.061318684, 0.061318684, 0.061318684, 0.061318684, 0.061318684, 0.061318684, 0.061318684, 0.061318684, 0.061318684, 0.061318684, 0.061318684, 0.061318684, 0.061318684, 0.061318684, 0.061318684, 0.061318684, 0.061318684, 0.061318684, 0.061318684, 0.061318684, 0.061318684, 0.061318684, 0.061318684, 0.061318684, 0.061318684, 0.061318684, 0.061318684, 0.061318684, 0.061318684, 0.061318684, 0.061318684, 0.061318684, 0.061318684, 0.061318684, 0.061318684, 0.061318684, 0.061318684, 0.061318684, 0.061318684, 0.061318684, 0.061318684, 0.061318684, 0.061318684, 0.061318684, 0.061318684, 0.061318684, 0.061318684, 0.061318684, 0.061318684, 0.061318684, 0.061318684, 0.061318684, 0.061318684, 0.061318684, 0.061318684, 0.061318684, 0.061318684]
15 [0.017681321, 0.014681324, 0.011681328, 0.008681319, 0.0056813215, 0.0026813243, 3.1867283E-4, 0.00331867, 0.006318679, 0.010318675, 0.05968133, 0.05968133, 0.05968133, 0.05968133, 0.05968133, 0.05968133, 0.05968133, 0.05968133, 0.05968133, 0.05968133, 0.05968133, 0.05968133, 0.05768132, 0.05568132, 0.053681325, 0.050681327, 0.04868133, 0.12268132, 0.12268132, 0.12268132, 0.12268132, 0.12268132, 0.12268132, 0.12268132, 0.12268132, 0.12268132, 0.12268132, 0.12268132, 0.12268132, 0.12268132, 0.12268132, 0.12268132, 0.12268132, 0.12268132, 0.12268132, 0.12268132, 0.12268132, 0.12268132, 0.12268132, 0.12268132, 0.12268132, 0.12268132, 0.12268132, 0.12268132, 0.12268132, 0.12268132, 0.12268132, 0.12268132, 0.12268132, 0.12268132, 0.12268132, 0.121681325, 0.11968133, 0.117681324, 0.11568132, 0.11268133, 0.110681325, 0.10768133, 0.10468132, 0.062318686, 0.062318686, 0.062318686, 0.062318686, 0.062318686, 0.062318686, 0.062318686, 0.062318686, 0.0026813243, 0.0026813243, 0.0026813243, 0.0026813243, 0.0026813243, 0.0026813243, 0.0026813243, 0.0026813243, 0.0026813243, 0.0026813243, 0.0026813243, 0.0026813243, 0.0026813243, 0.061318684, 0.061318684, 0.061318684, 0.061318684, 0.061318684, 0.061318684, 0.061318684, 0.061318684, 0.061318684, 0.061318684, 0.061318684, 0.061318684, 0.061318684, 0.061318684, 0.061318684, 0.061318684, 0.061318684, 0.061318684, 0.061318684, 0.061318684, 0.061318684, 0.061318684, 0.061318684, 0.061318684, 0.061318684, 0.061318684, 0.061318684, 0.061318684, 0.061318684, 0.061318684, 0.061318684, 0.061318684, 0.061318684, 0.061318684, 0.061318684, 0.061318684, 0.061318684, 0.061318684, 0.061318684, 0.061318684, 0.061318684, 0.061318684, 0.061318684, 0.061318684, 0.061318684, 0.061318684, 0.061318684, 0.061318684, 0.061318684, 0.061318684, 0.061318684, 0.061318684, 0.061318684, 0.061318684, 0.061318684, 0.061318684, 0.061318684, 0.061318684, 0.061318684, 0.061318684, 0.061318684, 0.061318684, 0.061318684, 0.061318684, 0.061318684, 0.061318684, 0.061318684, 0.061318684, 0.061318684, 0.061318684, 0.061318684, 0.061318684, 0.061318684, 0.061318684, 0.061318684, 0.061318684, 0.061318684, 0.061318684, 0.061318684, 0.061318684, 0.061318684, 0.061318684, 0.061318684, 0.061318684, 0.061318684, 0.061318684, 0.061318684, 0.061318684, 0.061318684, 0.061318684, 0.061318684, 0.061318684]
16 [0.01952198, 0.017521981, 0.014521973, 0.0115219755, 0.009521978, 0.0065219807, 0.0035219714, 5.219743E-4, 0.0024780228, 0.00547802, 0.008478029, 0.011478026, 0.014478023, 0.01747802, 0.05152197, 0.05152197, 0.05152197, 0.052521974, 0.052521974, 0.052521974, 0.052521974, 0.052521974, 0.052521974, 0.052521974, 0.052521974, 0.052521974, 0.052521974, 0.050521974, 0.048521977, 0.046521977, 0.04352198, 0.04152197, 0.11752198, 0.11752198, 0.11752198, 0.11752198, 0.11752198, 0.11752198, 0.11752198, 0.11752198, 0.11752198, 0.11752198, 0.11752198, 0.11752198, 0.11752198, 0.11752198, 0.11752198, 0.11752198, 0.11752198, 0.11752198, 0.11752198, 0.11752198, 0.11752198, 0.11752198, 0.11752198, 0.11752198, 0.11752198, 0.11752198, 0.11852197, 0.11852197, 0.11852197, 0.11852197, 0.11852197, 0.11852197, 0.11852197, 0.11852197, 0.11852197, 0.11652198, 0.11352197, 0.111521974, 0.10952198, 0.10652197, 0.10352198, 0.100521974, 0.06747803, 0.06747803, 0.06647804, 0.06647804, 0.06647804, 0.06647804, 0.06647804, 0.06647804, 0.0014780238, 0.0014780238, 0.0014780238, 0.0014780238, 0.0014780238, 0.0014780238, 0.0014780238, 0.0014780238, 0.0014780238, 0.0014780238, 0.0014780238, 0.0014780238, 0.0014780238, 0.065478034, 0.06447803, 0.06447803, 0.06447803, 0.06447803, 0.06447803, 0.06447803, 0.06447803, 0.06447803, 0.06447803, 0.06447803, 0.06447803, 0.063478015, 0.063478015, 0.063478015, 0.063478015, 0.063478015, 0.063478015, 0.063478015, 0.063478015, 0.063478015, 0.063478015, 0.062478013, 0.062478013, 0.062478013, 0.062478013, 0.062478013, 0.062478013, 0.062478013, 0.062478013, 0.062478013, 0.062478013, 0.061478015, 0.061478015, 0.061478015, 0.061478015, 0.061478015, 0.061478015, 0.061478015, 0.061478015, 0.061478015, 0.061478015, 0.060478017, 0.060478017, 0.060478017, 0.060478017, 0.060478017, 0.060478017, 0.060478017, 0.060478017, 0.059478015, 0.059478015, 0.059478015, 0.059478015, 0.059478015, 0.059478015, 0.059478015, 0.059478015, 0.059478015, 0.058478016, 0.058478016, 0.058478016, 0.058478016, 0.058478016, 0.058478016, 0.058478016, 0.058478016, 0.057478018, 0.057478018, 0.057478018, 0.057478018, 0.057478018, 0.057478018, 0.057478018, 0.05647802, 0.05647802, 0.05647802, 0.05647802, 0.05647802, 0.05647802, 0.05547802, 0.05547802, 0.05547802, 0.05547802, 0.05547802, 0.05547802, 0.05447802]
17 [0.021016482, 0.018016485, 0.016016487, 0.013016478, 0.010016481, 0.008016483, 0.0050164857, 0.0020164768, 9.835203E-4, 0.0029835184, 0.0059835156, 0.008983512, 0.011983521, 0.014983519, 0.018983515, 0.021983525, 0.04901648, 0.04901648, 0.04901648, 0.04901648, 0.04901648, 0.050016478, 0.050016478, 0.050016478, 0.050016478, 0.050016478, 0.050016478, 0.050016478, 0.050016478, 0.04801648, 0.04601648, 0.043016486, 0.041016486, 0.03801648, 0.116016485, 0.116016485, 0.116016485, 0.116016485, 0.116016485, 0.116016485, 0.116016485, 0.116016485, 0.116016485, 0.116016485, 0.116016485, 0.116016485, 0.116016485, 0.116016485, 0.116016485, 0.116016485, 0.116016485, 0.116016485, 0.116016485, 0.116016485, 0.116016485, 0.116016485, 0.116016485, 0.116016485, 0.116016485, 0.116016485, 0.11701648, 0.11701648, 0.11701648, 0.11701648, 0.11701648, 0.11701648, 0.11701648, 0.11701648, 0.11701648, 0.11501648, 0.113016486, 0.11001648, 0.10801648, 0.10501648, 0.102016486, 0.09901648, 0.068983525, 0.068983525, 0.068983525, 0.06798353, 0.06798353, 0.06798353, 0.06798353, 0.06798353, 0.0029835184, 0.0029835184, 0.0029835184, 0.0029835184, 0.0029835184, 0.0029835184, 0.0029835184, 0.0029835184, 0.0029835184, 0.0029835184, 0.0019835194, 0.0019835194, 0.0019835194, 0.06598353, 0.06598353, 0.06598353, 0.06598353, 0.06598353, 0.06498351, 0.06498351, 0.06498351, 0.06498351, 0.06498351, 0.06498351, 0.06498351, 0.06498351, 0.06398351, 0.06398351, 0.06398351, 0.06398351, 0.06398351, 0.06398351, 0.06398351, 0.062983505, 0.062983505, 0.062983505, 0.062983505, 0.062983505, 0.062983505, 0.062983505, 0.062983505, 0.06198351, 0.06198351, 0.06198351, 0.06198351, 0.06198351, 0.06198351, 0.06198351, 0.060983513, 0.060983513, 0.060983513, 0.060983513, 0.060983513, 0.060983513, 0.060983513, 0.05998351, 0.05998351, 0.05998351, 0.05998351, 0.05998351, 0.05998351, 0.058983512, 0.058983512, 0.058983512, 0.058983512, 0.058983512, 0.058983512, 0.058983512, 0.057983514, 0.057983514, 0.057983514, 0.057983514, 0.057983514, 0.057983514, 0.056983516, 0.056983516, 0.056983516, 0.056983516, 0.056983516, 0.055983517, 0.055983517, 0.055983517, 0.055983517, 0.055983517, 0.055983517, 0.054983515, 0.054983515, 0.054983515, 0.054983515, 0.054983515, 0.053983517, 0.053983517, 0.053983517, 0.053983517, 0.05298352, 0.05298352, 0.05298352, 0.05298352]
18 [0.021016482, 0.018016485, 0.016016487, 0.013016478, 0.010016481, 0.008016483, 0.0050164857, 0.0020164768, 9.835203E-4, 0.0029835184, 0.0059835156, 0.008983512, 0.011983521, 0.014983519, 0.018983515, 0.021983525, 0.04901648, 0.04901648, 0.04901648, 0.04901648, 0.04901648, 0.050016478, 0.050016478, 0.050016478, 0.050016478, 0.050016478, 0.050016478, 0.050016478, 0.050016478, 0.04801648, 0.04601648, 0.043016486, 0.041016486, 0.03801648, 0.116016485, 0.116016485, 0.116016485, 0.116016485, 0.116016485, 0.116016485, 0.116016485, 0.116016485, 0.116016485, 0.116016485, 0.116016485, 0.116016485, 0.116016485, 0.116016485, 0.116016485, 0.116016485, 0.116016485, 0.116016485, 0.116016485, 0.116016485, 0.116016485, 0.116016485, 0.116016485, 0.116016485, 0.116016485, 0.116016485, 0.11701648, 0.11701648, 0.11701648, 0.11701648, 0.11701648, 0.11701648, 0.11701648, 0.11701648, 0.11701648, 0.11501648, 0.113016486, 0.11001648, 0.10801648, 0.10501648, 0.102016486, 0.09901648, 0.068983525, 0.068983525, 0.068983525, 0.06798353, 0.06798353, 0.06798353, 0.06798353, 0.06798353, 0.0029835184, 0.0029835184, 0.0029835184, 0.0029835184, 0.0029835184, 0.0029835184, 0.0029835184, 0.0029835184, 0.0029835184, 0.0029835184, 0.0019835194, 0.0019835194, 0.0019835194, 0.06598353, 0.06598353, 0.06598353, 0.06598353, 0.06598353, 0.06498351, 0.06498351, 0.06498351, 0.06498351, 0.06498351, 0.06498351, 0.06498351, 0.06498351, 0.06398351, 0.06398351, 0.06398351, 0.06398351, 0.06398351, 0.06398351, 0.06398351, 0.062983505, 0.062983505, 0.062983505, 0.062983505, 0.062983505, 0.062983505, 0.062983505, 0.062983505, 0.06198351, 0.06198351, 0.06198351, 0.06198351, 0.06198351, 0.06198351, 0.06198351, 0.060983513, 0.060983513, 0.060983513, 0.060983513, 0.060983513, 0.060983513, 0.060983513, 0.05998351, 0.05998351, 0.05998351, 0.05998351, 0.05998351, 0.05998351, 0.058983512, 0.058983512, 0.058983512, 0.058983512, 0.058983512, 0.058983512, 0.058983512, 0.057983514, 0.057983514, 0.057983514, 0.057983514, 0.057983514, 0.057983514, 0.056983516, 0.056983516, 0.056983516, 0.056983516, 0.056983516, 0.055983517, 0.055983517, 0.055983517, 0.055983517, 0.055983517, 0.055983517, 0.054983515, 0.054983515, 0.054983515, 0.054983515, 0.054983515, 0.053983517, 0.053983517, 0.053983517, 0.053983517, 0.05298352, 0.05298352, 0.05298352, 0.05298352]
19 [0.02097802, 0.017978024, 0.015978025, 0.012978016, 0.00997802, 0.007978021, 0.0049780244, 0.0019780153, 2.1982749E-5, 0.00302198, 0.006021977, 0.009021974, 0.012021983, 0.015021981, 0.018021977, 0.022021985, 0.04897802, 0.04897802, 0.04897802, 0.04897802, 0.04897802, 0.04897802, 0.049978018, 0.049978018, 0.049978018, 0.049978018, 0.049978018, 0.049978018, 0.049978018, 0.047978017, 0.04597802, 0.042978022, 0.040978026, 0.038978014, 0.11597802, 0.11597802, 0.11597802, 0.11597802, 0.11597802, 0.11597802, 0.11597802, 0.11597802, 0.11597802, 0.11597802, 0.11597802, 0.11597802, 0.11597802, 0.11597802, 0.11597802, 0.11597802, 0.11597802, 0.11597802, 0.11597802, 0.11597802, 0.11597802, 0.11597802, 0.11597802, 0.11597802, 0.11597802, 0.11597802, 0.11697802, 0.11697802, 0.11697802, 0.11697802, 0.11697802, 0.11697802, 0.11697802, 0.11697802, 0.11697802, 0.11497802, 0.112978026, 0.10997802, 0.10797802, 0.10497802, 0.10297802, 0.099978015, 0.069021985, 0.069021985, 0.069021985, 0.069021985, 0.06802199, 0.06802199, 0.06802199, 0.06802199, 0.00302198, 0.00302198, 0.00302198, 0.00302198, 0.00302198, 0.00302198, 0.00302198, 0.00302198, 0.00302198, 0.00302198, 0.002021981, 0.002021981, 0.002021981, 0.066021994, 0.066021994, 0.066021994, 0.066021994, 0.066021994, 0.06502197, 0.06502197, 0.06502197, 0.06502197, 0.06502197, 0.06502197, 0.06502197, 0.06502197, 0.06402197, 0.06402197, 0.06402197, 0.06402197, 0.06402197, 0.06402197, 0.06402197, 0.06302197, 0.06302197, 0.06302197, 0.06302197, 0.06302197, 0.06302197, 0.06302197, 0.06302197, 0.06202197, 0.06202197, 0.06202197, 0.06202197, 0.06202197, 0.06202197, 0.06202197, 0.061021972, 0.061021972, 0.061021972, 0.061021972, 0.061021972, 0.061021972, 0.061021972, 0.060021974, 0.060021974, 0.060021974, 0.060021974, 0.060021974, 0.060021974, 0.059021976, 0.059021976, 0.059021976, 0.059021976, 0.059021976, 0.059021976, 0.058021974, 0.058021974, 0.058021974, 0.058021974, 0.058021974, 0.058021974, 0.057021976, 0.057021976, 0.057021976, 0.057021976, 0.057021976, 0.057021976, 0.056021977, 0.056021977, 0.056021977, 0.056021977, 0.056021977, 0.05502198, 0.05502198, 0.05502198, 0.05502198, 0.05502198, 0.05402198, 0.05402198, 0.05402198, 0.05402198, 0.05402198, 0.05302198, 0.05302198, 0.05302198, 0.05302198]
20 [0.02097802, 0.017978024, 0.015978025, 0.012978016, 0.00997802, 0.007978021, 0.0049780244, 0.0019780153, 2.1982749E-5, 0.00302198, 0.006021977, 0.009021974, 0.012021983, 0.015021981, 0.018021977, 0.022021985, 0.04897802, 0.04897802, 0.04897802, 0.04897802, 0.04897802, 0.04897802, 0.049978018, 0.049978018, 0.049978018, 0.049978018, 0.049978018, 0.049978018, 0.049978018, 0.047978017, 0.04597802, 0.042978022, 0.040978026, 0.038978014, 0.11597802, 0.11597802, 0.11597802, 0.11597802, 0.11597802, 0.11597802, 0.11597802, 0.11597802, 0.11597802, 0.11597802, 0.11597802, 0.11597802, 0.11597802, 0.11597802, 0.11597802, 0.11597802, 0.11597802, 0.11597802, 0.11597802, 0.11597802, 0.11597802, 0.11597802, 0.11597802, 0.11597802, 0.11597802, 0.11597802, 0.11697802, 0.11697802, 0.11697802, 0.11697802, 0.11697802, 0.11697802, 0.11697802, 0.11697802, 0.11697802, 0.11497802, 0.112978026, 0.10997802, 0.10797802, 0.10497802, 0.10297802, 0.099978015, 0.069021985, 0.069021985, 0.069021985, 0.069021985, 0.06802199, 0.06802199, 0.06802199, 0.06802199, 0.00302198, 0.00302198, 0.00302198, 0.00302198, 0.00302198, 0.00302198, 0.00302198, 0.00302198, 0.00302198, 0.00302198, 0.002021981, 0.002021981, 0.002021981, 0.066021994, 0.066021994, 0.066021994, 0.066021994, 0.066021994, 0.06502197, 0.06502197, 0.06502197, 0.06502197, 0.06502197, 0.06502197, 0.06502197, 0.06502197, 0.06402197, 0.06402197, 0.06402197, 0.06402197, 0.06402197, 0.06402197, 0.06402197, 0.06302197, 0.06302197, 0.06302197, 0.06302197, 0.06302197, 0.06302197, 0.06302197, 0.06302197, 0.06202197, 0.06202197, 0.06202197, 0.06202197, 0.06202197, 0.06202197, 0.06202197, 0.061021972, 0.061021972, 0.061021972, 0.061021972, 0.061021972, 0.061021972, 0.061021972, 0.060021974, 0.060021974, 0.060021974, 0.060021974, 0.060021974, 0.060021974, 0.059021976, 0.059021976, 0.059021976, 0.059021976, 0.059021976, 0.059021976, 0.058021974, 0.058021974, 0.058021974, 0.058021974, 0.058021974, 0.058021974, 0.057021976, 0.057021976, 0.057021976, 0.057021976, 0.057021976, 0.057021976, 0.056021977, 0.056021977, 0.056021977, 0.056021977, 0.056021977, 0.05502198, 0.05502198, 0.05502198, 0.05502198, 0.05502198, 0.05402198, 0.05402198, 0.05402198, 0.05402198, 0.05402198, 0.05302198, 0.05302198, 0.05302198, 0.05302198]
21 [0.02097802, 0.017978024, 0.015978025, 0.012978016, 0.00997802, 0.007978021, 0.0049780244, 0.0019780153, 2.1982749E-5, 0.00302198, 0.006021977, 0.009021974, 0.012021983, 0.015021981, 0.018021977, 0.022021985, 0.04897802, 0.04897802, 0.04897802, 0.04897802, 0.04897802, 0.04897802, 0.049978018, 0.049978018, 0.049978018, 0.049978018, 0.049978018, 0.049978018, 0.049978018, 0.047978017, 0.04597802, 0.042978022, 0.040978026, 0.038978014, 0.11597802, 0.11597802, 0.11597802, 0.11597802, 0.11597802, 0.11597802, 0.11597802, 0.11597802, 0.11597802, 0.11597802, 0.11597802, 0.11597802, 0.11597802, 0.11597802, 0.11597802, 0.11597802, 0.11597802, 0.11597802, 0.11597802, 0.11597802, 0.11597802, 0.11597802, 0.11597802, 0.11597802, 0.11597802, 0.11597802, 0.11697802, 0.11697802, 0.11697802, 0.11697802, 0.11697802, 0.11697802, 0.11697802, 0.11697802, 0.11697802, 0.11497802, 0.112978026, 0.10997802, 0.10797802, 0.10497802, 0.10297802, 0.099978015, 0.069021985, 0.069021985, 0.069021985, 0.069021985, 0.06802199, 0.06802199, 0.06802199, 0.06802199, 0.00302198, 0.00302198, 0.00302198, 0.00302198, 0.00302198, 0.00302198, 0.00302198, 0.00302198, 0.00302198, 0.00302198, 0.002021981, 0.002021981, 0.002021981, 0.066021994, 0.066021994, 0.066021994, 0.066021994, 0.066021994, 0.06502197, 0.06502197, 0.06502197, 0.06502197, 0.06502197, 0.06502197, 0.06502197, 0.06502197, 0.06402197, 0.06402197, 0.06402197, 0.06402197, 0.06402197, 0.06402197, 0.06402197, 0.06302197, 0.06302197, 0.06302197, 0.06302197, 0.06302197, 0.06302197, 0.06302197, 0.06302197, 0.06202197, 0.06202197, 0.06202197, 0.06202197, 0.06202197, 0.06202197, 0.06202197, 0.061021972, 0.061021972, 0.061021972, 0.061021972, 0.061021972, 0.061021972, 0.061021972, 0.060021974, 0.060021974, 0.060021974, 0.060021974, 0.060021974, 0.060021974, 0.059021976, 0.059021976, 0.059021976, 0.059021976, 0.059021976, 0.059021976, 0.058021974, 0.058021974, 0.058021974, 0.058021974, 0.058021974, 0.058021974, 0.057021976, 0.057021976, 0.057021976, 0.057021976, 0.057021976, 0.057021976, 0.056021977, 0.056021977, 0.056021977, 0.056021977, 0.056021977, 0.05502198, 0.05502198, 0.05502198, 0.05502198, 0.05502198, 0.05402198, 0.05402198, 0.05402198, 0.05402198, 0.05402198, 0.05302198, 0.05302198, 0.05302198, 0.05302198]
22 [0.020972526, 0.017972529, 0.01597253, 0.0129725225, 0.009972525, 0.007972527, 0.00497253, 0.001972521, 2.747725E-5, 0.0030274743, 0.0060274717, 0.009027469, 0.012027478, 0.015027475, 0.018027471, 0.02202748, 0.048972525, 0.048972525, 0.048972525, 0.048972525, 0.048972525, 0.048972525, 0.049972523, 0.049972523, 0.049972523, 0.049972523, 0.049972523, 0.049972523, 0.049972523, 0.047972526, 0.045972526, 0.04297253, 0.04097253, 0.038972523, 0.11597253, 0.11597253, 0.11597253, 0.11597253, 0.11597253, 0.11597253, 0.11597253, 0.11597253, 0.11597253, 0.11597253, 0.11597253, 0.11597253, 0.11597253, 0.11597253, 0.11597253, 0.11597253, 0.11597253, 0.11597253, 0.11597253, 0.11597253, 0.11597253, 0.11597253, 0.11597253, 0.11597253, 0.11597253, 0.11597253, 0.11697252, 0.11697252, 0.11697252, 0.11697252, 0.11697252, 0.11697252, 0.11697252, 0.11697252, 0.11697252, 0.114972524, 0.11297253, 0.10997252, 0.107972525, 0.10497253, 0.10297252, 0.099972524, 0.06902748, 0.06902748, 0.06902748, 0.06902748, 0.06802748, 0.06802748, 0.06802748, 0.06802748, 0.0030274743, 0.0030274743, 0.0030274743, 0.0030274743, 0.0030274743, 0.0030274743, 0.0030274743, 0.0030274743, 0.0030274743, 0.0030274743, 0.0020274753, 0.0020274753, 0.0020274753, 0.066027485, 0.066027485, 0.066027485, 0.066027485, 0.066027485, 0.06502746, 0.06502746, 0.06502746, 0.06502746, 0.06502746, 0.06502746, 0.06502746, 0.06502746, 0.064027466, 0.064027466, 0.064027466, 0.064027466, 0.064027466, 0.064027466, 0.064027466, 0.063027464, 0.063027464, 0.063027464, 0.063027464, 0.063027464, 0.063027464, 0.063027464, 0.063027464, 0.062027466, 0.062027466, 0.062027466, 0.062027466, 0.062027466, 0.062027466, 0.062027466, 0.061027467, 0.061027467, 0.061027467, 0.061027467, 0.061027467, 0.061027467, 0.06002747, 0.06002747, 0.06002747, 0.06002747, 0.06002747, 0.06002747, 0.06002747, 0.059027467, 0.059027467, 0.059027467, 0.059027467, 0.059027467, 0.059027467, 0.05802747, 0.05802747, 0.05802747, 0.05802747, 0.05802747, 0.05802747, 0.05702747, 0.05702747, 0.05702747, 0.05702747, 0.05702747, 0.05702747, 0.056027472, 0.056027472, 0.056027472, 0.056027472, 0.056027472, 0.055027474, 0.055027474, 0.055027474, 0.055027474, 0.055027474, 0.05402747, 0.05402747, 0.05402747, 0.05402747, 0.05402747, 0.053027473, 0.053027473, 0.053027473, 0.053027473]
23 [0.020972526, 0.017972529, 0.01597253, 0.0129725225, 0.009972525, 0.007972527, 0.00497253, 0.001972521, 2.747725E-5, 0.0030274743, 0.0060274717, 0.009027469, 0.012027478, 0.015027475, 0.018027471, 0.02202748, 0.048972525, 0.048972525, 0.048972525, 0.048972525, 0.048972525, 0.048972525, 0.049972523, 0.049972523, 0.049972523, 0.049972523, 0.049972523, 0.049972523, 0.049972523, 0.047972526, 0.045972526, 0.04297253, 0.04097253, 0.038972523, 0.11597253, 0.11597253, 0.11597253, 0.11597253, 0.11597253, 0.11597253, 0.11597253, 0.11597253, 0.11597253, 0.11597253, 0.11597253, 0.11597253, 0.11597253, 0.11597253, 0.11597253, 0.11597253, 0.11597253, 0.11597253, 0.11597253, 0.11597253, 0.11597253, 0.11597253, 0.11597253, 0.11597253, 0.11597253, 0.11597253, 0.11697252, 0.11697252, 0.11697252, 0.11697252, 0.11697252, 0.11697252, 0.11697252, 0.11697252, 0.11697252, 0.114972524, 0.11297253, 0.10997252, 0.107972525, 0.10497253, 0.10297252, 0.099972524, 0.06902748, 0.06902748, 0.06902748, 0.06902748, 0.06802748, 0.06802748, 0.06802748, 0.06802748, 0.0030274743, 0.0030274743, 0.0030274743, 0.0030274743, 0.0030274743, 0.0030274743, 0.0030274743, 0.0030274743, 0.0030274743, 0.0030274743, 0.0020274753, 0.0020274753, 0.0020274753, 0.066027485, 0.066027485, 0.066027485, 0.066027485, 0.066027485, 0.06502746, 0.06502746, 0.06502746, 0.06502746, 0.06502746, 0.06502746, 0.06502746, 0.06502746, 0.064027466, 0.064027466, 0.064027466, 0.064027466, 0.064027466, 0.064027466, 0.064027466, 0.063027464, 0.063027464, 0.063027464, 0.063027464, 0.063027464, 0.063027464, 0.063027464, 0.063027464, 0.062027466, 0.062027466, 0.062027466, 0.062027466, 0.062027466, 0.062027466, 0.062027466, 0.061027467, 0.061027467, 0.061027467, 0.061027467, 0.061027467, 0.061027467, 0.06002747, 0.06002747, 0.06002747, 0.06002747, 0.06002747, 0.06002747, 0.06002747, 0.059027467, 0.059027467, 0.059027467, 0.059027467, 0.059027467, 0.059027467, 0.05802747, 0.05802747, 0.05802747, 0.05802747, 0.05802747, 0.05802747, 0.05702747, 0.05702747, 0.05702747, 0.05702747, 0.05702747, 0.05702747, 0.056027472, 0.056027472, 0.056027472, 0.056027472, 0.056027472, 0.055027474, 0.055027474, 0.055027474, 0.055027474, 0.055027474, 0.05402747, 0.05402747, 0.05402747, 0.05402747, 0.05402747, 0.053027473, 0.053027473, 0.053027473, 0.053027473]
24 [0.020115383, 0.018115385, 0.015115388, 0.013115378, 0.01011538, 0.008115383, 0.005115385, 0.0021153882, 8.846209E-4, 0.002884619, 0.005884616, 0.008884613, 0.011884622, 0.014884619, 0.017884616, 0.020884614, 0.023884622, 0.02788462, 0.046115384, 0.046115384, 0.04711538, 0.04711538, 0.04711538, 0.04711538, 0.04711538, 0.04711538, 0.04711538, 0.04711538, 0.04811538, 0.04811538, 0.046115384, 0.044115383, 0.04111539, 0.039115388, 0.03611538, 0.11411538, 0.11411538, 0.11411538, 0.11411538, 0.11411538, 0.11411538, 0.11411538, 0.11411538, 0.11411538, 0.11411538, 0.11411538, 0.11411538, 0.11411538, 0.11411538, 0.11411538, 0.11411538, 0.11411538, 0.11411538, 0.11411538, 0.11411538, 0.11411538, 0.11411538, 0.11411538, 0.11511538, 0.11511538, 0.11511538, 0.11511538, 0.11511538, 0.11511538, 0.11511538, 0.11511538, 0.11511538, 0.11511538, 0.11511538, 0.11511538, 0.113115385, 0.11111539, 0.109115385, 0.10711538, 0.10411538, 0.102115385, 0.09911539, 0.095115386, 0.07088462, 0.07088462, 0.07088462, 0.06988463, 0.06988463, 0.06988463, 0.06988463, 0.004884617, 0.004884617, 0.004884617, 0.004884617, 0.004884617, 0.004884617, 0.004884617, 0.003884618, 0.003884618, 0.003884618, 0.003884618, 0.003884618, 0.003884618, 0.003884618, 0.06788463, 0.06688461, 0.06688461, 0.06688461, 0.06688461, 0.06688461, 0.06688461, 0.065884605, 0.065884605, 0.065884605, 0.065884605, 0.065884605, 0.065884605, 0.065884605, 0.06488461, 0.06488461, 0.06488461, 0.06488461, 0.06488461, 0.06488461, 0.06388461, 0.06388461, 0.06388461, 0.06388461, 0.06388461, 0.06388461, 0.06288461, 0.06288461, 0.06288461, 0.06288461, 0.06288461, 0.06288461, 0.06188461, 0.06188461, 0.06188461, 0.06188461, 0.06188461, 0.06188461, 0.06088461, 0.06088461, 0.06088461, 0.06088461, 0.06088461, 0.06088461, 0.05988461, 0.05988461, 0.05988461, 0.05988461, 0.05988461, 0.05988461, 0.058884613, 0.058884613, 0.058884613, 0.058884613, 0.058884613, 0.057884615, 0.057884615, 0.057884615, 0.057884615, 0.057884615, 0.056884617, 0.056884617, 0.056884617, 0.056884617, 0.056884617, 0.055884615, 0.055884615, 0.055884615, 0.055884615, 0.054884616, 0.054884616, 0.054884616, 0.054884616, 0.054884616, 0.053884618, 0.053884618, 0.053884618, 0.053884618, 0.05288462, 0.05288462, 0.05288462, 0.05288462, 0.05188462]
25 [0.020115383, 0.018115385, 0.015115388, 0.013115378, 0.01011538, 0.008115383, 0.005115385, 0.0021153882, 8.846209E-4, 0.002884619, 0.005884616, 0.008884613, 0.011884622, 0.014884619, 0.017884616, 0.020884614, 0.023884622, 0.02788462, 0.046115384, 0.046115384, 0.04711538, 0.04711538, 0.04711538, 0.04711538, 0.04711538, 0.04711538, 0.04711538, 0.04711538, 0.04811538, 0.04811538, 0.046115384, 0.044115383, 0.04111539, 0.039115388, 0.03611538, 0.11411538, 0.11411538, 0.11411538, 0.11411538, 0.11411538, 0.11411538, 0.11411538, 0.11411538, 0.11411538, 0.11411538, 0.11411538, 0.11411538, 0.11411538, 0.11411538, 0.11411538, 0.11411538, 0.11411538, 0.11411538, 0.11411538, 0.11411538, 0.11411538, 0.11411538, 0.11411538, 0.11511538, 0.11511538, 0.11511538, 0.11511538, 0.11511538, 0.11511538, 0.11511538, 0.11511538, 0.11511538, 0.11511538, 0.11511538, 0.11511538, 0.113115385, 0.11111539, 0.109115385, 0.10711538, 0.10411538, 0.102115385, 0.09911539, 0.095115386, 0.07088462, 0.07088462, 0.07088462, 0.06988463, 0.06988463, 0.06988463, 0.06988463, 0.004884617, 0.004884617, 0.004884617, 0.004884617, 0.004884617, 0.004884617, 0.004884617, 0.003884618, 0.003884618, 0.003884618, 0.003884618, 0.003884618, 0.003884618, 0.003884618, 0.06788463, 0.06688461, 0.06688461, 0.06688461, 0.06688461, 0.06688461, 0.06688461, 0.065884605, 0.065884605, 0.065884605, 0.065884605, 0.065884605, 0.065884605, 0.065884605, 0.06488461, 0.06488461, 0.06488461, 0.06488461, 0.06488461, 0.06488461, 0.06388461, 0.06388461, 0.06388461, 0.06388461, 0.06388461, 0.06388461, 0.06288461, 0.06288461, 0.06288461, 0.06288461, 0.06288461, 0.06288461, 0.06188461, 0.06188461, 0.06188461, 0.06188461, 0.06188461, 0.06188461, 0.06088461, 0.06088461, 0.06088461, 0.06088461, 0.06088461, 0.06088461, 0.05988461, 0.05988461, 0.05988461, 0.05988461, 0.05988461, 0.05988461, 0.058884613, 0.058884613, 0.058884613, 0.058884613, 0.058884613, 0.057884615, 0.057884615, 0.057884615, 0.057884615, 0.057884615, 0.056884617, 0.056884617, 0.056884617, 0.056884617, 0.056884617, 0.055884615, 0.055884615, 0.055884615, 0.055884615, 0.054884616, 0.054884616, 0.054884616, 0.054884616, 0.054884616, 0.053884618, 0.053884618, 0.053884618, 0.053884618, 0.05288462, 0.05288462, 0.05288462, 0.05288462, 0.05188462]
26 [0.01953846, 0.017538462, 0.015538463, 0.012538467, 0.010538456, 0.007538459, 0.004538462, 0.0025384638, 4.6154528E-4, 0.0034615425, 0.0054615405, 0.008461538, 0.011461535, 0.014461543, 0.01746154, 0.020461539, 0.023461536, 0.026461544, 0.04453846, 0.04453846, 0.04453846, 0.04453846, 0.04453846, 0.04553846, 0.04553846, 0.04553846, 0.04553846, 0.04553846, 0.04553846, 0.04553846, 0.04553846, 0.04353846, 0.041538462, 0.039538465, 0.037538465, 0.11253846, 0.11253846, 0.11253846, 0.11253846, 0.11253846, 0.11253846, 0.11253846, 0.11253846, 0.11253846, 0.11253846, 0.11253846, 0.11253846, 0.11253846, 0.11253846, 0.11253846, 0.11253846, 0.11353846, 0.11353846, 0.11353846, 0.11353846, 0.11353846, 0.11353846, 0.11353846, 0.11353846, 0.11353846, 0.11353846, 0.11353846, 0.11353846, 0.11353846, 0.11353846, 0.11353846, 0.11353846, 0.11353846, 0.11353846, 0.11353846, 0.11353846, 0.11253846, 0.11053846, 0.108538456, 0.10553846, 0.10353846, 0.10053846, 0.097538464, 0.09453846, 0.072461545, 0.07146155, 0.07146155, 0.07146155, 0.07146155, 0.07146155, 0.07146155, 0.07046155, 0.00646154, 0.00646154, 0.0054615405, 0.0054615405, 0.0054615405, 0.0054615405, 0.0054615405, 0.0054615405, 0.0054615405, 0.0054615405, 0.0044615413, 0.0044615413, 0.0044615413, 0.06846153, 0.06846153, 0.06846153, 0.06746153, 0.06746153, 0.06746153, 0.06746153, 0.06746153, 0.06646153, 0.06646153, 0.06646153, 0.06646153, 0.06646153, 0.06646153, 0.06546153, 0.06546153, 0.06546153, 0.06546153, 0.06546153, 0.06546153, 0.06446153, 0.06446153, 0.06446153, 0.06446153, 0.06446153, 0.063461535, 0.063461535, 0.063461535, 0.063461535, 0.063461535, 0.063461535, 0.062461533, 0.062461533, 0.062461533, 0.062461533, 0.062461533, 0.061461534, 0.061461534, 0.061461534, 0.061461534, 0.061461534, 0.060461536, 0.060461536, 0.060461536, 0.060461536, 0.060461536, 0.059461538, 0.059461538, 0.059461538, 0.059461538, 0.059461538, 0.05846154, 0.05846154, 0.05846154, 0.05846154, 0.05846154, 0.057461537, 0.057461537, 0.057461537, 0.057461537, 0.05646154, 0.05646154, 0.05646154, 0.05646154, 0.05546154, 0.05546154, 0.05546154, 0.05546154, 0.054461543, 0.054461543, 0.054461543, 0.054461543, 0.053461544, 0.053461544, 0.053461544, 0.053461544, 0.052461542, 0.052461542, 0.052461542, 0.052461542, 0.051461544, 0.051461544]
27 [0.020521974, 0.017521976, 0.015521978, 0.0135219805, 0.010521983, 0.008521985, 0.0065219747, 0.0035219777, 0.0015219797, 0.0014780174, 0.0034780155, 0.0064780246, 0.009478021, 0.012478019, 0.014478017, 0.017478026, 0.020478023, 0.02347802, 0.026478017, 0.029478027, 0.032478023, 0.035478022, 0.03852198, 0.03952198, 0.03952198, 0.03952198, 0.03952198, 0.03952198, 0.04052198, 0.04052198, 0.04052198, 0.04052198, 0.04052198, 0.041521978, 0.03952198, 0.03752198, 0.035521984, 0.033521984, 0.108521976, 0.108521976, 0.108521976, 0.10952198, 0.10952198, 0.10952198, 0.10952198, 0.10952198, 0.10952198, 0.10952198, 0.10952198, 0.10952198, 0.10952198, 0.10952198, 0.10952198, 0.10952198, 0.10952198, 0.10952198, 0.11052198, 0.11052198, 0.11052198, 0.11052198, 0.11052198, 0.11052198, 0.11052198, 0.11052198, 0.11052198, 0.11052198, 0.11052198, 0.11052198, 0.11052198, 0.11052198, 0.11052198, 0.11052198, 0.11152198, 0.11152198, 0.11052198, 0.10952198, 0.10752198, 0.104521975, 0.10252198, 0.10052198, 0.097521976, 0.09452198, 0.09152198, 0.07547803, 0.07447803, 0.07447803, 0.07447803, 0.07447803, 0.073478036, 0.073478036, 0.073478036, 0.008478023, 0.008478023, 0.008478023, 0.008478023, 0.008478023, 0.007478024, 0.007478024, 0.007478024, 0.007478024, 0.007478024, 0.007478024, 0.0064780246, 0.0064780246, 0.070478015, 0.06947801, 0.06947801, 0.06947801, 0.06947801, 0.06847801, 0.06847801, 0.06847801, 0.06847801, 0.067478016, 0.067478016, 0.067478016, 0.067478016, 0.066478014, 0.066478014, 0.066478014, 0.066478014, 0.06547802, 0.06547802, 0.06547802, 0.06547802, 0.06447802, 0.06447802, 0.06447802, 0.06447802, 0.063478015, 0.063478015, 0.063478015, 0.063478015, 0.062478017, 0.062478017, 0.062478017, 0.062478017, 0.06147802, 0.06147802, 0.06147802, 0.06147802, 0.06047802, 0.06047802, 0.06047802, 0.059478022, 0.059478022, 0.059478022, 0.059478022, 0.058478024, 0.058478024, 0.058478024, 0.058478024, 0.05747802, 0.05747802, 0.05747802, 0.056478024, 0.056478024, 0.056478024, 0.055478025, 0.055478025, 0.055478025, 0.055478025, 0.054478027, 0.054478027, 0.054478027, 0.05347803, 0.05347803, 0.05347803, 0.052478027, 0.052478027, 0.052478027, 0.05147803, 0.05147803, 0.05147803, 0.05047803, 0.05047803, 0.04947803, 0.04947803, 0.04947803, 0.048478033, 0.048478033, 0.048478033]
28 [0.020521974, 0.017521976, 0.015521978, 0.0135219805, 0.010521983, 0.008521985, 0.0065219747, 0.0035219777, 0.0015219797, 0.0014780174, 0.0034780155, 0.0064780246, 0.009478021, 0.012478019, 0.014478017, 0.017478026, 0.020478023, 0.02347802, 0.026478017, 0.029478027, 0.032478023, 0.035478022, 0.03852198, 0.03952198, 0.03952198, 0.03952198, 0.03952198, 0.03952198, 0.04052198, 0.04052198, 0.04052198, 0.04052198, 0.04052198, 0.041521978, 0.03952198, 0.03752198, 0.035521984, 0.033521984, 0.108521976, 0.108521976, 0.108521976, 0.10952198, 0.10952198, 0.10952198, 0.10952198, 0.10952198, 0.10952198, 0.10952198, 0.10952198, 0.10952198, 0.10952198, 0.10952198, 0.10952198, 0.10952198, 0.10952198, 0.10952198, 0.11052198, 0.11052198, 0.11052198, 0.11052198, 0.11052198, 0.11052198, 0.11052198, 0.11052198, 0.11052198, 0.11052198, 0.11052198, 0.11052198, 0.11052198, 0.11052198, 0.11052198, 0.11052198, 0.11152198, 0.11152198, 0.11052198, 0.10952198, 0.10752198, 0.104521975, 0.10252198, 0.10052198, 0.097521976, 0.09452198, 0.09152198, 0.07547803, 0.07447803, 0.07447803, 0.07447803, 0.07447803, 0.073478036, 0.073478036, 0.073478036, 0.008478023, 0.008478023, 0.008478023, 0.008478023, 0.008478023, 0.007478024, 0.007478024, 0.007478024, 0.007478024, 0.007478024, 0.007478024, 0.0064780246, 0.0064780246, 0.070478015, 0.06947801, 0.06947801, 0.06947801, 0.06947801, 0.06847801, 0.06847801, 0.06847801, 0.06847801, 0.067478016, 0.067478016, 0.067478016, 0.067478016, 0.066478014, 0.066478014, 0.066478014, 0.066478014, 0.06547802, 0.06547802, 0.06547802, 0.06547802, 0.06447802, 0.06447802, 0.06447802, 0.06447802, 0.063478015, 0.063478015, 0.063478015, 0.063478015, 0.062478017, 0.062478017, 0.062478017, 0.062478017, 0.06147802, 0.06147802, 0.06147802, 0.06147802, 0.06047802, 0.06047802, 0.06047802, 0.059478022, 0.059478022, 0.059478022, 0.059478022, 0.058478024, 0.058478024, 0.058478024, 0.058478024, 0.05747802, 0.05747802, 0.05747802, 0.056478024, 0.056478024, 0.056478024, 0.055478025, 0.055478025, 0.055478025, 0.055478025, 0.054478027, 0.054478027, 0.054478027, 0.05347803, 0.05347803, 0.05347803, 0.052478027, 0.052478027, 0.052478027, 0.05147803, 0.05147803, 0.05147803, 0.05047803, 0.05047803, 0.04947803, 0.04947803, 0.04947803, 0.048478033, 0.048478033, 0.048478033]
29 [0.018670332, 0.016670333, 0.014670324, 0.012670325, 0.010670328, 0.00767033, 0.005670332, 0.003670334, 6.7032484E-4, 0.0013296732, 0.0033296715, 0.0063296687, 0.008329666, 0.011329676, 0.013329674, 0.01632967, 0.019329667, 0.021329666, 0.024329675, 0.027329672, 0.030329669, 0.033329666, 0.035329677, 0.038329672, 0.04132967, 0.03267033, 0.03267033, 0.03367033, 0.03367033, 0.03367033, 0.03367033, 0.034670327, 0.034670327, 0.034670327, 0.034670327, 0.03567033, 0.03567033, 0.03567033, 0.03367033, 0.030670332, 0.028670333, 0.10467032, 0.10467032, 0.10467032, 0.10467032, 0.10467032, 0.10567033, 0.10567033, 0.10567033, 0.10567033, 0.10567033, 0.10567033, 0.10567033, 0.10567033, 0.10567033, 0.10567033, 0.10567033, 0.10667033, 0.10667033, 0.10667033, 0.10667033, 0.10667033, 0.10667033, 0.10667033, 0.10667033, 0.10667033, 0.10667033, 0.10667033, 0.10667033, 0.10667033, 0.10767033, 0.10767033, 0.10767033, 0.10767033, 0.10767033, 0.10767033, 0.10767033, 0.10767033, 0.10767033, 0.10567033, 0.10367033, 0.10167033, 0.09967033, 0.097670324, 0.09467033, 0.09267033, 0.08967033, 0.079329684, 0.07832966, 0.07832966, 0.07832966, 0.07732966, 0.07732966, 0.07732966, 0.07632966, 0.011329676, 0.011329676, 0.011329676, 0.011329676, 0.011329676, 0.010329677, 0.010329677, 0.010329677, 0.010329677, 0.009329665, 0.009329665, 0.009329665, 0.009329665, 0.01732967, 0.07232966, 0.07132967, 0.07132967, 0.07132967, 0.070329666, 0.070329666, 0.070329666, 0.06932967, 0.06932967, 0.06932967, 0.06832967, 0.06832967, 0.06832967, 0.06732967, 0.06732967, 0.06732967, 0.06632967, 0.06632967, 0.06632967, 0.06532967, 0.06532967, 0.06532967, 0.06432968, 0.06432968, 0.06432968, 0.063329674, 0.063329674, 0.063329674, 0.062329676, 0.062329676, 0.062329676, 0.061329674, 0.061329674, 0.061329674, 0.060329676, 0.060329676, 0.060329676, 0.059329677, 0.059329677, 0.059329677, 0.05832968, 0.05832968, 0.05832968, 0.05732968, 0.05732968, 0.05732968, 0.05632968, 0.05632968, 0.05532968, 0.05532968, 0.05532968, 0.054329682, 0.054329682, 0.053329658, 0.053329658, 0.053329658, 0.05232966, 0.05232966, 0.05132966, 0.05132966, 0.05132966, 0.050329663, 0.050329663, 0.049329665, 0.049329665, 0.048329663, 0.048329663, 0.048329663, 0.047329664, 0.047329664, 0.046329666, 0.046329666, 0.045329668]
30 [0.015604395, 0.013604398, 0.011604399, 0.00960439, 0.0076043913, 0.0046043945, 0.0026043963, 6.043982E-4, 0.0013955999, 0.004395609, 0.0063956073, 0.008395605, 0.0113956025, 0.0133956, 0.01639561, 0.018395608, 0.021395605, 0.023395604, 0.0263956, 0.029395608, 0.031395607, 0.034395605, 0.0373956, 0.04039561, 0.04339561, 0.029604394, 0.030604394, 0.030604394, 0.030604394, 0.031604394, 0.031604394, 0.031604394, 0.031604394, 0.032604393, 0.032604393, 0.032604393, 0.032604393, 0.03360439, 0.031604394, 0.1026044, 0.1026044, 0.1026044, 0.1036044, 0.1036044, 0.1036044, 0.1036044, 0.1036044, 0.1036044, 0.1036044, 0.1036044, 0.1036044, 0.1036044, 0.10460439, 0.10460439, 0.10460439, 0.10460439, 0.10460439, 0.10460439, 0.10460439, 0.10460439, 0.10460439, 0.10460439, 0.10460439, 0.10460439, 0.105604395, 0.105604395, 0.105604395, 0.105604395, 0.105604395, 0.105604395, 0.105604395, 0.105604395, 0.105604395, 0.105604395, 0.105604395, 0.105604395, 0.105604395, 0.105604395, 0.1066044, 0.105604395, 0.1036044, 0.1026044, 0.1006044, 0.098604396, 0.0966044, 0.094604395, 0.0916044, 0.0896044, 0.080395594, 0.080395594, 0.080395594, 0.0793956, 0.0793956, 0.0793956, 0.0783956, 0.0783956, 0.077395596, 0.0133956, 0.0133956, 0.012395602, 0.012395602, 0.012395602, 0.012395602, 0.0113956025, 0.0113956025, 0.0113956025, 0.0113956025, 0.010395603, 0.010395603, 0.010395603, 0.0733956, 0.0723956, 0.0723956, 0.0723956, 0.071395606, 0.071395606, 0.071395606, 0.070395604, 0.070395604, 0.070395604, 0.06939561, 0.06939561, 0.06939561, 0.06839561, 0.06839561, 0.06839561, 0.067395605, 0.067395605, 0.067395605, 0.06639561, 0.06639561, 0.06639561, 0.06539561, 0.06539561, 0.06539561, 0.064395614, 0.064395614, 0.06339561, 0.06339561, 0.06339561, 0.062395614, 0.062395614, 0.062395614, 0.061395615, 0.061395615, 0.061395615, 0.060395613, 0.060395613, 0.059395615, 0.059395615, 0.059395615, 0.058395594, 0.058395594, 0.058395594, 0.057395592, 0.057395592, 0.056395594, 0.056395594, 0.056395594, 0.055395596, 0.055395596, 0.054395597, 0.054395597, 0.0533956, 0.0533956, 0.0533956, 0.052395597, 0.052395597, 0.0513956, 0.0513956, 0.0503956, 0.0503956, 0.0503956, 0.049395602, 0.049395602, 0.048395604, 0.048395604, 0.047395602, 0.047395602, 0.046395604, 0.046395604, 0.045395605]
31 [0.015604395, 0.013604398, 0.011604399, 0.00960439, 0.0076043913, 0.0046043945, 0.0026043963, 6.043982E-4, 0.0013955999, 0.004395609, 0.0063956073, 0.008395605, 0.0113956025, 0.0133956, 0.01639561, 0.018395608, 0.021395605, 0.023395604, 0.0263956, 0.029395608, 0.031395607, 0.034395605, 0.0373956, 0.04039561, 0.04339561, 0.029604394, 0.030604394, 0.030604394, 0.030604394, 0.031604394, 0.031604394, 0.031604394, 0.031604394, 0.032604393, 0.032604393, 0.032604393, 0.032604393, 0.03360439, 0.031604394, 0.1026044, 0.1026044, 0.1026044, 0.1036044, 0.1036044, 0.1036044, 0.1036044, 0.1036044, 0.1036044, 0.1036044, 0.1036044, 0.1036044, 0.1036044, 0.10460439, 0.10460439, 0.10460439, 0.10460439, 0.10460439, 0.10460439, 0.10460439, 0.10460439, 0.10460439, 0.10460439, 0.10460439, 0.10460439, 0.105604395, 0.105604395, 0.105604395, 0.105604395, 0.105604395, 0.105604395, 0.105604395, 0.105604395, 0.105604395, 0.105604395, 0.105604395, 0.105604395, 0.105604395, 0.105604395, 0.1066044, 0.105604395, 0.1036044, 0.1026044, 0.1006044, 0.098604396, 0.0966044, 0.094604395, 0.0916044, 0.0896044, 0.080395594, 0.080395594, 0.080395594, 0.0793956, 0.0793956, 0.0793956, 0.0783956, 0.0783956, 0.077395596, 0.0133956, 0.0133956, 0.012395602, 0.012395602, 0.012395602, 0.012395602, 0.0113956025, 0.0113956025, 0.0113956025, 0.0113956025, 0.010395603, 0.010395603, 0.010395603, 0.0733956, 0.0723956, 0.0723956, 0.0723956, 0.071395606, 0.071395606, 0.071395606, 0.070395604, 0.070395604, 0.070395604, 0.06939561, 0.06939561, 0.06939561, 0.06839561, 0.06839561, 0.06839561, 0.067395605, 0.067395605, 0.067395605, 0.06639561, 0.06639561, 0.06639561, 0.06539561, 0.06539561, 0.06539561, 0.064395614, 0.064395614, 0.06339561, 0.06339561, 0.06339561, 0.062395614, 0.062395614, 0.062395614, 0.061395615, 0.061395615, 0.061395615, 0.060395613, 0.060395613, 0.059395615, 0.059395615, 0.059395615, 0.058395594, 0.058395594, 0.058395594, 0.057395592, 0.057395592, 0.056395594, 0.056395594, 0.056395594, 0.055395596, 0.055395596, 0.054395597, 0.054395597, 0.0533956, 0.0533956, 0.0533956, 0.052395597, 0.052395597, 0.0513956, 0.0513956, 0.0503956, 0.0503956, 0.0503956, 0.049395602, 0.049395602, 0.048395604, 0.048395604, 0.047395602, 0.047395602, 0.046395604, 0.046395604, 0.045395605]
32 [0.0090659335, 0.0070659355, 0.0050659375, 0.0020659284, 6.593024E-5, 0.0019340678, 0.003934066, 0.005934064, 0.008934061, 0.010934072, 0.012934069, 0.015934067, 0.017934065, 0.019934062, 0.022934072, 0.02493407, 0.027934067, 0.030934064, 0.032934062, 0.035934072, 0.038934067, 0.040934067, 0.043934062, 0.028065939, 0.028065939, 0.028065939, 0.029065939, 0.029065939, 0.029065939, 0.030065937, 0.030065937, 0.030065937, 0.030065937, 0.031065937, 0.10106593, 0.10106593, 0.10106593, 0.10106593, 0.10106593, 0.10106593, 0.10106593, 0.10106593, 0.10106593, 0.10106593, 0.10106593, 0.102065936, 0.102065936, 0.102065936, 0.102065936, 0.102065936, 0.102065936, 0.102065936, 0.102065936, 0.102065936, 0.102065936, 0.102065936, 0.102065936, 0.102065936, 0.10306593, 0.10306593, 0.10306593, 0.10306593, 0.10306593, 0.10306593, 0.10306593, 0.10306593, 0.10306593, 0.10306593, 0.10306593, 0.10306593, 0.10306593, 0.10306593, 0.10406593, 0.10406593, 0.10406593, 0.10406593, 0.10406593, 0.10406593, 0.102065936, 0.10106593, 0.09906594, 0.098065935, 0.09606593, 0.094065934, 0.09206593, 0.090065934, 0.08806594, 0.08506593, 0.08293406, 0.08293406, 0.081934065, 0.081934065, 0.081934065, 0.08093406, 0.08093406, 0.08093406, 0.07993407, 0.015934067, 0.014934068, 0.014934068, 0.014934068, 0.014934068, 0.013934068, 0.013934068, 0.013934068, 0.013934068, 0.012934069, 0.012934069, 0.012934069, 0.012934069, 0.012934069, 0.07493407, 0.07493407, 0.07493407, 0.07393407, 0.07393407, 0.07393407, 0.07293407, 0.07293407, 0.07293407, 0.071934074, 0.071934074, 0.071934074, 0.07093407, 0.07093407, 0.07093407, 0.06993408, 0.06993408, 0.06993408, 0.068934076, 0.068934076, 0.068934076, 0.06793407, 0.06793407, 0.06793407, 0.06693408, 0.06693408, 0.06693408, 0.065934055, 0.065934055, 0.065934055, 0.06493405, 0.06493405, 0.06493405, 0.06393406, 0.06393406, 0.062934056, 0.062934056, 0.062934056, 0.061934058, 0.061934058, 0.061934058, 0.06093406, 0.06093406, 0.06093406, 0.05993406, 0.05993406, 0.058934063, 0.058934063, 0.058934063, 0.05793406, 0.05793406, 0.056934062, 0.056934062, 0.056934062, 0.055934064, 0.055934064, 0.054934066, 0.054934066, 0.053934067, 0.053934067, 0.053934067, 0.052934065, 0.052934065, 0.051934067, 0.051934067, 0.05093407, 0.05093407, 0.04993407, 0.04993407, 0.048934072, 0.048934072]
33 [0.0061153844, 0.0041153864, 0.0021153882, 1.1539002E-4, 0.0018846199, 0.004884617, 0.0068846154, 0.008884613, 0.010884612, 0.013884621, 0.01588462, 0.017884616, 0.020884614, 0.022884611, 0.02588462, 0.02788462, 0.030884616, 0.032884613, 0.03588461, 0.03888462, 0.040884618, 0.043884616, 0.027115388, 0.027115388, 0.028115388, 0.028115388, 0.028115388, 0.028115388, 0.029115386, 0.029115386, 0.029115386, 0.029115386, 0.10011538, 0.10011538, 0.10011538, 0.10011538, 0.10011538, 0.10011538, 0.10011538, 0.10011538, 0.10011538, 0.10011538, 0.10111538, 0.10111538, 0.10111538, 0.10111538, 0.10111538, 0.10111538, 0.10111538, 0.10111538, 0.10111538, 0.10111538, 0.10111538, 0.10111538, 0.10111538, 0.10111538, 0.102115385, 0.102115385, 0.102115385, 0.102115385, 0.102115385, 0.102115385, 0.102115385, 0.102115385, 0.102115385, 0.102115385, 0.102115385, 0.102115385, 0.102115385, 0.102115385, 0.10311539, 0.10311539, 0.10311539, 0.10311539, 0.10311539, 0.10311539, 0.10311539, 0.102115385, 0.10111538, 0.09911539, 0.098115385, 0.09611539, 0.095115386, 0.09311538, 0.091115385, 0.08911538, 0.087115385, 0.084115386, 0.08388461, 0.08388461, 0.08288462, 0.08288462, 0.08288462, 0.081884615, 0.081884615, 0.081884615, 0.08088461, 0.016884618, 0.01588462, 0.01588462, 0.01588462, 0.01588462, 0.01488462, 0.01488462, 0.01488462, 0.01488462, 0.013884621, 0.013884621, 0.013884621, 0.013884621, 0.013884621, 0.07588462, 0.07588462, 0.07588462, 0.07488462, 0.07488462, 0.07488462, 0.07388462, 0.07388462, 0.07388462, 0.07288463, 0.07288463, 0.07288463, 0.071884625, 0.071884625, 0.071884625, 0.07088462, 0.07088462, 0.07088462, 0.06988463, 0.06988463, 0.06988463, 0.0688846, 0.0688846, 0.0688846, 0.0678846, 0.0678846, 0.0678846, 0.06688461, 0.06688461, 0.06688461, 0.065884605, 0.065884605, 0.065884605, 0.06488461, 0.06488461, 0.06488461, 0.06388461, 0.06388461, 0.06388461, 0.06288461, 0.06288461, 0.06188461, 0.06188461, 0.06188461, 0.06088461, 0.06088461, 0.06088461, 0.05988461, 0.05988461, 0.058884613, 0.058884613, 0.058884613, 0.057884615, 0.057884615, 0.056884617, 0.056884617, 0.056884617, 0.055884615, 0.055884615, 0.054884616, 0.054884616, 0.053884618, 0.053884618, 0.05288462, 0.05288462, 0.05288462, 0.05188462, 0.05188462, 0.05088462, 0.05088462, 0.04988461]
34 [0.0061153844, 0.0041153864, 0.0021153882, 1.1539002E-4, 0.0018846199, 0.004884617, 0.0068846154, 0.008884613, 0.010884612, 0.013884621, 0.01588462, 0.017884616, 0.020884614, 0.022884611, 0.02588462, 0.02788462, 0.030884616, 0.032884613, 0.03588461, 0.03888462, 0.040884618, 0.043884616, 0.027115388, 0.027115388, 0.028115388, 0.028115388, 0.028115388, 0.028115388, 0.029115386, 0.029115386, 0.029115386, 0.029115386, 0.10011538, 0.10011538, 0.10011538, 0.10011538, 0.10011538, 0.10011538, 0.10011538, 0.10011538, 0.10011538, 0.10011538, 0.10111538, 0.10111538, 0.10111538, 0.10111538, 0.10111538, 0.10111538, 0.10111538, 0.10111538, 0.10111538, 0.10111538, 0.10111538, 0.10111538, 0.10111538, 0.10111538, 0.102115385, 0.102115385, 0.102115385, 0.102115385, 0.102115385, 0.102115385, 0.102115385, 0.102115385, 0.102115385, 0.102115385, 0.102115385, 0.102115385, 0.102115385, 0.102115385, 0.10311539, 0.10311539, 0.10311539, 0.10311539, 0.10311539, 0.10311539, 0.10311539, 0.102115385, 0.10111538, 0.09911539, 0.098115385, 0.09611539, 0.095115386, 0.09311538, 0.091115385, 0.08911538, 0.087115385, 0.084115386, 0.08388461, 0.08388461, 0.08288462, 0.08288462, 0.08288462, 0.081884615, 0.081884615, 0.081884615, 0.08088461, 0.016884618, 0.01588462, 0.01588462, 0.01588462, 0.01588462, 0.01488462, 0.01488462, 0.01488462, 0.01488462, 0.013884621, 0.013884621, 0.013884621, 0.013884621, 0.013884621, 0.07588462, 0.07588462, 0.07588462, 0.07488462, 0.07488462, 0.07488462, 0.07388462, 0.07388462, 0.07388462, 0.07288463, 0.07288463, 0.07288463, 0.071884625, 0.071884625, 0.071884625, 0.07088462, 0.07088462, 0.07088462, 0.06988463, 0.06988463, 0.06988463, 0.0688846, 0.0688846, 0.0688846, 0.0678846, 0.0678846, 0.0678846, 0.06688461, 0.06688461, 0.06688461, 0.065884605, 0.065884605, 0.065884605, 0.06488461, 0.06488461, 0.06488461, 0.06388461, 0.06388461, 0.06388461, 0.06288461, 0.06288461, 0.06188461, 0.06188461, 0.06188461, 0.06088461, 0.06088461, 0.06088461, 0.05988461, 0.05988461, 0.058884613, 0.058884613, 0.058884613, 0.057884615, 0.057884615, 0.056884617, 0.056884617, 0.056884617, 0.055884615, 0.055884615, 0.054884616, 0.054884616, 0.053884618, 0.053884618, 0.05288462, 0.05288462, 0.05288462, 0.05188462, 0.05188462, 0.05088462, 0.05088462, 0.04988461]
35 [4.6153626E-4, 0.0015384618, 0.00353846, 0.005538458, 0.007538468, 0.010538465, 0.012538463, 0.014538461, 0.01653846, 0.018538458, 0.021538466, 0.023538465, 0.026538461, 0.02853846, 0.030538458, 0.03353847, 0.035538465, 0.038538463, 0.04153846, 0.04353846, 0.024461538, 0.024461538, 0.024461538, 0.024461538, 0.025461536, 0.025461536, 0.025461536, 0.096461535, 0.09746154, 0.09746154, 0.09746154, 0.09746154, 0.09746154, 0.09746154, 0.09746154, 0.09746154, 0.09746154, 0.09746154, 0.09746154, 0.09846154, 0.09846154, 0.09846154, 0.09846154, 0.09846154, 0.09846154, 0.09846154, 0.09846154, 0.09846154, 0.09846154, 0.09846154, 0.09846154, 0.09846154, 0.09846154, 0.09946154, 0.09946154, 0.09946154, 0.09946154, 0.09946154, 0.09946154, 0.09946154, 0.09946154, 0.09946154, 0.09946154, 0.09946154, 0.09946154, 0.09946154, 0.09946154, 0.09946154, 0.09946154, 0.100461535, 0.100461535, 0.100461535, 0.100461535, 0.100461535, 0.100461535, 0.100461535, 0.09946154, 0.09846154, 0.096461535, 0.09546154, 0.09446154, 0.09246154, 0.09146154, 0.089461535, 0.08746154, 0.08646154, 0.08446154, 0.081461534, 0.086538464, 0.086538464, 0.08553846, 0.08553846, 0.08553846, 0.08453847, 0.08453847, 0.08453847, 0.083538465, 0.019538457, 0.018538458, 0.018538458, 0.018538458, 0.018538458, 0.017538458, 0.017538458, 0.017538458, 0.017538458, 0.017538458, 0.01653846, 0.01653846, 0.01653846, 0.01653846, 0.015538461, 0.07853847, 0.07853847, 0.077538475, 0.077538475, 0.077538475, 0.077538475, 0.07653847, 0.07653847, 0.07653847, 0.07553845, 0.07553845, 0.07553845, 0.074538454, 0.074538454, 0.074538454, 0.07353845, 0.07353845, 0.07353845, 0.07253845, 0.07253845, 0.07253845, 0.071538456, 0.071538456, 0.071538456, 0.070538454, 0.070538454, 0.070538454, 0.06953846, 0.06953846, 0.06953846, 0.06853846, 0.06853846, 0.067538455, 0.067538455, 0.067538455, 0.06653846, 0.06653846, 0.06653846, 0.06553846, 0.06553846, 0.06553846, 0.064538464, 0.064538464, 0.06353846, 0.06353846, 0.06353846, 0.06253846, 0.06253846, 0.06253846, 0.061538465, 0.061538465, 0.060538467, 0.060538467, 0.060538467, 0.059538465, 0.059538465, 0.058538467, 0.058538467, 0.05753847, 0.05753847, 0.05753847, 0.05653846, 0.05653846, 0.055538457, 0.055538457, 0.05453846, 0.05453846, 0.05353846, 0.05353846, 0.052538462]
36 [4.6153626E-4, 0.0015384618, 0.00353846, 0.005538458, 0.007538468, 0.010538465, 0.012538463, 0.014538461, 0.01653846, 0.018538458, 0.021538466, 0.023538465, 0.026538461, 0.02853846, 0.030538458, 0.03353847, 0.035538465, 0.038538463, 0.04153846, 0.04353846, 0.024461538, 0.024461538, 0.024461538, 0.024461538, 0.025461536, 0.025461536, 0.025461536, 0.096461535, 0.09746154, 0.09746154, 0.09746154, 0.09746154, 0.09746154, 0.09746154, 0.09746154, 0.09746154, 0.09746154, 0.09746154, 0.09746154, 0.09846154, 0.09846154, 0.09846154, 0.09846154, 0.09846154, 0.09846154, 0.09846154, 0.09846154, 0.09846154, 0.09846154, 0.09846154, 0.09846154, 0.09846154, 0.09846154, 0.09946154, 0.09946154, 0.09946154, 0.09946154, 0.09946154, 0.09946154, 0.09946154, 0.09946154, 0.09946154, 0.09946154, 0.09946154, 0.09946154, 0.09946154, 0.09946154, 0.09946154, 0.09946154, 0.100461535, 0.100461535, 0.100461535, 0.100461535, 0.100461535, 0.100461535, 0.100461535, 0.09946154, 0.09846154, 0.096461535, 0.09546154, 0.09446154, 0.09246154, 0.09146154, 0.089461535, 0.08746154, 0.08646154, 0.08446154, 0.081461534, 0.086538464, 0.086538464, 0.08553846, 0.08553846, 0.08553846, 0.08453847, 0.08453847, 0.08453847, 0.083538465, 0.019538457, 0.018538458, 0.018538458, 0.018538458, 0.018538458, 0.017538458, 0.017538458, 0.017538458, 0.017538458, 0.017538458, 0.01653846, 0.01653846, 0.01653846, 0.01653846, 0.015538461, 0.07853847, 0.07853847, 0.077538475, 0.077538475, 0.077538475, 0.077538475, 0.07653847, 0.07653847, 0.07653847, 0.07553845, 0.07553845, 0.07553845, 0.074538454, 0.074538454, 0.074538454, 0.07353845, 0.07353845, 0.07353845, 0.07253845, 0.07253845, 0.07253845, 0.071538456, 0.071538456, 0.071538456, 0.070538454, 0.070538454, 0.070538454, 0.06953846, 0.06953846, 0.06953846, 0.06853846, 0.06853846, 0.067538455, 0.067538455, 0.067538455, 0.06653846, 0.06653846, 0.06653846, 0.06553846, 0.06553846, 0.06553846, 0.064538464, 0.064538464, 0.06353846, 0.06353846, 0.06353846, 0.06253846, 0.06253846, 0.06253846, 0.061538465, 0.061538465, 0.060538467, 0.060538467, 0.060538467, 0.059538465, 0.059538465, 0.058538467, 0.058538467, 0.05753847, 0.05753847, 0.05753847, 0.05653846, 0.05653846, 0.055538457, 0.055538457, 0.05453846, 0.05453846, 0.05353846, 0.05353846, 0.052538462]
37 [0.0038956087, 0.0058956067, 0.007895605, 0.009895603, 0.011895601, 0.013895599, 0.015895609, 0.018895606, 0.020895604, 0.022895603, 0.024895601, 0.0268956, 0.029895607, 0.031895608, 0.033895604, 0.036895603, 0.0388956, 0.04089561, 0.043895606, 0.045895606, 0.0488956, 0.018104395, 0.019104393, 0.019104393, 0.019104393, 0.09310439, 0.09310439, 0.09310439, 0.09310439, 0.09310439, 0.09310439, 0.09310439, 0.09310439, 0.09310439, 0.094104394, 0.094104394, 0.094104394, 0.094104394, 0.094104394, 0.094104394, 0.094104394, 0.094104394, 0.094104394, 0.094104394, 0.094104394, 0.094104394, 0.0951044, 0.0951044, 0.0951044, 0.0951044, 0.0951044, 0.0951044, 0.0951044, 0.0951044, 0.0951044, 0.0951044, 0.0951044, 0.0951044, 0.0951044, 0.0951044, 0.0951044, 0.09610439, 0.09610439, 0.09610439, 0.09610439, 0.09610439, 0.09610439, 0.09610439, 0.09610439, 0.09610439, 0.09610439, 0.09610439, 0.09610439, 0.09610439, 0.09610439, 0.09610439, 0.09610439, 0.09610439, 0.0951044, 0.094104394, 0.09310439, 0.0921044, 0.091104396, 0.08910439, 0.0881044, 0.087104395, 0.0851044, 0.083104394, 0.0811044, 0.080104396, 0.0771044, 0.08989561, 0.08989561, 0.08889561, 0.08889561, 0.08889561, 0.08789561, 0.08789561, 0.08789561, 0.086895615, 0.022895603, 0.021895604, 0.021895604, 0.021895604, 0.021895604, 0.020895604, 0.020895604, 0.020895604, 0.020895604, 0.019895606, 0.019895606, 0.019895606, 0.019895606, 0.018895606, 0.018895606, 0.080895595, 0.080895595, 0.080895595, 0.07989559, 0.07989559, 0.07989559, 0.0788956, 0.0788956, 0.0788956, 0.0778956, 0.0778956, 0.0768956, 0.0768956, 0.0768956, 0.0758956, 0.0758956, 0.0758956, 0.0748956, 0.0748956, 0.0748956, 0.0738956, 0.0738956, 0.0728956, 0.0728956, 0.0728956, 0.07189561, 0.07189561, 0.070895605, 0.070895605, 0.070895605, 0.0698956, 0.0698956, 0.0698956, 0.06889561, 0.06889561, 0.067895606, 0.067895606, 0.067895606, 0.06689561, 0.06689561, 0.06589561, 0.06589561, 0.06489561, 0.06489561, 0.06489561, 0.0638956, 0.0638956, 0.0628956, 0.0628956, 0.0618956, 0.0618956, 0.0618956, 0.060895603, 0.060895603, 0.059895605, 0.059895605, 0.058895603, 0.058895603, 0.057895605, 0.057895605, 0.056895606, 0.056895606, 0.055895608, 0.055895608, 0.05489561, 0.05489561, 0.053895608]
38 [0.0073461486, 0.009346158, 0.011346157, 0.013346154, 0.015346153, 0.016346151, 0.01834615, 0.020346148, 0.022346158, 0.024346156, 0.027346153, 0.029346151, 0.03134615, 0.033346146, 0.035346158, 0.037346154, 0.040346153, 0.04234615, 0.04434615, 0.046346158, 0.049346156, 0.051346153, 0.05434615, 0.05634615, 0.012653844, 0.08865385, 0.08865385, 0.08865385, 0.08865385, 0.08865385, 0.08865385, 0.08865385, 0.08865385, 0.08865385, 0.08865385, 0.08965384, 0.08965384, 0.08965384, 0.08965384, 0.08965384, 0.08965384, 0.08965384, 0.08965384, 0.08965384, 0.08965384, 0.08965384, 0.090653844, 0.090653844, 0.090653844, 0.090653844, 0.090653844, 0.090653844, 0.090653844, 0.090653844, 0.090653844, 0.090653844, 0.090653844, 0.090653844, 0.091653846, 0.091653846, 0.091653846, 0.091653846, 0.091653846, 0.091653846, 0.091653846, 0.091653846, 0.091653846, 0.091653846, 0.091653846, 0.091653846, 0.091653846, 0.091653846, 0.091653846, 0.09265385, 0.09265385, 0.09265385, 0.09265385, 0.09265385, 0.09265385, 0.09265385, 0.09265385, 0.091653846, 0.090653844, 0.08965384, 0.08865385, 0.087653846, 0.08665384, 0.08565385, 0.083653845, 0.08265384, 0.08165385, 0.079653844, 0.07765385, 0.076653846, 0.07465385, 0.09334616, 0.09334616, 0.09334616, 0.09234616, 0.09234616, 0.09134617, 0.09134617, 0.090346165, 0.090346165, 0.026346155, 0.025346154, 0.025346154, 0.025346154, 0.024346156, 0.024346156, 0.024346156, 0.024346156, 0.023346158, 0.023346158, 0.023346158, 0.022346158, 0.022346158, 0.022346158, 0.02134616, 0.02134616, 0.08334615, 0.08234615, 0.08234615, 0.08234615, 0.08134615, 0.08134615, 0.08034615, 0.08034615, 0.08034615, 0.07934615, 0.07934615, 0.078346156, 0.078346156, 0.07734615, 0.07734615, 0.07734615, 0.07634615, 0.07634615, 0.07534616, 0.07534616, 0.074346155, 0.074346155, 0.074346155, 0.07334616, 0.07334616, 0.07234616, 0.07234616, 0.07134616, 0.07134616, 0.07034615, 0.07034615, 0.07034615, 0.06934615, 0.06934615, 0.06834615, 0.06834615, 0.06734615, 0.06734615, 0.06634615, 0.06634615, 0.06534615, 0.06534615, 0.06434616, 0.06434616, 0.063346155, 0.063346155, 0.062346157, 0.062346157, 0.061346155, 0.061346155, 0.060346156, 0.060346156, 0.059346158, 0.059346158, 0.05834615, 0.05834615, 0.057346147, 0.057346147, 0.05634615, 0.05534615, 0.05534615, 0.05434615]
39 [0.0073461486, 0.009346158, 0.011346157, 0.013346154, 0.015346153, 0.016346151, 0.01834615, 0.020346148, 0.022346158, 0.024346156, 0.027346153, 0.029346151, 0.03134615, 0.033346146, 0.035346158, 0.037346154, 0.040346153, 0.04234615, 0.04434615, 0.046346158, 0.049346156, 0.051346153, 0.05434615, 0.05634615, 0.012653844, 0.08865385, 0.08865385, 0.08865385, 0.08865385, 0.08865385, 0.08865385, 0.08865385, 0.08865385, 0.08865385, 0.08865385, 0.08965384, 0.08965384, 0.08965384, 0.08965384, 0.08965384, 0.08965384, 0.08965384, 0.08965384, 0.08965384, 0.08965384, 0.08965384, 0.090653844, 0.090653844, 0.090653844, 0.090653844, 0.090653844, 0.090653844, 0.090653844, 0.090653844, 0.090653844, 0.090653844, 0.090653844, 0.090653844, 0.091653846, 0.091653846, 0.091653846, 0.091653846, 0.091653846, 0.091653846, 0.091653846, 0.091653846, 0.091653846, 0.091653846, 0.091653846, 0.091653846, 0.091653846, 0.091653846, 0.091653846, 0.09265385, 0.09265385, 0.09265385, 0.09265385, 0.09265385, 0.09265385, 0.09265385, 0.09265385, 0.091653846, 0.090653844, 0.08965384, 0.08865385, 0.087653846, 0.08665384, 0.08565385, 0.083653845, 0.08265384, 0.08165385, 0.079653844, 0.07765385, 0.076653846, 0.07465385, 0.09334616, 0.09334616, 0.09334616, 0.09234616, 0.09234616, 0.09134617, 0.09134617, 0.090346165, 0.090346165, 0.026346155, 0.025346154, 0.025346154, 0.025346154, 0.024346156, 0.024346156, 0.024346156, 0.024346156, 0.023346158, 0.023346158, 0.023346158, 0.022346158, 0.022346158, 0.022346158, 0.02134616, 0.02134616, 0.08334615, 0.08234615, 0.08234615, 0.08234615, 0.08134615, 0.08134615, 0.08034615, 0.08034615, 0.08034615, 0.07934615, 0.07934615, 0.078346156, 0.078346156, 0.07734615, 0.07734615, 0.07734615, 0.07634615, 0.07634615, 0.07534616, 0.07534616, 0.074346155, 0.074346155, 0.074346155, 0.07334616, 0.07334616, 0.07234616, 0.07234616, 0.07134616, 0.07134616, 0.07034615, 0.07034615, 0.07034615, 0.06934615, 0.06934615, 0.06834615, 0.06834615, 0.06734615, 0.06734615, 0.06634615, 0.06634615, 0.06534615, 0.06534615, 0.06434616, 0.06434616, 0.063346155, 0.063346155, 0.062346157, 0.062346157, 0.061346155, 0.061346155, 0.060346156, 0.060346156, 0.059346158, 0.059346158, 0.05834615, 0.05834615, 0.057346147, 0.057346147, 0.05634615, 0.05534615, 0.05534615, 0.05434615]
40 [0.00902747, 0.011027467, 0.012027467, 0.014027476, 0.016027475, 0.018027473, 0.020027472, 0.022027468, 0.024027467, 0.026027476, 0.028027475, 0.030027473, 0.03202747, 0.03402747, 0.03602747, 0.038027477, 0.040027477, 0.042027473, 0.044027474, 0.04702747, 0.04902747, 0.051027477, 0.054027475, 0.056027472, 0.058027472, 0.061027467, 0.085972525, 0.085972525, 0.085972525, 0.085972525, 0.085972525, 0.085972525, 0.085972525, 0.085972525, 0.085972525, 0.08697253, 0.08697253, 0.08697253, 0.08697253, 0.08697253, 0.08697253, 0.08697253, 0.08697253, 0.08697253, 0.08697253, 0.08797253, 0.08797253, 0.08797253, 0.08797253, 0.08797253, 0.08797253, 0.08797253, 0.08797253, 0.08797253, 0.08797253, 0.08797253, 0.08797253, 0.088972524, 0.088972524, 0.088972524, 0.088972524, 0.088972524, 0.088972524, 0.088972524, 0.088972524, 0.088972524, 0.088972524, 0.088972524, 0.088972524, 0.088972524, 0.089972526, 0.089972526, 0.089972526, 0.089972526, 0.089972526, 0.089972526, 0.089972526, 0.089972526, 0.089972526, 0.089972526, 0.089972526, 0.089972526, 0.089972526, 0.089972526, 0.088972524, 0.08797253, 0.08697253, 0.085972525, 0.08497253, 0.08397253, 0.08297253, 0.081972525, 0.07997253, 0.078972526, 0.07697253, 0.07597253, 0.07397253, 0.07197253, 0.09602748, 0.095027484, 0.095027484, 0.09402748, 0.09402748, 0.09302746, 0.09302746, 0.09202746, 0.09202746, 0.028027475, 0.027027477, 0.027027477, 0.027027477, 0.026027476, 0.026027476, 0.026027476, 0.025027478, 0.025027478, 0.025027478, 0.024027467, 0.024027467, 0.024027467, 0.024027467, 0.023027468, 0.023027468, 0.08402747, 0.08402747, 0.08302747, 0.08302747, 0.08202747, 0.08202747, 0.08102747, 0.08102747, 0.080027476, 0.080027476, 0.080027476, 0.079027474, 0.079027474, 0.07802747, 0.07802747, 0.07702748, 0.07702748, 0.076027475, 0.076027475, 0.07502748, 0.07502748, 0.074027464, 0.074027464, 0.07302747, 0.07302747, 0.07202747, 0.07202747, 0.07102747, 0.07102747, 0.07002747, 0.07002747, 0.07002747, 0.06902747, 0.068027474, 0.068027474, 0.06702747, 0.06702747, 0.06602748, 0.06602748, 0.065027475, 0.065027475, 0.06402747, 0.06402747, 0.06302748, 0.06302748, 0.062027466, 0.062027466, 0.061027467, 0.061027467, 0.06002747, 0.05902747, 0.05902747, 0.058027472, 0.058027472, 0.05702747, 0.056027472, 0.056027472, 0.055027474, 0.055027474]
41 [0.02008242, 0.022082418, 0.023082417, 0.025082415, 0.027082413, 0.028082412, 0.030082421, 0.03208242, 0.03408242, 0.03508242, 0.037082415, 0.039082415, 0.041082423, 0.043082424, 0.04508242, 0.047082417, 0.049082417, 0.051082414, 0.052082412, 0.054082423, 0.057082422, 0.05908242, 0.061082415, 0.07391758, 0.07391758, 0.07391758, 0.07391758, 0.07391758, 0.07391758, 0.074917585, 0.074917585, 0.074917585, 0.074917585, 0.074917585, 0.074917585, 0.074917585, 0.074917585, 0.07591758, 0.07591758, 0.07591758, 0.07591758, 0.07591758, 0.07591758, 0.07591758, 0.07591758, 0.07591758, 0.07591758, 0.07691758, 0.07691758, 0.07691758, 0.07691758, 0.07691758, 0.07691758, 0.07691758, 0.07691758, 0.07691758, 0.07691758, 0.07691758, 0.07791758, 0.07791758, 0.07791758, 0.07791758, 0.07791758, 0.07791758, 0.07791758, 0.07791758, 0.07791758, 0.07791758, 0.07791758, 0.07791758, 0.07791758, 0.078917585, 0.078917585, 0.078917585, 0.078917585, 0.078917585, 0.078917585, 0.078917585, 0.078917585, 0.078917585, 0.078917585, 0.078917585, 0.078917585, 0.078917585, 0.078917585, 0.078917585, 0.07991758, 0.07991758, 0.07991758, 0.078917585, 0.07791758, 0.07791758, 0.07691758, 0.07591758, 0.074917585, 0.07391758, 0.07291758, 0.07191758, 0.070917584, 0.06991758, 0.06891758, 0.067917585, 0.06591758, 0.06491758, 0.06291758, 0.060917582, 0.10408241, 0.10408241, 0.10308241, 0.10308241, 0.10208242, 0.10208242, 0.101082414, 0.101082414, 0.037082415, 0.037082415, 0.036082417, 0.036082417, 0.03508242, 0.03508242, 0.03508242, 0.03408242, 0.03408242, 0.03408242, 0.03308242, 0.03308242, 0.03308242, 0.03208242, 0.03208242, 0.031082422, 0.091082424, 0.091082424, 0.090082414, 0.090082414, 0.08908241, 0.08908241, 0.08808242, 0.08808242, 0.087082416, 0.087082416, 0.086082414, 0.086082414, 0.08508242, 0.08408242, 0.08408242, 0.08308242, 0.08308242, 0.08208242, 0.08208242, 0.08108242, 0.08108242, 0.080082424, 0.07908242, 0.07908242, 0.07808241, 0.07808241, 0.07708241, 0.07708241, 0.076082416, 0.075082414, 0.075082414, 0.07408242, 0.07408242, 0.07308242, 0.07308242, 0.072082415, 0.07108242, 0.07108242, 0.07008242, 0.069082424, 0.069082424, 0.06808242, 0.06808242, 0.06708242, 0.066082425, 0.066082425, 0.065082416, 0.064082414, 0.064082414, 0.06308241, 0.062082417, 0.062082417]
42 [0.02008242, 0.022082418, 0.023082417, 0.025082415, 0.027082413, 0.028082412, 0.030082421, 0.03208242, 0.03408242, 0.03508242, 0.037082415, 0.039082415, 0.041082423, 0.043082424, 0.04508242, 0.047082417, 0.049082417, 0.051082414, 0.052082412, 0.054082423, 0.057082422, 0.05908242, 0.061082415, 0.07391758, 0.07391758, 0.07391758, 0.07391758, 0.07391758, 0.07391758, 0.074917585, 0.074917585, 0.074917585, 0.074917585, 0.074917585, 0.074917585, 0.074917585, 0.074917585, 0.07591758, 0.07591758, 0.07591758, 0.07591758, 0.07591758, 0.07591758, 0.07591758, 0.07591758, 0.07591758, 0.07591758, 0.07691758, 0.07691758, 0.07691758, 0.07691758, 0.07691758, 0.07691758, 0.07691758, 0.07691758, 0.07691758, 0.07691758, 0.07691758, 0.07791758, 0.07791758, 0.07791758, 0.07791758, 0.07791758, 0.07791758, 0.07791758, 0.07791758, 0.07791758, 0.07791758, 0.07791758, 0.07791758, 0.07791758, 0.078917585, 0.078917585, 0.078917585, 0.078917585, 0.078917585, 0.078917585, 0.078917585, 0.078917585, 0.078917585, 0.078917585, 0.078917585, 0.078917585, 0.078917585, 0.078917585, 0.078917585, 0.07991758, 0.07991758, 0.07991758, 0.078917585, 0.07791758, 0.07791758, 0.07691758, 0.07591758, 0.074917585, 0.07391758, 0.07291758, 0.07191758, 0.070917584, 0.06991758, 0.06891758, 0.067917585, 0.06591758, 0.06491758, 0.06291758, 0.060917582, 0.10408241, 0.10408241, 0.10308241, 0.10308241, 0.10208242, 0.10208242, 0.101082414, 0.101082414, 0.037082415, 0.037082415, 0.036082417, 0.036082417, 0.03508242, 0.03508242, 0.03508242, 0.03408242, 0.03408242, 0.03408242, 0.03308242, 0.03308242, 0.03308242, 0.03208242, 0.03208242, 0.031082422, 0.091082424, 0.091082424, 0.090082414, 0.090082414, 0.08908241, 0.08908241, 0.08808242, 0.08808242, 0.087082416, 0.087082416, 0.086082414, 0.086082414, 0.08508242, 0.08408242, 0.08408242, 0.08308242, 0.08308242, 0.08208242, 0.08208242, 0.08108242, 0.08108242, 0.080082424, 0.07908242, 0.07908242, 0.07808241, 0.07808241, 0.07708241, 0.07708241, 0.076082416, 0.075082414, 0.075082414, 0.07408242, 0.07408242, 0.07308242, 0.07308242, 0.072082415, 0.07108242, 0.07108242, 0.07008242, 0.069082424, 0.069082424, 0.06808242, 0.06808242, 0.06708242, 0.066082425, 0.066082425, 0.065082416, 0.064082414, 0.064082414, 0.06308241, 0.062082417, 0.062082417]
43 [0.023763739, 0.024763739, 0.026763735, 0.028763734, 0.029763734, 0.031763732, 0.03376374, 0.034763742, 0.03676374, 0.038763735, 0.040763736, 0.041763734, 0.04376373, 0.045763742, 0.04776374, 0.04976374, 0.051763736, 0.052763734, 0.054763734, 0.05676373, 0.058763742, 0.06076374, 0.07123626, 0.07123626, 0.07123626, 0.07123626, 0.07123626, 0.07123626, 0.07123626, 0.07123626, 0.07223626, 0.07223626, 0.07223626, 0.07223626, 0.07223626, 0.07223626, 0.07223626, 0.07223626, 0.073236264, 0.073236264, 0.073236264, 0.073236264, 0.073236264, 0.073236264, 0.073236264, 0.073236264, 0.073236264, 0.073236264, 0.07423627, 0.07423627, 0.07423627, 0.07423627, 0.07423627, 0.07423627, 0.07423627, 0.07423627, 0.07423627, 0.07423627, 0.07423627, 0.07423627, 0.07523626, 0.07523626, 0.07523626, 0.07523626, 0.07523626, 0.07523626, 0.07523626, 0.07523626, 0.07523626, 0.07523626, 0.07523626, 0.07523626, 0.07523626, 0.07523626, 0.07623626, 0.07623626, 0.07623626, 0.07623626, 0.07623626, 0.07623626, 0.07623626, 0.07623626, 0.07623626, 0.07623626, 0.07623626, 0.07623626, 0.07623626, 0.07623626, 0.07623626, 0.077236265, 0.07623626, 0.07623626, 0.07523626, 0.07523626, 0.07423627, 0.073236264, 0.07223626, 0.07123626, 0.07123626, 0.070236266, 0.06923626, 0.06823626, 0.066236265, 0.06523626, 0.06423626, 0.06223626, 0.061236262, 0.059236266, 0.10676373, 0.10576373, 0.10576373, 0.10476373, 0.10476373, 0.10376374, 0.10376374, 0.102763735, 0.039763737, 0.038763735, 0.038763735, 0.037763737, 0.037763737, 0.037763737, 0.03676374, 0.03676374, 0.03676374, 0.03576374, 0.03576374, 0.034763742, 0.034763742, 0.034763742, 0.03376374, 0.03376374, 0.09376373, 0.09276373, 0.091763735, 0.091763735, 0.09076373, 0.09076373, 0.08976374, 0.08976374, 0.088763736, 0.088763736, 0.087763734, 0.08676374, 0.08676374, 0.08576374, 0.08576374, 0.08476374, 0.08476374, 0.08376374, 0.08276373, 0.08276373, 0.08176373, 0.08176373, 0.080763735, 0.080763735, 0.07976373, 0.07876373, 0.07876373, 0.077763736, 0.077763736, 0.076763734, 0.07576374, 0.07576374, 0.07476374, 0.07476374, 0.073763736, 0.07276374, 0.07276374, 0.07176374, 0.070763744, 0.070763744, 0.06976373, 0.06976373, 0.06876373, 0.06776373, 0.06776373, 0.06676374, 0.065763734, 0.065763734, 0.06476373, 0.06376374]
44 [0.023763739, 0.024763739, 0.026763735, 0.028763734, 0.029763734, 0.031763732, 0.03376374, 0.034763742, 0.03676374, 0.038763735, 0.040763736, 0.041763734, 0.04376373, 0.045763742, 0.04776374, 0.04976374, 0.051763736, 0.052763734, 0.054763734, 0.05676373, 0.058763742, 0.06076374, 0.07123626, 0.07123626, 0.07123626, 0.07123626, 0.07123626, 0.07123626, 0.07123626, 0.07123626, 0.07223626, 0.07223626, 0.07223626, 0.07223626, 0.07223626, 0.07223626, 0.07223626, 0.07223626, 0.073236264, 0.073236264, 0.073236264, 0.073236264, 0.073236264, 0.073236264, 0.073236264, 0.073236264, 0.073236264, 0.073236264, 0.07423627, 0.07423627, 0.07423627, 0.07423627, 0.07423627, 0.07423627, 0.07423627, 0.07423627, 0.07423627, 0.07423627, 0.07423627, 0.07423627, 0.07523626, 0.07523626, 0.07523626, 0.07523626, 0.07523626, 0.07523626, 0.07523626, 0.07523626, 0.07523626, 0.07523626, 0.07523626, 0.07523626, 0.07523626, 0.07523626, 0.07623626, 0.07623626, 0.07623626, 0.07623626, 0.07623626, 0.07623626, 0.07623626, 0.07623626, 0.07623626, 0.07623626, 0.07623626, 0.07623626, 0.07623626, 0.07623626, 0.07623626, 0.077236265, 0.07623626, 0.07623626, 0.07523626, 0.07523626, 0.07423627, 0.073236264, 0.07223626, 0.07123626, 0.07123626, 0.070236266, 0.06923626, 0.06823626, 0.066236265, 0.06523626, 0.06423626, 0.06223626, 0.061236262, 0.059236266, 0.10676373, 0.10576373, 0.10576373, 0.10476373, 0.10476373, 0.10376374, 0.10376374, 0.102763735, 0.039763737, 0.038763735, 0.038763735, 0.037763737, 0.037763737, 0.037763737, 0.03676374, 0.03676374, 0.03676374, 0.03576374, 0.03576374, 0.034763742, 0.034763742, 0.034763742, 0.03376374, 0.03376374, 0.09376373, 0.09276373, 0.091763735, 0.091763735, 0.09076373, 0.09076373, 0.08976374, 0.08976374, 0.088763736, 0.088763736, 0.087763734, 0.08676374, 0.08676374, 0.08576374, 0.08576374, 0.08476374, 0.08476374, 0.08376374, 0.08276373, 0.08276373, 0.08176373, 0.08176373, 0.080763735, 0.080763735, 0.07976373, 0.07876373, 0.07876373, 0.077763736, 0.077763736, 0.076763734, 0.07576374, 0.07576374, 0.07476374, 0.07476374, 0.073763736, 0.07276374, 0.07276374, 0.07176374, 0.070763744, 0.070763744, 0.06976373, 0.06976373, 0.06876373, 0.06776373, 0.06776373, 0.06676374, 0.065763734, 0.065763734, 0.06476373, 0.06376374]
