-0.85000795 -0.69976854
-0.8498877 -0.7000319
-0.8499729 -0.70010084
-0.84928524 -0.70068306
-0.8472083 -0.7026375
-0.8456281 -0.70370907
-0.8417729 -0.7036241
-0.83954155 -0.7007159
-0.83441484 -0.6918336
-0.8315174 -0.6862051
-0.8287498 -0.6821083
-0.82470715 -0.67393583
-0.8235757 -0.6699213
-0.8223858 -0.6646297
-0.82218206 -0.663702
-0.8221428 -0.66367495
-0.82212687 -0.6636945
-0.8220984 -0.66368735
-0.82208127 -0.6636769
-0.8220682 -0.6637206
-0.8217513 -0.66049606
-0.821544 -0.6551378
-0.8217187 -0.6394869
-0.8223953 -0.6268136
-0.82623655 -0.59385514
-0.82930183 -0.5752611
-0.8323291 -0.55797446
-0.8380147 -0.5249298
-0.84452754 -0.48585588
-0.8477802 -0.46604815
-0.8509666 -0.44602117
-0.85575074 -0.41397363
-0.857681 -0.4015201
-0.8599971 -0.38710314
-0.8671664 -0.3539354
-0.87182647 -0.3363139
-0.87717474 -0.3182609
-0.88851434 -0.28203604
-0.88851434 -0.28203604
