0 [1.0, 1.0, 1.0, 1.0, 1.0, 1.0, 1.0, 1.0]
1 [1.0, 1.0, 1.0, 1.0, 1.0, 1.0, 1.0, 1.0]
2 [1.0, 1.0, 1.0, 1.0, 1.0, 1.0, 1.0, 1.0]
3 [1.0, 1.0, 1.0, 1.0, 1.0, 1.0, 1.0, 1.0]
4 [1.0, 1.0, 1.0, 1.0, 1.0, 1.0, 1.0, 1.0]
5 [1.0, 1.0, 1.0, 1.0, 1.0, 1.0, 1.0, 1.0]
6 [1.0, 1.0, 1.0, 1.0, 1.0, 1.0, 1.0, 1.0]
7 [1.0, 1.0, 1.0, 1.0, 1.0, 1.0, 1.0, 1.0]
8 [1.0, 1.0, 1.0, 1.0, 1.0, 1.0000566, 1.0228223, 1.1686347]
9 [1.0208714, 1.1542202, 1.0208714, 1.0000517, 1.0, 1.0002317, 1.0934877, 1.6907861]
10 [1.0935209, 1.6910312, 1.0935209, 1.0002319, 1.0, 1.0001864, 1.075221, 1.5558121]
11 [1.0753642, 1.5568708, 1.0753642, 1.0001868, 1.0, 1.0001416, 1.0571299, 1.4221362]
12 [1.0571299, 1.4221362, 1.0571299, 1.0001416, 1.0, 1.0001068, 1.0431086, 1.3185315]
13 [1.0431516, 1.3188502, 1.0431516, 1.0001069, 1.0, 1.0000807, 1.0325491, 1.2405078]
14 [1.02782, 1.2055634, 1.02782, 1.0000689, 1.0, 1.000052, 1.0209839, 1.1550512]
15 [1.0210259, 1.1553617, 1.0210259, 1.0000521, 1.0, 0.999789, 0.9148795, 0.37104]
16 [0.91508454, 0.37255484, 0.91508454, 0.99978954, 1.0, 0.9997855, 0.9134523, 0.36049443]
17 [0.914149, 0.36564213, 0.914149, 0.9997872, 1.0, 0.9998365, 0.9340314, 0.51255465]
18 [0.93409646, 0.51303494, 0.93409646, 0.9998366, 1.0, 0.9998766, 0.9502191, 0.63216597]
19 [0.95791346, 0.68902016, 0.95791346, 0.9998957, 1.0, 0.9999213, 0.96825445, 0.7654302]
20 [0.9681909, 0.76496065, 0.9681909, 0.99992114, 1.0, 0.9999405, 0.97600716, 0.82271564]
21 [0.97598314, 0.82253826, 0.97598314, 0.99994045, 1.0, 0.9999551, 0.9818847, 0.86614525]
22 [0.9839653, 0.88151866, 0.9839653, 0.99996024, 1.0, 0.99997, 0.98790544, 0.91063267]
23 [0.98789334, 0.91054326, 0.98789334, 0.99997, 1.0, 0.99997735, 0.9908683, 0.93252516]
24 [0.99222624, 0.9425592, 0.99222624, 0.99998075, 1.0, 0.99998546, 0.99413645, 0.9566739]
25 [0.9941247, 0.95658714, 0.9941247, 0.99998546, 1.0, 0.99998903, 0.9955684, 0.9672548]
26 [0.9955596, 0.9671893, 0.9955596, 0.999989, 1.0, 0.9999917, 0.9966507, 0.97525173]
27 [0.99664736, 0.975227, 0.99664736, 0.9999917, 1.0, 0.99999374, 0.99747115, 0.98131436]
28 [1.0, 1.0, 1.0, 1.0, 1.0, 1.0, 1.0, 1.0]
29 [1.0, 1.0, 1.0, 1.0, 1.0, 1.0, 1.0, 1.0]
30 [1.0, 1.0, 1.0, 1.0, 1.0, 1.0, 1.0, 1.0]
31 [1.0, 1.0, 1.0, 1.0, 1.0, 1.0, 1.0, 1.0]
32 [1.0, 1.0, 1.0, 1.0, 1.0, 1.0, 1.0, 1.0]
33 [1.0, 1.0, 1.0, 1.0, 1.0, 1.0, 1.0, 1.0]
34 [1.0, 1.0, 1.0, 1.0, 1.0, 1.0, 1.0, 1.0]
35 [1.0, 1.0, 1.0, 1.0, 1.0, 1.0, 1.0, 1.0]
36 [1.0, 1.0, 1.0, 1.0, 1.0, 1.0, 1.0, 1.0]
37 [1.0480181, 1.3548083, 1.0480181, 1.000119, 1.0, 1.0, 1.0, 1.0]
38 [1.0921602, 1.6809771, 1.0921602, 1.0002284, 1.0, 1.0, 1.0, 1.0]
39 [1.0728791, 1.5385075, 1.0728791, 1.0001806, 1.0, 1.0, 1.0, 1.0]
40 [1.0550065, 1.4064462, 1.0550065, 1.0001364, 1.0, 1.0, 1.0, 1.0]
41 [1.0415015, 1.3066574, 1.0415015, 1.0001029, 1.0, 1.0, 1.0, 1.0]
42 [1.0226635, 1.1674618, 1.0226635, 1.0000561, 1.0, 1.0001875, 1.0756513, 1.5589913]
43 [0.94268733, 0.5765134, 0.94268733, 0.99985796, 1.0, 1.0001425, 1.0574723, 1.4246665]
44 [0.9086093, 0.32470852, 0.9086093, 0.99977344, 1.0, 1.0001076, 1.0434113, 1.3207684]
45 [0.9280308, 0.46821535, 0.9280308, 0.9998216, 1.0, 1.0000813, 1.0328106, 1.2424395]
46 [0.94688106, 0.6075011, 0.94688106, 0.99986833, 1.0, 1.0000598, 1.0241373, 1.1783513]
47 [0.95984536, 0.70329523, 0.95984536, 0.99990046, 1.0, 0.9999882, 0.9952337, 0.96478146]
48 [0.96971196, 0.77619976, 0.96971196, 0.9999249, 1.0, 0.9997672, 0.90607816, 0.30600613]
49 [0.9771545, 0.83119315, 0.9771545, 0.9999434, 1.0, 0.99981105, 0.9237732, 0.43675596]
