0 [0.0, 0.0, 0.0, 0.0, 0.0, 0.0, 0.0, 0.0]
1 [0.0, 0.0, 0.0, 0.0, 0.0, 0.0, 0.0, 0.0]
2 [0.8333333, 0.8333333, 0.0, 0.8333333, 0.8333333, 0.0, 0.0, 0.0]
3 [0.0, 0.875, 0.0, 0.0, 0.0, 0.0, 0.0, 0.0]
4 [0.0, 0.0, 0.0, 0.0, 0.0, 0.0, 0.0, 0.0]
5 [0.06666667, 0.93333334, 0.06666667, 0.06666667, 0.93333334, 0.0, 0.0, 0.0]
6 [0.0, 0.0, 0.0, 0.0, 0.0, 0.0, 0.0, 0.0]
7 [0.07692308, 0.07692308, 0.9230769, 0.07692308, 0.9230769, 0.9230769, 0.0, 0.0]
8 [0.5, 0.5, 0.5, 0.5, 0.5, 0.5, 0.5, 0.0]
9 [0.0, 0.875, 0.0, 0.0, 0.0, 0.0, 0.0, 0.0]
10 [0.0, 0.0, 0.0, 0.0, 0.0, 0.0, 0.0, 0.0]
11 [0.027472528, 0.875, 0.99450547, 0.027472528, 0.0, 0.0, 0.0, 0.0]
12 [0.0, 0.875, 0.0, 0.0, 0.0, 0.0, 0.0, 0.0]
13 [0.25, 0.0, 0.25, 0.0, 0.0, 0.0, 0.875, 0.875]
14 [0.0, 0.0, 0.8, 0.0, 0.8, 0.8, 0.8, 0.0]
15 [0.0, 0.875, 0.0, 0.0, 0.0, 0.0, 0.0, 0.0]
16 [0.0, 0.0, 0.0, 0.0, 0.0, 0.0, 0.0, 0.0]
17 [0.0, 0.875, 0.0, 0.0, 0.0, 0.0, 0.0, 0.0]
18 [0.0, 0.96, 0.0, 0.0, 0.96, 0.0, 0.0, 0.0]
19 [0.0, 0.0, 0.0, 0.0, 0.0, 0.0, 0.0, 0.0]
20 [0.0, 0.0, 0.0, 0.0, 0.0, 0.0, 0.0, 0.0]
21 [0.0, 0.0, 0.0, 0.0, 0.0, 0.0, 0.0, 0.0]
22 [0.0, 0.9655172, 0.0, 0.0, 0.9655172, 0.0, 0.0, 0.0]
23 [0.0, 0.0, 0.0, 0.0, 0.0, 0.0, 0.0, 0.0]
24 [0.0, 0.0, 0.0, 0.0, 0.0, 0.0, 0.0, 0.0]
25 [0.0, 0.0, 0.0, 0.0, 0.0, 0.0, 0.0, 0.0]
26 [0.875, 0.016666668, 0.98333335, 0.0, 0.0, 0.0, 0.016666668, 0.016666668]
27 [0.0, 0.0, 0.0, 0.0, 0.0, 0.0, 0.0, 0.0]
28 [0.875, 0.96, 0.96, 0.0, 0.0, 0.0, 0.0, 0.0]
29 [0.0, 0.0, 0.0, 0.0, 0.0, 0.0, 0.0, 0.0]
30 [0.875, 0.0, 0.0, 0.0, 0.0, 0.0, 0.0, 0.0]
31 [0.96153843, 0.96153843, 0.0, 0.0, 0.03846154, 0.96153843, 0.03846154, 0.03846154]
32 [0.0, 0.0, 0.0, 0.0, 0.0, 0.0, 0.0, 0.0]
33 [0.95454544, 0.0, 0.0, 0.0, 0.045454547, 0.045454547, 0.045454547, 0.045454547]
34 [0.0, 0.0, 0.0, 0.033333335, 0.96666664, 0.033333335, 0.033333335, 0.96666664]
35 [0.0, 0.0, 0.0, 0.0, 0.0, 0.0, 0.0, 0.0]
36 [0.0, 0.0, 0.0, 0.0, 0.0, 0.0, 0.0, 0.99450547]
37 [0.0, 0.0, 0.0, 0.0, 0.0, 0.0, 0.0, 0.0]
38 [0.0, 0.0, 0.0, 0.0, 0.0, 0.0, 0.0, 0.99450547]
39 [0.0, 0.0, 0.0, 0.0, 0.0, 0.0, 0.0, 0.0]
40 [0.0, 0.0, 0.0054945056, 0.0054945056, 0.0054945056, 0.0054945056, 0.99450547, 0.0]
41 [0.0, 0.0, 0.0, 0.0, 0.0, 0.0, 0.0, 0.0]
42 [0.0, 0.0, 0.0, 0.0, 0.0, 0.0, 0.0, 0.0]
43 [0.0, 0.027777778, 0.027777778, 0.9722222, 0.027777778, 0.9722222, 0.0, 0.027777778]
44 [0.0, 0.0, 0.0, 0.0, 0.0, 0.0, 0.0, 0.0]
45 [0.0, 0.9655172, 0.0, 0.875, 0.9655172, 0.9655172, 0.0, 0.0]
46 [0.0, 0.0, 0.0, 0.0, 0.0, 0.0, 0.0, 0.0]
47 [0.0, 0.0, 0.0, 0.0, 0.0, 0.0, 0.0, 0.0]
48 [0.95238096, 0.0, 0.5, 0.5, 0.95238096, 0.0, 0.95238096, 0.5]
49 [0.0, 0.0, 0.0, 0.0, 0.0, 0.0, 0.0, 0.0]
