0.024999999 -0.6249999
0.025175389 -0.6251502
0.025240153 -0.6250711
0.027217904 -0.62548983
0.028765481 -0.62563986
0.028765481 -0.62563986
0.03220847 -0.62262195
0.03220847 -0.62262195
0.031736176 -0.6168017
0.030501042 -0.61097586
0.026638364 -0.5943413
0.02476446 -0.5879254
0.022444783 -0.585168
0.02086504 -0.5830522
0.02086504 -0.5830522
0.016399294 -0.5717436
0.013831978 -0.5643074
0.011410461 -0.5543716
0.009149472 -0.5434845
0.009149472 -0.5434845
0.005875983 -0.5211361
0.00523263 -0.508467
0.00523263 -0.508467
0.006670356 -0.4807674
0.006670356 -0.4807674
0.008856482 -0.4667644
0.011874893 -0.45310807
0.01568943 -0.440368
0.020045916 -0.4289444
0.020045916 -0.4289444
0.02614743 -0.41731945
0.02614743 -0.41731945
0.02614743 -0.41731945
0.02614743 -0.41731945
0.044300176 -0.39441258
0.044300176 -0.39441258
0.057413716 -0.38405615
0.07172441 -0.37572882
0.07172441 -0.37572882
0.08695839 -0.36921823
0.08695839 -0.36921823
0.102691315 -0.36457878
0.11861928 -0.36177602
0.11861928 -0.36177602
0.15099677 -0.36083776
0.15099677 -0.36083776
0.15099677 -0.36083776
0.18353541 -0.3659112
0.18353541 -0.3659112
0.18353541 -0.3659112
0.1997044 -0.3703007
0.21580076 -0.37558925
0.24007583 -0.38473743
0.2510604 -0.38977718
0.2652978 -0.3964894
0.28062662 -0.40394068
0.2963883 -0.41220516
0.32978123 -0.43123728
0.34559682 -0.44073057
0.35820365 -0.4484387
0.35820365 -0.4484387
0.35820365 -0.4484387
0.3694507 -0.4550619
0.38072324 -0.4618172
0.38072324 -0.4618172
0.38072324 -0.4618172
0.4037208 -0.47578865
0.4037208 -0.47578865
0.41632643 -0.4826158
0.4309544 -0.48963517
0.4309544 -0.48963517
0.45724028 -0.5007241
0.45724028 -0.5007241
0.45724028 -0.5007241
0.45724028 -0.5007241
0.46746832 -0.5047598
0.46746832 -0.5047598
0.48546425 -0.51191235
0.48546425 -0.51191235
0.48546425 -0.51191235
0.49536008 -0.51539266
0.5071253 -0.51870704
0.52027506 -0.52149665
0.53219765 -0.5238157
0.5424897 -0.5253683
0.5517158 -0.5263081
0.5596741 -0.5267832
0.57221323 -0.5268532
0.5841791 -0.52598506
0.59094274 -0.5254373
0.59094274 -0.5254373
0.5978931 -0.52492285
0.6109246 -0.52312535
0.6109246 -0.52312535
0.6109246 -0.52312535
0.6109246 -0.52312535
0.62174 -0.5196464
0.6346017 -0.5133539
0.6346017 -0.5133539
0.64269257 -0.5083786
0.65026397 -0.50283796
0.65026397 -0.50283796
0.6560017 -0.49841422
0.66043705 -0.49446544
0.6646603 -0.4902709
0.6701642 -0.48474836
0.6701642 -0.48474836
0.68914974 -0.46582022
0.70118934 -0.45367274
0.7234601 -0.43106073
0.7309875 -0.42312843
0.7394685 -0.41338438
0.74298 -0.40879568
0.74618673 -0.40420523
0.7565588 -0.39288223
0.7645714 -0.3867356
0.78425896 -0.37607414
0.79386646 -0.37183905
0.8141869 -0.36530417
0.8271815 -0.36224097
0.8536542 -0.35796562
0.8670909 -0.35662395
0.8959055 -0.3545884
0.9131397 -0.3532254
0.9306768 -0.3513295
0.9678534 -0.3457229
0.9869777 -0.34232074
1.0239178 -0.33568063
1.0394809 -0.33287796
1.0394809 -0.33287796
1.0394809 -0.33287796
1.0514581 -0.33071834
1.0702022 -0.32779825
1.0750867 -0.32726112
1.0750867 -0.32726112
1.0750867 -0.32726112
1.0764183 -0.32729012
1.0771954 -0.32715884
1.078583 -0.32710704
1.0800768 -0.32723278
1.0816872 -0.32752368
1.0834788 -0.3279777
1.0853702 -0.3287485
1.0888747 -0.33139756
1.0888747 -0.33139756
