0 -3.1415286
0 -3.1415925
0 -3.1415925
0 -3.1415925
0 -3.1415927
0 3.1415923
0 3.1415925
0 -6.4194304E-5
0 1.0471984
1 -3.1415286
1 -3.1415925
1 -3.1415925
1 -3.1415925
1 -3.1415927
1 3.1415923
1 3.1415925
1 -6.4194304E-5
1 1.0471984
2 -3.1415286
2 -3.1415925
2 -3.1415925
2 -3.1415925
2 -3.1415927
2 3.1415923
2 3.1415925
2 -6.4194304E-5
2 1.0471984
3 3.134883
3 3.138013
3 3.1382349
3 3.1380255
3 3.1372273
3 3.134934
3 3.1227872
3 0.0067096413
3 1.0521764
4 3.129022
4 3.1350117
4 3.1354434
4 3.1350856
4 3.1336682
4 3.1296153
4 3.1090503
4 0.012570408
4 1.0626824
5 3.129022
5 3.1350117
5 3.1354434
5 3.1350856
5 3.1336682
5 3.1296153
5 3.1090503
5 0.012570408
5 1.0626824
6 3.130244
6 3.135796
6 3.1362114
6 3.135934
6 3.1347575
6 3.1314135
6 3.1155078
6 0.011348387
6 1.0803084
7 3.130244
7 3.135796
7 3.1362114
7 3.135934
7 3.1347575
7 3.1314135
7 3.1155078
7 0.011348387
7 1.0803084
8 3.1301656
8 3.135949
8 3.136397
8 3.136173
8 3.1351123
8 3.1321142
8 3.1188514
8 0.011426965
8 1.1027912
9 3.1303551
9 3.1362867
9 3.1367595
9 3.1366022
9 3.1356993
9 3.1331558
9 3.1227536
9 0.011237291
9 1.1311685
10 3.1298273
10 3.1362903
10 3.1368122
10 3.1367037
10 3.135886
10 3.133579
10 3.1247294
10 0.011765187
10 1.1582625
11 3.1300232
11 3.1365652
11 3.1370952
11 3.1370256
11 3.1363065
11 3.1342707
11 3.1267772
11 0.011569297
11 1.1783575
12 3.1303842
12 3.136839
12 3.1373613
12 3.1373153
12 3.136668
12 3.134828
12 3.1282215
12 0.011208184
12 1.1911999
13 3.1307926
13 3.137067
13 3.1375744
13 3.1375396
13 3.1369383
13 3.1352253
13 3.129143
13 0.0107997125
13 1.1974928
14 3.13099
14 3.1371675
14 3.1376667
14 3.137636
14 3.1370525
14 3.1353905
14 3.1295087
14 0.010602451
14 1.1995987
15 3.1305816
15 3.1369617
15 3.137478
15 3.1374397
15 3.1368196
15 3.1350553
15 3.1287687
15 0.011010896
15 1.1955928
16 3.1299188
16 3.1366034
16 3.1371446
16 3.1370897
16 3.1363993
16 3.1344397
16 3.1273487
16 0.011673491
16 1.1870598
17 3.1300995
17 3.1365788
17 3.1371038
17 3.1370308
17 3.136308
17 3.1342618
17 3.1267025
17 0.011492807
17 1.1762754
18 3.1304169
18 3.136598
18 3.1370983
18 3.1370044
18 3.136248
18 3.134113
18 3.1260092
18 0.0111755105
18 1.1631953
19 3.131055
19 3.1367595
19 3.1372192
19 3.1371047
19 3.1363328
19 3.1341567
19 3.125627
19 0.010537329
19 1.1486722
20 3.1315818
20 3.1368754
20 3.1372986
20 3.1371613
20 3.1363637
20 3.1341166
20 3.1249652
20 0.010010578
20 1.1328987
21 3.1318107
21 3.1368537
21 3.137251
21 3.137085
21 3.1362336
21 3.1338322
21 3.1236038
21 0.00978189
21 1.1158372
22 3.1334243
22 3.1374629
22 3.137771
22 3.137586
22 3.136772
22 3.134463
22 3.1237924
22 0.008168315
22 1.0888696
23 3.1353896
23 3.1382856
23 3.138492
23 3.1383002
23 3.1375656
23 3.1354558
23 3.1243365
23 0.0062029487
23 1.0533228
24 3.136769
24 3.138861
24 3.13899
24 3.1387837
24 3.1380823
24 3.1360178
24 3.1224568
24 0.004823387
24 1.0089921
25 3.1389503
25 3.1399763
25 3.1400204
25 3.1398582
25 3.1393588
25 3.1378148
25 3.1215582
25 0.002642088
25 0.9508658
26 3.1412966
26 3.1413722
26 3.141373
26 3.1413436
26 3.141259
26 3.1409738
26 3.1178217
26 2.9602012E-4
26 0.88178647
27 -3.1403494
27 -3.140755
27 -3.1407356
27 -3.1405919
27 -3.140186
27 -3.138625
27 -0.012849523
27 -0.0012433974
27 0.80784386
28 -3.1395314
28 -3.1400833
28 -3.1400063
28 -3.1396775
28 -3.1387427
28 -3.1343107
28 -0.010771635
28 -0.0020612513
28 0.73219466
29 -3.1404786
29 -3.1407323
29 -3.1406634
29 -3.14043
29 -3.1397412
29 -3.1351433
29 -0.0040200143
29 -0.0011141684
29 0.6572505
30 3.1407585
30 3.1408732
30 3.1407948
30 3.1405566
30 3.1398087
30 3.130289
30 0.0025366854
30 8.3401543E-4
30 0.58689725
31 3.1380625
31 3.1384654
31 3.138034
31 3.136793
31 3.1325474
31 1.0544817
31 0.008959091
31 0.0035302052
31 0.521851
32 3.135342
32 3.1358259
32 3.1348703
32 3.132173
32 3.121895
32 0.09269383
32 0.0140876975
32 0.006250704
32 0.4632274
33 3.133479
33 3.1337938
33 3.1322737
33 3.127977
33 3.109052
33 0.06358686
33 0.016599806
33 0.008113485
33 0.40602934
34 3.1321177
34 3.1320648
34 3.1298733
34 3.123546
34 3.0884588
34 0.04979285
34 0.017692246
34 0.009474917
34 0.34333
35 3.1323662
35 3.1318402
35 3.1291776
35 3.1211178
35 3.052833
35 0.036064908
35 0.015790187
35 0.0092265345
35 0.27460706
36 3.1348817
36 3.1341362
36 3.1317399
36 3.1239355
36 2.9417865
36 0.02111721
36 0.01064676
36 0.0067109023
36 0.20700808
37 3.137675
37 3.137007
37 3.13527
37 3.1289628
37 0.10644801
37 0.010334181
37 0.0057972237
37 0.003917626
37 0.13816205
38 3.1412158
38 3.1411219
38 3.140907
38 3.1399727
38 0.0033517042
38 8.49155E-4
38 5.220753E-4
38 3.7704356E-4
38 0.06134069
39 -3.1395657
39 -3.1388905
39 -3.137359
39 -3.1280465
39 -0.010259757
39 -0.0038911216
39 -0.0025939397
39 -0.00202676
39 -0.024340244
40 -3.138989
40 -3.1378083
40 -3.135014
40 -3.094968
40 -0.008950047
40 -0.0043211514
40 -0.0030941842
40 -0.0026036303
40 -0.11900143
41 -3.141138
41 -3.1408465
41 -3.1400683
41 -0.009344646
41 -0.0011664735
41 -6.6486857E-4
41 -5.0783355E-4
41 -4.5455107E-4
41 -0.2228615
42 3.137552
42 3.1341572
42 3.121226
42 0.02368021
42 0.0077853277
42 0.0050205733
42 0.0040669115
42 0.004040796
42 -0.33579907
43 3.1331482
43 3.122858
43 3.0279696
43 0.027092583
43 0.012800845
43 0.009098221
43 0.0077853757
43 0.008444687
43 -0.45729172
44 3.1316843
44 3.1131206
44 0.15214212
44 0.021107541
44 0.012119988
44 0.009285789
44 0.008341328
44 0.0099086845
44 -0.5776353
45 3.1343927
45 3.1112707
45 0.03355297
45 0.011240449
45 0.007277791
45 0.005907645
45 0.0055333637
45 0.00720012
45 -0.68920815
46 3.138731
46 3.117126
46 0.0075003314
46 0.0034312184
46 0.002413108
46 0.0020516408
46 0.0019936669
46 0.002861947
46 -0.79145056
47 -3.1413434
47 -0.015258104
47 -5.266383E-4
47 -2.8559854E-4
47 -2.1365941E-4
47 -1.8891958E-4
47 -1.8965085E-4
47 -2.4890422E-4
47 -0.8848657
48 -3.1395795
48 -0.01212179
48 -0.0027127946
48 -0.0016386793
48 -0.0012849404
48 -0.001173305
48 -0.0012140069
48 -0.0020127192
48 -0.96928
49 -3.1393468
49 -0.0067977314
49 -0.002333093
49 -0.0015187063
49 -0.001236443
49 -0.0011607846
49 -0.0012338028
49 -0.0022453717
49 -1.0442083
