0 [0.0, 0.0, 0.0, 0.0, 0.0, 0.0, 0.0, 0.0]
1 [0.0, 0.0, 0.0, 0.0, 0.0, 0.0, 0.0, 0.0]
2 [0.0, 0.0, 0.0, 0.0, 0.0, 0.0, 0.0, 0.0]
3 [0.0, 0.0, 0.0, 0.0, 0.0, 0.0, 0.0, 0.0]
4 [0.0, 0.0, 0.0, 0.0, 0.0, 0.0, 0.0, 0.0]
5 [0.0, 0.0, 0.0, 0.0, 0.0, 0.0, 0.0, 0.0]
6 [0.0, 0.0, 0.0, 0.0, 0.0, 0.0, 0.0, 0.0]
7 [0.0, 0.0, 0.0, 0.0, 0.0, 0.0, 0.0, 0.0]
8 [0.0, 0.0, 0.0, 0.0, 0.0, 0.0, 0.0, 0.0]
9 [0.0, 0.0, 0.0, 0.0, 0.0, 0.0, 0.0, 0.0]
10 [0.0, 0.0, 0.0, 0.0, 0.0, 0.0, 0.0, 0.0]
11 [0.0, 0.0, 0.0, 0.0, 0.0, 0.0, 0.0, 0.0]
12 [0.040120885, 0.040120885, 0.026879122, 0.08312088, 0.08312088, 0.025879122, 0.025879122, 0.062120877]
13 [0.027945055, 0.04005495, 0.69361174, 0.75072163, 0.75072163, 0.69161177, 0.023945058, 0.06405495]
14 [0.027945055, 0.04005495, 0.026945055, 0.95905495, 0.45905495, 0.024945056, 0.023945058, 0.43905497]
15 [0.117684975, 0.120981686, 0.11368498, 1.001315, 1.002315, 0.022351652, 0.020351654, 0.1509817]
16 [0.03435164, 0.03764835, 0.030351644, 0.9596484, 0.46064836, 0.022351652, 0.020351654, 0.44264835]
17 [0.037527468, 0.042472538, 0.03447252, 0.030472524, 0.96352744, 0.019472536, 0.013472517, 0.93452746]
18 [0.05064286, 0.06534616, 1.0668626, 0.06234616, 0.7893571, 0.101631865, 0.090642855, 0.76864284]
19 [0.05064286, 0.05435715, 0.072357155, 0.05135715, 0.7893571, 0.84064287, 0.090642855, 0.018642854]
20 [0.05064286, 0.05435715, 0.072357155, 0.05135715, 0.039357137, 0.090642855, 0.090642855, 0.018642854]
21 [0.051120877, 0.045879114, 0.32687914, 0.99037915, 0.9803791, 0.83912086, 0.09212088, 0.021120882]
22 [0.939801, 0.9349768, 0.96597683, 0.053087924, 0.7930879, 0.83991206, 0.092912085, 0.02091209]
23 [0.050912086, 0.046087906, 0.077087924, 0.053087924, 0.043087907, 0.08991209, 0.092912085, 0.02091209]
24 [0.95771426, 0.24028571, 0.26628572, 0.2422857, 0.7822857, 0.8487143, 1.0017142, 1.7062857]
25 [0.057714283, 0.040285707, 0.06628571, 0.042285703, 0.7822857, 0.8487143, 0.10171428, 0.80628574]
26 [0.046412088, 0.056587923, 0.07258791, 0.051587902, 0.039587915, 0.089412086, 0.09141208, 0.01741209]
27 [0.043747254, 0.066252746, 0.9849194, 0.04925274, 0.036252752, 0.09074725, 1.007414, 0.93141395]
28 [0.043747254, 0.066252746, 0.06825275, 0.04925274, 0.78625274, 0.84074724, 0.09074725, 0.014747257]
29 [0.032846153, 0.55515385, 0.54215384, 0.5381538, 0.5858462, 0.58784616, 0.013153852, 0.0051538483]
30 [0.5393791, 0.5403791, 0.52762085, 0.5863791, 0.5873791, 0.021620879, 0.01962088, 0.5493791]
31 [0.039379124, 0.040379122, 0.027620872, 0.08637912, 0.9623791, 0.021620879, 0.01962088, 0.049379125]
32 [0.5564341, 0.5165659, 0.5844341, 0.5844341, 0.034565926, 0.041565944, 0.050565932, 0.55156595]
33 [0.056434073, 0.01656593, 0.08443407, 0.8344341, 0.034565926, 0.041565944, 0.050565932, 0.80156595]
34 [0.025258247, 0.099258244, 0.97325826, 0.40574175, 0.046741758, 0.06874176, 0.055741746, 0.41974175]
35 [0.12747435, 1.0931411, 0.021192303, 0.045192305, 0.0751923, 0.09585898, 0.08485897, 0.040474355]
36 [0.11080769, 0.10980769, 0.8961923, 0.045192305, 0.0751923, 0.07919232, 0.0681923, 0.02380769]
37 [0.13495605, 1.1019781, 0.031032974, 0.06603296, 0.09202199, 0.09402198, 0.051021975, 0.042956047]
38 [1.1280165, 0.028510993, 0.038489003, 0.07698353, 0.08398352, 0.059983518, 0.022983529, 0.048005495]
39 [0.13351099, 0.778511, 0.038489003, 0.07148902, 0.07848901, 0.054489013, 0.767489, 0.04251099]
40 [0.07043407, 0.038434062, 0.06554396, 0.08554396, 0.08254396, 0.034554936, 0.021445056, 1.0354561]
41 [0.059445057, 0.7774451, 0.054554943, 0.07455495, 0.07155495, 0.034554936, 0.77144504, 0.046445057]
42 [0.051021982, 0.776978, 0.055978023, 0.07497803, 0.053978026, 0.026978027, 0.768022, 0.12902197]
43 [0.049521983, 0.53147805, 0.05347803, 0.07447803, 0.05047803, 0.525478, 0.517522, 0.12852198]
44 [0.9359713, 0.9248065, 0.38425094, 0.40625092, 0.046917573, 0.022917572, 0.017082414, 0.12808241]
45 [0.046906594, 0.03609341, 0.048093397, 0.0710934, 0.045093402, 0.022093398, 0.017906599, 1.082452]
46 [0.5469066, 0.03609341, 0.048093397, 0.0710934, 0.045093402, 0.5220934, 0.5179066, 0.12790659]
47 [0.04689011, 0.035109896, 0.04589011, 1.0236553, 0.042109888, 0.019109886, 0.019890113, 1.0764356]
48 [0.79689014, 0.035109896, 0.04589011, 0.06910989, 0.042109888, 0.019109886, 0.7698901, 0.12189011]
49 [0.79614836, 0.033851657, 0.04814835, 0.06785165, 0.03985165, 0.016851649, 0.7711483, 0.039148346]
