0 -3.1415925
0 -3.1415925
0 -3.1415925
0 3.1415925
0 -0.0
0 -0.0
0 -0.0
0 -0.0
0 -0.0
1 -3.1415925
1 -3.1415925
1 -3.1415925
1 3.1415925
1 -0.0
1 -0.0
1 -0.0
1 -0.0
1 -0.0
2 -3.1415925
2 -3.1415925
2 -3.1415925
2 3.1415925
2 -0.0
2 -0.0
2 -0.0
2 -0.0
2 -0.0
3 -3.1415925
3 -3.1415925
3 -3.1415925
3 3.1415925
3 -0.0
3 -0.0
3 -0.0
3 -0.0
3 -0.0
4 -3.1415925
4 -3.1415925
4 -3.1415925
4 3.1415925
4 -0.0
4 -0.0
4 -0.0
4 -0.0
4 -0.0
5 -3.1415925
5 -3.1415925
5 -3.1415925
5 3.1415925
5 -0.0
5 -0.0
5 -0.0
5 -0.0
5 -0.0
6 -3.1415925
6 -3.1415925
6 -3.1415925
6 3.1415925
6 -0.0
6 -0.0
6 -0.0
6 -0.0
6 -0.0
7 -3.1415925
7 -3.1415925
7 -3.1415925
7 3.1415925
7 -0.0
7 -0.0
7 -0.0
7 -0.0
7 -0.0
8 -3.1415925
8 -3.1415925
8 -3.1415925
8 3.1415925
8 -0.0
8 -0.0
8 -0.0
8 -0.0
8 -0.0
9 -3.1415925
9 -3.1415925
9 -3.1415925
9 3.1415925
9 -0.0
9 -0.0
9 -0.0
9 -0.0
9 -0.0
10 -3.1415925
10 -3.1415925
10 -3.1415925
10 3.1415925
10 -0.0
10 -0.0
10 -0.0
10 -0.0
10 -0.0
11 -3.1415925
11 -3.1415925
11 -3.1415925
11 3.1415925
11 -0.0
11 -0.0
11 -0.0
11 -0.0
11 -0.0
12 -3.1415925
12 -3.1415925
12 -3.1415925
12 3.1415925
12 -0.0
12 -0.0
12 -0.0
12 -0.0
12 -0.0
13 -3.1415925
13 -3.1415925
13 -3.1415925
13 3.1415925
13 -0.0
13 -0.0
13 -0.0
13 -0.0
13 -0.0
14 3.134978
14 3.1329947
14 3.1284802
14 3.1045918
14 0.039213974
14 0.013347542
14 0.008672125
14 0.006614587
14 0.00512552
15 3.127543
15 3.1235008
15 3.1142719
15 3.067685
15 0.08896329
15 0.02891456
15 0.018595885
15 0.01404965
15 0.016368639
16 3.1294124
16 3.1261203
16 3.118552
16 3.0825827
16 0.08612824
16 0.025838392
16 0.016355006
16 0.012180353
16 0.03304555
17 3.1304867
17 3.127735
17 3.121318
17 3.0929163
17 0.09287038
17 0.024561448
17 0.015204391
17 0.011105893
17 0.055163436
18 3.12985
18 3.1272638
18 3.1210706
18 3.0957172
18 0.12778082
18 0.027457682
18 0.0164877
18 0.011742823
18 0.08329688
19 3.130257
19 3.1281269
19 3.122773
19 3.102538
19 0.19619182
19 0.028524434
19 0.016435834
19 0.011335919
19 0.117837295
20 3.1313958
20 3.1298594
20 3.1256385
20 3.110893
20 0.59582484
20 0.02829327
20 0.015399325
20 0.0101968935
20 0.15967557
21 3.1310675
21 3.129878
21 3.1260874
21 3.1136978
21 2.8061209
21 0.032829627
21 0.01663917
21 0.010525177
21 0.20412196
22 3.1324124
22 3.1316855
22 3.1287875
22 3.1197736
22 3.017744
22 0.032533303
22 0.015200972
22 0.009180348
22 0.2461911
23 3.1340609
23 3.133693
23 3.1315935
23 3.125297
23 3.0763998
23 0.030691026
23 0.0130655
23 0.007531878
23 0.28561857
24 3.136659
24 3.1365492
24 3.135326
24 3.1317506
24 3.109744
24 0.023464132
24 0.008970724
24 0.004933832
24 0.32233074
25 3.136659
25 3.1365492
25 3.135326
25 3.1317506
25 3.109744
25 0.023464132
25 0.008970724
25 0.004933832
25 0.32233074
26 -3.1411972
26 -3.141216
26 -3.1411343
26 -3.140901
26 -3.1397235
26 -0.0022696557
26 -7.334174E-4
26 -3.9546384E-4
26 0.36614168
27 -3.1411972
27 -3.141216
27 -3.1411343
27 -3.140901
27 -3.1397235
27 -0.0022696557
27 -7.334174E-4
27 -3.9546384E-4
27 0.36614168
28 -3.1396925
28 -3.1397307
28 -3.1393273
28 -3.1381752
28 -3.1323724
28 -0.011263735
28 -0.003632173
28 -0.001900157
28 0.36666533
29 -3.1396925
29 -3.1397307
29 -3.1393273
29 -3.1381752
29 -3.1323724
29 -0.011263735
29 -0.003632173
29 -0.001900157
29 0.36666533
30 -3.1393964
30 -3.1394184
30 -3.1389325
30 -3.1375358
30 -3.1301477
30 -0.012148911
30 -0.0041313265
30 -0.0021961434
30 0.35433397
31 -3.1393964
31 -3.1394184
31 -3.1389325
31 -3.1375358
31 -3.1301477
31 -0.012148911
31 -0.0041313265
31 -0.0021961434
31 0.35433397
32 -3.1405618
32 -3.14056
32 -3.1403136
32 -3.1395984
32 -3.1353557
32 -0.004997769
32 -0.0018642707
32 -0.0010309034
32 0.32963437
33 -3.1405618
33 -3.14056
33 -3.1403136
33 -3.1395984
33 -3.1353557
33 -0.004997769
33 -0.0018642707
33 -0.0010309034
33 0.32963437
34 3.140142
34 3.1400707
34 3.1396742
34 3.1384926
34 3.129831
34 0.0061429143
34 0.00255784
34 0.0014507826
34 0.29378185
35 3.1368673
35 3.13649
35 3.134999
35 3.1303632
35 3.0779772
35 0.016793245
35 0.007836485
35 0.0047254767
35 0.2466756
36 3.134022
36 3.133069
36 3.1302097
36 3.1206658
36 2.6672964
36 0.022663208
36 0.01178347
36 0.007570639
36 0.18903144
37 3.1323578
37 3.1306489
37 3.1263309
37 3.1101167
37 0.16993436
37 0.023407888
37 0.013431788
37 0.009234812
37 0.12105456
38 3.1333463
38 3.1311977
38 3.1262324
38 3.1033626
38 0.06257043
38 0.0178104
38 0.011166518
38 0.008246486
38 0.042620234
39 3.1365964
39 3.1348093
39 3.1307333
39 3.1026125
39 0.022778349
39 0.00924755
39 0.0062761353
39 0.004996282
39 -0.046250004
40 3.1411405
40 3.140928
40 3.140397
40 3.1266437
40 0.0014073811
40 7.1316905E-4
40 5.196133E-4
40 4.5220187E-4
40 -0.14495258
41 -3.137641
41 -3.13503
41 -3.127502
41 -0.052560326
41 -0.009372871
41 -0.0055097146
41 -0.004266023
41 -0.0039516487
41 -0.24759538
42 -3.1393378
42 -3.1373475
42 -3.1295106
42 -0.012497154
42 -0.004289239
42 -0.0027922993
42 -0.0022730469
42 -0.002254736
42 -0.3460857
43 3.1414475
43 3.1413178
43 3.1402485
43 4.465985E-4
43 2.0195424E-4
43 1.4128782E-4
43 1.1991355E-4
43 1.4527563E-4
43 -0.43726605
44 3.1376588
44 3.1317358
44 2.1772425
44 0.0099851405
44 0.0052934974
44 0.0039232196
44 0.0034468283
44 0.003933999
44 -0.52124524
45 3.13426
45 3.1191838
45 0.07859292
45 0.014601424
45 0.0086199595
45 0.006687004
45 0.0060592247
45 0.007332983
45 -0.6002457
46 3.1328707
46 3.1070693
46 0.045015417
46 0.014147979
46 0.009038959
46 0.00728637
46 0.0067890277
46 0.008722279
46 -0.67485183
47 3.132683
47 3.0911803
47 0.030072974
47 0.012150485
47 0.008235355
47 0.0068534827
47 0.0065447837
47 0.008909852
47 -0.7427064
48 3.1335385
48 3.0592852
48 0.019979805
48 0.009418137
48 0.006688818
48 0.005720827
48 0.005586343
48 0.008054473
48 -0.80528057
49 3.1359715
49 2.7668977
49 0.010874132
49 0.005702181
49 0.004208061
49 0.0036866516
49 0.0036747928
49 0.005621372
49 -0.8634472
