0 [1.0, 1.0, 1.0, 1.0, 1.0, 1.0, 1.0, 1.0]
1 [1.0, 1.0, 1.0, 1.0, 1.0, 1.0, 1.0, 1.0]
2 [1.0, 1.0, 1.0, 1.0, 1.0, 1.0, 1.0, 1.0]
3 [1.0, 1.0, 1.0, 1.0, 1.0, 1.0, 1.0, 1.0]
4 [1.0, 1.0, 1.0, 1.0, 1.0, 1.0, 1.0, 1.0]
5 [1.0, 1.0, 1.0, 1.0, 1.0, 1.0, 1.0, 1.0]
6 [1.0, 1.0, 1.0, 1.0, 1.0, 1.0, 1.0, 1.0]
7 [1.0, 1.0, 1.0, 1.0, 1.0, 1.0, 1.0, 1.0]
8 [1.0, 1.0, 1.0, 1.0, 1.0, 1.0, 1.0, 1.0]
9 [1.0, 1.0, 1.0, 1.0, 1.0, 1.0, 1.0, 1.0]
10 [1.0, 1.0, 1.0, 1.0, 1.0, 1.0, 1.0, 1.0]
11 [1.0, 1.0002338, 1.0942996, 1.6967852, 1.0942996, 1.0002338, 1.0, 1.0]
12 [1.0, 1.0001845, 1.0744355, 1.5500083, 1.0744355, 1.0004153, 1.093087, 1.6878244]
13 [1.0, 1.0001401, 1.0565072, 1.417535, 1.0565072, 1.0003247, 1.0745068, 1.5505345]
14 [1.0, 1.0000955, 1.0385418, 1.2847874, 1.0385418, 1.000222, 1.0510396, 1.3771341]
15 [1.0, 1.0002729, 1.1100549, 1.813201, 1.1100549, 1.0003685, 1.0385803, 1.2850723]
16 [1.0, 1.000272, 1.1097676, 1.8110793, 1.1097676, 1.0003443, 1.0291296, 1.2152401]
17 [1.0, 0.99999005, 0.99596894, 0.9702143, 0.99596894, 1.0000446, 1.0219936, 1.1625125]
18 [1.0, 0.9999094, 0.9634294, 0.7297777, 0.9634294, 0.9996833, 0.90880203, 0.3261329]
19 [1.0, 0.9999293, 0.9714726, 0.7892094, 0.9714726, 0.9997218, 0.91628516, 0.3814265]
20 [1.0, 0.9999465, 0.978407, 0.84044826, 0.978407, 0.99978757, 0.93589383, 0.52631587]
21 [1.0, 0.9999595, 0.9836771, 0.87938935, 0.9836771, 0.9998393, 0.95149547, 0.64159715]
22 [1.0, 0.9997075, 0.88198966, 0.12801504, 0.88198966, 0.9996166, 0.9633378, 0.72910064]
23 [1.0, 0.99973947, 0.8948817, 0.22327524, 0.8948817, 0.9997882, 1.0196568, 1.145245]
24 [1.0, 0.9998007, 0.9195888, 0.40583718, 0.9195888, 0.9999775, 1.0713356, 1.5271022]
25 [1.0, 0.99984926, 0.93916786, 0.550508, 0.93916786, 0.99999136, 1.0573487, 1.423753]
26 [1.0, 0.99988616, 0.95406646, 0.66059446, 0.95406646, 0.99999404, 1.0435088, 1.3214885]
27 [1.0, 0.999914, 0.965284, 0.7434812, 0.965284, 0.9999955, 1.0328958, 1.2430687]
28 [1.0, 0.999935, 0.97376215, 0.8061272, 0.97376215, 0.9999966, 1.0248629, 1.183713]
29 [1.0, 0.9999509, 0.9801897, 0.8536205, 0.9801897, 0.99999744, 1.0187722, 1.1387088]
30 [1.0, 0.9999629, 0.9850277, 0.8893688, 0.9850277, 0.99991673, 0.98135865, 0.8622579]
31 [1.0, 0.99997747, 0.99090475, 0.9327945, 0.99090475, 0.99974513, 0.9062634, 0.3073749]
32 [1.0, 1.0, 1.0, 1.0, 1.0, 0.9998121, 0.92420506, 0.4399469]
33 [1.0, 0.9999871, 0.99480987, 0.96164995, 0.99480987, 0.9998444, 0.94241303, 0.5744868]
34 [1.0, 0.9999903, 0.9960813, 0.97104466, 0.9960813, 0.99988246, 0.95650184, 0.67858964]
35 [1.0, 0.99999267, 0.9970383, 0.97811604, 0.9970383, 0.9999112, 0.9671237, 0.7570751]
36 [1.0, 1.0, 1.0, 1.0, 1.0, 1.0, 1.0, 1.0]
37 [1.0, 1.0, 1.0, 1.0, 1.0, 0.9999535, 0.98123944, 0.86137736]
38 [1.0, 1.0, 1.0, 1.0, 1.0, 0.99996483, 0.98582107, 0.89523125]
39 [1.0, 1.0, 1.0, 1.0, 1.0, 0.9999734, 0.9892838, 0.9208175]
40 [1.0, 1.0, 1.0, 1.0, 1.0, 0.99998, 0.99190897, 0.940215]
41 [1.0, 1.0, 1.0, 1.0, 1.0, 0.99998486, 0.9938849, 0.95481545]
42 [1.0, 1.0, 1.0, 1.0, 1.0, 0.99998856, 0.99538296, 0.9658844]
43 [1.0, 1.0, 1.0, 1.0, 1.0, 0.99999136, 0.9965105, 0.974216]
44 [1.0, 1.0, 1.0, 1.0, 1.0, 1.0, 1.0, 1.0]
45 [1.0, 1.0, 1.0, 1.0, 1.0, 1.0, 1.0, 1.0]
46 [1.0, 1.0, 1.0, 1.0, 1.0, 1.0, 1.0, 1.0]
47 [1.0, 1.0, 1.0, 1.0, 1.0, 1.0, 1.0, 1.0]
48 [1.0, 1.0, 1.0, 1.0, 1.0, 1.0, 1.0, 1.0]
49 [1.0, 1.0, 1.0, 1.0, 1.0, 1.0, 1.0, 1.0]
