0 [0.0, 0.0, 0.0, 0.0, 0.0, 0.0, 0.0, 0.0]
1 [0.0, 0.0, 0.0, 0.0, 0.0, 0.0, 0.0, 0.0]
2 [0.0, 0.0, 0.0, 0.0, 0.0, 0.0, 0.0, 0.0]
3 [0.19217582, 0.18617582, 0.09282417, 0.09217582, 0.091824174, 0.091824174, 0.09082417, 0.19717582]
4 [1.0234982, 0.3528315, 0.26150185, 0.9271685, 0.92616844, 0.09183516, 0.09083516, 0.3618315]
5 [1.0472418, 0.4748132, 0.3816154, 0.95104396, 0.950044, 0.0899011, 0.0879011, 0.4808132]
6 [0.1900989, 0.1890989, 0.09590109, 0.09390109, 0.092901096, 0.94704396, 0.0879011, 0.1950989]
7 [0.26456043, 1.1501758, 0.18328571, 0.17728573, 1.050901, 0.08436263, 0.07636264, 0.1452857]
8 [0.18347803, 0.18547802, 0.91647804, 0.105521984, 0.095521964, 0.086521976, 0.826522, 0.06652197]
9 [0.18347803, 0.18547802, 0.91647804, 0.105521984, 0.095521964, 0.086521976, 0.826522, 0.06652197]
10 [0.27542856, 1.1284286, 0.26642856, 1.0635715, 1.0505714, 0.09157143, 0.07957144, 0.06657143]
11 [0.17542857, 0.17842858, 0.66642857, 0.6135714, 0.10057142, 0.09157143, 0.5795714, 0.06657143]
12 [0.4863956, 1.0503956, 0.5423956, 0.9916044, 0.9766044, 0.9678305, 0.08710784, 0.11129702]
13 [0.20673744, 0.2044719, 1.1561493, 1.1061429, 0.11312087, 0.104141295, 0.09725207, 0.120628074]
14 [0.17569171, 0.18978447, 0.6669989, 0.6171319, 0.10213186, 0.09314577, 0.6140093, 0.09411533]
15 [0.4362689, 1.1636275, 0.2663544, 0.2136978, 1.0006977, 0.9908457, 0.083437264, 0.096378095]
16 [0.24633609, 0.30793512, 0.18173087, 0.113723926, 0.10069779, 0.090704985, 0.081211135, 0.08243724]
17 [0.23801433, 0.28954884, 0.121414095, 0.107118405, 0.09609889, 0.08810415, 0.07997647, 0.08019593]
18 [0.22549078, 0.2602074, 0.89899206, 0.100935355, 0.09292307, 0.084905475, 0.75777686, 0.025955902]
19 [0.4167094, 1.1798813, 0.72987044, 0.89800566, 0.88792306, 0.88273245, 0.069310375, 0.024209913]
20 [0.07306914, 0.77380085, 0.62069494, 0.09792988, 0.08792307, 0.08290926, 0.5372129, 0.034189135]
21 [0.101569496, 0.22773968, 0.16471927, 0.10270166, 0.08778877, 0.08475856, 0.076667346, 0.12196932]
22 [0.17254546, 0.24594803, 0.1857246, 0.13587962, 1.0558317, 0.08800526, 0.0857005, 0.18645044]
23 [0.8733236, 0.2528916, 0.21064779, 0.15305498, 1.0446099, 0.09290603, 0.095341675, 0.19952418]
24 [0.16650224, 0.21365899, 1.2926148, 0.10349928, 0.089921996, 0.09290752, 0.09597135, 0.17249003]
25 [0.17509943, 0.20670836, 0.1266676, 0.10242227, 0.089919575, 0.09290863, 0.096445315, 0.17971832]
26 [0.18514916, 0.12642908, 0.135903, 0.08595041, 0.09682478, 0.11081556, 0.18901674, 0.1870996]
27 [0.18588877, 0.1282956, 0.13321611, 0.08695699, 0.1013235, 0.12031613, 0.19301708, 0.1898789]
28 [0.18944739, 0.1130641, 0.036141995, 0.07729496, 0.101295054, 0.12031676, 0.19342352, 0.19300544]
29 [0.12648545, 0.59853905, 0.43454218, 0.08772562, 0.12034423, 0.6493603, 0.6942253, 1.1320362]
30 [0.07573916, 0.025197953, 0.032962784, 0.08952076, 0.120349914, 0.14936678, 0.19690324, 0.19127524]
31 [0.12338001, 0.033854857, 0.044939384, 0.10639755, 0.15155956, 0.18842179, 0.19288412, 0.04350845]
32 [1.0327343, 0.44109046, 0.05936487, 0.12310497, 0.67651844, 0.6894231, 0.22075641, 0.07975641]
33 [0.13917318, 0.03754498, 0.12859559, 0.13621956, 0.17660661, 0.18942308, 0.18742308, 0.04642307]
34 [0.18922415, 0.7606121, 0.13027129, 0.14739457, 0.2246086, 1.1444246, 0.22833367, 0.09833366]
35 [0.51053154, 0.043314107, 0.12151685, 0.14543778, 0.55418336, 1.0648792, 0.18287912, 0.052879114]
36 [0.9891003, 0.06268094, 0.16674772, 0.20351893, 0.19537932, 1.1683791, 0.047620878, 0.11535714]
37 [0.9460898, 0.07364966, 0.16843389, 0.25947988, 1.1141523, 0.23541394, 0.15041393, 0.16141392]
38 [0.87461174, 0.07550646, 0.16228437, 0.1899041, 0.18075605, 0.16874726, 0.08374725, 0.09474725]
39 [0.0395124, 0.09549253, 0.19462155, 0.1866009, 1.0323017, 0.07187912, 0.079120874, 0.044120885]
40 [0.90630144, 0.10796922, 0.048805468, 0.15561138, 0.16021438, 0.06274725, 0.06525275, 0.035252754]
41 [0.95517176, 0.20452443, 0.0996942, 0.9796444, 0.25551215, 0.063434064, 0.16156593, 0.9395659]
42 [0.7269876, 0.12505613, 0.091899365, 0.78466517, 0.82210463, 0.063434064, 0.061565936, 0.7062326]
43 [0.95338166, 0.3392732, 0.25113678, 1.0071734, 0.32266775, 0.06248352, 0.2787387, 0.04951648]
44 [0.067483515, 0.14248352, 0.16651648, 0.16851649, 0.10048351, 0.06248352, 0.056516487, 0.04951648]
45 [0.07579239, 0.14928848, 0.4468955, 0.5258461, 0.10279085, 0.06679671, 0.051203296, 0.9212033]
46 [0.19638288, 0.26023534, 0.14098391, 1.0830384, 0.098276, 0.06628021, 0.15683089, 0.05671978]
47 [0.085277446, 0.15170577, 0.48475972, 0.52574015, 0.09827703, 0.06628021, 0.04571978, 0.9317198]
48 [0.1568484, 0.20619664, 0.19672833, 0.20025605, 0.096294336, 0.0682967, 0.098852254, 1.0419255]
49 [0.23254637, 0.2607077, 1.0354575, 0.24284227, 0.09243785, 0.18155068, 0.992884, 0.19367155]
