0 -1
1 -1
2 -1
3 14
4 2504
5 14
6 318650
7 318650
8 24
9 14
10 169
11 9
12 328001
13 390519
14 139
15 764
16 351525
17 312500
18 359251
19 4072
20 4074
21 325517
22 4049
23 351500
24 312500
25 78294
26 332025
27 312500
28 169
29 24
30 325600
31 169
32 312507
33 19694
34 312501
35 312518
36 215475
37 312513
38 312513
39 312504
40 312504
41 169
42 312504
43 -1
44 325004
45 14
46 164
47 319627
48 312500
49 319506
50 312500
51 169
52 347000
53 312500
54 384378
55 14
56 62504
57 312500
58 15754
59 19694
60 19694
61 33643
62 4019
63 74894
64 359022
65 312500
66 355266
67 312500
68 109000
69 4769
70 4769
71 -1
72 8769
73 327500
74 124444
75 124444
76 138788
77 315500
78 378125
79 62500
80 386250
81 328127
82 370000
83 359393
84 504
85 384412
86 62500
87 624
88 150038
89 296906
90 297344
91 228163
92 228163
93 375624
94 375468
95 231288
96 375468
97 153163
98 387500
99 -1
100 387500
101 20
102 331250
103 72
104 378129
105 378754
106 72
107 62500
108 64
109 83139
110 375109
111 79644
112 124
113 312501
114 312500
115 124
116 312506
117 124
118 124
119 168500
120 124
121 12500
122 2500
123 75000
124 624
125 -1
126 331254
127 4
128 387531
129 387531
130 624
131 624
132 62500
133 112
134 65000
135 320000
136 124
137 157014
138 16889
139 388124
140 97514
141 524
142 247499
143 312500
144 312552
145 312500
146 209429
147 312604
148 312500
149 1999
150 76969
151 124
152 61523
153 237499
154 82009
155 312501
156 312500
157 390524
158 155397
159 155397
160 312501
161 312500
162 19899
163 -1
164 312563
165 312500
166 2620
167 4
168 230069
169 4
170 4
171 13100
172 4
173 321940
174 100
175 2500
176 24
177 378000
178 93125
179 75000
180 112
181 75000
182 20
183 228163
184 4
185 100
186 156254
187 312504
188 387500
189 312500
190 4
191 24
192 -1
193 4
194 124
195 187504
196 343782
197 187504
198 343782
199 187504
200 140625
201 93745
202 328126
203 606
204 312513
205 3000
206 312519
207 140643
208 4
209 203129
210 4
211 624
212 62500
213 4
214 75000
215 4669
216 562
217 96774
218 96799
219 19
220 65524
221 -1
222 175014
223 175014
224 175014
225 312500
226 312500
227 175014
228 140649
229 175014
230 346889
231 253139
232 63000
233 24
234 78139
235 312600
236 24
237 78625
238 124
239 124
240 2500
241 124
242 62500
243 4
244 104
245 20
246 14
247 20
248 14
249 9
250 -1
251 24
252 312512
253 159
254 312520
255 124
256 0
257 312500
258 312502
259 312500
260 0
261 312503
262 0
263 624
264 234999
265 312756
266 131774
267 203149
268 371875
269 153125
270 296875
271 389050
272 12500
273 15000
274 15624
275 12500
276 309375
277 375004
278 309375
279 -1
280 343752
281 4
282 153125
