0.6805272102356 -0.32499858736992
0.67968767881393 -0.32335492968559
0.67686611413956 -0.31837302446365
0.67223632335663 -0.3104582130909
0.66733753681183 -0.30196329951286
0.66247820854187 -0.29351222515106
0.6576047539711 -0.28505679965019
0.65274512767792 -0.27661773562431
0.64787566661835 -0.26817637681961
0.64303404092789 -0.25973641872406
0.63817739486694 -0.25128644704819
0.63333946466446 -0.24282269179821
0.62849688529968 -0.23434586822987
0.62366902828217 -0.22588768601418
0.61885941028595 -0.21740539371967
0.61408048868179 -0.20890936255455
0.6093248128891 -0.20037221908569
0.60463899374008 -0.19185771048069
0.59997349977493 -0.18345585465431
0.59529238939285 -0.17502084374428
0.5907364487648 -0.16665002703667
0.58620172739029 -0.15832108259201
0.58142638206482 -0.14996486902237
0.57661598920822 -0.14152732491493
0.57187968492508 -0.13296869397163
0.56694042682648 -0.12451247125864
0.5621742606163 -0.11594486236572
0.55730372667313 -0.10751251131296
0.55244022607803 -0.09905106574297
0.54751640558243 -0.090653769671917
0.54257327318192 -0.08226153999567
0.53760743141174 -0.073865719139576
0.53264737129211 -0.065466806292534
0.52768260240555 -0.057082962244749
0.52271628379822 -0.048688732087612
0.51777112483978 -0.040304288268089
0.51281064748764 -0.031917385756969
0.50784701108932 -0.023527473211288
0.50290155410767 -0.015164755284786
0.49793162941933 -0.0067596049048007
0.49297231435776 0.0016144461696967
0.48801559209824 0.010003152303398
0.48303809762001 0.018401488661766
0.47808408737183 0.026780497282743
0.47314158082008 0.035152245312929
0.46831369400024 0.043320216238499
0.46363011002541 0.051267437636852
0.45907297730446 0.058982767164707
0.45465937256813 0.066456809639931
0.45035570859909 0.073719426989555
0.44618946313858 0.080761149525642
0.44213208556175 0.087602913379669
0.43820023536682 0.094255119562149
0.43437728285789 0.10070154815912
0.43067726492882 0.10696247965097
0.42707371711731 0.1130523905158
0.42357915639877 0.1189693659544
0.42017358541489 0.12472148984671
0.41686826944351 0.13029755651951
0.41366386413574 0.13570009171963
0.41056004166603 0.14094570279121
0.40753221511841 0.14605484902859
0.40458488464355 0.15103843808174
0.40175253152847 0.15583114326
0.39897656440735 0.16051153838634
0.39629408717155 0.16503976285458
0.3936852812767 0.16945433616638
0.39114078879356 0.17373692989349
0.38879460096359 0.17773269116879
0.38663774728775 0.18143370747566
0.38456472754478 0.18500579893589
0.3826989531517 0.18825481832027
0.3809180855751 0.19136235117912
0.3792684674263 0.19424243271351
0.37780097126961 0.19684951007366
0.37645292282104 0.1993023455143
0.37518709897995 0.20159542560577
0.37410861253738 0.20362429320812
0.37315315008163 0.20549722015858
0.37225502729416 0.20726922154427
0.37141853570938 0.20896109938622
0.37058243155479 0.21060113608837
0.36996933817863 0.21189539134502
0.369444668293 0.21310298144817
0.36897829174995 0.21426343917847
0.36855059862137 0.21536882221699
0.36815282702446 0.21639910340309
0.36773061752319 0.21740572154522
0.36736562848091 0.21835514903069
0.36704623699188 0.21926164627075
0.36676681041718 0.22011296451092
0.36652463674545 0.22093001008034
0.36625704169273 0.22174461185932
0.36604207754135 0.22254082560539
0.36582377552986 0.22328980267048
0.36561912298203 0.22403207421303
0.36545971035957 0.22472624480724
0.36529144644737 0.22541685402393
0.36511281132698 0.22613596916199
0.36495596170425 0.22684319317341
0.3648037314415 0.22757378220558
0.36464831233025 0.22828817367554
0.36446171998978 0.22895197570324
0.36428344249725 0.22965240478516
0.3641269505024 0.23036006093025
0.36391746997833 0.23107406497002
0.36346477270126 0.23211404681206
0.3630068898201 0.23315766453743
0.36228606104851 0.23445987701416
0.36161154508591 0.23568460345268
0.36094886064529 0.23693184554577
0.35956844687462 0.23900258541107
0.35808372497559 0.24115094542503
0.35659939050674 0.24325223267078
0.35511907935143 0.24533514678478
0.35354554653168 0.24748906493187
0.35205578804016 0.24949987232685
0.35059985518456 0.25143799185753
0.34965187311172 0.25286012887955
0.3493567109108 0.25377553701401
0.3494915664196 0.25444936752319
0.34994223713875 0.25507181882858
0.35069087147713 0.25550904870033
0.35163789987564 0.25599282979965
0.35255092382431 0.2563524544239
0.35349932312965 0.25678047537804
0.35442095994949 0.25735965371132
0.35528069734573 0.25792762637138
0.35615727305412 0.25851100683212
0.35681277513504 0.25925368070602
0.35697638988495 0.26023516058922
0.35687384009361 0.26135566830635
0.35628646612167 0.26268440485001
0.3549462556839 0.26435318589211
0.35311529040337 0.2662016749382
0.35123154520988 0.26792392134666
0.34931936860085 0.26968297362328
0.34741646051407 0.27133142948151
0.34552818536758 0.27293965220451
0.34347343444824 0.27458876371384
0.3413707613945 0.27616536617279
0.33940416574478 0.27768862247467
0.33733206987381 0.27918151021004
0.33519235253334 0.28067272901535
0.33296167850494 0.28208926320076
0.33049148321152 0.28352877497673
0.32844236493111 0.28481131792068
0.32697004079819 0.28621610999107
0.32511022686958 0.28772002458572
0.32290515303612 0.28920632600784
0.32060724496841 0.29068419337273
0.3182869553566 0.29217603802681
0.31608074903488 0.29357388615608
0.31391477584839 0.29489713907242
0.31137883663177 0.29614999890327
0.30885389447212 0.29733815789223
0.30593854188919 0.29830211400986
0.30239304900169 0.29911175370216
0.29811808466911 0.29960939288139
0.29343929886818 0.29974991083145
0.2875891327858 0.29950147867203
0.28158712387085 0.29899105429649
0.27546608448029 0.29828661680222
0.26935416460037 0.29756429791451
0.2631895840168 0.29667109251022
0.2572069466114 0.29566338658333
0.25107291340828 0.29459911584854
0.24510324001312 0.2933651804924
0.23905551433563 0.29202553629875
0.23284132778645 0.29057005047798
0.22658562660217 0.28898596763611
0.22031080722809 0.28724738955498
0.21406657993793 0.28536579012871
0.2077349126339 0.28328976035118
0.20136570930481 0.28112477064133
0.19494293630123 0.27871760725975
0.18846337497234 0.27617657184601
0.181834846735 0.27339002490044
0.17514924705029 0.2703942656517
0.16788344085217 0.26691037416458
0.16021955013275 0.26293003559113
0.152602404356 0.25875654816628
0.14487996697426 0.25446951389313
0.13658732175827 0.24972876906395
0.1281681060791 0.24478062987328
0.11978684365749 0.23981654644012
0.11141431331635 0.23484995961189
0.10304345190525 0.2298803627491
0.094631507992744 0.22492010891438
0.086231961846352 0.21996612846851
0.077840395271778 0.21502442657948
0.069429859519005 0.21007373929024
0.061031986027956 0.20514085888863
0.052626214921474 0.20019820332527
0.044226907193661 0.19526989758015
0.035819426178932 0.19032998383045
0.027413245290518 0.18538831174374
0.019019406288862 0.18045562505722
0.010614371858537 0.1755106896162
0.0022104799281806 0.17056974768639
-0.0062000281177461 0.1656309068203
-0.014599646441638 0.16070036590099
-0.023020081222057 0.15575739741325
-0.031405378133059 0.15081898868084
-0.039813060313463 0.14588183164597
-0.048200845718384 0.14095321297646
-0.056604243814945 0.13602145016193
-0.065020129084587 0.1310865432024
-0.073418088257313 0.12615312635899
-0.081829369068146 0.12120570242405
-0.090232074260712 0.11626803874969
-0.098636820912361 0.1113253980875
-0.1070322021842 0.10639234632254
-0.11544201523066 0.101447686553
-0.12384141981602 0.096509709954262
-0.13224622607231 0.091564163565636
-0.14064952731133 0.086628273129463
-0.14904192090034 0.081701442599297
-0.15744851529598 0.076748371124268
-0.1658560782671 0.071810737252235
-0.17425629496574 0.066882990300655
-0.18265843391418 0.061939060688019
-0.19108040630817 0.056991748511791
-0.19947166740894 0.052049793303013
-0.2078595906496 0.047118835151196
-0.2162706553936 0.04217940941453
-0.22466893494129 0.037251960486174
-0.23306815326214 0.032310344278812
-0.24146190285683 0.02736989594996
-0.24987129867077 0.022444078698754
-0.25821596384048 0.017547003924847
-0.26648783683777 0.012678747065365
-0.27455615997314 0.0079956147819757
-0.28241831064224 0.0034372478257865
-0.29009458422661 -0.00099806883372366
-0.29758641123772 -0.0053369915112853
-0.30489557981491 -0.0095475297421217
-0.3120097219944 -0.01368123292923
-0.31898248195648 -0.01769283413887
-0.32578930258751 -0.021628620103002
-0.33237236738205 -0.025486538186669
-0.33881089091301 -0.029254233464599
-0.34506624937057 -0.032978184521198
-0.35121458768845 -0.036630589514971
-0.35717216134071 -0.040195755660534
-0.36305764317513 -0.043743006885052
-0.36875173449516 -0.047169111669064
-0.37530940771103 -0.05129100009799
-0.38205549120903 -0.055711705237627
-0.38868021965027 -0.060115613043308
-0.39518481492996 -0.064520373940468
-0.40161314606667 -0.068935684859753
-0.40794071555138 -0.073255687952042
-0.4142133295536 -0.077615715563297
-0.42038488388062 -0.081976741552353
-0.42647424340248 -0.086315497756004
-0.43245989084244 -0.090632013976574
-0.43837937712669 -0.09492589533329
-0.44422429800034 -0.099273324012756
-0.44999757409096 -0.10362721979618
-0.45529699325562 -0.10742787271738
-0.45991000533104 -0.11071793735027
-0.46448731422424 -0.11390982568264
-0.46881970763206 -0.1168892160058
-0.4737791121006 -0.12057930231094
-0.47916477918625 -0.12516674399376
-0.48476868867874 -0.13015308976173
-0.49012240767479 -0.1350853741169
-0.4953126013279 -0.1399307847023
-0.50053751468658 -0.14487256109715
-0.50564068555832 -0.14982023835182
-0.51072525978088 -0.15479464828968
-0.51564413309097 -0.15973129868507
-0.52024930715561 -0.16441164910793
-0.52485954761505 -0.16927918791771
-0.52930414676666 -0.17400877177715
-0.53352510929108 -0.17862375080585
-0.5377322435379 -0.18338385224342
-0.54186910390854 -0.1882189810276
-0.54574620723724 -0.19288375973701
-0.54959905147552 -0.19767741858959
-0.55352485179901 -0.20263342559338
-0.55722117424011 -0.20750562846661
-0.56078815460205 -0.21235564351082
-0.56435000896454 -0.21729373931885
-0.56826323270798 -0.22286033630371
-0.57214176654816 -0.22922644019127
-0.57621777057648 -0.2362622320652
-0.58015912771225 -0.24334736168385
-0.58401793241501 -0.25034436583519
-0.58783710002899 -0.25728100538254
-0.59165799617767 -0.26407068967819
-0.5954150557518 -0.2708278298378
-0.59914982318878 -0.27748382091522
-0.60287582874298 -0.28405541181564
-0.60655325651169 -0.29057338833809
-0.61021375656128 -0.29701641201973
-0.61388599872589 -0.30338972806931
-0.61730182170868 -0.30918562412262
-0.6206796169281 -0.31484311819077
-0.62410634756088 -0.3205746114254
-0.6274995803833 -0.32631248235703
-0.63089090585709 -0.3320560157299
-0.63433700799942 -0.33781486749649
-0.63775777816772 -0.34361383318901
-0.64117419719696 -0.34939005970955
-0.64461731910706 -0.35516920685768
-0.64767974615097 -0.36056169867516
-0.65050137042999 -0.36564391851425
-0.65326035022736 -0.37052837014198
-0.65675169229507 -0.3763475716114
-0.66082912683487 -0.38269355893135
-0.66518878936768 -0.3890965282917
-0.66953653097153 -0.39534440636635
-0.67387473583221 -0.40162402391434
-0.67807424068451 -0.40773409605026
-0.68213361501694 -0.41371694207191
-0.68602001667023 -0.41950097680092
-0.69005638360977 -0.42531496286392
-0.69404256343842 -0.43098139762878
-0.69801265001297 -0.43648919463158
-0.70200127363205 -0.44190788269043
-0.70596981048584 -0.44709992408752
-0.71003538370132 -0.45227533578873
-0.71415102481842 -0.45737987756729
-0.71833175420761 -0.46246546506882
-0.72256517410278 -0.46749892830849
-0.72693544626236 -0.47245487570763
-0.73136949539185 -0.47738805413246
-0.73583883047104 -0.48229116201401
-0.74042212963104 -0.48716330528259
-0.74505770206451 -0.49191084504128
-0.74977159500122 -0.49665278196335
-0.75475960969925 -0.50146025419235
-0.75998520851135 -0.50631523132324
-0.76536816358566 -0.51118260622025
-0.77104246616364 -0.51612895727158
-0.77688801288605 -0.52106863260269
-0.78295075893402 -0.52612590789795
-0.78926199674606 -0.53126466274261
-0.79578751325607 -0.53643476963043
-0.8025336265564 -0.541652739048
-0.80949431657791 -0.54695880413055
-0.81660902500153 -0.55225098133087
-0.82396095991135 -0.55767953395844
-0.83144998550415 -0.56312465667725
-0.83933991193771 -0.56871122121811
-0.84731471538544 -0.5743316411972
-0.855264544487 -0.57995545864105
-0.86321514844894 -0.5855747461319
-0.87118452787399 -0.5912127494812
-0.8791601061821 -0.59684866666794
-0.88711881637573 -0.60248523950577
-0.89507162570953 -0.60809403657913
-0.90302973985672 -0.61371314525604
-0.91098231077194 -0.61934244632721
-0.91895884275436 -0.62497347593307
-0.92689514160156 -0.63059467077255
-0.93485164642334 -0.63622391223907
-0.94281005859375 -0.64185905456543
-0.9507669210434 -0.6474900841713
-0.9587230682373 -0.65310394763947
-0.96668803691864 -0.65873575210571
-0.97463655471802 -0.66437274217606
-0.98258447647095 -0.66998702287674
-0.99053728580475 -0.67562800645828
-0.99849605560303 -0.68123626708984
-1.0064529180527 -0.68687587976456
-1.0144203901291 -0.69251024723053
-1.0223687887192 -0.69813150167465
-1.0303168296814 -0.70376670360565
-1.0382844209671 -0.70939099788666
-1.0462303161621 -0.71500676870346
-1.0541858673096 -0.72062885761261
-1.0621519088745 -0.72626531124115
-1.0701153278351 -0.73189586400986
-1.0780742168427 -0.73753154277802
-1.0860241651535 -0.74315881729126
-1.0939996242523 -0.74879616498947
-1.1019480228424 -0.75443518161774
-1.1099184751511 -0.76005899906158
-1.1178671121597 -0.76568043231964
-1.1258244514465 -0.77129834890366
-1.1337802410126 -0.7769495844841
-1.1417443752289 -0.78257215023041
-1.1497049331665 -0.78820759057999
-1.1576684713364 -0.79384100437164
-1.1656024456024 -0.79947292804718
-1.1735678911209 -0.80508345365524
-1.1815320253372 -0.81070387363434
-1.1894942522049 -0.81635856628418
-1.1974595785141 -0.82197391986847
-1.205427646637 -0.82759773731232
-1.2133967876434 -0.83321809768677
-1.2213475704193 -0.83886253833771
-1.2292988300323 -0.84448927640915
-1.2372481822968 -0.85009729862213
-1.2452108860016 -0.85573148727417
-1.2531551122665 -0.86137306690216
-1.2610766887665 -0.86696398258209
-1.2689383029938 -0.87253558635712
-1.2767343521118 -0.87805902957916
-1.2844471931458 -0.88357150554657
-1.292083978653 -0.8890026807785
-1.2996914386749 -0.8944206237793
-1.307231426239 -0.89977705478668
-1.3147567510605 -0.90511906147003
-1.3226872682571 -0.91073495149612
-1.3306524753571 -0.91627949476242
-1.3385301828384 -0.9217945933342
-1.3463436365128 -0.9272632598877
-1.3540821075439 -0.93269002437592
-1.361754655838 -0.93803149461746
-1.3693219423294 -0.94337052106857
-1.3768149614334 -0.94862735271454
-1.3842483758926 -0.95385628938675
-1.3916037082672 -0.95897090435028
-1.39888215065 -0.96407568454742
-1.4061065912247 -0.96911877393723
-1.4132522344589 -0.97404146194458
-1.4203970432281 -0.97892493009567
-1.4274349212646 -0.98374670743942
-1.4344203472137 -0.98848611116409
-1.4415290355682 -0.99323529005051
-1.4485667943954 -0.99789035320282
-1.4555975198746 -1.0025012493134
-1.4627016782761 -1.0070971250534
-1.4697962999344 -1.0116204023361
-1.4769248962402 -1.0160992145538
-1.4840713739395 -1.0205457210541
-1.4912550449371 -1.024951338768
-1.4985024929047 -1.029305100441
-1.5057489871979 -1.0336192846298
-1.5130913257599 -1.0379230976105
-1.5204584598541 -1.0421901941299
-1.5278636217117 -1.0464084148407
-1.5353354215622 -1.0505709648132
-1.5428793430328 -1.054718375206
-1.5504205226898 -1.0588330030441
-1.5586285591125 -1.0631573200226
-1.567366361618 -1.0675632953644
-1.5760614871979 -1.0719478130341
-1.5848082304001 -1.0762981176376
-1.5935026407242 -1.0806818008423
-1.60220682621 -1.085058927536
-1.610936164856 -1.0894589424133
-1.6196422576904 -1.0938341617584
-1.6283311843872 -1.0981987714767
-1.6370239257812 -1.1025698184967
-1.6457494497299 -1.1069625616074
-1.6544688940048 -1.1113350391388
-1.6631450653076 -1.1157114505768
-1.6718626022339 -1.1200953722
-1.6805845499039 -1.1244838237762
-1.6892782449722 -1.1288763284683
-1.6979888677597 -1.1332317590714
-1.706685423851 -1.137625336647
-1.7154042720795 -1.1420037746429
-1.7241026163101 -1.1464035511017
-1.7328134775162 -1.1508042812347
-1.741530418396 -1.1551897525787
-1.7502391338348 -1.1595522165298
-1.7589362859726 -1.163933634758
-1.7675787210464 -1.1682823896408
-1.7760816812515 -1.1725481748581
-1.7843452692032 -1.1766712665558
-1.7922519445419 -1.1806623935699
-1.7999022006989 -1.1844407320023
-1.807271361351 -1.1880670785904
-1.8143310546875 -1.1915152072906
-1.8210780620575 -1.194814324379
-1.8275880813599 -1.1980254650116
-1.8338693380356 -1.2011072635651
-1.8399423360825 -1.2040640115738
-1.8456881046295 -1.2069002389908
-1.8511278629303 -1.2095892429352
-1.8564291000366 -1.2121978998184
-1.8614437580109 -1.2146489620209
-1.8662477731705 -1.2170119285583
-1.870839715004 -1.2192696332932
-1.8751859664917 -1.2214605808258
-1.8792635202408 -1.2235132455826
-1.8831605911255 -1.2255116701126
-1.887069106102 -1.2275170087814
-1.8908612728119 -1.2295007705688
-1.8943485021591 -1.2313137054443
-1.897763967514 -1.2331598997116
-1.901083946228 -1.234951376915
-1.904424905777 -1.2367769479752
-1.9075285196304 -1.2384243011475
-1.9104067087173 -1.2399604320526
-1.9132553339005 -1.241438627243
-1.9158790111542 -1.2428598403931
-1.9183552265167 -1.2440685033798
-1.9208332300186 -1.2452967166901
-1.9233901500702 -1.2465847730637
