0 [0.0, 0.0, 0.0, 0.0, 0.0, 0.0, 0.0, 0.0]
1 [0.0, 0.0, 0.0, 0.0, 0.0, 0.0, 0.0, 0.0]
2 [0.0, 0.0, 0.0, 0.0, 0.0, 0.0, 0.0, 0.0]
3 [0.0, 0.0, 0.0, 0.0, 0.0, 0.0, 0.0, 0.0]
4 [0.0, 0.0, 0.0, 0.0, 0.0, 0.0, 0.0, 0.0]
5 [0.0, 0.0, 0.0, 0.0, 0.0, 0.0, 0.0, 0.0]
6 [0.0, 0.0, 0.0, 0.0, 0.0, 0.0, 0.0, 0.0]
7 [0.0, 0.0, 0.0, 0.97436714, 0.9791269, 0.0, 0.0, 0.788444]
8 [0.0, 0.0, 0.0, 0.97436714, 0.9791269, 0.0, 0.0, 0.788444]
9 [0.0, 0.0, 0.0, 0.97436714, 0.9791269, 0.0, 0.0, 0.788444]
10 [0.0, 0.0, 0.0, 0.9660923, 0.9864822, 0.0, 0.0, 0.7907888]
11 [0.0, 0.0, 0.0, 0.9660923, 0.9864822, 0.0, 0.0, 0.7907888]
12 [0.0, 0.0, 0.0, 0.9646423, 0.982988, 0.0, 0.0, 0.7910277]
13 [0.0, 0.0, 0.0, 0.0, 0.97585607, 0.0, 0.0, 0.7913278]
14 [0.0, 0.0, 0.0, 0.0, 0.9580244, 0.0, 0.0, 0.7911469]
15 [0.0, 0.0, 0.0, 0.0, 0.9580244, 0.0, 0.0, 0.7911469]
16 [0.0, 0.0, 0.0, 0.0, 0.948539, 0.0, 0.0, 0.79162884]
17 [0.0, 0.0, 0.0, 0.0, 0.94107574, 0.0, 0.0, 0.79286855]
18 [0.0, 0.0, 0.0, 0.0, 0.94107574, 0.0, 0.0, 0.79286855]
19 [0.0, 0.0, 0.0, 0.0, 0.9333002, 0.0, 0.0, 0.7949955]
20 [0.0, 0.0, 0.0, 0.89595485, 0.91417646, 0.0, 0.0, 0.79825884]
21 [0.0, 0.0, 0.0, 0.89595485, 0.91417646, 0.0, 0.0, 0.79825884]
22 [0.0, 0.0, 0.0, 0.87067324, 0.8884692, 0.0, 0.0, 0.800852]
23 [0.0, 0.0, 0.0, 0.87067324, 0.8884692, 0.0, 0.0, 0.800852]
24 [0.0, 0.0, 0.0, 0.86000925, 0.87397313, 0.0, 0.0, 0.8022546]
25 [0.0, 0.0, 0.0, 0.85389084, 0.85776854, 0.0, 0.0, 0.8040463]
26 [0.0, 0.0, 0.0, 0.85389084, 0.85776854, 0.0, 0.0, 0.8040463]
27 [0.0, 0.0, 0.0, 0.8502488, 0.8500371, 0.0, 0.0, 0.80428874]
28 [0.0, 0.0, 0.0, 0.8446984, 0.83950204, 0.0, 0.0, 0.8046285]
29 [0.0, 0.0, 0.0, 0.8262176, 0.8100323, 0.0, 0.0, 0.80466694]
30 [0.0, 0.0, 0.0, 0.7996988, 0.7844689, 0.0, 0.0, 0.8040759]
31 [0.0, 0.0, 0.0, 0.7856132, 0.0, 0.0, 0.0, 0.803811]
32 [0.0, 0.0, 0.0, 0.7856132, 0.0, 0.0, 0.0, 0.803811]
33 [0.0, 0.0, 0.0, 0.75605, 0.7417637, 0.0, 0.0, 0.8038939]
34 [0.0, 0.0, 0.0, 0.75605, 0.7417637, 0.0, 0.0, 0.8038939]
35 [0.0, 0.0, 0.0, 0.75605, 0.7417637, 0.0, 0.0, 0.8038939]
36 [0.0, 0.0, 0.0, 0.74060583, 0.72639555, 0.0, 0.0, 0.8029643]
37 [0.0, 0.0, 0.0, 0.7076935, 0.70480406, 0.0, 0.0, 0.0]
38 [0.0, 0.0, 0.0, 0.6770464, 0.6899818, 0.0, 0.0, 0.0]
39 [0.0, 0.0, 0.0, 0.6720811, 0.68344647, 0.0, 0.0, 0.0]
40 [0.0, 0.0, 0.0, 0.6720811, 0.68344647, 0.0, 0.0, 0.0]
41 [0.0, 0.0, 0.0, 0.0, 0.6646895, 0.65368974, 0.0, 0.0]
42 [0.0, 0.0, 0.0, 0.0, 0.6394446, 0.63226974, 0.0, 0.0]
43 [0.0, 0.0, 0.0, 0.0, 0.61832017, 0.6236347, 0.0, 0.0]
44 [0.0, 0.0, 0.0, 0.0, 0.5932711, 0.6035057, 0.0, 0.0]
45 [0.0, 0.0, 0.0, 0.0, 0.0, 0.57893306, 0.57553035, 0.0]
46 [0.0, 0.0, 0.0, 0.0, 0.0, 0.571171, 0.5649832, 0.0]
47 [0.0, 0.0, 0.0, 0.0, 0.0, 0.571171, 0.5649832, 0.0]
48 [0.0, 0.0, 0.0, 0.0, 0.0, 0.56651855, 0.5584176, 0.0]
49 [0.0, 0.0, 0.0, 0.0, 0.0, 0.5602351, 0.5507089, 0.0]
