0 [0.0, 0.0, 0.0, 0.0, 0.0, 0.0, 0.0, 0.0]
1 [0.0, 0.0, 0.0, 0.0, 0.0, 0.0, 0.0, 0.0]
2 [0.0, 0.0, 0.0, 0.0, 0.0, 0.0, 0.0, 0.0]
3 [0.20243956, 0.09843956, 0.020439561, 0.032560438, 0.06856045, 0.11756045, 0.11256043, 0.099439554]
4 [0.9533736, 0.9723736, 0.7713736, 0.030626372, 0.06562636, 0.86562634, 0.86562634, 0.84937364]
5 [1.034174, 0.92917395, 0.853174, 0.029159341, 0.06315933, 0.109159335, 0.44749266, 0.430174]
6 [0.20084067, 0.97084063, 0.39484066, 0.029159341, 0.06315933, 0.109159335, 0.11415933, 0.47184065]
7 [1.0729285, 0.9669286, 0.39292857, 0.029071432, 0.060071427, 0.102071434, 0.36407143, 0.9679286]
8 [0.19792858, 0.09192857, 0.01792857, 0.029071432, 0.060071427, 0.102071434, 0.11407142, 0.09292857]
9 [1.0294048, 0.9214047, 0.84940475, 0.028928578, 0.056928575, 0.09592856, 0.6119286, 0.58907145]
10 [0.19607143, 0.08807143, 0.016071428, 0.028928578, 0.056928575, 0.09592856, 0.11192857, 0.08907143]
11 [0.9942418, 0.88524175, 0.81424177, 0.02775825, 0.054758247, 0.09175824, 0.91075826, 0.6537583]
12 [0.9925055, 0.88250554, 0.6125055, 0.027494516, 0.053494517, 0.0884945, 0.9104945, 0.9254945]
13 [0.1925055, 0.0825055, 0.012505493, 0.027494516, 0.053494517, 0.0884945, 0.11049451, 0.050494496]
14 [0.9907473, 0.8797473, 0.81174725, 0.02825276, 0.05325276, 0.08625275, 0.90925276, 0.9262527]
15 [0.19074725, 0.07974726, 0.01174725, 0.02825276, 0.05325276, 0.08625275, 0.10925275, 0.051252738]
16 [0.1896923, 0.07869231, 0.010692305, 0.027307682, 0.051307682, 0.0833077, 0.1083077, 0.049307685]
17 [1.1482418, 0.58724177, 0.51924175, 0.06975824, 0.09375823, 0.12475826, 0.14975825, 1.7087582]
18 [0.19824176, 0.08724176, 0.019241756, 0.019758232, 0.043758232, 0.074758254, 0.09975825, 0.75875825]
19 [0.8572381, 0.7472381, 0.5115714, 0.3597619, 0.71809524, 0.75009525, 0.7750953, 0.7150953]
20 [0.19139011, 0.58139014, 0.5133901, 0.026609879, 0.05160988, 0.083609894, 0.1076099, 0.5466099]
21 [0.19139011, 0.08139011, 0.013390106, 0.026609879, 0.05160988, 0.083609894, 0.1076099, 0.046609886]
22 [0.19139011, 0.4563901, 0.3883901, 0.026609879, 0.05160988, 0.083609894, 0.1076099, 0.9216099]
23 [0.41335958, 0.30435959, 0.23535958, 0.24808486, 0.04986263, 0.082862645, 0.99575156, 0.93675154]
24 [1.0905964, 1.0755965, 0.06350549, 0.028494503, 0.04749451, 0.07349451, 0.55803996, 0.54804]
25 [1.0326099, 1.0414671, 0.7717528, 0.031532966, 0.048532974, 0.07053298, 0.95867586, 0.95967585]
26 [0.17546703, 1.0414671, 0.43246704, 0.031532966, 0.048532974, 0.07053298, 0.10153297, 0.47753298]
27 [1.0660329, 0.66203296, 0.9480329, 0.035967037, 0.048967026, 0.06596703, 0.08796704, 0.597967]
28 [0.16603297, 0.53703296, 0.92303294, 0.035967037, 0.048967026, 0.06596703, 0.08796704, 0.47296703]
29 [0.15687363, 0.15387362, 0.036873627, 0.039126385, 0.050126374, 0.061126363, 0.07712637, 0.09012638]
30 [1.0736923, 1.0726923, 1.0566922, 0.04687913, 0.05287913, 0.06087912, 0.07087911, 0.29916483]
31 [0.14512087, 1.0191209, 1.0031209, 0.04687913, 0.05287913, 0.06087912, 0.07087911, 0.08487912]
32 [0.23414835, 1.0841484, 1.0811484, 1.0038517, 0.05685166, 0.061851654, 0.066851646, 0.073851645]
33 [0.121895604, 0.121895604, 0.8728956, 0.8121044, 0.06110439, 0.06110439, 0.060104392, 0.060104392]
34 [0.121895604, 0.121895604, 0.8728956, 0.8121044, 0.06110439, 0.06110439, 0.060104392, 0.060104392]
35 [0.042604394, 0.11537363, 1.1018901, 0.118373625, 0.08860438, 0.06961538, 0.06161539, 0.052615374]
36 [0.031615384, 0.104384616, 0.9823846, 0.9823846, 0.07761537, 0.06961538, 0.06161539, 0.052615374]
37 [0.025412085, 0.4274121, 0.97758794, 0.9795879, 0.9615879, 0.07141209, 0.061412096, 0.050412085]
38 [0.019884616, 0.17922652, 1.038329, 1.041329, 0.20899573, 0.1922265, 0.06611537, 0.051115386]
39 [0.019884616, 0.0681154, 0.09388462, 0.8468846, 0.8478846, 0.08111538, 0.06611537, 0.051115386]
40 [0.018236259, 0.46276373, 0.98723626, 0.9912362, 0.99423623, 0.48776373, 0.068763725, 0.052763734]
41 [0.8932363, 0.062763736, 0.08723626, 0.46623626, 0.46923625, 0.087763734, 0.068763725, 0.052763734]
42 [0.891989, 0.05798901, 0.08798902, 0.461011, 0.465011, 0.08901099, 0.06798901, 0.05598901]
43 [0.5166154, 0.05461539, 0.09361539, 0.5813846, 0.5863846, 0.08738461, 0.07961538, 0.058615386]
44 [0.016928568, 0.05292857, 0.9868175, 0.9669603, 0.638627, 0.641627, 0.9718175, 0.060928576]
45 [0.015972527, 0.05097253, 0.92830586, 0.93330586, 0.9153608, 0.41936082, 0.91630584, 0.39330587]
46 [0.015972527, 0.05097253, 0.094972536, 0.9571154, 0.08202747, 0.08602747, 0.08297252, 0.059972532]
47 [0.34893224, 0.048598904, 0.09059891, 0.7682656, 0.7480678, 0.7520678, 0.7472656, 0.39093223]
48 [0.6822656, 0.048598904, 0.09059891, 0.7682656, 0.7480678, 0.7520678, 0.0805989, 0.057598896]
49 [0.5147857, 0.04678572, 0.087785706, 0.102785714, 0.5812143, 0.58521426, 0.08321429, 0.05578571]
