0 -3.1415286
0 -3.1415925
0 -3.1415925
0 -3.1415925
0 -3.1415927
0 3.1415923
0 3.1415925
0 -6.4194304E-5
0 1.0471984
1 -3.1415286
1 -3.1415925
1 -3.1415925
1 -3.1415925
1 -3.1415927
1 3.1415923
1 3.1415925
1 -6.4194304E-5
1 1.0471984
2 3.1349418
2 3.138044
2 3.1382642
2 3.1380568
2 3.1372654
2 3.1349921
2 3.1229546
2 0.0066506276
2 1.0522045
3 3.1349418
3 3.138044
3 3.1382642
3 3.1380568
3 3.1372654
3 3.1349921
3 3.1229546
3 0.0066506276
3 1.0522045
4 3.1288924
4 3.1349492
4 3.1353862
4 3.135026
4 3.1335979
4 3.1295142
4 3.1088343
4 0.012699871
4 1.0631946
5 3.1288924
5 3.1349492
5 3.1353862
5 3.135026
5 3.1335979
5 3.1295142
5 3.1088343
5 0.012699871
5 1.0631946
6 3.130139
6 3.1357467
6 3.1361663
6 3.1358876
6 3.134703
6 3.1313357
6 3.115345
6 0.011453253
6 1.0807498
7 3.130139
7 3.1357467
7 3.1361663
7 3.1358876
7 3.134703
7 3.1313357
7 3.115345
7 0.011453253
7 1.0807498
8 3.1301658
8 3.1359546
8 3.136403
8 3.1361809
8 3.1351235
8 3.1321347
8 3.1189408
8 0.011426659
8 1.1034174
9 3.1301658
9 3.1359546
9 3.136403
9 3.1361809
9 3.1351235
9 3.1321347
9 3.1189408
9 0.011426659
9 1.1034174
10 3.1302874
10 3.1361935
10 3.1366618
10 3.1364882
10 3.1355467
10 3.1328926
10 3.1218376
10 0.011305043
10 1.1241614
11 3.1302874
11 3.1361935
11 3.1366618
11 3.1364882
11 3.1355467
11 3.1328926
11 3.1218376
11 0.011305043
11 1.1241614
12 3.1300588
12 3.136239
12 3.1367347
12 3.1365943
12 3.1357162
12 3.1332412
12 3.1233695
12 0.011533737
12 1.1412898
13 3.1300588
13 3.136239
13 3.1367347
13 3.1365943
13 3.1357162
13 3.1332412
13 3.1233695
13 0.011533737
13 1.1412898
14 3.131117
14 3.1368387
14 3.137301
14 3.137198
14 3.1364555
14 3.1343613
14 3.1262662
14 0.010475282
14 1.154795
15 3.131117
15 3.1368387
15 3.137301
15 3.137198
15 3.1364555
15 3.1343613
15 3.1262662
15 0.010475282
15 1.154795
16 3.1306875
16 3.1367419
16 3.1372323
16 3.1371453
16 3.136418
16 3.1343644
16 3.1266136
16 0.010904852
16 1.1658951
17 3.1306875
17 3.1367419
17 3.1372323
17 3.1371453
17 3.136418
17 3.1343644
17 3.1266136
17 0.010904852
17 1.1658951
18 3.130628
18 3.1367815
18 3.1372802
18 3.1372058
18 3.1365044
18 3.1345205
18 3.1271474
18 0.010964496
18 1.1733427
19 3.130628
19 3.1367815
19 3.1372802
19 3.1372058
19 3.1365044
19 3.1345205
19 3.1271474
19 0.010964496
19 1.1733427
20 3.1307805
20 3.1368504
20 3.1373427
20 3.1372697
20 3.1365793
20 3.1346262
20 3.1273715
20 0.010812018
20 1.1736519
21 3.1307805
21 3.1368504
21 3.1373427
21 3.1372697
21 3.1365793
21 3.1346262
21 3.1273715
21 0.010812018
21 1.1736519
22 3.1320124
22 3.1373522
22 3.137786
22 3.1377146
22 3.1370869
22 3.1353126
22 3.1286633
22 0.009580402
22 1.1692467
23 3.1320124
23 3.1373522
23 3.137786
23 3.1377146
23 3.1370869
23 3.1353126
23 3.1286633
23 0.009580402
23 1.1692467
24 3.1322272
24 3.1374123
24 3.1378334
24 3.1377566
24 3.1371272
24 3.1353495
24 3.128624
24 0.009365353
24 1.1646909
25 3.1322272
25 3.1374123
25 3.1378334
25 3.1377566
25 3.1371272
25 3.1353495
25 3.128624
25 0.009365353
25 1.1646909
26 3.1314447
26 3.1370523
26 3.1375067
26 3.137421
26 3.1367328
26 3.1347907
26 3.1274154
26 0.01014784
26 1.1629951
27 3.1318767
27 3.137284
27 3.137723
27 3.1376488
27 3.1370082
27 3.1351986
27 3.1283994
27 0.009715766
27 1.1681179
28 3.1319268
28 3.1374016
28 3.1378462
28 3.137791
28 3.1371958
28 3.1355097
28 3.1293304
28 0.009665709
28 1.1803145
29 3.1323004
29 3.1377125
29 3.1381507
29 3.1381242
29 3.1376135
29 3.1361575
29 3.1310112
29 0.009292166
29 1.1999769
30 3.1328697
30 3.13815
30 3.1385722
30 3.138578
30 3.1381721
30 3.1369998
30 3.1330364
30 0.008722567
30 1.2273961
31 3.1339216
31 3.138772
31 3.1391492
31 3.1391811
31 3.1388903
31 3.1380312
31 3.1352518
31 0.0076708375
31 1.2589417
32 3.1360698
32 3.139708
32 3.1399817
32 3.1400201
32 3.1398518
32 3.1393387
32 3.137738
32 0.005522703
32 1.2904382
33 3.1372504
33 3.1402044
33 3.1404188
33 3.1404572
33 3.1403475
33 3.140002
33 3.1389513
33 0.0043419455
33 1.3155851
34 3.1383386
34 3.1406224
34 3.1407814
34 3.140815
34 3.140748
34 3.1405277
34 3.1398728
34 0.0032533954
34 1.3411674
35 3.1397946
35 3.1410973
35 3.1411848
35 3.1412063
35 3.1411781
35 3.1410787
35 3.1407897
35 0.0017976429
35 1.3748634
36 3.1414576
36 3.141516
36 3.1415305
36 3.141534
36 3.1415308
36 3.1415167
36 3.1414776
36 1.3415376E-4
36 1.4072316
37 -3.1405013
37 -3.1414382
37 -3.1414688
37 -3.1414778
37 -3.141472
37 -3.1414473
37 -3.1413767
37 -0.0010920746
37 1.4317722
38 -3.139826
38 -3.1413662
38 -3.1414135
38 -3.141428
38 -3.1414213
38 -3.1413887
38 -3.1412952
38 -0.0017682861
38 1.4568713
39 -3.1379168
39 -3.1412232
39 -3.1413054
39 -3.1413321
39 -3.1413248
39 -3.1412778
39 -3.141145
39 -0.0036777188
39 1.4901444
40 -3.1331809
40 -3.1411536
40 -3.141259
40 -3.1412947
40 -3.1412907
40 -3.141244
40 -3.1411107
40 -0.00841491
40 1.5313051
41 -0.023073522
41 -3.1412907
41 -3.1413698
41 -3.1413977
41 -3.1413984
41 -3.141373
41 -3.1412983
41 -3.1185014
41 1.580699
42 -0.0034737852
42 -3.141279
42 -3.1413693
42 -3.1414015
42 -3.1414058
42 -3.1413858
42 -3.1413238
42 -3.1381147
42 1.6348839
43 -0.0028859174
43 -3.141025
43 -3.141205
43 -3.141269
43 -3.1412826
43 -3.141256
43 -3.1411684
43 -3.1387048
43 1.691125
44 -0.004437517
44 -3.1400921
44 -3.1406157
44 -3.1407974
44 -3.1408463
44 -3.1407993
44 -3.1406207
44 -3.1371539
44 1.7481391
45 -0.006325249
45 -3.1384652
45 -3.1396587
45 -3.140059
45 -3.1401808
45 -3.1401205
45 -3.1398327
45 -3.1352663
45 1.8013356
46 -0.008854223
46 -3.1355004
46 -3.1380477
46 -3.1388607
46 -3.1391287
46 -3.139072
46 -3.1386487
46 -3.1327379
46 1.8552095
47 -0.010011351
47 -3.132394
47 -3.136597
47 -3.1378543
47 -3.1382875
47 -3.138272
47 -3.137796
47 -3.1315806
47 1.9063797
48 -0.010163926
48 -3.129793
48 -3.135605
48 -3.1372283
48 -3.1377993
48 -3.1378376
48 -3.137371
48 -3.1314282
48 1.9486156
49 -0.009321025
49 -3.1283271
49 -3.1353097
49 -3.1371233
49 -3.1377664
49 -3.1378534
49 -3.1374476
49 -3.1322713
49 1.9849226
