-1.1499999 0.7250001
-1.1501766 0.72479427
-1.1503025 0.7249611
-1.1503025 0.7249611
-1.1503581 0.7245739
-1.150601 0.7237886
-1.1489378 0.7229406
-1.1489378 0.7229406
-1.1455506 0.7223401
-1.1417364 0.72216547
-1.1362054 0.72266036
-1.1362054 0.72266036
-1.1184294 0.7250179
-1.11007 0.7261594
-1.1060994 0.7268251
-1.0999999 0.7294489
-1.0999999 0.7294489
-1.0948412 0.73286164
-1.0948412 0.73286164
-1.0867172 0.73714966
-1.071778 0.7401967
-1.0617025 0.74025273
-1.0617025 0.74025273
-1.0509654 0.73948157
-1.0394963 0.7380396
-1.027698 0.7358972
-1.027698 0.7358972
-1.027698 0.7358972
-1.0053774 0.72952163
-1.0053774 0.72952163
-0.99647915 0.7260207
-0.99647915 0.7260207
-0.99647915 0.7260207
-0.99647915 0.7260207
-0.99647915 0.7260207
-0.9731582 0.7127992
-0.9731582 0.7127992
-0.95460165 0.69701934
-0.95460165 0.69701934
-0.9460634 0.6884855
-0.9391534 0.6813462
-0.93470716 0.67732626
-0.93174374 0.674827
-0.92969894 0.67309165
-0.92736274 0.67067
-0.92736274 0.67067
-0.92736274 0.67067
-0.9272394 0.67056394
-0.92666185 0.66883117
-0.92666185 0.66883117
-0.9263676 0.6673866
-0.9263676 0.6673866
-0.9271839 0.6651463
-0.9271839 0.6651463
-0.92692935 0.66266215
-0.9257838 0.6587192
-0.9257838 0.6587192
-0.9249722 0.6547949
-0.9249722 0.6547949
-0.9245952 0.65131986
-0.9248268 0.6486678
-0.9255673 0.6464771
-0.9268383 0.6449389
-0.9286658 0.6432848
-0.9312372 0.641581
-0.9312372 0.641581
-0.9345536 0.63997334
-0.9372075 0.63753927
-0.93863976 0.63463175
-0.93863976 0.63463175
-0.9390935 0.6316389
-0.9390935 0.6316389
-0.93384933 0.624412
-0.9283248 0.6207857
-0.9204966 0.6175097
-0.9204966 0.6175097
-0.9098571 0.6145586
-0.89799404 0.612516
-0.8855607 0.61130613
-0.8855607 0.61130613
-0.8629328 0.61060375
-0.84759605 0.61101776
-0.81713283 0.61353034
-0.8064766 0.6146673
-0.8064766 0.6146673
-0.79960454 0.61539435
-0.7871702 0.61709905
-0.7784446 0.61844426
-0.7784446 0.61844426
-0.7784446 0.61844426
-0.7698585 0.6200017
-0.75305474 0.62346643
-0.74495375 0.62549394
-0.7373602 0.62759674
-0.7221098 0.63179266
-0.7137469 0.6332263
-0.6987906 0.63383883
-0.69198036 0.63322985
-0.6836754 0.6316875
-0.67057407 0.62891185
-0.66635525 0.6280116
-0.6626899 0.62753606
-0.6612703 0.6282541
-0.6612703 0.6282541
-0.65584403 0.62622416
-0.6534549 0.624895
-0.6517073 0.62337595
-0.6517073 0.62337595
-0.6438302 0.6176874
-0.6357722 0.6126018
-0.6260183 0.6068092
-0.61846864 0.6023052
-0.61846864 0.6023052
-0.6145218 0.59972423
-0.6124996 0.597966
-0.6124996 0.597966
-0.61123717 0.59660923
-0.6086775 0.5946816
-0.6086775 0.5946816
-0.6056067 0.59227395
-0.6055444 0.5920581
-0.6055444 0.5920581
-0.6055444 0.5920581
-0.60392773 0.5912171
-0.60392773 0.5912171
-0.6011759 0.5895742
-0.598647 0.5883721
-0.5963849 0.58791506
-0.59358174 0.58859885
-0.59358174 0.58859885
-0.5907614 0.5881781
-0.5907614 0.5881781
-0.5907614 0.5881781
-0.5878767 0.5875278
-0.5878767 0.5875278
-0.5859156 0.58712035
-0.5859156 0.58712035
-0.5844107 0.5866207
-0.5844107 0.5866207
-0.5844107 0.5866207
-0.5844107 0.5866207
-0.5832957 0.5859594
-0.5826021 0.58517826
-0.58224994 0.58420897
-0.58224994 0.58420897
-0.58224994 0.58420897
-0.57703507 0.5796689
-0.5738187 0.5766468
-0.56822014 0.57014513
-0.5662633 0.56682
-0.5652031 0.560063
-0.56655324 0.55655545
-0.5669766 0.5489694
-0.5641521 0.5452873
-0.5583278 0.54263985
-0.541967 0.53943855
-0.53248495 0.53900373
-0.5173174 0.53815824
-0.5109192 0.53827244
-0.50033486 0.5398163
-0.4957881 0.5413202
-0.488177 0.54521877
-0.48425207 0.5489114
-0.4798048 0.55531424
-0.47062534 0.5756
-0.46683034 0.5878286
-0.4611323 0.615676
-0.45883575 0.63279784
-0.4553569 0.6714633
-0.453962 0.69059366
-0.451902 0.7273162
-0.4507959 0.7453917
-0.44898137 0.77289665
-0.44783306 0.78475606
-0.44587308 0.7980603
-0.44012275 0.8254324
-0.4372385 0.83737695
-0.43541512 0.8457345
-0.43248373 0.8605253
-0.43115783 0.8669337
-0.43115783 0.8669337
-0.4289485 0.87369186
-0.4289485 0.87369186
-0.42522764 0.8816636
-0.42040032 0.88986886
-0.42040032 0.88986886
-0.40865332 0.90568906
-0.40186316 0.91357553
-0.38749236 0.9288291
-0.37852457 0.936371
-0.35832116 0.9484954
-0.34784696 0.95263946
-0.32623622 0.9579531
-0.31509888 0.95904845
-0.30378732 0.9593415
-0.27924925 0.95742625
-0.26314685 0.9551675
-0.2319322 0.94928616
-0.22165716 0.9470066
-0.21277992 0.9449914
-0.21258838 0.94476527
-0.21259947 0.94471455
-0.21261933 0.9447222
-0.21443251 0.94559336
-0.21377726 0.94577694
-0.21146372 0.94558334
-0.19918686 0.9428112
-0.18743953 0.9400221
-0.17208567 0.93615305
-0.15466517 0.93152523
-0.11735816 0.92025244
-0.11735816 0.92025244
-0.077810235 0.9075586
-0.077810235 0.9075586
-0.05818535 0.90129775
-0.03882024 0.8952564
-0.019830612 0.8902446
-0.0011071354 0.8860987
-0.0011071354 0.8860987
0.017738512 0.88253766
0.034755662 0.8795986
0.05022378 0.87693727
0.05022378 0.87693727
0.063838065 0.87460774
0.07390998 0.87280905
0.07390998 0.87280905
0.08230263 0.8712286
0.09253296 0.86957514
0.103952274 0.8681936
0.103952274 0.8681936
0.11524229 0.8670052
0.12554772 0.86595917
0.12554772 0.86595917
0.13355462 0.8649229
0.13831875 0.8634656
0.14309868 0.86205184
0.14309868 0.86205184
0.14791456 0.86114967
0.15360424 0.8613304
0.16170093 0.8628585
0.16170093 0.8628585
0.17084199 0.8656589
0.17869793 0.8687223
0.18546711 0.8715727
0.19574739 0.87650454
0.19980483 0.87847215
0.21121266 0.88718575
0.22028866 0.89494735
0.24400973 0.9180272
0.255937 0.9307623
0.27895015 0.9565104
0.29071715 0.9691496
0.31729522 0.99516076
0.33174253 1.0086544
0.34640604 1.0223001
0.3739919 1.0481999
0.3739919 1.0481999
0.39221373 1.0655797
0.40104905 1.074401
0.41299868 1.0871203
0.41510677 1.0898986
0.4162767 1.0916357
0.4171617 1.0934569
0.41901857 1.095132
0.41901857 1.095132
0.41901857 1.095132
0.4310636 1.1049211
0.44155508 1.113231
0.45350456 1.1228572
0.46403924 1.131145
0.46403924 1.131145
0.46403924 1.131145
0.47342476 1.1383872
0.4826634 1.145845
0.49885076 1.159803
0.49885076 1.159803
0.49885076 1.159803
0.50442517 1.1650432
0.50442517 1.1650432
0.5083921 1.1693642
0.5128232 1.1735852
0.5182373 1.1784537
0.5182373 1.1784537
0.52371854 1.1833359
0.52371854 1.1833359
0.5347625 1.1933392
0.5347625 1.1933392
0.5347625 1.1933392
0.54063475 1.2012628
0.54063475 1.2012628
0.54182243 1.2046806
0.5423089 1.2074893
0.5420794 1.2118846
0.5420794 1.2118846
0.5412537 1.2146289
0.5407942 1.2154777
0.54008716 1.2158854
0.5413159 1.2154471
0.5431232 1.2147046
0.5459054 1.2123308
0.5466436 1.2106194
0.54680115 1.2076924
0.54825735 1.2068243
0.55880946 1.2059275
0.5686462 1.2059718
0.5886406 1.2067866
0.59717405 1.2067666
0.60851014 1.2074746
0.6386948 1.2115831
0.6548165 1.2146435
0.6870266 1.2215681
0.7026526 1.2256645
0.7279275 1.233561
0.7385057 1.2375568
0.75592256 1.2469827
0.76254314 1.2510992
0.77862394 1.263997
0.78606933 1.2709057
0.7909771 1.275214
0.8039964 1.2909033
0.81169444 1.3017925
0.8224982 1.3191121
0.8224982 1.3191121
0.83666533 1.3463746
0.83666533 1.3463746
0.83992165 1.3538582
0.84176064 1.3577043
0.84283197 1.3606964
0.8436812 1.3637575
0.8436812 1.3637575
0.8436362 1.365474
0.84332246 1.3656499
0.84348595 1.3672466
0.84348595 1.3672466
0.8436452 1.3692154
0.8436452 1.3692154
0.8435998 1.3691957
0.84358484 1.3691965
0.8441396 1.3711697
0.8459047 1.376653
0.8459047 1.376653
0.84840024 1.3827417
0.84840024 1.3827417
0.84838927 1.3827078
0.8488277 1.3831269
0.8488277 1.3831269
0.8489072 1.3833272
0.8489072 1.3833272
0.8489072 1.3833272
0.84848106 1.3828937
0.8485106 1.3827982
0.84904987 1.3834862
0.85051984 1.3863659
0.85051984 1.3863659
0.8555948 1.4011227
0.8555948 1.4011227
0.86111563 1.419045
0.86622715 1.4329699
0.87682295 1.4600308
0.88200265 1.4726865
0.88863194 1.4872524
0.90465146 1.5180497
0.9141496 1.5343089
0.93424195 1.5676458
0.93424195 1.5676458
