1 50 45.0 45.0
2 78 67.0 112.0
3 43 43.0 155.0
4 40 32.5 187.5
5 181 161.5 349.0
6 97 70.5 419.5
7 151 123.0 542.5
8 62 62.0 604.5
9 106 86.5 691.0
10 84 77.0 768.0
11 183 102.5 870.5
12 348 335.0 1205.5
13 54 51.5 1257.0
14 194 137.5 1394.5
15 35 22.0 1416.5
16 48 44.5 1461.0
17 140 114.0 1575.0
18 44 42.5 1617.5
19 29 28.5 1646.0
20 80 69.5 1715.5
21 177 148.0 1863.5
22 56 56.0 1919.5
23 90 80.5 2000.0
24 181 131.5 2131.5
25 68 55.5 2187.0
26 73 62.0 2249.0
27 169 134.0 2383.0
28 49 47.0 2430.0
29 22 21.0 2451.0
30 97 85.0 2536.0
31 81 76.0 2612.0
32 62 62.0 2674.0
33 136 99.0 2773.0
34 1 1.0 2774.0
35 161 138.5 2912.5
36 46 43.0 2955.5
37 294 193.5 3149.0
38 38 38.0 3187.0
39 35 32.0 3219.0
40 66 64.5 3283.5
41 94 79.5 3363.0
42 449 345.5 3708.5
43 134 109.5 3818.0
44 139 114.0 3932.0
45 185 129.5 4061.5
46 93 73.0 4134.5
47 61 60.5 4195.0
48 131 110.0 4305.0
49 72 66.5 4371.5
50 44 44.0 4415.5
51 76 71.5 4487.0
52 47 47.0 4534.0
53 89 71.5 4605.5
54 113 95.5 4701.0
55 25 17.0 4718.0
56 156 100.5 4818.5
57 61 55.0 4873.5
58 97 79.0 4952.5
59 172 128.0 5080.5
60 62 49.0 5129.5
61 63 59.5 5189.0
62 188 129.0 5318.0
63 91 60.5 5378.5
64 137 115.0 5493.5
65 38 37.5 5531.0
66 55 51.0 5582.0
67 86 68.0 5650.0
68 47 47.0 5697.0
69 49 41.5 5738.5
70 44 40.0 5778.5
71 86 72.0 5850.5
72 75 67.5 5918.0
73 79 70.0 5988.0
74 56 53.5 6041.5
75 1 1.0 6042.5
76 244 215.0 6257.5
77 195 131.0 6388.5
78 101 61.0 6449.5
79 172 158.5 6608.0
80 101 75.5 6683.5
81 252 196.0 6879.5
82 240 168.0 7047.5
83 52 50.5 7098.0
84 259 165.5 7263.5
85 159 104.0 7367.5
86 108 62.5 7430.0
87 76 65.5 7495.5
88 96 69.0 7564.5
89 56 47.5 7612.0
90 193 177.5 7789.5
91 148 104.5 7894.0
92 105 67.0 7961.0
93 183 151.0 8112.0
94 93 82.5 8194.5
95 66 63.5 8258.0
96 57 56.5 8314.5
97 106 69.0 8383.5
98 37 35.5 8419.0
99 65 58.5 8477.5
100 148 116.0 8593.5
101 111 89.0 8682.5
102 92 90.0 8772.5
103 35 34.0 8806.5
104 115 79.5 8886.0
105 56 52.5 8938.5
106 88 79.5 9018.0
107 104 89.5 9107.5
108 115 82.5 9190.0
109 129 102.5 9292.5
110 67 36.0 9328.5
111 21 20.0 9348.5
112 195 148.0 9496.5
113 63 48.5 9545.0
114 54 53.0 9598.0
115 130 85.0 9683.0
116 102 71.5 9754.5
117 79 76.0 9830.5
118 48 32.0 9862.5
119 198 127.5 9990.0
120 110 80.5 10070.5
121 308 206.0 10276.5
122 233 153.0 10429.5
123 161 114.0 10543.5
124 128 79.5 10623.0
125 163 137.0 10760.0
126 119 76.5 10836.5
127 117 102.0 10938.5
128 162 143.0 11081.5
129 58 57.0 11138.5
130 113 72.5 11211.0
131 150 134.0 11345.0
132 109 75.0 11420.0
133 7 7.0 11427.0
134 198 119.0 11546.0
135 157 118.0 11664.0
136 122 90.5 11754.5
137 131 111.0 11865.5
138 78 69.0 11934.5
139 77 67.0 12001.5
140 50 50.0 12051.5
141 260 173.0 12224.5
142 29 21.0 12245.5
143 347 254.0 12499.5
144 98 89.0 12588.5
145 95 73.5 12662.0
146 127 95.0 12757.0
147 142 124.0 12881.0
148 66 54.5 12935.5
149 200 180.0 13115.5
150 68 62.0 13177.5
151 53 45.0 13222.5
152 147 97.5 13320.0
153 74 60.0 13380.0
154 150 92.0 13472.0
155 27 27.0 13499.0
156 97 74.5 13573.5
157 64 40.0 13613.5
158 145 74.0 13687.5
159 120 112.0 13799.5
160 83 71.0 13870.5
161 122 85.0 13955.5
162 55 54.0 14009.5
163 88 52.5 14062.0
164 39 36.5 14098.5
165 178 102.5 14201.0
166 101 73.0 14274.0
167 242 148.0 14422.0
168 326 209.0 14631.0
169 101 78.0 14709.0
170 37 35.5 14744.5
171 163 122.5 14867.0
172 217 147.5 15014.5
173 98 89.5 15104.0
174 66 66.0 15170.0
175 108 85.5 15255.5
176 126 93.5 15349.0
177 108 81.5 15430.5
178 80 70.0 15500.5
179 71 52.0 15552.5
180 194 152.0 15704.5
181 271 193.5 15898.0
182 277 161.5 16059.5
183 198 120.0 16179.5
184 85 53.0 16232.5
185 74 52.5 16285.0
186 92 73.0 16358.0
187 66 57.5 16415.5
188 51 51.0 16466.5
189 86 77.5 16544.0
190 41 38.0 16582.0
191 87 67.0 16649.0
192 249 159.5 16808.5
193 199 118.0 16926.5
194 39 39.0 16965.5
195 52 46.0 17011.5
196 47 35.5 17047.0
197 193 147.5 17194.5
198 76 62.5 17257.0
199 112 79.0 17336.0
200 66 61.5 17397.5
201 222 166.0 17563.5
202 110 91.5 17655.0
203 293 201.0 17856.0
204 149 111.0 17967.0
205 61 61.0 18028.0
206 146 105.5 18133.5
207 196 156.0 18289.5
208 83 72.5 18362.0
209 31 29.0 18391.0
210 328 205.5 18596.5
211 154 116.5 18713.0
212 189 150.0 18863.0
213 58 37.5 18900.5
214 104 68.0 18968.5
215 189 160.0 19128.5
216 101 78.0 19206.5
217 59 32.0 19238.5
218 392 254.0 19492.5
219 136 97.0 19589.5
220 222 148.5 19738.0
221 127 93.5 19831.5
222 75 74.5 19906.0
223 182 89.0 19995.0
224 93 91.0 20086.0
225 241 190.0 20276.0
226 63 59.0 20335.0
227 101 77.5 20412.5
228 79 77.0 20489.5
229 67 61.5 20551.0
230 113 81.0 20632.0
231 116 79.0 20711.0
232 88 82.5 20793.5
233 41 39.5 20833.0
234 255 148.5 20981.5
235 137 95.0 21076.5
236 419 294.0 21370.5
237 181 134.5 21505.0
238 1 1.0 21506.0
239 168 103.0 21609.0
240 184 122.5 21731.5
241 232 162.5 21894.0
242 314 221.5 22115.5
243 197 139.5 22255.0
244 99 87.5 22342.5
245 211 158.0 22500.5
246 235 165.0 22665.5
247 93 81.0 22746.5
248 66 64.5 22811.0
249 119 90.5 22901.5
250 59 43.5 22945.0
251 115 104.5 23049.5
252 90 60.0 23109.5
253 50 44.0 23153.5
254 126 114.5 23268.0
255 83 68.0 23336.0
256 121 80.0 23416.0
257 125 98.0 23514.0
258 75 64.0 23578.0
259 62 53.0 23631.0
260 204 180.5 23811.5
261 155 100.0 23911.5
262 94 70.5 23982.0
263 98 70.0 24052.0
264 115 75.5 24127.5
265 114 96.0 24223.5
266 191 141.5 24365.0
267 253 187.0 24552.0
268 35 32.0 24584.0
269 271 189.0 24773.0
270 253 211.5 24984.5
271 248 136.0 25120.5
272 132 94.5 25215.0
273 166 102.5 25317.5
274 232 199.0 25516.5
275 25 23.5 25540.0
276 321 248.5 25788.5
277 242 187.0 25975.5
278 148 93.0 26068.5
279 264 176.5 26245.0
280 517 301.0 26546.0
281 78 48.5 26594.5
282 95 69.5 26664.0
283 256 188.0 26852.0
284 89 69.0 26921.0
285 83 79.0 27000.0
286 92 90.0 27090.0
287 137 105.0 27195.0
288 1 1.0 27196.0
289 328 232.5 27428.5
290 102 79.0 27507.5
291 146 113.0 27620.5
292 183 107.5 27728.0
293 111 89.0 27817.0
294 227 164.0 27981.0
295 209 156.5 28137.5
296 174 116.5 28254.0
297 308 238.0 28492.0
298 182 114.0 28606.0
299 101 90.0 28696.0
300 418 301.5 28997.5
301 257 206.0 29203.5
302 87 73.0 29276.5
303 223 154.5 29431.0
304 104 86.0 29517.0
305 195 150.5 29667.5
306 1 0.5 29668.0
307 134 116.5 29784.5
308 42 38.5 29823.0
309 66 66.0 29889.0
310 233 176.5 30065.5
311 72 57.0 30122.5
312 101 68.5 30191.0
313 203 144.0 30335.0
314 320 198.0 30533.0
315 327 222.5 30755.5
316 96 91.0 30846.5
317 78 48.0 30894.5
318 79 78.5 30973.0
319 144 117.0 31090.0
320 233 172.0 31262.0
321 186 148.0 31410.0
322 206 149.0 31559.0
323 700 471.5 32030.5
324 297 189.5 32220.0
325 194 136.5 32356.5
326 100 84.5 32441.0
327 45 28.0 32469.0
328 278 202.0 32671.0
329 122 82.0 32753.0
330 94 90.5 32843.5
331 81 69.0 32912.5
332 206 146.5 33059.0
333 201 150.0 33209.0
334 94 78.5 33287.5
335 109 89.0 33376.5
336 134 77.5 33454.0
337 82 68.0 33522.0
338 129 82.5 33604.5
339 167 100.0 33704.5
340 115 81.5 33786.0
341 119 80.0 33866.0
342 63 52.5 33918.5
343 213 147.5 34066.0
344 38 33.5 34099.5
345 330 244.0 34343.5
346 70 50.5 34394.0
347 186 144.5 34538.5
348 334 218.0 34756.5
349 124 83.0 34839.5
350 94 89.5 34929.0
351 136 107.0 35036.0
352 127 102.5 35138.5
353 164 95.5 35234.0
354 76 65.0 35299.0
355 64 49.0 35348.0
356 130 95.5 35443.5
357 129 94.0 35537.5
358 163 112.5 35650.0
359 94 82.5 35732.5
360 182 143.5 35876.0
361 80 73.0 35949.0
362 57 57.0 36006.0
363 188 135.5 36141.5
364 80 70.5 36212.0
365 174 134.0 36346.0
366 99 80.0 36426.0
367 28 27.5 36453.5
368 1 1.0 36454.5
369 93 92.0 36546.5
370 81 75.0 36621.5
371 181 142.0 36763.5
372 75 67.0 36830.5
373 114 87.5 36918.0
374 129 103.5 37021.5
375 61 61.0 37082.5
376 204 136.5 37219.0
377 134 114.0 37333.0
378 230 214.0 37547.0
379 144 105.0 37652.0
380 60 59.0 37711.0
381 210 148.5 37859.5
382 138 105.5 37965.0
383 101 84.5 38049.5
384 312 221.0 38270.5
385 148 141.5 38412.0
386 369 210.0 38622.0
387 141 89.5 38711.5
388 192 115.0 38826.5
389 99 88.5 38915.0
390 151 107.0 39022.0
391 147 132.5 39154.5
392 116 102.0 39256.5
393 102 89.5 39346.0
394 133 95.0 39441.0
395 236 160.5 39601.5
396 121 47.5 39649.0
397 75 51.5 39700.5
398 91 57.0 39757.5
399 69 47.5 39805.0
400 187 135.5 39940.5
401 73 68.5 40009.0
402 196 159.5 40168.5
403 236 168.5 40337.0
404 144 101.0 40438.0
405 76 61.0 40499.0
406 9 0.0 40499.0
407 150 102.0 40601.0
408 182 166.0 40767.0
409 199 114.5 40881.5
410 135 96.5 40978.0
411 246 159.5 41137.5
412 635 471.5 41609.0
413 65 64.0 41673.0
414 180 152.5 41825.5
415 85 67.5 41893.0
416 700 498.0 42391.0
417 432 305.5 42696.5
418 63 57.0 42753.5
419 700 420.5 43174.0
420 396 284.0 43458.0
421 200 179.0 43637.0
422 93 74.0 43711.0
423 158 122.0 43833.0
424 37 37.0 43870.0
425 700 512.5 44382.5
426 43 37.5 44420.0
427 1 1.0 44421.0
428 155 112.5 44533.5
429 663 475.0 45008.5
430 362 254.0 45262.5
431 140 131.5 45394.0
432 244 172.5 45566.5
433 431 275.0 45841.5
434 177 140.0 45981.5
435 167 90.0 46071.5
436 140 108.0 46179.5
437 371 277.0 46456.5
438 107 103.0 46559.5
439 700 513.5 47073.0
440 312 219.0 47292.0
441 204 129.0 47421.0
442 82 74.0 47495.0
443 1 1.0 47496.0
444 70 63.0 47559.0
445 135 117.0 47676.0
446 21 21.0 47697.0
447 114 85.0 47782.0
448 288 234.5 48016.5
449 700 514.5 48531.0
450 297 203.0 48734.0
451 483 392.5 49126.5
452 249 200.0 49326.5
453 177 138.0 49464.5
454 71 59.5 49524.0
455 34 31.0 49555.0
456 58 47.0 49602.0
457 700 537.0 50139.0
458 81 63.5 50202.5
459 395 240.0 50442.5
460 102 85.0 50527.5
461 52 48.0 50575.5
462 103 86.5 50662.0
463 251 178.0 50840.0
464 700 594.5 51434.5
465 605 455.0 51889.5
466 236 182.0 52071.5
467 121 72.0 52143.5
468 72 59.5 52203.0
469 257 176.0 52379.0
470 98 69.5 52448.5
471 700 601.0 53049.5
472 159 122.5 53172.0
473 219 168.0 53340.0
474 700 496.5 53836.5
475 356 229.0 54065.5
476 700 559.0 54624.5
477 391 268.5 54893.0
478 171 117.0 55010.0
479 74 58.5 55068.5
480 700 484.0 55552.5
481 246 174.5 55727.0
482 157 110.0 55837.0
483 119 80.0 55917.0
484 670 422.5 56339.5
485 700 562.5 56902.0
486 700 507.0 57409.0
487 224 182.5 57591.5
488 700 474.5 58066.0
489 165 104.0 58170.0
490 614 458.0 58628.0
491 67 62.5 58690.5
492 49 49.0 58739.5
493 80 74.5 58814.0
494 128 100.5 58914.5
495 1 1.0 58915.5
496 114 95.5 59011.0
497 245 191.0 59202.0
498 700 465.0 59667.0
499 232 149.0 59816.0
500 77 73.0 59889.0
501 636 441.0 60330.0
502 91 64.0 60394.0
503 64 58.5 60452.5
504 112 87.0 60539.5
505 131 111.5 60651.0
506 1 1.0 60652.0
507 181 136.0 60788.0
508 119 97.0 60885.0
509 150 104.0 60989.0
510 700 484.5 61473.5
511 64 55.0 61528.5
512 700 467.5 61996.0
513 318 232.5 62228.5
514 160 101.0 62329.5
515 645 405.5 62735.0
516 700 519.0 63254.0
517 94 73.0 63327.0
518 700 532.5 63859.5
519 130 99.0 63958.5
520 417 273.5 64232.0
521 110 79.5 64311.5
522 344 232.5 64544.0
523 700 462.5 65006.5
524 168 132.5 65139.0
525 700 517.5 65656.5
526 700 494.0 66150.5
527 700 534.0 66684.5
528 700 520.0 67204.5
529 72 61.5 67266.0
530 700 513.0 67779.0
531 79 75.5 67854.5
532 143 88.0 67942.5
533 74 64.0 68006.5
534 121 108.0 68114.5
535 565 423.0 68537.5
536 152 96.5 68634.0
537 378 255.0 68889.0
538 293 169.5 69058.5
539 185 145.0 69203.5
540 70 65.5 69269.0
541 161 115.5 69384.5
542 103 86.5 69471.0
543 700 481.0 69952.0
544 700 576.0 70528.0
545 370 287.5 70815.5
546 700 393.5 71209.0
547 700 462.0 71671.0
548 63 63.0 71734.0
549 104 104.0 71838.0
550 580 383.0 72221.0
551 71 55.0 72276.0
552 153 100.5 72376.5
553 142 100.5 72477.0
554 63 63.0 72540.0
555 138 104.5 72644.5
556 523 377.0 73021.5
557 112 94.0 73115.5
558 101 58.0 73173.5
559 700 516.0 73689.5
560 700 513.0 74202.5
561 339 226.5 74429.0
562 615 429.0 74858.0
563 700 518.5 75376.5
564 134 115.0 75491.5
565 60 59.0 75550.5
566 35 35.0 75585.5
567 449 309.5 75895.0
568 700 504.0 76399.0
569 700 476.0 76875.0
570 94 84.5 76959.5
571 133 107.5 77067.0
572 126 89.0 77156.0
573 65 57.0 77213.0
574 240 168.5 77381.5
575 190 143.0 77524.5
576 373 322.0 77846.5
577 105 87.0 77933.5
578 57 53.5 77987.0
579 102 69.0 78056.0
580 338 260.0 78316.0
581 138 119.5 78435.5
582 700 488.0 78923.5
583 253 173.0 79096.5
584 68 60.0 79156.5
585 700 553.5 79710.0
586 322 186.0 79896.0
587 298 157.0 80053.0
588 657 506.5 80559.5
589 106 88.0 80647.5
590 51 50.5 80698.0
591 141 121.5 80819.5
592 216 151.0 80970.5
593 114 103.0 81073.5
594 336 226.0 81299.5
595 76 68.0 81367.5
596 102 73.0 81440.5
597 239 209.5 81650.0
598 173 133.0 81783.0
599 463 280.5 82063.5
600 448 322.0 82385.5
601 176 130.5 82516.0
602 559 326.5 82842.5
603 103 75.0 82917.5
604 57 52.0 82969.5
605 374 241.5 83211.0
606 532 364.0 83575.0
607 700 538.5 84113.5
608 206 146.5 84260.0
609 167 116.0 84376.0
610 334 232.0 84608.0
611 270 222.0 84830.0
612 700 462.5 85292.5
613 99 97.0 85389.5
614 133 109.0 85498.5
615 204 152.5 85651.0
616 160 123.0 85774.0
617 700 502.5 86276.5
618 581 417.0 86693.5
619 342 237.5 86931.0
620 591 420.5 87351.5
621 613 512.0 87863.5
622 335 252.0 88115.5
623 191 151.0 88266.5
624 76 58.0 88324.5
625 142 98.5 88423.0
626 700 465.0 88888.0
627 614 450.5 89338.5
628 207 165.0 89503.5
629 700 556.0 90059.5
630 134 112.0 90171.5
631 232 168.5 90340.0
632 700 546.5 90886.5
633 700 467.0 91353.5
634 652 446.0 91799.5
635 320 173.5 91973.0
636 145 127.5 92100.5
637 700 442.0 92542.5
638 160 102.0 92644.5
639 700 499.0 93143.5
640 121 83.5 93227.0
641 334 179.0 93406.0
642 145 110.5 93516.5
643 700 515.0 94031.5
644 84 65.5 94097.0
645 125 71.0 94168.0
646 700 420.5 94588.5
647 141 112.5 94701.0
648 111 89.0 94790.0
649 216 135.0 94925.0
650 342 236.0 95161.0
651 144 135.5 95296.5
652 93 60.0 95356.5
653 64 55.5 95412.0
654 700 521.0 95933.0
655 700 499.0 96432.0
656 181 124.0 96556.0
657 462 393.0 96949.0
658 181 138.5 97087.5
659 127 103.5 97191.0
660 139 95.0 97286.0
661 130 84.5 97370.5
662 74 70.5 97441.0
663 166 137.5 97578.5
664 593 427.0 98005.5
665 116 84.0 98089.5
666 162 135.5 98225.0
667 180 109.0 98334.0
668 240 157.5 98491.5
669 124 79.0 98570.5
670 700 530.5 99101.0
671 679 455.5 99556.5
672 266 208.5 99765.0
673 700 634.0 100399.0
674 608 419.5 100818.5
675 700 552.0 101370.5
676 102 93.5 101464.0
677 123 90.5 101554.5
678 37 37.0 101591.5
679 60 50.0 101641.5
680 700 522.0 102163.5
681 118 97.0 102260.5
682 153 110.5 102371.0
683 130 120.5 102491.5
684 87 64.0 102555.5
685 398 247.5 102803.0
686 316 167.5 102970.5
687 31 31.0 103001.5
688 232 154.0 103155.5
689 114 79.0 103234.5
690 94 87.0 103321.5
691 174 133.5 103455.0
692 60 56.0 103511.0
693 647 483.5 103994.5
694 202 140.0 104134.5
695 80 73.0 104207.5
696 400 281.0 104488.5
697 125 102.0 104590.5
698 81 56.0 104646.5
699 57 54.0 104700.5
700 121 118.5 104819.0
701 700 460.5 105279.5
702 74 71.0 105350.5
703 700 467.5 105818.0
704 121 109.5 105927.5
705 700 534.0 106461.5
706 147 118.0 106579.5
707 122 105.0 106684.5
708 1 1.0 106685.5
709 127 89.0 106774.5
710 424 314.0 107088.5
711 700 454.5 107543.0
712 700 501.0 108044.0
713 700 450.5 108494.5
714 305 162.5 108657.0
715 357 265.0 108922.0
716 700 460.0 109382.0
717 700 496.5 109878.5
718 239 144.5 110023.0
719 700 469.5 110492.5
720 75 51.5 110544.0
721 200 89.0 110633.0
722 101 97.5 110730.5
723 171 122.5 110853.0
724 116 104.0 110957.0
725 227 175.0 111132.0
726 453 351.0 111483.0
727 103 103.0 111586.0
728 447 319.5 111905.5
729 56 47.5 111953.0
730 565 426.5 112379.5
731 1 1.0 112380.5
732 260 190.0 112570.5
733 42 33.0 112603.5
734 47 40.0 112643.5
735 140 82.0 112725.5
736 169 136.5 112862.0
737 206 137.5 112999.5
738 401 318.5 113318.0
739 216 170.0 113488.0
740 305 194.0 113682.0
741 413 301.5 113983.5
742 272 196.0 114179.5
743 68 39.5 114219.0
744 219 190.5 114409.5
745 161 132.5 114542.0
746 94 79.5 114621.5
747 700 503.5 115125.0
748 115 106.5 115231.5
749 150 103.5 115335.0
750 591 321.0 115656.0
751 71 60.5 115716.5
752 550 380.5 116097.0
753 50 49.5 116146.5
754 135 123.0 116269.5
755 157 108.5 116378.0
756 406 269.5 116647.5
757 700 510.5 117158.0
758 700 513.5 117671.5
759 110 59.0 117730.5
760 134 120.5 117851.0
761 570 410.5 118261.5
762 117 101.0 118362.5
763 118 94.5 118457.0
764 136 91.0 118548.0
765 342 223.0 118771.0
766 69 63.0 118834.0
767 700 535.5 119369.5
768 458 327.0 119696.5
769 206 185.0 119881.5
770 110 90.0 119971.5
771 700 525.5 120497.0
772 80 57.5 120554.5
773 89 64.5 120619.0
774 694 510.5 121129.5
775 700 508.0 121637.5
776 206 115.0 121752.5
777 201 112.5 121865.0
778 444 334.5 122199.5
779 277 177.0 122376.5
780 700 528.5 122905.0
781 700 460.5 123365.5
782 55 54.0 123419.5
783 180 147.5 123567.0
784 426 284.0 123851.0
785 52 52.0 123903.0
786 480 365.5 124268.5
787 183 144.5 124413.0
788 344 239.0 124652.0
789 700 457.5 125109.5
790 556 371.0 125480.5
791 269 198.0 125678.5
792 200 131.5 125810.0
793 75 56.5 125866.5
794 309 192.5 126059.0
795 121 95.5 126154.5
796 89 48.5 126203.0
797 188 110.0 126313.0
798 700 513.0 126826.0
799 296 162.5 126988.5
800 274 163.0 127151.5
801 593 456.0 127607.5
802 137 109.0 127716.5
803 700 474.0 128190.5
804 700 436.5 128627.0
805 86 65.0 128692.0
806 700 540.5 129232.5
807 46 38.0 129270.5
808 378 305.0 129575.5
809 700 467.0 130042.5
810 100 88.0 130130.5
811 574 386.0 130516.5
812 170 108.0 130624.5
813 236 187.5 130812.0
814 1 1.0 130813.0
815 700 543.5 131356.5
816 99 72.5 131429.0
817 168 131.5 131560.5
818 606 438.0 131998.5
819 700 528.0 132526.5
820 78 60.0 132586.5
821 136 68.5 132655.0
822 113 91.0 132746.0
823 700 488.5 133234.5
824 364 252.5 133487.0
825 700 488.0 133975.0
826 700 454.0 134429.0
827 700 553.5 134982.5
828 163 117.5 135100.0
829 173 129.0 135229.0
830 86 62.0 135291.0
831 288 242.0 135533.0
832 169 120.0 135653.0
833 195 97.0 135750.0
834 700 551.5 136301.5
835 264 180.5 136482.0
836 247 186.5 136668.5
837 313 265.5 136934.0
838 298 240.0 137174.0
839 352 248.5 137422.5
840 118 100.0 137522.5
841 700 471.5 137994.0
842 700 462.5 138456.5
843 184 129.0 138585.5
844 174 122.5 138708.0
845 700 576.0 139284.0
846 700 394.5 139678.5
847 99 79.0 139757.5
848 42 41.0 139798.5
849 380 263.5 140062.0
850 91 77.0 140139.0
851 74 59.5 140198.5
852 700 491.5 140690.0
853 303 200.0 140890.0
854 700 469.0 141359.0
855 47 46.0 141405.0
856 138 86.5 141491.5
857 177 142.5 141634.0
858 148 126.0 141760.0
859 379 249.0 142009.0
860 238 176.0 142185.0
861 130 104.0 142289.0
862 127 99.5 142388.5
863 173 118.0 142506.5
864 615 436.0 142942.5
865 108 87.0 143029.5
866 93 86.0 143115.5
867 79 69.0 143184.5
868 700 519.0 143703.5
869 235 171.0 143874.5
870 700 533.0 144407.5
871 700 456.0 144863.5
872 402 240.0 145103.5
873 700 455.5 145559.0
874 336 213.0 145772.0
875 352 273.0 146045.0
876 597 401.5 146446.5
877 72 66.0 146512.5
878 224 151.5 146664.0
879 458 370.5 147034.5
880 89 72.0 147106.5
881 169 114.0 147220.5
882 700 542.5 147763.0
883 347 261.0 148024.0
884 165 112.0 148136.0
885 700 528.0 148664.0
886 229 162.0 148826.0
887 197 140.0 148966.0
888 265 164.5 149130.5
889 51 50.0 149180.5
890 233 183.5 149364.0
891 136 116.0 149480.0
892 166 130.0 149610.0
893 273 172.0 149782.0
894 181 119.0 149901.0
895 214 174.0 150075.0
896 700 507.5 150582.5
897 95 72.5 150655.0
898 320 248.5 150903.5
899 93 88.5 150992.0
900 291 231.5 151223.5
901 700 478.0 151701.5
902 208 156.0 151857.5
903 180 111.0 151968.5
904 9 9.0 151977.5
905 155 127.5 152105.0
906 315 195.5 152300.5
907 700 551.5 152852.0
908 294 225.5 153077.5
909 57 57.0 153134.5
910 52 50.0 153184.5
911 159 101.5 153286.0
912 700 523.5 153809.5
913 105 78.0 153887.5
914 181 115.0 154002.5
915 192 134.0 154136.5
916 96 91.0 154227.5
917 248 163.5 154391.0
918 87 59.0 154450.0
919 663 451.0 154901.0
920 535 383.5 155284.5
921 248 165.0 155449.5
922 700 530.5 155980.0
923 266 219.5 156199.5
924 700 480.0 156679.5
925 139 86.0 156765.5
926 700 495.0 157260.5
927 94 80.5 157341.0
928 525 290.5 157631.5
929 700 451.5 158083.0
930 497 398.5 158481.5
931 72 47.5 158529.0
932 75 68.0 158597.0
933 267 207.0 158804.0
934 169 126.5 158930.5
935 132 123.5 159054.0
936 131 97.5 159151.5
937 155 77.0 159228.5
938 213 136.0 159364.5
939 426 292.0 159656.5
940 395 290.0 159946.5
941 488 295.0 160241.5
942 700 488.5 160730.0
943 227 119.0 160849.0
944 700 446.5 161295.5
945 700 508.0 161803.5
946 103 92.5 161896.0
947 187 160.5 162056.5
948 37 34.0 162090.5
949 700 500.5 162591.0
950 700 569.0 163160.0
951 218 137.5 163297.5
952 191 105.5 163403.0
953 381 301.0 163704.0
954 700 520.5 164224.5
955 215 152.0 164376.5
956 335 195.5 164572.0
957 159 108.0 164680.0
958 106 88.0 164768.0
959 360 271.0 165039.0
960 70 61.0 165100.0
961 700 554.0 165654.0
962 383 237.5 165891.5
963 700 382.5 166274.0
964 460 335.0 166609.0
965 700 525.5 167134.5
966 94 52.0 167186.5
967 249 189.0 167375.5
968 700 469.5 167845.0
969 700 480.0 168325.0
970 143 101.5 168426.5
971 700 517.5 168944.0
972 700 488.0 169432.0
973 700 462.5 169894.5
974 108 86.5 169981.0
975 230 158.0 170139.0
976 33 33.0 170172.0
977 293 198.0 170370.0
978 468 297.5 170667.5
979 321 219.0 170886.5
980 124 114.0 171000.5
981 700 436.5 171437.0
982 171 120.5 171557.5
983 700 453.5 172011.0
984 125 113.0 172124.0
985 159 111.0 172235.0
986 340 252.0 172487.0
987 210 150.0 172637.0
988 78 66.5 172703.5
989 413 290.5 172994.0
990 107 102.5 173096.5
991 362 236.0 173332.5
992 94 69.0 173401.5
993 183 131.0 173532.5
994 193 124.5 173657.0
995 240 161.5 173818.5
996 700 443.5 174262.0
997 111 98.5 174360.5
998 700 489.0 174849.5
999 227 187.5 175037.0
1000 150 119.5 175156.5
1001 1 0.5 175157.0
1002 119 77.5 175234.5
1003 95 69.5 175304.0
1004 96 80.0 175384.0
1005 280 215.0 175599.0
1006 700 465.0 176064.0
1007 700 481.0 176545.0
1008 161 103.0 176648.0
1009 647 472.0 177120.0
1010 393 301.5 177421.5
1011 328 243.5 177665.0
1012 700 460.5 178125.5
1013 215 193.5 178319.0
1014 132 109.5 178428.5
1015 656 471.0 178899.5
1016 448 336.5 179236.0
1017 108 49.5 179285.5
1018 103 76.5 179362.0
1019 662 507.0 179869.0
1020 401 304.0 180173.0
1021 393 226.5 180399.5
1022 77 66.0 180465.5
1023 700 473.0 180938.5
1024 499 409.0 181347.5
1025 219 153.5 181501.0
1026 113 88.0 181589.0
1027 145 72.0 181661.0
1028 94 68.0 181729.0
1029 700 480.0 182209.0
1030 700 485.5 182694.5
1031 700 460.5 183155.0
1032 700 472.5 183627.5
1033 118 97.5 183725.0
1034 118 95.5 183820.5
1035 344 286.0 184106.5
1036 142 116.0 184222.5
1037 57 55.0 184277.5
1038 68 64.0 184341.5
1039 700 516.0 184857.5
1040 381 294.0 185151.5
1041 52 46.0 185197.5
1042 71 65.5 185263.0
1043 700 549.5 185812.5
1044 121 77.0 185889.5
1045 582 437.0 186326.5
1046 187 155.5 186482.0
1047 44 44.0 186526.0
1048 700 463.0 186989.0
1049 52 46.5 187035.5
1050 700 514.0 187549.5
1051 206 157.0 187706.5
1052 495 349.0 188055.5
1053 175 120.0 188175.5
1054 59 59.0 188234.5
1055 58 50.5 188285.0
1056 145 109.0 188394.0
1057 700 537.0 188931.0
1058 134 108.0 189039.0
1059 329 229.0 189268.0
1060 198 158.5 189426.5
1061 700 510.0 189936.5
1062 278 177.5 190114.0
1063 381 275.0 190389.0
1064 204 143.5 190532.5
1065 235 177.5 190710.0
1066 132 98.5 190808.5
1067 700 534.0 191342.5
1068 700 465.5 191808.0
1069 700 427.0 192235.0
1070 109 75.5 192310.5
1071 700 487.0 192797.5
1072 126 89.0 192886.5
1073 514 364.0 193250.5
1074 198 117.5 193368.0
1075 164 137.0 193505.0
1076 582 400.0 193905.0
1077 73 52.5 193957.5
1078 396 293.5 194251.0
1079 212 140.5 194391.5
1080 463 358.0 194749.5
1081 200 135.5 194885.0
1082 176 119.0 195004.0
1083 249 152.5 195156.5
1084 138 101.0 195257.5
1085 214 135.0 195392.5
1086 700 499.0 195891.5
1087 118 92.0 195983.5
1088 149 110.0 196093.5
1089 199 124.5 196218.0
1090 700 478.0 196696.0
1091 147 79.5 196775.5
1092 132 117.0 196892.5
1093 90 61.0 196953.5
1094 87 74.0 197027.5
1095 141 96.5 197124.0
1096 92 85.5 197209.5
1097 700 440.5 197650.0
1098 192 129.0 197779.0
1099 552 339.0 198118.0
1100 662 426.0 198544.0
1101 141 94.0 198638.0
1102 225 141.0 198779.0
1103 91 86.5 198865.5
1104 234 172.5 199038.0
1105 210 156.0 199194.0
1106 190 137.0 199331.0
1107 73 65.0 199396.0
1108 129 69.5 199465.5
1109 700 466.0 199931.5
1110 85 80.5 200012.0
1111 700 352.5 200364.5
1112 140 83.5 200448.0
1113 700 490.0 200938.0
1114 74 70.5 201008.5
1115 39 36.0 201044.5
1116 145 91.0 201135.5
1117 206 161.5 201297.0
1118 70 52.0 201349.0
1119 343 277.5 201626.5
1120 472 276.5 201903.0
1121 411 294.5 202197.5
1122 700 415.0 202612.5
1123 700 537.0 203149.5
1124 130 77.0 203226.5
1125 442 339.5 203566.0
1126 223 169.0 203735.0
1127 65 35.5 203770.5
1128 439 319.0 204089.5
1129 700 453.5 204543.0
1130 97 80.5 204623.5
1131 700 514.0 205137.5
1132 68 63.0 205200.5
1133 700 459.0 205659.5
1134 700 487.0 206146.5
1135 438 341.5 206488.0
1136 222 177.5 206665.5
1137 121 108.0 206773.5
1138 1 1.0 206774.5
1139 700 425.5 207200.0
1140 219 156.5 207356.5
1141 239 160.0 207516.5
1142 544 354.0 207870.5
1143 157 116.0 207986.5
1144 147 125.0 208111.5
1145 109 71.5 208183.0
1146 241 199.5 208382.5
1147 103 87.0 208469.5
1148 658 502.0 208971.5
1149 287 206.0 209177.5
1150 38 32.0 209209.5
1151 227 141.5 209351.0
1152 173 98.0 209449.0
1153 72 54.0 209503.0
1154 94 68.5 209571.5
1155 158 97.5 209669.0
1156 236 170.5 209839.5
1157 470 240.5 210080.0
1158 178 149.0 210229.0
1159 199 107.5 210336.5
1160 91 64.0 210400.5
1161 689 525.5 210926.0
1162 390 233.5 211159.5
1163 1 1.0 211160.5
1164 700 506.5 211667.0
1165 441 252.5 211919.5
1166 382 243.5 212163.0
1167 333 235.5 212398.5
1168 449 326.5 212725.0
1169 67 65.5 212790.5
1170 287 192.0 212982.5
1171 51 40.5 213023.0
1172 127 81.5 213104.5
1173 700 491.5 213596.0
1174 89 68.5 213664.5
1175 143 126.0 213790.5
1176 106 84.0 213874.5
1177 288 233.5 214108.0
1178 452 329.0 214437.0
1179 385 258.5 214695.5
1180 130 101.5 214797.0
1181 192 130.5 214927.5
1182 213 171.5 215099.0
1183 124 97.5 215196.5
1184 138 110.0 215306.5
1185 83 80.5 215387.0
1186 360 234.0 215621.0
1187 252 185.0 215806.0
1188 700 530.5 216336.5
1189 242 173.0 216509.5
1190 66 63.0 216572.5
1191 97 90.5 216663.0
1192 254 193.5 216856.5
1193 73 65.0 216921.5
1194 406 240.5 217162.0
1195 700 564.5 217726.5
1196 103 78.5 217805.0
1197 175 134.0 217939.0
1198 313 248.5 218187.5
1199 130 94.0 218281.5
1200 345 278.5 218560.0
