1 115 77.5 77.5
2 98 92.5 170.0
3 68 51.0 221.0
4 148 85.5 306.5
5 143 125.5 432.0
6 131 95.0 527.0
7 28 28.0 555.0
8 74 60.5 615.5
9 80 58.0 673.5
10 51 50.0 723.5
11 64 54.5 778.0
12 51 48.0 826.0
13 156 110.5 936.5
14 126 106.5 1043.0
15 167 125.5 1168.5
16 98 87.5 1256.0
17 53 48.0 1304.0
18 212 138.5 1442.5
19 52 49.5 1492.0
20 52 47.5 1539.5
21 6 6.0 1545.5
22 101 70.5 1616.0
23 127 82.0 1698.0
24 46 46.0 1744.0
25 86 78.5 1822.5
26 137 128.5 1951.0
27 133 114.0 2065.0
28 196 166.0 2231.0
29 89 76.0 2307.0
30 65 35.5 2342.5
31 263 165.0 2507.5
32 37 35.5 2543.0
33 74 40.5 2583.5
34 78 57.0 2640.5
35 230 173.5 2814.0
36 190 149.0 2963.0
37 162 148.5 3111.5
38 57 57.0 3168.5
39 127 92.5 3261.0
40 214 160.5 3421.5
41 49 49.0 3470.5
42 260 167.5 3638.0
43 133 128.0 3766.0
44 50 50.0 3816.0
45 69 60.5 3876.5
46 142 129.5 4006.0
47 77 62.5 4068.5
48 61 56.5 4125.0
49 99 94.0 4219.0
50 132 111.0 4330.0
51 3 1.5 4331.5
52 58 52.0 4383.5
53 45 42.0 4425.5
54 73 58.5 4484.0
55 43 43.0 4527.0
56 86 78.5 4605.5
57 116 78.0 4683.5
58 33 31.5 4715.0
59 116 115.0 4830.0
60 185 112.5 4942.5
61 33 32.0 4974.5
62 171 136.0 5110.5
63 335 230.0 5340.5
64 57 33.0 5373.5
65 67 63.5 5437.0
66 176 140.0 5577.0
67 82 63.0 5640.0
68 129 94.5 5734.5
69 133 115.0 5849.5
70 140 111.0 5960.5
71 89 61.5 6022.0
72 101 87.0 6109.0
73 216 173.5 6282.5
74 54 54.0 6336.5
75 179 126.0 6462.5
76 91 51.0 6513.5
77 181 135.5 6649.0
78 45 41.0 6690.0
79 154 105.5 6795.5
80 161 107.5 6903.0
81 81 33.0 6936.0
82 45 40.5 6976.5
83 285 254.0 7230.5
84 85 59.5 7290.0
85 110 104.5 7394.5
86 84 62.0 7456.5
87 43 24.5 7481.0
88 54 43.5 7524.5
89 254 199.0 7723.5
90 121 89.5 7813.0
91 90 78.0 7891.0
92 50 50.0 7941.0
93 121 113.0 8054.0
94 72 72.0 8126.0
95 61 54.5 8180.5
96 160 131.0 8311.5
97 98 68.5 8380.0
98 92 70.5 8450.5
99 93 87.5 8538.0
100 1 1.0 8539.0
101 66 57.5 8596.5
102 34 32.5 8629.0
103 100 90.0 8719.0
104 74 67.0 8786.0
105 417 228.0 9014.0
106 125 75.0 9089.0
107 50 49.5 9138.5
108 104 82.5 9221.0
109 111 92.0 9313.0
110 1 1.0 9314.0
111 295 235.5 9549.5
112 204 140.0 9689.5
113 97 74.0 9763.5
114 39 39.0 9802.5
115 57 56.0 9858.5
116 79 75.5 9934.0
117 119 85.5 10019.5
118 168 123.0 10142.5
119 244 169.0 10311.5
120 119 51.0 10362.5
121 28 28.0 10390.5
122 31 31.0 10421.5
123 52 45.5 10467.0
124 153 119.5 10586.5
125 131 117.0 10703.5
126 141 122.0 10825.5
127 34 34.0 10859.5
128 150 99.0 10958.5
129 96 72.5 11031.0
130 67 60.5 11091.5
131 424 293.5 11385.0
132 60 49.5 11434.5
133 203 122.5 11557.0
134 165 105.5 11662.5
135 68 64.0 11726.5
136 161 77.0 11803.5
137 94 82.5 11886.0
138 131 100.5 11986.5
139 45 35.0 12021.5
140 64 59.5 12081.0
141 47 28.0 12109.0
142 103 94.5 12203.5
143 45 28.0 12231.5
144 114 88.5 12320.0
145 71 66.5 12386.5
146 225 155.5 12542.0
147 170 118.0 12660.0
148 303 238.0 12898.0
149 50 23.0 12921.0
150 247 158.0 13079.0
151 218 145.0 13224.0
152 14 14.0 13238.0
153 81 53.0 13291.0
154 26 26.0 13317.0
155 76 73.5 13390.5
156 37 19.0 13409.5
157 106 94.5 13504.0
158 150 89.5 13593.5
159 171 111.0 13704.5
160 130 96.5 13801.0
161 143 99.5 13900.5
162 104 92.0 13992.5
163 39 39.0 14031.5
164 186 145.0 14176.5
165 148 102.5 14279.0
166 107 67.0 14346.0
167 43 34.0 14380.0
168 70 66.0 14446.0
169 184 136.0 14582.0
170 84 70.0 14652.0
171 148 114.5 14766.5
172 181 138.5 14905.0
173 103 63.0 14968.0
174 78 74.0 15042.0
175 42 42.0 15084.0
176 83 64.0 15148.0
177 170 100.0 15248.0
178 101 73.0 15321.0
179 154 120.5 15441.5
180 131 124.0 15565.5
181 115 79.0 15644.5
182 166 150.0 15794.5
183 157 100.5 15895.0
184 24 24.0 15919.0
185 348 284.5 16203.5
186 79 53.0 16256.5
187 55 47.5 16304.0
188 36 36.0 16340.0
189 187 115.0 16455.0
190 46 41.0 16496.0
191 136 88.0 16584.0
192 98 90.0 16674.0
193 415 312.5 16986.5
194 454 327.5 17314.0
195 243 208.5 17522.5
196 72 64.0 17586.5
197 257 136.5 17723.0
198 63 58.5 17781.5
199 52 49.0 17830.5
200 151 94.5 17925.0
201 99 84.5 18009.5
202 182 106.5 18116.0
203 127 92.0 18208.0
204 58 58.0 18266.0
205 359 302.0 18568.0
206 54 53.5 18621.5
207 114 88.5 18710.0
208 87 83.0 18793.0
209 54 49.5 18842.5
210 53 44.5 18887.0
211 219 170.0 19057.0
212 135 96.0 19153.0
213 238 166.0 19319.0
214 232 191.0 19510.0
215 116 65.5 19575.5
216 119 65.0 19640.5
217 99 62.0 19702.5
218 45 27.5 19730.0
219 292 204.0 19934.0
220 94 69.5 20003.5
221 307 233.5 20237.0
222 42 42.0 20279.0
223 95 81.5 20360.5
224 185 121.5 20482.0
225 78 69.5 20551.5
226 91 74.5 20626.0
227 65 64.5 20690.5
228 141 111.5 20802.0
229 93 74.0 20876.0
230 219 171.0 21047.0
231 155 119.5 21166.5
232 174 132.0 21298.5
233 82 78.0 21376.5
234 116 90.5 21467.0
235 69 45.0 21512.0
236 171 145.0 21657.0
237 275 183.5 21840.5
238 250 145.5 21986.0
239 183 130.5 22116.5
240 43 39.5 22156.0
241 41 14.5 22170.5
242 321 181.0 22351.5
243 54 41.0 22392.5
244 218 122.0 22514.5
245 341 238.5 22753.0
246 61 52.0 22805.0
247 124 71.0 22876.0
248 117 106.5 22982.5
249 51 46.5 23029.0
250 131 98.5 23127.5
251 153 81.0 23208.5
252 85 58.0 23266.5
253 70 61.5 23328.0
254 121 72.5 23400.5
255 267 152.5 23553.0
256 123 100.5 23653.5
257 100 90.0 23743.5
258 138 119.0 23862.5
259 95 57.5 23920.0
260 79 73.5 23993.5
261 54 41.5 24035.0
262 330 238.0 24273.0
263 47 47.0 24320.0
264 56 56.0 24376.0
265 246 174.0 24550.0
266 108 75.0 24625.0
267 241 185.5 24810.5
268 68 57.0 24867.5
269 371 291.5 25159.0
270 244 200.5 25359.5
271 80 75.5 25435.0
272 193 127.5 25562.5
273 189 158.5 25721.0
274 314 250.5 25971.5
275 57 47.0 26018.5
276 99 91.5 26110.0
277 147 117.0 26227.0
278 207 132.0 26359.0
279 31 30.0 26389.0
280 121 90.5 26479.5
281 72 58.0 26537.5
282 84 52.0 26589.5
283 49 49.0 26638.5
284 1 1.0 26639.5
285 124 111.0 26750.5
286 319 197.5 26948.0
287 296 223.0 27171.0
288 101 64.0 27235.0
289 229 176.0 27411.0
290 44 40.0 27451.0
291 78 73.0 27524.0
292 224 148.5 27672.5
293 69 64.0 27736.5
294 118 84.5 27821.0
295 73 73.0 27894.0
296 154 101.5 27995.5
297 1 1.0 27996.5
298 57 54.5 28051.0
299 142 77.0 28128.0
300 116 83.0 28211.0
301 205 150.5 28361.5
302 1 1.0 28362.5
303 103 99.0 28461.5
304 69 50.5 28512.0
305 477 306.5 28818.5
306 41 23.0 28841.5
307 229 179.0 29020.5
308 10 7.5 29028.0
309 118 67.0 29095.0
310 101 72.5 29167.5
311 168 129.0 29296.5
312 101 81.0 29377.5
313 114 51.0 29428.5
314 87 82.0 29510.5
315 197 151.5 29662.0
316 101 90.0 29752.0
317 54 48.0 29800.0
318 45 45.0 29845.0
319 320 208.5 30053.5
320 82 79.5 30133.0
321 110 68.0 30201.0
322 187 148.5 30349.5
323 150 120.5 30470.0
324 54 51.0 30521.0
325 69 43.5 30564.5
326 160 131.0 30695.5
327 143 106.0 30801.5
328 40 39.0 30840.5
329 148 121.5 30962.0
330 115 86.5 31048.5
331 144 143.0 31191.5
332 146 105.5 31297.0
333 105 87.0 31384.0
334 122 84.0 31468.0
335 138 109.5 31577.5
336 169 155.5 31733.0
337 99 87.0 31820.0
338 117 98.0 31918.0
339 607 441.0 32359.0
340 126 83.0 32442.0
341 208 170.0 32612.0
342 284 218.5 32830.5
343 370 255.5 33086.0
344 432 350.5 33436.5
345 25 25.0 33461.5
346 214 167.5 33629.0
347 101 94.0 33723.0
348 60 56.0 33779.0
349 452 326.0 34105.0
350 192 161.5 34266.5
351 154 125.5 34392.0
352 140 111.0 34503.0
353 107 100.0 34603.0
354 198 160.5 34763.5
355 293 193.0 34956.5
356 700 591.5 35548.0
357 155 105.0 35653.0
358 55 52.0 35705.0
359 232 156.5 35861.5
360 232 162.5 36024.0
361 234 194.0 36218.0
362 140 117.0 36335.0
363 122 88.0 36423.0
364 421 312.0 36735.0
365 339 209.5 36944.5
366 86 77.5 37022.0
367 294 207.5 37229.5
368 155 127.0 37356.5
369 376 253.0 37609.5
370 88 73.0 37682.5
371 192 127.5 37810.0
372 236 182.5 37992.5
373 700 575.5 38568.0
374 183 142.5 38710.5
375 74 69.0 38779.5
376 60 44.0 38823.5
377 222 170.0 38993.5
378 68 67.0 39060.5
379 75 75.0 39135.5
380 158 120.5 39256.0
381 93 86.0 39342.0
382 204 169.0 39511.0
383 144 66.0 39577.0
384 228 184.5 39761.5
385 71 66.5 39828.0
386 278 196.5 40024.5
387 76 66.5 40091.0
388 438 372.0 40463.0
389 122 89.0 40552.0
390 449 366.0 40918.0
391 1 1.0 40919.0
392 401 315.0 41234.0
393 700 473.5 41707.5
394 112 86.5 41794.0
395 248 187.0 41981.0
396 64 64.0 42045.0
397 47 42.0 42087.0
398 120 84.5 42171.5
399 235 200.0 42371.5
400 101 90.0 42461.5
401 256 181.5 42643.0
402 184 160.5 42803.5
403 491 278.0 43081.5
404 83 48.0 43129.5
405 700 596.0 43725.5
406 700 567.0 44292.5
407 700 558.5 44851.0
408 700 578.0 45429.0
409 700 595.0 46024.0
410 700 584.5 46608.5
411 9 9.0 46617.5
412 700 610.5 47228.0
413 700 596.0 47824.0
414 700 542.5 48366.5
415 700 513.5 48880.0
416 152 134.0 49014.0
417 680 565.5 49579.5
418 700 617.0 50196.5
419 700 571.5 50768.0
420 700 562.5 51330.5
421 700 483.5 51814.0
422 700 597.5 52411.5
423 700 584.5 52996.0
424 700 603.0 53599.0
425 700 628.5 54227.5
426 700 601.0 54828.5
427 700 588.0 55416.5
428 700 499.0 55915.5
429 700 583.5 56499.0
430 700 586.5 57085.5
431 700 561.0 57646.5
432 221 150.5 57797.0
433 700 548.5 58345.5
434 700 602.0 58947.5
435 700 566.5 59514.0
436 700 582.5 60096.5
437 700 531.0 60627.5
438 700 569.0 61196.5
439 700 558.5 61755.0
440 700 598.0 62353.0
441 700 513.5 62866.5
442 700 635.0 63501.5
443 700 560.5 64062.0
444 700 629.5 64691.5
445 581 466.5 65158.0
446 241 140.0 65298.0
447 99 75.5 65373.5
448 519 391.0 65764.5
449 700 552.5 66317.0
450 187 158.5 66475.5
451 326 229.0 66704.5
452 56 48.5 66753.0
453 531 416.5 67169.5
454 134 118.0 67287.5
455 29 27.0 67314.5
456 202 139.5 67454.0
457 226 171.0 67625.0
458 251 199.0 67824.0
459 94 74.0 67898.0
460 142 82.0 67980.0
461 265 190.0 68170.0
462 194 149.0 68319.0
463 64 64.0 68383.0
464 110 65.0 68448.0
465 199 159.0 68607.0
466 152 125.0 68732.0
467 120 90.0 68822.0
468 700 562.5 69384.5
469 156 126.5 69511.0
470 175 133.5 69644.5
471 700 602.5 70247.0
472 687 513.5 70760.5
473 529 433.5 71194.0
474 86 85.5 71279.5
475 259 193.5 71473.0
476 117 110.0 71583.0
477 238 152.0 71735.0
478 670 553.0 72288.0
479 488 388.5 72676.5
480 34 31.5 72708.0
481 88 60.5 72768.5
482 158 96.0 72864.5
483 44 30.5 72895.0
484 319 291.5 73186.5
485 92 66.5 73253.0
486 1 1.0 73254.0
487 445 423.0 73677.0
488 94 86.0 73763.0
489 90 89.5 73852.5
490 93 87.5 73940.0
491 61 61.0 74001.0
492 700 612.5 74613.5
493 700 527.5 75141.0
494 162 96.0 75237.0
495 70 64.0 75301.0
496 663 474.0 75775.0
497 66 55.5 75830.5
498 275 231.5 76062.0
499 101 69.0 76131.0
500 222 156.0 76287.0
501 71 61.5 76348.5
502 3 3.0 76351.5
503 700 520.0 76871.5
504 700 594.0 77465.5
505 58 58.0 77523.5
506 143 128.0 77651.5
507 154 119.0 77770.5
508 255 169.0 77939.5
509 320 255.0 78194.5
510 700 548.5 78743.0
511 119 84.0 78827.0
512 700 538.5 79365.5
513 67 62.0 79427.5
514 174 136.0 79563.5
515 700 609.5 80173.0
516 179 134.0 80307.0
517 91 75.5 80382.5
518 700 518.5 80901.0
519 700 534.0 81435.0
520 99 72.5 81507.5
521 563 458.5 81966.0
522 86 53.0 82019.0
523 227 144.5 82163.5
524 147 100.5 82264.0
525 314 183.0 82447.0
526 700 562.0 83009.0
527 700 588.5 83597.5
528 86 55.0 83652.5
529 8 8.0 83660.5
530 135 127.5 83788.0
531 113 86.0 83874.0
532 20 20.0 83894.0
533 700 567.5 84461.5
534 76 69.5 84531.0
535 1 1.0 84532.0
536 243 182.0 84714.0
537 51 47.0 84761.0
538 194 150.0 84911.0
539 173 160.5 85071.5
540 485 375.5 85447.0
541 700 521.0 85968.0
542 138 98.0 86066.0
543 168 137.5 86203.5
544 90 71.0 86274.5
545 133 121.5 86396.0
546 5 3.0 86399.0
547 95 59.5 86458.5
548 45 44.0 86502.5
549 486 449.5 86952.0
550 255 216.5 87168.5
551 1 1.0 87169.5
552 700 560.0 87729.5
553 365 293.5 88023.0
554 90 84.0 88107.0
555 639 494.5 88601.5
556 76 67.5 88669.0
557 146 107.0 88776.0
558 153 113.5 88889.5
559 700 529.5 89419.0
560 497 324.5 89743.5
561 73 61.0 89804.5
562 327 267.5 90072.0
563 112 97.5 90169.5
564 86 73.0 90242.5
565 700 608.5 90851.0
566 113 85.0 90936.0
567 288 224.0 91160.0
568 114 93.0 91253.0
569 524 433.5 91686.5
570 700 631.5 92318.0
571 97 91.5 92409.5
572 66 52.0 92461.5
573 700 594.0 93055.5
574 107 66.5 93122.0
575 700 573.5 93695.5
576 580 467.5 94163.0
577 700 458.5 94621.5
578 116 83.5 94705.0
579 106 101.0 94806.0
580 162 124.5 94930.5
581 152 113.5 95044.0
582 700 595.0 95639.0
583 63 48.0 95687.0
584 109 92.5 95779.5
585 51 47.0 95826.5
586 167 134.0 95960.5
587 243 227.0 96187.5
588 393 334.5 96522.0
589 106 80.0 96602.0
590 79 57.0 96659.0
591 700 490.5 97149.5
592 82 68.5 97218.0
593 123 85.0 97303.0
594 669 550.0 97853.0
595 440 342.5 98195.5
596 263 194.0 98389.5
597 133 108.5 98498.0
598 619 471.5 98969.5
599 186 124.5 99094.0
600 91 86.5 99180.5
601 209 155.0 99335.5
602 500 411.0 99746.5
603 523 437.5 100184.0
604 700 580.5 100764.5
605 75 71.0 100835.5
606 172 117.0 100952.5
607 67 64.0 101016.5
608 96 83.0 101099.5
609 546 333.0 101432.5
610 46 45.5 101478.0
611 90 78.5 101556.5
612 208 188.5 101745.0
613 118 83.0 101828.0
614 233 138.5 101966.5
615 29 6.5 101973.0
616 292 173.5 102146.5
617 231 177.5 102324.0
618 66 61.0 102385.0
619 234 175.0 102560.0
620 88 66.5 102626.5
621 155 105.5 102732.0
622 138 85.5 102817.5
623 49 49.0 102866.5
624 7 1.0 102867.5
625 165 123.5 102991.0
626 607 497.5 103488.5
627 114 103.0 103591.5
628 700 576.0 104167.5
629 700 598.5 104766.0
630 145 69.0 104835.0
631 700 491.0 105326.0
632 88 66.5 105392.5
633 700 528.0 105920.5
634 168 112.0 106032.5
635 700 519.0 106551.5
636 700 568.0 107119.5
637 548 366.0 107485.5
638 126 99.5 107585.0
639 700 618.0 108203.0
640 680 557.5 108760.5
641 700 549.0 109309.5
642 85 81.0 109390.5
643 126 98.0 109488.5
644 452 354.0 109842.5
645 186 138.0 109980.5
646 174 145.5 110126.0
647 97 91.0 110217.0
648 91 85.5 110302.5
649 120 82.0 110384.5
650 79 79.0 110463.5
651 45 38.0 110501.5
652 150 91.5 110593.0
653 87 85.0 110678.0
654 121 113.5 110791.5
655 49 49.0 110840.5
656 1 1.0 110841.5
657 121 110.0 110951.5
658 191 159.5 111111.0
659 118 92.5 111203.5
660 63 40.5 111244.0
661 145 125.0 111369.0
662 700 588.0 111957.0
663 502 370.5 112327.5
664 127 92.5 112420.0
665 700 523.5 112943.5
666 455 383.0 113326.5
667 180 150.5 113477.0
668 149 135.0 113612.0
669 700 584.0 114196.0
670 700 595.5 114791.5
671 154 98.5 114890.0
672 700 599.0 115489.0
673 52 52.0 115541.0
674 144 100.0 115641.0
675 700 591.0 116232.0
676 96 73.5 116305.5
677 244 199.0 116504.5
678 118 99.0 116603.5
679 700 555.0 117158.5
680 228 183.0 117341.5
681 416 345.0 117686.5
682 123 78.5 117765.0
683 160 113.0 117878.0
684 131 86.0 117964.0
685 128 96.0 118060.0
686 163 114.5 118174.5
687 494 428.5 118603.0
688 700 565.5 119168.5
689 131 75.0 119243.5
690 700 602.5 119846.0
691 94 76.0 119922.0
692 700 593.0 120515.0
693 63 49.0 120564.0
694 130 95.5 120659.5
695 665 509.0 121168.5
696 552 431.0 121599.5
697 700 535.5 122135.0
698 170 140.0 122275.0
699 128 101.0 122376.0
700 700 523.5 122899.5
701 700 474.5 123374.0
702 217 136.5 123510.5
703 75 75.0 123585.5
704 72 71.5 123657.0
705 700 572.0 124229.0
706 185 128.5 124357.5
707 200 164.5 124522.0
708 140 121.0 124643.0
709 86 76.0 124719.0
710 51 49.5 124768.5
711 166 127.5 124896.0
712 700 585.5 125481.5
713 177 116.0 125597.5
714 134 87.5 125685.0
715 47 39.5 125724.5
716 253 162.5 125887.0
717 45 45.0 125932.0
718 70 66.5 125998.5
719 75 68.0 126066.5
720 102 74.5 126141.0
721 700 580.5 126721.5
722 95 43.5 126765.0
723 700 543.0 127308.0
724 700 626.5 127934.5
725 68 62.0 127996.5
726 95 70.0 128066.5
727 91 69.5 128136.0
728 162 125.5 128261.5
729 1 0.5 128262.0
730 175 106.5 128368.5
731 628 490.0 128858.5
732 569 467.0 129325.5
733 284 179.5 129505.0
734 24 22.0 129527.0
735 157 123.0 129650.0
736 142 90.0 129740.0
737 80 60.5 129800.5
738 332 257.5 130058.0
739 81 76.0 130134.0
740 109 85.0 130219.0
741 135 97.0 130316.0
742 337 305.0 130621.0
743 161 123.5 130744.5
744 155 117.0 130861.5
745 700 557.5 131419.0
746 700 594.0 132013.0
747 89 80.5 132093.5
748 69 66.0 132159.5
749 155 65.5 132225.0
750 136 90.5 132315.5
751 280 266.5 132582.0
752 630 542.0 133124.0
753 60 52.5 133176.5
754 195 140.5 133317.0
755 114 78.5 133395.5
756 67 61.0 133456.5
757 119 87.0 133543.5
758 87 71.0 133614.5
759 47 47.0 133661.5
760 525 441.5 134103.0
761 94 91.5 134194.5
762 129 98.5 134293.0
763 51 42.0 134335.0
764 528 395.5 134730.5
765 185 110.5 134841.0
766 261 178.5 135019.5
767 109 98.5 135118.0
768 107 89.0 135207.0
769 1 1.0 135208.0
770 700 573.5 135781.5
771 52 52.0 135833.5
772 347 261.5 136095.0
773 700 595.5 136690.5
774 322 248.5 136939.0
775 639 507.5 137446.5
776 81 66.5 137513.0
777 680 576.5 138089.5
778 700 565.5 138655.0
779 495 433.0 139088.0
780 100 73.5 139161.5
781 78 54.5 139216.0
782 142 80.5 139296.5
783 93 82.0 139378.5
784 700 557.0 139935.5
785 405 314.5 140250.0
786 426 340.5 140590.5
787 102 71.0 140661.5
788 1 1.0 140662.5
789 144 78.0 140740.5
790 76 66.0 140806.5
791 136 128.5 140935.0
792 74 68.0 141003.0
793 700 574.0 141577.0
794 118 82.0 141659.0
795 241 192.0 141851.0
796 262 149.5 142000.5
797 239 190.5 142191.0
798 226 140.5 142331.5
799 155 87.0 142418.5
800 134 121.5 142540.0
801 85 78.5 142618.5
802 515 402.5 143021.0
803 97 68.5 143089.5
804 124 83.5 143173.0
805 39 39.0 143212.0
806 38 38.0 143250.0
807 579 395.5 143645.5
808 75 72.5 143718.0
809 700 609.0 144327.0
810 64 51.0 144378.0
811 652 496.5 144874.5
812 113 81.5 144956.0
813 79 70.0 145026.0
814 700 546.0 145572.0
815 700 607.5 146179.5
816 146 125.5 146305.0
817 103 88.5 146393.5
818 139 106.5 146500.0
819 700 537.0 147037.0
820 248 170.5 147207.5
821 115 80.5 147288.0
822 700 602.5 147890.5
823 123 90.5 147981.0
824 238 186.5 148167.5
825 342 203.0 148370.5
826 700 561.5 148932.0
827 155 99.5 149031.5
828 700 573.5 149605.0
829 101 67.0 149672.0
830 173 160.0 149832.0
831 563 429.0 150261.0
832 480 316.0 150577.0
833 91 84.0 150661.0
834 700 574.5 151235.5
835 700 547.5 151783.0
836 84 75.0 151858.0
837 136 97.5 151955.5
838 15 15.0 151970.5
839 312 250.0 152220.5
840 700 543.0 152763.5
841 79 76.5 152840.0
842 1 1.0 152841.0
843 98 89.0 152930.0
844 1 1.0 152931.0
845 105 101.0 153032.0
846 105 75.5 153107.5
847 38 33.0 153140.5
848 461 355.5 153496.0
849 52 52.0 153548.0
850 133 86.0 153634.0
851 697 571.0 154205.0
852 101 80.5 154285.5
853 24 17.0 154302.5
854 700 492.5 154795.0
855 193 116.0 154911.0
856 319 209.5 155120.5
857 130 85.5 155206.0
858 141 115.0 155321.0
859 70 66.0 155387.0
860 57 49.5 155436.5
861 700 546.0 155982.5
862 49 49.0 156031.5
863 98 73.5 156105.0
864 243 173.5 156278.5
865 700 586.5 156865.0
866 80 79.5 156944.5
867 119 85.0 157029.5
868 86 68.0 157097.5
869 68 68.0 157165.5
870 71 62.5 157228.0
871 181 122.5 157350.5
872 164 135.0 157485.5
873 700 601.5 158087.0
874 700 561.0 158648.0
875 34 28.0 158676.0
876 35 24.0 158700.0
877 700 602.0 159302.0
878 210 151.5 159453.5
879 219 164.5 159618.0
880 181 116.0 159734.0
881 174 140.0 159874.0
882 700 599.0 160473.0
883 93 71.0 160544.0
884 505 367.5 160911.5
885 142 119.5 161031.0
886 161 139.0 161170.0
887 191 163.0 161333.0
888 613 508.0 161841.0
889 147 109.0 161950.0
890 193 132.5 162082.5
891 191 87.0 162169.5
892 700 589.0 162758.5
893 78 54.0 162812.5
894 75 60.0 162872.5
895 81 76.0 162948.5
896 129 83.0 163031.5
897 162 139.0 163170.5
898 241 193.5 163364.0
899 179 128.0 163492.0
900 700 537.0 164029.0
901 700 589.5 164618.5
902 700 550.5 165169.0
903 52 50.0 165219.0
904 700 584.0 165803.0
905 119 97.5 165900.5
906 224 174.5 166075.0
907 565 422.5 166497.5
908 137 119.0 166616.5
909 448 325.0 166941.5
910 318 223.0 167164.5
911 102 86.0 167250.5
912 71 65.5 167316.0
913 700 587.5 167903.5
914 157 121.5 168025.0
915 593 546.0 168571.0
916 27 26.0 168597.0
917 114 94.0 168691.0
918 275 228.0 168919.0
919 700 576.0 169495.0
920 186 118.0 169613.0
921 700 541.5 170154.5
922 248 164.5 170319.0
923 186 125.5 170444.5
924 171 118.0 170562.5
925 678 515.5 171078.0
926 570 437.5 171515.5
927 442 331.0 171846.5
928 116 100.0 171946.5
929 29 27.0 171973.5
930 88 70.0 172043.5
931 133 79.5 172123.0
932 85 68.5 172191.5
933 554 366.0 172557.5
934 159 111.5 172669.0
935 473 415.0 173084.0
936 129 102.5 173186.5
937 20 16.5 173203.0
938 188 101.0 173304.0
939 53 51.0 173355.0
940 144 132.5 173487.5
941 97 71.0 173558.5
942 85 74.0 173632.5
943 141 114.0 173746.5
944 71 63.0 173809.5
945 488 363.0 174172.5
946 202 148.0 174320.5
947 700 581.5 174902.0
948 73 72.0 174974.0
949 209 127.5 175101.5
950 249 183.0 175284.5
951 128 113.5 175398.0
952 148 121.0 175519.0
953 156 123.5 175642.5
954 605 434.0 176076.5
955 343 229.5 176306.0
956 3 3.0 176309.0
957 337 228.5 176537.5
958 430 362.0 176899.5
959 700 590.5 177490.0
960 118 96.0 177586.0
961 700 578.5 178164.5
962 126 76.5 178241.0
963 423 289.0 178530.0
964 88 87.5 178617.5
965 45 41.5 178659.0
966 700 566.0 179225.0
967 85 68.5 179293.5
968 700 609.0 179902.5
969 98 80.0 179982.5
970 332 221.0 180203.5
971 392 291.5 180495.0
972 89 69.5 180564.5
973 103 69.0 180633.5
974 240 136.0 180769.5
975 700 586.0 181355.5
976 72 70.0 181425.5
977 326 245.5 181671.0
978 194 139.5 181810.5
979 113 100.0 181910.5
980 47 37.5 181948.0
981 85 62.0 182010.0
982 110 87.5 182097.5
983 259 161.5 182259.0
984 100 95.0 182354.0
985 347 292.5 182646.5
986 386 349.5 182996.0
987 266 204.0 183200.0
988 108 102.5 183302.5
989 132 103.0 183405.5
990 232 178.5 183584.0
991 146 120.0 183704.0
992 700 486.5 184190.5
993 396 367.5 184558.0
994 489 389.0 184947.0
995 129 118.5 185065.5
996 700 568.5 185634.0
997 557 402.0 186036.0
998 50 40.0 186076.0
999 218 150.5 186226.5
1000 149 112.5 186339.0
