0 [1.0, 1.0, 1.0, 1.0, 1.0, 1.0, 1.0, 1.0]
1 [1.0, 1.0, 1.0, 1.0, 1.0, 1.0, 1.0, 1.0]
2 [1.0, 1.0, 1.0, 1.0, 1.0, 1.0, 1.0, 1.0]
3 [1.0, 1.0, 1.0, 1.0, 1.0, 1.0, 1.0, 1.0]
4 [1.0, 1.0, 1.0, 1.0, 1.0, 1.0, 1.0, 1.0]
5 [1.0, 1.0, 1.0, 1.0, 1.0, 1.0, 1.0, 1.0]
6 [1.0, 1.0, 1.0, 1.0, 1.0, 1.0, 1.0, 1.0]
7 [1.0, 1.0, 1.0, 1.0, 1.0, 1.0, 1.0, 1.0]
8 [1.0, 1.0, 1.0, 1.0, 1.0, 1.0, 1.0, 1.0]
9 [1.0, 1.0, 1.0, 1.0, 1.0, 1.0, 1.0, 1.0]
10 [1.0, 1.0, 1.0, 1.0, 1.0, 1.0, 1.0, 1.0]
11 [1.6965559, 1.0942686, 1.0002337, 1.0, 1.0, 1.0, 1.0, 1.0]
12 [1.5852299, 1.0792023, 1.0001963, 1.0, 1.0, 1.0, 1.0, 1.0]
13 [1.4458818, 1.0603435, 1.0001496, 1.0, 1.0, 1.0, 1.0, 1.0]
14 [1.3368708, 1.0458242, 1.0943723, 1.6964872, 1.0942593, 1.0002337, 1.0, 1.0]
15 [1.2546146, 1.0346547, 1.0793606, 1.5857688, 1.0792751, 1.0001965, 1.0, 1.0]
16 [1.192242, 1.0261667, 1.060408, 1.4458818, 1.0603435, 1.0001496, 1.0, 1.0]
17 [1.1452935, 1.0197765, 1.0456848, 1.3372077, 1.045636, 1.0001131, 1.0, 1.0]
18 [0.31187218, 0.90695745, 1.0342275, 1.2546146, 1.0344583, 1.0000855, 1.0, 1.0]
19 [0.3948202, 0.91816235, 1.0258402, 1.1924343, 1.0260432, 1.0000646, 1.0, 1.0]
20 [0.5710838, 0.9419407, 0.9950898, 0.96478146, 0.9952337, 0.9999882, 1.0, 1.0]
21 [0.67600894, 0.9559197, 0.90594566, 0.30583006, 0.9060543, 0.9997671, 1.0, 1.0]
22 [0.755124, 0.96667016, 0.9234747, 0.43515736, 0.92355686, 0.9998105, 1.0, 1.0]
23 [1.0998049, 1.0133632, 0.94198596, 0.5710838, 0.9419525, 0.9998561, 1.0, 1.0]
24 [1.5446556, 1.073603, 0.95659745, 0.6779464, 0.95641476, 0.99989194, 1.0, 1.0]
25 [1.4383206, 1.0592386, 0.9672049, 0.75658876, 0.9670579, 0.99991834, 1.0, 1.0]
26 [1.3325665, 1.0449463, 0.9752392, 0.8162171, 0.9751277, 0.99993837, 1.0, 1.0]
27 [1.251446, 1.0339829, 0.9812862, 0.86109984, 0.9812019, 0.9999534, 1.0, 1.0]
28 [1.1900448, 1.0256846, 0.9858564, 0.89502156, 0.9857927, 0.9999648, 1.0, 1.0]
29 [1.1434896, 1.0193926, 0.98932123, 0.9207383, 0.9892731, 0.9999734, 1.0, 1.0]
30 [0.9052746, 0.98716027, 0.991861, 0.9400953, 0.99189276, 0.9999799, 1.0, 1.0]
31 [0.28686655, 0.90347266, 0.99363345, 0.95472497, 0.9938727, 0.9999848, 1.0, 1.0]
32 [0.4410087, 0.9243488, 0.9998125, 1.0, 1.0, 1.0, 1.0, 1.0]
33 [0.5753335, 0.94251907, 0.99638546, 0.97434455, 0.9965279, 0.9999914, 1.0, 1.0]
34 [0.6798723, 0.9566689, 0.9972763, 0.9806681, 0.9973837, 0.9999935, 1.0, 1.0]
35 [1.0, 1.0, 1.0, 1.0, 1.0, 1.0, 1.0, 1.0]
36 [0.81731653, 0.97527647, 0.9999387, 1.0, 1.0, 1.0, 1.0, 1.0]
37 [0.8620688, 0.981333, 0.99995375, 1.0, 1.0, 1.0002338, 1.0943028, 1.6968088]
38 [0.8957538, 0.9858918, 0.999965, 1.0, 1.0, 1.0001953, 1.0787648, 1.5819978]
39 [0.92121243, 0.98933727, 0.9999736, 1.0, 1.0, 1.0001487, 1.0599848, 1.4432309]
40 [0.94051313, 0.9919493, 0.99998003, 1.0, 1.0, 1.0001123, 1.0453179, 1.3348565]
41 [0.9550408, 0.99391544, 0.9999849, 1.0, 1.0, 1.0000849, 1.0342522, 1.2530915]
42 [0.96605456, 0.995406, 0.9999886, 1.0, 1.0, 1.0000641, 1.0258615, 1.191092]
43 [0.97434455, 0.9965279, 0.9999914, 1.0, 1.0, 1.0000484, 1.0195457, 1.1444242]
44 [0.98062944, 0.99737847, 0.9999935, 1.0, 1.0, 0.9997684, 0.90656316, 0.3095898]
45 [1.0, 1.0, 1.0, 1.0, 1.0, 1.0, 1.0, 1.0]
46 [1.0, 1.0, 1.0, 1.0, 1.0, 0.99984574, 0.93777055, 0.5401832]
47 [1.0, 1.0, 1.0, 1.0, 1.0, 0.9998834, 0.9529749, 0.65252894]
48 [1.0, 1.0, 1.0, 1.0, 1.0, 0.9999119, 0.9644568, 0.7373692]
49 [1.0, 1.0, 1.0, 1.0, 1.0, 0.9999335, 0.9731637, 0.8017052]
