8.9803162E16 4.5583E-41
1.1749998 1.3750004
1.1749768 1.3753183
1.1749768 1.3753183
1.173623 1.3753494
1.1724181 1.3757334
1.1707107 1.3693717
1.1710253 1.361729
1.1731637 1.3421133
1.1736265 1.3365899
1.1742046 1.3321134
1.179565 1.3138349
1.1835935 1.299165
1.1935313 1.2620645
1.1984307 1.2433692
1.2061554 1.2140341
1.20947 1.2009451
1.2186831 1.1651243
1.2237002 1.1459117
1.2323313 1.1130872
1.2323313 1.1130872
1.2419245 1.0759826
1.2470835 1.0557518
1.2523843 1.035626
1.2523843 1.035626
1.2582587 1.0148003
1.2645437 0.9934284
1.2705228 0.973765
1.2705228 0.973765
1.276168 0.95588505
1.2823861 0.93854684
1.2823861 0.93854684
1.2890652 0.9215806
1.2962195 0.9049115
1.3041955 0.88688487
1.3041955 0.88688487
1.3118434 0.8701318
1.319028 0.8543824
1.3261367 0.8375928
1.3397949 0.80391943
1.3472903 0.7852488
1.3618014 0.74731404
1.3664682 0.7339531
1.3726197 0.7163751
1.3766706 0.7047497
1.3866812 0.67301375
1.3915108 0.65504307
1.4008367 0.61651266
1.4052154 0.59717214
1.4095935 0.5781422
1.4184862 0.5409238
1.4229476 0.522437
1.4314529 0.4868405
1.4345748 0.47336474
1.4404938 0.44794455
1.4440262 0.43265042
1.4521534 0.4007432
1.457157 0.38233343
1.4624846 0.37554765
1.4624846 0.37554765
