0 [10.0, 10.0, 10.0, 10.0, 10.0, 10.0, 10.0, 10.0, 10.0, 10.0, 10.0, 10.0, 10.0, 10.0, 10.0, 10.0, 10.0, 10.0, 10.0, 10.0, 10.0, 10.0, 10.0, 10.0, 10.0, 10.0, 10.0, 10.0, 10.0, 10.0, 10.0, 10.0, 10.0, 10.0, 10.0, 10.0, 10.0, 10.0, 10.0, 10.0, 10.0, 10.0, 10.0, 10.0, 10.0, 10.0, 10.0, 10.0, 10.0, 10.0, 10.0, 10.0, 10.0, 10.0, 10.0, 10.0, 10.0, 10.0, 10.0, 10.0, 10.0, 10.0, 10.0, 10.0, 10.0, 10.0, 10.0, 10.0, 10.0, 10.0, 10.0, 10.0, 10.0, 10.0, 10.0, 10.0, 10.0, 10.0, 10.0, 10.0, 10.0, 10.0, 10.0, 10.0, 10.0, 10.0, 10.0, 10.0, 10.0, 10.0, 10.0, 10.0, 10.0, 10.0, 10.0, 10.0, 10.0, 10.0, 10.0, 10.0, 10.0, 10.0, 10.0, 10.0, 10.0, 10.0, 10.0, 10.0, 10.0, 10.0, 10.0, 10.0, 10.0, 10.0, 10.0, 10.0, 10.0, 10.0, 10.0, 10.0, 10.0, 10.0, 10.0, 10.0, 10.0, 10.0, 10.0, 10.0, 10.0, 10.0, 10.0, 10.0, 10.0, 10.0, 10.0, 10.0, 10.0, 10.0, 10.0, 10.0, 10.0, 10.0, 10.0, 10.0, 10.0, 10.0, 10.0, 10.0, 10.0, 10.0, 10.0, 10.0, 10.0, 10.0, 10.0, 10.0, 10.0, 10.0, 10.0, 10.0, 10.0, 10.0, 10.0, 10.0, 10.0, 10.0, 10.0, 10.0, 10.0, 10.0, 10.0, 10.0, 10.0, 10.0, 10.0, 10.0, 10.0, 10.0, 10.0, 10.0, 10.0, 10.0]
1 [10.0, 10.0, 10.0, 10.0, 10.0, 10.0, 10.0, 10.0, 10.0, 10.0, 10.0, 10.0, 10.0, 10.0, 10.0, 10.0, 10.0, 10.0, 10.0, 10.0, 10.0, 10.0, 10.0, 10.0, 10.0, 10.0, 10.0, 10.0, 10.0, 10.0, 10.0, 10.0, 10.0, 10.0, 10.0, 10.0, 10.0, 10.0, 10.0, 10.0, 10.0, 10.0, 10.0, 10.0, 10.0, 10.0, 10.0, 10.0, 10.0, 10.0, 10.0, 10.0, 10.0, 10.0, 10.0, 10.0, 10.0, 10.0, 10.0, 10.0, 10.0, 10.0, 10.0, 10.0, 10.0, 10.0, 10.0, 10.0, 10.0, 10.0, 10.0, 10.0, 10.0, 10.0, 10.0, 10.0, 10.0, 10.0, 10.0, 10.0, 10.0, 10.0, 10.0, 10.0, 10.0, 10.0, 10.0, 10.0, 10.0, 10.0, 10.0, 10.0, 10.0, 10.0, 10.0, 10.0, 10.0, 10.0, 10.0, 10.0, 10.0, 10.0, 10.0, 10.0, 10.0, 10.0, 10.0, 10.0, 10.0, 10.0, 10.0, 10.0, 10.0, 10.0, 10.0, 10.0, 10.0, 10.0, 10.0, 10.0, 10.0, 10.0, 10.0, 10.0, 10.0, 10.0, 10.0, 10.0, 10.0, 10.0, 10.0, 10.0, 10.0, 10.0, 10.0, 10.0, 10.0, 10.0, 10.0, 10.0, 10.0, 10.0, 10.0, 10.0, 10.0, 10.0, 10.0, 10.0, 10.0, 10.0, 10.0, 10.0, 10.0, 10.0, 10.0, 10.0, 10.0, 10.0, 10.0, 10.0, 10.0, 10.0, 10.0, 10.0, 10.0, 10.0, 10.0, 10.0, 10.0, 10.0, 10.0, 10.0, 10.0, 10.0, 10.0, 10.0, 10.0, 10.0, 10.0, 10.0, 10.0, 10.0]
2 [10.0, 10.0, 10.0, 10.0, 10.0, 10.0, 10.0, 10.0, 10.0, 10.0, 10.0, 10.0, 10.0, 10.0, 10.0, 10.0, 10.0, 10.0, 10.0, 10.0, 10.0, 10.0, 10.0, 10.0, 10.0, 10.0, 10.0, 10.0, 10.0, 10.0, 10.0, 10.0, 10.0, 10.0, 10.0, 10.0, 10.0, 10.0, 10.0, 10.0, 10.0, 10.0, 10.0, 10.0, 10.0, 10.0, 10.0, 10.0, 10.0, 10.0, 10.0, 10.0, 10.0, 10.0, 10.0, 10.0, 10.0, 10.0, 10.0, 10.0, 10.0, 10.0, 10.0, 10.0, 10.0, 10.0, 10.0, 10.0, 10.0, 10.0, 10.0, 10.0, 10.0, 10.0, 10.0, 10.0, 10.0, 10.0, 10.0, 10.0, 10.0, 10.0, 10.0, 10.0, 10.0, 10.0, 10.0, 10.0, 10.0, 10.0, 10.0, 10.0, 10.0, 10.0, 10.0, 10.0, 10.0, 10.0, 10.0, 10.0, 10.0, 10.0, 10.0, 10.0, 10.0, 10.0, 10.0, 10.0, 10.0, 10.0, 10.0, 10.0, 10.0, 10.0, 10.0, 10.0, 10.0, 10.0, 10.0, 10.0, 10.0, 10.0, 10.0, 10.0, 10.0, 10.0, 10.0, 10.0, 10.0, 10.0, 10.0, 10.0, 10.0, 10.0, 10.0, 10.0, 10.0, 10.0, 10.0, 10.0, 10.0, 10.0, 10.0, 10.0, 10.0, 10.0, 10.0, 10.0, 10.0, 10.0, 10.0, 10.0, 10.0, 10.0, 10.0, 10.0, 10.0, 10.0, 10.0, 10.0, 10.0, 10.0, 10.0, 10.0, 10.0, 10.0, 10.0, 10.0, 10.0, 10.0, 10.0, 10.0, 10.0, 10.0, 10.0, 10.0, 10.0, 10.0, 10.0, 10.0, 10.0, 10.0]
3 [10.0, 10.0, 10.0, 10.0, 10.0, 10.0, 10.0, 10.0, 10.0, 10.0, 10.0, 10.0, 10.0, 10.0, 10.0, 10.0, 10.0, 10.0, 10.0, 10.0, 10.0, 10.0, 10.0, 10.0, 10.0, 10.0, 10.0, 10.0, 10.0, 10.0, 10.0, 10.0, 10.0, 10.0, 10.0, 10.0, 10.0, 10.0, 10.0, 10.0, 10.0, 10.0, 10.0, 10.0, 10.0, 10.0, 10.0, 10.0, 10.0, 10.0, 10.0, 10.0, 10.0, 10.0, 10.0, 10.0, 10.0, 10.0, 10.0, 10.0, 10.0, 10.0, 10.0, 10.0, 10.0, 10.0, 10.0, 10.0, 10.0, 10.0, 10.0, 10.0, 10.0, 10.0, 10.0, 10.0, 10.0, 10.0, 10.0, 10.0, 10.0, 10.0, 10.0, 10.0, 10.0, 10.0, 10.0, 10.0, 10.0, 10.0, 10.0, 10.0, 10.0, 10.0, 10.0, 10.0, 10.0, 10.0, 10.0, 10.0, 10.0, 10.0, 10.0, 10.0, 10.0, 10.0, 10.0, 10.0, 10.0, 10.0, 10.0, 10.0, 10.0, 10.0, 10.0, 10.0, 10.0, 10.0, 10.0, 10.0, 10.0, 10.0, 10.0, 10.0, 10.0, 10.0, 10.0, 10.0, 10.0, 10.0, 10.0, 10.0, 10.0, 10.0, 10.0, 10.0, 10.0, 10.0, 10.0, 10.0, 10.0, 10.0, 10.0, 10.0, 10.0, 10.0, 10.0, 10.0, 10.0, 10.0, 10.0, 10.0, 10.0, 10.0, 10.0, 10.0, 10.0, 10.0, 10.0, 10.0, 10.0, 10.0, 10.0, 10.0, 10.0, 10.0, 10.0, 10.0, 10.0, 10.0, 10.0, 10.0, 10.0, 10.0, 10.0, 10.0, 10.0, 10.0, 10.0, 10.0, 10.0, 10.0]
4 [10.0, 10.0, 10.0, 10.0, 10.0, 10.0, 10.0, 10.0, 10.0, 10.0, 10.0, 10.0, 10.0, 10.0, 10.0, 10.0, 10.0, 10.0, 10.0, 10.0, 10.0, 10.0, 10.0, 10.0, 10.0, 10.0, 10.0, 10.0, 10.0, 10.0, 10.0, 10.0, 10.0, 10.0, 10.0, 10.0, 10.0, 10.0, 10.0, 10.0, 10.0, 10.0, 10.0, 10.0, 10.0, 10.0, 10.0, 10.0, 10.0, 10.0, 10.0, 10.0, 10.0, 10.0, 10.0, 10.0, 10.0, 10.0, 10.0, 10.0, 10.0, 10.0, 10.0, 10.0, 10.0, 10.0, 10.0, 10.0, 10.0, 10.0, 10.0, 10.0, 10.0, 10.0, 10.0, 10.0, 10.0, 10.0, 10.0, 10.0, 10.0, 10.0, 10.0, 10.0, 10.0, 10.0, 10.0, 10.0, 10.0, 10.0, 10.0, 10.0, 10.0, 10.0, 10.0, 10.0, 10.0, 10.0, 10.0, 10.0, 10.0, 10.0, 10.0, 10.0, 10.0, 10.0, 10.0, 10.0, 10.0, 10.0, 10.0, 10.0, 10.0, 10.0, 10.0, 10.0, 10.0, 10.0, 10.0, 10.0, 10.0, 10.0, 10.0, 10.0, 10.0, 10.0, 10.0, 10.0, 10.0, 10.0, 10.0, 10.0, 10.0, 10.0, 10.0, 10.0, 10.0, 10.0, 10.0, 10.0, 10.0, 10.0, 10.0, 10.0, 10.0, 10.0, 10.0, 10.0, 10.0, 10.0, 10.0, 10.0, 10.0, 10.0, 10.0, 10.0, 10.0, 10.0, 10.0, 10.0, 10.0, 10.0, 10.0, 10.0, 10.0, 10.0, 10.0, 10.0, 10.0, 10.0, 10.0, 10.0, 10.0, 10.0, 10.0, 10.0, 10.0, 10.0, 10.0, 10.0, 10.0, 10.0]
5 [1.7, 0.74, 0.74, 0.74, 0.74, 0.74, 0.74, 0.73, 0.73, 0.73, 0.73, 0.73, 0.73, 0.73, 0.73, 0.73, 0.73, 0.73, 0.74, 0.75, 0.77, 0.78, 0.79, 0.81, 0.82, 0.84, 0.86, 0.87, 0.89, 0.91, 0.93, 2.98, 3.04, 3.1, 3.16, 3.23, 3.3, 3.37, 3.44, 3.52, 3.58, 2.36, 2.36, 2.36, 2.36, 2.36, 2.36, 2.36, 2.36, 2.38, 2.44, 2.51, 3.58, 3.58, 3.58, 3.58, 3.58, 3.58, 3.58, 3.58, 3.58, 3.58, 3.58, 1.73, 1.73, 1.73, 1.73, 1.73, 1.73, 1.73, 1.73, 1.73, 1.73, 1.73, 1.73, 1.73, 1.83, 3.57, 3.57, 2.93, 2.93, 2.93, 2.93, 2.93, 2.93, 2.93, 2.93, 3.57, 3.57, 3.57, 3.57, 3.57, 3.57, 3.57, 3.57, 3.57, 3.57, 3.57, 3.57, 3.57, 3.57, 3.57, 3.57, 3.57, 3.57, 3.57, 3.57, 3.57, 3.57, 3.57, 3.57, 3.57, 3.57, 3.57, 3.57, 3.57, 3.57, 3.57, 3.57, 3.57, 3.57, 3.57, 3.57, 3.57, 3.57, 3.57, 3.57, 3.57, 3.57, 3.57, 3.56, 3.56, 3.56, 3.56, 3.56, 3.56, 3.56, 3.56, 3.56, 3.56, 3.56, 3.56, 3.56, 3.56, 3.56, 3.56, 3.56, 3.56, 3.56, 3.56, 3.56, 3.56, 3.56, 3.56, 3.56, 3.56, 3.56, 3.56, 3.56, 3.56, 3.56, 3.56, 3.56, 3.56, 3.56, 3.56, 3.56, 3.56, 3.56, 3.56, 0.82, 0.81, 0.8, 0.78, 0.77, 0.75, 0.74, 0.73, 0.72, 0.7, 0.69, 0.68]
6 [1.65, 1.68, 1.71, 1.74, 0.76, 0.76, 0.76, 0.76, 0.76, 0.76, 0.75, 0.75, 0.75, 0.75, 0.75, 0.75, 0.75, 0.75, 0.75, 0.75, 0.75, 0.75, 0.76, 0.77, 0.79, 0.8, 0.82, 0.83, 0.85, 0.86, 0.88, 0.9, 0.91, 0.93, 3.01, 3.07, 3.13, 3.19, 3.26, 3.33, 3.4, 3.47, 3.54, 3.62, 2.39, 2.39, 2.39, 2.39, 2.39, 2.39, 2.39, 2.39, 2.39, 2.45, 2.51, 2.58, 3.61, 3.61, 3.61, 3.61, 3.61, 3.61, 3.61, 3.61, 3.6, 3.6, 1.75, 1.75, 1.75, 1.75, 1.74, 1.74, 1.74, 1.74, 1.74, 1.74, 1.74, 1.74, 1.74, 1.79, 1.92, 3.59, 3.59, 2.94, 2.94, 2.94, 2.94, 2.94, 2.94, 2.94, 2.95, 3.58, 3.57, 3.57, 3.57, 3.57, 3.57, 3.57, 3.57, 3.57, 3.57, 3.57, 3.56, 3.56, 3.56, 3.56, 3.56, 3.56, 3.56, 3.56, 3.56, 3.55, 3.55, 3.55, 3.55, 3.55, 3.55, 3.55, 3.55, 3.55, 3.54, 3.54, 3.54, 3.54, 3.54, 3.54, 3.54, 3.54, 3.54, 3.53, 3.53, 3.53, 3.53, 3.53, 3.53, 3.53, 3.53, 3.53, 3.52, 3.52, 3.52, 3.52, 3.52, 3.52, 3.52, 3.52, 3.51, 3.51, 3.51, 3.51, 3.51, 3.51, 3.51, 3.5, 3.5, 3.5, 3.5, 3.5, 3.5, 3.5, 3.49, 3.49, 3.49, 3.49, 3.49, 3.49, 3.49, 3.48, 3.48, 3.48, 3.48, 3.48, 3.48, 3.47, 0.8, 0.78, 0.77, 0.75, 0.74, 0.73, 0.71, 0.7]
7 [1.58, 1.6, 1.63, 1.65, 1.68, 1.71, 1.73, 1.76, 1.79, 1.82, 0.79, 0.79, 0.79, 0.79, 0.79, 0.79, 0.79, 0.79, 0.79, 0.78, 0.78, 0.78, 0.78, 0.78, 0.78, 0.78, 0.78, 0.78, 0.78, 0.8, 0.81, 0.83, 0.84, 0.86, 0.87, 0.89, 0.9, 0.92, 0.94, 0.96, 0.97, 3.15, 3.21, 3.28, 3.34, 3.41, 3.48, 3.55, 3.63, 3.7, 2.44, 2.44, 2.44, 2.44, 2.44, 2.43, 2.43, 2.43, 2.43, 2.49, 2.55, 2.62, 3.67, 3.67, 3.66, 3.66, 3.66, 3.65, 3.65, 3.65, 3.64, 3.64, 1.77, 1.76, 1.76, 1.76, 1.76, 1.76, 1.76, 1.76, 1.75, 1.75, 1.75, 1.75, 1.75, 1.8, 1.92, 3.6, 3.6, 2.95, 2.95, 2.94, 2.94, 2.94, 2.94, 2.94, 2.96, 3.57, 3.57, 3.57, 3.56, 3.56, 3.56, 3.56, 3.55, 3.55, 3.55, 3.55, 3.54, 3.54, 3.54, 3.53, 3.53, 3.53, 3.53, 3.52, 3.52, 3.52, 3.52, 3.51, 3.51, 3.51, 3.5, 3.5, 3.5, 3.5, 3.49, 3.49, 3.49, 3.49, 3.48, 3.48, 3.48, 3.47, 3.47, 3.47, 3.47, 3.46, 3.46, 3.46, 3.45, 3.45, 3.45, 3.44, 3.44, 3.44, 3.44, 3.43, 3.43, 3.43, 3.42, 3.42, 3.42, 3.41, 3.41, 3.41, 3.4, 3.4, 3.4, 3.39, 3.39, 3.39, 3.38, 3.38, 3.38, 3.37, 3.37, 3.36, 3.36, 3.36, 3.35, 3.35, 3.34, 3.34, 3.34, 3.33, 3.33, 3.32, 3.32, 3.32, 0.76, 0.75]
8 [1.43, 1.45, 1.47, 1.49, 1.51, 1.53, 1.55, 1.58, 1.6, 1.62, 1.64, 1.67, 1.69, 1.71, 1.74, 1.76, 1.79, 1.81, 1.84, 1.87, 1.89, 1.92, 1.95, 1.97, 2.0, 2.03, 0.88, 0.87, 0.87, 0.87, 0.87, 0.86, 0.86, 0.86, 0.86, 0.85, 0.85, 0.85, 0.85, 0.84, 0.84, 0.84, 0.84, 0.84, 0.84, 0.86, 0.87, 0.88, 0.9, 0.91, 0.93, 0.95, 0.96, 0.98, 1.0, 1.01, 3.3, 3.36, 3.42, 3.48, 3.55, 3.62, 3.69, 3.76, 3.84, 3.86, 2.54, 2.54, 2.53, 2.53, 2.52, 2.51, 2.51, 2.5, 2.54, 2.6, 2.67, 3.76, 3.76, 3.75, 3.74, 3.73, 3.73, 3.72, 3.71, 3.7, 3.7, 3.69, 1.79, 1.78, 1.78, 1.78, 1.77, 1.77, 1.77, 1.76, 1.76, 1.76, 1.75, 1.75, 1.75, 1.85, 3.59, 3.58, 2.93, 2.93, 2.92, 2.92, 2.91, 2.91, 2.9, 2.89, 3.52, 3.51, 3.51, 3.5, 3.49, 3.48, 3.48, 3.47, 3.46, 3.46, 3.45, 3.44, 3.44, 3.43, 3.42, 3.42, 3.41, 3.4, 3.4, 3.39, 3.38, 3.38, 3.37, 3.36, 3.36, 3.35, 3.34, 3.34, 3.33, 3.32, 3.31, 3.31, 3.3, 3.29, 3.29, 3.28, 3.27, 3.26, 3.26, 3.25, 3.24, 3.23, 3.23, 3.22, 3.21, 3.2, 3.2, 3.19, 3.18, 3.17, 3.17, 3.16, 3.15, 3.14, 3.13, 3.12, 3.12, 3.11, 3.1, 3.09, 3.08, 3.07, 3.07, 3.06, 3.05, 3.04, 3.03, 3.02, 3.01, 3.0]
9 [1.38, 1.4, 1.42, 1.44, 1.46, 1.48, 1.5, 1.52, 1.54, 1.56, 1.58, 1.6, 1.62, 1.65, 1.67, 1.69, 1.71, 1.74, 1.76, 1.78, 1.81, 1.83, 1.86, 1.88, 1.91, 1.93, 1.96, 1.98, 2.01, 2.04, 2.07, 2.09, 0.9, 0.9, 0.9, 0.89, 0.89, 0.89, 0.88, 0.88, 0.88, 0.88, 0.87, 0.87, 0.87, 0.86, 0.86, 0.86, 0.86, 0.85, 0.86, 0.87, 0.88, 0.9, 0.91, 0.93, 0.94, 0.96, 0.97, 0.99, 1.01, 1.02, 1.04, 3.4, 3.46, 3.53, 3.59, 3.66, 3.73, 3.8, 3.88, 3.9, 2.57, 2.56, 2.55, 2.55, 2.54, 2.53, 2.53, 2.52, 2.55, 2.61, 2.67, 3.78, 3.77, 3.76, 3.75, 3.75, 3.74, 3.73, 3.72, 3.71, 3.7, 3.69, 1.79, 1.78, 1.78, 1.77, 1.77, 1.77, 1.76, 1.76, 1.75, 1.75, 1.75, 1.74, 1.74, 1.82, 3.56, 3.55, 2.91, 2.9, 2.9, 2.89, 2.88, 2.88, 2.87, 2.86, 3.48, 3.47, 3.46, 3.45, 3.45, 3.44, 3.43, 3.42, 3.41, 3.4, 3.4, 3.39, 3.38, 3.37, 3.36, 3.35, 3.35, 3.34, 3.33, 3.32, 3.31, 3.3, 3.3, 3.29, 3.28, 3.27, 3.26, 3.25, 3.24, 3.24, 3.23, 3.22, 3.21, 3.2, 3.19, 3.18, 3.17, 3.16, 3.16, 3.15, 3.14, 3.13, 3.12, 3.11, 3.1, 3.09, 3.08, 3.07, 3.06, 3.05, 3.04, 3.03, 3.02, 3.01, 3.0, 2.99, 2.98, 2.97, 2.96, 2.95, 2.94, 2.93, 2.92, 2.91]
10 [1.31, 1.33, 1.35, 1.36, 1.38, 1.4, 1.42, 1.43, 1.45, 1.47, 1.49, 1.51, 1.52, 1.54, 1.56, 1.58, 1.6, 1.62, 1.64, 1.66, 1.68, 1.7, 1.72, 1.74, 1.76, 1.78, 1.81, 1.83, 1.85, 1.87, 1.9, 1.92, 1.94, 1.97, 1.99, 2.01, 2.04, 2.06, 2.09, 2.12, 2.14, 2.17, 2.2, 0.94, 0.93, 0.93, 0.92, 0.92, 0.91, 0.91, 0.91, 0.9, 0.9, 0.89, 0.89, 0.89, 0.88, 0.88, 0.88, 0.87, 0.87, 0.88, 0.89, 0.9, 0.92, 0.93, 0.94, 0.96, 0.97, 0.99, 1.0, 1.02, 1.04, 1.05, 3.47, 3.53, 3.59, 3.66, 3.72, 3.79, 3.86, 3.94, 3.93, 2.58, 2.58, 2.57, 2.56, 2.55, 2.54, 2.53, 2.52, 2.56, 2.62, 2.68, 3.78, 3.77, 3.75, 3.74, 3.73, 3.72, 3.71, 3.69, 3.68, 3.67, 3.66, 1.77, 1.76, 1.75, 1.75, 1.74, 1.74, 1.73, 1.73, 1.72, 1.72, 1.71, 1.7, 1.7, 1.78, 3.49, 3.48, 2.84, 2.83, 2.82, 2.82, 2.81, 2.8, 2.79, 2.78, 3.38, 3.36, 3.35, 3.34, 3.33, 3.32, 3.31, 3.3, 3.29, 3.28, 3.27, 3.25, 3.24, 3.23, 3.22, 3.21, 3.2, 3.19, 3.18, 3.17, 3.15, 3.14, 3.13, 3.12, 3.11, 3.1, 3.09, 3.07, 3.06, 3.05, 3.04, 3.03, 3.02, 3.0, 2.99, 2.98, 2.97, 2.96, 2.95, 2.93, 2.92, 2.91, 2.9, 2.88, 2.87, 2.86, 2.85, 2.83, 2.82, 2.81, 2.79, 2.78, 2.77]
11 [1.26, 1.28, 1.29, 1.31, 1.32, 1.34, 1.35, 1.37, 1.38, 1.4, 1.42, 1.43, 1.45, 1.46, 1.48, 1.5, 1.51, 1.53, 1.55, 1.56, 1.58, 1.6, 1.62, 1.64, 1.65, 1.67, 1.69, 1.71, 1.73, 1.75, 1.77, 1.79, 1.81, 1.83, 1.85, 1.87, 1.89, 1.91, 1.93, 1.95, 1.97, 2.0, 2.02, 2.04, 2.06, 2.09, 2.11, 2.14, 2.16, 2.19, 2.21, 2.24, 0.95, 0.94, 0.94, 0.93, 0.93, 0.92, 0.92, 0.91, 0.91, 0.9, 0.9, 0.89, 0.89, 0.89, 0.88, 0.88, 0.87, 0.87, 0.86, 0.87, 0.89, 0.9, 0.91, 0.92, 0.94, 0.95, 0.97, 0.98, 0.99, 1.01, 1.03, 1.04, 3.49, 3.55, 3.61, 3.67, 3.73, 3.8, 3.86, 3.93, 3.92, 2.57, 2.56, 2.55, 2.54, 2.53, 2.52, 2.51, 2.5, 2.52, 2.58, 2.64, 3.73, 3.72, 3.7, 3.69, 3.67, 3.66, 3.65, 3.63, 3.62, 3.6, 3.59, 1.72, 1.71, 1.71, 1.7, 1.69, 1.69, 1.68, 1.67, 1.67, 1.66, 1.65, 1.65, 1.64, 1.66, 1.78, 3.37, 2.75, 2.74, 2.73, 2.71, 2.7, 2.69, 2.68, 2.67, 3.24, 3.23, 3.22, 3.2, 3.19, 3.18, 3.16, 3.15, 3.14, 3.12, 3.11, 3.1, 3.08, 3.07, 3.06, 3.04, 3.03, 3.02, 3.0, 2.99, 2.97, 2.96, 2.95, 2.93, 2.92, 2.91, 2.89, 2.88, 2.86, 2.85, 2.84, 2.82, 2.81, 2.79, 2.78, 2.76, 2.75, 2.74, 2.72, 2.71, 2.69, 2.68, 2.66]
12 [1.23, 1.24, 1.26, 1.27, 1.28, 1.3, 1.31, 1.33, 1.34, 1.36, 1.37, 1.39, 1.4, 1.42, 1.43, 1.45, 1.46, 1.48, 1.49, 1.51, 1.52, 1.54, 1.56, 1.57, 1.59, 1.6, 1.62, 1.64, 1.66, 1.67, 1.69, 1.71, 1.73, 1.74, 1.76, 1.78, 1.8, 1.82, 1.84, 1.86, 1.87, 1.89, 1.91, 1.93, 1.95, 1.98, 2.0, 2.02, 2.04, 2.06, 2.08, 2.11, 2.13, 2.15, 2.18, 2.2, 2.23, 2.25, 0.93, 0.93, 0.92, 0.91, 0.91, 0.9, 0.9, 0.89, 0.89, 0.88, 0.88, 0.87, 0.87, 0.86, 0.86, 0.85, 0.85, 0.85, 0.84, 0.85, 0.86, 0.87, 0.88, 0.9, 0.91, 0.92, 0.94, 0.95, 0.96, 0.98, 0.99, 1.01, 3.45, 3.5, 3.56, 3.62, 3.68, 3.74, 3.81, 3.87, 3.89, 2.54, 2.52, 2.51, 2.5, 2.49, 2.48, 2.47, 2.46, 2.45, 2.5, 2.56, 3.68, 3.67, 3.65, 3.63, 3.62, 3.6, 3.58, 3.57, 3.55, 3.54, 3.52, 3.51, 1.67, 1.66, 1.65, 1.65, 1.64, 1.63, 1.62, 1.62, 1.61, 1.6, 1.59, 1.59, 1.58, 1.59, 1.71, 3.26, 2.66, 2.64, 2.63, 2.62, 2.61, 2.6, 2.58, 2.57, 3.13, 3.11, 3.1, 3.08, 3.07, 3.05, 3.04, 3.02, 3.01, 2.99, 2.98, 2.96, 2.95, 2.93, 2.92, 2.9, 2.89, 2.87, 2.86, 2.84, 2.83, 2.81, 2.8, 2.78, 2.77, 2.75, 2.74, 2.72, 2.71, 2.69, 2.68, 2.66, 2.64, 2.63, 2.61, 2.6]
13 [1.21, 1.22, 1.24, 1.25, 1.26, 1.28, 1.29, 1.31, 1.32, 1.33, 1.35, 1.36, 1.38, 1.39, 1.41, 1.42, 1.44, 1.45, 1.47, 1.48, 1.5, 1.51, 1.53, 1.54, 1.56, 1.57, 1.59, 1.61, 1.62, 1.64, 1.66, 1.67, 1.69, 1.71, 1.73, 1.74, 1.76, 1.78, 1.8, 1.82, 1.83, 1.85, 1.87, 1.89, 1.91, 1.93, 1.95, 1.97, 1.99, 2.01, 2.03, 2.06, 2.08, 2.1, 2.12, 2.15, 2.17, 2.19, 0.9, 0.9, 0.89, 0.89, 0.88, 0.88, 0.87, 0.87, 0.86, 0.86, 0.85, 0.85, 0.84, 0.84, 0.83, 0.83, 0.82, 0.82, 0.81, 0.81, 0.81, 0.82, 0.83, 0.84, 0.86, 0.87, 0.88, 0.89, 0.91, 0.92, 0.93, 0.95, 0.96, 0.97, 3.42, 3.48, 3.53, 3.59, 3.65, 3.71, 3.78, 3.84, 3.85, 2.5, 2.49, 2.47, 2.46, 2.45, 2.44, 2.43, 2.42, 2.41, 2.46, 2.51, 2.57, 3.62, 3.6, 3.59, 3.57, 3.55, 3.54, 3.52, 3.51, 3.49, 3.47, 3.46, 3.44, 1.62, 1.61, 1.61, 1.6, 1.59, 1.58, 1.58, 1.57, 1.56, 1.55, 1.55, 1.54, 1.53, 1.56, 1.7, 2.61, 2.6, 2.58, 2.57, 2.56, 2.55, 2.53, 2.52, 2.56, 3.06, 3.04, 3.03, 3.01, 3.0, 2.98, 2.97, 2.95, 2.94, 2.92, 2.91, 2.89, 2.87, 2.86, 2.84, 2.83, 2.81, 2.8, 2.78, 2.77, 2.75, 2.74, 2.72, 2.71, 2.69, 2.67, 2.66, 2.64, 2.63, 2.61, 2.59, 2.58, 2.56]
14 [1.2, 1.22, 1.23, 1.24, 1.26, 1.27, 1.29, 1.3, 1.31, 1.33, 1.34, 1.36, 1.37, 1.39, 1.4, 1.42, 1.43, 1.45, 1.46, 1.48, 1.49, 1.51, 1.52, 1.54, 1.55, 1.57, 1.59, 1.6, 1.62, 1.64, 1.65, 1.67, 1.69, 1.71, 1.72, 1.74, 1.76, 1.78, 1.8, 1.82, 1.83, 1.85, 1.87, 1.89, 1.91, 1.93, 1.95, 1.97, 2.0, 2.02, 2.04, 2.06, 2.08, 2.11, 2.13, 2.15, 0.86, 0.86, 0.85, 0.85, 0.84, 0.84, 0.83, 0.83, 0.82, 0.82, 0.81, 0.81, 0.8, 0.8, 0.79, 0.79, 0.79, 0.78, 0.78, 0.77, 0.78, 0.79, 0.8, 0.81, 0.82, 0.83, 0.85, 0.86, 0.87, 0.88, 0.9, 0.91, 0.92, 0.94, 3.37, 3.42, 3.48, 3.53, 3.59, 3.65, 3.72, 3.78, 3.83, 2.47, 2.46, 2.45, 2.44, 2.43, 2.42, 2.41, 2.39, 2.38, 2.4, 2.45, 2.51, 3.61, 3.59, 3.57, 3.56, 3.54, 3.53, 3.51, 3.49, 3.48, 3.46, 3.45, 3.43, 3.42, 1.6, 1.59, 1.58, 1.57, 1.57, 1.56, 1.55, 1.55, 1.54, 1.53, 1.52, 1.52, 1.51, 1.51, 1.64, 2.59, 2.58, 2.57, 2.55, 2.54, 2.53, 2.52, 2.51, 2.56, 3.05, 3.03, 3.02, 3.0, 2.99, 2.97, 2.96, 2.94, 2.93, 2.91, 2.9, 2.88, 2.87, 2.86, 2.84, 2.83, 2.81, 2.8, 2.78, 2.77, 2.75, 2.74, 2.72, 2.71, 2.69, 2.68, 2.66, 2.64, 2.63, 2.61, 2.6, 2.58, 2.57, 2.55]
15 [1.2, 1.21, 1.22, 1.24, 1.25, 1.27, 1.28, 1.29, 1.31, 1.32, 1.34, 1.35, 1.37, 1.38, 1.4, 1.41, 1.43, 1.44, 1.46, 1.47, 1.49, 1.51, 1.52, 1.54, 1.55, 1.57, 1.59, 1.6, 1.62, 1.64, 1.65, 1.67, 1.69, 1.71, 1.73, 1.74, 1.76, 1.78, 1.8, 1.82, 1.84, 1.86, 1.88, 1.9, 1.92, 1.94, 1.96, 1.98, 2.0, 2.02, 2.05, 2.07, 2.09, 0.83, 0.83, 0.82, 0.82, 0.81, 0.81, 0.8, 0.8, 0.79, 0.79, 0.78, 0.78, 0.77, 0.77, 0.77, 0.76, 0.76, 0.75, 0.75, 0.75, 0.74, 0.75, 0.76, 0.77, 0.78, 0.79, 0.8, 0.82, 0.83, 0.84, 0.85, 0.86, 0.88, 0.89, 0.9, 0.92, 3.37, 3.43, 3.48, 3.54, 3.6, 3.66, 3.73, 3.79, 3.79, 2.44, 2.43, 2.42, 2.41, 2.4, 2.39, 2.38, 2.37, 2.35, 2.39, 2.45, 2.51, 3.58, 3.56, 3.55, 3.53, 3.52, 3.5, 3.49, 3.47, 3.46, 3.44, 3.43, 3.41, 3.4, 1.57, 1.57, 1.56, 1.55, 1.54, 1.54, 1.53, 1.52, 1.52, 1.51, 1.5, 1.5, 1.49, 1.48, 1.6, 2.58, 2.56, 2.55, 2.54, 2.53, 2.52, 2.51, 2.49, 3.05, 3.04, 3.02, 3.01, 2.99, 2.98, 2.97, 2.95, 2.94, 2.92, 2.91, 2.9, 2.88, 2.87, 2.85, 2.84, 2.82, 2.81, 2.8, 2.78, 2.77, 2.75, 2.74, 2.72, 2.71, 2.69, 2.68, 2.66, 2.65, 2.63, 2.62, 2.6, 2.59, 2.57, 2.56, 2.54]
16 [1.18, 1.19, 1.21, 1.22, 1.24, 1.25, 1.26, 1.28, 1.29, 1.31, 1.32, 1.34, 1.35, 1.37, 1.38, 1.4, 1.41, 1.43, 1.44, 1.46, 1.47, 1.49, 1.5, 1.52, 1.54, 1.55, 1.57, 1.59, 1.6, 1.62, 1.64, 1.66, 1.67, 1.69, 1.71, 1.73, 1.75, 1.76, 1.78, 1.8, 1.82, 1.84, 1.86, 1.88, 1.9, 1.92, 1.94, 1.97, 1.99, 0.77, 0.76, 0.76, 0.75, 0.75, 0.74, 0.74, 0.73, 0.73, 0.73, 0.72, 0.72, 0.71, 0.71, 0.71, 0.7, 0.7, 0.69, 0.69, 0.69, 0.68, 0.68, 0.69, 0.7, 0.71, 0.72, 0.73, 0.74, 0.75, 0.76, 0.77, 0.78, 0.79, 0.8, 0.81, 0.83, 0.84, 0.85, 3.28, 3.33, 3.38, 3.44, 3.5, 3.56, 3.62, 3.68, 3.75, 3.73, 2.38, 2.37, 2.36, 2.35, 2.34, 2.33, 2.32, 2.31, 2.3, 2.33, 2.39, 2.44, 3.52, 3.51, 3.49, 3.48, 3.47, 3.45, 3.44, 3.42, 3.41, 3.39, 3.38, 3.36, 3.35, 3.33, 1.52, 1.51, 1.5, 1.5, 1.49, 1.48, 1.48, 1.47, 1.46, 1.46, 1.45, 1.45, 1.44, 1.43, 1.5, 2.52, 2.51, 2.5, 2.49, 2.48, 2.47, 2.46, 2.45, 3.0, 2.99, 2.98, 2.96, 2.95, 2.94, 2.92, 2.91, 2.89, 2.88, 2.87, 2.85, 2.84, 2.83, 2.81, 2.8, 2.78, 2.77, 2.76, 2.74, 2.73, 2.71, 2.7, 2.69, 2.67, 2.66, 2.64, 2.63, 2.61, 2.6, 2.59, 2.57, 2.56, 2.54, 2.53, 2.51]
17 [1.18, 1.19, 1.21, 1.22, 1.24, 1.25, 1.26, 1.28, 1.29, 1.31, 1.32, 1.34, 1.35, 1.37, 1.38, 1.4, 1.41, 1.43, 1.44, 1.46, 1.47, 1.49, 1.5, 1.52, 1.54, 1.55, 1.57, 1.59, 1.6, 1.62, 1.64, 1.66, 1.67, 1.69, 1.71, 1.73, 1.75, 1.76, 1.78, 1.8, 1.82, 1.84, 1.86, 1.88, 1.9, 1.92, 1.94, 1.97, 1.99, 0.77, 0.76, 0.76, 0.75, 0.75, 0.74, 0.74, 0.73, 0.73, 0.73, 0.72, 0.72, 0.71, 0.71, 0.71, 0.7, 0.7, 0.69, 0.69, 0.69, 0.68, 0.68, 0.69, 0.7, 0.71, 0.72, 0.73, 0.74, 0.75, 0.76, 0.77, 0.78, 0.79, 0.8, 0.81, 0.83, 0.84, 0.85, 3.28, 3.33, 3.38, 3.44, 3.5, 3.56, 3.62, 3.68, 3.75, 3.73, 2.38, 2.37, 2.36, 2.35, 2.34, 2.33, 2.32, 2.31, 2.3, 2.33, 2.39, 2.44, 3.52, 3.51, 3.49, 3.48, 3.47, 3.45, 3.44, 3.42, 3.41, 3.39, 3.38, 3.36, 3.35, 3.33, 1.52, 1.51, 1.5, 1.5, 1.49, 1.48, 1.48, 1.47, 1.46, 1.46, 1.45, 1.45, 1.44, 1.43, 1.5, 2.52, 2.51, 2.5, 2.49, 2.48, 2.47, 2.46, 2.45, 3.0, 2.99, 2.98, 2.96, 2.95, 2.94, 2.92, 2.91, 2.89, 2.88, 2.87, 2.85, 2.84, 2.83, 2.81, 2.8, 2.78, 2.77, 2.76, 2.74, 2.73, 2.71, 2.7, 2.69, 2.67, 2.66, 2.64, 2.63, 2.61, 2.6, 2.59, 2.57, 2.56, 2.54, 2.53, 2.51]
18 [1.18, 1.19, 1.21, 1.22, 1.24, 1.25, 1.26, 1.28, 1.29, 1.31, 1.32, 1.34, 1.35, 1.37, 1.38, 1.4, 1.41, 1.43, 1.45, 1.46, 1.48, 1.49, 1.51, 1.53, 1.54, 1.56, 1.58, 1.6, 1.61, 1.63, 1.65, 1.67, 1.69, 1.7, 1.72, 1.74, 1.76, 1.78, 1.8, 1.82, 1.84, 1.86, 1.88, 0.72, 0.72, 0.71, 0.71, 0.7, 0.7, 0.7, 0.69, 0.69, 0.68, 0.68, 0.68, 0.67, 0.67, 0.66, 0.66, 0.66, 0.65, 0.65, 0.65, 0.64, 0.64, 0.64, 0.64, 0.65, 0.66, 0.67, 0.68, 0.69, 0.7, 0.71, 0.72, 0.73, 0.74, 0.75, 0.76, 0.77, 0.78, 0.79, 0.81, 3.19, 3.24, 3.3, 3.35, 3.41, 3.47, 3.53, 3.59, 3.65, 3.71, 3.69, 2.34, 2.33, 2.32, 2.31, 2.3, 2.29, 2.28, 2.28, 2.27, 2.3, 2.35, 2.41, 3.5, 3.49, 3.47, 3.46, 3.44, 3.43, 3.42, 3.4, 3.39, 3.38, 3.36, 3.35, 3.33, 3.32, 1.49, 1.48, 1.48, 1.47, 1.47, 1.46, 1.45, 1.45, 1.44, 1.44, 1.43, 1.43, 1.42, 1.41, 1.41, 1.5, 2.51, 2.5, 2.49, 2.48, 2.47, 2.46, 2.45, 2.44, 3.0, 2.99, 2.97, 2.96, 2.95, 2.93, 2.92, 2.91, 2.9, 2.88, 2.87, 2.86, 2.84, 2.83, 2.82, 2.81, 2.79, 2.78, 2.77, 2.75, 2.74, 2.73, 2.71, 2.7, 2.69, 2.67, 2.66, 2.65, 2.63, 2.62, 2.61, 2.59, 2.58, 2.56, 2.55, 2.54, 2.52, 2.51]
19 [1.19, 1.21, 1.22, 1.24, 1.25, 1.27, 1.29, 1.3, 1.32, 1.33, 1.35, 1.36, 1.38, 1.4, 1.41, 1.43, 1.45, 1.46, 1.48, 1.5, 1.52, 1.53, 1.55, 1.57, 1.59, 1.61, 1.63, 1.64, 1.66, 1.68, 1.7, 1.72, 1.74, 1.76, 0.67, 0.66, 0.66, 0.65, 0.65, 0.65, 0.64, 0.64, 0.64, 0.63, 0.63, 0.63, 0.62, 0.62, 0.62, 0.61, 0.61, 0.61, 0.6, 0.6, 0.6, 0.6, 0.59, 0.59, 0.6, 0.61, 0.62, 0.63, 0.64, 0.64, 0.65, 0.66, 0.67, 0.68, 0.69, 0.7, 0.71, 0.72, 0.73, 0.75, 0.76, 0.77, 3.12, 3.17, 3.23, 3.28, 3.34, 3.4, 3.46, 3.52, 3.58, 3.65, 3.66, 2.31, 2.3, 2.29, 2.28, 2.28, 2.27, 2.26, 2.25, 2.24, 2.24, 2.3, 2.35, 2.41, 3.48, 3.47, 3.45, 3.44, 3.43, 3.42, 3.41, 3.39, 3.38, 3.37, 3.36, 3.35, 3.34, 3.32, 1.47, 1.47, 1.46, 1.46, 1.45, 1.45, 1.44, 1.44, 1.43, 1.43, 1.42, 1.42, 1.41, 1.41, 1.4, 1.45, 2.53, 2.52, 2.51, 2.5, 2.49, 2.48, 2.47, 2.46, 3.04, 3.03, 3.02, 3.01, 3.0, 2.99, 2.97, 2.96, 2.95, 2.94, 2.93, 2.92, 2.91, 2.9, 2.88, 2.87, 2.86, 2.85, 2.84, 2.83, 2.82, 2.8, 2.79, 2.78, 2.77, 2.76, 2.75, 2.73, 2.72, 2.71, 2.7, 2.69, 2.67, 2.66, 2.65, 2.64, 2.62, 2.61, 2.6, 2.59, 2.57, 2.56, 2.55, 2.54]
20 [1.24, 1.26, 1.28, 1.3, 1.31, 1.33, 1.35, 1.37, 1.38, 1.4, 1.42, 1.44, 1.46, 1.48, 1.5, 1.51, 1.53, 1.55, 1.57, 1.59, 0.6, 0.6, 0.59, 0.59, 0.59, 0.59, 0.58, 0.58, 0.58, 0.58, 0.57, 0.57, 0.57, 0.57, 0.56, 0.56, 0.56, 0.56, 0.55, 0.55, 0.55, 0.55, 0.55, 0.54, 0.55, 0.56, 0.57, 0.57, 0.58, 0.59, 0.6, 0.61, 0.62, 0.63, 0.64, 0.65, 0.66, 0.67, 0.68, 0.69, 0.7, 0.71, 0.72, 2.96, 3.01, 3.06, 3.12, 3.17, 3.23, 3.29, 3.35, 3.41, 3.47, 3.54, 3.61, 3.6, 2.26, 2.25, 2.25, 2.24, 2.24, 2.23, 2.22, 2.22, 2.21, 2.23, 2.29, 2.34, 3.47, 3.46, 3.45, 3.44, 3.43, 3.42, 3.41, 3.4, 3.4, 3.39, 3.38, 3.37, 3.36, 3.35, 3.34, 1.47, 1.46, 1.46, 1.46, 1.45, 1.45, 1.45, 1.44, 1.44, 1.43, 1.43, 1.43, 1.42, 1.42, 1.42, 1.42, 2.57, 2.57, 2.56, 2.55, 2.55, 2.54, 2.53, 2.53, 3.13, 3.12, 3.11, 3.1, 3.09, 3.09, 3.08, 3.07, 3.06, 3.05, 3.04, 3.04, 3.03, 3.02, 3.01, 3.0, 2.99, 2.98, 2.98, 2.97, 2.96, 2.95, 2.94, 2.93, 2.92, 2.91, 2.9, 2.9, 2.89, 2.88, 2.87, 2.86, 2.85, 2.84, 2.83, 2.82, 2.81, 2.8, 2.79, 2.78, 2.77, 2.76, 2.76, 2.75, 2.74, 2.73, 2.72, 2.71, 2.7, 2.68, 2.67, 2.66, 2.65, 2.64, 2.63]
21 [1.27, 1.29, 1.3, 1.32, 1.34, 1.36, 1.38, 1.4, 1.42, 1.43, 1.45, 1.47, 1.49, 1.51, 1.53, 0.58, 0.58, 0.58, 0.57, 0.57, 0.57, 0.57, 0.56, 0.56, 0.56, 0.56, 0.56, 0.55, 0.55, 0.55, 0.55, 0.54, 0.54, 0.54, 0.54, 0.54, 0.54, 0.53, 0.53, 0.54, 0.54, 0.55, 0.56, 0.57, 0.58, 0.58, 0.59, 0.6, 0.61, 0.62, 0.63, 0.64, 0.65, 0.66, 0.67, 0.68, 0.69, 0.71, 0.72, 2.94, 2.99, 3.04, 3.09, 3.15, 3.21, 3.27, 3.33, 3.39, 3.45, 3.52, 3.58, 2.25, 2.24, 2.24, 2.23, 2.23, 2.22, 2.22, 2.21, 2.21, 2.2, 2.23, 2.29, 2.34, 3.46, 3.45, 3.44, 3.43, 3.43, 3.42, 3.41, 3.4, 3.39, 3.39, 3.38, 3.37, 3.36, 3.35, 3.35, 1.47, 1.46, 1.46, 1.46, 1.45, 1.45, 1.45, 1.44, 1.44, 1.44, 1.43, 1.43, 1.43, 1.42, 1.42, 1.46, 2.59, 2.58, 2.58, 2.57, 2.57, 2.56, 2.55, 2.55, 3.16, 3.15, 3.14, 3.14, 3.13, 3.12, 3.11, 3.11, 3.1, 3.09, 3.08, 3.08, 3.07, 3.06, 3.05, 3.05, 3.04, 3.03, 3.02, 3.01, 3.01, 3.0, 2.99, 2.98, 2.98, 2.97, 2.96, 2.95, 2.94, 2.94, 2.93, 2.92, 2.91, 2.9, 2.9, 2.89, 2.88, 2.87, 2.86, 2.85, 2.85, 2.84, 2.83, 2.82, 2.81, 2.8, 2.79, 2.78, 2.78, 2.77, 2.76, 2.75, 2.74, 2.73, 2.72, 2.71, 2.7, 2.69, 2.68]
22 [1.27, 1.29, 1.3, 1.32, 1.34, 1.36, 1.38, 1.4, 1.42, 1.43, 1.45, 1.47, 1.49, 1.51, 1.53, 0.58, 0.58, 0.58, 0.57, 0.57, 0.57, 0.57, 0.56, 0.56, 0.56, 0.56, 0.56, 0.55, 0.55, 0.55, 0.55, 0.54, 0.54, 0.54, 0.54, 0.54, 0.54, 0.53, 0.53, 0.54, 0.54, 0.55, 0.56, 0.57, 0.58, 0.58, 0.59, 0.6, 0.61, 0.62, 0.63, 0.64, 0.65, 0.66, 0.67, 0.68, 0.69, 0.71, 0.72, 2.94, 2.99, 3.04, 3.09, 3.15, 3.21, 3.27, 3.33, 3.39, 3.45, 3.52, 3.58, 2.25, 2.24, 2.24, 2.23, 2.23, 2.22, 2.22, 2.21, 2.21, 2.2, 2.23, 2.29, 2.34, 3.46, 3.45, 3.44, 3.43, 3.43, 3.42, 3.41, 3.4, 3.39, 3.39, 3.38, 3.37, 3.36, 3.35, 3.35, 1.47, 1.46, 1.46, 1.46, 1.45, 1.45, 1.45, 1.44, 1.44, 1.44, 1.43, 1.43, 1.43, 1.42, 1.42, 1.46, 2.59, 2.58, 2.58, 2.57, 2.57, 2.56, 2.55, 2.55, 3.16, 3.15, 3.14, 3.14, 3.13, 3.12, 3.11, 3.11, 3.1, 3.09, 3.08, 3.08, 3.07, 3.06, 3.05, 3.05, 3.04, 3.03, 3.02, 3.01, 3.01, 3.0, 2.99, 2.98, 2.98, 2.97, 2.96, 2.95, 2.94, 2.94, 2.93, 2.92, 2.91, 2.9, 2.9, 2.89, 2.88, 2.87, 2.86, 2.85, 2.85, 2.84, 2.83, 2.82, 2.81, 2.8, 2.79, 2.78, 2.78, 2.77, 2.76, 2.75, 2.74, 2.73, 2.72, 2.71, 2.7, 10.0, 0.0]
23 [1.34, 1.36, 1.38, 1.4, 0.53, 0.53, 0.53, 0.52, 0.52, 0.52, 0.52, 0.52, 0.52, 0.51, 0.51, 0.51, 0.51, 0.51, 0.51, 0.5, 0.5, 0.5, 0.5, 0.5, 0.5, 0.5, 0.5, 0.49, 0.5, 0.51, 0.52, 0.52, 0.53, 0.54, 0.55, 0.56, 0.57, 0.58, 0.59, 0.59, 0.6, 0.61, 0.62, 0.64, 0.65, 0.66, 0.67, 0.68, 2.78, 2.83, 2.88, 2.93, 2.99, 3.04, 3.1, 3.16, 3.22, 3.28, 3.35, 3.42, 3.49, 3.5, 2.19, 2.19, 2.19, 2.18, 2.18, 2.17, 2.17, 2.17, 2.16, 2.18, 2.23, 2.29, 2.35, 3.41, 3.41, 3.4, 3.4, 3.39, 3.39, 3.38, 3.37, 3.37, 3.36, 3.36, 3.35, 3.35, 3.34, 1.46, 1.46, 1.45, 1.45, 1.45, 1.45, 1.45, 1.44, 1.44, 1.44, 1.44, 1.43, 1.43, 1.43, 1.43, 1.42, 1.58, 2.61, 2.61, 2.6, 2.6, 2.6, 2.59, 2.59, 2.58, 3.21, 3.2, 3.2, 3.19, 3.19, 3.18, 3.18, 3.17, 3.17, 3.16, 3.15, 3.15, 3.14, 3.14, 3.13, 3.13, 3.12, 3.12, 3.11, 3.11, 3.1, 3.1, 3.09, 3.09, 3.08, 3.08, 3.07, 3.06, 3.06, 3.05, 3.05, 3.04, 3.04, 3.03, 3.03, 3.02, 3.01, 3.01, 3.0, 3.0, 2.99, 2.98, 2.98, 2.97, 2.97, 2.96, 2.95, 2.95, 2.94, 2.94, 2.93, 2.92, 2.92, 2.91, 2.9, 2.9, 2.89, 2.88, 2.88, 2.87, 2.86, 2.86, 2.85, 2.84, 2.83, 2.83, 2.82, 2.81]
24 [0.5, 0.5, 0.49, 0.49, 0.49, 0.49, 0.49, 0.49, 0.49, 0.49, 0.48, 0.48, 0.48, 0.48, 0.48, 0.48, 0.48, 0.48, 0.48, 0.48, 0.47, 0.47, 0.48, 0.49, 0.5, 0.5, 0.51, 0.52, 0.53, 0.54, 0.55, 0.55, 0.56, 0.57, 0.58, 0.59, 0.6, 0.61, 0.62, 0.63, 0.64, 0.66, 0.67, 2.73, 2.78, 2.83, 2.88, 2.93, 2.99, 3.05, 3.11, 3.17, 3.23, 3.3, 3.36, 3.43, 3.45, 2.16, 2.16, 2.15, 2.15, 2.15, 2.14, 2.14, 2.14, 2.14, 2.15, 2.21, 2.27, 2.33, 3.38, 3.38, 3.37, 3.37, 3.36, 3.36, 3.36, 3.35, 3.35, 3.34, 3.34, 3.34, 3.33, 3.33, 1.45, 1.45, 1.45, 1.44, 1.44, 1.44, 1.44, 1.44, 1.44, 1.43, 1.43, 1.43, 1.43, 1.43, 1.42, 1.42, 1.57, 2.62, 2.61, 2.61, 2.61, 2.6, 2.6, 2.6, 2.59, 3.22, 3.22, 3.22, 3.21, 3.21, 3.2, 3.2, 3.2, 3.19, 3.19, 3.18, 3.18, 3.18, 3.17, 3.17, 3.16, 3.16, 3.16, 3.15, 3.15, 3.14, 3.14, 3.14, 3.13, 3.13, 3.12, 3.12, 3.12, 3.11, 3.11, 3.1, 3.1, 3.09, 3.09, 3.09, 3.08, 3.08, 3.07, 3.07, 3.06, 3.06, 3.05, 3.05, 3.05, 3.04, 3.04, 3.03, 3.03, 3.02, 3.02, 3.01, 3.01, 3.0, 3.0, 2.99, 2.99, 2.98, 2.98, 2.97, 2.97, 2.96, 2.96, 2.95, 2.95, 2.94, 2.93, 2.93, 2.92, 2.92, 2.91, 2.9, 2.9, 2.89]
25 [0.47, 0.47, 0.47, 0.46, 0.46, 0.46, 0.46, 0.46, 0.46, 0.46, 0.46, 0.46, 0.46, 0.46, 0.46, 0.46, 0.46, 0.46, 0.47, 0.48, 0.49, 0.49, 0.5, 0.51, 0.52, 0.53, 0.54, 0.54, 0.55, 0.56, 0.57, 0.58, 0.59, 0.6, 0.61, 0.62, 0.64, 0.65, 2.64, 2.69, 2.74, 2.79, 2.84, 2.9, 2.96, 3.01, 3.07, 3.13, 3.2, 3.26, 3.33, 3.4, 2.13, 2.13, 2.12, 2.12, 2.12, 2.12, 2.12, 2.11, 2.11, 2.11, 2.14, 2.2, 2.26, 3.35, 3.35, 3.35, 3.34, 3.34, 3.34, 3.33, 3.33, 3.33, 3.32, 3.32, 3.32, 3.32, 3.31, 3.31, 1.44, 1.44, 1.44, 1.43, 1.43, 1.43, 1.43, 1.43, 1.43, 1.43, 1.43, 1.42, 1.42, 1.42, 1.42, 1.42, 2.62, 2.62, 2.61, 2.61, 2.61, 2.61, 2.6, 2.6, 3.24, 3.23, 3.23, 3.23, 3.22, 3.22, 3.22, 3.22, 3.21, 3.21, 3.21, 3.2, 3.2, 3.2, 3.2, 3.19, 3.19, 3.19, 3.18, 3.18, 3.18, 3.17, 3.17, 3.17, 3.17, 3.16, 3.16, 3.16, 3.15, 3.15, 3.15, 3.14, 3.14, 3.14, 3.13, 3.13, 3.13, 3.12, 3.12, 3.12, 3.12, 3.11, 3.11, 3.1, 3.1, 3.1, 3.09, 3.09, 3.09, 3.08, 3.08, 3.08, 3.07, 3.07, 3.07, 3.06, 3.06, 3.05, 3.05, 3.05, 3.04, 3.04, 3.04, 3.03, 3.03, 3.02, 3.02, 3.01, 3.01, 3.01, 3.0, 3.0, 2.99, 2.99, 2.98, 2.98, 2.97, 2.97]
26 [0.45, 0.44, 0.44, 0.44, 0.44, 0.44, 0.44, 0.44, 0.44, 0.44, 0.44, 0.44, 0.44, 0.45, 0.46, 0.46, 0.47, 0.48, 0.49, 0.5, 0.5, 0.51, 0.52, 0.53, 0.54, 0.55, 0.56, 0.57, 0.58, 0.59, 0.6, 0.61, 0.62, 0.63, 2.58, 2.62, 2.67, 2.72, 2.78, 2.83, 2.89, 2.94, 3.0, 3.06, 3.13, 3.19, 3.26, 3.33, 3.36, 2.1, 2.1, 2.1, 2.09, 2.09, 2.09, 2.09, 2.09, 2.09, 2.1, 2.15, 2.21, 2.27, 3.32, 3.32, 3.32, 3.32, 3.31, 3.31, 3.31, 3.31, 3.3, 3.3, 3.3, 3.3, 3.3, 3.29, 1.43, 1.43, 1.43, 1.43, 1.43, 1.42, 1.42, 1.42, 1.42, 1.42, 1.42, 1.42, 1.42, 1.42, 1.42, 1.42, 1.52, 2.62, 2.61, 2.61, 2.61, 2.61, 2.61, 2.61, 2.6, 3.24, 3.24, 3.24, 3.23, 3.23, 3.23, 3.23, 3.23, 3.22, 3.22, 3.22, 3.22, 3.22, 3.21, 3.21, 3.21, 3.21, 3.2, 3.2, 3.2, 3.2, 3.2, 3.19, 3.19, 3.19, 3.19, 3.19, 3.18, 3.18, 3.18, 3.18, 3.17, 3.17, 3.17, 3.17, 3.17, 3.16, 3.16, 3.16, 3.16, 3.15, 3.15, 3.15, 3.15, 3.14, 3.14, 3.14, 3.14, 3.14, 3.13, 3.13, 3.13, 3.12, 3.12, 3.12, 3.12, 3.11, 3.11, 3.11, 3.11, 3.1, 3.1, 3.1, 3.1, 3.09, 3.09, 3.09, 3.08, 3.08, 3.08, 3.07, 3.07, 3.07, 3.06, 3.06, 3.06, 3.05, 3.05, 3.05, 3.04, 3.04]
27 [0.43, 0.43, 0.43, 0.43, 0.43, 0.43, 0.43, 0.43, 0.43, 0.43, 0.44, 0.45, 0.45, 0.46, 0.47, 0.48, 0.49, 0.49, 0.5, 0.51, 0.52, 0.53, 0.54, 0.55, 0.56, 0.57, 0.58, 0.59, 0.6, 0.61, 0.62, 2.53, 2.58, 2.63, 2.68, 2.73, 2.78, 2.84, 2.89, 2.95, 3.01, 3.07, 3.14, 3.21, 3.28, 3.32, 2.08, 2.08, 2.07, 2.07, 2.07, 2.07, 2.07, 2.07, 2.07, 2.07, 2.12, 2.18, 2.24, 3.3, 3.3, 3.29, 3.29, 3.29, 3.29, 3.29, 3.29, 3.29, 3.28, 3.28, 3.28, 3.28, 3.28, 1.42, 1.42, 1.42, 1.42, 1.42, 1.42, 1.42, 1.42, 1.42, 1.41, 1.41, 1.41, 1.41, 1.41, 1.41, 1.41, 1.47, 2.61, 2.61, 2.61, 2.61, 2.61, 2.61, 2.61, 2.6, 3.24, 3.24, 3.24, 3.24, 3.24, 3.24, 3.23, 3.23, 3.23, 3.23, 3.23, 3.23, 3.23, 3.22, 3.22, 3.22, 3.22, 3.22, 3.22, 3.22, 3.21, 3.21, 3.21, 3.21, 3.21, 3.21, 3.21, 3.2, 3.2, 3.2, 3.2, 3.2, 3.2, 3.2, 3.19, 3.19, 3.19, 3.19, 3.19, 3.19, 3.18, 3.18, 3.18, 3.18, 3.18, 3.18, 3.18, 3.17, 3.17, 3.17, 3.17, 3.17, 3.17, 3.16, 3.16, 3.16, 3.16, 3.16, 3.15, 3.15, 3.15, 3.15, 3.15, 3.15, 3.14, 3.14, 3.14, 3.14, 3.14, 3.13, 3.13, 3.13, 3.13, 3.12, 3.12, 3.12, 3.12, 3.12, 3.11, 3.11, 3.11, 3.11, 3.1, 3.1]
28 [0.43, 0.43, 0.43, 0.43, 0.43, 0.43, 0.43, 0.43, 0.43, 0.43, 0.44, 0.45, 0.45, 0.46, 0.47, 0.48, 0.49, 0.49, 0.5, 0.51, 0.52, 0.53, 0.54, 0.55, 0.56, 0.57, 0.58, 0.59, 0.6, 0.61, 0.62, 2.53, 2.58, 2.63, 2.68, 2.73, 2.78, 2.84, 2.89, 2.95, 3.01, 3.07, 3.14, 3.21, 3.28, 3.32, 2.08, 2.08, 2.07, 2.07, 2.07, 2.07, 2.07, 2.07, 2.07, 2.07, 2.12, 2.18, 2.24, 3.3, 3.3, 3.29, 3.29, 3.29, 3.29, 3.29, 3.29, 3.29, 3.28, 3.28, 3.28, 3.28, 3.28, 1.42, 1.42, 1.42, 1.42, 1.42, 1.42, 1.42, 1.42, 1.42, 1.41, 1.41, 1.41, 1.41, 1.41, 1.41, 1.41, 1.47, 2.61, 2.61, 2.61, 2.61, 2.61, 2.61, 2.61, 2.6, 3.24, 3.24, 3.24, 3.24, 3.24, 3.24, 3.23, 3.23, 3.23, 3.23, 3.23, 3.23, 3.23, 3.22, 3.22, 3.22, 3.22, 3.22, 3.22, 3.22, 3.21, 3.21, 3.21, 3.21, 3.21, 3.21, 3.21, 3.2, 3.2, 3.2, 3.2, 3.2, 3.2, 3.2, 3.19, 3.19, 3.19, 3.19, 3.19, 3.19, 3.18, 3.18, 3.18, 3.18, 3.18, 3.18, 3.18, 3.17, 3.17, 3.17, 3.17, 3.17, 3.17, 3.16, 3.16, 3.16, 3.16, 3.16, 3.15, 3.15, 3.15, 3.15, 3.15, 3.15, 3.14, 3.14, 3.14, 3.14, 3.14, 3.13, 3.13, 3.13, 3.13, 3.12, 3.12, 3.12, 3.12, 3.12, 3.11, 3.11, 3.11, 3.11, 3.1, 3.1]
29 [0.4, 0.4, 0.4, 0.41, 0.42, 0.42, 0.43, 0.44, 0.45, 0.45, 0.46, 0.47, 0.48, 0.49, 0.5, 0.51, 0.51, 0.52, 0.53, 0.54, 0.55, 0.56, 0.57, 0.59, 0.6, 2.42, 2.46, 2.51, 2.56, 2.61, 2.66, 2.72, 2.77, 2.83, 2.89, 2.95, 3.01, 3.07, 3.14, 3.21, 3.24, 2.02, 2.02, 2.02, 2.02, 2.02, 2.02, 2.02, 2.02, 2.02, 2.04, 2.1, 2.15, 2.21, 3.24, 3.24, 3.24, 3.24, 3.24, 3.24, 3.24, 3.24, 3.24, 3.24, 3.24, 3.24, 3.24, 3.24, 1.4, 1.4, 1.4, 1.4, 1.4, 1.4, 1.4, 1.4, 1.4, 1.4, 1.4, 1.4, 1.4, 1.4, 1.4, 1.4, 1.48, 2.6, 2.6, 2.6, 2.6, 2.6, 2.6, 2.6, 2.6, 3.24, 3.24, 3.24, 3.23, 3.23, 3.23, 3.23, 3.23, 3.23, 3.23, 3.23, 3.23, 3.23, 3.23, 3.23, 3.23, 3.23, 3.23, 3.23, 3.23, 3.23, 3.23, 3.23, 3.23, 3.23, 3.23, 3.23, 3.23, 3.23, 3.23, 3.23, 3.23, 3.23, 3.23, 3.23, 3.23, 3.23, 3.23, 3.23, 3.23, 3.23, 3.23, 3.23, 3.23, 3.23, 3.23, 3.23, 3.23, 3.23, 3.23, 3.23, 3.23, 3.23, 3.23, 3.23, 3.23, 3.23, 3.23, 3.23, 3.23, 3.23, 3.23, 3.23, 3.22, 3.22, 3.22, 3.22, 3.22, 3.22, 3.22, 3.22, 3.22, 3.22, 3.22, 3.22, 3.22, 3.22, 3.22, 3.22, 3.22, 3.22, 3.22, 3.22, 3.22, 3.22, 3.22, 3.22, 3.22, 3.19]
30 [0.42, 0.43, 0.43, 0.44, 0.45, 0.46, 0.47, 0.48, 0.48, 0.49, 0.5, 0.51, 0.52, 0.53, 0.54, 2.19, 2.23, 2.28, 2.32, 2.37, 2.42, 2.47, 2.52, 2.57, 2.62, 2.68, 2.73, 2.79, 2.85, 2.92, 2.98, 3.05, 3.12, 1.94, 1.95, 1.95, 1.95, 1.95, 1.95, 1.95, 1.95, 1.95, 1.95, 2.0, 2.05, 2.11, 3.15, 3.15, 3.15, 3.15, 3.16, 3.16, 3.16, 3.16, 3.16, 3.16, 3.17, 3.17, 3.17, 3.17, 1.36, 1.36, 1.36, 1.36, 1.36, 1.36, 1.36, 1.36, 1.36, 1.36, 1.36, 1.37, 1.37, 1.37, 1.37, 1.37, 1.37, 1.53, 2.56, 2.57, 2.57, 2.57, 2.57, 2.57, 2.57, 2.57, 3.21, 3.22, 3.22, 3.22, 3.22, 3.22, 3.22, 3.23, 3.23, 3.23, 3.23, 3.23, 3.23, 3.23, 3.24, 3.24, 3.24, 3.24, 3.24, 3.24, 3.25, 3.25, 3.25, 3.25, 3.25, 3.25, 3.26, 3.26, 3.26, 3.26, 3.26, 3.26, 3.27, 3.27, 3.27, 3.27, 3.27, 3.27, 3.28, 3.28, 3.28, 3.28, 3.28, 3.29, 3.29, 3.29, 3.29, 3.29, 3.29, 3.3, 3.3, 3.3, 3.3, 3.3, 3.31, 3.31, 3.31, 3.31, 3.31, 3.32, 3.32, 3.32, 3.32, 3.33, 3.33, 3.33, 3.33, 3.33, 3.34, 3.34, 3.34, 3.34, 3.35, 3.35, 3.35, 3.35, 3.36, 3.36, 3.36, 3.36, 3.37, 3.37, 3.37, 3.37, 3.38, 3.38, 3.38, 3.39, 3.37, 2.62, 2.57, 2.53, 2.49, 2.45, 2.44, 2.44]
31 [0.42, 0.43, 0.43, 0.44, 0.45, 0.46, 0.47, 0.48, 0.48, 0.49, 0.5, 0.51, 0.52, 0.53, 0.54, 2.19, 2.23, 2.28, 2.32, 2.37, 2.42, 2.47, 2.52, 2.57, 2.62, 2.68, 2.73, 2.79, 2.85, 2.92, 2.98, 3.05, 3.12, 1.94, 1.95, 1.95, 1.95, 1.95, 1.95, 1.95, 1.95, 1.95, 1.95, 2.0, 2.05, 2.11, 3.15, 3.15, 3.15, 3.15, 3.16, 3.16, 3.16, 3.16, 3.16, 3.16, 3.17, 3.17, 3.17, 3.17, 1.36, 1.36, 1.36, 1.36, 1.36, 1.36, 1.36, 1.36, 1.36, 1.36, 1.36, 1.37, 1.37, 1.37, 1.37, 1.37, 1.37, 1.53, 2.56, 2.57, 2.57, 2.57, 2.57, 2.57, 2.57, 2.57, 3.21, 3.22, 3.22, 3.22, 3.22, 3.22, 3.22, 3.23, 3.23, 3.23, 3.23, 3.23, 3.23, 3.23, 3.24, 3.24, 3.24, 3.24, 3.24, 3.24, 3.25, 3.25, 3.25, 3.25, 3.25, 3.25, 3.26, 3.26, 3.26, 3.26, 3.26, 3.26, 3.27, 3.27, 3.27, 3.27, 3.27, 3.27, 3.28, 3.28, 3.28, 3.28, 3.28, 3.29, 3.29, 3.29, 3.29, 3.29, 3.29, 3.3, 3.3, 3.3, 3.3, 3.3, 3.31, 3.31, 3.31, 3.31, 3.31, 3.32, 3.32, 3.32, 3.32, 3.33, 3.33, 3.33, 3.33, 3.33, 3.34, 3.34, 3.34, 3.34, 3.35, 3.35, 3.35, 3.35, 3.36, 3.36, 3.36, 3.36, 3.37, 3.37, 3.37, 3.37, 3.38, 3.38, 3.38, 3.39, 3.37, 2.62, 2.57, 2.53, 2.49, 2.45, 2.44, 2.44]
32 [0.48, 0.49, 1.94, 1.98, 2.03, 2.07, 2.11, 2.16, 2.2, 2.25, 2.3, 2.35, 2.4, 2.45, 2.51, 2.57, 2.62, 2.68, 2.75, 2.81, 2.88, 1.82, 1.82, 1.82, 1.83, 1.83, 1.83, 1.83, 1.84, 1.84, 1.84, 1.87, 1.92, 1.98, 2.04, 3.0, 3.0, 3.01, 3.01, 3.02, 3.02, 3.02, 3.03, 3.03, 3.04, 3.04, 3.05, 3.05, 3.06, 1.3, 1.3, 1.31, 1.31, 1.31, 1.31, 1.31, 1.32, 1.32, 1.32, 1.32, 1.32, 1.32, 1.33, 1.33, 1.33, 1.41, 2.51, 2.51, 2.51, 2.52, 2.52, 2.52, 2.53, 2.53, 2.53, 3.17, 3.18, 3.18, 3.19, 3.19, 3.19, 3.2, 3.2, 3.21, 3.21, 3.21, 3.22, 3.22, 3.23, 3.23, 3.24, 3.24, 3.25, 3.25, 3.25, 3.26, 3.26, 3.27, 3.27, 3.28, 3.28, 3.28, 3.29, 3.29, 3.3, 3.3, 3.31, 3.31, 3.32, 3.32, 3.33, 3.33, 3.34, 3.34, 3.35, 3.35, 3.35, 3.36, 3.36, 3.37, 3.37, 3.38, 3.38, 3.39, 3.39, 3.4, 3.41, 3.41, 3.42, 3.42, 3.43, 3.43, 3.44, 3.44, 3.45, 3.45, 3.46, 3.47, 3.47, 3.48, 3.48, 3.49, 3.5, 3.5, 3.51, 3.52, 3.52, 3.53, 3.53, 3.54, 3.55, 3.56, 3.56, 3.57, 3.58, 3.58, 3.59, 3.6, 3.61, 3.61, 3.62, 3.63, 3.64, 3.64, 2.82, 2.78, 2.74, 2.7, 2.66, 2.64, 2.65, 2.66, 2.67, 3.13, 3.08, 3.04, 2.99, 2.95, 2.9, 2.86, 2.82, 2.77]
33 [2.03, 2.07, 2.12, 2.16, 2.21, 2.26, 2.32, 2.37, 2.42, 2.48, 2.54, 2.6, 2.66, 2.73, 2.8, 1.74, 1.74, 1.75, 1.75, 1.75, 1.76, 1.76, 1.77, 1.77, 1.79, 1.84, 1.89, 1.95, 2.89, 2.9, 2.9, 2.91, 2.92, 2.92, 2.93, 2.94, 2.94, 2.95, 2.95, 2.96, 2.97, 2.97, 1.26, 1.27, 1.27, 1.27, 1.27, 1.28, 1.28, 1.28, 1.28, 1.29, 1.29, 1.29, 1.29, 1.3, 1.3, 1.3, 1.36, 2.46, 2.47, 2.47, 2.48, 2.48, 2.49, 2.49, 2.5, 2.5, 3.13, 3.14, 3.14, 3.15, 3.15, 3.16, 3.17, 3.17, 3.18, 3.18, 3.19, 3.2, 3.2, 3.21, 3.21, 3.22, 3.22, 3.23, 3.24, 3.24, 3.25, 3.25, 3.26, 3.27, 3.27, 3.28, 3.28, 3.29, 3.3, 3.3, 3.31, 3.32, 3.32, 3.33, 3.33, 3.34, 3.35, 3.35, 3.36, 3.37, 3.37, 3.38, 3.39, 3.39, 3.4, 3.41, 3.41, 3.42, 3.43, 3.43, 3.44, 3.45, 3.46, 3.46, 3.47, 3.48, 3.49, 3.49, 3.5, 3.51, 3.52, 3.52, 3.53, 3.54, 3.55, 3.56, 3.56, 3.57, 3.58, 3.59, 3.6, 3.61, 3.62, 3.62, 3.63, 3.64, 3.65, 3.66, 3.67, 3.68, 3.69, 3.7, 3.71, 3.72, 3.73, 3.74, 3.75, 3.76, 3.78, 3.75, 2.91, 2.87, 2.83, 2.79, 2.75, 2.76, 2.77, 2.78, 2.79, 3.25, 3.21, 3.16, 3.12, 3.07, 3.03, 2.99, 2.94, 1.9, 1.87, 1.84, 1.82, 1.79, 1.77, 1.74]
34 [2.26, 2.31, 2.37, 2.43, 2.49, 2.55, 1.62, 1.63, 1.63, 1.64, 1.64, 1.65, 1.66, 1.66, 1.67, 1.67, 1.69, 1.74, 1.79, 1.85, 2.75, 2.76, 2.77, 2.78, 2.78, 2.79, 2.8, 2.81, 2.82, 2.83, 2.83, 2.84, 2.85, 1.2, 1.21, 1.21, 1.21, 1.22, 1.22, 1.22, 1.23, 1.23, 1.23, 1.24, 1.24, 1.24, 1.25, 1.25, 1.25, 1.25, 1.32, 2.39, 2.4, 2.4, 2.41, 2.42, 2.42, 2.43, 2.43, 2.44, 3.06, 3.07, 3.08, 3.09, 3.09, 3.1, 3.11, 3.12, 3.12, 3.13, 3.14, 3.15, 3.15, 3.16, 3.17, 3.18, 3.18, 3.19, 3.2, 3.21, 3.21, 3.22, 3.23, 3.24, 3.24, 3.25, 3.26, 3.27, 3.28, 3.28, 3.29, 3.3, 3.31, 3.32, 3.32, 3.33, 3.34, 3.35, 3.36, 3.37, 3.37, 3.38, 3.39, 3.4, 3.41, 3.42, 3.43, 3.44, 3.44, 3.45, 3.46, 3.47, 3.48, 3.49, 3.5, 3.51, 3.52, 3.53, 3.54, 3.55, 3.56, 3.57, 3.58, 3.59, 3.6, 3.61, 3.62, 3.63, 3.64, 3.65, 3.66, 3.67, 3.69, 3.7, 3.71, 3.72, 3.73, 3.74, 3.76, 3.77, 3.78, 3.8, 3.81, 3.82, 3.84, 3.85, 3.86, 3.88, 3.89, 3.91, 3.87, 3.0, 2.96, 2.92, 2.88, 2.85, 2.86, 2.87, 2.89, 2.9, 3.38, 3.34, 3.29, 3.25, 3.21, 3.17, 3.12, 3.08, 1.98, 1.96, 1.93, 1.91, 1.88, 1.86, 1.83, 1.81, 1.8, 1.81, 1.82, 1.83, 0.0, 0.0]
35 [1.51, 1.51, 1.52, 1.53, 1.53, 1.54, 1.55, 1.6, 1.65, 1.7, 2.56, 2.57, 2.58, 2.59, 2.6, 2.61, 2.62, 2.63, 2.65, 2.66, 2.67, 2.68, 2.69, 1.12, 1.13, 1.13, 1.14, 1.14, 1.14, 1.15, 1.15, 1.16, 1.16, 1.16, 1.17, 1.17, 1.18, 1.18, 1.18, 1.19, 1.23, 1.36, 2.3, 2.3, 2.31, 2.32, 2.33, 2.33, 2.34, 2.35, 2.36, 2.96, 2.97, 2.98, 2.99, 3.0, 3.01, 3.02, 3.03, 3.04, 3.05, 3.06, 3.07, 3.08, 3.09, 3.1, 3.11, 3.12, 3.13, 3.14, 3.15, 3.15, 3.16, 3.17, 3.18, 3.19, 3.2, 3.21, 3.22, 3.23, 3.24, 3.25, 3.26, 3.27, 3.28, 3.29, 3.3, 3.32, 3.33, 3.34, 3.35, 3.36, 3.37, 3.38, 3.39, 3.4, 3.41, 3.42, 3.43, 3.44, 3.46, 3.47, 3.48, 3.49, 3.5, 3.51, 3.53, 3.54, 3.55, 3.56, 3.57, 3.59, 3.6, 3.61, 3.63, 3.64, 3.65, 3.67, 3.68, 3.69, 3.71, 3.72, 3.73, 3.75, 3.76, 3.78, 3.79, 3.81, 3.82, 3.84, 3.85, 3.87, 3.89, 3.9, 3.92, 3.94, 3.95, 3.97, 3.99, 4.01, 4.02, 4.02, 3.12, 3.08, 3.05, 3.01, 2.97, 2.96, 2.97, 2.99, 3.0, 3.55, 3.51, 3.46, 3.42, 3.38, 3.34, 3.3, 3.26, 3.22, 2.07, 2.04, 2.02, 1.99, 1.97, 1.95, 1.92, 1.9, 1.9, 1.91, 1.92, 1.94, 1.95, 2.71, 2.68, 2.64, 0.66, 0.65, 0.64, 0.64, 0.63, 0.62]
36 [1.51, 1.51, 1.52, 1.53, 1.53, 1.54, 1.55, 1.6, 1.65, 1.7, 2.56, 2.57, 2.58, 2.59, 2.6, 2.61, 2.62, 2.63, 2.65, 2.66, 2.67, 2.68, 2.69, 1.12, 1.13, 1.13, 1.14, 1.14, 1.14, 1.15, 1.15, 1.16, 1.16, 1.16, 1.17, 1.17, 1.18, 1.18, 1.18, 1.19, 1.23, 1.36, 2.3, 2.3, 2.31, 2.32, 2.33, 2.33, 2.34, 2.35, 2.36, 2.96, 2.97, 2.98, 2.99, 3.0, 3.01, 3.02, 3.03, 3.04, 3.05, 3.06, 3.07, 3.08, 3.09, 3.1, 3.11, 3.12, 3.13, 3.14, 3.15, 3.15, 3.16, 3.17, 3.18, 3.19, 3.2, 3.21, 3.22, 3.23, 3.24, 3.25, 3.26, 3.27, 3.28, 3.29, 3.3, 3.32, 3.33, 3.34, 3.35, 3.36, 3.37, 3.38, 3.39, 3.4, 3.41, 3.42, 3.43, 3.44, 3.46, 3.47, 3.48, 3.49, 3.5, 3.51, 3.53, 3.54, 3.55, 3.56, 3.57, 3.59, 3.6, 3.61, 3.63, 3.64, 3.65, 3.67, 3.68, 3.69, 3.71, 3.72, 3.73, 3.75, 3.76, 3.78, 3.79, 3.81, 3.82, 3.84, 3.85, 3.87, 3.89, 3.9, 3.92, 3.94, 3.95, 3.97, 3.99, 4.01, 4.02, 4.02, 3.12, 3.08, 3.05, 3.01, 2.97, 2.96, 2.97, 2.99, 3.0, 3.55, 3.51, 3.46, 3.42, 3.38, 3.34, 3.3, 3.26, 3.22, 2.07, 2.04, 2.02, 1.99, 1.97, 1.95, 1.92, 1.9, 1.9, 1.91, 1.92, 1.94, 1.95, 2.71, 2.68, 2.64, 0.66, 0.65, 0.64, 0.64, 10.0, 0.0]
37 [2.36, 2.37, 2.38, 2.4, 2.41, 2.42, 2.43, 2.45, 2.46, 2.47, 2.48, 2.5, 2.51, 1.04, 1.05, 1.05, 1.06, 1.06, 1.07, 1.07, 1.08, 1.08, 1.09, 1.09, 1.1, 1.1, 1.11, 1.11, 1.12, 1.12, 1.16, 1.27, 2.74, 2.19, 2.2, 2.21, 2.22, 2.23, 2.24, 2.25, 2.26, 2.26, 2.86, 2.87, 2.88, 2.89, 2.9, 2.91, 2.92, 2.94, 2.95, 2.96, 2.97, 2.98, 2.99, 3.0, 3.02, 3.03, 3.04, 3.05, 3.06, 3.07, 3.09, 3.1, 3.11, 3.12, 3.13, 3.14, 3.16, 3.17, 3.18, 3.19, 3.2, 3.22, 3.23, 3.24, 3.25, 3.27, 3.28, 3.29, 3.3, 3.32, 3.33, 3.34, 3.35, 3.37, 3.38, 3.39, 3.41, 3.42, 3.43, 3.45, 3.46, 3.48, 3.49, 3.5, 3.52, 3.53, 3.55, 3.56, 3.58, 3.59, 3.61, 3.62, 3.64, 3.65, 3.67, 3.68, 3.7, 3.72, 3.73, 3.75, 3.77, 3.78, 3.8, 3.82, 3.83, 3.85, 3.87, 3.89, 3.91, 3.93, 3.95, 3.97, 3.99, 4.01, 4.03, 4.05, 4.07, 4.09, 4.11, 4.13, 4.15, 3.22, 3.18, 3.14, 3.11, 3.07, 3.05, 3.07, 3.08, 3.1, 3.12, 3.65, 3.6, 3.56, 3.52, 3.48, 3.44, 3.41, 3.37, 3.33, 2.14, 2.12, 2.09, 2.07, 2.05, 2.02, 2.0, 1.98, 2.0, 2.02, 2.03, 2.05, 2.88, 2.84, 2.81, 2.78, 2.75, 0.68, 0.67, 0.67, 0.66, 0.65, 0.64, 0.64, 0.63, 0.62, 0.61, 0.61, 0.6, 0.59]
38 [2.32, 2.33, 2.35, 2.36, 2.37, 2.39, 2.4, 2.41, 1.0, 1.01, 1.01, 1.02, 1.02, 1.03, 1.03, 1.04, 1.04, 1.05, 1.05, 1.06, 1.06, 1.07, 1.07, 1.08, 1.08, 1.1, 1.2, 2.67, 2.13, 2.14, 2.15, 2.16, 2.17, 2.18, 2.19, 2.2, 2.21, 2.79, 2.8, 2.81, 2.83, 2.84, 2.85, 2.86, 2.88, 2.89, 2.9, 2.91, 2.93, 2.94, 2.95, 2.96, 2.97, 2.99, 3.0, 3.01, 3.02, 3.04, 3.05, 3.06, 3.07, 3.09, 3.1, 3.11, 3.13, 3.14, 3.15, 3.16, 3.18, 3.19, 3.2, 3.22, 3.23, 3.24, 3.26, 3.27, 3.28, 3.3, 3.31, 3.33, 3.34, 3.35, 3.37, 3.38, 3.4, 3.41, 3.43, 3.44, 3.46, 3.47, 3.49, 3.5, 3.52, 3.53, 3.55, 3.56, 3.58, 3.6, 3.61, 3.63, 3.64, 3.66, 3.68, 3.7, 3.71, 3.73, 3.75, 3.77, 3.78, 3.8, 3.82, 3.84, 3.86, 3.88, 3.9, 3.92, 3.94, 3.96, 3.98, 4.0, 4.02, 4.04, 4.06, 4.09, 4.11, 4.13, 4.16, 4.18, 4.18, 3.25, 3.21, 3.17, 3.14, 3.1, 3.09, 3.11, 3.13, 3.15, 3.17, 3.69, 3.65, 3.61, 3.57, 3.54, 3.5, 3.46, 3.42, 3.39, 2.17, 2.15, 2.13, 2.1, 2.08, 2.06, 2.04, 2.02, 2.04, 2.06, 2.08, 2.1, 2.94, 2.91, 2.88, 2.85, 2.82, 0.69, 0.69, 0.68, 0.67, 0.66, 0.66, 0.65, 0.64, 0.64, 0.63, 0.62, 0.61, 0.61, 0.6, 0.59, 10.0, 0.0]
39 [0.92, 0.93, 0.93, 0.94, 0.94, 0.95, 0.96, 0.96, 0.97, 0.97, 0.98, 0.99, 0.99, 1.0, 1.0, 1.06, 1.15, 2.5, 2.0, 2.01, 2.02, 2.03, 2.04, 2.05, 2.06, 2.07, 2.08, 2.1, 2.65, 2.67, 2.68, 2.69, 2.71, 2.72, 2.74, 2.75, 2.76, 2.78, 2.79, 2.81, 2.82, 2.84, 2.85, 2.86, 2.88, 2.89, 2.91, 2.92, 2.94, 2.95, 2.96, 2.98, 2.99, 3.01, 3.02, 3.04, 3.05, 3.07, 3.08, 3.1, 3.11, 3.13, 3.14, 3.16, 3.17, 3.19, 3.2, 3.22, 3.24, 3.25, 3.27, 3.28, 3.3, 3.32, 3.33, 3.35, 3.37, 3.38, 3.4, 3.42, 3.43, 3.45, 3.47, 3.49, 3.5, 3.52, 3.54, 3.56, 3.58, 3.59, 3.61, 3.63, 3.65, 3.67, 3.69, 3.71, 3.73, 3.75, 3.77, 3.79, 3.81, 3.83, 3.86, 3.88, 3.9, 3.92, 3.95, 3.97, 3.99, 4.02, 4.04, 4.06, 4.09, 4.11, 4.14, 4.17, 4.19, 4.22, 4.25, 4.26, 3.3, 3.27, 3.23, 3.2, 3.17, 3.15, 3.17, 3.19, 3.21, 3.24, 3.79, 3.75, 3.72, 3.68, 3.64, 3.6, 3.57, 3.53, 3.5, 2.24, 2.22, 2.2, 2.18, 2.16, 2.13, 2.11, 2.09, 2.1, 2.12, 2.14, 2.17, 2.19, 3.05, 3.02, 2.99, 2.96, 2.93, 0.71, 0.7, 0.7, 0.69, 0.68, 0.68, 0.67, 0.66, 0.66, 0.65, 0.64, 0.64, 0.63, 0.62, 0.62, 0.61, 0.61, 0.6, 0.59, 0.59, 0.58, 0.57, 0.57, 0.56, 0.56]
40 [0.9, 0.91, 0.92, 0.92, 0.93, 0.93, 0.94, 0.95, 0.95, 0.96, 1.01, 1.09, 2.41, 2.42, 1.93, 1.94, 1.96, 1.97, 1.98, 1.99, 2.0, 2.02, 2.03, 2.57, 2.58, 2.6, 2.61, 2.63, 2.64, 2.66, 2.67, 2.69, 2.7, 2.72, 2.73, 2.75, 2.76, 2.78, 2.79, 2.81, 2.82, 2.84, 2.85, 2.87, 2.88, 2.9, 2.91, 2.93, 2.94, 2.96, 2.97, 2.99, 3.01, 3.02, 3.04, 3.05, 3.07, 3.08, 3.1, 3.12, 3.13, 3.15, 3.17, 3.18, 3.2, 3.21, 3.23, 3.25, 3.27, 3.28, 3.3, 3.32, 3.33, 3.35, 3.37, 3.39, 3.41, 3.42, 3.44, 3.46, 3.48, 3.5, 3.52, 3.54, 3.56, 3.58, 3.6, 3.62, 3.64, 3.66, 3.68, 3.7, 3.72, 3.74, 3.76, 3.78, 3.81, 3.83, 3.85, 3.87, 3.9, 3.92, 3.95, 3.97, 3.99, 4.02, 4.04, 4.07, 4.1, 4.12, 4.15, 4.18, 4.21, 4.23, 4.26, 4.28, 3.32, 3.28, 3.25, 3.22, 3.18, 3.16, 3.18, 3.21, 3.23, 3.26, 3.83, 3.79, 3.75, 3.71, 3.68, 3.64, 3.61, 3.57, 3.54, 2.27, 2.24, 2.22, 2.2, 2.18, 2.16, 2.14, 2.12, 2.12, 2.14, 2.16, 2.19, 2.21, 3.1, 3.07, 3.04, 3.01, 2.98, 2.95, 0.71, 0.71, 0.7, 0.69, 0.69, 0.68, 0.67, 0.67, 0.66, 0.65, 0.65, 0.64, 0.63, 0.63, 0.62, 0.62, 0.61, 0.6, 0.6, 0.59, 0.59, 0.58, 0.57, 0.57, 0.56, 0.56, 0.55, 0.55]
41 [0.89, 0.96, 1.03, 2.23, 2.25, 1.79, 1.81, 1.82, 1.83, 1.85, 1.86, 1.87, 1.88, 1.9, 1.91, 2.43, 2.44, 2.46, 2.48, 2.49, 2.51, 2.52, 2.54, 2.56, 2.57, 2.59, 2.6, 2.62, 2.64, 2.65, 2.67, 2.69, 2.7, 2.72, 2.74, 2.75, 2.77, 2.79, 2.8, 2.82, 2.84, 2.85, 2.87, 2.89, 2.9, 2.92, 2.94, 2.95, 2.97, 2.99, 3.01, 3.02, 3.04, 3.06, 3.08, 3.1, 3.11, 3.13, 3.15, 3.17, 3.19, 3.21, 3.23, 3.24, 3.26, 3.28, 3.3, 3.32, 3.34, 3.36, 3.38, 3.4, 3.42, 3.44, 3.46, 3.48, 3.51, 3.53, 3.55, 3.57, 3.59, 3.61, 3.64, 3.66, 3.68, 3.71, 3.73, 3.75, 3.78, 3.8, 3.83, 3.85, 3.88, 3.9, 3.93, 3.96, 3.98, 4.01, 4.04, 4.07, 4.09, 4.12, 4.15, 4.18, 4.21, 4.24, 4.28, 4.31, 4.28, 3.31, 3.28, 3.25, 3.22, 3.19, 3.2, 3.22, 3.25, 3.28, 3.89, 3.85, 3.81, 3.78, 3.75, 3.71, 3.68, 3.64, 3.61, 3.58, 2.29, 2.27, 2.25, 2.23, 2.21, 2.19, 2.17, 2.15, 2.16, 2.19, 2.21, 2.24, 3.19, 3.16, 3.14, 3.11, 3.08, 3.06, 3.03, 3.0, 0.71, 0.7, 0.7, 0.69, 0.69, 0.68, 0.67, 0.67, 0.66, 0.66, 0.65, 0.65, 0.64, 0.63, 0.63, 0.62, 0.62, 0.61, 0.61, 0.6, 0.6, 0.59, 0.58, 0.58, 0.57, 0.57, 0.56, 0.56, 0.56, 0.58, 0.61, 0.64, 0.67, 2.2]
42 [1.7, 1.72, 1.73, 1.75, 1.76, 2.24, 2.26, 2.28, 2.3, 2.31, 2.33, 2.35, 2.37, 2.38, 2.4, 2.42, 2.44, 2.46, 2.47, 2.49, 2.51, 2.53, 2.55, 2.56, 2.58, 2.6, 2.62, 2.64, 2.65, 2.67, 2.69, 2.71, 2.73, 2.75, 2.76, 2.78, 2.8, 2.82, 2.84, 2.86, 2.88, 2.9, 2.92, 2.94, 2.96, 2.98, 2.99, 3.01, 3.03, 3.05, 3.08, 3.1, 3.12, 3.14, 3.16, 3.18, 3.2, 3.22, 3.24, 3.26, 3.29, 3.31, 3.33, 3.35, 3.38, 3.4, 3.42, 3.44, 3.47, 3.49, 3.52, 3.54, 3.56, 3.59, 3.61, 3.64, 3.67, 3.69, 3.72, 3.74, 3.77, 3.8, 3.83, 3.85, 3.88, 3.91, 3.94, 3.97, 4.0, 4.03, 4.06, 4.09, 4.12, 4.16, 4.19, 4.22, 4.26, 4.29, 4.33, 4.29, 3.32, 3.29, 3.26, 3.23, 3.2, 3.22, 3.25, 3.28, 3.31, 3.92, 3.89, 3.86, 3.82, 3.79, 3.76, 3.73, 3.7, 3.67, 3.64, 2.32, 2.3, 2.28, 2.26, 2.24, 2.23, 2.21, 2.19, 2.2, 2.23, 2.26, 2.29, 2.32, 3.25, 3.23, 3.2, 3.17, 3.15, 3.13, 3.1, 3.08, 0.72, 0.71, 0.71, 0.7, 0.69, 0.69, 0.68, 0.68, 0.67, 0.67, 0.66, 0.66, 0.65, 0.65, 0.64, 0.64, 0.63, 0.63, 0.62, 0.62, 0.61, 0.61, 0.6, 0.6, 0.59, 0.59, 0.58, 0.58, 0.57, 0.59, 0.62, 0.65, 0.69, 2.33, 2.31, 2.29, 2.27, 2.25, 2.23, 2.21, 1.3, 0.0]
43 [2.14, 2.16, 2.18, 2.2, 2.22, 2.24, 2.26, 2.27, 2.29, 2.31, 2.33, 2.35, 2.37, 2.39, 2.4, 2.42, 2.44, 2.46, 2.48, 2.5, 2.52, 2.54, 2.56, 2.58, 2.59, 2.61, 2.63, 2.65, 2.67, 2.69, 2.71, 2.73, 2.75, 2.77, 2.79, 2.81, 2.83, 2.85, 2.87, 2.89, 2.91, 2.93, 2.95, 2.97, 3.0, 3.02, 3.04, 3.06, 3.08, 3.1, 3.13, 3.15, 3.17, 3.19, 3.22, 3.24, 3.26, 3.28, 3.31, 3.33, 3.36, 3.38, 3.4, 3.43, 3.45, 3.48, 3.5, 3.53, 3.56, 3.58, 3.61, 3.64, 3.66, 3.69, 3.72, 3.75, 3.78, 3.8, 3.83, 3.86, 3.89, 3.92, 3.96, 3.99, 4.02, 4.05, 4.08, 4.12, 4.15, 4.19, 4.22, 4.26, 4.29, 4.31, 3.34, 3.31, 3.28, 3.25, 3.22, 3.2, 3.23, 3.26, 3.29, 3.32, 3.93, 3.9, 3.87, 3.84, 3.8, 3.77, 3.74, 3.72, 3.69, 2.35, 2.33, 2.31, 2.29, 2.27, 2.26, 2.24, 2.22, 2.21, 2.23, 2.25, 2.28, 2.31, 3.31, 3.29, 3.26, 3.24, 3.22, 3.19, 3.17, 3.14, 3.12, 0.72, 0.71, 0.71, 0.7, 0.7, 0.69, 0.69, 0.68, 0.68, 0.67, 0.67, 0.66, 0.66, 0.65, 0.65, 0.64, 0.64, 0.63, 0.63, 0.63, 0.62, 0.62, 0.61, 0.61, 0.6, 0.6, 0.59, 0.59, 0.58, 0.58, 0.61, 0.64, 0.68, 2.41, 2.39, 2.37, 2.35, 2.33, 2.31, 2.29, 2.28, 2.26, 2.24, 2.22, 2.2, 2.18, 1.55]
44 [2.14, 2.16, 2.18, 2.2, 2.22, 2.24, 2.26, 2.28, 2.3, 2.32, 2.33, 2.35, 2.37, 2.39, 2.41, 2.43, 2.45, 2.47, 2.49, 2.51, 2.53, 2.55, 2.57, 2.59, 2.61, 2.63, 2.66, 2.68, 2.7, 2.72, 2.74, 2.76, 2.78, 2.8, 2.82, 2.84, 2.87, 2.89, 2.91, 2.93, 2.95, 2.98, 3.0, 3.02, 3.04, 3.07, 3.09, 3.11, 3.14, 3.16, 3.18, 3.21, 3.23, 3.26, 3.28, 3.31, 3.33, 3.36, 3.38, 3.41, 3.44, 3.46, 3.49, 3.52, 3.54, 3.57, 3.6, 3.63, 3.66, 3.69, 3.72, 3.75, 3.78, 3.81, 3.84, 3.87, 3.9, 3.93, 3.97, 4.0, 4.03, 4.07, 4.1, 4.14, 4.17, 4.21, 4.25, 4.29, 4.3, 3.32, 3.3, 3.27, 3.24, 3.22, 3.2, 3.23, 3.27, 3.3, 3.33, 3.93, 3.9, 3.87, 3.84, 3.81, 3.79, 3.76, 3.73, 3.7, 2.35, 2.34, 2.32, 2.3, 2.28, 2.27, 2.25, 2.24, 2.22, 2.24, 2.27, 2.3, 2.33, 3.35, 3.32, 3.3, 3.28, 3.25, 3.23, 3.21, 3.19, 3.16, 0.72, 0.72, 0.71, 0.71, 0.7, 0.7, 0.69, 0.69, 0.68, 0.68, 0.68, 0.67, 0.67, 0.66, 0.66, 0.65, 0.65, 0.64, 0.64, 0.63, 0.63, 0.62, 0.62, 0.62, 0.61, 0.61, 0.6, 0.6, 0.59, 0.59, 0.61, 0.64, 0.67, 0.71, 2.47, 2.45, 2.43, 2.41, 2.39, 2.37, 2.36, 2.34, 2.32, 2.3, 2.28, 2.26, 1.61, 1.59, 1.58, 1.57, 0.0, 0.0]
45 [2.14, 2.16, 2.18, 2.2, 2.22, 2.24, 2.26, 2.28, 2.3, 2.33, 2.35, 2.37, 2.39, 2.41, 2.43, 2.45, 2.47, 2.49, 2.51, 2.53, 2.55, 2.58, 2.6, 2.62, 2.64, 2.66, 2.68, 2.71, 2.73, 2.75, 2.77, 2.8, 2.82, 2.84, 2.86, 2.89, 2.91, 2.93, 2.96, 2.98, 3.0, 3.03, 3.05, 3.08, 3.1, 3.13, 3.15, 3.18, 3.2, 3.23, 3.25, 3.28, 3.31, 3.33, 3.36, 3.39, 3.41, 3.44, 3.47, 3.5, 3.53, 3.56, 3.59, 3.62, 3.65, 3.68, 3.71, 3.74, 3.77, 3.8, 3.84, 3.87, 3.9, 3.94, 3.97, 4.01, 4.04, 4.08, 4.12, 4.15, 4.19, 4.23, 4.27, 4.28, 3.31, 3.29, 3.26, 3.23, 3.21, 3.2, 3.23, 3.26, 3.3, 3.33, 3.94, 3.91, 3.88, 3.85, 3.82, 3.79, 3.77, 3.74, 3.71, 2.36, 2.34, 2.33, 2.31, 2.3, 2.28, 2.26, 2.25, 2.23, 2.26, 2.29, 2.32, 2.35, 3.38, 3.35, 3.33, 3.31, 3.29, 3.27, 3.24, 3.22, 3.2, 0.73, 0.72, 0.72, 0.71, 0.71, 0.7, 0.7, 0.7, 0.69, 0.69, 0.68, 0.68, 0.67, 0.67, 0.66, 0.66, 0.66, 0.65, 0.65, 0.64, 0.64, 0.63, 0.63, 0.63, 0.62, 0.62, 0.61, 0.61, 0.61, 0.6, 0.61, 0.64, 0.67, 0.72, 2.54, 2.52, 2.5, 2.49, 2.47, 2.45, 2.43, 2.42, 2.4, 2.38, 2.36, 2.35, 1.66, 1.65, 1.64, 1.63, 1.61, 1.6, 1.59, 1.58, 1.56, 1.55, 1.54]
46 [2.15, 2.17, 2.19, 2.21, 2.23, 2.25, 2.28, 2.3, 2.32, 2.34, 2.36, 2.38, 2.4, 2.43, 2.45, 2.47, 2.49, 2.51, 2.54, 2.56, 2.58, 2.6, 2.63, 2.65, 2.67, 2.7, 2.72, 2.74, 2.77, 2.79, 2.81, 2.84, 2.86, 2.89, 2.91, 2.94, 2.96, 2.99, 3.01, 3.04, 3.06, 3.09, 3.11, 3.14, 3.17, 3.19, 3.22, 3.25, 3.28, 3.3, 3.33, 3.36, 3.39, 3.42, 3.45, 3.48, 3.51, 3.54, 3.57, 3.6, 3.63, 3.66, 3.7, 3.73, 3.76, 3.8, 3.83, 3.87, 3.9, 3.94, 3.97, 4.01, 4.05, 4.09, 4.12, 4.16, 4.2, 4.24, 4.26, 3.29, 3.27, 3.24, 3.22, 3.2, 3.19, 3.22, 3.25, 3.29, 3.32, 3.93, 3.9, 3.88, 3.85, 3.82, 3.8, 3.77, 3.75, 3.72, 2.36, 2.35, 2.33, 2.32, 2.3, 2.29, 2.27, 2.26, 2.24, 2.26, 2.3, 2.33, 2.36, 2.4, 3.38, 3.36, 3.34, 3.32, 3.3, 3.28, 3.26, 3.24, 0.73, 0.73, 0.72, 0.72, 0.71, 0.71, 0.7, 0.7, 0.7, 0.69, 0.69, 0.68, 0.68, 0.68, 0.67, 0.67, 0.66, 0.66, 0.66, 0.65, 0.65, 0.64, 0.64, 0.64, 0.63, 0.63, 0.62, 0.62, 0.62, 0.61, 0.61, 0.64, 0.67, 0.72, 0.76, 2.59, 2.57, 2.56, 2.54, 2.52, 2.51, 2.49, 2.47, 2.46, 2.44, 2.42, 2.41, 1.71, 1.69, 1.68, 1.67, 1.66, 1.65, 1.64, 1.62, 1.61, 1.6, 2.23, 2.21, 2.19, 2.18, 2.16]
47 [2.16, 2.18, 2.2, 2.22, 2.25, 2.27, 2.29, 2.31, 2.34, 2.36, 2.38, 2.41, 2.43, 2.45, 2.47, 2.5, 2.52, 2.54, 2.57, 2.59, 2.62, 2.64, 2.66, 2.69, 2.71, 2.74, 2.76, 2.79, 2.81, 2.84, 2.86, 2.89, 2.92, 2.94, 2.97, 2.99, 3.02, 3.05, 3.08, 3.1, 3.13, 3.16, 3.19, 3.22, 3.25, 3.27, 3.3, 3.33, 3.36, 3.39, 3.43, 3.46, 3.49, 3.52, 3.55, 3.59, 3.62, 3.65, 3.69, 3.72, 3.76, 3.79, 3.83, 3.86, 3.9, 3.94, 3.98, 4.02, 4.06, 4.1, 4.14, 4.18, 4.22, 4.22, 3.26, 3.23, 3.21, 3.19, 3.17, 3.18, 3.21, 3.25, 3.28, 3.32, 3.91, 3.88, 3.86, 3.83, 3.81, 3.78, 3.76, 3.73, 3.71, 2.35, 2.34, 2.32, 2.31, 2.3, 2.28, 2.27, 2.25, 2.25, 2.28, 2.31, 2.34, 2.38, 3.41, 3.39, 3.37, 3.35, 3.33, 3.31, 3.29, 3.27, 3.26, 0.73, 0.72, 0.72, 0.72, 0.71, 0.71, 0.7, 0.7, 0.7, 0.69, 0.69, 0.68, 0.68, 0.68, 0.67, 0.67, 0.67, 0.66, 0.66, 0.65, 0.65, 0.65, 0.64, 0.64, 0.64, 0.63, 0.63, 0.63, 0.62, 0.62, 0.61, 0.64, 0.68, 0.72, 0.77, 2.65, 2.63, 2.62, 2.6, 2.59, 2.57, 2.56, 2.54, 2.53, 2.51, 2.49, 2.48, 1.76, 1.74, 1.73, 1.72, 1.71, 1.7, 1.69, 1.68, 1.67, 1.66, 2.31, 2.29, 2.28, 2.26, 2.25, 2.23, 2.21, 2.2, 2.18, 2.17]
48 [2.2, 2.23, 2.25, 2.28, 2.3, 2.33, 2.35, 2.38, 2.4, 2.43, 2.46, 2.48, 2.51, 2.53, 2.56, 2.59, 2.61, 2.64, 2.67, 2.7, 2.72, 2.75, 2.78, 2.81, 2.84, 2.87, 2.9, 2.93, 2.96, 2.99, 3.02, 3.05, 3.08, 3.11, 3.14, 3.17, 3.21, 3.24, 3.27, 3.31, 3.34, 3.37, 3.41, 3.44, 3.48, 3.52, 3.55, 3.59, 3.63, 3.67, 3.7, 3.74, 3.78, 3.82, 3.86, 3.91, 3.95, 3.99, 4.04, 4.08, 4.11, 3.17, 3.15, 3.13, 3.11, 3.1, 3.09, 3.12, 3.16, 3.2, 3.24, 3.85, 3.83, 3.8, 3.78, 3.76, 3.74, 3.72, 3.7, 3.68, 2.33, 2.32, 2.3, 2.29, 2.28, 2.27, 2.26, 2.24, 2.23, 2.25, 2.28, 2.32, 2.36, 2.39, 3.41, 3.39, 3.38, 3.36, 3.34, 3.33, 3.31, 3.3, 0.72, 0.72, 0.72, 0.71, 0.71, 0.71, 0.7, 0.7, 0.7, 0.69, 0.69, 0.69, 0.68, 0.68, 0.68, 0.67, 0.67, 0.67, 0.66, 0.66, 0.66, 0.65, 0.65, 0.65, 0.65, 0.64, 0.64, 0.64, 0.63, 0.63, 0.63, 0.63, 0.64, 0.68, 0.72, 0.78, 2.77, 2.76, 2.75, 2.73, 2.72, 2.71, 2.69, 2.68, 2.67, 2.66, 2.64, 2.63, 1.86, 1.85, 1.84, 1.83, 1.82, 1.81, 1.8, 1.8, 1.79, 1.78, 2.49, 2.47, 2.46, 2.45, 2.43, 2.42, 2.41, 2.39, 2.38, 2.37, 2.35, 2.34, 2.33, 2.31, 2.3, 2.29, 2.27, 2.26, 2.25, 2.23, 2.22, 2.2]
49 [2.2, 2.23, 2.25, 2.28, 2.3, 2.33, 2.35, 2.38, 2.4, 2.43, 2.46, 2.48, 2.51, 2.53, 2.56, 2.59, 2.61, 2.64, 2.67, 2.7, 2.72, 2.75, 2.78, 2.81, 2.84, 2.87, 2.9, 2.93, 2.96, 2.99, 3.02, 3.05, 3.08, 3.11, 3.14, 3.17, 3.21, 3.24, 3.27, 3.31, 3.34, 3.37, 3.41, 3.44, 3.48, 3.52, 3.55, 3.59, 3.63, 3.67, 3.7, 3.74, 3.78, 3.82, 3.86, 3.91, 3.95, 3.99, 4.04, 4.08, 4.11, 3.17, 3.15, 3.13, 3.11, 3.1, 3.09, 3.12, 3.16, 3.2, 3.24, 3.85, 3.83, 3.8, 3.78, 3.76, 3.74, 3.72, 3.7, 3.68, 2.33, 2.32, 2.3, 2.29, 2.28, 2.27, 2.26, 2.24, 2.23, 2.25, 2.28, 2.32, 2.36, 2.39, 3.41, 3.39, 3.38, 3.36, 3.34, 3.33, 3.31, 3.3, 0.72, 0.72, 0.72, 0.71, 0.71, 0.71, 0.7, 0.7, 0.7, 0.69, 0.69, 0.69, 0.68, 0.68, 0.68, 0.67, 0.67, 0.67, 0.66, 0.66, 0.66, 0.65, 0.65, 0.65, 0.65, 0.64, 0.64, 0.64, 0.63, 0.63, 0.63, 0.63, 0.64, 0.68, 0.72, 0.78, 2.77, 2.76, 2.75, 2.73, 2.72, 2.71, 2.69, 2.68, 2.67, 2.66, 2.64, 2.63, 1.86, 1.85, 1.84, 1.83, 1.82, 1.81, 1.8, 1.8, 1.79, 1.78, 2.49, 2.47, 2.46, 2.45, 2.43, 2.42, 2.41, 2.39, 2.38, 2.37, 2.35, 2.34, 2.33, 2.31, 2.3, 2.29, 2.27, 2.26, 2.25, 2.23, 2.22, 2.2]
