0 1.5707964
0 2.3182098E-7
0 2.4088934E-7
0 9.078623E-8
0 -0.0
0 -2.0647656E-7
0 -9.272836E-8
0 -1.5707964
0 -1.5707968
1 1.5707964
1 2.3182098E-7
1 2.4088934E-7
1 9.078623E-8
1 -0.0
1 -2.0647656E-7
1 -9.272836E-8
1 -1.5707964
1 -1.5707968
2 1.5707964
2 2.3182098E-7
2 2.4088934E-7
2 9.078623E-8
2 -0.0
2 -2.0647656E-7
2 -9.272836E-8
2 -1.5707964
2 -1.5707968
3 1.5707964
3 2.3182098E-7
3 2.4088934E-7
3 9.078623E-8
3 -0.0
3 -2.0647656E-7
3 -9.272836E-8
3 -1.5707964
3 -1.5707968
4 1.5707964
4 2.3182098E-7
4 2.4088934E-7
4 9.078623E-8
4 -0.0
4 -2.0647656E-7
4 -9.272836E-8
4 -1.5707964
4 -1.5707968
5 1.5707964
5 2.3182098E-7
5 2.4088934E-7
5 9.078623E-8
5 -0.0
5 -2.0647656E-7
5 -9.272836E-8
5 -1.5707964
5 -1.5707968
6 1.5707964
6 2.3182098E-7
6 2.4088934E-7
6 9.078623E-8
6 -0.0
6 -2.0647656E-7
6 -9.272836E-8
6 -1.5707964
6 -1.5707968
7 1.5707964
7 2.3182098E-7
7 2.4088934E-7
7 9.078623E-8
7 -0.0
7 -2.0647656E-7
7 -9.272836E-8
7 -1.5707964
7 -1.5707968
8 1.5707964
8 2.3182098E-7
8 2.4088934E-7
8 9.078623E-8
8 -0.0
8 -2.0647656E-7
8 -9.272836E-8
8 -1.5707964
8 -1.5707968
9 1.5707964
9 2.3182098E-7
9 2.4088934E-7
9 9.078623E-8
9 -0.0
9 -2.0647656E-7
9 -9.272836E-8
9 -1.5707964
9 -1.5707968
10 1.5707964
10 2.3182098E-7
10 2.4088934E-7
10 9.078623E-8
10 -0.0
10 -2.0647656E-7
10 -9.272836E-8
10 -1.5707964
10 -1.5707968
11 1.5707964
11 2.3182098E-7
11 2.4088934E-7
11 9.078623E-8
11 -0.0
11 -2.0647656E-7
11 -9.272836E-8
11 -1.5707964
11 -1.5707968
12 1.5707964
12 2.3182098E-7
12 2.4088934E-7
12 9.078623E-8
12 -0.0
12 -2.0647656E-7
12 -9.272836E-8
12 -1.5707964
12 -1.5707968
13 1.5707964
13 2.3182098E-7
13 2.4088934E-7
13 9.078623E-8
13 -0.0
13 -2.0647656E-7
13 -9.272836E-8
13 -1.5707964
13 -1.5707968
14 1.5707964
14 2.3182098E-7
14 2.4088934E-7
14 9.078623E-8
14 -0.0
14 -2.0647656E-7
14 -9.272836E-8
14 -1.5707964
14 -1.5707968
15 1.5707964
15 2.3182098E-7
15 2.4088934E-7
15 9.078623E-8
15 -0.0
15 -2.0647656E-7
15 -9.272836E-8
15 -1.5707964
15 -1.5707968
16 1.5707964
16 2.3182098E-7
16 2.4088934E-7
16 9.078623E-8
16 -0.0
16 -2.0647656E-7
16 -9.272836E-8
16 -1.5707964
16 -1.5707968
17 1.5707964
17 2.3182098E-7
17 2.4088934E-7
17 9.078623E-8
17 -0.0
17 -2.0647656E-7
17 -9.272836E-8
17 -1.5707964
17 -1.5707968
18 1.5707964
18 2.3182098E-7
18 2.4088934E-7
18 9.078623E-8
18 -0.0
18 -2.0647656E-7
18 -9.272836E-8
18 -1.5707964
18 -1.5707968
19 1.5707964
19 2.3182098E-7
19 2.4088934E-7
19 9.078623E-8
19 -0.0
19 -2.0647656E-7
19 -9.272836E-8
19 -1.5707964
19 -1.5707968
20 1.5707964
20 2.3182098E-7
20 2.4088934E-7
20 9.078623E-8
20 -0.0
20 -2.0647656E-7
20 -9.272836E-8
20 -1.5707964
20 -1.5707968
21 1.5707964
21 2.3182098E-7
21 2.4088934E-7
21 9.078623E-8
21 -0.0
21 -2.0647656E-7
21 -9.272836E-8
21 -1.5707964
21 -1.5707968
22 1.5707964
22 2.3182098E-7
22 2.4088934E-7
22 9.078623E-8
22 -0.0
22 -2.0647656E-7
22 -9.272836E-8
22 -1.5707964
22 -1.5707968
23 1.5707964
23 2.3182098E-7
23 2.4088934E-7
23 9.078623E-8
23 -0.0
23 -2.0647656E-7
23 -9.272836E-8
23 -1.5707964
23 -1.5707968
24 1.5707964
24 2.3182098E-7
24 2.4088934E-7
24 9.078623E-8
24 -0.0
24 -2.0647656E-7
24 -9.272836E-8
24 -1.5707964
24 -1.5707968
25 1.5707964
25 2.3182098E-7
25 2.4088934E-7
25 9.078623E-8
25 -0.0
25 -2.0647656E-7
25 -9.272836E-8
25 -1.5707964
25 -1.5707968
26 1.5707964
26 2.3182098E-7
26 2.4088934E-7
26 9.078623E-8
26 -0.0
26 -2.0647656E-7
26 -9.272836E-8
26 -1.5707964
26 -1.5707968
27 -3.1371052
27 -9.1969945E-5
27 -6.798686E-5
27 -5.986559E-5
27 -5.9777038E-5
27 -6.803109E-5
27 -9.135984E-5
27 -0.004445089
27 -1.565882
28 3.1329577
28 1.5635935E-4
28 1.1509972E-4
28 1.0038919E-4
28 9.974514E-5
28 1.1245493E-4
28 1.5035059E-4
28 0.008650204
28 -1.55512
29 3.1329577
29 1.5635935E-4
29 1.1509972E-4
29 1.0038919E-4
29 9.974514E-5
29 1.1245493E-4
29 1.5035059E-4
29 0.008650204
29 -1.55512
30 3.1327941
30 4.212137E-4
30 3.0617364E-4
30 2.6546154E-4
30 2.6218165E-4
30 2.940284E-4
30 3.8827845E-4
30 0.008803907
30 -1.5371021
31 3.1327941
31 4.212137E-4
31 3.0617364E-4
31 2.6546154E-4
31 2.6218165E-4
31 2.940284E-4
31 3.8827845E-4
31 0.008803907
31 -1.5371021
32 3.1309524
32 9.393535E-4
32 6.7242695E-4
32 5.776726E-4
32 5.6619453E-4
32 6.295452E-4
32 8.2076044E-4
32 0.010644091
32 -1.514474
33 3.1309524
33 9.393535E-4
33 6.7242695E-4
33 5.776726E-4
33 5.6619453E-4
33 6.295452E-4
33 8.2076044E-4
33 0.010644091
33 -1.514474
34 3.1311715
34 0.0014677976
34 0.0010297574
34 8.7410095E-4
34 8.4821985E-4
34 9.330827E-4
34 0.0011977805
34 0.010422968
34 -1.4861029
35 3.1311715
35 0.0014677976
35 0.0010297574
35 8.7410095E-4
35 8.4821985E-4
35 9.330827E-4
35 0.0011977805
35 0.010422968
35 -1.4861029
36 3.13108
36 0.0022328529
36 0.0015255472
36 0.0012751997
36 0.0012221304
36 0.001326745
36 0.001672009
36 0.010514496
36 -1.450956
37 3.13108
37 0.0022328529
37 0.0015255472
37 0.0012751997
37 0.0012221304
37 0.001326745
37 0.001672009
37 0.010514496
37 -1.450956
38 3.1302388
38 0.003391527
38 0.0022469028
38 0.0018461546
38 0.001745487
38 0.0018688687
38 0.0023113212
38 0.011355115
38 -1.4132364
39 3.1302388
39 0.003391527
39 0.0022469028
39 0.0018461546
39 0.001745487
39 0.0018688687
39 0.0023113212
39 0.011355115
39 -1.4132364
40 3.130943
40 0.0041016033
40 0.0026361593
40 0.002131528
40 0.0019905742
40 0.0021051262
40 0.0025620263
40 0.010650972
40 -1.3793494
41 3.130943
41 0.0041016033
41 0.0026361593
41 0.002131528
41 0.0019905742
41 0.0021051262
41 0.0025620263
41 0.010650972
41 -1.3793494
42 3.1324286
42 0.004223867
42 0.0026447878
42 0.002110372
42 0.0019512661
42 0.0020437315
42 0.0024567426
42 0.009165161
42 -1.3524263
43 3.1324286
43 0.004223867
43 0.0026447878
43 0.002110372
43 0.0019512661
43 0.0020437315
43 0.0024567426
43 0.009165161
43 -1.3524263
44 3.1328187
44 0.0048236
44 0.0029326822
44 0.002306605
44 0.0021105679
44 0.0021883997
44 0.0025978545
44 0.008774788
44 -1.3243124
45 3.1328187
45 0.0048236
45 0.0029326822
45 0.002306605
45 0.0021105679
45 0.0021883997
45 0.0025978545
45 0.008774788
45 -1.3243124
46 3.1355867
46 0.0043457975
46 0.002497207
46 0.0019138148
46 0.0017195756
46 0.0017528902
46 0.0020386057
46 0.0060068225
46 -1.2764384
47 3.1355867
47 0.0043457975
47 0.002497207
47 0.0019138148
47 0.0017195756
47 0.0017528902
47 0.0020386057
47 0.0060068225
47 -1.2764384
48 3.1355867
48 0.0043457975
48 0.002497207
48 0.0019138148
48 0.0017195756
48 0.0017528902
48 0.0020386057
48 0.0060068225
48 -1.2764384
49 3.1364496
49 0.004229675
49 0.0023568743
49 0.0017825537
49 0.0015871172
49 0.0016047404
49 0.0018483592
49 0.005143601
49 -1.2532346
