0 [10.0, 10.0, 10.0, 10.0, 10.0, 10.0, 10.0, 10.0, 10.0, 10.0, 10.0, 10.0, 10.0, 10.0, 10.0, 10.0, 10.0, 10.0, 10.0, 10.0, 10.0, 10.0, 10.0, 10.0, 10.0, 10.0, 10.0, 10.0, 10.0, 10.0, 10.0, 10.0, 10.0, 10.0, 10.0, 10.0, 10.0, 10.0, 10.0, 10.0, 10.0, 10.0, 10.0, 10.0, 10.0, 10.0, 10.0, 10.0, 10.0, 10.0, 10.0, 10.0, 10.0, 10.0, 10.0, 10.0, 10.0, 10.0, 10.0, 10.0, 10.0, 10.0, 10.0, 10.0, 10.0, 10.0, 10.0, 10.0, 10.0, 10.0, 10.0, 10.0, 10.0, 10.0, 10.0, 10.0, 10.0, 10.0, 10.0, 10.0, 10.0, 10.0, 10.0, 10.0, 10.0, 10.0, 10.0, 10.0, 10.0, 10.0, 10.0, 10.0, 10.0, 10.0, 10.0, 10.0, 10.0, 10.0, 10.0, 10.0, 10.0, 10.0, 10.0, 10.0, 10.0, 10.0, 10.0, 10.0, 10.0, 10.0, 10.0, 10.0, 10.0, 10.0, 10.0, 10.0, 10.0, 10.0, 10.0, 10.0, 10.0, 10.0, 10.0, 10.0, 10.0, 10.0, 10.0, 10.0, 10.0, 10.0, 10.0, 10.0, 10.0, 10.0, 10.0, 10.0, 10.0, 10.0, 10.0, 10.0, 10.0, 10.0, 10.0, 10.0, 10.0, 10.0, 10.0, 10.0, 10.0, 10.0, 10.0, 10.0, 10.0, 10.0, 10.0, 10.0, 10.0, 10.0, 10.0, 10.0, 10.0, 10.0, 10.0, 10.0, 10.0, 10.0, 10.0, 10.0, 10.0, 10.0, 10.0, 10.0, 10.0, 10.0, 10.0, 10.0, 10.0, 10.0, 10.0, 10.0, 10.0, 10.0]
1 [10.0, 10.0, 10.0, 10.0, 10.0, 10.0, 10.0, 10.0, 10.0, 10.0, 10.0, 10.0, 10.0, 10.0, 10.0, 10.0, 10.0, 10.0, 10.0, 10.0, 10.0, 10.0, 10.0, 10.0, 10.0, 10.0, 10.0, 10.0, 10.0, 10.0, 10.0, 10.0, 10.0, 10.0, 10.0, 10.0, 10.0, 10.0, 10.0, 10.0, 10.0, 10.0, 10.0, 10.0, 10.0, 10.0, 10.0, 10.0, 10.0, 10.0, 10.0, 10.0, 10.0, 10.0, 10.0, 10.0, 10.0, 10.0, 10.0, 10.0, 10.0, 10.0, 10.0, 10.0, 10.0, 10.0, 10.0, 10.0, 10.0, 10.0, 10.0, 10.0, 10.0, 10.0, 10.0, 10.0, 10.0, 10.0, 10.0, 10.0, 10.0, 10.0, 10.0, 10.0, 10.0, 10.0, 10.0, 10.0, 10.0, 10.0, 10.0, 10.0, 10.0, 10.0, 10.0, 10.0, 10.0, 10.0, 10.0, 10.0, 10.0, 10.0, 10.0, 10.0, 10.0, 10.0, 10.0, 10.0, 10.0, 10.0, 10.0, 10.0, 10.0, 10.0, 10.0, 10.0, 10.0, 10.0, 10.0, 10.0, 10.0, 10.0, 10.0, 10.0, 10.0, 10.0, 10.0, 10.0, 10.0, 10.0, 10.0, 10.0, 10.0, 10.0, 10.0, 10.0, 10.0, 10.0, 10.0, 10.0, 10.0, 10.0, 10.0, 10.0, 10.0, 10.0, 10.0, 10.0, 10.0, 10.0, 10.0, 10.0, 10.0, 10.0, 10.0, 10.0, 10.0, 10.0, 10.0, 10.0, 10.0, 10.0, 10.0, 10.0, 10.0, 10.0, 10.0, 10.0, 10.0, 10.0, 10.0, 10.0, 10.0, 10.0, 10.0, 10.0, 10.0, 10.0, 10.0, 10.0, 10.0, 10.0]
2 [10.0, 10.0, 10.0, 10.0, 10.0, 10.0, 10.0, 10.0, 10.0, 10.0, 10.0, 10.0, 10.0, 10.0, 10.0, 10.0, 10.0, 10.0, 10.0, 10.0, 10.0, 10.0, 10.0, 10.0, 10.0, 10.0, 10.0, 10.0, 10.0, 10.0, 10.0, 10.0, 10.0, 10.0, 10.0, 10.0, 10.0, 10.0, 10.0, 10.0, 10.0, 10.0, 10.0, 10.0, 10.0, 10.0, 10.0, 10.0, 10.0, 10.0, 10.0, 10.0, 10.0, 10.0, 10.0, 10.0, 10.0, 10.0, 10.0, 10.0, 10.0, 10.0, 10.0, 10.0, 10.0, 10.0, 10.0, 10.0, 10.0, 10.0, 10.0, 10.0, 10.0, 10.0, 10.0, 10.0, 10.0, 10.0, 10.0, 10.0, 10.0, 10.0, 10.0, 10.0, 10.0, 10.0, 10.0, 10.0, 10.0, 10.0, 10.0, 10.0, 10.0, 10.0, 10.0, 10.0, 10.0, 10.0, 10.0, 10.0, 10.0, 10.0, 10.0, 10.0, 10.0, 10.0, 10.0, 10.0, 10.0, 10.0, 10.0, 10.0, 10.0, 10.0, 10.0, 10.0, 10.0, 10.0, 10.0, 10.0, 10.0, 10.0, 10.0, 10.0, 10.0, 10.0, 10.0, 10.0, 10.0, 10.0, 10.0, 10.0, 10.0, 10.0, 10.0, 10.0, 10.0, 10.0, 10.0, 10.0, 10.0, 10.0, 10.0, 10.0, 10.0, 10.0, 10.0, 10.0, 10.0, 10.0, 10.0, 10.0, 10.0, 10.0, 10.0, 10.0, 10.0, 10.0, 10.0, 10.0, 10.0, 10.0, 10.0, 10.0, 10.0, 10.0, 10.0, 10.0, 10.0, 10.0, 10.0, 10.0, 10.0, 10.0, 10.0, 10.0, 10.0, 10.0, 10.0, 10.0, 10.0, 10.0]
3 [10.0, 10.0, 10.0, 10.0, 10.0, 10.0, 10.0, 10.0, 10.0, 10.0, 10.0, 10.0, 10.0, 10.0, 10.0, 10.0, 10.0, 10.0, 10.0, 10.0, 10.0, 10.0, 10.0, 10.0, 10.0, 10.0, 10.0, 10.0, 10.0, 10.0, 10.0, 10.0, 10.0, 10.0, 10.0, 10.0, 10.0, 10.0, 10.0, 10.0, 10.0, 10.0, 10.0, 10.0, 10.0, 10.0, 10.0, 10.0, 10.0, 10.0, 10.0, 10.0, 10.0, 10.0, 10.0, 10.0, 10.0, 10.0, 10.0, 10.0, 10.0, 10.0, 10.0, 10.0, 10.0, 10.0, 10.0, 10.0, 10.0, 10.0, 10.0, 10.0, 10.0, 10.0, 10.0, 10.0, 10.0, 10.0, 10.0, 10.0, 10.0, 10.0, 10.0, 10.0, 10.0, 10.0, 10.0, 10.0, 10.0, 10.0, 10.0, 10.0, 10.0, 10.0, 10.0, 10.0, 10.0, 10.0, 10.0, 10.0, 10.0, 10.0, 10.0, 10.0, 10.0, 10.0, 10.0, 10.0, 10.0, 10.0, 10.0, 10.0, 10.0, 10.0, 10.0, 10.0, 10.0, 10.0, 10.0, 10.0, 10.0, 10.0, 10.0, 10.0, 10.0, 10.0, 10.0, 10.0, 10.0, 10.0, 10.0, 10.0, 10.0, 10.0, 10.0, 10.0, 10.0, 10.0, 10.0, 10.0, 10.0, 10.0, 10.0, 10.0, 10.0, 10.0, 10.0, 10.0, 10.0, 10.0, 10.0, 10.0, 10.0, 10.0, 10.0, 10.0, 10.0, 10.0, 10.0, 10.0, 10.0, 10.0, 10.0, 10.0, 10.0, 10.0, 10.0, 10.0, 10.0, 10.0, 10.0, 10.0, 10.0, 10.0, 10.0, 10.0, 10.0, 10.0, 10.0, 10.0, 10.0, 10.0]
4 [10.0, 10.0, 10.0, 10.0, 10.0, 10.0, 10.0, 10.0, 10.0, 10.0, 10.0, 10.0, 10.0, 10.0, 10.0, 10.0, 10.0, 10.0, 10.0, 10.0, 10.0, 10.0, 10.0, 10.0, 10.0, 10.0, 10.0, 10.0, 10.0, 10.0, 10.0, 10.0, 10.0, 10.0, 10.0, 10.0, 10.0, 10.0, 10.0, 10.0, 10.0, 10.0, 10.0, 10.0, 10.0, 10.0, 10.0, 10.0, 10.0, 10.0, 10.0, 10.0, 10.0, 10.0, 10.0, 10.0, 10.0, 10.0, 10.0, 10.0, 10.0, 10.0, 10.0, 10.0, 10.0, 10.0, 10.0, 10.0, 10.0, 10.0, 10.0, 10.0, 10.0, 10.0, 10.0, 10.0, 10.0, 10.0, 10.0, 10.0, 10.0, 10.0, 10.0, 10.0, 10.0, 10.0, 10.0, 10.0, 10.0, 10.0, 10.0, 10.0, 10.0, 10.0, 10.0, 10.0, 10.0, 10.0, 10.0, 10.0, 10.0, 10.0, 10.0, 10.0, 10.0, 10.0, 10.0, 10.0, 10.0, 10.0, 10.0, 10.0, 10.0, 10.0, 10.0, 10.0, 10.0, 10.0, 10.0, 10.0, 10.0, 10.0, 10.0, 10.0, 10.0, 10.0, 10.0, 10.0, 10.0, 10.0, 10.0, 10.0, 10.0, 10.0, 10.0, 10.0, 10.0, 10.0, 10.0, 10.0, 10.0, 10.0, 10.0, 10.0, 10.0, 10.0, 10.0, 10.0, 10.0, 10.0, 10.0, 10.0, 10.0, 10.0, 10.0, 10.0, 10.0, 10.0, 10.0, 10.0, 10.0, 10.0, 10.0, 10.0, 10.0, 10.0, 10.0, 10.0, 10.0, 10.0, 10.0, 10.0, 10.0, 10.0, 10.0, 10.0, 10.0, 10.0, 10.0, 10.0, 10.0, 10.0]
5 [10.0, 10.0, 10.0, 10.0, 10.0, 10.0, 10.0, 10.0, 10.0, 10.0, 10.0, 10.0, 10.0, 10.0, 10.0, 10.0, 10.0, 10.0, 10.0, 10.0, 10.0, 10.0, 10.0, 10.0, 10.0, 10.0, 10.0, 10.0, 10.0, 10.0, 10.0, 10.0, 10.0, 10.0, 10.0, 10.0, 10.0, 10.0, 10.0, 10.0, 10.0, 10.0, 10.0, 10.0, 10.0, 10.0, 10.0, 10.0, 10.0, 10.0, 10.0, 10.0, 10.0, 10.0, 10.0, 10.0, 10.0, 10.0, 10.0, 10.0, 10.0, 10.0, 10.0, 10.0, 10.0, 10.0, 10.0, 10.0, 10.0, 10.0, 10.0, 10.0, 10.0, 10.0, 10.0, 10.0, 10.0, 10.0, 10.0, 10.0, 10.0, 10.0, 10.0, 10.0, 10.0, 10.0, 10.0, 10.0, 10.0, 10.0, 10.0, 10.0, 10.0, 10.0, 10.0, 10.0, 10.0, 10.0, 10.0, 10.0, 10.0, 10.0, 10.0, 10.0, 10.0, 10.0, 10.0, 10.0, 10.0, 10.0, 10.0, 10.0, 10.0, 10.0, 10.0, 10.0, 10.0, 10.0, 10.0, 10.0, 10.0, 10.0, 10.0, 10.0, 10.0, 10.0, 10.0, 10.0, 10.0, 10.0, 10.0, 10.0, 10.0, 10.0, 10.0, 10.0, 10.0, 10.0, 10.0, 10.0, 10.0, 10.0, 10.0, 10.0, 10.0, 10.0, 10.0, 10.0, 10.0, 10.0, 10.0, 10.0, 10.0, 10.0, 10.0, 10.0, 10.0, 10.0, 10.0, 10.0, 10.0, 10.0, 10.0, 10.0, 10.0, 10.0, 10.0, 10.0, 10.0, 10.0, 10.0, 10.0, 10.0, 10.0, 10.0, 10.0, 10.0, 10.0, 10.0, 10.0, 10.0, 10.0]
6 [10.0, 10.0, 10.0, 10.0, 10.0, 10.0, 10.0, 10.0, 10.0, 10.0, 10.0, 10.0, 10.0, 10.0, 10.0, 10.0, 10.0, 10.0, 10.0, 10.0, 10.0, 10.0, 10.0, 10.0, 10.0, 10.0, 10.0, 10.0, 10.0, 10.0, 10.0, 10.0, 10.0, 10.0, 10.0, 10.0, 10.0, 10.0, 10.0, 10.0, 10.0, 10.0, 10.0, 10.0, 10.0, 10.0, 10.0, 10.0, 10.0, 10.0, 10.0, 10.0, 10.0, 10.0, 10.0, 10.0, 10.0, 10.0, 10.0, 10.0, 10.0, 10.0, 10.0, 10.0, 10.0, 10.0, 10.0, 10.0, 10.0, 10.0, 10.0, 10.0, 10.0, 10.0, 10.0, 10.0, 10.0, 10.0, 10.0, 10.0, 10.0, 10.0, 10.0, 10.0, 10.0, 10.0, 10.0, 10.0, 10.0, 10.0, 10.0, 10.0, 10.0, 10.0, 10.0, 10.0, 10.0, 10.0, 10.0, 10.0, 10.0, 10.0, 10.0, 10.0, 10.0, 10.0, 10.0, 10.0, 10.0, 10.0, 10.0, 10.0, 10.0, 10.0, 10.0, 10.0, 10.0, 10.0, 10.0, 10.0, 10.0, 10.0, 10.0, 10.0, 10.0, 10.0, 10.0, 10.0, 10.0, 10.0, 10.0, 10.0, 10.0, 10.0, 10.0, 10.0, 10.0, 10.0, 10.0, 10.0, 10.0, 10.0, 10.0, 10.0, 10.0, 10.0, 10.0, 10.0, 10.0, 10.0, 10.0, 10.0, 10.0, 10.0, 10.0, 10.0, 10.0, 10.0, 10.0, 10.0, 10.0, 10.0, 10.0, 10.0, 10.0, 10.0, 10.0, 10.0, 10.0, 10.0, 10.0, 10.0, 10.0, 10.0, 10.0, 10.0, 10.0, 10.0, 10.0, 10.0, 10.0, 10.0]
7 [10.0, 10.0, 10.0, 10.0, 10.0, 10.0, 10.0, 10.0, 10.0, 10.0, 10.0, 10.0, 10.0, 10.0, 10.0, 10.0, 10.0, 10.0, 10.0, 10.0, 10.0, 10.0, 10.0, 10.0, 10.0, 10.0, 10.0, 10.0, 10.0, 10.0, 10.0, 10.0, 10.0, 10.0, 10.0, 10.0, 10.0, 10.0, 10.0, 10.0, 10.0, 10.0, 10.0, 10.0, 10.0, 10.0, 10.0, 10.0, 10.0, 10.0, 10.0, 10.0, 10.0, 10.0, 10.0, 10.0, 10.0, 10.0, 10.0, 10.0, 10.0, 10.0, 10.0, 10.0, 10.0, 10.0, 10.0, 10.0, 10.0, 10.0, 10.0, 10.0, 10.0, 10.0, 10.0, 10.0, 10.0, 10.0, 10.0, 10.0, 10.0, 10.0, 10.0, 10.0, 10.0, 10.0, 10.0, 10.0, 10.0, 10.0, 10.0, 10.0, 10.0, 10.0, 10.0, 10.0, 10.0, 10.0, 10.0, 10.0, 10.0, 10.0, 10.0, 10.0, 10.0, 10.0, 10.0, 10.0, 10.0, 10.0, 10.0, 10.0, 10.0, 10.0, 10.0, 10.0, 10.0, 10.0, 10.0, 10.0, 10.0, 10.0, 10.0, 10.0, 10.0, 10.0, 10.0, 10.0, 10.0, 10.0, 10.0, 10.0, 10.0, 10.0, 10.0, 10.0, 10.0, 10.0, 10.0, 10.0, 10.0, 10.0, 10.0, 10.0, 10.0, 10.0, 10.0, 10.0, 10.0, 10.0, 10.0, 10.0, 10.0, 10.0, 10.0, 10.0, 10.0, 10.0, 10.0, 10.0, 10.0, 10.0, 10.0, 10.0, 10.0, 10.0, 10.0, 10.0, 10.0, 10.0, 10.0, 10.0, 10.0, 10.0, 10.0, 10.0, 10.0, 10.0, 10.0, 10.0, 10.0, 10.0]
8 [10.0, 10.0, 10.0, 10.0, 10.0, 10.0, 10.0, 10.0, 10.0, 10.0, 10.0, 10.0, 10.0, 10.0, 10.0, 10.0, 10.0, 10.0, 10.0, 10.0, 10.0, 10.0, 10.0, 10.0, 10.0, 10.0, 10.0, 10.0, 10.0, 10.0, 10.0, 10.0, 10.0, 10.0, 10.0, 10.0, 10.0, 10.0, 10.0, 10.0, 10.0, 10.0, 10.0, 10.0, 10.0, 10.0, 10.0, 10.0, 10.0, 10.0, 10.0, 10.0, 10.0, 10.0, 10.0, 10.0, 10.0, 10.0, 10.0, 10.0, 10.0, 10.0, 10.0, 10.0, 10.0, 10.0, 10.0, 10.0, 10.0, 10.0, 10.0, 10.0, 10.0, 10.0, 10.0, 10.0, 10.0, 10.0, 10.0, 10.0, 10.0, 10.0, 10.0, 10.0, 10.0, 10.0, 10.0, 10.0, 10.0, 10.0, 10.0, 10.0, 10.0, 10.0, 10.0, 10.0, 10.0, 10.0, 10.0, 10.0, 10.0, 10.0, 10.0, 10.0, 10.0, 10.0, 10.0, 10.0, 10.0, 10.0, 10.0, 10.0, 10.0, 10.0, 10.0, 10.0, 10.0, 10.0, 10.0, 10.0, 10.0, 10.0, 10.0, 10.0, 10.0, 10.0, 10.0, 10.0, 10.0, 10.0, 10.0, 10.0, 10.0, 10.0, 10.0, 10.0, 10.0, 10.0, 10.0, 10.0, 10.0, 10.0, 10.0, 10.0, 10.0, 10.0, 10.0, 10.0, 10.0, 10.0, 10.0, 10.0, 10.0, 10.0, 10.0, 10.0, 10.0, 10.0, 10.0, 10.0, 10.0, 10.0, 10.0, 10.0, 10.0, 10.0, 10.0, 10.0, 10.0, 10.0, 10.0, 10.0, 10.0, 10.0, 10.0, 10.0, 10.0, 10.0, 10.0, 10.0, 10.0, 10.0]
9 [10.0, 10.0, 10.0, 10.0, 10.0, 10.0, 10.0, 10.0, 10.0, 10.0, 10.0, 10.0, 10.0, 10.0, 10.0, 10.0, 10.0, 10.0, 10.0, 10.0, 10.0, 10.0, 10.0, 10.0, 10.0, 10.0, 10.0, 10.0, 10.0, 10.0, 10.0, 10.0, 10.0, 10.0, 10.0, 10.0, 10.0, 10.0, 10.0, 10.0, 10.0, 10.0, 10.0, 10.0, 10.0, 10.0, 10.0, 10.0, 10.0, 10.0, 10.0, 10.0, 10.0, 10.0, 10.0, 10.0, 10.0, 10.0, 10.0, 10.0, 10.0, 10.0, 10.0, 10.0, 10.0, 10.0, 10.0, 10.0, 10.0, 10.0, 10.0, 10.0, 10.0, 10.0, 10.0, 10.0, 10.0, 10.0, 10.0, 10.0, 10.0, 10.0, 10.0, 10.0, 10.0, 10.0, 10.0, 10.0, 10.0, 10.0, 10.0, 10.0, 10.0, 10.0, 10.0, 10.0, 10.0, 10.0, 10.0, 10.0, 10.0, 10.0, 10.0, 10.0, 10.0, 10.0, 10.0, 10.0, 10.0, 10.0, 10.0, 10.0, 10.0, 10.0, 10.0, 10.0, 10.0, 10.0, 10.0, 10.0, 10.0, 10.0, 10.0, 10.0, 10.0, 10.0, 10.0, 10.0, 10.0, 10.0, 10.0, 10.0, 10.0, 10.0, 10.0, 10.0, 10.0, 10.0, 10.0, 10.0, 10.0, 10.0, 10.0, 10.0, 10.0, 10.0, 10.0, 10.0, 10.0, 10.0, 10.0, 10.0, 10.0, 10.0, 10.0, 10.0, 10.0, 10.0, 10.0, 10.0, 10.0, 10.0, 10.0, 10.0, 10.0, 10.0, 10.0, 10.0, 10.0, 10.0, 10.0, 10.0, 10.0, 10.0, 10.0, 10.0, 10.0, 10.0, 10.0, 10.0, 10.0, 10.0]
10 [10.0, 10.0, 10.0, 10.0, 10.0, 10.0, 10.0, 10.0, 10.0, 10.0, 10.0, 10.0, 10.0, 10.0, 10.0, 10.0, 10.0, 10.0, 10.0, 10.0, 10.0, 10.0, 10.0, 10.0, 10.0, 10.0, 10.0, 10.0, 10.0, 10.0, 10.0, 10.0, 10.0, 10.0, 10.0, 10.0, 10.0, 10.0, 10.0, 10.0, 10.0, 10.0, 10.0, 10.0, 10.0, 10.0, 10.0, 10.0, 10.0, 10.0, 10.0, 10.0, 10.0, 10.0, 10.0, 10.0, 10.0, 10.0, 10.0, 10.0, 10.0, 10.0, 10.0, 10.0, 10.0, 10.0, 10.0, 10.0, 10.0, 10.0, 10.0, 10.0, 10.0, 10.0, 10.0, 10.0, 10.0, 10.0, 10.0, 10.0, 10.0, 10.0, 10.0, 10.0, 10.0, 10.0, 10.0, 10.0, 10.0, 10.0, 10.0, 10.0, 10.0, 10.0, 10.0, 10.0, 10.0, 10.0, 10.0, 10.0, 10.0, 10.0, 10.0, 10.0, 10.0, 10.0, 10.0, 10.0, 10.0, 10.0, 10.0, 10.0, 10.0, 10.0, 10.0, 10.0, 10.0, 10.0, 10.0, 10.0, 10.0, 10.0, 10.0, 10.0, 10.0, 10.0, 10.0, 10.0, 10.0, 10.0, 10.0, 10.0, 10.0, 10.0, 10.0, 10.0, 10.0, 10.0, 10.0, 10.0, 10.0, 10.0, 10.0, 10.0, 10.0, 10.0, 10.0, 10.0, 10.0, 10.0, 10.0, 10.0, 10.0, 10.0, 10.0, 10.0, 10.0, 10.0, 10.0, 10.0, 10.0, 10.0, 10.0, 10.0, 10.0, 10.0, 10.0, 10.0, 10.0, 10.0, 10.0, 10.0, 10.0, 10.0, 10.0, 10.0, 10.0, 10.0, 10.0, 10.0, 10.0, 10.0]
11 [10.0, 10.0, 10.0, 10.0, 10.0, 10.0, 10.0, 10.0, 10.0, 10.0, 10.0, 10.0, 10.0, 10.0, 10.0, 10.0, 10.0, 10.0, 10.0, 10.0, 10.0, 10.0, 10.0, 10.0, 10.0, 10.0, 10.0, 10.0, 10.0, 10.0, 10.0, 10.0, 10.0, 10.0, 10.0, 10.0, 10.0, 10.0, 10.0, 10.0, 10.0, 10.0, 10.0, 10.0, 10.0, 10.0, 10.0, 10.0, 10.0, 10.0, 10.0, 10.0, 10.0, 10.0, 10.0, 10.0, 10.0, 10.0, 10.0, 10.0, 10.0, 10.0, 10.0, 10.0, 10.0, 10.0, 10.0, 10.0, 10.0, 10.0, 10.0, 10.0, 10.0, 10.0, 10.0, 10.0, 10.0, 10.0, 10.0, 10.0, 10.0, 10.0, 10.0, 10.0, 10.0, 10.0, 10.0, 10.0, 10.0, 10.0, 10.0, 10.0, 10.0, 10.0, 10.0, 10.0, 10.0, 10.0, 10.0, 10.0, 10.0, 10.0, 10.0, 10.0, 10.0, 10.0, 10.0, 10.0, 10.0, 10.0, 10.0, 10.0, 10.0, 10.0, 10.0, 10.0, 10.0, 10.0, 10.0, 10.0, 10.0, 10.0, 10.0, 10.0, 10.0, 10.0, 10.0, 10.0, 10.0, 10.0, 10.0, 10.0, 10.0, 10.0, 10.0, 10.0, 10.0, 10.0, 10.0, 10.0, 10.0, 10.0, 10.0, 10.0, 10.0, 10.0, 10.0, 10.0, 10.0, 10.0, 10.0, 10.0, 10.0, 10.0, 10.0, 10.0, 10.0, 10.0, 10.0, 10.0, 10.0, 10.0, 10.0, 10.0, 10.0, 10.0, 10.0, 10.0, 10.0, 10.0, 10.0, 10.0, 10.0, 10.0, 10.0, 10.0, 10.0, 10.0, 10.0, 10.0, 10.0, 10.0]
12 [10.0, 10.0, 10.0, 10.0, 10.0, 10.0, 10.0, 10.0, 10.0, 10.0, 10.0, 10.0, 10.0, 10.0, 10.0, 10.0, 10.0, 10.0, 10.0, 10.0, 10.0, 10.0, 10.0, 10.0, 10.0, 10.0, 10.0, 10.0, 10.0, 10.0, 10.0, 10.0, 10.0, 10.0, 10.0, 10.0, 10.0, 10.0, 10.0, 10.0, 10.0, 10.0, 10.0, 10.0, 10.0, 10.0, 10.0, 10.0, 10.0, 10.0, 10.0, 10.0, 10.0, 10.0, 10.0, 10.0, 10.0, 10.0, 10.0, 10.0, 10.0, 10.0, 10.0, 10.0, 10.0, 10.0, 10.0, 10.0, 10.0, 10.0, 10.0, 10.0, 10.0, 10.0, 10.0, 10.0, 10.0, 10.0, 10.0, 10.0, 10.0, 10.0, 10.0, 10.0, 10.0, 10.0, 10.0, 10.0, 10.0, 10.0, 10.0, 10.0, 10.0, 10.0, 10.0, 10.0, 10.0, 10.0, 10.0, 10.0, 10.0, 10.0, 10.0, 10.0, 10.0, 10.0, 10.0, 10.0, 10.0, 10.0, 10.0, 10.0, 10.0, 10.0, 10.0, 10.0, 10.0, 10.0, 10.0, 10.0, 10.0, 10.0, 10.0, 10.0, 10.0, 10.0, 10.0, 10.0, 10.0, 10.0, 10.0, 10.0, 10.0, 10.0, 10.0, 10.0, 10.0, 10.0, 10.0, 10.0, 10.0, 10.0, 10.0, 10.0, 10.0, 10.0, 10.0, 10.0, 10.0, 10.0, 10.0, 10.0, 10.0, 10.0, 10.0, 10.0, 10.0, 10.0, 10.0, 10.0, 10.0, 10.0, 10.0, 10.0, 10.0, 10.0, 10.0, 10.0, 10.0, 10.0, 10.0, 10.0, 10.0, 10.0, 10.0, 10.0, 10.0, 10.0, 10.0, 10.0, 10.0, 10.0]
13 [10.0, 10.0, 10.0, 10.0, 10.0, 10.0, 10.0, 10.0, 10.0, 10.0, 10.0, 10.0, 10.0, 10.0, 10.0, 10.0, 10.0, 10.0, 10.0, 10.0, 10.0, 10.0, 10.0, 10.0, 10.0, 10.0, 10.0, 10.0, 10.0, 10.0, 10.0, 10.0, 10.0, 10.0, 10.0, 10.0, 10.0, 10.0, 10.0, 10.0, 10.0, 10.0, 10.0, 10.0, 10.0, 10.0, 10.0, 10.0, 10.0, 10.0, 10.0, 10.0, 10.0, 10.0, 10.0, 10.0, 10.0, 10.0, 10.0, 10.0, 10.0, 10.0, 10.0, 10.0, 10.0, 10.0, 10.0, 10.0, 10.0, 10.0, 10.0, 10.0, 10.0, 10.0, 10.0, 10.0, 10.0, 10.0, 10.0, 10.0, 10.0, 10.0, 10.0, 10.0, 10.0, 10.0, 10.0, 10.0, 10.0, 10.0, 10.0, 10.0, 10.0, 10.0, 10.0, 10.0, 10.0, 10.0, 10.0, 10.0, 10.0, 10.0, 10.0, 10.0, 10.0, 10.0, 10.0, 10.0, 10.0, 10.0, 10.0, 10.0, 10.0, 10.0, 10.0, 10.0, 10.0, 10.0, 10.0, 10.0, 10.0, 10.0, 10.0, 10.0, 10.0, 10.0, 10.0, 10.0, 10.0, 10.0, 10.0, 10.0, 10.0, 10.0, 10.0, 10.0, 10.0, 10.0, 10.0, 10.0, 10.0, 10.0, 10.0, 10.0, 10.0, 10.0, 10.0, 10.0, 10.0, 10.0, 10.0, 10.0, 10.0, 10.0, 10.0, 10.0, 10.0, 10.0, 10.0, 10.0, 10.0, 10.0, 10.0, 10.0, 10.0, 10.0, 10.0, 10.0, 10.0, 10.0, 10.0, 10.0, 10.0, 10.0, 10.0, 10.0, 10.0, 10.0, 10.0, 10.0, 10.0, 10.0]
14 [1.01, 1.03, 2.15, 2.18, 2.22, 2.26, 2.3, 2.34, 2.38, 2.42, 2.46, 2.51, 2.55, 2.6, 2.64, 2.69, 2.74, 2.79, 2.84, 2.89, 2.94, 2.99, 3.05, 3.1, 3.16, 2.18, 2.18, 2.18, 2.18, 2.18, 2.18, 2.18, 2.19, 2.23, 2.28, 2.33, 2.37, 3.15, 3.15, 3.15, 3.15, 3.15, 3.15, 3.15, 3.15, 3.15, 3.15, 3.14, 3.14, 3.14, 3.14, 3.14, 3.14, 3.14, 3.14, 3.14, 3.14, 3.14, 3.14, 3.14, 3.14, 3.14, 3.14, 3.14, 3.14, 3.14, 3.14, 3.13, 3.13, 3.13, 3.13, 3.13, 3.13, 3.13, 3.13, 3.13, 3.13, 3.13, 3.13, 3.13, 3.13, 3.13, 3.13, 3.13, 3.13, 3.13, 3.13, 3.13, 3.13, 3.12, 3.12, 3.12, 3.12, 1.88, 1.88, 1.88, 1.88, 1.88, 1.88, 1.88, 1.88, 1.88, 1.88, 1.88, 1.88, 1.88, 3.12, 3.12, 3.12, 3.12, 3.12, 3.12, 3.11, 3.11, 3.11, 3.11, 3.11, 3.11, 3.11, 3.11, 3.11, 3.11, 3.11, 3.11, 3.11, 3.11, 3.11, 3.11, 3.11, 3.11, 3.11, 3.11, 3.1, 3.1, 3.1, 3.1, 3.1, 3.1, 3.1, 3.1, 3.1, 3.1, 3.1, 3.1, 3.1, 3.1, 3.1, 3.1, 3.1, 3.1, 3.1, 3.09, 3.09, 3.09, 3.09, 3.09, 3.09, 3.09, 3.09, 3.09, 3.09, 3.09, 3.09, 3.09, 3.09, 1.93, 1.9, 1.86, 1.83, 1.8, 1.76, 1.76, 1.76, 1.76, 1.76, 1.76, 1.76, 1.76, 2.8, 2.75, 2.7, 2.65]
15 [1.0, 1.01, 1.03, 1.05, 1.07, 2.22, 2.26, 2.29, 2.33, 2.37, 2.41, 2.46, 2.5, 2.54, 2.58, 2.63, 2.67, 2.72, 2.77, 2.82, 2.87, 2.92, 2.97, 3.03, 3.08, 3.14, 3.2, 2.21, 2.2, 2.2, 2.2, 2.2, 2.2, 2.2, 2.21, 2.25, 2.3, 2.34, 2.39, 3.18, 3.18, 3.18, 3.18, 3.17, 3.17, 3.17, 3.17, 3.17, 3.17, 3.17, 3.17, 3.16, 3.16, 3.16, 3.16, 3.16, 3.16, 3.16, 3.16, 3.16, 3.16, 3.15, 3.15, 3.15, 3.15, 3.15, 3.15, 3.15, 3.15, 3.15, 3.15, 3.14, 3.14, 3.14, 3.14, 3.14, 3.14, 3.14, 3.14, 3.14, 3.14, 3.13, 3.13, 3.13, 3.13, 3.13, 3.13, 3.13, 3.13, 3.13, 3.13, 3.13, 3.12, 3.12, 3.12, 3.12, 1.88, 1.88, 1.88, 1.88, 1.88, 1.88, 1.88, 1.88, 1.88, 1.88, 1.88, 1.87, 3.11, 3.11, 3.11, 3.11, 3.11, 3.1, 3.1, 3.1, 3.1, 3.1, 3.1, 3.1, 3.1, 3.1, 3.1, 3.09, 3.09, 3.09, 3.09, 3.09, 3.09, 3.09, 3.09, 3.09, 3.09, 3.08, 3.08, 3.08, 3.08, 3.08, 3.08, 3.08, 3.08, 3.08, 3.07, 3.07, 3.07, 3.07, 3.07, 3.07, 3.07, 3.07, 3.07, 3.06, 3.06, 3.06, 3.06, 3.06, 3.06, 3.06, 3.06, 3.05, 3.05, 3.05, 3.05, 3.05, 3.05, 3.05, 3.04, 1.91, 1.88, 1.84, 1.81, 1.77, 1.74, 1.73, 1.73, 1.73, 1.73, 1.73, 1.73, 1.73, 2.76, 2.71]
16 [0.98, 0.99, 1.01, 1.03, 1.04, 1.06, 1.08, 2.24, 2.28, 2.32, 2.35, 2.39, 2.43, 2.48, 2.52, 2.56, 2.6, 2.65, 2.69, 2.74, 2.79, 2.83, 2.88, 2.93, 2.98, 3.04, 3.09, 3.15, 3.2, 2.24, 2.24, 2.23, 2.23, 2.23, 2.23, 2.23, 2.23, 2.25, 2.29, 2.34, 2.39, 3.21, 3.21, 3.21, 3.21, 3.21, 3.2, 3.2, 3.2, 3.2, 3.2, 3.2, 3.19, 3.19, 3.19, 3.19, 3.19, 3.18, 3.18, 3.18, 3.18, 3.18, 3.18, 3.17, 3.17, 3.17, 3.17, 3.17, 3.17, 3.16, 3.16, 3.16, 3.16, 3.16, 3.16, 3.15, 3.15, 3.15, 3.15, 3.15, 3.15, 3.14, 3.14, 3.14, 3.14, 3.14, 3.14, 3.14, 3.13, 3.13, 3.13, 3.13, 3.13, 3.13, 3.12, 3.12, 3.12, 3.12, 1.88, 1.88, 1.88, 1.88, 1.88, 1.88, 1.87, 1.87, 1.87, 1.87, 1.87, 1.87, 3.1, 3.1, 3.1, 3.09, 3.09, 3.09, 3.09, 3.09, 3.09, 3.08, 3.08, 3.08, 3.08, 3.08, 3.08, 3.08, 3.07, 3.07, 3.07, 3.07, 3.07, 3.07, 3.06, 3.06, 3.06, 3.06, 3.06, 3.05, 3.05, 3.05, 3.05, 3.05, 3.05, 3.04, 3.04, 3.04, 3.04, 3.04, 3.03, 3.03, 3.03, 3.03, 3.03, 3.03, 3.02, 3.02, 3.02, 3.02, 3.01, 3.01, 3.01, 3.01, 3.01, 3.0, 3.0, 3.0, 3.0, 3.0, 2.99, 2.99, 1.86, 1.83, 1.79, 1.76, 1.73, 1.7, 1.7, 1.7, 1.7, 1.69, 1.69, 1.69]
17 [0.95, 0.97, 0.98, 1.0, 1.01, 1.03, 1.05, 1.06, 1.08, 1.1, 1.12, 2.32, 2.36, 2.4, 2.44, 2.48, 2.52, 2.56, 2.6, 2.65, 2.69, 2.73, 2.78, 2.83, 2.87, 2.92, 2.97, 3.02, 3.08, 3.13, 3.18, 3.24, 3.3, 2.27, 2.27, 2.27, 2.27, 2.26, 2.26, 2.26, 2.27, 2.31, 2.36, 2.4, 2.45, 3.25, 3.25, 3.25, 3.25, 3.24, 3.24, 3.24, 3.23, 3.23, 3.23, 3.23, 3.22, 3.22, 3.22, 3.21, 3.21, 3.21, 3.21, 3.2, 3.2, 3.2, 3.2, 3.19, 3.19, 3.19, 3.19, 3.18, 3.18, 3.18, 3.18, 3.17, 3.17, 3.17, 3.17, 3.16, 3.16, 3.16, 3.16, 3.15, 3.15, 3.15, 3.15, 3.15, 3.14, 3.14, 3.14, 3.14, 3.13, 3.13, 3.13, 3.13, 3.12, 3.12, 3.12, 3.12, 3.11, 3.11, 1.88, 1.87, 1.87, 1.87, 1.87, 1.87, 1.87, 1.87, 1.86, 1.86, 1.86, 1.86, 3.08, 3.08, 3.08, 3.07, 3.07, 3.07, 3.07, 3.07, 3.06, 3.06, 3.06, 3.06, 3.05, 3.05, 3.05, 3.05, 3.04, 3.04, 3.04, 3.04, 3.03, 3.03, 3.03, 3.03, 3.02, 3.02, 3.02, 3.02, 3.01, 3.01, 3.01, 3.0, 3.0, 3.0, 3.0, 2.99, 2.99, 2.99, 2.99, 2.98, 2.98, 2.98, 2.97, 2.97, 2.97, 2.96, 2.96, 2.96, 2.96, 2.95, 2.95, 2.95, 2.94, 2.94, 2.94, 2.93, 2.93, 2.93, 2.92, 1.83, 1.8, 1.76, 1.73, 1.69, 1.66, 1.65, 1.65, 1.65]
18 [0.96, 0.96, 0.95, 0.97, 0.98, 1.0, 1.01, 1.03, 1.04, 1.06, 1.08, 1.09, 1.11, 1.13, 1.15, 2.39, 2.42, 2.46, 2.5, 2.54, 2.58, 2.62, 2.66, 2.71, 2.75, 2.8, 2.84, 2.89, 2.94, 2.98, 3.03, 3.08, 3.14, 3.19, 3.24, 3.3, 3.36, 2.32, 2.31, 2.31, 2.31, 2.3, 2.3, 2.3, 2.3, 2.34, 2.39, 2.43, 2.48, 3.3, 3.3, 3.29, 3.29, 3.28, 3.28, 3.28, 3.27, 3.27, 3.26, 3.26, 3.26, 3.25, 3.25, 3.25, 3.24, 3.24, 3.23, 3.23, 3.23, 3.22, 3.22, 3.22, 3.21, 3.21, 3.21, 3.2, 3.2, 3.2, 3.19, 3.19, 3.18, 3.18, 3.18, 3.17, 3.17, 3.17, 3.16, 3.16, 3.16, 3.15, 3.15, 3.15, 3.14, 3.14, 3.14, 3.13, 3.13, 3.13, 3.12, 3.12, 3.12, 3.11, 3.11, 3.11, 3.1, 3.1, 1.87, 1.87, 1.86, 1.86, 1.86, 1.86, 1.86, 1.85, 1.85, 1.85, 1.85, 1.85, 3.06, 3.06, 3.05, 3.05, 3.05, 3.04, 3.04, 3.04, 3.03, 3.03, 3.02, 3.02, 3.02, 3.01, 3.01, 3.01, 3.0, 3.0, 3.0, 2.99, 2.99, 2.99, 2.98, 2.98, 2.98, 2.97, 2.97, 2.96, 2.96, 2.96, 2.95, 2.95, 2.95, 2.94, 2.94, 2.93, 2.93, 2.93, 2.92, 2.92, 2.91, 2.91, 2.91, 2.9, 2.9, 2.89, 2.89, 2.88, 2.88, 2.88, 2.87, 2.87, 2.86, 2.86, 2.85, 2.85, 2.84, 2.84, 2.83, 1.78, 1.74, 1.71, 1.67, 1.64]
19 [1.01, 1.0, 1.0, 1.0, 0.99, 0.99, 0.99, 0.99, 1.01, 1.02, 1.04, 1.06, 1.07, 1.09, 1.1, 1.12, 1.14, 1.15, 1.17, 2.44, 2.48, 2.52, 2.56, 2.59, 2.63, 2.67, 2.72, 2.76, 2.8, 2.85, 2.89, 2.94, 2.98, 3.03, 3.08, 3.13, 3.18, 3.23, 3.29, 3.34, 3.4, 2.36, 2.36, 2.35, 2.35, 2.34, 2.34, 2.33, 2.33, 2.36, 2.41, 2.45, 2.5, 3.35, 3.34, 3.34, 3.33, 3.33, 3.32, 3.31, 3.31, 3.3, 3.3, 3.29, 3.29, 3.28, 3.28, 3.27, 3.27, 3.26, 3.26, 3.25, 3.25, 3.25, 3.24, 3.24, 3.23, 3.23, 3.22, 3.22, 3.21, 3.21, 3.2, 3.2, 3.19, 3.19, 3.19, 3.18, 3.18, 3.17, 3.17, 3.16, 3.16, 3.15, 3.15, 3.15, 3.14, 3.14, 3.13, 3.13, 3.12, 3.12, 3.12, 3.11, 3.11, 3.1, 3.1, 3.09, 3.09, 3.09, 1.86, 1.85, 1.85, 1.85, 1.85, 1.84, 1.84, 1.84, 1.84, 1.83, 1.83, 1.83, 3.03, 3.02, 3.02, 3.02, 3.01, 3.01, 3.0, 3.0, 2.99, 2.99, 2.98, 2.98, 2.98, 2.97, 2.97, 2.96, 2.96, 2.95, 2.95, 2.94, 2.94, 2.93, 2.93, 2.93, 2.92, 2.92, 2.91, 2.91, 2.9, 2.9, 2.89, 2.89, 2.88, 2.88, 2.87, 2.87, 2.86, 2.86, 2.85, 2.85, 2.84, 2.83, 2.83, 2.82, 2.82, 2.81, 2.81, 2.8, 2.8, 2.79, 2.78, 2.78, 2.77, 2.77, 2.76, 2.75, 2.75, 2.74, 2.73, 1.73]
20 [1.79, 1.05, 1.04, 1.04, 1.03, 1.03, 1.03, 1.02, 1.02, 1.02, 1.01, 1.02, 1.04, 1.05, 1.07, 1.08, 1.1, 1.12, 1.13, 1.15, 1.17, 1.18, 1.2, 2.5, 2.54, 2.58, 2.61, 2.65, 2.69, 2.73, 2.77, 2.82, 2.86, 2.9, 2.95, 2.99, 3.04, 3.09, 3.14, 3.19, 3.24, 3.29, 3.34, 3.4, 3.45, 2.39, 2.39, 2.38, 2.38, 2.37, 2.37, 2.36, 2.36, 2.39, 2.44, 2.48, 2.53, 3.38, 3.37, 3.37, 3.36, 3.35, 3.35, 3.34, 3.33, 3.33, 3.32, 3.32, 3.31, 3.3, 3.3, 3.29, 3.28, 3.28, 3.27, 3.27, 3.26, 3.26, 3.25, 3.24, 3.24, 3.23, 3.23, 3.22, 3.22, 3.21, 3.21, 3.2, 3.19, 3.19, 3.18, 3.18, 3.17, 3.17, 3.16, 3.16, 3.15, 3.15, 3.14, 3.14, 3.13, 3.12, 3.12, 3.11, 3.11, 3.1, 3.1, 3.09, 3.09, 3.08, 3.08, 3.07, 3.07, 3.06, 1.84, 1.84, 1.83, 1.83, 1.83, 1.83, 1.82, 1.82, 1.82, 1.81, 1.81, 1.81, 2.99, 2.99, 2.98, 2.98, 2.97, 2.97, 2.96, 2.96, 2.95, 2.95, 2.94, 2.94, 2.93, 2.92, 2.92, 2.91, 2.91, 2.9, 2.9, 2.89, 2.89, 2.88, 2.87, 2.87, 2.86, 2.86, 2.85, 2.85, 2.84, 2.83, 2.83, 2.82, 2.82, 2.81, 2.8, 2.8, 2.79, 2.78, 2.78, 2.77, 2.76, 2.76, 2.75, 2.75, 2.74, 2.73, 2.72, 2.72, 2.71, 2.7, 2.7, 2.69, 2.68, 2.68, 2.67, 2.66]
21 [1.76, 1.79, 1.81, 1.84, 1.07, 1.06, 1.06, 1.05, 1.05, 1.05, 1.04, 1.04, 1.03, 1.03, 1.04, 1.06, 1.07, 1.09, 1.1, 1.12, 1.13, 1.15, 1.17, 1.18, 1.2, 1.22, 2.54, 2.58, 2.61, 2.65, 2.69, 2.73, 2.77, 2.81, 2.85, 2.9, 2.94, 2.98, 3.03, 3.07, 3.12, 3.17, 3.22, 3.27, 3.32, 3.38, 3.43, 3.49, 2.41, 2.41, 2.4, 2.39, 2.39, 2.38, 2.38, 2.37, 2.4, 2.45, 2.49, 2.54, 3.4, 3.39, 3.39, 3.38, 3.37, 3.36, 3.36, 3.35, 3.34, 3.34, 3.33, 3.32, 3.31, 3.31, 3.3, 3.29, 3.29, 3.28, 3.27, 3.27, 3.26, 3.25, 3.25, 3.24, 3.23, 3.23, 3.22, 3.22, 3.21, 3.2, 3.2, 3.19, 3.18, 3.18, 3.17, 3.17, 3.16, 3.15, 3.15, 3.14, 3.14, 3.13, 3.12, 3.12, 3.11, 3.11, 3.1, 3.09, 3.09, 3.08, 3.08, 3.07, 3.06, 3.06, 3.05, 3.05, 3.04, 1.83, 1.82, 1.82, 1.82, 1.81, 1.81, 1.8, 1.8, 1.8, 1.79, 1.79, 1.79, 1.78, 2.96, 2.95, 2.95, 2.94, 2.93, 2.93, 2.92, 2.92, 2.91, 2.9, 2.9, 2.89, 2.88, 2.88, 2.87, 2.87, 2.86, 2.85, 2.85, 2.84, 2.83, 2.83, 2.82, 2.81, 2.81, 2.8, 2.79, 2.79, 2.78, 2.77, 2.77, 2.76, 2.75, 2.75, 2.74, 2.73, 2.73, 2.72, 2.71, 2.7, 2.7, 2.69, 2.68, 2.67, 2.67, 2.66, 2.65, 2.64, 2.63, 2.63, 2.62, 2.61]
22 [1.73, 1.75, 1.78, 1.8, 1.83, 1.85, 1.88, 1.09, 1.09, 1.08, 1.08, 1.07, 1.07, 1.06, 1.06, 1.05, 1.05, 1.06, 1.07, 1.09, 1.1, 1.12, 1.13, 1.15, 1.17, 1.18, 1.2, 1.22, 1.23, 2.57, 2.61, 2.65, 2.68, 2.72, 2.76, 2.8, 2.84, 2.88, 2.92, 2.97, 3.01, 3.06, 3.1, 3.15, 3.2, 3.24, 3.29, 3.35, 3.4, 3.45, 3.51, 2.43, 2.43, 2.42, 2.41, 2.41, 2.4, 2.39, 2.39, 2.41, 2.45, 2.5, 2.54, 3.42, 3.41, 3.41, 3.4, 3.39, 3.38, 3.37, 3.36, 3.36, 3.35, 3.34, 3.33, 3.32, 3.32, 3.31, 3.3, 3.29, 3.29, 3.28, 3.27, 3.26, 3.26, 3.25, 3.24, 3.24, 3.23, 3.22, 3.21, 3.21, 3.2, 3.19, 3.19, 3.18, 3.17, 3.17, 3.16, 3.15, 3.14, 3.14, 3.13, 3.12, 3.12, 3.11, 3.1, 3.1, 3.09, 3.08, 3.08, 3.07, 3.06, 3.06, 3.05, 3.04, 3.04, 3.03, 3.02, 3.02, 3.01, 1.81, 1.8, 1.8, 1.79, 1.79, 1.79, 1.78, 1.78, 1.77, 1.77, 1.77, 1.76, 2.92, 2.92, 2.91, 2.9, 2.9, 2.89, 2.88, 2.88, 2.87, 2.86, 2.86, 2.85, 2.84, 2.83, 2.83, 2.82, 2.81, 2.81, 2.8, 2.79, 2.78, 2.78, 2.77, 2.76, 2.76, 2.75, 2.74, 2.73, 2.73, 2.72, 2.71, 2.7, 2.69, 2.69, 2.68, 2.67, 2.66, 2.65, 2.65, 2.64, 2.63, 2.62, 2.61, 2.6, 2.6, 2.59, 2.58, 2.57, 2.56]
23 [1.68, 1.7, 1.73, 1.75, 1.77, 1.8, 1.82, 1.84, 1.87, 1.89, 1.92, 1.94, 1.12, 1.12, 1.11, 1.1, 1.1, 1.09, 1.09, 1.08, 1.08, 1.07, 1.08, 1.1, 1.11, 1.13, 1.14, 1.16, 1.17, 1.19, 1.2, 1.22, 1.24, 1.25, 2.62, 2.66, 2.69, 2.73, 2.77, 2.8, 2.84, 2.88, 2.92, 2.96, 3.0, 3.05, 3.09, 3.13, 3.18, 3.23, 3.27, 3.32, 3.37, 3.42, 3.48, 3.53, 3.58, 2.46, 2.45, 2.44, 2.43, 2.42, 2.42, 2.41, 2.41, 2.45, 2.49, 2.54, 2.58, 3.44, 3.43, 3.42, 3.41, 3.4, 3.39, 3.38, 3.37, 3.36, 3.35, 3.34, 3.33, 3.33, 3.32, 3.31, 3.3, 3.29, 3.28, 3.27, 3.26, 3.25, 3.25, 3.24, 3.23, 3.22, 3.21, 3.2, 3.19, 3.19, 3.18, 3.17, 3.16, 3.15, 3.15, 3.14, 3.13, 3.12, 3.11, 3.1, 3.1, 3.09, 3.08, 3.07, 3.06, 3.06, 3.05, 3.04, 3.03, 3.03, 3.02, 3.01, 3.0, 2.99, 2.99, 2.98, 2.97, 2.96, 1.94, 1.77, 1.76, 1.76, 1.75, 1.75, 1.74, 1.74, 1.73, 1.73, 1.72, 1.72, 1.71, 2.85, 2.84, 2.84, 2.83, 2.82, 2.81, 2.8, 2.8, 2.79, 2.78, 2.77, 2.76, 2.75, 2.75, 2.74, 2.73, 2.72, 2.71, 2.7, 2.7, 2.69, 2.68, 2.67, 2.66, 2.65, 2.64, 2.63, 2.63, 2.62, 2.61, 2.6, 2.59, 2.58, 2.57, 2.56, 2.55, 2.54, 2.53, 2.52, 2.51, 2.5, 2.49, 2.48]
24 [1.66, 1.68, 1.7, 1.72, 1.75, 1.77, 1.79, 1.81, 1.84, 1.86, 1.89, 1.91, 1.93, 1.96, 1.14, 1.13, 1.13, 1.12, 1.11, 1.11, 1.1, 1.09, 1.09, 1.08, 1.09, 1.1, 1.12, 1.13, 1.14, 1.16, 1.17, 1.19, 1.2, 1.22, 1.24, 1.25, 1.27, 2.66, 2.7, 2.73, 2.77, 2.8, 2.84, 2.88, 2.92, 2.96, 3.0, 3.04, 3.09, 3.13, 3.17, 3.22, 3.27, 3.31, 3.36, 3.41, 3.46, 3.51, 3.57, 2.47, 2.46, 2.45, 2.44, 2.44, 2.43, 2.42, 2.41, 2.43, 2.47, 2.51, 2.56, 3.45, 3.44, 3.43, 3.42, 3.41, 3.4, 3.39, 3.38, 3.37, 3.36, 3.35, 3.34, 3.33, 3.32, 3.31, 3.3, 3.29, 3.28, 3.27, 3.26, 3.25, 3.24, 3.23, 3.23, 3.22, 3.21, 3.2, 3.19, 3.18, 3.17, 3.16, 3.15, 3.14, 3.14, 3.13, 3.12, 3.11, 3.1, 3.09, 3.08, 3.07, 3.07, 3.06, 3.05, 3.04, 3.03, 3.02, 3.01, 3.01, 3.0, 2.99, 2.98, 2.97, 2.96, 2.96, 2.95, 2.94, 2.93, 1.76, 1.74, 1.74, 1.73, 1.73, 1.72, 1.72, 1.71, 1.71, 1.7, 1.7, 1.69, 1.69, 2.81, 2.8, 2.79, 2.79, 2.78, 2.77, 2.76, 2.75, 2.74, 2.73, 2.72, 2.72, 2.71, 2.7, 2.69, 2.68, 2.67, 2.66, 2.65, 2.64, 2.63, 2.62, 2.62, 2.61, 2.6, 2.59, 2.58, 2.57, 2.56, 2.55, 2.54, 2.53, 2.52, 2.51, 2.5, 2.49, 2.48, 2.47, 2.46, 2.45]
25 [1.64, 1.66, 1.68, 1.7, 1.72, 1.74, 1.77, 1.79, 1.81, 1.83, 1.86, 1.88, 1.9, 1.93, 1.95, 1.98, 1.15, 1.15, 1.14, 1.13, 1.12, 1.12, 1.11, 1.1, 1.1, 1.09, 1.09, 1.11, 1.12, 1.13, 1.15, 1.16, 1.18, 1.19, 1.21, 1.22, 1.24, 1.25, 1.27, 2.66, 2.7, 2.73, 2.77, 2.81, 2.84, 2.88, 2.92, 2.96, 3.0, 3.04, 3.08, 3.12, 3.17, 3.21, 3.26, 3.3, 3.35, 3.4, 3.45, 3.5, 3.55, 3.6, 2.47, 2.46, 2.45, 2.45, 2.44, 2.43, 2.42, 2.41, 2.45, 2.49, 2.53, 2.58, 3.45, 3.44, 3.43, 3.42, 3.41, 3.4, 3.39, 3.38, 3.37, 3.35, 3.34, 3.33, 3.32, 3.31, 3.3, 3.29, 3.28, 3.27, 3.26, 3.25, 3.24, 3.23, 3.22, 3.21, 3.2, 3.19, 3.18, 3.17, 3.16, 3.15, 3.14, 3.13, 3.13, 3.12, 3.11, 3.1, 3.09, 3.08, 3.07, 3.06, 3.05, 3.04, 3.03, 3.02, 3.01, 3.01, 3.0, 2.99, 2.98, 2.97, 2.96, 2.95, 2.94, 2.93, 2.92, 2.91, 2.91, 2.9, 1.73, 1.72, 1.72, 1.71, 1.7, 1.7, 1.69, 1.69, 1.68, 1.68, 1.67, 1.67, 1.66, 2.77, 2.76, 2.75, 2.74, 2.73, 2.72, 2.71, 2.71, 2.7, 2.69, 2.68, 2.67, 2.66, 2.65, 2.64, 2.63, 2.62, 2.61, 2.6, 2.59, 2.58, 2.57, 2.56, 2.55, 2.54, 2.53, 2.52, 2.51, 2.5, 2.49, 2.48, 2.47, 2.46, 2.45, 2.44, 2.43, 2.41]
26 [1.6, 1.62, 1.64, 1.66, 1.68, 1.7, 1.72, 1.74, 1.76, 1.78, 1.8, 1.82, 1.85, 1.87, 1.89, 1.91, 1.93, 1.96, 1.98, 2.0, 2.03, 2.05, 1.18, 1.17, 1.16, 1.15, 1.14, 1.14, 1.13, 1.12, 1.11, 1.11, 1.12, 1.13, 1.15, 1.16, 1.18, 1.19, 1.2, 1.22, 1.23, 1.25, 1.26, 1.28, 2.69, 2.73, 2.76, 2.8, 2.83, 2.87, 2.9, 2.94, 2.98, 3.02, 3.06, 3.1, 3.14, 3.18, 3.22, 3.27, 3.31, 3.36, 3.4, 3.45, 3.5, 3.55, 3.6, 3.64, 2.48, 2.47, 2.46, 2.45, 2.45, 2.44, 2.43, 2.43, 2.47, 2.51, 2.55, 2.59, 3.46, 3.45, 3.43, 3.42, 3.41, 3.4, 3.38, 3.37, 3.36, 3.35, 3.33, 3.32, 3.31, 3.3, 3.29, 3.27, 3.26, 3.25, 3.24, 3.23, 3.22, 3.21, 3.2, 3.18, 3.17, 3.16, 3.15, 3.14, 3.13, 3.12, 3.11, 3.1, 3.09, 3.08, 3.07, 3.05, 3.04, 3.03, 3.02, 3.01, 3.0, 2.99, 2.98, 2.97, 2.96, 2.95, 2.94, 2.93, 2.92, 2.91, 2.9, 2.89, 2.88, 2.87, 2.86, 2.85, 2.84, 2.83, 1.68, 1.67, 1.67, 1.66, 1.66, 1.65, 1.64, 1.64, 1.63, 1.62, 1.62, 1.61, 1.61, 2.68, 2.67, 2.66, 2.65, 2.64, 2.63, 2.62, 2.61, 2.6, 2.59, 2.58, 2.57, 2.56, 2.55, 2.54, 2.52, 2.51, 2.5, 2.49, 2.48, 2.47, 2.46, 2.45, 2.44, 2.42, 2.41, 2.4, 2.39, 2.38, 2.37, 2.35]
27 [1.56, 1.58, 1.59, 1.61, 1.63, 1.65, 1.67, 1.69, 1.71, 1.73, 1.75, 1.77, 1.79, 1.81, 1.83, 1.85, 1.87, 1.89, 1.91, 1.93, 1.96, 1.98, 2.0, 2.02, 2.04, 2.07, 2.09, 1.2, 1.19, 1.18, 1.17, 1.16, 1.16, 1.15, 1.14, 1.13, 1.12, 1.13, 1.14, 1.15, 1.17, 1.18, 1.19, 1.21, 1.22, 1.24, 1.25, 1.26, 1.28, 1.29, 2.74, 2.77, 2.8, 2.84, 2.87, 2.91, 2.94, 2.98, 3.01, 3.05, 3.09, 3.13, 3.17, 3.21, 3.25, 3.29, 3.34, 3.38, 3.43, 3.47, 3.52, 3.57, 3.62, 3.66, 2.49, 2.48, 2.47, 2.46, 2.44, 2.43, 2.42, 2.42, 2.46, 2.5, 2.54, 2.58, 3.45, 3.44, 3.42, 3.41, 3.4, 3.38, 3.37, 3.35, 3.34, 3.33, 3.31, 3.3, 3.29, 3.27, 3.26, 3.25, 3.23, 3.22, 3.21, 3.2, 3.18, 3.17, 3.16, 3.15, 3.13, 3.12, 3.11, 3.1, 3.08, 3.07, 3.06, 3.05, 3.04, 3.02, 3.01, 3.0, 2.99, 2.98, 2.97, 2.95, 2.94, 2.93, 2.92, 2.91, 2.9, 2.88, 2.87, 2.86, 2.85, 2.84, 2.83, 2.81, 2.8, 2.79, 2.78, 2.77, 2.76, 2.75, 2.73, 1.62, 1.61, 1.6, 1.6, 1.59, 1.58, 1.58, 1.57, 1.56, 1.56, 1.55, 1.54, 1.54, 2.57, 2.56, 2.55, 2.54, 2.53, 2.51, 2.5, 2.49, 2.48, 2.47, 2.46, 2.44, 2.43, 2.42, 2.41, 2.39, 2.38, 2.37, 2.36, 2.34, 2.33, 2.32, 2.31, 2.29]
28 [1.53, 1.55, 1.57, 1.59, 1.61, 1.62, 1.64, 1.66, 1.68, 1.7, 1.72, 1.74, 1.76, 1.77, 1.79, 1.81, 1.83, 1.85, 1.87, 1.89, 1.91, 1.93, 1.96, 1.98, 2.0, 2.02, 2.04, 2.06, 2.08, 2.11, 1.21, 1.2, 1.19, 1.18, 1.17, 1.16, 1.15, 1.14, 1.13, 1.13, 1.13, 1.14, 1.15, 1.17, 1.18, 1.19, 1.2, 1.22, 1.23, 1.24, 1.26, 1.27, 1.29, 2.74, 2.77, 2.8, 2.83, 2.87, 2.9, 2.93, 2.97, 3.0, 3.04, 3.08, 3.11, 3.15, 3.19, 3.23, 3.27, 3.31, 3.36, 3.4, 3.45, 3.49, 3.54, 3.59, 3.64, 2.49, 2.48, 2.47, 2.45, 2.44, 2.43, 2.42, 2.41, 2.42, 2.46, 2.5, 2.54, 2.58, 3.44, 3.42, 3.4, 3.39, 3.37, 3.36, 3.34, 3.33, 3.32, 3.3, 3.29, 3.27, 3.26, 3.24, 3.23, 3.22, 3.2, 3.19, 3.18, 3.16, 3.15, 3.14, 3.12, 3.11, 3.1, 3.08, 3.07, 3.06, 3.04, 3.03, 3.02, 3.01, 2.99, 2.98, 2.97, 2.95, 2.94, 2.93, 2.92, 2.9, 2.89, 2.88, 2.87, 2.86, 2.84, 2.83, 2.82, 2.81, 2.79, 2.78, 2.77, 2.76, 2.75, 2.73, 2.72, 2.71, 2.7, 2.68, 2.67, 1.58, 1.57, 1.56, 1.55, 1.55, 1.54, 1.53, 1.52, 1.52, 1.51, 1.5, 1.5, 1.49, 2.5, 2.49, 2.48, 2.46, 2.45, 2.44, 2.43, 2.41, 2.4, 2.39, 2.38, 2.36, 2.35, 2.34, 2.32, 2.31, 2.3, 2.28, 2.27, 2.26]
29 [1.52, 1.54, 1.55, 1.57, 1.59, 1.61, 1.63, 1.64, 1.66, 1.68, 1.7, 1.72, 1.73, 1.75, 1.77, 1.79, 1.81, 1.83, 1.85, 1.87, 1.89, 1.91, 1.93, 1.95, 1.97, 1.99, 2.01, 2.03, 2.05, 2.07, 2.09, 2.12, 2.14, 1.21, 1.2, 1.19, 1.18, 1.17, 1.16, 1.15, 1.15, 1.14, 1.13, 1.14, 1.15, 1.16, 1.18, 1.19, 1.2, 1.21, 1.23, 1.24, 1.25, 1.27, 1.28, 1.3, 2.76, 2.79, 2.82, 2.85, 2.89, 2.92, 2.95, 2.99, 3.02, 3.06, 3.1, 3.13, 3.17, 3.21, 3.25, 3.29, 3.33, 3.38, 3.42, 3.46, 3.51, 3.56, 3.6, 3.65, 2.49, 2.47, 2.46, 2.45, 2.44, 2.43, 2.41, 2.4, 2.42, 2.46, 2.5, 2.54, 3.44, 3.42, 3.41, 3.39, 3.38, 3.36, 3.35, 3.33, 3.32, 3.3, 3.28, 3.27, 3.26, 3.24, 3.23, 3.21, 3.2, 3.18, 3.17, 3.15, 3.14, 3.13, 3.11, 3.1, 3.08, 3.07, 3.06, 3.04, 3.03, 3.02, 3.0, 2.99, 2.98, 2.96, 2.95, 2.94, 2.92, 2.91, 2.9, 2.88, 2.87, 2.86, 2.85, 2.83, 2.82, 2.81, 2.79, 2.78, 2.77, 2.76, 2.74, 2.73, 2.72, 2.71, 2.69, 2.68, 2.67, 2.65, 2.64, 2.63, 1.55, 1.54, 1.53, 1.52, 1.52, 1.51, 1.5, 1.49, 1.49, 1.48, 1.47, 1.46, 1.46, 2.45, 2.44, 2.42, 2.41, 2.4, 2.38, 2.37, 2.36, 2.35, 2.33, 2.32, 2.31, 2.29, 2.28, 2.26, 2.25, 2.24]
30 [1.51, 1.52, 1.54, 1.56, 1.57, 1.59, 1.61, 1.63, 1.64, 1.66, 1.68, 1.7, 1.71, 1.73, 1.75, 1.77, 1.79, 1.8, 1.82, 1.84, 1.86, 1.88, 1.9, 1.92, 1.94, 1.96, 1.98, 2.0, 2.02, 2.04, 2.06, 2.08, 2.1, 2.12, 2.14, 2.16, 1.23, 1.22, 1.21, 1.2, 1.19, 1.18, 1.17, 1.16, 1.15, 1.14, 1.15, 1.16, 1.17, 1.18, 1.2, 1.21, 1.22, 1.23, 1.25, 1.26, 1.27, 1.29, 1.3, 2.77, 2.81, 2.84, 2.87, 2.9, 2.93, 2.97, 3.0, 3.03, 3.07, 3.11, 3.14, 3.18, 3.22, 3.26, 3.3, 3.34, 3.38, 3.42, 3.46, 3.51, 3.55, 3.6, 3.65, 2.49, 2.48, 2.47, 2.45, 2.44, 2.43, 2.41, 2.4, 2.41, 2.45, 2.49, 2.53, 2.57, 3.42, 3.4, 3.39, 3.37, 3.35, 3.34, 3.32, 3.31, 3.29, 3.27, 3.26, 3.24, 3.23, 3.21, 3.2, 3.18, 3.17, 3.15, 3.14, 3.12, 3.11, 3.09, 3.08, 3.06, 3.05, 3.04, 3.02, 3.01, 2.99, 2.98, 2.96, 2.95, 2.94, 2.92, 2.91, 2.9, 2.88, 2.87, 2.85, 2.84, 2.83, 2.81, 2.8, 2.79, 2.77, 2.76, 2.75, 2.73, 2.72, 2.71, 2.69, 2.68, 2.67, 2.65, 2.64, 2.63, 2.61, 2.6, 2.59, 1.66, 1.51, 1.5, 1.5, 1.49, 1.48, 1.47, 1.47, 1.46, 1.45, 1.44, 1.43, 1.43, 1.42, 2.38, 2.37, 2.36, 2.34, 2.33, 2.32, 2.3, 2.29, 2.27, 2.26, 2.25, 2.23, 2.22]
31 [1.49, 1.5, 1.52, 1.53, 1.55, 1.57, 1.58, 1.6, 1.61, 1.63, 1.65, 1.66, 1.68, 1.7, 1.71, 1.73, 1.75, 1.77, 1.78, 1.8, 1.82, 1.84, 1.85, 1.87, 1.89, 1.91, 1.93, 1.95, 1.96, 1.98, 2.0, 2.02, 2.04, 2.06, 2.08, 2.1, 2.12, 2.14, 2.16, 2.18, 2.2, 1.24, 1.23, 1.22, 1.21, 1.19, 1.18, 1.17, 1.16, 1.15, 1.15, 1.16, 1.17, 1.18, 1.19, 1.2, 1.22, 1.23, 1.24, 1.25, 1.27, 1.28, 1.29, 1.31, 2.8, 2.82, 2.85, 2.89, 2.92, 2.95, 2.98, 3.01, 3.05, 3.08, 3.12, 3.15, 3.19, 3.22, 3.26, 3.3, 3.34, 3.38, 3.42, 3.46, 3.51, 3.55, 3.6, 3.64, 2.48, 2.47, 2.46, 2.44, 2.43, 2.42, 2.4, 2.39, 2.39, 2.43, 2.47, 2.5, 2.54, 3.4, 3.38, 3.36, 3.35, 3.33, 3.31, 3.29, 3.28, 3.26, 3.24, 3.23, 3.21, 3.19, 3.18, 3.16, 3.14, 3.13, 3.11, 3.1, 3.08, 3.06, 3.05, 3.03, 3.02, 3.0, 2.99, 2.97, 2.96, 2.94, 2.93, 2.91, 2.9, 2.88, 2.87, 2.85, 2.84, 2.82, 2.81, 2.79, 2.78, 2.76, 2.75, 2.74, 2.72, 2.71, 2.69, 2.68, 2.66, 2.65, 2.63, 2.62, 2.61, 2.59, 2.58, 2.56, 2.55, 2.54, 2.52, 2.51, 2.49, 1.46, 1.45, 1.44, 1.44, 1.43, 1.42, 1.41, 1.4, 1.39, 1.39, 1.38, 1.37, 1.36, 2.29, 2.28, 2.26, 2.25, 2.23, 2.22, 2.2, 2.19]
32 [1.47, 1.49, 1.5, 1.52, 1.54, 1.55, 1.57, 1.58, 1.6, 1.61, 1.63, 1.65, 1.66, 1.68, 1.69, 1.71, 1.73, 1.74, 1.76, 1.78, 1.79, 1.81, 1.83, 1.85, 1.86, 1.88, 1.9, 1.92, 1.93, 1.95, 1.97, 1.99, 2.01, 2.03, 2.05, 2.06, 2.08, 2.1, 2.12, 2.14, 2.16, 2.18, 2.2, 1.25, 1.24, 1.23, 1.22, 1.2, 1.19, 1.18, 1.17, 1.16, 1.15, 1.15, 1.16, 1.17, 1.18, 1.19, 1.2, 1.22, 1.23, 1.24, 1.25, 1.27, 1.28, 1.29, 1.3, 2.8, 2.83, 2.86, 2.89, 2.92, 2.95, 2.99, 3.02, 3.05, 3.08, 3.12, 3.15, 3.19, 3.22, 3.26, 3.3, 3.34, 3.38, 3.42, 3.46, 3.5, 3.55, 3.59, 3.64, 2.47, 2.46, 2.45, 2.43, 2.42, 2.4, 2.39, 2.38, 2.38, 2.41, 2.45, 2.49, 2.52, 3.38, 3.36, 3.34, 3.33, 3.31, 3.29, 3.27, 3.25, 3.24, 3.22, 3.2, 3.18, 3.17, 3.15, 3.13, 3.12, 3.1, 3.08, 3.07, 3.05, 3.03, 3.02, 3.0, 2.98, 2.97, 2.95, 2.94, 2.92, 2.91, 2.89, 2.87, 2.86, 2.84, 2.83, 2.81, 2.8, 2.78, 2.77, 2.75, 2.74, 2.72, 2.71, 2.69, 2.68, 2.66, 2.65, 2.63, 2.62, 2.6, 2.59, 2.57, 2.56, 2.54, 2.53, 2.51, 2.5, 2.48, 2.47, 2.45, 2.44, 1.52, 1.42, 1.41, 1.4, 1.39, 1.38, 1.37, 1.37, 1.36, 1.35, 1.34, 1.33, 1.32, 1.31, 2.22, 2.2, 2.19, 2.17]
33 [1.46, 1.48, 1.49, 1.51, 1.52, 1.54, 1.55, 1.57, 1.58, 1.6, 1.61, 1.63, 1.64, 1.66, 1.68, 1.69, 1.71, 1.72, 1.74, 1.76, 1.77, 1.79, 1.8, 1.82, 1.84, 1.85, 1.87, 1.89, 1.91, 1.92, 1.94, 1.96, 1.98, 1.99, 2.01, 2.03, 2.05, 2.07, 2.08, 2.1, 2.12, 2.14, 2.16, 2.18, 2.2, 2.22, 1.25, 1.24, 1.23, 1.21, 1.2, 1.19, 1.18, 1.17, 1.16, 1.15, 1.15, 1.16, 1.17, 1.18, 1.19, 1.2, 1.22, 1.23, 1.24, 1.25, 1.26, 1.28, 1.29, 1.3, 2.81, 2.84, 2.87, 2.89, 2.92, 2.95, 2.99, 3.02, 3.05, 3.08, 3.12, 3.15, 3.18, 3.22, 3.26, 3.29, 3.33, 3.37, 3.41, 3.45, 3.49, 3.53, 3.58, 3.62, 2.46, 2.45, 2.43, 2.42, 2.41, 2.39, 2.38, 2.36, 2.36, 2.39, 2.43, 2.46, 2.5, 3.36, 3.34, 3.32, 3.3, 3.28, 3.27, 3.25, 3.23, 3.21, 3.19, 3.17, 3.16, 3.14, 3.12, 3.1, 3.09, 3.07, 3.05, 3.03, 3.02, 3.0, 2.98, 2.97, 2.95, 2.93, 2.92, 2.9, 2.88, 2.87, 2.85, 2.84, 2.82, 2.8, 2.79, 2.77, 2.76, 2.74, 2.73, 2.71, 2.69, 2.68, 2.66, 2.65, 2.63, 2.62, 2.6, 2.59, 2.57, 2.55, 2.54, 2.52, 2.51, 2.49, 2.48, 2.46, 2.45, 2.43, 2.42, 2.4, 2.39, 2.37, 1.38, 1.37, 1.37, 1.36, 1.35, 1.34, 1.33, 1.32, 1.31, 1.3, 1.29, 1.28, 1.27, 2.15]
34 [1.45, 1.47, 1.48, 1.49, 1.51, 1.52, 1.54, 1.55, 1.57, 1.58, 1.6, 1.61, 1.63, 1.64, 1.66, 1.67, 1.69, 1.7, 1.72, 1.74, 1.75, 1.77, 1.78, 1.8, 1.81, 1.83, 1.85, 1.86, 1.88, 1.9, 1.91, 1.93, 1.95, 1.96, 1.98, 2.0, 2.02, 2.03, 2.05, 2.07, 2.09, 2.11, 2.12, 2.14, 2.16, 2.18, 2.2, 2.22, 1.26, 1.25, 1.23, 1.22, 1.21, 1.2, 1.19, 1.17, 1.16, 1.15, 1.14, 1.15, 1.16, 1.17, 1.18, 1.19, 1.2, 1.22, 1.23, 1.24, 1.25, 1.26, 1.27, 1.29, 1.3, 2.81, 2.84, 2.87, 2.9, 2.93, 2.96, 2.99, 3.02, 3.05, 3.08, 3.12, 3.15, 3.18, 3.22, 3.25, 3.29, 3.33, 3.37, 3.4, 3.44, 3.49, 3.53, 3.57, 3.61, 2.45, 2.43, 2.42, 2.4, 2.39, 2.37, 2.36, 2.34, 2.34, 2.38, 2.41, 2.45, 2.48, 3.34, 3.32, 3.3, 3.28, 3.26, 3.24, 3.22, 3.2, 3.18, 3.16, 3.14, 3.13, 3.11, 3.09, 3.07, 3.05, 3.03, 3.02, 3.0, 2.98, 2.96, 2.95, 2.93, 2.91, 2.9, 2.88, 2.86, 2.85, 2.83, 2.81, 2.8, 2.78, 2.76, 2.75, 2.73, 2.71, 2.7, 2.68, 2.66, 2.65, 2.63, 2.62, 2.6, 2.58, 2.57, 2.55, 2.54, 2.52, 2.5, 2.49, 2.47, 2.46, 2.44, 2.43, 2.41, 2.39, 2.38, 2.36, 2.35, 2.33, 2.32, 1.39, 1.34, 1.33, 1.32, 1.31, 1.3, 1.29, 1.28, 1.27, 1.26, 1.25]
35 [1.45, 1.47, 1.48, 1.49, 1.51, 1.52, 1.54, 1.55, 1.57, 1.58, 1.6, 1.61, 1.63, 1.64, 1.66, 1.67, 1.69, 1.7, 1.72, 1.74, 1.75, 1.77, 1.78, 1.8, 1.81, 1.83, 1.85, 1.86, 1.88, 1.9, 1.91, 1.93, 1.95, 1.96, 1.98, 2.0, 2.02, 2.03, 2.05, 2.07, 2.09, 2.11, 2.12, 2.14, 2.16, 2.18, 2.2, 2.22, 1.26, 1.25, 1.23, 1.22, 1.21, 1.2, 1.19, 1.17, 1.16, 1.15, 1.14, 1.15, 1.16, 1.17, 1.18, 1.19, 1.2, 1.22, 1.23, 1.24, 1.25, 1.26, 1.27, 1.29, 1.3, 2.81, 2.84, 2.87, 2.9, 2.93, 2.96, 2.99, 3.02, 3.05, 3.08, 3.12, 3.15, 3.18, 3.22, 3.25, 3.29, 3.33, 3.37, 3.4, 3.44, 3.49, 3.53, 3.57, 3.61, 2.45, 2.43, 2.42, 2.4, 2.39, 2.37, 2.36, 2.34, 2.34, 2.38, 2.41, 2.45, 2.48, 3.34, 3.32, 3.3, 3.28, 3.26, 3.24, 3.22, 3.2, 3.18, 3.16, 3.14, 3.13, 3.11, 3.09, 3.07, 3.05, 3.03, 3.02, 3.0, 2.98, 2.96, 2.95, 2.93, 2.91, 2.9, 2.88, 2.86, 2.85, 2.83, 2.81, 2.8, 2.78, 2.76, 2.75, 2.73, 2.71, 2.7, 2.68, 2.66, 2.65, 2.63, 2.62, 2.6, 2.58, 2.57, 2.55, 2.54, 2.52, 2.5, 2.49, 2.47, 2.46, 2.44, 2.43, 2.41, 2.39, 2.38, 2.36, 2.35, 2.33, 2.32, 1.39, 1.34, 1.33, 1.32, 1.31, 1.3, 1.29, 1.28, 1.27, 1.26, 1.25]
36 [1.44, 1.46, 1.47, 1.48, 1.5, 1.51, 1.53, 1.54, 1.56, 1.57, 1.58, 1.6, 1.61, 1.63, 1.64, 1.66, 1.67, 1.69, 1.7, 1.72, 1.73, 1.75, 1.76, 1.78, 1.79, 1.81, 1.83, 1.84, 1.86, 1.87, 1.89, 1.91, 1.92, 1.94, 1.95, 1.97, 1.99, 2.0, 2.02, 2.04, 2.06, 2.07, 2.09, 2.11, 2.13, 2.15, 2.16, 2.18, 2.2, 2.22, 2.24, 1.25, 1.23, 1.22, 1.21, 1.19, 1.18, 1.17, 1.16, 1.15, 1.14, 1.14, 1.15, 1.16, 1.17, 1.18, 1.19, 1.21, 1.22, 1.23, 1.24, 1.25, 1.26, 1.27, 1.29, 2.8, 2.83, 2.85, 2.88, 2.91, 2.94, 2.97, 3.0, 3.03, 3.06, 3.09, 3.13, 3.16, 3.19, 3.23, 3.26, 3.3, 3.33, 3.37, 3.41, 3.45, 3.49, 3.53, 3.58, 3.61, 2.43, 2.41, 2.39, 2.38, 2.36, 2.35, 2.33, 2.32, 2.34, 2.37, 2.4, 2.44, 3.32, 3.3, 3.28, 3.26, 3.24, 3.22, 3.2, 3.18, 3.16, 3.14, 3.12, 3.1, 3.09, 3.07, 3.05, 3.03, 3.01, 2.99, 2.98, 2.96, 2.94, 2.92, 2.9, 2.89, 2.87, 2.85, 2.83, 2.82, 2.8, 2.78, 2.77, 2.75, 2.73, 2.72, 2.7, 2.68, 2.67, 2.65, 2.63, 2.62, 2.6, 2.58, 2.57, 2.55, 2.53, 2.52, 2.5, 2.48, 2.47, 2.45, 2.44, 2.42, 2.4, 2.39, 2.37, 2.35, 2.34, 2.32, 2.31, 2.29, 2.27, 2.26, 1.35, 1.3, 1.29, 1.28, 1.27, 1.26, 1.25, 1.24]
37 [1.42, 1.44, 1.45, 1.46, 1.48, 1.49, 1.5, 1.52, 1.53, 1.54, 1.56, 1.57, 1.59, 1.6, 1.61, 1.63, 1.64, 1.66, 1.67, 1.68, 1.7, 1.71, 1.73, 1.74, 1.76, 1.77, 1.79, 1.8, 1.82, 1.83, 1.85, 1.86, 1.88, 1.89, 1.91, 1.92, 1.94, 1.95, 1.97, 1.99, 2.0, 2.02, 2.03, 2.05, 2.07, 2.08, 2.1, 2.12, 2.14, 2.15, 2.17, 2.19, 2.21, 2.22, 1.23, 1.22, 1.2, 1.19, 1.18, 1.17, 1.15, 1.14, 1.13, 1.12, 1.12, 1.13, 1.14, 1.15, 1.16, 1.17, 1.18, 1.19, 1.2, 1.21, 1.22, 1.23, 1.24, 1.25, 1.26, 2.78, 2.81, 2.84, 2.86, 2.89, 2.92, 2.95, 2.98, 3.0, 3.03, 3.07, 3.1, 3.13, 3.16, 3.19, 3.23, 3.26, 3.3, 3.34, 3.37, 3.41, 3.45, 3.49, 3.53, 3.57, 2.39, 2.37, 2.36, 2.34, 2.32, 2.31, 2.29, 2.28, 2.28, 2.31, 2.35, 2.38, 2.42, 3.25, 3.23, 3.21, 3.19, 3.17, 3.15, 3.13, 3.11, 3.09, 3.07, 3.05, 3.03, 3.01, 2.99, 2.97, 2.95, 2.93, 2.91, 2.89, 2.88, 2.86, 2.84, 2.82, 2.8, 2.79, 2.77, 2.75, 2.73, 2.71, 2.7, 2.68, 2.66, 2.64, 2.63, 2.61, 2.59, 2.57, 2.56, 2.54, 2.52, 2.51, 2.49, 2.47, 2.46, 2.44, 2.42, 2.41, 2.39, 2.37, 2.35, 2.34, 2.32, 2.3, 2.29, 2.27, 2.25, 2.24, 2.22, 2.2, 2.19, 2.17, 2.15, 1.35, 1.23, 1.22]
38 [1.41, 1.42, 1.44, 1.45, 1.47, 1.48, 1.49, 1.51, 1.52, 1.53, 1.55, 1.56, 1.57, 1.59, 1.6, 1.61, 1.63, 1.64, 1.66, 1.67, 1.68, 1.7, 1.71, 1.73, 1.74, 1.76, 1.77, 1.78, 1.8, 1.81, 1.83, 1.84, 1.86, 1.87, 1.89, 1.9, 1.92, 1.93, 1.95, 1.96, 1.98, 2.0, 2.01, 2.03, 2.04, 2.06, 2.08, 2.09, 2.11, 2.13, 2.15, 2.16, 2.18, 2.2, 1.23, 1.21, 1.2, 1.18, 1.17, 1.16, 1.15, 1.13, 1.12, 1.11, 1.1, 1.1, 1.11, 1.12, 1.13, 1.14, 1.15, 1.16, 1.17, 1.18, 1.19, 1.2, 1.21, 1.22, 1.24, 1.25, 2.77, 2.79, 2.82, 2.84, 2.87, 2.9, 2.93, 2.95, 2.98, 3.01, 3.04, 3.07, 3.11, 3.14, 3.17, 3.2, 3.24, 3.27, 3.31, 3.34, 3.38, 3.42, 3.46, 3.5, 3.54, 2.37, 2.35, 2.34, 2.32, 2.31, 2.29, 2.28, 2.26, 2.25, 2.28, 2.31, 2.35, 2.38, 3.23, 3.21, 3.19, 3.17, 3.15, 3.12, 3.1, 3.08, 3.06, 3.04, 3.02, 3.01, 2.99, 2.97, 2.95, 2.93, 2.91, 2.89, 2.87, 2.85, 2.83, 2.82, 2.8, 2.78, 2.76, 2.74, 2.73, 2.71, 2.69, 2.67, 2.65, 2.64, 2.62, 2.6, 2.58, 2.57, 2.55, 2.53, 2.51, 2.5, 2.48, 2.46, 2.45, 2.43, 2.41, 2.4, 2.38, 2.36, 2.34, 2.33, 2.31, 2.29, 2.28, 2.26, 2.24, 2.23, 2.21, 2.19, 2.18, 2.16, 2.14, 2.13, 2.11, 1.31]
39 [1.41, 1.42, 1.44, 1.45, 1.47, 1.48, 1.49, 1.51, 1.52, 1.53, 1.55, 1.56, 1.57, 1.59, 1.6, 1.61, 1.63, 1.64, 1.66, 1.67, 1.68, 1.7, 1.71, 1.73, 1.74, 1.76, 1.77, 1.78, 1.8, 1.81, 1.83, 1.84, 1.86, 1.87, 1.89, 1.9, 1.92, 1.93, 1.95, 1.96, 1.98, 2.0, 2.01, 2.03, 2.04, 2.06, 2.08, 2.09, 2.11, 2.13, 2.15, 2.16, 2.18, 2.2, 1.23, 1.21, 1.2, 1.18, 1.17, 1.16, 1.15, 1.13, 1.12, 1.11, 1.1, 1.1, 1.11, 1.12, 1.13, 1.14, 1.15, 1.16, 1.17, 1.18, 1.19, 1.2, 1.21, 1.22, 1.24, 1.25, 2.77, 2.79, 2.82, 2.84, 2.87, 2.9, 2.93, 2.95, 2.98, 3.01, 3.04, 3.07, 3.11, 3.14, 3.17, 3.2, 3.24, 3.27, 3.31, 3.34, 3.38, 3.42, 3.46, 3.5, 3.54, 2.37, 2.35, 2.34, 2.32, 2.31, 2.29, 2.28, 2.26, 2.25, 2.28, 2.31, 2.35, 2.38, 3.23, 3.21, 3.19, 3.17, 3.15, 3.12, 3.1, 3.08, 3.06, 3.04, 3.02, 3.01, 2.99, 2.97, 2.95, 2.93, 2.91, 2.89, 2.87, 2.85, 2.83, 2.82, 2.8, 2.78, 2.76, 2.74, 2.73, 2.71, 2.69, 2.67, 2.65, 2.64, 2.62, 2.6, 2.58, 2.57, 2.55, 2.53, 2.51, 2.5, 2.48, 2.46, 2.45, 2.43, 2.41, 2.4, 2.38, 2.36, 2.34, 2.33, 2.31, 2.29, 2.28, 2.26, 2.24, 2.23, 2.21, 2.19, 2.18, 2.16, 2.14, 2.13, 2.11, 1.31]
40 [1.4, 1.41, 1.42, 1.43, 1.45, 1.46, 1.47, 1.49, 1.5, 1.51, 1.53, 1.54, 1.55, 1.57, 1.58, 1.6, 1.61, 1.62, 1.64, 1.65, 1.66, 1.68, 1.69, 1.71, 1.72, 1.73, 1.75, 1.76, 1.78, 1.79, 1.81, 1.82, 1.84, 1.85, 1.87, 1.88, 1.9, 1.91, 1.93, 1.94, 1.96, 1.97, 1.99, 2.01, 2.02, 2.04, 2.05, 2.07, 2.09, 2.1, 2.12, 2.14, 2.16, 1.19, 1.17, 1.16, 1.15, 1.13, 1.12, 1.11, 1.1, 1.08, 1.07, 1.06, 1.07, 1.08, 1.08, 1.09, 1.1, 1.11, 1.12, 1.13, 1.14, 1.15, 1.16, 1.17, 1.18, 1.19, 1.2, 2.71, 2.74, 2.76, 2.79, 2.81, 2.84, 2.87, 2.89, 2.92, 2.95, 2.98, 3.01, 3.04, 3.07, 3.1, 3.14, 3.17, 3.2, 3.24, 3.27, 3.31, 3.35, 3.39, 3.42, 3.46, 3.5, 2.34, 2.32, 2.3, 2.29, 2.27, 2.26, 2.24, 2.23, 2.21, 2.24, 2.27, 2.3, 2.34, 3.2, 3.18, 3.16, 3.14, 3.11, 3.09, 3.07, 3.05, 3.03, 3.01, 3.0, 2.98, 2.96, 2.94, 2.92, 2.9, 2.88, 2.86, 2.84, 2.83, 2.81, 2.79, 2.77, 2.75, 2.73, 2.72, 2.7, 2.68, 2.66, 2.65, 2.63, 2.61, 2.59, 2.58, 2.56, 2.54, 2.53, 2.51, 2.49, 2.47, 2.46, 2.44, 2.42, 2.41, 2.39, 2.37, 2.36, 2.34, 2.32, 2.31, 2.29, 2.27, 2.26, 2.24, 2.22, 2.21, 2.19, 2.17, 2.16, 2.14, 2.12, 2.11, 2.09, 2.07]
41 [1.4, 1.41, 1.42, 1.43, 1.45, 1.46, 1.47, 1.49, 1.5, 1.51, 1.53, 1.54, 1.55, 1.57, 1.58, 1.6, 1.61, 1.62, 1.64, 1.65, 1.66, 1.68, 1.69, 1.71, 1.72, 1.73, 1.75, 1.76, 1.78, 1.79, 1.81, 1.82, 1.84, 1.85, 1.87, 1.88, 1.9, 1.91, 1.93, 1.94, 1.96, 1.97, 1.99, 2.01, 2.02, 2.04, 2.05, 2.07, 2.09, 2.1, 2.12, 2.14, 2.16, 1.19, 1.17, 1.16, 1.15, 1.13, 1.12, 1.11, 1.1, 1.08, 1.07, 1.06, 1.07, 1.08, 1.08, 1.09, 1.1, 1.11, 1.12, 1.13, 1.14, 1.15, 1.16, 1.17, 1.18, 1.19, 1.2, 2.71, 2.74, 2.76, 2.79, 2.81, 2.84, 2.87, 2.89, 2.92, 2.95, 2.98, 3.01, 3.04, 3.07, 3.1, 3.14, 3.17, 3.2, 3.24, 3.27, 3.31, 3.35, 3.39, 3.42, 3.46, 3.5, 2.34, 2.32, 2.3, 2.29, 2.27, 2.26, 2.24, 2.23, 2.21, 2.24, 2.27, 2.3, 2.34, 3.2, 3.18, 3.16, 3.14, 3.11, 3.09, 3.07, 3.05, 3.03, 3.01, 3.0, 2.98, 2.96, 2.94, 2.92, 2.9, 2.88, 2.86, 2.84, 2.83, 2.81, 2.79, 2.77, 2.75, 2.73, 2.72, 2.7, 2.68, 2.66, 2.65, 2.63, 2.61, 2.59, 2.58, 2.56, 2.54, 2.53, 2.51, 2.49, 2.47, 2.46, 2.44, 2.42, 2.41, 2.39, 2.37, 2.36, 2.34, 2.32, 2.31, 2.29, 2.27, 2.26, 2.24, 2.22, 2.21, 2.19, 2.17, 2.16, 2.14, 2.12, 2.11, 2.09, 2.07]
42 [1.4, 1.41, 1.42, 1.43, 1.45, 1.46, 1.47, 1.49, 1.5, 1.51, 1.53, 1.54, 1.55, 1.57, 1.58, 1.6, 1.61, 1.62, 1.64, 1.65, 1.66, 1.68, 1.69, 1.71, 1.72, 1.73, 1.75, 1.76, 1.78, 1.79, 1.81, 1.82, 1.84, 1.85, 1.87, 1.88, 1.9, 1.91, 1.93, 1.94, 1.96, 1.97, 1.99, 2.01, 2.02, 2.04, 2.05, 2.07, 2.09, 2.1, 2.12, 2.14, 2.16, 1.19, 1.17, 1.16, 1.15, 1.13, 1.12, 1.11, 1.1, 1.08, 1.07, 1.06, 1.07, 1.08, 1.08, 1.09, 1.1, 1.11, 1.12, 1.13, 1.14, 1.15, 1.16, 1.17, 1.18, 1.19, 1.2, 2.71, 2.74, 2.76, 2.79, 2.81, 2.84, 2.87, 2.89, 2.92, 2.95, 2.98, 3.01, 3.04, 3.07, 3.1, 3.14, 3.17, 3.2, 3.24, 3.27, 3.31, 3.35, 3.39, 3.42, 3.46, 3.5, 2.34, 2.32, 2.3, 2.29, 2.27, 2.26, 2.24, 2.23, 2.21, 2.24, 2.27, 2.3, 2.34, 3.2, 3.18, 3.16, 3.14, 3.11, 3.09, 3.07, 3.05, 3.03, 3.01, 3.0, 2.98, 2.96, 2.94, 2.92, 2.9, 2.88, 2.86, 2.84, 2.83, 2.81, 2.79, 2.77, 2.75, 2.73, 2.72, 2.7, 2.68, 2.66, 2.65, 2.63, 2.61, 2.59, 2.58, 2.56, 2.54, 2.53, 2.51, 2.49, 2.47, 2.46, 2.44, 2.42, 2.41, 2.39, 2.37, 2.36, 2.34, 2.32, 2.31, 2.29, 2.27, 2.26, 2.24, 2.22, 2.21, 2.19, 2.17, 2.16, 2.14, 2.12, 2.11, 2.09, 2.07]
43 [1.38, 1.4, 1.41, 1.42, 1.44, 1.45, 1.46, 1.48, 1.49, 1.5, 1.52, 1.53, 1.54, 1.56, 1.57, 1.58, 1.6, 1.61, 1.63, 1.64, 1.65, 1.67, 1.68, 1.7, 1.71, 1.72, 1.74, 1.75, 1.77, 1.78, 1.8, 1.81, 1.83, 1.84, 1.86, 1.87, 1.89, 1.9, 1.92, 1.93, 1.95, 1.97, 1.98, 2.0, 2.01, 2.03, 2.05, 2.06, 2.08, 2.1, 2.12, 1.14, 1.13, 1.11, 1.1, 1.09, 1.08, 1.06, 1.05, 1.04, 1.03, 1.03, 1.04, 1.04, 1.05, 1.06, 1.07, 1.08, 1.09, 1.1, 1.11, 1.12, 1.13, 1.14, 1.15, 1.16, 1.17, 2.67, 2.69, 2.72, 2.74, 2.77, 2.8, 2.82, 2.85, 2.88, 2.91, 2.94, 2.97, 3.0, 3.03, 3.06, 3.09, 3.13, 3.16, 3.19, 3.23, 3.26, 3.3, 3.34, 3.38, 3.42, 3.46, 3.47, 2.3, 2.28, 2.27, 2.25, 2.24, 2.22, 2.21, 2.2, 2.19, 2.22, 2.25, 2.29, 2.32, 3.17, 3.15, 3.13, 3.11, 3.09, 3.07, 3.05, 3.03, 3.01, 2.99, 2.97, 2.95, 2.93, 2.92, 2.9, 2.88, 2.86, 2.84, 2.82, 2.81, 2.79, 2.77, 2.75, 2.74, 2.72, 2.7, 2.68, 2.67, 2.65, 2.63, 2.62, 2.6, 2.58, 2.56, 2.55, 2.53, 2.51, 2.5, 2.48, 2.47, 2.45, 2.43, 2.42, 2.4, 2.38, 2.37, 2.35, 2.33, 2.32, 2.3, 2.29, 2.27, 2.25, 2.24, 2.22, 2.2, 2.19, 2.17, 2.16, 2.14, 2.12, 2.11, 2.09, 2.07, 2.06]
44 [1.38, 1.39, 1.4, 1.42, 1.43, 1.44, 1.46, 1.47, 1.48, 1.5, 1.51, 1.52, 1.54, 1.55, 1.57, 1.58, 1.59, 1.61, 1.62, 1.63, 1.65, 1.66, 1.68, 1.69, 1.71, 1.72, 1.74, 1.75, 1.76, 1.78, 1.79, 1.81, 1.82, 1.84, 1.85, 1.87, 1.89, 1.9, 1.92, 1.93, 1.95, 1.97, 1.98, 2.0, 2.01, 2.03, 2.05, 2.06, 2.08, 1.12, 1.11, 1.1, 1.09, 1.07, 1.06, 1.05, 1.04, 1.03, 1.02, 1.01, 1.01, 1.02, 1.03, 1.04, 1.05, 1.06, 1.07, 1.08, 1.09, 1.1, 1.11, 1.12, 1.13, 1.14, 1.15, 1.16, 2.65, 2.68, 2.7, 2.73, 2.76, 2.78, 2.81, 2.84, 2.87, 2.89, 2.92, 2.95, 2.98, 3.02, 3.05, 3.08, 3.11, 3.15, 3.18, 3.22, 3.25, 3.29, 3.33, 3.37, 3.41, 3.45, 3.46, 2.29, 2.27, 2.26, 2.24, 2.23, 2.21, 2.2, 2.18, 2.18, 2.21, 2.24, 2.27, 2.31, 3.16, 3.14, 3.12, 3.1, 3.08, 3.06, 3.04, 3.02, 3.0, 2.99, 2.97, 2.95, 2.93, 2.91, 2.89, 2.88, 2.86, 2.84, 2.82, 2.8, 2.79, 2.77, 2.75, 2.74, 2.72, 2.7, 2.68, 2.67, 2.65, 2.63, 2.62, 2.6, 2.58, 2.57, 2.55, 2.53, 2.52, 2.5, 2.48, 2.47, 2.45, 2.44, 2.42, 2.4, 2.39, 2.37, 2.36, 2.34, 2.32, 2.31, 2.29, 2.27, 2.26, 2.24, 2.23, 2.21, 2.19, 2.18, 2.16, 2.15, 2.13, 2.11, 2.1, 2.08, 2.07, 2.05]
45 [1.37, 1.38, 1.4, 1.41, 1.42, 1.44, 1.45, 1.46, 1.48, 1.49, 1.5, 1.52, 1.53, 1.54, 1.56, 1.57, 1.59, 1.6, 1.61, 1.63, 1.64, 1.66, 1.67, 1.69, 1.7, 1.71, 1.73, 1.74, 1.76, 1.77, 1.79, 1.8, 1.82, 1.83, 1.85, 1.86, 1.88, 1.9, 1.91, 1.93, 1.94, 1.96, 1.98, 1.99, 2.01, 2.03, 2.04, 2.06, 1.1, 1.09, 1.07, 1.06, 1.05, 1.04, 1.03, 1.02, 1.01, 1.0, 0.99, 1.0, 1.0, 1.01, 1.02, 1.03, 1.04, 1.05, 1.06, 1.07, 1.08, 1.09, 1.1, 1.11, 1.12, 1.13, 1.14, 2.63, 2.66, 2.68, 2.71, 2.73, 2.76, 2.79, 2.81, 2.84, 2.87, 2.9, 2.93, 2.96, 2.99, 3.02, 3.05, 3.09, 3.12, 3.15, 3.19, 3.22, 3.26, 3.3, 3.34, 3.38, 3.42, 3.45, 2.28, 2.26, 2.25, 2.23, 2.22, 2.2, 2.19, 2.18, 2.16, 2.18, 2.21, 2.24, 2.28, 2.31, 3.14, 3.12, 3.1, 3.08, 3.06, 3.04, 3.02, 3.0, 2.98, 2.96, 2.95, 2.93, 2.91, 2.89, 2.87, 2.86, 2.84, 2.82, 2.8, 2.79, 2.77, 2.75, 2.73, 2.72, 2.7, 2.68, 2.67, 2.65, 2.63, 2.62, 2.6, 2.58, 2.57, 2.55, 2.54, 2.52, 2.5, 2.49, 2.47, 2.45, 2.44, 2.42, 2.41, 2.39, 2.37, 2.36, 2.34, 2.33, 2.31, 2.3, 2.28, 2.26, 2.25, 2.23, 2.22, 2.2, 2.18, 2.17, 2.15, 2.14, 2.12, 2.11, 2.09, 2.07, 2.06, 2.04]
46 [1.36, 1.38, 1.39, 1.4, 1.42, 1.43, 1.44, 1.46, 1.47, 1.48, 1.5, 1.51, 1.52, 1.54, 1.55, 1.57, 1.58, 1.59, 1.61, 1.62, 1.64, 1.65, 1.67, 1.68, 1.69, 1.71, 1.72, 1.74, 1.75, 1.77, 1.78, 1.8, 1.81, 1.83, 1.84, 1.86, 1.88, 1.89, 1.91, 1.92, 1.94, 1.96, 1.97, 1.99, 2.01, 2.02, 1.09, 1.07, 1.06, 1.05, 1.04, 1.02, 1.01, 1.0, 0.99, 0.98, 0.97, 0.97, 0.98, 0.99, 1.0, 1.01, 1.01, 1.02, 1.03, 1.04, 1.05, 1.06, 1.07, 1.08, 1.09, 1.1, 1.11, 1.12, 2.61, 2.63, 2.66, 2.68, 2.71, 2.74, 2.76, 2.79, 2.82, 2.85, 2.88, 2.9, 2.94, 2.97, 3.0, 3.03, 3.06, 3.1, 3.13, 3.16, 3.2, 3.24, 3.27, 3.31, 3.35, 3.39, 3.43, 2.26, 2.25, 2.24, 2.22, 2.21, 2.19, 2.18, 2.16, 2.15, 2.15, 2.19, 2.22, 2.25, 2.28, 3.13, 3.11, 3.09, 3.07, 3.05, 3.03, 3.01, 3.0, 2.98, 2.96, 2.94, 2.92, 2.91, 2.89, 2.87, 2.85, 2.84, 2.82, 2.8, 2.78, 2.77, 2.75, 2.73, 2.72, 2.7, 2.68, 2.67, 2.65, 2.63, 2.62, 2.6, 2.58, 2.57, 2.55, 2.54, 2.52, 2.5, 2.49, 2.47, 2.46, 2.44, 2.42, 2.41, 2.39, 2.38, 2.36, 2.35, 2.33, 2.32, 2.3, 2.28, 2.27, 2.25, 2.24, 2.22, 2.21, 2.19, 2.17, 2.16, 2.14, 2.13, 2.11, 2.1, 2.08, 2.07, 2.05, 2.03]
47 [1.36, 1.37, 1.38, 1.4, 1.41, 1.42, 1.44, 1.45, 1.47, 1.48, 1.49, 1.51, 1.52, 1.53, 1.55, 1.56, 1.58, 1.59, 1.6, 1.62, 1.63, 1.65, 1.66, 1.68, 1.69, 1.71, 1.72, 1.73, 1.75, 1.76, 1.78, 1.8, 1.81, 1.83, 1.84, 1.86, 1.87, 1.89, 1.91, 1.92, 1.94, 1.95, 1.97, 1.99, 2.0, 1.06, 1.05, 1.04, 1.02, 1.01, 1.0, 0.99, 0.98, 0.97, 0.96, 0.95, 0.96, 0.97, 0.97, 0.98, 0.99, 1.0, 1.01, 1.02, 1.03, 1.04, 1.05, 1.06, 1.07, 1.08, 1.09, 1.1, 1.11, 2.59, 2.62, 2.64, 2.67, 2.69, 2.72, 2.75, 2.77, 2.8, 2.83, 2.86, 2.89, 2.92, 2.95, 2.98, 3.01, 3.04, 3.08, 3.11, 3.15, 3.18, 3.22, 3.26, 3.29, 3.33, 3.37, 3.42, 2.25, 2.24, 2.22, 2.21, 2.2, 2.18, 2.17, 2.15, 2.14, 2.14, 2.17, 2.2, 2.23, 2.27, 3.12, 3.1, 3.08, 3.07, 3.05, 3.03, 3.01, 2.99, 2.97, 2.96, 2.94, 2.92, 2.9, 2.88, 2.87, 2.85, 2.83, 2.82, 2.8, 2.78, 2.76, 2.75, 2.73, 2.71, 2.7, 2.68, 2.67, 2.65, 2.63, 2.62, 2.6, 2.59, 2.57, 2.55, 2.54, 2.52, 2.51, 2.49, 2.47, 2.46, 2.44, 2.43, 2.41, 2.4, 2.38, 2.37, 2.35, 2.33, 2.32, 2.3, 2.29, 2.27, 2.26, 2.24, 2.23, 2.21, 2.2, 2.18, 2.17, 2.15, 2.14, 2.12, 2.1, 2.09, 2.07, 2.06, 2.04, 2.03]
48 [1.35, 1.36, 1.38, 1.39, 1.41, 1.42, 1.43, 1.45, 1.46, 1.47, 1.49, 1.5, 1.52, 1.53, 1.54, 1.56, 1.57, 1.59, 1.6, 1.61, 1.63, 1.64, 1.66, 1.67, 1.69, 1.7, 1.72, 1.73, 1.75, 1.76, 1.78, 1.79, 1.81, 1.82, 1.84, 1.86, 1.87, 1.89, 1.91, 1.92, 1.94, 1.96, 1.04, 1.03, 1.02, 1.01, 0.99, 0.98, 0.97, 0.96, 0.95, 0.94, 0.93, 0.93, 0.94, 0.94, 0.95, 0.96, 0.97, 0.98, 0.99, 1.0, 1.0, 1.01, 1.02, 1.03, 1.04, 1.05, 1.06, 1.07, 1.08, 2.56, 2.58, 2.61, 2.63, 2.66, 2.68, 2.71, 2.74, 2.77, 2.79, 2.82, 2.85, 2.88, 2.91, 2.94, 2.97, 3.01, 3.04, 3.07, 3.11, 3.14, 3.18, 3.22, 3.26, 3.29, 3.33, 3.37, 3.41, 2.23, 2.21, 2.2, 2.19, 2.17, 2.16, 2.15, 2.13, 2.12, 2.13, 2.16, 2.19, 2.23, 2.26, 3.1, 3.08, 3.07, 3.05, 3.03, 3.01, 2.99, 2.98, 2.96, 2.94, 2.92, 2.91, 2.89, 2.87, 2.85, 2.84, 2.82, 2.8, 2.79, 2.77, 2.75, 2.74, 2.72, 2.71, 2.69, 2.67, 2.66, 2.64, 2.63, 2.61, 2.6, 2.58, 2.56, 2.55, 2.53, 2.52, 2.5, 2.49, 2.47, 2.46, 2.44, 2.43, 2.41, 2.4, 2.38, 2.37, 2.35, 2.34, 2.32, 2.31, 2.29, 2.27, 2.26, 2.24, 2.23, 2.21, 2.2, 2.18, 2.17, 2.15, 2.14, 2.12, 2.11, 2.09, 2.08, 2.06, 2.05, 2.03, 1.25]
49 [1.35, 1.36, 1.38, 1.39, 1.41, 1.42, 1.43, 1.45, 1.46, 1.47, 1.49, 1.5, 1.52, 1.53, 1.54, 1.56, 1.57, 1.59, 1.6, 1.62, 1.63, 1.65, 1.66, 1.68, 1.69, 1.71, 1.72, 1.74, 1.75, 1.77, 1.78, 1.8, 1.81, 1.83, 1.85, 1.86, 1.88, 1.89, 1.91, 1.93, 1.94, 1.03, 1.02, 1.0, 0.99, 0.98, 0.97, 0.96, 0.95, 0.94, 0.93, 0.92, 0.92, 0.93, 0.94, 0.95, 0.95, 0.96, 0.97, 0.98, 0.99, 1.0, 1.01, 1.02, 1.03, 1.04, 1.05, 1.06, 1.07, 2.52, 2.55, 2.57, 2.6, 2.62, 2.65, 2.68, 2.7, 2.73, 2.76, 2.79, 2.82, 2.85, 2.88, 2.91, 2.94, 2.97, 3.0, 3.04, 3.07, 3.1, 3.14, 3.18, 3.21, 3.25, 3.29, 3.33, 3.37, 3.4, 2.22, 2.21, 2.2, 2.18, 2.17, 2.16, 2.14, 2.13, 2.12, 2.13, 2.16, 2.19, 2.23, 2.26, 3.1, 3.08, 3.07, 3.05, 3.03, 3.01, 2.99, 2.98, 2.96, 2.94, 2.93, 2.91, 2.89, 2.87, 2.86, 2.84, 2.82, 2.81, 2.79, 2.78, 2.76, 2.74, 2.73, 2.71, 2.7, 2.68, 2.66, 2.65, 2.63, 2.62, 2.6, 2.59, 2.57, 2.56, 2.54, 2.53, 2.51, 2.5, 2.48, 2.46, 2.45, 2.43, 2.42, 2.4, 2.39, 2.38, 2.36, 2.35, 2.33, 2.32, 2.3, 2.29, 2.27, 2.26, 2.24, 2.23, 2.21, 2.2, 2.18, 2.17, 2.15, 2.14, 2.12, 2.11, 2.09, 2.08, 2.06, 2.05, 1.28, 1.19]
