0 -3.1415925
0 -3.1415925
0 -3.1415925
0 3.1415925
0 -0.0
0 -0.0
0 -0.0
0 -0.0
0 -0.0
1 -3.1415925
1 -3.1415925
1 -3.1415925
1 3.1415925
1 -0.0
1 -0.0
1 -0.0
1 -0.0
1 -0.0
2 3.1307247
2 3.1274035
2 3.1198518
2 3.0790155
2 0.06243721
2 0.021725914
2 0.014184485
2 0.010868024
2 -1.9761E-4
3 3.1307247
3 3.1274035
3 3.1198518
3 3.0790155
3 0.06243721
3 0.021725914
3 0.014184485
3 0.010868024
3 -1.9761E-4
4 3.127087
4 3.1226513
4 3.1125665
4 3.0580454
4 0.083145596
4 0.028983332
4 0.01892789
4 0.014505531
4 -4.265024E-4
5 3.129517
5 3.1257997
5 3.11735
5 3.0712588
5 0.068552814
5 0.024053156
5 0.01573302
5 0.012075638
5 -0.0022681307
6 3.1308572
6 3.127512
6 3.119911
6 3.0777895
6 0.059816577
6 0.021258231
6 0.013946736
6 0.010735456
6 -0.0057003656
7 3.13412
7 3.1317465
7 3.1263556
7 3.0956993
7 0.04046052
7 0.014661934
7 0.009664362
7 0.0074727996
7 -0.011106014
8 3.13412
8 3.1317465
8 3.1263556
8 3.0956993
8 0.04046052
8 0.014661934
8 0.009664362
8 0.0074727996
8 -0.011106014
9 -3.1402442
9 -3.1398108
9 -3.1388278
9 -3.1331549
9 -0.00719604
9 -0.0026337916
9 -0.0017403909
9 -0.0013483955
9 -0.01401461
10 -3.1396828
10 -3.1390648
10 -3.1376624
10 -3.1294906
10 -0.010084105
10 -0.003717645
10 -0.0024607724
10 -0.0019098119
10 -0.016034046
11 -3.1396828
11 -3.1390648
11 -3.1376624
11 -3.1294906
11 -0.010084105
11 -0.003717645
11 -0.0024607724
11 -0.0019098119
11 -0.016034046
12 -3.13938
12 -3.1386507
12 -3.1369965
12 -3.1271
12 -0.011374071
12 -0.0042695072
12 -0.0028387166
12 -0.0022126052
12 -0.021259952
13 -3.1396606
13 -3.1390176
13 -3.1375594
13 -3.1287122
13 -0.009799569
13 -0.0037118602
13 -0.0024735136
13 -0.0019320252
13 -0.02394933
14 -3.139576
14 -3.1389103
14 -3.1374002
14 -3.1283455
14 -0.010344947
14 -0.0038887567
14 -0.0025864213
14 -0.002016628
14 -0.021687992
15 -3.139576
15 -3.1389103
15 -3.1374002
15 -3.1283455
15 -0.010344947
15 -0.0038887567
15 -0.0025864213
15 -0.002016628
15 -0.021687992
16 -3.1400821
16 -3.139574
16 -3.1384225
16 -3.131328
16 -0.007555843
16 -0.0028889445
16 -0.0019296999
16 -0.0015105141
16 -0.026803507
17 -3.1400821
17 -3.139574
17 -3.1384225
17 -3.131328
17 -0.007555843
17 -0.0028889445
17 -0.0019296999
17 -0.0015105141
17 -0.026803507
18 3.1405275
18 3.1401682
18 3.13935
18 3.1342366
18 0.0052524246
18 0.0020251572
18 0.0013558229
18 0.0010653117
18 -0.029404111
19 3.1405275
19 3.1401682
19 3.13935
19 3.1342366
19 0.0052524246
19 0.0020251572
19 0.0013558229
19 0.0010653117
19 -0.029404111
20 3.1347961
20 3.1322625
20 3.1264622
20 3.0829313
20 0.02932864
20 0.012331481
20 0.008452078
20 0.006796659
20 -0.058779687
21 3.1347961
21 3.1322625
21 3.1264622
21 3.0829313
21 0.02932864
21 0.012331481
21 0.008452078
21 0.006796659
21 -0.058779687
22 3.1328373
22 3.1292171
22 3.1207917
22 3.0371258
22 0.03316318
22 0.015107409
22 0.010609735
22 0.008755497
22 -0.09130868
23 3.1328373
23 3.1292171
23 3.1207917
23 3.0371258
23 0.03316318
23 0.015107409
23 0.010609735
23 0.008755497
23 -0.09130868
24 3.134007
24 3.1304812
24 3.122011
24 2.9756186
24 0.025093906
24 0.012368274
24 0.008920215
24 0.0075856945
24 -0.12964267
25 3.134007
25 3.1304812
25 3.122011
25 2.9756186
25 0.025093906
25 0.012368274
25 0.008920215
25 0.0075856945
25 -0.12964267
26 3.1349072
26 3.1313612
26 3.122368
26 1.5848958
26 0.019234203
26 0.010233653
26 0.0075954036
26 0.006685418
26 -0.17444089
27 3.1349072
27 3.1313612
27 3.122368
27 1.5848958
27 0.019234203
27 0.010233653
27 0.0075954036
27 0.006685418
27 -0.17444089
28 3.137653
28 3.1352935
28 3.1288612
28 0.089538015
28 0.010052237
28 0.0056876387
28 0.004329961
28 0.003939629
28 -0.21730801
29 3.137653
29 3.1352935
29 3.1288612
29 0.089538015
29 0.010052237
29 0.0056876387
29 0.004329961
29 0.003939629
29 -0.21730801
30 3.1403782
30 3.1395822
30 3.1372173
30 0.014739978
30 0.00280852
30 0.0016629625
30 0.0012918334
30 0.0012145686
30 -0.2537367
31 3.1403782
31 3.1395822
31 3.1372173
31 0.014739978
31 0.00280852
31 0.0016629625
31 0.0012918334
31 0.0012145686
31 -0.2537367
32 -3.140542
32 -3.1397564
32 -3.1372907
32 -0.009280553
32 -0.0022991735
32 -0.0014088929
32 -0.0011124834
32 -0.0010504907
32 -0.28451955
33 -3.140542
33 -3.1397564
33 -3.1372907
33 -0.009280553
33 -0.0022991735
33 -0.0014088929
33 -0.0011124834
33 -0.0010504907
33 -0.28451955
34 -3.1390746
34 -3.1370826
34 -3.1302798
34 -0.017984208
34 -0.0051845284
34 -0.003258276
34 -0.0026048375
34 -0.0025179144
34 -0.30892822
35 -3.1390746
35 -3.1370826
35 -3.1302798
35 -0.017984208
35 -0.0051845284
35 -0.003258276
35 -0.0026048375
35 -0.0025179144
35 -0.30892822
36 -3.1388574
36 -3.136545
36 -3.1279461
36 -0.016552774
36 -0.0053534308
36 -0.0034405938
36 -0.002781969
36 -0.0027350816
36 -0.33209923
37 -3.1388574
37 -3.136545
37 -3.1279461
37 -0.016552774
37 -0.0053534308
37 -0.0034405938
37 -0.002781969
37 -0.0027350816
37 -0.33209923
38 -3.140289
38 -3.139084
38 -3.1340833
38 -0.006738429
38 -0.0024271263
38 -0.0015975367
38 -0.0013081873
38 -0.0013033734
38 -0.3585992
39 -3.140289
39 -3.139084
39 -3.1340833
39 -0.006738429
39 -0.0024271263
39 -0.0015975367
39 -0.0013081873
39 -0.0013033734
39 -0.3585992
40 3.14038
40 3.1392295
40 3.1336546
40 0.0053633912
40 0.0020991077
40 0.0014106445
40 0.0011684626
40 0.0012128259
40 -0.3831764
41 3.14038
41 3.1392295
41 3.1336546
41 0.0053633912
41 0.0020991077
41 0.0014106445
41 0.0011684626
41 0.0012128259
41 -0.3831764
42 3.136959
42 3.132221
42 3.1065683
42 0.018842587
42 0.007795665
42 0.0053188843
42 0.0044431323
42 0.0046337363
42 -0.40201017
43 3.1340332
43 3.1259546
43 3.0776224
43 0.028891932
43 0.012399649
43 0.008549976
43 0.0071856575
43 0.0075595705
43 -0.4156559
44 3.1329863
44 3.1235783
44 3.0638697
44 0.03186316
44 0.013925948
44 0.009654607
44 0.008139767
44 0.008606484
44 -0.42284384
45 3.134007
45 3.1256921
45 3.0724084
45 0.027953178
45 0.012247147
45 0.008497121
45 0.0071671265
45 0.0075858044
45 -0.42386785
46 3.1371577
46 3.1323154
46 3.101289
46 0.016342925
46 0.007153759
46 0.0049619605
46 0.004184729
46 0.004435075
46 -0.42354423
47 3.1407104
47 3.1397748
47 3.133697
47 0.0032036875
47 0.001401937
47 9.723008E-4
47 8.2002097E-4
47 8.825132E-4
47 -0.42347294
48 -3.1395466
48 -3.1372628
48 -3.122792
48 -0.0076334774
48 -0.0033403956
48 -0.002316832
48 -0.0019537546
48 -0.002045903
48 -0.42342407
49 -3.138874
49 -3.1358473
49 -3.1165628
49 -0.010102911
49 -0.004425716
49 -0.0030706008
49 -0.002589879
49 -0.002718322
49 -0.42385197
