0 [10.0, 10.0, 10.0, 10.0, 10.0, 10.0, 10.0, 10.0, 10.0, 10.0, 10.0, 10.0, 10.0, 10.0, 10.0, 10.0, 10.0, 10.0, 10.0, 10.0, 10.0, 10.0, 10.0, 10.0, 10.0, 10.0, 10.0, 10.0, 10.0, 10.0, 10.0, 10.0, 10.0, 10.0, 10.0, 10.0, 10.0, 10.0, 10.0, 10.0, 10.0, 10.0, 10.0, 10.0, 10.0, 10.0, 10.0, 10.0, 10.0, 10.0, 10.0, 10.0, 10.0, 10.0, 10.0, 10.0, 10.0, 10.0, 10.0, 10.0, 10.0, 10.0, 10.0, 10.0, 10.0, 10.0, 10.0, 10.0, 10.0, 10.0, 10.0, 10.0, 10.0, 10.0, 10.0, 10.0, 10.0, 10.0, 10.0, 10.0, 10.0, 10.0, 10.0, 10.0, 10.0, 10.0, 10.0, 10.0, 10.0, 10.0, 10.0, 10.0, 10.0, 10.0, 10.0, 10.0, 10.0, 10.0, 10.0, 10.0, 10.0, 10.0, 10.0, 10.0, 10.0, 10.0, 10.0, 10.0, 10.0, 10.0, 10.0, 10.0, 10.0, 10.0, 10.0, 10.0, 10.0, 10.0, 10.0, 10.0, 10.0, 10.0, 10.0, 10.0, 10.0, 10.0, 10.0, 10.0, 10.0, 10.0, 10.0, 10.0, 10.0, 10.0, 10.0, 10.0, 10.0, 10.0, 10.0, 10.0, 10.0, 10.0, 10.0, 10.0, 10.0, 10.0, 10.0, 10.0, 10.0, 10.0, 10.0, 10.0, 10.0, 10.0, 10.0, 10.0, 10.0, 10.0, 10.0, 10.0, 10.0, 10.0, 10.0, 10.0, 10.0, 10.0, 10.0, 10.0, 10.0, 10.0, 10.0, 10.0, 10.0, 10.0, 10.0, 10.0, 10.0, 10.0, 10.0, 10.0, 10.0, 10.0]
1 [1.78, 1.81, 1.85, 1.88, 1.91, 1.94, 1.98, 2.01, 2.05, 2.09, 2.12, 2.16, 2.2, 2.2, 2.2, 2.2, 2.2, 2.2, 2.2, 2.2, 1.53, 1.53, 1.53, 1.53, 1.53, 1.53, 1.53, 1.53, 1.53, 1.53, 1.53, 1.56, 1.59, 1.62, 1.66, 1.69, 1.73, 2.2, 2.2, 2.2, 2.2, 2.2, 2.2, 2.2, 2.2, 2.2, 2.2, 2.2, 2.2, 2.2, 2.2, 2.2, 2.2, 2.2, 2.2, 2.2, 2.2, 2.2, 2.2, 2.2, 2.2, 2.2, 2.2, 2.2, 2.2, 2.2, 2.2, 2.2, 2.2, 2.2, 2.2, 2.2, 2.2, 2.2, 2.2, 2.2, 2.2, 2.2, 2.2, 1.11, 1.11, 1.11, 1.11, 1.11, 1.11, 1.11, 1.11, 1.11, 1.11, 1.11, 1.11, 1.11, 1.11, 1.11, 1.11, 1.11, 1.11, 1.11, 1.11, 2.2, 2.2, 2.2, 2.2, 2.2, 2.2, 2.2, 2.2, 2.2, 2.2, 2.2, 2.2, 2.2, 2.2, 2.2, 2.2, 2.2, 2.2, 2.2, 2.2, 2.2, 2.2, 2.2, 2.2, 2.2, 2.2, 2.2, 2.2, 2.2, 2.2, 2.2, 2.2, 2.2, 2.2, 2.2, 2.2, 2.2, 2.2, 2.2, 2.2, 2.2, 2.2, 2.2, 2.2, 2.2, 2.2, 2.2, 2.2, 2.2, 2.2, 2.2, 2.2, 2.2, 2.2, 2.2, 2.2, 2.2, 2.2, 2.2, 2.2, 2.2, 2.2, 2.2, 2.2, 2.2, 2.2, 2.2, 2.2, 2.2, 1.51, 1.48, 1.46, 1.43, 1.4, 1.38, 1.36, 1.33, 1.33, 1.33, 1.33, 1.33, 1.33, 1.33]
2 [1.78, 1.81, 1.85, 1.88, 1.91, 1.95, 1.98, 2.01, 2.05, 2.09, 2.12, 2.16, 2.2, 2.2, 2.2, 2.2, 2.2, 2.2, 2.2, 2.2, 1.53, 1.53, 1.53, 1.53, 1.53, 1.53, 1.53, 1.53, 1.53, 1.53, 1.53, 1.56, 1.59, 1.62, 1.66, 1.69, 2.2, 2.2, 2.2, 2.2, 2.2, 2.2, 2.2, 2.2, 2.2, 2.2, 2.2, 2.2, 2.2, 2.2, 2.2, 2.2, 2.2, 2.2, 2.2, 2.2, 2.2, 2.2, 2.2, 2.2, 2.2, 2.2, 2.2, 2.2, 2.2, 2.2, 2.2, 2.2, 2.2, 2.2, 2.2, 2.2, 2.2, 2.2, 2.2, 2.2, 2.2, 2.2, 2.2, 1.1, 1.1, 1.1, 1.1, 1.1, 1.1, 1.1, 1.1, 1.1, 1.1, 1.1, 1.1, 1.1, 1.1, 1.1, 1.1, 1.1, 1.1, 1.1, 1.1, 2.2, 2.2, 2.2, 2.2, 2.2, 2.2, 2.2, 2.2, 2.2, 2.2, 2.2, 2.2, 2.2, 2.2, 2.2, 2.2, 2.2, 2.2, 2.2, 2.2, 2.2, 2.2, 2.2, 2.2, 2.2, 2.2, 2.2, 2.2, 2.2, 2.2, 2.2, 2.2, 2.2, 2.2, 2.2, 2.2, 2.2, 2.2, 2.2, 2.2, 2.2, 2.2, 2.2, 2.2, 2.2, 2.2, 2.2, 2.2, 2.2, 2.2, 2.2, 2.2, 2.2, 2.2, 2.2, 2.2, 2.2, 2.2, 2.2, 2.2, 2.2, 2.2, 2.2, 2.2, 2.2, 2.2, 2.2, 2.2, 2.2, 1.51, 1.48, 1.46, 1.43, 1.4, 1.38, 1.36, 1.33, 1.33, 1.33, 1.33, 1.33, 1.33, 1.33]
3 [1.79, 1.82, 1.86, 1.89, 1.92, 1.96, 1.99, 2.03, 2.06, 2.1, 2.14, 2.17, 2.17, 2.17, 2.17, 2.17, 2.17, 2.17, 1.5, 1.5, 1.5, 1.5, 1.5, 1.5, 1.5, 1.5, 1.5, 1.5, 1.5, 1.51, 1.54, 1.57, 1.61, 1.64, 1.68, 2.17, 2.17, 2.17, 2.17, 2.17, 2.17, 2.17, 2.17, 2.17, 2.17, 2.17, 2.17, 2.17, 2.17, 2.17, 2.17, 2.17, 2.17, 2.17, 2.17, 2.17, 2.17, 2.17, 2.17, 2.17, 2.17, 2.17, 2.17, 2.17, 2.17, 2.17, 2.17, 2.17, 2.17, 2.17, 2.17, 2.17, 2.17, 2.17, 2.17, 2.17, 2.17, 2.17, 1.08, 1.08, 1.08, 1.08, 1.08, 1.08, 1.08, 1.08, 1.08, 1.08, 1.08, 1.08, 1.08, 1.08, 1.08, 1.08, 1.08, 1.08, 1.08, 1.08, 1.08, 2.18, 2.18, 2.18, 2.18, 2.18, 2.18, 2.18, 2.18, 2.18, 2.18, 2.18, 2.18, 2.18, 2.18, 2.18, 2.18, 2.18, 2.18, 2.18, 2.18, 2.18, 2.18, 2.18, 2.18, 2.18, 2.18, 2.18, 2.18, 2.18, 2.18, 2.18, 2.18, 2.18, 2.18, 2.18, 2.18, 2.18, 2.18, 2.18, 2.18, 2.18, 2.18, 2.18, 2.18, 2.18, 2.18, 2.18, 2.18, 2.18, 2.18, 2.18, 2.18, 2.18, 2.18, 2.18, 2.18, 2.18, 2.18, 2.18, 2.18, 2.18, 2.18, 2.18, 2.18, 2.18, 2.18, 2.18, 2.18, 2.18, 1.5, 1.47, 1.45, 1.42, 1.4, 1.37, 1.35, 1.32, 1.31, 1.31, 1.31, 1.31, 1.31, 1.31]
4 [1.81, 1.84, 1.87, 1.91, 1.94, 1.98, 2.01, 2.05, 2.08, 2.11, 2.11, 2.11, 2.11, 2.11, 2.12, 2.12, 1.45, 1.45, 1.45, 1.45, 1.45, 1.45, 1.45, 1.45, 1.45, 1.45, 1.45, 1.48, 1.51, 1.54, 1.57, 1.6, 1.63, 2.12, 2.12, 2.12, 2.12, 2.12, 2.12, 2.12, 2.12, 2.12, 2.13, 2.13, 2.13, 2.13, 2.13, 2.13, 2.13, 2.13, 2.13, 2.13, 2.13, 2.13, 2.13, 2.13, 2.13, 2.13, 2.13, 2.13, 2.13, 2.13, 2.13, 2.13, 2.13, 2.13, 2.13, 2.13, 2.13, 2.13, 2.13, 2.13, 2.13, 2.13, 2.13, 2.13, 1.04, 1.04, 1.04, 1.04, 1.04, 1.04, 1.04, 1.04, 1.04, 1.04, 1.04, 1.04, 1.04, 1.04, 1.04, 1.04, 1.04, 1.04, 1.04, 1.04, 1.04, 1.04, 2.14, 2.14, 2.14, 2.14, 2.14, 2.14, 2.14, 2.14, 2.14, 2.14, 2.14, 2.14, 2.14, 2.14, 2.14, 2.14, 2.14, 2.14, 2.15, 2.15, 2.15, 2.15, 2.15, 2.15, 2.15, 2.15, 2.15, 2.15, 2.15, 2.15, 2.15, 2.15, 2.15, 2.15, 2.15, 2.15, 2.15, 2.15, 2.15, 2.15, 2.15, 2.15, 2.15, 2.15, 2.15, 2.15, 2.15, 2.15, 2.15, 2.15, 2.15, 2.16, 2.16, 2.16, 2.16, 2.16, 2.16, 2.16, 2.16, 2.16, 2.16, 2.16, 2.16, 2.16, 2.16, 2.16, 2.16, 2.16, 2.16, 2.16, 1.48, 1.45, 1.43, 1.4, 1.38, 1.36, 1.33, 1.31, 1.29, 1.29, 1.29, 1.29, 1.29, 1.29]
5 [1.81, 1.84, 1.88, 1.91, 1.94, 1.98, 2.01, 2.05, 2.07, 2.07, 2.07, 2.08, 2.08, 2.08, 2.08, 1.41, 1.41, 1.41, 1.41, 1.42, 1.42, 1.42, 1.42, 1.42, 1.42, 1.42, 1.45, 1.48, 1.51, 1.54, 1.57, 1.6, 2.08, 2.08, 2.08, 2.09, 2.09, 2.09, 2.09, 2.09, 2.09, 2.09, 2.09, 2.09, 2.09, 2.09, 2.09, 2.09, 2.09, 2.09, 2.09, 2.09, 2.09, 2.09, 2.09, 2.09, 2.09, 2.09, 2.09, 2.09, 2.09, 2.09, 2.09, 2.09, 2.09, 2.09, 2.09, 2.1, 2.1, 2.1, 2.1, 2.1, 2.1, 2.1, 2.1, 1.0, 1.0, 1.0, 1.0, 1.0, 1.0, 1.01, 1.01, 1.01, 1.01, 1.01, 1.01, 1.01, 1.01, 1.01, 1.01, 1.01, 1.01, 1.01, 1.01, 1.01, 1.01, 1.01, 2.1, 2.1, 2.1, 2.1, 2.11, 2.11, 2.11, 2.11, 2.11, 2.11, 2.11, 2.11, 2.11, 2.11, 2.11, 2.11, 2.11, 2.11, 2.11, 2.11, 2.11, 2.11, 2.11, 2.11, 2.11, 2.11, 2.11, 2.11, 2.11, 2.11, 2.11, 2.11, 2.11, 2.11, 2.11, 2.11, 2.11, 2.12, 2.12, 2.12, 2.12, 2.12, 2.12, 2.12, 2.12, 2.12, 2.12, 2.12, 2.12, 2.12, 2.12, 2.12, 2.12, 2.12, 2.12, 2.12, 2.12, 2.12, 2.12, 2.12, 2.12, 2.12, 2.12, 2.12, 2.13, 2.13, 2.13, 2.13, 2.13, 2.13, 2.13, 2.13, 1.43, 1.4, 1.38, 1.36, 1.33, 1.31, 1.29, 1.26, 1.25, 1.25, 1.25, 1.25]
6 [1.83, 1.86, 1.89, 1.93, 1.96, 2.0, 2.02, 2.02, 2.02, 2.03, 2.03, 2.03, 1.37, 1.37, 1.37, 1.37, 1.37, 1.37, 1.37, 1.37, 1.37, 1.37, 1.37, 1.39, 1.41, 1.44, 1.47, 1.5, 1.53, 1.56, 2.04, 2.04, 2.04, 2.04, 2.04, 2.04, 2.04, 2.04, 2.04, 2.04, 2.04, 2.04, 2.04, 2.04, 2.05, 2.05, 2.05, 2.05, 2.05, 2.05, 2.05, 2.05, 2.05, 2.05, 2.05, 2.05, 2.05, 2.05, 2.05, 2.05, 2.05, 2.05, 2.05, 2.05, 2.05, 2.06, 2.06, 2.06, 2.06, 2.06, 2.06, 2.06, 2.06, 2.06, 0.97, 0.97, 0.97, 0.97, 0.97, 0.97, 0.97, 0.97, 0.97, 0.97, 0.97, 0.97, 0.97, 0.97, 0.97, 0.97, 0.97, 0.97, 0.97, 0.97, 0.97, 0.97, 0.97, 0.97, 2.07, 2.07, 2.07, 2.07, 2.07, 2.07, 2.07, 2.07, 2.07, 2.07, 2.07, 2.07, 2.07, 2.07, 2.07, 2.08, 2.08, 2.08, 2.08, 2.08, 2.08, 2.08, 2.08, 2.08, 2.08, 2.08, 2.08, 2.08, 2.08, 2.08, 2.08, 2.08, 2.08, 2.08, 2.08, 2.08, 2.09, 2.09, 2.09, 2.09, 2.09, 2.09, 2.09, 2.09, 2.09, 2.09, 2.09, 2.09, 2.09, 2.09, 2.09, 2.09, 2.09, 2.09, 2.09, 2.1, 2.1, 2.1, 2.1, 2.1, 2.1, 2.1, 2.1, 2.1, 2.1, 2.1, 2.1, 2.1, 2.1, 2.1, 2.1, 2.11, 1.41, 1.39, 1.37, 1.34, 1.32, 1.3, 1.28, 1.25, 1.23, 1.22, 1.22, 1.22]
7 [1.82, 1.85, 1.89, 1.92, 1.96, 1.99, 2.01, 2.01, 2.01, 2.01, 2.01, 2.01, 1.36, 1.36, 1.36, 1.36, 1.36, 1.36, 1.36, 1.36, 1.36, 1.36, 1.36, 1.38, 1.41, 1.43, 1.46, 1.49, 1.52, 1.56, 2.03, 2.03, 2.03, 2.03, 2.03, 2.03, 2.03, 2.03, 2.03, 2.03, 2.03, 2.03, 2.03, 2.03, 2.03, 2.03, 2.03, 2.03, 2.03, 2.03, 2.03, 2.03, 2.04, 2.04, 2.04, 2.04, 2.04, 2.04, 2.04, 2.04, 2.04, 2.04, 2.04, 2.04, 2.04, 2.04, 2.04, 2.04, 2.04, 2.04, 2.04, 2.04, 2.04, 2.04, 0.95, 0.95, 0.95, 0.95, 0.95, 0.95, 0.95, 0.95, 0.95, 0.95, 0.95, 0.95, 0.95, 0.95, 0.95, 0.95, 0.95, 0.95, 0.95, 0.95, 0.96, 0.96, 0.96, 0.96, 2.05, 2.05, 2.05, 2.05, 2.05, 2.05, 2.06, 2.06, 2.06, 2.06, 2.06, 2.06, 2.06, 2.06, 2.06, 2.06, 2.06, 2.06, 2.06, 2.06, 2.06, 2.06, 2.06, 2.06, 2.06, 2.06, 2.06, 2.06, 2.06, 2.06, 2.06, 2.07, 2.07, 2.07, 2.07, 2.07, 2.07, 2.07, 2.07, 2.07, 2.07, 2.07, 2.07, 2.07, 2.07, 2.07, 2.07, 2.07, 2.07, 2.07, 2.07, 2.07, 2.07, 2.08, 2.08, 2.08, 2.08, 2.08, 2.08, 2.08, 2.08, 2.08, 2.08, 2.08, 2.08, 2.08, 2.08, 2.08, 2.08, 2.08, 2.09, 2.09, 2.09, 1.39, 1.37, 1.35, 1.32, 1.3, 1.28, 1.26, 1.24, 1.22, 10.0, 0.0]
8 [1.83, 1.86, 1.9, 1.93, 1.97, 1.97, 1.97, 1.97, 1.97, 1.97, 1.31, 1.31, 1.31, 1.31, 1.32, 1.32, 1.32, 1.32, 1.32, 1.32, 1.32, 1.34, 1.36, 1.39, 1.42, 1.45, 1.48, 1.51, 1.98, 1.98, 1.98, 1.98, 1.98, 1.99, 1.99, 1.99, 1.99, 1.99, 1.99, 1.99, 1.99, 1.99, 1.99, 1.99, 1.99, 1.99, 1.99, 1.99, 1.99, 1.99, 1.99, 1.99, 2.0, 2.0, 2.0, 2.0, 2.0, 2.0, 2.0, 2.0, 2.0, 2.0, 2.0, 2.0, 2.0, 2.0, 2.0, 2.0, 2.0, 2.0, 2.0, 2.0, 2.01, 0.91, 0.91, 0.91, 0.91, 0.91, 0.92, 0.92, 0.92, 0.92, 0.92, 0.92, 0.92, 0.92, 0.92, 0.92, 0.92, 0.92, 0.92, 0.92, 0.92, 0.92, 0.92, 0.92, 0.92, 0.92, 2.02, 2.02, 2.02, 2.02, 2.02, 2.02, 2.02, 2.02, 2.02, 2.02, 2.02, 2.02, 2.02, 2.02, 2.02, 2.02, 2.02, 2.03, 2.03, 2.03, 2.03, 2.03, 2.03, 2.03, 2.03, 2.03, 2.03, 2.03, 2.03, 2.03, 2.03, 2.03, 2.03, 2.03, 2.03, 2.03, 2.03, 2.04, 2.04, 2.04, 2.04, 2.04, 2.04, 2.04, 2.04, 2.04, 2.04, 2.04, 2.04, 2.04, 2.04, 2.04, 2.04, 2.04, 2.05, 2.05, 2.05, 2.05, 2.05, 2.05, 2.05, 2.05, 2.05, 2.05, 2.05, 2.05, 2.05, 2.05, 2.05, 2.06, 2.06, 2.06, 2.06, 2.06, 1.36, 1.34, 1.32, 1.29, 1.27, 1.25, 1.23, 1.21, 1.19, 1.17]
9 [1.84, 1.87, 1.9, 1.94, 1.94, 1.94, 1.94, 1.95, 1.95, 1.29, 1.29, 1.29, 1.29, 1.29, 1.29, 1.29, 1.3, 1.3, 1.3, 1.3, 1.32, 1.34, 1.37, 1.4, 1.43, 1.45, 1.48, 1.96, 1.96, 1.96, 1.96, 1.96, 1.96, 1.96, 1.96, 1.97, 1.97, 1.97, 1.97, 1.97, 1.97, 1.97, 1.97, 1.97, 1.97, 1.97, 1.97, 1.97, 1.97, 1.97, 1.97, 1.97, 1.98, 1.98, 1.98, 1.98, 1.98, 1.98, 1.98, 1.98, 1.98, 1.98, 1.98, 1.98, 1.98, 1.98, 1.98, 1.98, 1.98, 1.98, 1.98, 1.99, 0.89, 0.9, 0.9, 0.9, 0.9, 0.9, 0.9, 0.9, 0.9, 0.9, 0.9, 0.9, 0.9, 0.9, 0.9, 0.9, 0.9, 0.9, 0.9, 0.9, 0.9, 0.9, 0.9, 0.9, 0.9, 0.9, 2.0, 2.0, 2.0, 2.0, 2.0, 2.0, 2.0, 2.0, 2.0, 2.0, 2.0, 2.0, 2.0, 2.01, 2.01, 2.01, 2.01, 2.01, 2.01, 2.01, 2.01, 2.01, 2.01, 2.01, 2.01, 2.01, 2.01, 2.01, 2.01, 2.01, 2.01, 2.02, 2.02, 2.02, 2.02, 2.02, 2.02, 2.02, 2.02, 2.02, 2.02, 2.02, 2.02, 2.02, 2.02, 2.02, 2.02, 2.02, 2.03, 2.03, 2.03, 2.03, 2.03, 2.03, 2.03, 2.03, 2.03, 2.03, 2.03, 2.03, 2.03, 2.03, 2.04, 2.04, 2.04, 2.04, 2.04, 2.04, 2.04, 2.04, 2.04, 2.04, 2.04, 2.04, 1.36, 1.33, 1.31, 1.29, 1.27, 1.25, 1.23, 1.21, 1.19, 1.17]
10 [1.86, 1.86, 1.86, 1.86, 1.23, 1.23, 1.23, 1.23, 1.23, 1.23, 1.23, 1.23, 1.23, 1.23, 1.24, 1.25, 1.28, 1.3, 1.33, 1.36, 1.38, 1.41, 1.89, 1.89, 1.89, 1.89, 1.9, 1.9, 1.9, 1.9, 1.9, 1.9, 1.9, 1.9, 1.91, 1.91, 1.91, 1.91, 1.91, 1.91, 1.91, 1.91, 1.91, 1.92, 1.92, 1.92, 1.92, 1.92, 1.92, 1.92, 1.92, 1.92, 1.93, 1.93, 1.93, 1.93, 1.93, 1.93, 1.93, 1.93, 1.93, 1.94, 1.94, 1.94, 1.94, 1.94, 1.94, 1.94, 0.86, 0.86, 0.86, 0.86, 0.86, 0.86, 0.86, 0.86, 0.86, 0.86, 0.86, 0.86, 0.86, 0.86, 0.86, 0.86, 0.86, 0.87, 0.87, 0.87, 0.87, 0.87, 0.87, 0.87, 0.87, 0.87, 1.97, 1.97, 1.97, 1.97, 1.97, 1.97, 1.97, 1.98, 1.98, 1.98, 1.98, 1.98, 1.98, 1.98, 1.98, 1.98, 1.98, 1.99, 1.99, 1.99, 1.99, 1.99, 1.99, 1.99, 1.99, 1.99, 2.0, 2.0, 2.0, 2.0, 2.0, 2.0, 2.0, 2.0, 2.0, 2.01, 2.01, 2.01, 2.01, 2.01, 2.01, 2.01, 2.01, 2.01, 2.02, 2.02, 2.02, 2.02, 2.02, 2.02, 2.02, 2.03, 2.03, 2.03, 2.03, 2.03, 2.03, 2.03, 2.03, 2.04, 2.04, 2.04, 2.04, 2.04, 2.04, 2.05, 2.05, 2.05, 2.05, 2.05, 2.05, 2.06, 2.06, 2.06, 2.06, 2.06, 1.36, 1.34, 1.31, 1.29, 1.27, 1.25, 1.23, 1.21, 1.19, 1.17, 1.16, 1.16]
11 [1.17, 1.17, 1.18, 1.18, 1.18, 1.18, 1.18, 1.18, 1.19, 1.19, 1.19, 1.22, 1.24, 1.27, 1.29, 1.32, 1.35, 1.37, 1.83, 1.83, 1.84, 1.84, 1.84, 1.84, 1.84, 1.85, 1.85, 1.85, 1.85, 1.85, 1.86, 1.86, 1.86, 1.86, 1.86, 1.86, 1.87, 1.87, 1.87, 1.87, 1.87, 1.88, 1.88, 1.88, 1.88, 1.88, 1.88, 1.89, 1.89, 1.89, 1.89, 1.89, 1.89, 1.9, 1.9, 1.9, 1.9, 1.9, 1.9, 1.91, 1.91, 1.91, 1.91, 1.91, 0.84, 0.84, 0.84, 0.84, 0.84, 0.84, 0.84, 0.84, 0.84, 0.84, 0.84, 0.84, 0.84, 0.85, 0.85, 0.85, 0.85, 0.85, 0.85, 0.85, 0.85, 0.85, 0.85, 0.85, 0.85, 0.85, 1.95, 1.95, 1.96, 1.96, 1.96, 1.96, 1.96, 1.96, 1.97, 1.97, 1.97, 1.97, 1.97, 1.97, 1.98, 1.98, 1.98, 1.98, 1.98, 1.98, 1.98, 1.99, 1.99, 1.99, 1.99, 1.99, 1.99, 2.0, 2.0, 2.0, 2.0, 2.0, 2.01, 2.01, 2.01, 2.01, 2.01, 2.01, 2.02, 2.02, 2.02, 2.02, 2.02, 2.03, 2.03, 2.03, 2.03, 2.03, 2.03, 2.04, 2.04, 2.04, 2.04, 2.05, 2.05, 2.05, 2.05, 2.05, 2.06, 2.06, 2.06, 2.06, 2.07, 2.07, 2.07, 2.07, 2.07, 2.08, 2.08, 2.08, 2.08, 2.09, 2.09, 2.09, 2.1, 2.1, 2.1, 1.37, 1.35, 1.33, 1.31, 1.29, 1.27, 1.25, 1.23, 1.21, 1.19, 1.18, 1.18, 1.19, 1.19, 1.19]
12 [1.12, 1.13, 1.13, 1.13, 1.13, 1.14, 1.17, 1.19, 1.21, 1.24, 1.27, 1.29, 1.32, 1.76, 1.77, 1.77, 1.77, 1.78, 1.78, 1.78, 1.78, 1.79, 1.79, 1.79, 1.8, 1.8, 1.8, 1.8, 1.81, 1.81, 1.81, 1.81, 1.82, 1.82, 1.82, 1.82, 1.83, 1.83, 1.83, 1.83, 1.84, 1.84, 1.84, 1.84, 1.85, 1.85, 1.85, 1.85, 1.85, 1.86, 1.86, 1.86, 1.86, 1.87, 1.87, 1.87, 1.87, 1.87, 1.88, 0.81, 0.82, 0.82, 0.82, 0.82, 0.82, 0.82, 0.82, 0.82, 0.82, 0.82, 0.82, 0.83, 0.83, 0.83, 0.83, 0.83, 0.83, 0.83, 0.83, 0.83, 0.83, 0.84, 0.84, 0.84, 0.84, 0.84, 1.94, 1.94, 1.94, 1.94, 1.95, 1.95, 1.95, 1.95, 1.96, 1.96, 1.96, 1.96, 1.96, 1.97, 1.97, 1.97, 1.97, 1.98, 1.98, 1.98, 1.98, 1.99, 1.99, 1.99, 1.99, 1.99, 2.0, 2.0, 2.0, 2.0, 2.01, 2.01, 2.01, 2.01, 2.02, 2.02, 2.02, 2.02, 2.03, 2.03, 2.03, 2.03, 2.04, 2.04, 2.04, 2.05, 2.05, 2.05, 2.05, 2.06, 2.06, 2.06, 2.07, 2.07, 2.07, 2.07, 2.08, 2.08, 2.08, 2.09, 2.09, 2.09, 2.1, 2.1, 2.1, 2.11, 2.11, 2.11, 2.12, 2.12, 2.12, 2.13, 2.13, 2.14, 2.14, 2.14, 2.15, 1.4, 1.38, 1.36, 1.34, 1.32, 1.3, 1.28, 1.26, 1.24, 1.22, 1.21, 1.21, 1.21, 1.22, 1.22, 1.22, 1.23, 10.0, 0.0]
13 [1.1, 1.12, 1.15, 1.17, 1.2, 1.23, 1.25, 1.68, 1.69, 1.69, 1.7, 1.7, 1.7, 1.71, 1.71, 1.72, 1.72, 1.72, 1.73, 1.73, 1.73, 1.74, 1.74, 1.74, 1.75, 1.75, 1.75, 1.76, 1.76, 1.76, 1.77, 1.77, 1.77, 1.78, 1.78, 1.78, 1.79, 1.79, 1.79, 1.8, 1.8, 1.8, 1.81, 1.81, 1.81, 1.82, 1.82, 1.82, 1.82, 1.83, 1.83, 1.83, 1.84, 0.79, 0.79, 0.79, 0.79, 0.8, 0.8, 0.8, 0.8, 0.8, 0.8, 0.8, 0.8, 0.81, 0.81, 0.81, 0.81, 0.81, 0.81, 0.81, 0.81, 0.82, 0.82, 0.82, 0.82, 0.82, 0.82, 0.82, 1.92, 1.92, 1.92, 1.93, 1.93, 1.93, 1.94, 1.94, 1.94, 1.94, 1.95, 1.95, 1.95, 1.96, 1.96, 1.96, 1.97, 1.97, 1.97, 1.97, 1.98, 1.98, 1.98, 1.99, 1.99, 1.99, 2.0, 2.0, 2.0, 2.01, 2.01, 2.01, 2.02, 2.02, 2.02, 2.03, 2.03, 2.03, 2.04, 2.04, 2.04, 2.05, 2.05, 2.05, 2.06, 2.06, 2.06, 2.07, 2.07, 2.08, 2.08, 2.08, 2.09, 2.09, 2.1, 2.1, 2.1, 2.11, 2.11, 2.12, 2.12, 2.12, 2.13, 2.13, 2.14, 2.14, 2.15, 2.15, 2.16, 2.16, 2.17, 2.17, 2.18, 2.18, 2.19, 2.19, 2.2, 2.2, 2.21, 1.42, 1.4, 1.38, 1.36, 1.34, 1.32, 1.3, 1.28, 1.26, 1.24, 1.24, 1.25, 1.25, 1.26, 1.26, 1.26, 1.27, 1.27, 1.97, 1.94, 1.92, 1.89, 1.86]
14 [1.18, 1.21, 1.61, 1.61, 1.62, 1.62, 1.63, 1.63, 1.64, 1.64, 1.65, 1.65, 1.65, 1.66, 1.66, 1.67, 1.67, 1.68, 1.68, 1.68, 1.69, 1.69, 1.7, 1.7, 1.71, 1.71, 1.71, 1.72, 1.72, 1.73, 1.73, 1.73, 1.74, 1.74, 1.75, 1.75, 1.75, 1.76, 1.76, 1.76, 1.77, 1.77, 1.78, 1.78, 1.78, 1.79, 1.79, 0.76, 0.77, 0.77, 0.77, 0.77, 0.77, 0.77, 0.78, 0.78, 0.78, 0.78, 0.78, 0.78, 0.78, 0.79, 0.79, 0.79, 0.79, 0.79, 0.79, 0.8, 0.8, 0.8, 0.8, 0.8, 0.8, 0.8, 0.81, 1.9, 1.9, 1.9, 1.91, 1.91, 1.91, 1.92, 1.92, 1.92, 1.93, 1.93, 1.94, 1.94, 1.94, 1.95, 1.95, 1.95, 1.96, 1.96, 1.97, 1.97, 1.97, 1.98, 1.98, 1.98, 1.99, 1.99, 2.0, 2.0, 2.0, 2.01, 2.01, 2.02, 2.02, 2.02, 2.03, 2.03, 2.04, 2.04, 2.05, 2.05, 2.05, 2.06, 2.06, 2.07, 2.07, 2.08, 2.08, 2.09, 2.09, 2.1, 2.1, 2.1, 2.11, 2.11, 2.12, 2.12, 2.13, 2.13, 2.14, 2.14, 2.15, 2.16, 2.16, 2.17, 2.17, 2.18, 2.18, 2.19, 2.19, 2.2, 2.21, 2.21, 2.22, 2.23, 2.23, 2.24, 2.25, 2.25, 1.45, 1.43, 1.41, 1.39, 1.37, 1.35, 1.33, 1.32, 1.3, 1.28, 1.27, 1.28, 1.28, 1.28, 1.29, 1.29, 1.3, 1.3, 1.31, 2.02, 1.99, 1.96, 1.94, 1.91, 1.88, 1.86, 1.83, 1.8]
15 [1.55, 1.56, 1.56, 1.57, 1.57, 1.58, 1.58, 1.59, 1.59, 1.6, 1.6, 1.61, 1.61, 1.62, 1.62, 1.63, 1.63, 1.64, 1.64, 1.65, 1.65, 1.66, 1.66, 1.67, 1.67, 1.68, 1.68, 1.69, 1.69, 1.69, 1.7, 1.7, 1.71, 1.71, 1.72, 1.72, 1.73, 1.73, 1.73, 1.74, 1.74, 1.75, 0.74, 0.74, 0.74, 0.74, 0.75, 0.75, 0.75, 0.75, 0.75, 0.76, 0.76, 0.76, 0.76, 0.76, 0.76, 0.77, 0.77, 0.77, 0.77, 0.77, 0.77, 0.78, 0.78, 0.78, 0.78, 0.78, 0.78, 0.79, 1.87, 1.87, 1.88, 1.88, 1.88, 1.89, 1.89, 1.9, 1.9, 1.91, 1.91, 1.91, 1.92, 1.92, 1.93, 1.93, 1.94, 1.94, 1.94, 1.95, 1.95, 1.96, 1.96, 1.97, 1.97, 1.98, 1.98, 1.98, 1.99, 1.99, 2.0, 2.0, 2.01, 2.01, 2.02, 2.02, 2.03, 2.03, 2.04, 2.04, 2.05, 2.05, 2.06, 2.06, 2.07, 2.07, 2.08, 2.08, 2.09, 2.09, 2.1, 2.1, 2.11, 2.11, 2.12, 2.13, 2.13, 2.14, 2.14, 2.15, 2.15, 2.16, 2.17, 2.17, 2.18, 2.19, 2.19, 2.2, 2.21, 2.21, 2.22, 2.23, 2.23, 2.24, 2.25, 2.25, 2.26, 2.27, 2.28, 2.29, 1.47, 1.45, 1.43, 1.41, 1.4, 1.38, 1.36, 1.34, 1.32, 1.3, 1.29, 1.29, 1.3, 1.3, 1.31, 1.32, 1.32, 1.33, 1.33, 2.07, 2.04, 2.02, 1.99, 1.96, 1.94, 1.91, 1.88, 1.86, 1.83, 1.81, 1.78, 1.76]
16 [1.51, 1.52, 1.52, 1.53, 1.54, 1.54, 1.55, 1.55, 1.56, 1.56, 1.57, 1.57, 1.58, 1.59, 1.59, 1.6, 1.6, 1.61, 1.61, 1.62, 1.62, 1.63, 1.63, 1.64, 1.64, 1.65, 1.65, 1.66, 1.66, 1.67, 1.67, 1.68, 1.68, 1.69, 1.69, 1.7, 1.7, 0.71, 0.71, 0.72, 0.72, 0.72, 0.72, 0.72, 0.73, 0.73, 0.73, 0.73, 0.73, 0.74, 0.74, 0.74, 0.74, 0.74, 0.75, 0.75, 0.75, 0.75, 0.75, 0.76, 0.76, 0.76, 0.76, 0.76, 0.77, 0.77, 1.84, 1.85, 1.85, 1.85, 1.86, 1.86, 1.87, 1.87, 1.88, 1.88, 1.89, 1.89, 1.9, 1.9, 1.91, 1.91, 1.92, 1.92, 1.93, 1.93, 1.94, 1.94, 1.95, 1.95, 1.95, 1.96, 1.96, 1.97, 1.97, 1.98, 1.99, 1.99, 2.0, 2.0, 2.01, 2.01, 2.02, 2.02, 2.03, 2.03, 2.04, 2.04, 2.05, 2.05, 2.06, 2.07, 2.07, 2.08, 2.08, 2.09, 2.1, 2.1, 2.11, 2.11, 2.12, 2.13, 2.13, 2.14, 2.15, 2.15, 2.16, 2.17, 2.17, 2.18, 2.19, 2.19, 2.2, 2.21, 2.21, 2.22, 2.23, 2.24, 2.24, 2.25, 2.26, 2.27, 2.28, 2.28, 2.29, 2.3, 2.31, 1.48, 1.46, 1.44, 1.42, 1.4, 1.39, 1.37, 1.35, 1.33, 1.31, 1.3, 1.31, 1.31, 1.32, 1.32, 1.33, 1.34, 1.34, 1.35, 2.1, 2.08, 2.05, 2.02, 2.0, 1.97, 1.94, 1.92, 1.89, 1.87, 1.84, 1.82, 1.8, 1.77, 1.75, 1.72]
17 [1.48, 1.49, 1.49, 1.5, 1.5, 1.51, 1.52, 1.52, 1.53, 1.53, 1.54, 1.55, 1.55, 1.56, 1.56, 1.57, 1.57, 1.58, 1.59, 1.59, 1.6, 1.6, 1.61, 1.61, 1.62, 1.62, 1.63, 1.63, 1.64, 1.64, 1.65, 1.65, 1.66, 0.69, 0.69, 0.69, 0.69, 0.7, 0.7, 0.7, 0.7, 0.7, 0.71, 0.71, 0.71, 0.71, 0.72, 0.72, 0.72, 0.72, 0.72, 0.73, 0.73, 0.73, 0.73, 0.73, 0.74, 0.74, 0.74, 0.74, 0.74, 0.75, 1.81, 1.82, 1.82, 1.82, 1.83, 1.83, 1.84, 1.84, 1.85, 1.85, 1.86, 1.87, 1.87, 1.88, 1.88, 1.89, 1.89, 1.9, 1.9, 1.91, 1.91, 1.92, 1.92, 1.93, 1.93, 1.94, 1.94, 1.95, 1.95, 1.96, 1.96, 1.97, 1.98, 1.98, 1.99, 1.99, 2.0, 2.0, 2.01, 2.02, 2.02, 2.03, 2.03, 2.04, 2.04, 2.05, 2.06, 2.06, 2.07, 2.08, 2.08, 2.09, 2.09, 2.1, 2.11, 2.11, 2.12, 2.13, 2.13, 2.14, 2.15, 2.16, 2.16, 2.17, 2.18, 2.19, 2.19, 2.2, 2.21, 2.22, 2.22, 2.23, 2.24, 2.25, 2.26, 2.27, 2.27, 2.28, 2.29, 2.3, 2.31, 2.32, 2.33, 1.48, 1.46, 1.44, 1.42, 1.4, 1.38, 1.37, 1.35, 1.33, 1.31, 1.31, 1.31, 1.32, 1.33, 1.33, 1.34, 1.35, 1.35, 1.36, 2.11, 2.09, 2.06, 2.04, 2.01, 1.98, 1.96, 1.93, 1.91, 1.88, 1.86, 1.84, 1.81, 1.79, 1.77, 1.74, 1.72, 1.7]
18 [1.45, 1.46, 1.46, 1.47, 1.48, 1.48, 1.49, 1.5, 1.5, 1.51, 1.51, 1.52, 1.53, 1.53, 1.54, 1.54, 1.55, 1.56, 1.56, 1.57, 1.57, 1.58, 1.58, 1.59, 1.6, 1.6, 1.61, 1.61, 1.62, 0.66, 0.67, 0.67, 0.67, 0.67, 0.67, 0.68, 0.68, 0.68, 0.68, 0.69, 0.69, 0.69, 0.69, 0.69, 0.7, 0.7, 0.7, 0.7, 0.7, 0.71, 0.71, 0.71, 0.71, 0.72, 0.72, 0.72, 0.72, 0.72, 0.73, 1.78, 1.79, 1.79, 1.8, 1.8, 1.81, 1.81, 1.82, 1.83, 1.83, 1.84, 1.84, 1.85, 1.85, 1.86, 1.86, 1.87, 1.87, 1.88, 1.89, 1.89, 1.9, 1.9, 1.91, 1.91, 1.92, 1.92, 1.93, 1.94, 1.94, 1.95, 1.95, 1.96, 1.96, 1.97, 1.98, 1.98, 1.99, 1.99, 2.0, 2.01, 2.01, 2.02, 2.03, 2.03, 2.04, 2.05, 2.05, 2.06, 2.07, 2.07, 2.08, 2.09, 2.09, 2.1, 2.11, 2.11, 2.12, 2.13, 2.14, 2.14, 2.15, 2.16, 2.17, 2.17, 2.18, 2.19, 2.2, 2.21, 2.21, 2.22, 2.23, 2.24, 2.25, 2.26, 2.27, 2.28, 2.28, 2.29, 2.3, 2.31, 2.32, 2.33, 1.49, 1.47, 1.46, 1.44, 1.42, 1.4, 1.38, 1.37, 1.35, 1.33, 1.31, 1.31, 1.32, 1.32, 1.33, 1.34, 1.35, 1.35, 1.36, 1.37, 2.13, 2.1, 2.07, 2.05, 2.02, 2.0, 1.97, 1.95, 1.92, 1.9, 1.88, 1.85, 1.83, 1.81, 1.78, 1.76, 1.74, 1.72, 1.69, 1.67]
19 [1.42, 1.43, 1.44, 1.44, 1.45, 1.46, 1.46, 1.47, 1.48, 1.48, 1.49, 1.49, 1.5, 1.51, 1.51, 1.52, 1.53, 1.53, 1.54, 1.54, 1.55, 1.56, 1.56, 1.57, 1.57, 0.64, 0.64, 0.64, 0.65, 0.65, 0.65, 0.65, 0.65, 0.66, 0.66, 0.66, 0.66, 0.67, 0.67, 0.67, 0.67, 0.68, 0.68, 0.68, 0.68, 0.68, 0.69, 0.69, 0.69, 0.69, 0.7, 0.7, 0.7, 0.7, 0.71, 1.75, 1.76, 1.76, 1.77, 1.77, 1.78, 1.78, 1.79, 1.8, 1.8, 1.81, 1.81, 1.82, 1.82, 1.83, 1.84, 1.84, 1.85, 1.85, 1.86, 1.87, 1.87, 1.88, 1.88, 1.89, 1.89, 1.9, 1.91, 1.91, 1.92, 1.93, 1.93, 1.94, 1.94, 1.95, 1.96, 1.96, 1.97, 1.98, 1.98, 1.99, 2.0, 2.0, 2.01, 2.02, 2.02, 2.03, 2.04, 2.04, 2.05, 2.06, 2.06, 2.07, 2.08, 2.09, 2.09, 2.1, 2.11, 2.12, 2.12, 2.13, 2.14, 2.15, 2.16, 2.16, 2.17, 2.18, 2.19, 2.2, 2.21, 2.22, 2.23, 2.23, 2.24, 2.25, 2.26, 2.27, 2.28, 2.29, 2.3, 2.31, 2.32, 2.33, 2.34, 2.36, 1.48, 1.47, 1.45, 1.43, 1.41, 1.39, 1.38, 1.36, 1.34, 1.33, 1.31, 1.32, 1.33, 1.33, 1.34, 1.35, 1.36, 1.37, 1.38, 2.16, 2.13, 2.11, 2.08, 2.06, 2.03, 2.01, 1.98, 1.96, 1.94, 1.91, 1.89, 1.87, 1.84, 1.82, 1.8, 1.78, 1.75, 1.73, 1.71, 1.69, 1.67, 1.65]
20 [1.4, 1.4, 1.41, 1.42, 1.42, 1.43, 1.44, 1.44, 1.45, 1.46, 1.46, 1.47, 1.48, 1.48, 1.49, 1.5, 1.5, 1.51, 1.52, 1.52, 0.61, 0.61, 0.62, 0.62, 0.62, 0.62, 0.63, 0.63, 0.63, 0.63, 0.64, 0.64, 0.64, 0.64, 0.65, 0.65, 0.65, 0.65, 0.66, 0.66, 0.66, 0.66, 0.66, 0.67, 0.67, 0.67, 0.67, 0.68, 0.68, 0.68, 0.68, 1.72, 1.72, 1.73, 1.73, 1.74, 1.75, 1.75, 1.76, 1.76, 1.77, 1.78, 1.78, 1.79, 1.79, 1.8, 1.81, 1.81, 1.82, 1.82, 1.83, 1.84, 1.84, 1.85, 1.86, 1.86, 1.87, 1.87, 1.88, 1.89, 1.89, 1.9, 1.91, 1.91, 1.92, 1.93, 1.93, 1.94, 1.95, 1.95, 1.96, 1.97, 1.97, 1.98, 1.99, 2.0, 2.0, 2.01, 2.02, 2.02, 2.03, 2.04, 2.05, 2.05, 2.06, 2.07, 2.08, 2.09, 2.09, 2.1, 2.11, 2.12, 2.13, 2.13, 2.14, 2.15, 2.16, 2.17, 2.18, 2.19, 2.2, 2.2, 2.21, 2.22, 2.23, 2.24, 2.25, 2.26, 2.27, 2.28, 2.29, 2.3, 2.32, 2.33, 2.34, 2.35, 2.36, 1.49, 1.48, 1.46, 1.44, 1.42, 1.41, 1.39, 1.37, 1.36, 1.34, 1.32, 1.32, 1.33, 1.33, 1.34, 1.35, 1.36, 1.37, 1.38, 1.38, 2.17, 2.14, 2.12, 2.09, 2.07, 2.04, 2.02, 1.99, 1.97, 1.95, 1.92, 1.9, 1.88, 1.86, 1.83, 1.81, 1.79, 1.77, 1.75, 1.73, 1.71, 1.69, 1.67, 1.64, 1.62]
21 [1.37, 1.38, 1.39, 1.4, 1.4, 1.41, 1.42, 1.42, 1.43, 1.44, 1.44, 1.45, 1.46, 1.46, 1.47, 1.48, 1.48, 0.59, 0.59, 0.59, 0.6, 0.6, 0.6, 0.6, 0.61, 0.61, 0.61, 0.61, 0.62, 0.62, 0.62, 0.62, 0.63, 0.63, 0.63, 0.63, 0.64, 0.64, 0.64, 0.64, 0.65, 0.65, 0.65, 0.65, 0.66, 0.66, 0.66, 0.66, 1.69, 1.69, 1.7, 1.7, 1.71, 1.72, 1.72, 1.73, 1.74, 1.74, 1.75, 1.75, 1.76, 1.77, 1.77, 1.78, 1.79, 1.79, 1.8, 1.8, 1.81, 1.82, 1.82, 1.83, 1.84, 1.84, 1.85, 1.86, 1.86, 1.87, 1.88, 1.88, 1.89, 1.9, 1.9, 1.91, 1.92, 1.92, 1.93, 1.94, 1.95, 1.95, 1.96, 1.97, 1.97, 1.98, 1.99, 2.0, 2.0, 2.01, 2.02, 2.03, 2.04, 2.04, 2.05, 2.06, 2.07, 2.08, 2.08, 2.09, 2.1, 2.11, 2.12, 2.13, 2.14, 2.14, 2.15, 2.16, 2.17, 2.18, 2.19, 2.2, 2.21, 2.22, 2.23, 2.24, 2.25, 2.26, 2.27, 2.28, 2.29, 2.3, 2.32, 2.33, 2.34, 2.35, 2.36, 1.5, 1.48, 1.46, 1.44, 1.42, 1.41, 1.39, 1.37, 1.36, 1.34, 1.33, 1.31, 1.32, 1.33, 1.34, 1.35, 1.35, 1.36, 1.37, 1.38, 2.18, 2.16, 2.13, 2.11, 2.08, 2.06, 2.03, 2.01, 1.99, 1.97, 1.94, 1.92, 1.9, 1.88, 1.85, 1.83, 1.81, 1.79, 1.77, 1.75, 1.73, 1.71, 1.69, 1.67, 1.65, 1.63, 1.61]
22 [1.34, 1.35, 1.35, 1.36, 1.37, 1.38, 1.38, 1.39, 1.4, 1.4, 1.41, 0.54, 0.55, 0.55, 0.55, 0.56, 0.56, 0.56, 0.56, 0.57, 0.57, 0.57, 0.57, 0.58, 0.58, 0.58, 0.58, 0.59, 0.59, 0.59, 0.59, 0.6, 0.6, 0.6, 0.6, 0.61, 0.61, 0.61, 0.61, 0.62, 0.62, 0.62, 0.62, 1.63, 1.63, 1.64, 1.64, 1.65, 1.66, 1.66, 1.67, 1.68, 1.68, 1.69, 1.7, 1.7, 1.71, 1.72, 1.72, 1.73, 1.73, 1.74, 1.75, 1.75, 1.76, 1.77, 1.77, 1.78, 1.79, 1.79, 1.8, 1.81, 1.81, 1.82, 1.83, 1.84, 1.84, 1.85, 1.86, 1.86, 1.87, 1.88, 1.88, 1.89, 1.9, 1.91, 1.91, 1.92, 1.93, 1.94, 1.94, 1.95, 1.96, 1.97, 1.97, 1.98, 1.99, 2.0, 2.01, 2.01, 2.02, 2.03, 2.04, 2.05, 2.06, 2.06, 2.07, 2.08, 2.09, 2.1, 2.11, 2.12, 2.13, 2.14, 2.15, 2.16, 2.17, 2.18, 2.19, 2.2, 2.21, 2.22, 2.23, 2.24, 2.25, 2.26, 2.27, 2.28, 2.3, 2.31, 2.32, 2.33, 2.34, 2.36, 1.46, 1.45, 1.43, 1.41, 1.4, 1.38, 1.36, 1.35, 1.33, 1.32, 1.3, 1.29, 1.3, 1.31, 1.32, 1.33, 1.34, 1.35, 1.36, 1.37, 2.16, 2.14, 2.11, 2.09, 2.06, 2.04, 2.02, 2.0, 1.97, 1.95, 1.93, 1.91, 1.88, 1.86, 1.84, 1.82, 1.8, 1.78, 1.76, 1.74, 1.72, 1.7, 1.68, 1.66, 1.64, 1.62, 1.6, 1.58]
23 [1.31, 1.32, 1.33, 1.33, 1.34, 1.35, 0.5, 0.51, 0.51, 0.51, 0.51, 0.52, 0.52, 0.52, 0.52, 0.53, 0.53, 0.53, 0.53, 0.54, 0.54, 0.54, 0.54, 0.54, 0.55, 0.55, 0.55, 0.55, 0.56, 0.56, 0.56, 0.56, 0.57, 0.57, 0.57, 0.57, 0.58, 0.58, 0.58, 0.58, 0.66, 1.58, 1.59, 1.59, 1.6, 1.6, 1.61, 1.62, 1.62, 1.63, 1.64, 1.64, 1.65, 1.65, 1.66, 1.67, 1.67, 1.68, 1.69, 1.69, 1.7, 1.71, 1.71, 1.72, 1.72, 1.73, 1.74, 1.74, 1.75, 1.76, 1.76, 1.77, 1.78, 1.78, 1.79, 1.8, 1.8, 1.81, 1.82, 1.83, 1.83, 1.84, 1.85, 1.85, 1.86, 1.87, 1.87, 1.88, 1.89, 1.9, 1.9, 1.91, 1.92, 1.93, 1.93, 1.94, 1.95, 1.96, 1.97, 1.97, 1.98, 1.99, 2.0, 2.01, 2.01, 2.02, 2.03, 2.04, 2.05, 2.06, 2.07, 2.08, 2.09, 2.09, 2.1, 2.11, 2.12, 2.13, 2.14, 2.15, 2.16, 2.17, 2.18, 2.19, 2.21, 2.22, 2.23, 2.24, 2.25, 2.26, 2.27, 2.29, 2.3, 2.31, 2.32, 1.42, 1.41, 1.39, 1.37, 1.36, 1.34, 1.33, 1.31, 1.3, 1.28, 1.27, 1.25, 1.26, 1.27, 1.28, 1.28, 1.29, 1.3, 1.31, 1.32, 1.33, 2.09, 2.07, 2.05, 2.02, 2.0, 1.98, 1.96, 1.93, 1.91, 1.89, 1.87, 1.85, 1.83, 1.81, 1.79, 1.77, 1.75, 1.72, 1.7, 1.69, 1.67, 1.65, 1.63, 1.61, 1.59, 1.57]
24 [1.28, 1.29, 0.47, 0.47, 0.47, 0.47, 0.48, 0.48, 0.48, 0.48, 0.48, 0.49, 0.49, 0.49, 0.49, 0.5, 0.5, 0.5, 0.5, 0.51, 0.51, 0.51, 0.51, 0.51, 0.52, 0.52, 0.52, 0.52, 0.53, 0.53, 0.53, 0.53, 0.53, 0.54, 0.54, 0.54, 0.54, 0.59, 0.73, 1.54, 1.54, 1.55, 1.55, 1.56, 1.57, 1.57, 1.58, 1.58, 1.59, 1.6, 1.6, 1.61, 1.61, 1.62, 1.63, 1.63, 1.64, 1.65, 1.65, 1.66, 1.66, 1.67, 1.68, 1.68, 1.69, 1.7, 1.7, 1.71, 1.72, 1.72, 1.73, 1.73, 1.74, 1.75, 1.75, 1.76, 1.77, 1.77, 1.78, 1.79, 1.79, 1.8, 1.81, 1.82, 1.82, 1.83, 1.84, 1.84, 1.85, 1.86, 1.86, 1.87, 1.88, 1.89, 1.89, 1.9, 1.91, 1.92, 1.93, 1.93, 1.94, 1.95, 1.96, 1.97, 1.97, 1.98, 1.99, 2.0, 2.01, 2.02, 2.02, 2.03, 2.04, 2.05, 2.06, 2.07, 2.08, 2.09, 2.1, 2.11, 2.12, 2.13, 2.14, 2.15, 2.16, 2.17, 2.18, 2.19, 2.2, 2.22, 2.23, 2.24, 2.25, 2.26, 2.28, 2.29, 1.39, 1.37, 1.35, 1.34, 1.32, 1.31, 1.29, 1.28, 1.26, 1.25, 1.23, 1.22, 1.22, 1.22, 1.23, 1.24, 1.25, 1.26, 1.27, 1.28, 1.29, 2.05, 2.03, 2.01, 1.99, 1.96, 1.94, 1.92, 1.9, 1.88, 1.86, 1.83, 1.81, 1.79, 1.77, 1.75, 1.73, 1.71, 1.69, 1.67, 1.65, 1.63, 1.61, 1.6, 1.58, 1.56]
25 [0.44, 0.44, 0.45, 0.45, 0.45, 0.45, 0.46, 0.46, 0.46, 0.46, 0.47, 0.47, 0.47, 0.47, 0.47, 0.48, 0.48, 0.48, 0.48, 0.49, 0.49, 0.49, 0.49, 0.49, 0.5, 0.5, 0.5, 0.5, 0.51, 0.51, 0.51, 0.51, 0.51, 0.52, 0.54, 0.63, 1.5, 1.5, 1.51, 1.51, 1.52, 1.53, 1.53, 1.54, 1.54, 1.55, 1.56, 1.56, 1.57, 1.58, 1.58, 1.59, 1.59, 1.6, 1.61, 1.61, 1.62, 1.62, 1.63, 1.64, 1.64, 1.65, 1.66, 1.66, 1.67, 1.67, 1.68, 1.69, 1.69, 1.7, 1.71, 1.71, 1.72, 1.73, 1.73, 1.74, 1.75, 1.75, 1.76, 1.77, 1.77, 1.78, 1.79, 1.79, 1.8, 1.81, 1.81, 1.82, 1.83, 1.84, 1.84, 1.85, 1.86, 1.87, 1.87, 1.88, 1.89, 1.9, 1.9, 1.91, 1.92, 1.93, 1.94, 1.94, 1.95, 1.96, 1.97, 1.98, 1.99, 2.0, 2.0, 2.01, 2.02, 2.03, 2.04, 2.05, 2.06, 2.07, 2.08, 2.09, 2.1, 2.11, 2.12, 2.13, 2.14, 2.15, 2.16, 2.17, 2.18, 2.2, 2.21, 2.22, 2.23, 2.24, 2.26, 2.27, 1.37, 1.35, 1.33, 1.32, 1.3, 1.29, 1.27, 1.26, 1.25, 1.23, 1.22, 1.2, 1.19, 1.2, 1.21, 1.22, 1.22, 1.23, 1.24, 1.25, 1.26, 1.27, 2.01, 1.99, 1.97, 1.95, 1.93, 1.9, 1.88, 1.86, 1.84, 1.82, 1.8, 1.78, 1.76, 1.74, 1.72, 1.7, 1.68, 1.66, 1.64, 1.62, 1.6, 1.58, 1.56, 1.55]
26 [0.42, 0.43, 0.43, 0.43, 0.43, 0.44, 0.44, 0.44, 0.44, 0.44, 0.45, 0.45, 0.45, 0.45, 0.46, 0.46, 0.46, 0.46, 0.47, 0.47, 0.47, 0.47, 0.47, 0.48, 0.48, 0.48, 0.48, 0.49, 0.49, 0.53, 0.59, 1.45, 1.45, 1.46, 1.46, 1.47, 1.48, 1.48, 1.49, 1.5, 1.5, 1.51, 1.52, 1.52, 1.53, 1.53, 1.54, 1.55, 1.55, 1.56, 1.57, 1.57, 1.58, 1.59, 1.59, 1.6, 1.61, 1.61, 1.62, 1.63, 1.63, 1.64, 1.64, 1.65, 1.66, 1.66, 1.67, 1.68, 1.69, 1.69, 1.7, 1.71, 1.71, 1.72, 1.73, 1.73, 1.74, 1.75, 1.75, 1.76, 1.77, 1.78, 1.78, 1.79, 1.8, 1.81, 1.81, 1.82, 1.83, 1.84, 1.84, 1.85, 1.86, 1.87, 1.88, 1.88, 1.89, 1.9, 1.91, 1.92, 1.93, 1.93, 1.94, 1.95, 1.96, 1.97, 1.98, 1.99, 2.0, 2.01, 2.02, 2.03, 2.04, 2.05, 2.06, 2.07, 2.08, 2.09, 2.1, 2.11, 2.12, 2.13, 2.14, 2.15, 2.17, 2.18, 2.19, 2.2, 2.21, 2.23, 2.24, 2.25, 2.27, 2.28, 1.35, 1.34, 1.32, 1.31, 1.29, 1.28, 1.26, 1.25, 1.24, 1.22, 1.21, 1.19, 1.19, 1.19, 1.2, 1.21, 1.22, 1.23, 1.24, 1.25, 1.26, 2.04, 2.02, 1.99, 1.97, 1.95, 1.93, 1.91, 1.89, 1.87, 1.85, 1.83, 1.81, 1.79, 1.77, 1.75, 1.73, 1.71, 1.69, 1.67, 1.65, 1.63, 1.61, 1.6, 1.58, 1.56, 1.54, 1.52]
27 [0.41, 0.42, 0.42, 0.42, 0.42, 0.43, 0.43, 0.43, 0.43, 0.44, 0.44, 0.44, 0.44, 0.45, 0.45, 0.45, 0.45, 0.45, 0.46, 0.46, 0.46, 0.46, 0.47, 0.47, 0.47, 0.47, 0.51, 0.56, 0.62, 1.42, 1.43, 1.44, 1.44, 1.45, 1.46, 1.46, 1.47, 1.48, 1.48, 1.49, 1.5, 1.5, 1.51, 1.51, 1.52, 1.53, 1.53, 1.54, 1.55, 1.55, 1.56, 1.57, 1.57, 1.58, 1.59, 1.59, 1.6, 1.61, 1.61, 1.62, 1.63, 1.63, 1.64, 1.65, 1.66, 1.66, 1.67, 1.68, 1.68, 1.69, 1.7, 1.7, 1.71, 1.72, 1.73, 1.73, 1.74, 1.75, 1.76, 1.76, 1.77, 1.78, 1.79, 1.79, 1.8, 1.81, 1.82, 1.82, 1.83, 1.84, 1.85, 1.86, 1.86, 1.87, 1.88, 1.89, 1.9, 1.91, 1.92, 1.92, 1.93, 1.94, 1.95, 1.96, 1.97, 1.98, 1.99, 2.0, 2.01, 2.02, 2.03, 2.04, 2.05, 2.06, 2.07, 2.08, 2.09, 2.1, 2.11, 2.13, 2.14, 2.15, 2.16, 2.17, 2.18, 2.2, 2.21, 2.22, 2.24, 2.25, 2.26, 2.28, 1.36, 1.34, 1.33, 1.31, 1.3, 1.28, 1.27, 1.26, 1.24, 1.23, 1.21, 1.2, 1.19, 1.19, 1.2, 1.21, 1.22, 1.23, 1.24, 1.25, 1.26, 1.27, 2.04, 2.01, 1.99, 1.97, 1.95, 1.93, 1.91, 1.89, 1.87, 1.85, 1.83, 1.81, 1.79, 1.77, 1.75, 1.73, 1.71, 1.69, 1.67, 1.66, 1.64, 1.62, 1.6, 1.58, 1.57, 1.55, 1.53, 1.51]
28 [0.4, 0.41, 0.41, 0.41, 0.41, 0.42, 0.42, 0.42, 0.42, 0.43, 0.43, 0.43, 0.43, 0.44, 0.44, 0.44, 0.44, 0.45, 0.45, 0.45, 0.45, 0.45, 0.48, 0.53, 0.58, 1.39, 1.39, 1.4, 1.41, 1.41, 1.42, 1.43, 1.43, 1.44, 1.45, 1.45, 1.46, 1.47, 1.47, 1.48, 1.49, 1.49, 1.5, 1.51, 1.51, 1.52, 1.53, 1.53, 1.54, 1.55, 1.56, 1.56, 1.57, 1.58, 1.58, 1.59, 1.6, 1.6, 1.61, 1.62, 1.63, 1.63, 1.64, 1.65, 1.65, 1.66, 1.67, 1.68, 1.68, 1.69, 1.7, 1.71, 1.71, 1.72, 1.73, 1.74, 1.74, 1.75, 1.76, 1.77, 1.77, 1.78, 1.79, 1.8, 1.81, 1.82, 1.82, 1.83, 1.84, 1.85, 1.86, 1.87, 1.87, 1.88, 1.89, 1.9, 1.91, 1.92, 1.93, 1.94, 1.95, 1.96, 1.97, 1.98, 1.99, 2.0, 2.01, 2.02, 2.03, 2.04, 2.05, 2.06, 2.07, 2.08, 2.09, 2.1, 2.12, 2.13, 2.14, 2.15, 2.17, 2.18, 2.19, 2.2, 2.22, 2.23, 2.24, 2.26, 2.27, 2.29, 1.35, 1.34, 1.32, 1.31, 1.29, 1.28, 1.27, 1.25, 1.24, 1.23, 1.21, 1.2, 1.19, 1.19, 1.2, 1.21, 1.22, 1.23, 1.24, 1.25, 1.26, 1.27, 2.05, 2.02, 2.0, 1.98, 1.96, 1.94, 1.92, 1.9, 1.88, 1.86, 1.84, 1.82, 1.8, 1.78, 1.76, 1.75, 1.73, 1.71, 1.69, 1.67, 1.65, 1.64, 1.62, 1.6, 1.58, 1.57, 1.55, 1.53, 1.51, 1.5]
29 [0.38, 0.39, 0.39, 0.39, 0.39, 0.4, 0.4, 0.4, 0.4, 0.41, 0.42, 0.44, 0.48, 0.52, 0.56, 1.29, 1.3, 1.3, 1.31, 1.32, 1.33, 1.33, 1.34, 1.35, 1.36, 1.36, 1.37, 1.38, 1.39, 1.39, 1.4, 1.41, 1.42, 1.43, 1.43, 1.44, 1.45, 1.46, 1.46, 1.47, 1.48, 1.49, 1.49, 1.5, 1.51, 1.52, 1.52, 1.53, 1.54, 1.55, 1.56, 1.56, 1.57, 1.58, 1.59, 1.59, 1.6, 1.61, 1.62, 1.63, 1.64, 1.64, 1.65, 1.66, 1.67, 1.68, 1.69, 1.69, 1.7, 1.71, 1.72, 1.73, 1.74, 1.75, 1.75, 1.76, 1.77, 1.78, 1.79, 1.8, 1.81, 1.82, 1.83, 1.84, 1.85, 1.86, 1.87, 1.88, 1.89, 1.9, 1.91, 1.92, 1.93, 1.94, 1.95, 1.96, 1.97, 1.98, 2.0, 2.01, 2.02, 2.03, 2.04, 2.05, 2.07, 2.08, 2.09, 2.1, 2.12, 2.13, 2.14, 2.16, 2.17, 2.18, 2.2, 2.21, 2.23, 2.24, 2.26, 2.27, 2.29, 2.31, 1.36, 1.35, 1.34, 1.32, 1.31, 1.3, 1.28, 1.27, 1.26, 1.24, 1.23, 1.22, 1.21, 1.2, 1.21, 1.22, 1.23, 1.24, 1.25, 1.26, 1.27, 1.29, 1.3, 2.09, 2.07, 2.05, 2.03, 2.01, 1.99, 1.97, 1.95, 1.93, 1.92, 1.9, 1.88, 1.86, 1.84, 1.82, 1.81, 1.79, 1.77, 1.75, 1.74, 1.72, 1.7, 1.69, 1.67, 1.65, 1.64, 1.62, 1.6, 1.59, 1.57, 1.55, 1.54, 1.52, 1.51, 1.49, 1.47, 1.46]
30 [0.37, 0.38, 0.38, 0.38, 0.4, 0.43, 0.46, 0.49, 0.53, 1.23, 1.24, 1.25, 1.25, 1.26, 1.27, 1.28, 1.29, 1.29, 1.3, 1.31, 1.32, 1.33, 1.33, 1.34, 1.35, 1.36, 1.36, 1.37, 1.38, 1.39, 1.4, 1.4, 1.41, 1.42, 1.43, 1.44, 1.44, 1.45, 1.46, 1.47, 1.48, 1.49, 1.49, 1.5, 1.51, 1.52, 1.53, 1.53, 1.54, 1.55, 1.56, 1.57, 1.58, 1.59, 1.59, 1.6, 1.61, 1.62, 1.63, 1.64, 1.65, 1.66, 1.66, 1.67, 1.68, 1.69, 1.7, 1.71, 1.72, 1.73, 1.74, 1.75, 1.76, 1.77, 1.78, 1.79, 1.8, 1.81, 1.82, 1.83, 1.84, 1.85, 1.86, 1.87, 1.88, 1.89, 1.9, 1.91, 1.92, 1.93, 1.95, 1.96, 1.97, 1.98, 1.99, 2.01, 2.02, 2.03, 2.04, 2.06, 2.07, 2.08, 2.09, 2.11, 2.12, 2.14, 2.15, 2.16, 2.18, 2.19, 2.21, 2.22, 2.24, 2.26, 2.27, 2.29, 2.31, 2.32, 1.36, 1.35, 1.33, 1.32, 1.31, 1.29, 1.28, 1.27, 1.26, 1.25, 1.23, 1.22, 1.21, 1.2, 1.21, 1.23, 1.24, 1.25, 1.26, 1.27, 1.29, 1.3, 1.31, 2.11, 2.09, 2.07, 2.05, 2.03, 2.02, 2.0, 1.98, 1.96, 1.94, 1.92, 1.91, 1.89, 1.87, 1.85, 1.84, 1.82, 1.8, 1.79, 1.77, 1.75, 1.74, 1.72, 1.7, 1.69, 1.67, 1.66, 1.64, 1.62, 1.61, 1.59, 1.58, 1.56, 1.55, 1.53, 1.52, 1.5, 1.49, 1.47, 1.46, 1.44]
31 [1.13, 1.14, 1.15, 1.16, 1.16, 1.17, 1.18, 1.19, 1.2, 1.21, 1.22, 1.23, 1.24, 1.24, 1.25, 1.26, 1.27, 1.28, 1.29, 1.3, 1.31, 1.32, 1.32, 1.33, 1.34, 1.35, 1.36, 1.37, 1.38, 1.39, 1.4, 1.41, 1.42, 1.42, 1.43, 1.44, 1.45, 1.46, 1.47, 1.48, 1.49, 1.5, 1.51, 1.52, 1.53, 1.54, 1.55, 1.56, 1.57, 1.58, 1.59, 1.6, 1.61, 1.62, 1.63, 1.64, 1.65, 1.66, 1.67, 1.68, 1.69, 1.7, 1.71, 1.72, 1.73, 1.74, 1.75, 1.77, 1.78, 1.79, 1.8, 1.81, 1.82, 1.83, 1.85, 1.86, 1.87, 1.88, 1.9, 1.91, 1.92, 1.93, 1.95, 1.96, 1.97, 1.99, 2.0, 2.02, 2.03, 2.04, 2.06, 2.07, 2.09, 2.1, 2.12, 2.14, 2.15, 2.17, 2.18, 2.2, 2.22, 2.24, 2.25, 2.27, 2.29, 2.31, 2.33, 2.35, 1.36, 1.34, 1.33, 1.32, 1.31, 1.3, 1.28, 1.27, 1.26, 1.25, 1.24, 1.23, 1.22, 1.22, 1.23, 1.24, 1.25, 1.27, 1.28, 1.29, 1.31, 1.32, 1.34, 2.17, 2.15, 2.13, 2.11, 2.09, 2.08, 2.06, 2.04, 2.03, 2.01, 1.99, 1.98, 1.96, 1.94, 1.93, 1.91, 1.9, 1.88, 1.87, 1.85, 1.84, 1.82, 1.81, 1.79, 1.78, 1.76, 1.75, 1.73, 1.72, 1.7, 1.69, 1.67, 1.66, 1.64, 1.63, 1.62, 1.6, 1.59, 1.57, 1.56, 1.55, 1.53, 1.52, 1.51, 1.49, 1.48, 1.46, 1.45, 1.44, 1.42, 1.41]
32 [1.11, 1.12, 1.13, 1.14, 1.15, 1.16, 1.17, 1.18, 1.19, 1.2, 1.21, 1.22, 1.23, 1.24, 1.25, 1.26, 1.27, 1.28, 1.29, 1.3, 1.31, 1.32, 1.33, 1.34, 1.35, 1.36, 1.37, 1.38, 1.39, 1.4, 1.41, 1.42, 1.43, 1.44, 1.45, 1.46, 1.47, 1.48, 1.49, 1.51, 1.52, 1.53, 1.54, 1.55, 1.56, 1.57, 1.58, 1.59, 1.61, 1.62, 1.63, 1.64, 1.65, 1.66, 1.68, 1.69, 1.7, 1.71, 1.72, 1.74, 1.75, 1.76, 1.78, 1.79, 1.8, 1.82, 1.83, 1.84, 1.86, 1.87, 1.88, 1.9, 1.91, 1.93, 1.94, 1.96, 1.97, 1.99, 2.0, 2.02, 2.03, 2.05, 2.07, 2.08, 2.1, 2.12, 2.13, 2.15, 2.17, 2.19, 2.21, 2.23, 2.25, 2.27, 2.29, 2.31, 2.33, 1.36, 1.35, 1.33, 1.32, 1.31, 1.3, 1.29, 1.28, 1.27, 1.26, 1.25, 1.24, 1.23, 1.22, 1.22, 1.23, 1.25, 1.26, 1.27, 1.29, 1.3, 1.32, 1.33, 1.35, 2.21, 2.19, 2.17, 2.16, 2.14, 2.13, 2.11, 2.1, 2.08, 2.06, 2.05, 2.03, 2.02, 2.01, 1.99, 1.98, 1.96, 1.95, 1.93, 1.92, 1.9, 1.89, 1.88, 1.86, 1.85, 1.84, 1.82, 1.81, 1.8, 1.78, 1.77, 1.76, 1.74, 1.73, 1.72, 1.7, 1.69, 1.68, 1.67, 1.65, 1.64, 1.63, 1.61, 1.6, 1.59, 1.58, 1.56, 1.55, 1.54, 1.53, 1.51, 1.5, 1.49, 1.48, 1.47, 1.45, 1.44, 1.43, 1.42, 1.4, 1.39]
33 [1.11, 1.12, 1.13, 1.14, 1.15, 1.16, 1.17, 1.18, 1.19, 1.2, 1.21, 1.22, 1.23, 1.24, 1.25, 1.26, 1.27, 1.28, 1.29, 1.3, 1.31, 1.32, 1.33, 1.35, 1.36, 1.37, 1.38, 1.39, 1.4, 1.41, 1.42, 1.43, 1.44, 1.45, 1.46, 1.48, 1.49, 1.5, 1.51, 1.52, 1.53, 1.54, 1.56, 1.57, 1.58, 1.59, 1.6, 1.62, 1.63, 1.64, 1.65, 1.66, 1.68, 1.69, 1.7, 1.72, 1.73, 1.74, 1.76, 1.77, 1.78, 1.8, 1.81, 1.83, 1.84, 1.85, 1.87, 1.88, 1.9, 1.91, 1.93, 1.94, 1.96, 1.98, 1.99, 2.01, 2.03, 2.04, 2.06, 2.08, 2.09, 2.11, 2.13, 2.15, 2.17, 2.19, 2.21, 2.23, 2.25, 2.27, 2.29, 2.31, 2.33, 1.34, 1.33, 1.32, 1.31, 1.3, 1.29, 1.28, 1.27, 1.26, 1.25, 1.24, 1.23, 1.22, 1.21, 1.22, 1.24, 1.25, 1.26, 1.28, 1.29, 1.31, 1.33, 1.34, 2.23, 2.21, 2.2, 2.18, 2.16, 2.15, 2.13, 2.12, 2.1, 2.09, 2.08, 2.06, 2.05, 2.03, 2.02, 2.0, 1.99, 1.98, 1.96, 1.95, 1.94, 1.92, 1.91, 1.9, 1.88, 1.87, 1.86, 1.84, 1.83, 1.82, 1.81, 1.79, 1.78, 1.77, 1.76, 1.74, 1.73, 1.72, 1.71, 1.69, 1.68, 1.67, 1.66, 1.65, 1.63, 1.62, 1.61, 1.6, 1.59, 1.57, 1.56, 1.55, 1.54, 1.53, 1.52, 1.5, 1.49, 1.48, 1.47, 1.46, 1.44, 1.43, 1.42, 1.41, 1.4, 1.39]
34 [1.11, 1.12, 1.13, 1.14, 1.15, 1.16, 1.17, 1.18, 1.19, 1.2, 1.21, 1.22, 1.23, 1.24, 1.26, 1.27, 1.28, 1.29, 1.3, 1.31, 1.32, 1.33, 1.34, 1.35, 1.37, 1.38, 1.39, 1.4, 1.41, 1.42, 1.43, 1.45, 1.46, 1.47, 1.48, 1.49, 1.51, 1.52, 1.53, 1.54, 1.55, 1.57, 1.58, 1.59, 1.61, 1.62, 1.63, 1.64, 1.66, 1.67, 1.68, 1.7, 1.71, 1.73, 1.74, 1.75, 1.77, 1.78, 1.8, 1.81, 1.83, 1.84, 1.86, 1.87, 1.89, 1.9, 1.92, 1.94, 1.95, 1.97, 1.99, 2.0, 2.02, 2.04, 2.06, 2.08, 2.1, 2.11, 2.13, 2.15, 2.17, 2.19, 2.21, 2.23, 2.26, 2.28, 2.3, 2.32, 1.33, 1.32, 1.31, 1.3, 1.29, 1.28, 1.27, 1.26, 1.25, 1.24, 1.23, 1.22, 1.21, 1.21, 1.22, 1.23, 1.25, 1.26, 1.28, 1.29, 1.31, 1.33, 1.34, 2.23, 2.22, 2.2, 2.19, 2.17, 2.16, 2.15, 2.13, 2.12, 2.1, 2.09, 2.08, 2.06, 2.05, 2.04, 2.02, 2.01, 2.0, 1.98, 1.97, 1.96, 1.95, 1.93, 1.92, 1.91, 1.9, 1.88, 1.87, 1.86, 1.85, 1.83, 1.82, 1.81, 1.8, 1.79, 1.78, 1.76, 1.75, 1.74, 1.73, 1.72, 1.71, 1.69, 1.68, 1.67, 1.66, 1.65, 1.64, 1.63, 1.62, 1.6, 1.59, 1.58, 1.57, 1.56, 1.55, 1.54, 1.53, 1.52, 1.5, 1.49, 1.48, 1.47, 1.46, 1.45, 1.44, 1.43, 1.42, 1.4, 1.39, 1.38]
35 [1.11, 1.13, 1.14, 1.15, 1.16, 1.17, 1.18, 1.2, 1.21, 1.22, 1.23, 1.24, 1.26, 1.27, 1.28, 1.29, 1.31, 1.32, 1.33, 1.34, 1.36, 1.37, 1.38, 1.39, 1.41, 1.42, 1.43, 1.45, 1.46, 1.47, 1.49, 1.5, 1.51, 1.53, 1.54, 1.56, 1.57, 1.59, 1.6, 1.61, 1.63, 1.64, 1.66, 1.67, 1.69, 1.71, 1.72, 1.74, 1.75, 1.77, 1.79, 1.8, 1.82, 1.84, 1.86, 1.87, 1.89, 1.91, 1.93, 1.95, 1.97, 1.98, 2.0, 2.02, 2.04, 2.06, 2.08, 2.11, 2.13, 2.15, 2.17, 2.19, 2.22, 2.24, 2.26, 1.29, 1.29, 1.28, 1.27, 1.26, 1.25, 1.24, 1.24, 1.23, 1.22, 1.21, 1.21, 1.2, 1.19, 1.19, 1.21, 1.22, 1.24, 1.26, 1.27, 1.29, 1.31, 1.32, 1.34, 2.24, 2.22, 2.21, 2.2, 2.19, 2.17, 2.16, 2.15, 2.14, 2.12, 2.11, 2.1, 2.09, 2.08, 2.07, 2.05, 2.04, 2.03, 2.02, 2.01, 2.0, 1.99, 1.98, 1.97, 1.96, 1.95, 1.93, 1.92, 1.91, 1.9, 1.89, 1.88, 1.87, 1.86, 1.85, 1.84, 1.83, 1.82, 1.81, 1.8, 1.79, 1.78, 1.77, 1.76, 1.75, 1.74, 1.73, 1.72, 1.71, 1.7, 1.69, 1.68, 1.67, 1.67, 1.66, 1.65, 1.64, 1.63, 1.62, 1.61, 1.6, 1.59, 1.58, 1.57, 1.56, 1.55, 1.54, 1.53, 1.52, 1.51, 1.5, 1.49, 1.48, 1.47, 1.46, 1.45, 1.44, 1.43, 1.42, 1.41, 1.4, 1.4, 1.39]
36 [1.14, 1.15, 1.17, 1.18, 1.19, 1.2, 1.22, 1.23, 1.25, 1.26, 1.27, 1.29, 1.3, 1.31, 1.33, 1.34, 1.36, 1.37, 1.39, 1.4, 1.41, 1.43, 1.44, 1.46, 1.47, 1.49, 1.51, 1.52, 1.54, 1.55, 1.57, 1.59, 1.6, 1.62, 1.64, 1.65, 1.67, 1.69, 1.71, 1.72, 1.74, 1.76, 1.78, 1.8, 1.82, 1.84, 1.85, 1.87, 1.89, 1.92, 1.94, 1.96, 1.98, 2.0, 2.02, 2.04, 2.07, 2.09, 2.11, 2.14, 2.16, 2.19, 1.26, 1.25, 1.24, 1.24, 1.23, 1.22, 1.21, 1.21, 1.2, 1.19, 1.19, 1.18, 1.18, 1.17, 1.17, 1.18, 1.2, 1.21, 1.23, 1.25, 1.27, 1.28, 1.3, 1.32, 2.23, 2.22, 2.21, 2.2, 2.19, 2.18, 2.17, 2.16, 2.15, 2.14, 2.13, 2.12, 2.11, 2.1, 2.09, 2.08, 2.07, 2.06, 2.05, 2.04, 2.03, 2.03, 2.02, 2.01, 2.0, 1.99, 1.98, 1.97, 1.96, 1.95, 1.95, 1.94, 1.93, 1.92, 1.91, 1.9, 1.89, 1.89, 1.88, 1.87, 1.86, 1.85, 1.84, 1.84, 1.83, 1.82, 1.81, 1.8, 1.79, 1.79, 1.78, 1.77, 1.76, 1.75, 1.75, 1.74, 1.73, 1.72, 1.71, 1.71, 1.7, 1.69, 1.68, 1.67, 1.67, 1.66, 1.65, 1.64, 1.63, 1.63, 1.62, 1.61, 1.6, 1.59, 1.59, 1.58, 1.57, 1.56, 1.55, 1.54, 1.54, 1.53, 1.52, 1.51, 1.5, 1.49, 1.49, 1.48, 1.47, 1.46, 1.45, 1.44, 1.44, 1.43, 1.42, 1.41]
37 [1.2, 1.21, 1.23, 1.24, 1.26, 1.27, 1.29, 1.31, 1.32, 1.34, 1.36, 1.37, 1.39, 1.41, 1.42, 1.44, 1.46, 1.48, 1.49, 1.51, 1.53, 1.55, 1.57, 1.59, 1.61, 1.62, 1.64, 1.66, 1.68, 1.7, 1.73, 1.75, 1.77, 1.79, 1.81, 1.83, 1.86, 1.88, 1.9, 1.93, 1.95, 1.98, 2.0, 2.03, 2.05, 2.08, 1.19, 1.18, 1.18, 1.17, 1.17, 1.16, 1.16, 1.15, 1.15, 1.14, 1.14, 1.13, 1.13, 1.12, 1.13, 1.15, 1.16, 1.18, 1.2, 1.22, 1.23, 1.25, 1.27, 1.29, 2.19, 2.18, 2.17, 2.17, 2.16, 2.15, 2.14, 2.13, 2.13, 2.12, 2.11, 2.1, 2.1, 2.09, 2.08, 2.08, 2.07, 2.06, 2.05, 2.05, 2.04, 2.03, 2.03, 2.02, 2.01, 2.01, 2.0, 1.99, 1.99, 1.98, 1.97, 1.97, 1.96, 1.96, 1.95, 1.94, 1.94, 1.93, 1.92, 1.92, 1.91, 1.91, 1.9, 1.89, 1.89, 1.88, 1.88, 1.87, 1.86, 1.86, 1.85, 1.85, 1.84, 1.83, 1.83, 1.82, 1.82, 1.81, 1.8, 1.8, 1.79, 1.79, 1.78, 1.77, 1.77, 1.76, 1.76, 1.75, 1.74, 1.74, 1.73, 1.73, 1.72, 1.71, 1.71, 1.7, 1.7, 1.69, 1.68, 1.68, 1.67, 1.67, 1.66, 1.65, 1.65, 1.64, 1.64, 1.63, 1.62, 1.62, 1.61, 1.6, 1.6, 1.59, 1.59, 1.58, 1.57, 1.57, 1.56, 1.55, 1.55, 1.54, 1.53, 1.53, 1.52, 1.51, 1.51, 1.5, 1.49, 1.49, 1.48, 1.47]
38 [1.32, 1.34, 1.35, 1.37, 1.39, 1.41, 1.44, 1.46, 1.48, 1.5, 1.52, 1.54, 1.56, 1.59, 1.61, 1.63, 1.66, 1.68, 1.7, 1.73, 1.75, 1.78, 1.81, 1.83, 1.86, 1.08, 1.07, 1.07, 1.07, 1.07, 1.06, 1.06, 1.06, 1.05, 1.05, 1.05, 1.05, 1.04, 1.04, 1.04, 1.06, 1.07, 1.09, 1.11, 1.13, 1.15, 1.16, 1.18, 1.2, 1.23, 2.08, 2.07, 2.07, 2.07, 2.06, 2.06, 2.05, 2.05, 2.04, 2.04, 2.04, 2.03, 2.03, 2.02, 2.02, 2.02, 2.01, 2.01, 2.01, 2.0, 2.0, 1.99, 1.99, 1.99, 1.98, 1.98, 1.98, 1.97, 1.97, 1.97, 1.96, 1.96, 1.95, 1.95, 1.95, 1.94, 1.94, 1.94, 1.93, 1.93, 1.93, 1.92, 1.92, 1.92, 1.91, 1.91, 1.91, 1.9, 1.9, 1.9, 1.89, 1.89, 1.89, 1.88, 1.88, 1.88, 1.87, 1.87, 1.87, 1.87, 1.86, 1.86, 1.86, 1.85, 1.85, 1.85, 1.84, 1.84, 1.84, 1.83, 1.83, 1.83, 1.82, 1.82, 1.82, 1.81, 1.81, 1.81, 1.8, 1.8, 1.8, 1.79, 1.79, 1.79, 1.78, 1.78, 1.78, 1.77, 1.77, 1.77, 1.76, 1.76, 1.76, 1.75, 1.75, 1.75, 1.74, 1.74, 1.74, 1.73, 1.73, 1.73, 1.72, 1.72, 1.71, 1.71, 1.71, 1.7, 1.7, 1.7, 1.69, 1.69, 1.68, 1.68, 1.68, 1.67, 1.67, 1.67, 1.66, 1.66, 1.65, 1.65, 1.64, 1.64, 1.64, 1.63, 1.63, 1.62, 1.62, 1.61, 1.61, 1.6]
39 [1.5, 1.53, 1.56, 1.58, 1.61, 0.93, 0.93, 0.93, 0.93, 0.93, 0.93, 0.93, 0.93, 0.93, 0.93, 0.93, 0.93, 0.93, 0.93, 0.93, 0.95, 0.97, 0.98, 1.0, 1.02, 1.04, 1.06, 1.08, 1.1, 1.12, 1.91, 1.91, 1.91, 1.91, 1.91, 1.91, 1.91, 1.9, 1.9, 1.9, 1.9, 1.9, 1.9, 1.9, 1.9, 1.9, 1.9, 1.9, 1.9, 1.9, 1.9, 1.9, 1.9, 1.89, 1.89, 1.89, 1.89, 1.89, 1.89, 1.89, 1.89, 1.89, 1.89, 1.89, 1.89, 1.89, 1.89, 1.89, 1.89, 1.89, 1.89, 1.88, 1.88, 1.88, 1.88, 1.88, 1.88, 1.88, 1.88, 1.88, 1.88, 1.88, 1.88, 1.88, 1.88, 1.88, 1.88, 1.88, 1.88, 1.88, 1.87, 1.87, 1.87, 1.87, 1.87, 1.87, 1.87, 1.87, 1.87, 1.87, 1.87, 1.87, 1.87, 1.87, 1.87, 1.87, 1.87, 1.87, 1.87, 1.87, 1.86, 1.86, 1.86, 1.86, 1.86, 1.86, 1.86, 1.86, 1.86, 1.86, 1.86, 1.86, 1.86, 1.86, 1.86, 1.86, 1.86, 1.86, 1.86, 1.85, 1.85, 1.85, 1.85, 1.85, 1.85, 1.85, 1.85, 1.85, 1.85, 1.85, 1.85, 1.85, 1.85, 1.85, 1.85, 1.85, 1.84, 1.84, 1.84, 1.84, 1.84, 1.84, 1.84, 1.84, 1.84, 1.84, 1.84, 1.84, 1.84, 1.84, 1.84, 1.83, 1.83, 1.83, 0.8, 0.79, 0.77, 0.76, 0.74, 0.73, 0.72, 0.7, 0.69, 0.68, 0.67, 0.65, 0.64, 0.63, 0.62, 0.61, 0.61, 0.61]
40 [0.83, 0.85, 0.86, 0.88, 0.9, 0.92, 0.94, 0.96, 0.98, 1.67, 1.68, 1.68, 1.68, 1.69, 1.69, 1.69, 1.7, 1.7, 1.7, 1.71, 1.71, 1.71, 1.71, 1.72, 1.72, 1.72, 1.73, 1.73, 1.73, 1.73, 1.74, 1.74, 1.74, 1.74, 1.75, 1.75, 1.75, 1.75, 1.76, 1.76, 1.76, 1.77, 1.77, 1.77, 1.77, 1.78, 1.78, 1.78, 1.78, 1.79, 1.79, 1.79, 1.79, 1.79, 1.8, 1.8, 1.8, 1.8, 1.81, 1.81, 1.81, 1.81, 1.82, 1.82, 1.82, 1.82, 1.83, 1.83, 1.83, 1.83, 1.83, 1.84, 1.84, 1.84, 1.84, 1.85, 1.85, 1.85, 1.85, 1.86, 1.86, 1.86, 1.86, 1.87, 1.87, 1.87, 1.87, 1.87, 1.88, 1.88, 1.88, 1.88, 1.89, 1.89, 1.89, 1.89, 1.9, 1.9, 1.9, 1.9, 1.91, 1.91, 1.91, 1.91, 1.92, 1.92, 1.92, 1.92, 1.93, 1.93, 1.93, 1.93, 1.94, 1.94, 1.94, 1.94, 1.95, 1.95, 1.95, 1.95, 1.96, 1.96, 1.96, 1.97, 1.97, 1.97, 1.97, 1.98, 1.98, 1.98, 1.99, 1.99, 1.99, 1.99, 2.0, 2.0, 2.0, 2.01, 2.01, 2.01, 2.02, 2.02, 2.02, 0.89, 0.88, 0.86, 0.85, 0.84, 0.82, 0.81, 0.8, 0.78, 0.77, 0.76, 0.75, 0.73, 0.72, 0.71, 0.7, 0.7, 0.7, 0.7, 0.7, 0.7, 0.71, 0.71, 0.71, 0.71, 0.71, 0.71, 0.72, 0.72, 0.72, 0.72, 0.72, 0.73, 2.17, 2.18, 2.18, 2.19, 2.2, 2.2]
41 [1.43, 1.43, 1.44, 1.45, 1.46, 1.46, 1.47, 1.48, 1.48, 1.49, 1.5, 1.5, 1.51, 1.51, 1.52, 1.53, 1.53, 1.54, 1.55, 1.55, 1.56, 1.56, 1.57, 1.58, 1.58, 1.59, 1.6, 1.6, 1.61, 1.61, 1.62, 1.63, 1.63, 1.64, 1.64, 1.65, 1.65, 1.66, 1.67, 1.67, 1.68, 1.68, 1.69, 1.7, 1.7, 1.71, 1.71, 1.72, 1.72, 1.73, 1.74, 1.74, 1.75, 1.75, 1.76, 1.77, 1.77, 1.78, 1.78, 1.79, 1.79, 1.8, 1.81, 1.81, 1.82, 1.82, 1.83, 1.84, 1.84, 1.85, 1.85, 1.86, 1.87, 1.87, 1.88, 1.88, 1.89, 1.9, 1.9, 1.91, 1.92, 1.92, 1.93, 1.93, 1.94, 1.95, 1.95, 1.96, 1.97, 1.97, 1.98, 1.99, 1.99, 2.0, 2.01, 2.01, 2.02, 2.03, 2.03, 2.04, 2.05, 2.05, 2.06, 2.07, 2.08, 2.08, 2.09, 2.1, 2.11, 2.11, 2.12, 2.13, 2.14, 2.15, 2.15, 2.16, 2.17, 0.95, 0.93, 0.92, 0.91, 0.89, 0.88, 0.87, 0.86, 0.85, 0.83, 0.82, 0.81, 0.8, 0.79, 0.78, 0.77, 0.77, 0.77, 0.78, 0.78, 0.78, 0.79, 0.79, 0.8, 0.8, 0.8, 0.81, 0.81, 0.82, 0.82, 0.83, 0.83, 0.83, 0.84, 2.55, 2.57, 2.58, 2.6, 2.61, 2.63, 2.65, 2.66, 2.68, 2.7, 2.72, 2.74, 2.75, 2.77, 2.8, 2.82, 2.84, 2.86, 2.83, 2.8, 2.76, 2.73, 2.7, 2.66, 2.63, 2.6, 2.57, 2.54, 2.5, 2.47, 2.44]
42 [1.34, 1.35, 1.36, 1.37, 1.38, 1.38, 1.39, 1.4, 1.41, 1.42, 1.43, 1.43, 1.44, 1.45, 1.46, 1.47, 1.48, 1.48, 1.49, 1.5, 1.51, 1.52, 1.52, 1.53, 1.54, 1.55, 1.56, 1.56, 1.57, 1.58, 1.59, 1.6, 1.6, 1.61, 1.62, 1.63, 1.64, 1.64, 1.65, 1.66, 1.67, 1.68, 1.69, 1.69, 1.7, 1.71, 1.72, 1.73, 1.73, 1.74, 1.75, 1.76, 1.77, 1.78, 1.78, 1.79, 1.8, 1.81, 1.82, 1.83, 1.83, 1.84, 1.85, 1.86, 1.87, 1.88, 1.89, 1.89, 1.9, 1.91, 1.92, 1.93, 1.94, 1.95, 1.96, 1.97, 1.98, 1.99, 2.0, 2.01, 2.01, 2.02, 2.03, 2.04, 2.05, 2.06, 2.07, 2.08, 2.09, 2.1, 2.12, 2.13, 2.14, 2.15, 2.16, 2.17, 2.18, 2.19, 2.2, 0.95, 0.94, 0.93, 0.91, 0.9, 0.89, 0.88, 0.87, 0.86, 0.85, 0.84, 0.83, 0.82, 0.81, 0.8, 0.79, 0.79, 0.8, 0.8, 0.81, 0.81, 0.82, 0.82, 0.83, 0.83, 0.84, 0.84, 0.85, 0.86, 0.86, 0.87, 0.87, 0.88, 0.89, 2.73, 2.75, 2.77, 2.79, 2.81, 2.83, 2.86, 2.88, 2.9, 2.93, 2.95, 2.98, 3.0, 3.03, 3.06, 3.09, 3.12, 3.15, 3.15, 3.11, 3.08, 3.05, 3.02, 2.99, 2.96, 2.93, 2.9, 2.87, 2.84, 2.81, 2.79, 2.76, 2.73, 2.7, 2.67, 2.65, 2.62, 2.59, 2.56, 1.58, 1.56, 1.55, 1.53, 1.51, 1.5, 1.48, 1.47, 1.45, 1.43]
43 [1.29, 1.3, 1.31, 1.32, 1.33, 1.34, 1.35, 1.36, 1.37, 1.38, 1.39, 1.4, 1.41, 1.42, 1.43, 1.44, 1.45, 1.46, 1.47, 1.48, 1.49, 1.5, 1.51, 1.52, 1.53, 1.54, 1.55, 1.57, 1.58, 1.59, 1.6, 1.61, 1.62, 1.63, 1.64, 1.65, 1.66, 1.67, 1.68, 1.69, 1.7, 1.71, 1.72, 1.74, 1.75, 1.76, 1.77, 1.78, 1.79, 1.8, 1.81, 1.83, 1.84, 1.85, 1.86, 1.87, 1.88, 1.9, 1.91, 1.92, 1.93, 1.94, 1.96, 1.97, 1.98, 1.99, 2.01, 2.02, 2.03, 2.05, 2.06, 2.07, 2.09, 2.1, 2.11, 2.13, 2.14, 2.16, 0.93, 0.92, 0.91, 0.89, 0.88, 0.87, 0.86, 0.85, 0.84, 0.84, 0.83, 0.82, 0.81, 0.8, 0.79, 0.78, 0.78, 0.79, 0.79, 0.8, 0.81, 0.81, 0.82, 0.82, 0.83, 0.84, 0.84, 0.85, 0.86, 0.87, 0.87, 0.88, 0.89, 0.9, 0.9, 2.83, 2.86, 2.89, 2.91, 2.94, 2.97, 3.0, 3.03, 3.06, 3.09, 3.12, 3.15, 3.18, 3.22, 3.25, 3.29, 3.33, 3.37, 3.4, 3.37, 3.34, 3.31, 3.29, 3.26, 3.23, 3.21, 3.18, 3.16, 3.13, 3.1, 3.08, 3.05, 3.03, 3.0, 2.98, 2.95, 2.93, 2.91, 2.88, 2.86, 1.76, 1.74, 1.73, 1.72, 1.7, 1.69, 1.67, 1.66, 1.64, 1.63, 1.62, 1.65, 1.7, 2.54, 2.52, 2.5, 2.47, 2.45, 2.43, 2.41, 2.39, 2.37, 2.34, 2.32, 2.3, 2.28, 2.26, 2.24, 2.22]
44 [1.28, 1.29, 1.3, 1.31, 1.32, 1.33, 1.34, 1.35, 1.36, 1.38, 1.39, 1.4, 1.41, 1.42, 1.43, 1.44, 1.45, 1.47, 1.48, 1.49, 1.5, 1.51, 1.52, 1.53, 1.55, 1.56, 1.57, 1.58, 1.59, 1.6, 1.62, 1.63, 1.64, 1.65, 1.66, 1.67, 1.69, 1.7, 1.71, 1.72, 1.74, 1.75, 1.76, 1.77, 1.79, 1.8, 1.81, 1.82, 1.84, 1.85, 1.86, 1.88, 1.89, 1.9, 1.92, 1.93, 1.95, 1.96, 1.97, 1.99, 2.0, 2.02, 2.03, 2.05, 2.06, 2.08, 2.09, 2.11, 0.9, 0.89, 0.88, 0.87, 0.86, 0.85, 0.84, 0.83, 0.82, 0.81, 0.81, 0.8, 0.79, 0.78, 0.77, 0.77, 0.77, 0.77, 0.78, 0.78, 0.79, 0.8, 0.8, 0.81, 0.82, 0.82, 0.83, 0.84, 0.85, 0.85, 0.86, 0.87, 0.88, 0.89, 0.9, 2.84, 2.86, 2.89, 2.92, 2.95, 2.98, 3.01, 3.04, 3.08, 3.11, 3.14, 3.18, 3.21, 3.25, 3.29, 3.33, 3.37, 3.41, 3.45, 3.46, 3.44, 3.41, 3.39, 3.36, 3.34, 3.31, 3.29, 3.26, 3.24, 3.22, 3.19, 3.17, 3.15, 3.12, 3.1, 3.08, 3.05, 3.03, 3.01, 2.99, 2.97, 1.82, 1.81, 1.79, 1.78, 1.77, 1.76, 1.74, 1.73, 1.72, 1.7, 1.69, 1.73, 1.78, 2.67, 2.65, 2.63, 2.61, 2.59, 2.57, 2.55, 2.53, 2.51, 2.49, 2.47, 2.45, 2.43, 2.41, 2.39, 2.37, 2.35, 2.33, 2.31, 2.3, 2.28, 2.26, 2.24, 2.22, 2.2]
45 [1.27, 1.28, 1.3, 1.31, 1.32, 1.33, 1.34, 1.36, 1.37, 1.38, 1.39, 1.4, 1.42, 1.43, 1.44, 1.45, 1.46, 1.48, 1.49, 1.5, 1.51, 1.53, 1.54, 1.55, 1.56, 1.58, 1.59, 1.6, 1.61, 1.63, 1.64, 1.65, 1.67, 1.68, 1.69, 1.71, 1.72, 1.73, 1.75, 1.76, 1.78, 1.79, 1.8, 1.82, 1.83, 1.85, 1.86, 1.88, 1.89, 1.91, 1.92, 1.94, 1.95, 1.97, 1.98, 2.0, 2.01, 2.03, 2.05, 0.87, 0.86, 0.85, 0.84, 0.83, 0.82, 0.81, 0.81, 0.8, 0.79, 0.78, 0.77, 0.77, 0.76, 0.75, 0.75, 0.74, 0.75, 0.76, 0.76, 0.77, 0.78, 0.78, 0.79, 0.8, 0.81, 0.81, 0.82, 0.83, 0.84, 0.84, 0.85, 0.86, 0.87, 0.88, 0.89, 2.84, 2.87, 2.9, 2.93, 2.96, 3.0, 3.03, 3.06, 3.1, 3.13, 3.17, 3.21, 3.25, 3.28, 3.32, 3.37, 3.41, 3.45, 3.5, 3.5, 3.48, 3.46, 3.43, 3.41, 3.39, 3.36, 3.34, 3.32, 3.3, 3.28, 3.25, 3.23, 3.21, 3.19, 3.17, 3.15, 3.13, 3.11, 3.09, 3.07, 3.04, 1.87, 1.85, 1.84, 1.83, 1.82, 1.81, 1.79, 1.78, 1.77, 1.76, 1.75, 1.78, 1.84, 2.77, 2.75, 2.74, 2.72, 2.7, 2.68, 2.66, 2.64, 2.62, 2.61, 2.59, 2.57, 2.55, 2.53, 2.52, 2.5, 2.48, 2.46, 2.44, 2.43, 2.41, 2.39, 2.37, 2.35, 2.34, 2.32, 2.3, 2.28, 2.26, 2.25, 2.23, 2.21, 2.19]
46 [1.27, 1.28, 1.3, 1.31, 1.32, 1.33, 1.34, 1.36, 1.37, 1.38, 1.39, 1.4, 1.42, 1.43, 1.44, 1.45, 1.46, 1.48, 1.49, 1.5, 1.51, 1.53, 1.54, 1.55, 1.56, 1.58, 1.59, 1.6, 1.61, 1.63, 1.64, 1.65, 1.67, 1.68, 1.69, 1.71, 1.72, 1.73, 1.75, 1.76, 1.78, 1.79, 1.8, 1.82, 1.83, 1.85, 1.86, 1.88, 1.89, 1.91, 1.92, 1.94, 1.95, 1.97, 1.98, 2.0, 2.01, 2.03, 2.05, 0.87, 0.86, 0.85, 0.84, 0.83, 0.82, 0.81, 0.81, 0.8, 0.79, 0.78, 0.77, 0.77, 0.76, 0.75, 0.75, 0.74, 0.75, 0.76, 0.76, 0.77, 0.78, 0.78, 0.79, 0.8, 0.81, 0.81, 0.82, 0.83, 0.84, 0.84, 0.85, 0.86, 0.87, 0.88, 0.89, 2.84, 2.87, 2.9, 2.93, 2.96, 3.0, 3.03, 3.06, 3.1, 3.13, 3.17, 3.21, 3.25, 3.28, 3.32, 3.37, 3.41, 3.45, 3.5, 3.5, 3.48, 3.46, 3.43, 3.41, 3.39, 3.36, 3.34, 3.32, 3.3, 3.28, 3.25, 3.23, 3.21, 3.19, 3.17, 3.15, 3.13, 3.11, 3.09, 3.07, 3.04, 1.87, 1.85, 1.84, 1.83, 1.82, 1.81, 1.79, 1.78, 1.77, 1.76, 1.75, 1.78, 1.84, 2.77, 2.75, 2.74, 2.72, 2.7, 2.68, 2.66, 2.64, 2.62, 2.61, 2.59, 2.57, 2.55, 2.53, 2.52, 2.5, 2.48, 2.46, 2.44, 2.43, 2.41, 2.39, 2.37, 2.35, 2.34, 2.32, 2.3, 2.28, 2.26, 2.25, 2.23, 2.21, 2.19]
47 [1.29, 1.3, 1.31, 1.33, 1.34, 1.35, 1.37, 1.38, 1.4, 1.41, 1.42, 1.44, 1.45, 1.47, 1.48, 1.49, 1.51, 1.52, 1.54, 1.55, 1.57, 1.58, 1.6, 1.61, 1.63, 1.64, 1.66, 1.68, 1.69, 1.71, 1.72, 1.74, 1.76, 1.77, 1.79, 1.81, 1.82, 1.84, 1.86, 1.87, 1.89, 0.81, 0.8, 0.79, 0.78, 0.77, 0.77, 0.76, 0.75, 0.75, 0.74, 0.73, 0.73, 0.72, 0.71, 0.71, 0.7, 0.7, 0.7, 0.71, 0.71, 0.72, 0.73, 0.74, 0.74, 0.75, 0.76, 0.77, 0.77, 0.78, 0.79, 0.8, 0.81, 0.82, 0.83, 0.83, 0.84, 0.85, 2.77, 2.8, 2.83, 2.86, 2.9, 2.93, 2.97, 3.0, 3.04, 3.08, 3.12, 3.16, 3.2, 3.24, 3.28, 3.32, 3.37, 3.42, 3.46, 3.51, 3.55, 3.53, 3.51, 3.49, 3.47, 3.45, 3.43, 3.42, 3.4, 3.38, 3.36, 3.34, 3.32, 3.31, 3.29, 3.27, 3.25, 3.24, 3.22, 3.2, 3.18, 3.17, 1.93, 1.92, 1.91, 1.9, 1.89, 1.88, 1.87, 1.86, 1.85, 1.84, 1.83, 1.82, 1.88, 1.95, 2.92, 2.91, 2.89, 2.88, 2.86, 2.85, 2.83, 2.82, 2.8, 2.79, 2.77, 2.76, 2.74, 2.73, 2.71, 2.7, 2.68, 2.67, 2.65, 2.64, 2.62, 2.61, 2.59, 2.58, 2.56, 2.55, 2.53, 2.52, 2.5, 2.49, 2.47, 2.46, 2.44, 2.43, 2.41, 2.4, 2.38, 2.37, 2.35, 2.34, 2.32, 2.31, 2.29, 2.27, 2.26, 2.24, 2.23, 1.23]
48 [1.34, 1.35, 1.37, 1.39, 1.4, 1.42, 1.44, 1.45, 1.47, 1.49, 1.5, 1.52, 1.54, 1.56, 1.57, 1.59, 1.61, 1.63, 1.65, 1.67, 1.68, 0.71, 0.7, 0.69, 0.69, 0.68, 0.68, 0.67, 0.67, 0.66, 0.66, 0.65, 0.65, 0.64, 0.64, 0.63, 0.63, 0.63, 0.64, 0.65, 0.65, 0.66, 0.67, 0.68, 0.68, 0.69, 0.7, 0.71, 0.72, 0.72, 0.73, 0.74, 0.75, 0.76, 0.77, 0.78, 0.79, 0.8, 0.81, 2.64, 2.68, 2.71, 2.75, 2.78, 2.82, 2.86, 2.9, 2.94, 2.98, 3.02, 3.06, 3.1, 3.15, 3.19, 3.24, 3.29, 3.34, 3.39, 3.44, 3.49, 3.51, 3.49, 3.48, 3.46, 3.45, 3.44, 3.42, 3.41, 3.39, 3.38, 3.37, 3.35, 3.34, 3.33, 3.31, 3.3, 3.29, 3.27, 3.26, 3.25, 3.24, 3.22, 1.96, 1.95, 1.95, 1.94, 1.93, 1.92, 1.92, 1.91, 1.9, 1.89, 1.89, 1.89, 1.95, 2.02, 3.04, 3.03, 3.02, 3.01, 3.0, 2.98, 2.97, 2.96, 2.95, 2.94, 2.93, 2.92, 2.9, 2.89, 2.88, 2.87, 2.86, 2.85, 2.84, 2.83, 2.81, 2.8, 2.79, 2.78, 2.77, 2.76, 2.75, 2.74, 2.73, 2.71, 2.7, 2.69, 2.68, 2.67, 2.66, 2.65, 2.64, 2.63, 2.61, 2.6, 2.59, 2.58, 2.57, 2.56, 2.55, 2.53, 2.52, 1.42, 1.36, 1.29, 1.27, 1.26, 1.26, 1.25, 1.24, 1.24, 1.23, 1.23, 1.22, 1.21, 1.21, 1.2, 1.19, 2.32, 2.31, 2.29]
49 [1.39, 1.41, 1.43, 1.45, 1.46, 1.48, 1.5, 1.52, 1.54, 0.65, 0.64, 0.64, 0.63, 0.63, 0.62, 0.62, 0.61, 0.61, 0.61, 0.6, 0.6, 0.59, 0.59, 0.59, 0.58, 0.59, 0.6, 0.6, 0.61, 0.62, 0.63, 0.63, 0.64, 0.65, 0.66, 0.67, 0.68, 0.68, 0.69, 0.7, 0.71, 0.72, 0.73, 0.74, 0.75, 0.76, 0.77, 2.52, 2.55, 2.59, 2.62, 2.66, 2.7, 2.73, 2.77, 2.81, 2.85, 2.89, 2.94, 2.98, 3.02, 3.07, 3.12, 3.17, 3.21, 3.27, 3.32, 3.37, 3.43, 3.45, 3.44, 3.43, 3.42, 3.41, 3.39, 3.38, 3.37, 3.36, 3.35, 3.34, 3.33, 3.32, 3.31, 3.3, 3.29, 3.28, 3.27, 3.26, 3.25, 3.24, 3.23, 1.96, 1.95, 1.95, 1.94, 1.93, 1.93, 1.92, 1.92, 1.91, 1.91, 1.9, 1.89, 1.96, 2.03, 3.08, 3.07, 3.06, 3.05, 3.05, 3.04, 3.03, 3.02, 3.01, 3.0, 2.99, 2.98, 2.97, 2.96, 2.96, 2.95, 2.94, 2.93, 2.92, 2.91, 2.9, 2.89, 2.88, 2.88, 2.87, 2.86, 2.85, 2.84, 2.83, 2.82, 2.81, 2.81, 2.8, 2.79, 2.78, 2.77, 2.76, 2.75, 2.74, 2.73, 2.73, 2.72, 2.71, 2.7, 2.69, 2.68, 2.67, 2.66, 1.46, 1.4, 1.34, 1.34, 1.34, 1.33, 1.33, 1.32, 1.32, 1.31, 1.31, 1.3, 1.3, 1.29, 1.29, 1.28, 2.5, 2.49, 2.48, 2.47, 2.46, 1.93, 1.87, 1.82, 1.77, 1.77, 1.76, 1.75, 1.74]
