0 -3.1415286
0 -3.1415925
0 -3.1415925
0 -3.1415925
0 -3.1415927
0 3.1415923
0 3.1415925
0 -6.4194304E-5
0 1.0471984
1 -3.1415286
1 -3.1415925
1 -3.1415925
1 -3.1415925
1 -3.1415927
1 3.1415923
1 3.1415925
1 -6.4194304E-5
1 1.0471984
2 -3.1415286
2 -3.1415925
2 -3.1415925
2 -3.1415925
2 -3.1415927
2 3.1415923
2 3.1415925
2 -6.4194304E-5
2 1.0471984
3 3.134883
3 3.138013
3 3.1382349
3 3.1380255
3 3.1372273
3 3.134934
3 3.1227872
3 0.0067096413
3 1.0521764
4 3.129022
4 3.1350117
4 3.1354434
4 3.1350856
4 3.1336682
4 3.1296153
4 3.1090503
4 0.012570408
4 1.0626824
5 3.130244
5 3.135796
5 3.1362114
5 3.135934
5 3.1347575
5 3.1314135
5 3.1155078
5 0.011348387
5 1.0803084
6 3.1301656
6 3.135949
6 3.136397
6 3.136173
6 3.1351123
6 3.1321142
6 3.1188514
6 0.011426965
6 1.1027912
7 3.1303017
7 3.136195
7 3.1366618
7 3.1364872
7 3.1355438
7 3.1328843
7 3.121789
7 0.01129083
7 1.1235437
8 3.1295927
8 3.1359863
8 3.1364977
8 3.136343
8 3.1354098
8 3.1327806
8 3.1221924
8 0.011999671
8 1.137276
9 3.1295927
9 3.1359863
9 3.1364977
9 3.136343
9 3.1354098
9 3.1327806
9 3.1221924
9 0.011999671
9 1.137276
10 3.1295927
10 3.1359863
10 3.1364977
10 3.136343
10 3.1354098
10 3.1327806
10 3.1221924
10 0.011999671
10 1.137276
11 3.1295927
11 3.1359863
11 3.1364977
11 3.136343
11 3.1354098
11 3.1327806
11 3.1221924
11 0.011999671
11 1.137276
12 3.1295927
12 3.1359863
12 3.1364977
12 3.136343
12 3.1354098
12 3.1327806
12 3.1221924
12 0.011999671
12 1.137276
13 3.1297398
13 3.1361122
13 3.1366239
13 3.1364844
13 3.1355922
13 3.1330786
13 3.1231055
13 0.01185263
13 1.1434798
14 3.1297398
14 3.1361122
14 3.1366239
14 3.1364844
14 3.1355922
14 3.1330786
14 3.1231055
14 0.01185263
14 1.1434798
15 3.1296785
15 3.1360147
15 3.136521
15 3.136365
15 3.1354322
15 3.1328044
15 3.1221893
15 0.011913825
15 1.1360377
16 3.1296785
16 3.1360147
16 3.136521
16 3.136365
16 3.1354322
16 3.1328044
16 3.1221893
16 0.011913825
16 1.1360377
17 3.1296785
17 3.1360147
17 3.136521
17 3.136365
17 3.1354322
17 3.1328044
17 3.1221893
17 0.011913825
17 1.1360377
18 3.1296785
18 3.1360147
18 3.136521
18 3.136365
18 3.1354322
18 3.1328044
18 3.1221893
18 0.011913825
18 1.1360377
19 3.129693
19 3.1358857
19 3.136375
19 3.136186
19 3.1351807
19 3.132346
19 3.1204522
19 0.011899505
19 1.1213369
20 3.129693
20 3.1358857
20 3.136375
20 3.136186
20 3.1351807
20 3.132346
20 3.1204522
20 0.011899505
20 1.1213369
21 3.1296039
21 3.1356466
21 3.1361122
21 3.1358702
21 3.1347413
21 3.1315484
21 3.1172986
21 0.011988759
21 1.0998517
22 3.129686
22 3.135434
22 3.1358564
22 3.1355412
22 3.134253
22 3.1305807
22 3.1125474
22 0.011906312
22 1.0713723
23 3.129577
23 3.1351008
23 3.135476
23 3.1350658
23 3.133558
23 3.1292007
23 3.1048427
23 0.0120155215
23 1.0398097
24 3.129577
24 3.1351008
24 3.135476
24 3.1350658
24 3.133558
24 3.1292007
24 3.1048427
24 0.0120155215
24 1.0398097
25 3.1317003
25 3.136006
25 3.136265
25 3.1358373
25 3.1343904
25 3.1301243
25 3.1016662
25 0.009892325
25 1.0063261
26 3.1317003
26 3.136006
26 3.136265
26 3.1358373
26 3.1343904
26 3.1301243
26 3.1016662
26 0.009892325
26 1.0063261
27 3.1345704
27 3.1374247
27 3.137561
27 3.1371727
27 3.135948
27 3.1322212
27 3.0988626
27 0.007022163
27 0.9667945
28 3.1345704
28 3.1374247
28 3.137561
28 3.1371727
28 3.135948
28 3.1322212
28 3.0988626
28 0.007022163
28 0.9667945
29 3.1371841
29 3.1388254
29 3.1388717
29 3.1385558
29 3.137614
29 3.134605
29 3.084872
29 0.0044083693
29 0.920224
30 3.1371841
30 3.1388254
30 3.1388717
30 3.1385558
30 3.137614
30 3.134605
30 3.084872
30 0.0044083693
30 0.920224
31 3.1406229
31 3.140931
31 3.140931
31 3.1408398
31 3.1405783
31 3.1396852
31 1.5713677
31 9.696947E-4
31 0.87245363
32 3.1406229
32 3.140931
32 3.140931
32 3.1408398
32 3.1405783
32 3.1396852
32 1.5713677
32 9.696947E-4
32 0.87245363
33 -3.1413162
33 -3.141432
33 -3.1414294
33 -3.1414042
33 -3.141332
33 -3.1410668
33 -0.0037950657
33 -2.7648266E-4
33 0.8307258
34 -3.1413162
34 -3.141432
34 -3.1414294
34 -3.1414042
34 -3.141332
34 -3.1410668
34 -0.0037950657
34 -2.7648266E-4
34 0.8307258
35 -3.1406713
35 -3.1409676
35 -3.140949
35 -3.1408353
35 -3.1405149
35 -3.1392295
35 -0.007529083
35 -9.2138525E-4
35 0.7899305
36 -3.1406713
36 -3.1409676
36 -3.140949
36 -3.1408353
36 -3.1405149
36 -3.1392295
36 -0.007529083
36 -9.2138525E-4
36 0.7899305
37 -3.1406713
37 -3.1409676
37 -3.140949
37 -3.1408353
37 -3.1405149
37 -3.1392295
37 -0.007529083
37 -9.2138525E-4
37 0.7899305
38 -3.139927
38 -3.1404006
38 -3.1403491
38 -3.1401055
38 -3.1394165
38 -3.136363
38 -0.009975912
38 -0.0016657491
38 0.7531048
39 -3.139927
39 -3.1404006
39 -3.1403491
39 -3.1401055
39 -3.1394165
39 -3.136363
39 -0.009975912
39 -0.0016657491
39 0.7531048
40 -3.139927
40 -3.1404006
40 -3.1403491
40 -3.1401055
40 -3.1394165
40 -3.136363
40 -0.009975912
40 -0.0016657491
40 0.7531048
41 -3.139927
41 -3.1404006
41 -3.1403491
41 -3.1401055
41 -3.1394165
41 -3.136363
41 -0.009975912
41 -0.0016657491
41 0.7531048
42 -3.1406505
42 -3.1409094
42 -3.1408715
42 -3.1407182
42 -3.1402798
42 -3.13812
42 -0.004533729
42 -9.421582E-4
42 0.721499
43 -3.1402133
43 -3.1405513
43 -3.140481
43 -3.1402233
43 -3.1394777
43 -3.1352782
43 -0.005706534
43 -0.0013795547
43 0.689223
44 -3.1402133
44 -3.1405513
44 -3.140481
44 -3.1402233
44 -3.1394777
44 -3.1352782
44 -0.005706534
44 -0.0013795547
44 0.689223
45 -3.1402133
45 -3.1405513
45 -3.140481
45 -3.1402233
45 -3.1394777
45 -3.1352782
45 -0.005706534
45 -0.0013795547
45 0.689223
46 -3.1397483
46 -3.140154
46 -3.1400383
46 -3.1396477
46 -3.138496
46 -3.130808
46 -0.0067251907
46 -0.0018444179
46 0.6572638
47 -3.1411936
47 -3.1412897
47 -3.141261
47 -3.1411707
47 -3.1408973
47 -3.1385798
47 -0.0012264493
47 -3.989064E-4
47 0.6239528
48 -3.1411936
48 -3.1412897
48 -3.141261
48 -3.1411707
48 -3.1408973
48 -3.1385798
48 -0.0012264493
48 -3.989064E-4
48 0.6239528
49 -3.1411936
49 -3.1412897
49 -3.141261
49 -3.1411707
49 -3.1408973
49 -3.1385798
49 -0.0012264493
49 -3.989064E-4
49 0.6239528
