0 -1
1 -1
2 -1
3 1018631
4 1095274
5 1017149
6 940506
7 971274
8 1096750
9 793750
10 940506
11 1343629
12 1330504
13 1269953
14 1174250
15 1285603
16 1484375
17 1234725
18 1484600
19 1484475
20 1184235
21 1484475
22 1183890
23 1171895
24 1174395
25 1210774
26 1206269
27 1407571
28 1326502
29 1484431
30 1229504
31 1340749
32 1214504
33 1484465
34 1390629
35 1210754
36 1478128
37 1171879
38 1184379
39 1484395
40 1234375
41 1484395
42 1499975
43 1484395
44 -1
45 1195129
46 1406269
47 1484375
48 1484385
49 1484375
50 1340625
51 1484395
52 1233882
53 1484395
54 1171895
55 1405757
56 1184375
57 1184375
58 1179379
59 1184375
60 1186879
61 1184375
62 1179379
63 1184375
64 1184375
65 1179379
66 481250
67 398129
68 403125
69 428129
70 1234375
71 1486879
72 1234375
73 -1
74 1486879
75 843750
76 1096254
77 843750
78 843750
79 1093754
80 1156250
81 1093754
82 1093750
83 1100002
84 1093750
85 1103128
86 1162538
87 793754
88 793754
89 928163
90 1246879
91 1393788
92 1472038
93 1550163
94 1246879
95 1550038
96 1484375
97 1534412
98 1531287
99 1246879
100 1515657
101 1515657
102 -1
103 1484375
104 1496879
105 1500006
106 1515631
107 1515631
108 1172475
109 1196624
110 1174850
111 1196624
112 1171995
113 1196524
114 1484375
115 1171995
116 1199649
117 1186965
118 1196524
119 1212149
120 1174470
121 1196399
122 1196399
123 1171995
124 1171995
125 1174395
126 1171895
127 1484495
128 -1
129 1484495
130 1171879
131 1484395
132 1184379
133 1218257
134 1184375
135 1328139
136 1484387
137 1484375
138 1184375
139 1184375
140 1498753
141 1218257
142 1179379
143 1179379
144 1184375
145 1179379
146 1184375
147 1184375
148 1218257
149 793750
150 827632
151 793754
152 1156254
153 403125
154 403125
155 1467632
156 1470625
157 -1
158 1470625
159 1467507
160 1155007
161 1080000
162 1154382
163 1156250
164 1154387
165 1103125
166 1131256
167 1090663
168 1103125
169 1090663
170 793750
171 1184375
172 1400038
173 1246875
174 1246919
175 1243788
176 1246875
177 1400038
178 1521875
179 1475163
180 715625
181 768787
182 703125
183 768787
184 768787
185 703125
186 -1
187 765657
188 1515631
189 1343824
190 1343824
191 1343824
192 1515699
193 1171879
194 1518824
195 1484379
196 1484375
197 1421919
198 1187544
199 1171879
200 1265669
201 1171879
202 1265669
203 1230474
204 1171895
205 1171879
206 1559879
207 1343794
208 1484375
209 1495629
210 956294
211 -1
212 1093750
213 175039
214 175039
215 7754
216 190664
217 190664
218 4
219 190664
220 346914
221 346914
222 346914
223 268764
224 312504
225 312504
226 268789
227 78129
228 18789
229 96914
230 1406254
231 1268789
232 1484379
233 1362539
234 1484399
235 1346889
236 1362514
237 1484395
238 1362539
239 1484395
240 -1
241 1346914
242 1484395
243 1362514
244 1484395
245 1484395
246 1484395
247 737539
248 704025
249 543770
250 703125
251 721880
252 471202
253 390629
254 703125
255 703125
256 662514
257 418760
258 704776
259 662514
260 1485276
261 1484906
262 1234395
263 1531872
264 765999
265 -1
266 750624
267 1485276
268 1234379
269 1234379
270 1531753
271 1329932
272 1234379
273 1171975
274 1329982
275 1486236
276 1234379
277 1218853
278 1171975
279 1359379
280 1171975
281 1173741
282 1250004
283 1171975
284 1171879
285 1171975
286 1406854
287 1171975
288 1484979
289 1171975
290 1484675
291 1484600
292 1171975
293 1171975
294 -1
295 1172475
296 1171975
297 1171975
298 1171990
299 1171895
300 1171995
301 390645
302 403245
303 390645
304 703503
305 625272
306 390645
307 390649
308 156469
309 313004
310 4
311 78129
312 78204
313 4
314 156353
315 234479
316 312525
317 100
318 284397
319 268797
320 95
321 268797
322 1171995
323 1171914
324 1440698
325 1171979
326 1440698
327 1440698
328 1171979
329 1171879
330 -1
331 1362549
332 1171879
333 1362549
334 1362544
335 1346894
336 1346894
337 1346889
338 1265639
339 1171975
340 1265634
341 1265634
342 1483100
343 1484375
344 1484375
345 1496881
346 1334379
347 1483050
348 1404950
349 1499250
350 1248700
351 1516525
352 1247390
353 455625
354 403145
355 754150
356 703000
357 1246895
358 1337279
359 1203189
360 1287612
361 1303870
362 1172350
363 1484875
364 1425600
365 1094250
366 781750
367 781874
368 781750
369 1096750
370 -1
371 781754
372 784250
373 781254
374 784250
375 781254
376 784250
377 1174875
378 1171879
379 1174875
380 1171879
381 1174875
382 1171879
383 1174875
384 1171879
385 1187375
386 1171879
387 1249944
388 1187375
389 1171879
390 1187375
391 1187375
392 1191389
393 1187375
394 1562375
395 1549999
396 1171889
397 1187375
398 1186875
399 437694
400 390649
401 403125
402 775012
403 703125
404 708658
405 703125
406 703125
407 679394
408 775013
409 707883
410 1556269
411 1489133
412 1485125
413 1531251
414 1489031
415 1500003
416 1515628
417 1515631
418 1256163
419 1218754
420 1178039
421 1218774
422 1234399
423 1178039
424 1234375
425 1178039
426 1236875
427 1177414
428 1177414
429 1234375
430 1177409
431 -1
432 1180534
433 1484375
434 1484375
435 1546875
436 1234375
437 1180558
438 1180558
439 1171899
440 1174375
441 1533125
442 1258683
443 1486250
444 1486875
445 1180558
446 1180553
447 1174375
448 1183683
449 1183683
450 1174375
451 1234875
452 1183677
453 1174375
454 1515875
455 1230577
456 1515875
457 1174375
458 1515875
459 1174375
460 -1
461 1547375
462 1174375
463 1547375
464 1547375
465 1484375
466 1484375
467 1174375
468 1543075
469 1523550
470 1523580
471 1539205
472 1539980
473 1547028
474 1484375
475 1312609
476 1308740
477 1468859
478 1406350
479 1289245
480 1367370
481 1367370
482 1503187
483 1484375
484 1363620
485 1484379
486 1269870
487 -1
488 1367370
489 1171995
490 1489774
491 1237479
492 1171975
493 1489774
494 1174475
495 1485937
496 1486743
497 1489149
498 1171975
499 1171975
500 1171975
501 1180399
502 1172475
503 1171975
504 1172475
505 1171975
506 1171975
507 1171975
508 1171975
509 1484375
510 1484375
511 1171975
512 1171975
513 1484395
514 -1
515 1171895
516 1171895
517 1171995
518 1171970
519 1179799
520 1179799
521 1179799
522 1171970
523 1171970
524 1176524
525 1203196
526 1176504
527 1176504
528 1176504
529 1203189
530 1171879
531 1176529
532 1234496
533 1171895
534 1171879
535 1171895
536 1180508
537 1171895
538 1180508
539 1484395
540 1484395
541 1180508
542 1484399
543 1183628
544 1171879
545 1183653
546 1484379
547 1095002
548 781254
549 938754
550 789279
551 1017879
552 793029
553 1018004
554 1018629
555 808678
556 808678
557 808675
558 1095250
559 809300
560 1095250
561 1095250
562 1199926
563 1215551
564 1215551
565 1174875
566 1171879
567 1174895
568 1218075
569 1218075
570 -1
571 1171879
572 1546879
573 1308705
574 1546875
575 1546875
576 1386855
577 1546875
578 1266175
579 750134
580 702269
581 707300
582 531125
583 707275
584 778127
585 -1
586 702253
587 707301
588 756502
589 703125
590 778125
591 766701
592 1547950
593 1521925
594 1484375
595 1522175
596 1559875
597 1515650
598 1537575
599 1537530
600 1537530
601 1557060
602 1495726
603 1484375
604 1484375
605 1342500
606 1404090
607 1482215
608 1186875
609 1484409
610 1186875
611 1495374
612 1186875
613 1186875
614 1559540
615 1559540
616 1559540
617 -1
618 1171895
619 1186875
620 1186875
621 1171895
622 1186875
623 1559540
624 1559540
625 1186875
626 1521880
627 1186875
628 1184375
629 1186875
630 1234875
631 1186875
632 1174375
633 1186875
634 1325165
635 1186875
636 1403290
637 1481415
638 1186875
639 1184375
640 1186875
641 1186875
642 1186875
643 1559540
644 1184375
645 1186875
646 -1
647 1186875
648 1186875
649 1559540
650 1186875
651 1234375
652 1559540
653 406245
654 405625
655 756250
656 465625
657 750000
658 465625
659 765625
660 462500
661 462500
662 541000
663 462500
664 622250
665 1556625
666 1184375
667 1200000
668 1186875
669 1245656
670 1186875
671 1249375
672 1174375
673 1186875
674 1187421
675 1186875
676 1203120
677 1186875
678 1171895
679 1171995
680 1186875
681 1186875
682 1184995
683 1186875
684 1185245
685 1171895
686 1186875
687 1184379
688 -1
689 1186875
690 1181329
691 1249375
692 1246978
693 1237529
694 1246975
695 1237529
696 1246975
697 1240675
698 1484375
699 1484375
700 1546906
701 1171879
702 1484406
703 1174879
704 1484396
705 1500000
706 1530634
707 1171975
708 1543754
709 1174879
710 1484375
711 1184395
712 1559379
713 1560879
714 1171975
715 1507501
716 1253004
717 1325020
718 1562379
719 1246895
720 1546875
721 1240635
722 1227511
723 1171975
724 1186875
725 1546965
726 1186879
727 1250974
728 1343850
729 939221
730 781754
731 783105
732 1174629
733 1179925
734 1293526
735 1413770
736 405745
737 715745
738 769375
739 759395
740 718750
741 703125
742 778125
743 -1
744 759375
745 1484375
746 1546875
747 1534419
748 1518794
749 1518789
750 1156250
751 843750
752 1109382
753 846750
754 1128138
755 781274
756 1128163
757 1093750
758 843774
759 909414
760 843754
761 284569
762 287544
763 284414
764 4
765 346919
766 4
767 753169
768 753139
769 1484379
770 1500008
771 1484379
772 -1
773 1521949
774 1484379
775 1521949
776 1521939
777 1521889
778 1484379
779 1484375
780 1484375
781 1484375
782 1484375
783 1484376
784 1484375
785 1484378
786 1484375
787 1515627
788 1300039
789 1550194
790 1546000
791 1484375
792 1187475
793 1174975
794 1500006
795 1546881
796 1184375
797 1246902
798 -1
799 1484395
800 1498797
801 1246906
802 1561974
803 1246906
804 1186875
805 1263126
806 1186875
807 1491885
808 1186875
809 1325031
810 1186875
811 1178129
812 1186875
813 1186895
814 390745
815 403125
816 1234995
817 1468936
818 1234375
819 1184375
820 1234375
821 1471750
822 1484375
823 436883
824 715625
825 403129
826 778125
827 -1
828 703125
829 778125
830 1556288
831 1553163
832 1093750
833 1162538
834 1100002
835 1100002
836 1143782
837 1159412
838 1103128
839 1159413
840 1106254
841 1106254
842 1159413
843 90629
844 146919
845 1003163
846 1015629
847 1550193
848 1234379
849 1234379
850 1534413
851 1534413
852 1171879
853 1203147
854 1546876
855 1531287
856 -1
857 1531287
858 1531287
859 1234379
860 1531287
861 1234499
862 1531287
863 1203147
864 1500006
865 1515631
866 1234379
867 1484375
868 1234379
869 1531253
870 1515656
871 1500001
872 1393944
873 1546879
874 1534569
875 1234379
876 1515627
877 1515657
878 1515657
879 1515627
880 1515657
881 1125032
882 -1
883 956137
884 956137
885 956137
886 1093750
887 1093750
888 956132
889 1096750
890 1095274
891 1093762
892 1094500
893 1034252
894 1096000
895 1096750
896 1095250
897 959252
898 1018625
899 803002
900 803002
901 940500
902 1018625
903 1018625
904 881127
905 1096750
906 781750
907 881127
908 1096750
909 781750
910 1096750
911 -1
912 781750
913 1096750
914 881127
915 784250
916 1093754
917 1093754
918 784250
919 1171879
920 1506127
921 1174875
922 1171879
923 1174875
924 1174879
925 1171879
926 1174875
927 1171879
928 1203100
929 1171879
930 1174875
931 1174895
932 1374975
933 1174895
934 1558575
935 1554700
936 1174895
937 1406254
938 1174895
939 1173389
940 -1
941 1535150
942 1535150
943 1174895
944 1485985
945 1535150
946 1174895
947 1535150
948 1535150
949 1235885
950 1500000
951 1174260
952 1516775
953 1516650
954 1173395
955 1516650
956 1174635
957 1171879
958 1174520
959 1468767
960 1500000
961 1488997
962 1484496
963 1500120
964 1218854
965 1515745
966 1218854
967 1234475
968 1546965
969 1171979
970 1172375
971 1546970
972 1546970
973 1546979
974 -1
975 1247801
976 1546995
977 1561979
978 1541927
979 703125
980 623200
981 403225
982 703125
983 703125
984 687590
985 690668
986 462575
987 734387
988 734387
989 718770
990 707043
991 707043
992 706893
993 678195
994 413924
995 515645
996 393774
997 471899
998 656270
999 628149
1000 765645
1001 643774
1002 640649
1003 1515649
1004 1406269
1005 1156274
1006 843870
1007 1062504
1008 860129
1009 1106254
1010 781254
1011 875004
1012 1037375
1013 1156250
1014 959250
1015 1096010
1016 1140625
1017 781270
1018 1140640
1019 1140625
1020 781254
1021 1093750
1022 968625
1023 1171879
1024 1484375
1025 1487379
1026 1484375
1027 1484375
1028 1281125
1029 1485875
1030 1484375
1031 1485875
1032 1487375
1033 1484375
1034 1174875
1035 1484375
1036 1484275
1037 1492125
1038 1394500
1039 1484406
1040 1172475
1041 1214495
1042 1171975
1043 1183371
1044 1198996
1045 1187850
1046 1198996
1047 1198996
1048 1219350
1049 1171975
1050 1214621
1051 1172475
1052 1171975
1053 1214621
1054 1214621
1055 1328475
1056 1184475
1057 -1
1058 1213899
1059 1184395
1060 1213899
1061 1213899
1062 1484495
1063 1213899
1064 1496920
1065 1496920
1066 1292024
1067 1484415
1068 1292024
1069 1496920
1070 1184395
1071 1340695
1072 1406270
1073 1250120
1074 1484375
1075 1484375
1076 1198149
1077 1415689
1078 1198129
1079 1484495
1080 1171879
1081 1272504
1082 1184379
1083 1171995
1084 1484379
1085 1184379
1086 -1
1087 1490625
1088 1490647
1089 1388757
1090 1388757
1091 1240634
1092 1482507
1093 1482507
1094 1482507
1095 1243753
1096 1556876
1097 734375
1098 428129
1099 775626
1100 775626
1101 718752
1102 537524
1103 1319388
1104 1171899
1105 859497
1106 781872
1107 1143794
1108 843850
1109 1143789
1110 844356
1111 1143789
1112 846250
1113 1093750
1114 1093781
1115 -1
1116 1140625
1117 1128163
1118 1156250
1119 781274
1120 1128163
1121 1093750
1122 1128163
1123 784250
1124 1128132
1125 1128132
1126 781274
1127 1125039
1128 1125039
1129 843770
1130 1053189
1131 921899
1132 976274
1133 812514
1134 1035024
1135 1093750
1136 1131268
1137 1125014
1138 812514
1139 62500
1140 312500
1141 312500
1142 312500
1143 312500
1144 -1
1145 375062
1146 4
1147 4
1148 375093
1149 4
1150 312656
1151 4
1152 312562
1153 750018
1154 703128
1155 759379
1156 1171879
1157 1171879
1158 1443754
1159 1171879
1160 1484375
1161 1484375
1162 1406254
1163 1484375
1164 1484375
1165 1327500
1166 1484379
1167 1171999
1168 1171999
1169 1484379
1170 1171999
1171 1171999
1172 1484379
1173 -1
1174 1484379
1175 1171875
1176 1547055
1177 1547055
1178 1234475
1179 1515650
1180 750025
1181 453229
1182 750025
1183 459382
1184 765780
1185 459384
1186 453139
1187 465629
1188 456254
1189 687686
1190 737509
1191 765811
1192 703125
1193 412504
1194 1484562
1195 1550009
1196 1193754
1197 1190629
1198 1484395
1199 -1
