0 [0.0, 0.0, 0.0, 0.0, 0.0, 0.0, 0.0, 0.0]
1 [0.0, 0.0, 0.0, 0.0, 0.0, 0.0, 0.0, 0.0]
2 [0.0, 0.0, 0.0, 0.0, 0.0, 0.0, 0.0, 0.0]
3 [0.0, 0.0, 0.0, 0.0, 0.0, 0.0, 0.0, 0.0]
4 [0.20337363, 0.09737363, 0.021373626, 0.030626372, 0.06562636, 0.115626365, 0.115626365, 0.099373624]
5 [1.034174, 0.92917395, 0.853174, 0.029159341, 0.06315933, 0.109159335, 0.44749266, 0.430174]
6 [0.20084067, 0.47084066, 0.39484066, 0.029159341, 0.06315933, 0.109159335, 0.11415933, 0.9718407]
7 [1.1568077, 1.0488076, 0.01526923, 0.028730776, 0.056730773, 0.09373076, 0.2271154, 0.20365384]
8 [0.19526923, 0.58726925, 0.5152692, 0.028730776, 0.056730773, 0.09373076, 0.11173077, 0.58826923]
9 [1.1721374, 0.67112637, 1.0531373, 0.030873617, 0.05287362, 0.080873616, 0.13085166, 0.54987365]
10 [1.0922216, 1.0872216, 0.97322166, 0.03344505, 0.052445058, 0.075445056, 0.35744506, 0.35344505]
11 [0.17555495, 1.045555, 0.43155494, 0.03344505, 0.052445058, 0.075445056, 0.107445054, 0.47844505]
12 [0.17268132, 1.0436814, 0.4286813, 0.035318676, 0.052318685, 0.074318685, 0.10531868, 0.48131868]
13 [1.0970385, 0.32380772, 0.9780385, 0.18788461, 0.20588462, 0.22788462, 0.2588846, 1.0281154]
14 [0.17396154, 0.5449616, 0.42996153, 0.034038458, 0.052038465, 0.07403847, 0.105038464, 0.98003846]
15 [0.17807692, 0.6710769, 0.5590769, 0.03292307, 0.051923078, 0.077923074, 0.10792307, 0.59592307]
16 [1.0163828, 1.0033828, 0.89738274, 0.8632839, 0.051950544, 0.07995054, 0.44128388, 0.4202839]
17 [1.017718, 1.0017179, 0.39871797, 0.36294872, 0.05161538, 0.08061538, 0.9419487, 0.8809487]
18 [0.18438461, 0.6683846, 0.5653846, 0.029615376, 0.05161538, 0.08061538, 0.1086154, 0.5476154]
19 [1.0912253, 0.98122525, 0.91222525, 0.027774736, 0.05277474, 0.08677473, 0.40977475, 0.34977472]
20 [0.19122528, 0.5812253, 0.5122253, 0.027774736, 0.05277474, 0.08677473, 0.10977473, 0.5497747]
21 [0.33543772, 1.0334377, 0.022104396, 0.030895602, 0.06689561, 0.115895614, 0.24422893, 0.23343773]
22 [0.20210439, 0.8501044, 0.022104396, 0.030895602, 0.06689561, 0.115895614, 0.1108956, 0.8501044]
23 [1.1204945, 1.0264945, 0.9484945, 0.03158241, 0.072582416, 0.2704286, 0.2524286, 0.25426376]
24 [0.19741759, 0.8534176, 0.025417583, 0.03158241, 0.072582416, 0.11658242, 0.09858242, 0.8504176]
25 [0.21347503, 1.0091114, 0.026565935, 0.03943407, 0.087434076, 0.21134317, 0.15734316, 1.0501114]
26 [1.1165861, 0.93325275, 0.026252754, 0.05374724, 0.11674725, 0.15708058, 0.12058608, 0.96525276]
27 [0.13325274, 0.058252748, 0.026252754, 0.05374724, 0.11674725, 0.123747244, 0.08725274, 0.09025275]
28 [0.09605494, 0.81105494, 0.022054939, 0.082945056, 0.78961176, 0.7466117, 0.7517216, 0.79805493]
29 [0.09605494, 0.06105495, 0.022054939, 0.082945056, 0.12294507, 0.07994506, 0.08505495, 0.048054937]
30 [0.09687912, 0.059879128, 0.034120876, 0.106120884, 0.12212089, 0.07587913, 0.08087912, 0.048879113]
31 [0.97282416, 0.053824168, 0.067175835, 0.16062026, 0.12662026, 0.12026861, 0.8918242, 1.0266019]
32 [0.09782417, 0.053824168, 0.067175835, 0.116175815, 0.08217582, 0.07582417, 0.01682418, 0.048824172]
33 [0.9698461, 0.047846153, 0.090153836, 0.14548717, 0.11148718, 0.10617949, 0.9835128, 1.0765128]
34 [0.9698297, 0.044829674, 0.105170324, 0.15317033, 0.124829665, 0.11682968, 0.9688297, 1.6761703]
35 [0.09482967, 0.044829674, 0.105170324, 0.10317033, 0.07482967, 0.066829674, 0.018829675, 0.7261703]
36 [0.9598791, 0.037120875, 1.0356923, 0.15454945, 0.13830769, 0.108549446, 0.9416923, 0.2763077]
37 [0.084879115, 0.037120875, 0.10712088, 0.08312088, 0.06687912, 0.037120875, 0.013120875, 0.20487912]
38 [0.077225275, 0.055774733, 0.10577473, 0.08377473, 0.061774727, 0.038774725, 0.017774722, 0.20722528]
39 [0.44376922, 0.07523076, 0.10423076, 0.08423078, 0.05776923, 0.9698022, 1.0003406, 0.20376922]
40 [0.06876923, 0.07523076, 0.10423076, 0.08423078, 0.05776923, 0.04123077, 0.07176923, 0.20376922]
41 [0.560489, 0.09551099, 1.0255879, 0.07951098, 0.05751098, 0.9665879, 0.9885659, 1.1215659]
42 [0.43011537, 0.09588461, 0.09188462, 0.07288461, 0.056884605, 0.97145605, 0.5521154, 1.675456]
43 [0.055115383, 0.09588461, 0.09188462, 0.07288461, 0.056884605, 0.042884618, 0.17711538, 0.74688464]
44 [0.039879125, 0.099120885, 0.08612087, 0.077120885, 0.064120874, 0.052120883, 0.17387912, 0.18687911]
45 [0.04475275, 0.09424726, 0.08124725, 0.07224726, 0.059247248, 0.047247257, 0.17875275, 0.7522473]
46 [0.07434066, 0.09034066, 0.08334067, 1.0398579, 1.0358579, 1.0298579, 1.0446594, 1.1371765]
47 [0.07434066, 0.09034066, 0.08334067, 0.07434066, 0.070340656, 0.064340666, 0.16965935, 0.17165935]
48 [0.07812087, 0.07712088, 0.07412088, 0.07212088, 1.0291209, 0.9421209, 1.1268791, 0.7711209]
49 [0.9817338, 0.9837338, 0.9857338, 0.07764286, 0.98873377, 1.0564481, 1.0644481, 0.15535715]
