0 [0.0, 0.0, 0.0, 0.0, 0.0, 0.0, 0.0, 0.0]
1 [0.0, 0.0, 0.0, 0.0, 0.0, 0.0, 0.0, 0.0]
2 [0.0, 0.0, 0.0, 0.0, 0.0, 0.0, 0.0, 0.0]
3 [0.8333333, 0.8333333, 0.8333333, 0.0, 0.0, 0.0, 0.33333334, 0.33333334]
4 [0.0, 0.375, 0.375, 0.0, 0.0, 0.0, 0.0, 0.875]
5 [0.96153843, 0.96153843, 0.0, 0.0, 0.0, 0.0, 0.115384616, 0.115384616]
6 [0.0, 0.5, 0.5, 0.0, 0.0, 0.0, 0.0, 0.5]
7 [0.989011, 0.5, 0.989011, 0.0, 0.0, 0.0, 0.021978023, 0.5]
8 [0.9166667, 0.9166667, 0.9166667, 0.0, 0.0, 0.0, 0.25, 0.25]
9 [0.0, 0.875, 0.375, 0.0, 0.0, 0.0, 0.0, 0.375]
10 [0.0, 0.875, 0.375, 0.0, 0.0, 0.0, 0.0, 0.375]
11 [0.9230769, 0.15384616, 0.9230769, 0.15384616, 0.15384616, 0.15384616, 0.15384616, 0.9230769]
12 [0.0, 0.375, 0.375, 0.0, 0.0, 0.0, 0.0, 0.875]
13 [0.0, 0.5, 0.5, 0.0, 0.0, 0.0, 0.0, 0.5]
14 [0.8333333, 0.8333333, 0.8333333, 0.8333333, 0.0, 0.0, 0.33333334, 0.33333334]
15 [0.8333333, 0.8333333, 0.33333334, 0.33333334, 0.0, 0.0, 0.8333333, 0.8333333]
16 [0.0, 0.5, 0.5, 0.0, 0.0, 0.0, 0.0, 0.5]
17 [0.9, 0.9, 0.9, 0.0, 0.0, 0.0, 0.3, 0.3]
18 [0.0, 0.5, 0.5, 0.0, 0.0, 0.0, 0.0, 0.5]
19 [0.016483517, 0.99450547, 0.375, 0.0, 0.0, 0.0, 0.016483517, 0.875]
20 [0.13333334, 0.93333334, 0.0, 0.0, 0.0, 0.0, 0.13333334, 0.13333334]
21 [0.0, 0.75, 0.0, 0.0, 0.0, 0.0, 0.0, 0.75]
22 [0.9230769, 0.9230769, 0.9230769, 0.0, 0.0, 0.15384616, 0.15384616, 0.15384616]
23 [0.0, 0.75, 0.0, 0.0, 0.0, 0.0, 0.0, 0.75]
24 [0.09090909, 0.95454544, 0.0, 0.0, 0.0, 0.09090909, 0.09090909, 0.95454544]
25 [0.98333335, 0.875, 0.0, 0.0, 0.0, 0.033333335, 0.033333335, 0.875]
26 [0.0, 0.0, 0.0, 0.0, 0.0, 0.0, 0.0, 0.0]
27 [0.0, 0.75, 0.0, 0.0, 0.6666667, 0.6666667, 0.6666667, 0.75]
28 [0.0, 0.0, 0.0, 0.0, 0.0, 0.0, 0.0, 0.0]
29 [0.0, 0.0, 0.0, 0.0, 0.0, 0.0, 0.0, 0.0]
30 [0.875, 0.0, 0.0, 0.044444446, 0.044444446, 0.044444446, 0.875, 0.9777778]
31 [0.0, 0.0, 0.0, 0.0, 0.0, 0.0, 0.0, 0.0]
32 [0.875, 0.0, 0.0, 0.033333335, 0.033333335, 0.033333335, 0.96666664, 0.96666664]
33 [0.875, 0.0, 0.0, 0.05, 0.05, 0.05, 0.95, 0.95]
34 [0.0, 0.0, 0.0, 0.0, 0.0, 0.0, 0.0, 0.0]
35 [0.875, 0.0, 0.9285714, 0.071428575, 0.071428575, 0.071428575, 0.9285714, 0.071428575]
36 [0.0, 0.0, 0.0, 0.0, 0.0, 0.0, 0.0, 0.0]
37 [0.0, 0.0, 0.0, 0.0, 0.0, 0.0, 0.0, 0.0]
38 [0.375, 0.0, 0.0, 0.0, 0.0, 0.9285714, 0.9285714, 0.0]
39 [0.0, 0.0, 0.0, 0.0, 0.0, 0.0, 0.0, 0.0]
40 [0.5, 0.0, 0.9230769, 0.0, 0.0, 0.9230769, 0.9230769, 0.9230769]
41 [0.375, 0.0, 0.0, 0.0, 0.0, 0.9285714, 0.375, 0.9285714]
42 [0.0, 0.0, 0.0, 0.0, 0.0, 0.0, 0.0, 0.0]
43 [0.0, 0.0, 0.0, 0.0, 0.0, 0.0, 0.0, 0.0]
44 [0.0, 0.0, 0.0, 0.0, 0.0, 0.0, 0.0, 0.99450547]
45 [0.0, 0.0, 0.0, 0.0, 0.0, 0.0, 0.0, 0.0]
46 [0.0, 0.0, 0.0, 0.9655172, 0.9655172, 0.9655172, 0.875, 0.9655172]
47 [0.0, 0.0, 0.0, 0.0, 0.0, 0.0, 0.0, 0.0]
48 [0.0, 0.0, 0.0, 0.0, 0.96, 0.875, 0.96, 0.0]
49 [0.90909094, 0.90909094, 0.90909094, 0.0, 0.90909094, 0.90909094, 0.90909094, 0.0]
