0 [1.0, 1.0, 1.0, 1.0, 1.0, 1.0, 1.0, 1.0]
1 [1.0, 1.0, 1.0, 1.0, 1.0, 1.0, 1.0, 1.0]
2 [1.0, 1.0, 1.0, 1.0, 1.0, 1.0, 1.0, 1.0]
3 [1.0, 1.0, 1.0, 1.0, 1.0, 1.0, 1.0, 1.0]
4 [1.0, 1.0, 1.0, 1.0, 1.0, 1.0, 1.0, 1.0]
5 [1.0, 1.0, 1.0, 1.0, 1.0, 1.0, 1.0, 1.0]
6 [1.0, 1.0, 1.0, 1.0, 1.0, 1.0, 1.0, 1.0]
7 [1.0, 1.0, 1.0, 1.0, 1.0, 1.0, 1.0, 1.0]
8 [1.0, 1.0, 1.0, 1.0, 1.0, 1.0, 1.0, 1.0]
9 [1.0, 1.0, 1.0, 1.0, 1.0, 1.0, 1.0, 1.0]
10 [1.0, 1.0, 1.0, 1.0, 1.0, 1.0, 1.0, 1.0]
11 [1.0, 1.0, 1.0, 1.0, 1.0, 1.0, 1.0, 1.0]
12 [1.6964109, 1.094249, 1.0002337, 1.0, 1.0, 1.0, 1.0, 1.0]
13 [1.5863078, 1.0793481, 1.0001967, 1.0, 1.0, 1.0, 1.0, 1.0]
14 [1.4463251, 1.0604036, 1.0003834, 1.094249, 1.6964109, 1.094249, 1.0002337, 1.0]
15 [1.3375448, 1.0456817, 1.00031, 1.0793481, 1.5863078, 1.0793481, 1.0001967, 1.0]
16 [1.2548692, 1.0344929, 1.0002352, 1.0604036, 1.4463251, 1.0604036, 1.0001497, 1.0]
17 [0.35242498, 0.91236025, 0.9998356, 1.0213224, 1.157552, 1.0213224, 1.0000528, 1.0]
18 [0.49943173, 0.93225545, 0.99962956, 0.91829765, 0.3962968, 0.91829765, 0.99979746, 1.0]
19 [1.2782638, 1.0376589, 0.99987644, 0.912495, 0.35342085, 0.912495, 0.9997831, 1.0]
20 [1.3426926, 1.0463784, 0.99994725, 0.9323219, 0.499923, 0.9323219, 0.9998323, 1.0]
21 [1.2670345, 1.0361392, 1.000183, 1.0376589, 1.2782638, 1.0376589, 1.0000933, 1.0]
22 [1.2021071, 1.0273522, 1.0001826, 1.0463074, 1.3421679, 1.0463074, 1.0001148, 1.0]
23 [1.1527786, 1.0206764, 1.0001407, 1.0360748, 1.2665579, 1.0360748, 1.0000894, 1.0]
24 [1.1154695, 1.015627, 1.0001065, 1.0273302, 1.2019438, 1.0273302, 1.0000677, 1.0]
25 [1.0871828, 1.0117989, 1.0000805, 1.0206391, 1.1525027, 1.0206391, 1.0000511, 1.0]
26 [0.3450001, 0.9113554, 0.9998189, 1.0155989, 1.1152608, 1.0155989, 1.0000386, 1.0]
27 [0.31173307, 0.9068532, 0.9997984, 1.0117893, 1.0871124, 1.0117893, 1.0000292, 1.0]
28 [0.4685912, 0.9280817, 0.99960136, 0.9111, 0.34311295, 0.9111, 0.99977964, 1.0]
29 [0.59766245, 0.94554955, 0.9996343, 0.9069204, 0.31222945, 0.9069204, 0.9997693, 1.0]
30 [0.7132123, 0.9611875, 0.9997357, 0.9321889, 0.49894, 0.9321889, 0.9998319, 1.0]
31 [0.78346455, 0.97069514, 0.9997925, 0.94560075, 0.5980411, 0.94560075, 0.9998652, 1.0]
32 [1.0, 1.0, 0.9999039, 0.9612263, 0.71349895, 0.9612263, 0.9999039, 1.0]
33 [0.87631285, 0.98326075, 0.99988586, 0.97069514, 0.78346455, 0.97069514, 0.99992734, 1.0]
34 [0.9066127, 0.98736143, 0.9999138, 0.977874, 0.83650947, 0.977874, 0.99994516, 1.0]
35 [0.9294194, 0.99044794, 0.9999349, 0.9832775, 0.8764365, 0.9832775, 0.9999586, 1.0]
36 [0.94665635, 0.99278075, 0.9999508, 0.987374, 0.90670604, 0.987374, 0.9999687, 1.0]
37 [0.959724, 0.9945492, 0.9999628, 0.9904575, 0.92949, 0.9904575, 0.99997634, 1.0]
38 [0.9695601, 0.9958804, 0.9999719, 0.99278796, 0.94670963, 0.99278796, 0.9999821, 1.0]
39 [0.977017, 0.9968896, 0.99997884, 0.9945547, 0.9597643, 0.9945547, 0.9999865, 1.0]
40 [1.0, 1.0, 1.0, 1.0, 1.0, 1.0, 1.0, 1.0]
41 [1.0, 1.0, 0.9999923, 0.9968927, 0.97703993, 0.9968927, 0.9999923, 1.0]
42 [1.0, 1.0, 1.0, 1.0, 1.0, 1.0, 1.0, 1.0]
43 [1.0, 1.0, 1.0, 1.0, 1.0, 1.0, 1.0, 1.0]
44 [1.0, 1.0, 1.0, 1.0, 1.0, 1.0, 1.0, 1.0]
45 [1.0, 1.0, 1.0, 1.0, 1.0, 1.0, 1.0, 1.0]
46 [1.0, 1.0, 1.0, 1.0, 1.0, 1.0, 1.0, 1.0]
47 [1.0, 1.0, 1.0, 1.0, 1.0, 1.0002335, 1.0942252, 1.6962347]
48 [1.0, 1.0, 1.0, 1.0, 1.0, 1.000197, 1.0794941, 1.5873861]
49 [1.0, 1.0, 1.0, 1.0, 1.0, 1.00015, 1.0605237, 1.4472129]
