0 [0.0, 0.0, 0.0, 0.0, 0.0, 0.0, 0.0, 0.0]
1 [0.0, 0.0, 0.0, 0.0, 0.0, 0.0, 0.0, 0.0]
2 [0.0, 0.0, 0.0, 0.0, 0.0, 0.0, 0.0, 0.0]
3 [0.85714287, 0.0, 0.0, 0.0, 0.0, 0.0, 0.0, 0.0]
4 [0.85714287, 0.0, 0.115384616, 0.115384616, 0.96153843, 0.96153843, 0.0, 0.115384616]
5 [0.0, 0.0, 0.0, 0.0, 0.0, 0.0, 0.0, 0.0]
6 [0.6666667, 0.6666667, 0.16666667, 0.16666667, 0.9444444, 0.16666667, 0.0, 0.16666667]
7 [0.0, 0.0, 0.0, 0.0, 0.0, 0.0, 0.0, 0.0]
8 [0.0, 0.0, 0.0, 0.0, 0.0, 0.0, 0.0, 0.0]
9 [0.0, 0.0, 0.0, 0.0, 0.0, 0.0, 0.0, 0.0]
10 [0.6666667, 0.6666667, 0.0, 0.1, 0.96666664, 0.1, 0.1, 0.1]
11 [0.0, 0.0, 0.0, 0.0, 0.0, 0.0, 0.0, 0.0]
12 [0.6666667, 0.6666667, 0.0, 0.93333334, 0.93333334, 0.93333334, 0.93333334, 0.93333334]
13 [0.0, 0.0, 0.0, 0.0, 0.0, 0.0, 0.0, 0.0]
14 [0.09090909, 0.0, 0.0, 0.95454544, 0.95454544, 0.09090909, 0.95454544, 0.95454544]
15 [0.0, 0.0, 0.0, 0.0, 0.0, 0.0, 0.0, 0.0]
16 [0.6666667, 0.6666667, 0.0, 0.0, 0.0, 0.0, 0.0, 0.0]
17 [0.0, 0.0, 0.0, 0.0, 0.0, 0.0, 0.0, 0.0]
18 [0.0, 0.0, 0.0, 0.0, 0.0, 0.0, 0.0, 0.0]
19 [0.0, 0.0, 0.0, 0.9285714, 0.9285714, 0.0, 0.9285714, 0.9285714]
20 [0.0, 0.0, 0.0, 0.0, 0.0, 0.0, 0.0, 0.85714287]
21 [0.0, 0.0, 0.0, 0.1875, 0.9375, 0.9375, 0.1875, 0.1875]
22 [0.0, 0.0, 0.0, 0.0, 0.0, 0.0, 0.0, 0.85714287]
23 [0.0, 0.0, 0.0, 0.16666667, 0.9444444, 0.9444444, 0.0, 0.16666667]
24 [0.0, 0.0, 0.6666667, 0.8333333, 0.8333333, 0.8333333, 0.0, 0.6666667]
25 [0.0, 0.0, 0.0, 0.0, 0.0, 0.0, 0.0, 0.85714287]
26 [0.0, 0.0, 0.0, 0.0, 0.0, 0.0, 0.0, 0.0]
27 [0.8, 0.0, 0.8, 0.8, 0.8, 0.8, 0.8, 0.85714287]
28 [0.0, 0.0, 0.99450547, 0.0, 0.0, 0.0, 0.0, 0.85714287]
29 [0.0, 0.0, 0.0, 0.0, 0.0, 0.0, 0.0, 0.0]
30 [0.6666667, 0.6666667, 0.07692308, 0.07692308, 0.07692308, 0.989011, 0.07692308, 0.989011]
31 [0.0, 0.0, 0.0, 0.0, 0.0, 0.0, 0.0, 0.0]
32 [0.0, 0.0, 0.0, 0.0, 0.0, 0.0, 0.0, 0.0]
33 [0.6666667, 0.6666667, 0.9230769, 0.9230769, 0.0, 0.9230769, 0.0, 0.9230769]
34 [0.0, 0.0, 0.0, 0.0, 0.0, 0.0, 0.0, 0.0]
35 [0.0, 0.0, 0.0, 0.0, 0.0, 0.0, 0.0, 0.0]
36 [0.0, 0.0, 0.0, 0.0, 0.0, 0.0, 0.0, 0.0]
37 [0.6666667, 0.6666667, 0.9, 0.9, 0.7, 0.9, 0.0, 0.9]
38 [0.0, 0.0, 0.0, 0.0, 0.0, 0.0, 0.0, 0.0]
39 [0.6666667, 0.6666667, 0.4, 0.93333334, 0.4, 0.93333334, 0.0, 0.93333334]
40 [0.6666667, 0.6666667, 0.0, 0.95, 0.45, 0.95, 0.0, 0.95]
41 [0.0, 0.0, 0.0, 0.0, 0.0, 0.0, 0.0, 0.0]
42 [0.8888889, 0.8888889, 0.8888889, 0.0, 0.8888889, 0.0, 0.0, 0.0]
43 [0.0, 0.0, 0.0, 0.0, 0.0, 0.0, 0.0, 0.0]
44 [0.0, 0.0, 0.0, 0.0, 0.0, 0.0, 0.0, 0.0]
45 [0.0, 0.0, 0.0, 0.0, 0.0, 0.0, 0.0, 0.0]
46 [0.0, 0.0, 0.0, 0.0, 0.0, 0.0, 0.0, 0.0]
47 [0.6666667, 0.5, 0.5, 0.6666667, 0.6666667, 0.0, 0.0, 0.6666667]
48 [0.0, 0.0, 0.0, 0.0, 0.0, 0.0, 0.0, 0.99450547]
49 [0.0, 0.0, 0.0, 0.0, 0.0, 0.0, 0.0, 0.0]
