0 [1.0, 1.0, 1.0, 1.0, 1.0, 1.0, 1.0, 1.0]
1 [1.0, 1.0, 1.0, 1.0, 1.0, 1.0, 1.0, 1.0]
2 [1.0, 1.0, 1.0, 1.0, 1.0, 1.0, 1.0, 1.0]
3 [1.0, 1.0, 1.0, 1.0, 1.0, 1.0, 1.0, 1.0]
4 [1.0, 1.0, 1.0, 1.0, 1.0, 1.0, 1.0, 1.0]
5 [1.0, 1.0, 1.0, 1.0, 1.0, 1.0, 1.0, 1.0]
6 [1.0, 1.0, 1.0, 1.0, 1.0, 1.0, 1.0, 1.0]
7 [1.0, 1.0, 1.0, 1.0, 1.0, 1.0, 1.0, 1.0]
8 [1.0, 1.0, 1.0, 1.0, 1.0, 1.0, 1.0, 1.0]
9 [1.0, 1.0, 1.0, 1.0, 1.0, 1.0, 1.0, 1.0]
10 [1.4476918, 1.0605885, 1.0001502, 1.0, 1.0, 1.0, 1.0, 1.0]
11 [1.6728616, 1.091062, 1.0002257, 1.0, 1.0, 1.0, 1.0, 1.0]
12 [1.5287013, 1.0715519, 1.0001774, 1.0, 1.0, 1.0, 1.0, 1.0]
13 [1.4004104, 1.0541897, 1.0001343, 1.0, 1.0, 1.0, 1.0, 1.0]
14 [1.2879369, 1.0389681, 1.0000966, 1.0, 1.0, 1.0, 1.0, 1.0]
15 [1.2174033, 1.0294223, 1.000073, 1.0, 1.0, 1.0, 1.0, 1.0]
16 [1.1643101, 1.022237, 1.0000551, 1.0, 1.0, 1.0, 1.0, 1.0]
17 [0.50227445, 0.9326402, 0.99983305, 1.0, 1.0, 1.0, 1.0, 1.0]
18 [0.3326668, 0.90968627, 0.9997761, 1.0, 1.0, 1.0, 1.0, 1.0]
19 [0.47793496, 0.9293462, 0.9998249, 1.0, 1.0, 1.0, 1.0, 1.0]
20 [0.6047497, 0.9465087, 0.9998674, 1.0, 1.0, 1.0, 1.0, 1.0]
21 [0.7012114, 0.9595634, 0.99989974, 1.0, 1.0, 1.0, 1.0, 1.0]
22 [0.7741765, 0.96943814, 0.99992424, 1.0, 1.0, 1.0, 1.0, 1.0]
23 [0.8294966, 0.9769249, 0.9999428, 1.0, 1.0, 1.0, 1.0, 1.0]
24 [0.8711363, 0.9825602, 0.9999568, 1.0, 1.0, 1.0, 1.0, 1.0]
25 [0.9026069, 0.98681927, 0.99996734, 1.0, 1.0, 1.0, 1.0, 1.0]
26 [0.92646545, 0.99004817, 0.9999753, 1.0, 1.0, 1.0, 1.0, 1.0]
27 [0.9444238, 0.99247855, 0.99998134, 1.0, 1.0, 1.0, 1.0, 1.0]
28 [0.9580384, 0.9943211, 0.99998593, 1.0, 1.0, 1.0, 1.0, 1.0]
29 [0.9682861, 0.995708, 0.9999894, 1.0, 1.0, 1.0, 1.0, 1.0]
30 [0.9760311, 0.9967562, 0.99999195, 1.0, 1.0, 1.0, 1.0, 1.0]
31 [1.0, 1.0, 1.0, 1.0, 1.0, 1.0, 1.0, 1.0]
32 [1.0, 1.0, 1.0, 1.0, 1.0, 1.0, 1.0, 1.0]
33 [1.0, 1.0, 1.0, 1.0, 1.0, 1.0, 1.0, 1.0]
34 [1.0, 1.0, 1.0, 1.0, 1.0, 1.0, 1.0, 1.0]
35 [1.0, 1.0, 1.0, 1.0, 1.0, 1.0, 1.0, 1.0]
36 [1.0, 1.0, 1.0, 1.0, 1.0, 1.0, 1.0, 1.0]
37 [1.0, 1.0, 1.0, 1.0, 1.0, 1.0, 1.0, 1.0]
38 [1.0, 1.0, 1.0, 1.0, 1.0, 1.0, 1.0, 1.0]
39 [1.0, 1.0, 1.0, 1.0, 1.0, 1.0, 1.0, 1.0]
40 [1.6962347, 1.0942252, 1.0002335, 1.0, 1.0, 1.0, 1.0, 1.0]
41 [1.5873861, 1.0794941, 1.000197, 1.0, 1.0, 1.0, 1.0, 1.0]
42 [1.4472129, 1.0605237, 1.00015, 1.0, 1.0, 1.0, 1.0, 1.0]
43 [1.3382202, 1.0457731, 1.0001135, 1.0, 1.0, 1.0, 1.0, 1.0]
44 [1.2229068, 1.0301671, 1.0000747, 1.0, 1.0, 1.0, 1.0, 1.0]
45 [1.1684695, 1.0227998, 1.0000565, 1.0, 1.0, 1.0, 1.0, 1.0]
46 [0.33804423, 0.91041404, 0.9997779, 1.0, 1.0, 1.0, 1.0, 1.0]
47 [0.37453485, 0.9153525, 0.9997902, 1.0, 1.0, 1.0, 1.0, 1.0]
48 [0.5558871, 0.93989587, 0.999851, 1.0, 1.0, 1.0, 1.0, 1.0]
49 [0.66413784, 0.954546, 0.99988735, 1.0, 1.0, 1.0, 1.0, 1.0]
