0 [0.0, 0.0, 0.0, 0.0, 0.0, 0.0, 0.0, 0.0]
1 [0.0, 0.0, 0.0, 0.0, 0.0, 0.0, 0.0, 0.0]
2 [0.0, 0.0, 0.0, 0.0, 0.0, 0.0, 0.0, 0.0]
3 [0.20243956, 0.09843956, 0.020439561, 0.032560438, 0.06856045, 0.11756045, 0.11256043, 0.099439554]
4 [0.9533736, 0.8473736, 0.7713736, 0.030626372, 0.06562636, 0.86562634, 0.86562634, 0.84937364]
5 [1.1145953, 1.0085952, 0.39292857, 0.029071432, 0.060071427, 0.102071434, 0.2807381, 0.9679286]
6 [0.19792858, 0.09192857, 0.01792857, 0.029071432, 0.060071427, 0.102071434, 0.11407142, 0.09292857]
7 [0.18947253, 0.57847255, 0.51047254, 0.028527485, 0.053527486, 0.086527474, 0.109527476, 0.55152744]
8 [0.18947253, 0.07847253, 0.010472526, 0.028527485, 0.053527486, 0.086527474, 0.109527476, 0.051527463]
9 [1.0720153, 1.0600153, 0.95301527, 0.030873617, 0.05287362, 0.080873616, 0.44220698, 0.54987365]
10 [0.18312638, 0.17112638, 0.06412637, 0.030873617, 0.05287362, 0.080873616, 0.108873636, 0.049873624]
11 [0.18312638, 0.17112638, 0.06412637, 0.030873617, 0.05287362, 0.080873616, 0.108873636, 0.049873624]
12 [1.0922271, 1.0872271, 0.97322714, 0.033439554, 0.052439563, 0.075439565, 0.35743955, 0.47843957]
13 [0.17556044, 0.17056043, 0.05656044, 0.033439554, 0.052439563, 0.075439565, 0.107439555, 0.10343956]
14 [0.4239176, 1.0439175, 0.30491757, 0.2840824, 0.05208242, 0.07408243, 0.98108244, 0.98108244]
15 [1.046445, 1.0424451, 0.17844506, 0.16055495, 0.17755495, 0.073554955, 0.104554944, 0.98055494]
16 [0.17144506, 0.16744505, 0.053445056, 0.03555494, 0.05255495, 0.073554955, 0.104554944, 0.105554946]
17 [0.17144506, 1.0424451, 0.42844504, 0.03555494, 0.05255495, 0.073554955, 0.104554944, 0.48055494]
18 [0.17144506, 0.16744505, 0.053445056, 0.03555494, 0.05255495, 0.073554955, 0.104554944, 0.105554946]
19 [1.0333517, 1.0293517, 0.9153516, 0.88993406, 0.05179121, 0.07579121, 0.3925055, 0.9757912]
20 [0.1762088, 0.17220879, 0.058208793, 0.032791205, 0.05179121, 0.07579121, 0.106791206, 0.10079121]
21 [0.9287967, 0.9207967, 0.4347967, 0.2822033, 0.3012033, 0.076203294, 0.8572033, 0.9722033]
22 [0.32566485, 0.6688077, 0.92095053, 0.8873352, 0.051192306, 0.0781923, 0.25004944, 0.58919233]
23 [0.1828077, 0.1688077, 0.063807696, 0.0301923, 0.051192306, 0.0781923, 0.1071923, 0.089192316]
24 [0.31129122, 0.45029122, 0.3832912, 0.9017088, 0.9247088, 0.20270878, 0.23070878, 0.9187088]
25 [0.1862912, 0.07529121, 0.008291204, 0.026708785, 0.049708787, 0.07770879, 0.105708785, 0.043708794]
26 [0.19075274, 0.45475274, 0.38775274, 0.025247246, 0.048247248, 0.07924724, 0.105247244, 0.91924727]
27 [1.1131502, 0.4634835, 0.9351502, 0.9391832, 0.048516475, 0.083516486, 0.18884984, 0.41951647]
28 [0.19648352, 0.08848351, 0.01848351, 0.022516474, 0.048516475, 0.083516486, 0.10551649, 0.044516478]
29 [0.35274726, 0.25274727, 0.94697803, 0.021098912, 0.05109891, 0.09209889, 1.0291759, 0.24874726]
30 [0.2647857, 1.0280164, 0.9520165, 0.022060445, 0.057060435, 0.10606044, 0.2629066, 0.85193956]
31 [0.11093956, 0.104939565, 0.028939554, 0.022060445, 0.057060435, 0.10606044, 0.10906044, 0.10193956]
32 [0.1734237, 0.99731255, 0.026868125, 0.030131867, 0.07113188, 0.1706874, 1.0405763, 0.85186815]
33 [0.11786813, 0.8028681, 0.026868125, 0.030131867, 0.07113188, 0.115131855, 0.096131876, 0.85186815]
34 [0.12542857, 0.054428577, 0.027428567, 0.03657142, 0.08357143, 0.11857144, 0.06557144, 0.09742857]
35 [1.0624707, 0.9894707, 0.02713736, 0.043862645, 0.09786264, 0.253196, 0.2124707, 0.8441374]
36 [1.0331758, 0.9591758, 0.028175823, 0.049824174, 0.11082419, 0.32082418, 0.28417584, 0.29317582]
37 [1.0464066, 0.9844066, 0.028329672, 0.05667032, 0.12167033, 0.2695165, 0.24217583, 0.5913297]
38 [0.12332968, 0.061329678, 0.028329672, 0.05667032, 0.12167033, 0.11567033, 0.08832967, 0.09132967]
39 [1.0064799, 0.05881318, 0.022813192, 0.070186816, 1.0408535, 0.24285348, 0.25247985, 1.0028132]
40 [0.9648132, 0.05881318, 0.022813192, 0.070186816, 0.124186814, 0.076186806, 0.085813195, 1.1278132]
41 [0.09465934, 0.061659336, 0.023659348, 0.07834065, 0.12034066, 0.07634065, 0.086659335, 0.04265933]
42 [1.0123535, 0.06068681, 0.025313178, 0.09031319, 0.20364651, 0.16064651, 0.16802014, 0.9603535]
43 [0.095686816, 0.06068681, 0.025313178, 0.09031319, 0.12031318, 0.07731318, 0.08468681, 0.043686803]
44 [1.0398235, 0.05837912, 0.036620885, 0.113620885, 1.0640653, 0.13093467, 0.13693468, 0.98882353]
45 [0.9966813, 0.05868132, 0.043318678, 1.0173186, 0.21031868, 0.17968133, 0.18168132, 0.9456813]
46 [0.09668132, 0.05868132, 0.043318678, 0.11731868, 0.11031868, 0.07968132, 0.08168132, 0.04568131]
47 [0.09557143, 0.05657143, 0.05242856, 0.11642857, 0.07942858, 0.07957143, 0.064571425, 0.04457142]
48 [0.4730989, 0.057098906, 0.057901103, 0.2008102, 0.984992, 0.173008, 0.92518985, 1.645992]
49 [0.4730989, 0.057098906, 0.057901103, 0.2008102, 0.984992, 0.173008, 0.92518985, 1.645992]
