0 [0.0, 0.0, 0.0, 0.0, 0.0, 0.0, 0.0, 0.0]
1 [0.0, 0.0, 0.0, 0.0, 0.0, 0.0, 0.0, 0.0]
2 [0.75, 0.75, 0.75, 0.0, 0.0, 0.75, 0.75, 0.75]
3 [0.9166667, 0.9166667, 0.375, 0.0, 0.0, 0.0, 0.16666667, 0.875]
4 [0.0, 0.0, 0.0, 0.0, 0.0, 0.0, 0.0, 0.0]
5 [0.0, 0.5, 0.5, 0.0, 0.0, 0.0, 0.0, 0.5]
6 [0.0, 0.0, 0.0, 0.0, 0.0, 0.0, 0.0, 0.0]
7 [0.8888889, 0.8888889, 0.8888889, 0.0, 0.0, 0.0, 0.33333334, 0.5]
8 [0.0, 0.0, 0.0, 0.0, 0.0, 0.0, 0.0, 0.0]
9 [0.0, 0.0, 0.0, 0.0, 0.0, 0.0, 0.0, 0.0]
10 [0.9166667, 0.9166667, 0.9166667, 0.0, 0.0, 0.0, 0.25, 0.375]
11 [0.0, 0.0, 0.0, 0.0, 0.0, 0.0, 0.0, 0.0]
12 [0.25, 0.875, 0.25, 0.25, 0.0, 0.0, 0.875, 0.875]
13 [0.875, 0.875, 0.125, 0.125, 0.125, 0.0, 0.0, 0.875]
14 [0.0, 0.0, 0.0, 0.0, 0.0, 0.0, 0.0, 0.0]
15 [0.0, 0.875, 0.375, 0.0, 0.0, 0.0, 0.0, 0.375]
16 [0.0, 0.0, 0.0, 0.0, 0.0, 0.0, 0.0, 0.0]
17 [0.0, 0.0, 0.0, 0.0, 0.0, 0.0, 0.0, 0.0]
18 [0.85714287, 0.85714287, 0.85714287, 0.85714287, 0.0, 0.0, 0.2857143, 0.875]
19 [0.0, 0.0, 0.0, 0.0, 0.0, 0.0, 0.0, 0.0]
20 [0.75, 0.75, 0.375, 0.25, 0.25, 0.0, 0.75, 0.875]
21 [0.14285715, 0.5, 0.85714287, 0.85714287, 0.0, 0.0, 0.14285715, 0.5]
22 [0.0, 0.0, 0.0, 0.0, 0.0, 0.0, 0.0, 0.0]
23 [0.125, 0.375, 0.375, 0.875, 0.875, 0.125, 0.125, 0.875]
24 [0.0, 0.0, 0.0, 0.0, 0.0, 0.0, 0.0, 0.0]
25 [0.0, 0.375, 0.375, 0.0, 0.0, 0.0, 0.0, 0.875]
26 [0.9166667, 0.375, 0.9166667, 0.9166667, 0.0, 0.0, 0.083333336, 0.375]
27 [0.0, 0.0, 0.0, 0.0, 0.0, 0.0, 0.0, 0.0]
28 [0.15384616, 0.15384616, 0.9230769, 0.0, 0.0, 0.0, 0.9230769, 0.15384616]
29 [0.15384616, 0.9230769, 0.9230769, 0.0, 0.0, 0.0, 0.15384616, 0.75]
30 [0.0, 0.0, 0.0, 0.0, 0.0, 0.0, 0.0, 0.0]
31 [0.055555556, 0.9444444, 0.0, 0.0, 0.0, 0.055555556, 0.9444444, 0.75]
32 [0.0, 0.75, 0.0, 0.0, 0.0, 0.0, 0.0, 0.75]
33 [0.0, 0.0, 0.0, 0.0, 0.0, 0.0, 0.0, 0.0]
34 [0.93333334, 0.93333334, 0.0, 0.0, 0.0, 0.13333334, 0.13333334, 0.75]
35 [0.0, 0.0, 0.0, 0.0, 0.0, 0.0, 0.0, 0.0]
36 [0.9, 0.9, 0.0, 0.0, 0.0, 0.2, 0.2, 0.2]
37 [0.9230769, 0.9230769, 0.0, 0.0, 0.0, 0.15384616, 0.15384616, 0.5]
38 [0.0, 0.0, 0.0, 0.0, 0.0, 0.0, 0.0, 0.0]
39 [0.9166667, 0.0, 0.0, 0.0, 0.9166667, 0.16666667, 0.16666667, 0.75]
40 [0.875, 0.0, 0.0, 0.0, 0.0, 0.0, 0.0, 0.875]
41 [0.0, 0.0, 0.0, 0.0, 0.0, 0.0, 0.0, 0.0]
42 [0.9166667, 0.0, 0.0, 0.0, 0.083333336, 0.083333336, 0.083333336, 0.9166667]
43 [0.0, 0.0, 0.0, 0.0, 0.0, 0.0, 0.0, 0.0]
44 [0.9444444, 0.0, 0.0, 0.0, 0.9444444, 0.055555556, 0.055555556, 0.9444444]
45 [0.9, 0.0, 0.0, 0.9, 0.1, 0.1, 0.1, 0.9]
46 [0.0, 0.0, 0.0, 0.0, 0.0, 0.0, 0.0, 0.0]
47 [0.9166667, 0.0, 0.0, 0.083333336, 0.083333336, 0.9166667, 0.9166667, 0.9166667]
48 [0.0, 0.0, 0.0, 0.0, 0.0, 0.0, 0.0, 0.0]
49 [0.375, 0.0, 0.0, 0.09090909, 0.90909094, 0.09090909, 0.90909094, 0.90909094]
