0 [10.0, 10.0, 10.0, 10.0, 10.0, 10.0, 10.0, 10.0, 10.0, 10.0, 10.0, 10.0, 10.0, 10.0, 10.0, 10.0, 10.0, 10.0, 10.0, 10.0, 10.0, 10.0, 10.0, 10.0, 10.0, 10.0, 10.0, 10.0, 10.0, 10.0, 10.0, 10.0, 10.0, 10.0, 10.0, 10.0, 10.0, 10.0, 10.0, 10.0, 10.0, 10.0, 10.0, 10.0, 10.0, 10.0, 10.0, 10.0, 10.0, 10.0, 10.0, 10.0, 10.0, 10.0, 10.0, 10.0, 10.0, 10.0, 10.0, 10.0, 10.0, 10.0, 10.0, 10.0, 10.0, 10.0, 10.0, 10.0, 10.0, 10.0, 10.0, 10.0, 10.0, 10.0, 10.0, 10.0, 10.0, 10.0, 10.0, 10.0, 10.0, 10.0, 10.0, 10.0, 10.0, 10.0, 10.0, 10.0, 10.0, 10.0, 10.0, 10.0, 10.0, 10.0, 10.0, 10.0, 10.0, 10.0, 10.0, 10.0, 10.0, 10.0, 10.0, 10.0, 10.0, 10.0, 10.0, 10.0, 10.0, 10.0, 10.0, 10.0, 10.0, 10.0, 10.0, 10.0, 10.0, 10.0, 10.0, 10.0, 10.0, 10.0, 10.0, 10.0, 10.0, 10.0, 10.0, 10.0, 10.0, 10.0, 10.0, 10.0, 10.0, 10.0, 10.0, 10.0, 10.0, 10.0, 10.0, 10.0, 10.0, 10.0, 10.0, 10.0, 10.0, 10.0, 10.0, 10.0, 10.0, 10.0, 10.0, 10.0, 10.0, 10.0, 10.0, 10.0, 10.0, 10.0, 10.0, 10.0, 10.0, 10.0, 10.0, 10.0, 10.0, 10.0, 10.0, 10.0, 10.0, 10.0, 10.0, 10.0, 10.0, 10.0, 10.0, 10.0, 10.0, 10.0, 10.0, 10.0, 10.0, 10.0]
1 [10.0, 10.0, 10.0, 10.0, 10.0, 10.0, 10.0, 10.0, 10.0, 10.0, 10.0, 10.0, 10.0, 10.0, 10.0, 10.0, 10.0, 10.0, 10.0, 10.0, 10.0, 10.0, 10.0, 10.0, 10.0, 10.0, 10.0, 10.0, 10.0, 10.0, 10.0, 10.0, 10.0, 10.0, 10.0, 10.0, 10.0, 10.0, 10.0, 10.0, 10.0, 10.0, 10.0, 10.0, 10.0, 10.0, 10.0, 10.0, 10.0, 10.0, 10.0, 10.0, 10.0, 10.0, 10.0, 10.0, 10.0, 10.0, 10.0, 10.0, 10.0, 10.0, 10.0, 10.0, 10.0, 10.0, 10.0, 10.0, 10.0, 10.0, 10.0, 10.0, 10.0, 10.0, 10.0, 10.0, 10.0, 10.0, 10.0, 10.0, 10.0, 10.0, 10.0, 10.0, 10.0, 10.0, 10.0, 10.0, 10.0, 10.0, 10.0, 10.0, 10.0, 10.0, 10.0, 10.0, 10.0, 10.0, 10.0, 10.0, 10.0, 10.0, 10.0, 10.0, 10.0, 10.0, 10.0, 10.0, 10.0, 10.0, 10.0, 10.0, 10.0, 10.0, 10.0, 10.0, 10.0, 10.0, 10.0, 10.0, 10.0, 10.0, 10.0, 10.0, 10.0, 10.0, 10.0, 10.0, 10.0, 10.0, 10.0, 10.0, 10.0, 10.0, 10.0, 10.0, 10.0, 10.0, 10.0, 10.0, 10.0, 10.0, 10.0, 10.0, 10.0, 10.0, 10.0, 10.0, 10.0, 10.0, 10.0, 10.0, 10.0, 10.0, 10.0, 10.0, 10.0, 10.0, 10.0, 10.0, 10.0, 10.0, 10.0, 10.0, 10.0, 10.0, 10.0, 10.0, 10.0, 10.0, 10.0, 10.0, 10.0, 10.0, 10.0, 10.0, 10.0, 10.0, 10.0, 10.0, 10.0, 10.0]
2 [10.0, 10.0, 10.0, 10.0, 10.0, 10.0, 10.0, 10.0, 10.0, 10.0, 10.0, 10.0, 10.0, 10.0, 10.0, 10.0, 10.0, 10.0, 10.0, 10.0, 10.0, 10.0, 10.0, 10.0, 10.0, 10.0, 10.0, 10.0, 10.0, 10.0, 10.0, 10.0, 10.0, 10.0, 10.0, 10.0, 10.0, 10.0, 10.0, 10.0, 10.0, 10.0, 10.0, 10.0, 10.0, 10.0, 10.0, 10.0, 10.0, 10.0, 10.0, 10.0, 10.0, 10.0, 10.0, 10.0, 10.0, 10.0, 10.0, 10.0, 10.0, 10.0, 10.0, 10.0, 10.0, 10.0, 10.0, 10.0, 10.0, 10.0, 10.0, 10.0, 10.0, 10.0, 10.0, 10.0, 10.0, 10.0, 10.0, 10.0, 10.0, 10.0, 10.0, 10.0, 10.0, 10.0, 10.0, 10.0, 10.0, 10.0, 10.0, 10.0, 10.0, 10.0, 10.0, 10.0, 10.0, 10.0, 10.0, 10.0, 10.0, 10.0, 10.0, 10.0, 10.0, 10.0, 10.0, 10.0, 10.0, 10.0, 10.0, 10.0, 10.0, 10.0, 10.0, 10.0, 10.0, 10.0, 10.0, 10.0, 10.0, 10.0, 10.0, 10.0, 10.0, 10.0, 10.0, 10.0, 10.0, 10.0, 10.0, 10.0, 10.0, 10.0, 10.0, 10.0, 10.0, 10.0, 10.0, 10.0, 10.0, 10.0, 10.0, 10.0, 10.0, 10.0, 10.0, 10.0, 10.0, 10.0, 10.0, 10.0, 10.0, 10.0, 10.0, 10.0, 10.0, 10.0, 10.0, 10.0, 10.0, 10.0, 10.0, 10.0, 10.0, 10.0, 10.0, 10.0, 10.0, 10.0, 10.0, 10.0, 10.0, 10.0, 10.0, 10.0, 10.0, 10.0, 10.0, 10.0, 10.0, 10.0]
3 [10.0, 10.0, 10.0, 10.0, 10.0, 10.0, 10.0, 10.0, 10.0, 10.0, 10.0, 10.0, 10.0, 10.0, 10.0, 10.0, 10.0, 10.0, 10.0, 10.0, 10.0, 10.0, 10.0, 10.0, 10.0, 10.0, 10.0, 10.0, 10.0, 10.0, 10.0, 10.0, 10.0, 10.0, 10.0, 10.0, 10.0, 10.0, 10.0, 10.0, 10.0, 10.0, 10.0, 10.0, 10.0, 10.0, 10.0, 10.0, 10.0, 10.0, 10.0, 10.0, 10.0, 10.0, 10.0, 10.0, 10.0, 10.0, 10.0, 10.0, 10.0, 10.0, 10.0, 10.0, 10.0, 10.0, 10.0, 10.0, 10.0, 10.0, 10.0, 10.0, 10.0, 10.0, 10.0, 10.0, 10.0, 10.0, 10.0, 10.0, 10.0, 10.0, 10.0, 10.0, 10.0, 10.0, 10.0, 10.0, 10.0, 10.0, 10.0, 10.0, 10.0, 10.0, 10.0, 10.0, 10.0, 10.0, 10.0, 10.0, 10.0, 10.0, 10.0, 10.0, 10.0, 10.0, 10.0, 10.0, 10.0, 10.0, 10.0, 10.0, 10.0, 10.0, 10.0, 10.0, 10.0, 10.0, 10.0, 10.0, 10.0, 10.0, 10.0, 10.0, 10.0, 10.0, 10.0, 10.0, 10.0, 10.0, 10.0, 10.0, 10.0, 10.0, 10.0, 10.0, 10.0, 10.0, 10.0, 10.0, 10.0, 10.0, 10.0, 10.0, 10.0, 10.0, 10.0, 10.0, 10.0, 10.0, 10.0, 10.0, 10.0, 10.0, 10.0, 10.0, 10.0, 10.0, 10.0, 10.0, 10.0, 10.0, 10.0, 10.0, 10.0, 10.0, 10.0, 10.0, 10.0, 10.0, 10.0, 10.0, 10.0, 10.0, 10.0, 10.0, 10.0, 10.0, 10.0, 10.0, 10.0, 10.0]
4 [10.0, 10.0, 10.0, 10.0, 10.0, 10.0, 10.0, 10.0, 10.0, 10.0, 10.0, 10.0, 10.0, 10.0, 10.0, 10.0, 10.0, 10.0, 10.0, 10.0, 10.0, 10.0, 10.0, 10.0, 10.0, 10.0, 10.0, 10.0, 10.0, 10.0, 10.0, 10.0, 10.0, 10.0, 10.0, 10.0, 10.0, 10.0, 10.0, 10.0, 10.0, 10.0, 10.0, 10.0, 10.0, 10.0, 10.0, 10.0, 10.0, 10.0, 10.0, 10.0, 10.0, 10.0, 10.0, 10.0, 10.0, 10.0, 10.0, 10.0, 10.0, 10.0, 10.0, 10.0, 10.0, 10.0, 10.0, 10.0, 10.0, 10.0, 10.0, 10.0, 10.0, 10.0, 10.0, 10.0, 10.0, 10.0, 10.0, 10.0, 10.0, 10.0, 10.0, 10.0, 10.0, 10.0, 10.0, 10.0, 10.0, 10.0, 10.0, 10.0, 10.0, 10.0, 10.0, 10.0, 10.0, 10.0, 10.0, 10.0, 10.0, 10.0, 10.0, 10.0, 10.0, 10.0, 10.0, 10.0, 10.0, 10.0, 10.0, 10.0, 10.0, 10.0, 10.0, 10.0, 10.0, 10.0, 10.0, 10.0, 10.0, 10.0, 10.0, 10.0, 10.0, 10.0, 10.0, 10.0, 10.0, 10.0, 10.0, 10.0, 10.0, 10.0, 10.0, 10.0, 10.0, 10.0, 10.0, 10.0, 10.0, 10.0, 10.0, 10.0, 10.0, 10.0, 10.0, 10.0, 10.0, 10.0, 10.0, 10.0, 10.0, 10.0, 10.0, 10.0, 10.0, 10.0, 10.0, 10.0, 10.0, 10.0, 10.0, 10.0, 10.0, 10.0, 10.0, 10.0, 10.0, 10.0, 10.0, 10.0, 10.0, 10.0, 10.0, 10.0, 10.0, 10.0, 10.0, 10.0, 10.0, 10.0]
5 [10.0, 10.0, 10.0, 10.0, 10.0, 10.0, 10.0, 10.0, 10.0, 10.0, 10.0, 10.0, 10.0, 10.0, 10.0, 10.0, 10.0, 10.0, 10.0, 10.0, 10.0, 10.0, 10.0, 10.0, 10.0, 10.0, 10.0, 10.0, 10.0, 10.0, 10.0, 10.0, 10.0, 10.0, 10.0, 10.0, 10.0, 10.0, 10.0, 10.0, 10.0, 10.0, 10.0, 10.0, 10.0, 10.0, 10.0, 10.0, 10.0, 10.0, 10.0, 10.0, 10.0, 10.0, 10.0, 10.0, 10.0, 10.0, 10.0, 10.0, 10.0, 10.0, 10.0, 10.0, 10.0, 10.0, 10.0, 10.0, 10.0, 10.0, 10.0, 10.0, 10.0, 10.0, 10.0, 10.0, 10.0, 10.0, 10.0, 10.0, 10.0, 10.0, 10.0, 10.0, 10.0, 10.0, 10.0, 10.0, 10.0, 10.0, 10.0, 10.0, 10.0, 10.0, 10.0, 10.0, 10.0, 10.0, 10.0, 10.0, 10.0, 10.0, 10.0, 10.0, 10.0, 10.0, 10.0, 10.0, 10.0, 10.0, 10.0, 10.0, 10.0, 10.0, 10.0, 10.0, 10.0, 10.0, 10.0, 10.0, 10.0, 10.0, 10.0, 10.0, 10.0, 10.0, 10.0, 10.0, 10.0, 10.0, 10.0, 10.0, 10.0, 10.0, 10.0, 10.0, 10.0, 10.0, 10.0, 10.0, 10.0, 10.0, 10.0, 10.0, 10.0, 10.0, 10.0, 10.0, 10.0, 10.0, 10.0, 10.0, 10.0, 10.0, 10.0, 10.0, 10.0, 10.0, 10.0, 10.0, 10.0, 10.0, 10.0, 10.0, 10.0, 10.0, 10.0, 10.0, 10.0, 10.0, 10.0, 10.0, 10.0, 10.0, 10.0, 10.0, 10.0, 10.0, 10.0, 10.0, 10.0, 10.0]
6 [2.39, 2.39, 2.39, 2.38, 2.38, 2.38, 2.38, 2.38, 2.38, 2.38, 2.38, 2.38, 2.38, 2.38, 2.38, 2.38, 2.38, 2.38, 2.38, 2.38, 2.37, 2.37, 2.37, 2.37, 2.37, 2.37, 2.37, 2.37, 2.37, 1.72, 1.72, 1.72, 1.72, 1.72, 1.72, 1.72, 1.72, 1.72, 1.72, 1.74, 1.77, 1.81, 1.85, 1.9, 2.36, 2.36, 2.36, 2.36, 2.36, 2.36, 2.36, 2.36, 2.36, 2.36, 2.36, 2.36, 2.36, 2.36, 2.36, 2.36, 2.36, 2.36, 2.36, 2.36, 2.36, 2.36, 2.36, 2.36, 2.36, 2.36, 2.35, 2.35, 2.35, 2.35, 2.35, 2.35, 2.35, 2.35, 2.35, 2.35, 2.35, 2.35, 2.35, 2.35, 2.35, 2.35, 2.35, 2.35, 2.35, 2.35, 2.35, 2.35, 2.35, 2.35, 2.35, 2.35, 2.35, 2.35, 2.35, 2.35, 2.34, 2.34, 2.34, 2.34, 2.34, 2.34, 2.34, 2.34, 2.34, 2.34, 2.34, 2.34, 2.34, 2.34, 2.34, 2.34, 2.34, 2.34, 2.34, 2.34, 2.34, 2.34, 2.34, 2.34, 2.34, 2.34, 2.34, 2.34, 2.34, 2.33, 2.33, 2.33, 2.33, 2.33, 2.33, 2.33, 2.33, 2.33, 2.33, 2.33, 2.33, 2.33, 2.33, 2.33, 2.33, 2.33, 2.33, 2.33, 2.33, 2.33, 2.33, 2.33, 2.33, 2.33, 2.32, 2.32, 2.32, 2.32, 2.32, 2.32, 2.32, 2.32, 2.32, 2.32, 2.32, 2.32, 2.32, 2.32, 2.32, 2.32, 2.32, 2.32, 2.32, 2.32, 2.31, 2.31, 2.31, 2.31, 2.31, 2.31, 2.31, 2.31]
7 [2.31, 2.35, 2.39, 2.43, 2.47, 2.48, 2.48, 2.48, 2.47, 2.47, 2.47, 2.47, 2.47, 2.46, 2.46, 2.46, 2.46, 2.46, 2.45, 2.45, 2.45, 2.45, 2.45, 2.44, 2.44, 2.44, 2.44, 2.44, 2.43, 2.43, 2.43, 2.43, 2.43, 2.43, 1.76, 1.76, 1.76, 1.76, 1.76, 1.76, 1.76, 1.76, 1.75, 1.75, 1.78, 1.82, 1.86, 1.9, 1.94, 2.4, 2.4, 2.4, 2.4, 2.4, 2.4, 2.39, 2.39, 2.39, 2.39, 2.39, 2.39, 2.39, 2.39, 2.38, 2.38, 2.38, 2.38, 2.38, 2.38, 2.38, 2.38, 2.37, 2.37, 2.37, 2.37, 2.37, 2.37, 2.37, 2.37, 2.37, 2.36, 2.36, 2.36, 2.36, 2.36, 2.36, 2.36, 2.36, 2.35, 2.35, 2.35, 2.35, 2.35, 2.35, 2.35, 2.35, 2.35, 2.34, 2.34, 2.34, 2.34, 2.34, 2.34, 2.34, 2.34, 2.34, 2.33, 2.33, 2.33, 2.33, 2.33, 2.33, 2.33, 2.33, 2.32, 2.32, 2.32, 2.32, 2.32, 2.32, 2.32, 2.32, 2.32, 2.31, 2.31, 2.31, 2.31, 2.31, 2.31, 2.31, 2.31, 2.3, 2.3, 2.3, 2.3, 2.3, 2.3, 2.3, 2.3, 2.29, 2.29, 2.29, 2.29, 2.29, 2.29, 2.29, 2.28, 2.28, 2.28, 2.28, 2.28, 2.28, 2.28, 2.27, 2.27, 2.27, 2.27, 2.27, 2.27, 2.27, 2.26, 2.26, 2.26, 2.26, 2.26, 2.26, 2.25, 2.25, 2.25, 2.25, 2.25, 2.25, 2.24, 2.24, 2.24, 2.24, 2.24, 2.23, 2.23, 2.23, 2.23, 2.23]
8 [1.48, 1.5, 2.26, 2.3, 2.33, 2.37, 2.41, 2.45, 2.48, 2.52, 2.56, 2.6, 2.62, 2.62, 2.61, 2.61, 2.6, 2.6, 2.6, 2.59, 2.59, 2.58, 2.58, 2.57, 2.57, 2.56, 2.56, 2.56, 2.55, 2.55, 2.54, 2.54, 2.54, 2.53, 2.53, 2.53, 2.52, 2.52, 2.52, 2.51, 2.51, 1.82, 1.82, 1.82, 1.81, 1.81, 1.81, 1.81, 1.81, 1.8, 1.8, 1.81, 1.85, 1.89, 1.93, 1.97, 2.46, 2.46, 2.45, 2.45, 2.45, 2.44, 2.44, 2.44, 2.44, 2.43, 2.43, 2.43, 2.42, 2.42, 2.42, 2.42, 2.41, 2.41, 2.41, 2.41, 2.4, 2.4, 2.4, 2.4, 2.39, 2.39, 2.39, 2.39, 2.38, 2.38, 2.38, 2.38, 2.37, 2.37, 2.37, 2.37, 2.36, 2.36, 2.36, 2.36, 2.35, 2.35, 2.35, 2.35, 2.34, 2.34, 2.34, 2.34, 2.33, 2.33, 2.33, 2.33, 2.32, 2.32, 2.32, 2.32, 2.31, 2.31, 2.31, 2.31, 2.3, 2.3, 2.3, 2.3, 2.29, 2.29, 2.29, 2.29, 2.28, 2.28, 2.28, 2.28, 2.27, 2.27, 2.27, 2.27, 2.26, 2.26, 2.26, 2.26, 2.25, 2.25, 2.25, 2.25, 2.24, 2.24, 2.24, 2.23, 2.23, 2.23, 2.23, 2.22, 2.22, 2.22, 2.21, 2.21, 2.21, 2.21, 2.2, 2.2, 2.2, 2.19, 2.19, 2.19, 2.19, 2.18, 2.18, 2.18, 2.17, 2.17, 2.17, 2.16, 2.16, 2.16, 2.15, 2.15, 2.15, 2.14, 2.14, 2.13, 2.13, 2.13, 2.12, 2.12, 2.12, 2.11]
9 [0.82, 0.83, 0.84, 0.86, 0.87, 0.88, 0.89, 1.53, 1.55, 1.57, 1.59, 1.61, 1.64, 2.47, 2.5, 2.54, 2.57, 2.61, 2.65, 2.69, 2.72, 2.76, 2.8, 2.81, 2.8, 2.79, 2.78, 2.78, 2.77, 2.76, 2.75, 2.74, 2.74, 2.73, 2.72, 2.71, 2.71, 2.7, 2.69, 2.68, 2.68, 2.67, 2.66, 2.66, 2.65, 2.64, 2.64, 2.63, 2.63, 2.62, 2.61, 2.61, 1.89, 1.89, 1.88, 1.88, 1.87, 1.87, 1.87, 1.86, 1.86, 1.85, 1.87, 1.9, 1.94, 1.98, 2.02, 2.52, 2.51, 2.51, 2.5, 2.5, 2.49, 2.49, 2.48, 2.48, 2.47, 2.47, 2.46, 2.46, 2.45, 2.45, 2.44, 2.44, 2.43, 2.43, 2.43, 2.42, 2.42, 2.41, 2.41, 2.4, 2.4, 2.39, 2.39, 2.38, 2.38, 2.38, 2.37, 2.37, 2.36, 2.36, 2.35, 2.35, 2.35, 2.34, 2.34, 2.33, 2.33, 2.32, 2.32, 2.31, 2.31, 2.31, 2.3, 2.3, 2.29, 2.29, 2.28, 2.28, 2.28, 2.27, 2.27, 2.26, 2.26, 2.25, 2.25, 2.25, 2.24, 2.24, 2.23, 2.23, 2.22, 2.22, 2.21, 2.21, 2.21, 2.2, 2.2, 2.19, 2.19, 2.18, 2.18, 2.17, 2.17, 2.17, 2.16, 2.16, 2.15, 2.15, 2.14, 2.14, 2.13, 2.13, 2.12, 2.12, 2.11, 2.11, 2.1, 2.1, 2.09, 2.09, 2.08, 2.08, 2.07, 2.07, 2.06, 2.06, 2.05, 2.05, 2.04, 2.04, 2.03, 2.02, 2.02, 2.01, 2.01, 2.0, 2.0, 1.99, 1.98, 1.98]
10 [0.78, 0.78, 0.79, 0.8, 0.81, 0.83, 0.84, 0.85, 0.86, 0.87, 0.88, 0.89, 0.9, 0.91, 0.93, 0.94, 0.95, 0.96, 1.65, 1.67, 1.69, 1.71, 1.73, 1.75, 2.64, 2.68, 2.71, 2.75, 2.78, 2.82, 2.86, 2.89, 2.93, 2.97, 2.97, 2.96, 2.95, 2.94, 2.92, 2.91, 2.9, 2.89, 2.88, 2.87, 2.85, 2.84, 2.83, 2.82, 2.81, 2.8, 2.79, 2.78, 2.77, 2.76, 2.75, 2.74, 2.73, 2.73, 2.72, 2.71, 2.7, 2.69, 2.68, 1.94, 1.94, 1.93, 1.92, 1.92, 1.91, 1.91, 1.9, 1.9, 1.89, 1.89, 1.93, 1.97, 2.01, 2.05, 2.55, 2.55, 2.54, 2.53, 2.52, 2.52, 2.51, 2.5, 2.5, 2.49, 2.48, 2.47, 2.47, 2.46, 2.45, 2.45, 2.44, 2.43, 2.43, 2.42, 2.41, 2.41, 2.4, 2.39, 2.39, 2.38, 2.37, 2.37, 2.36, 2.36, 2.35, 2.34, 2.34, 2.33, 2.32, 2.32, 2.31, 2.31, 2.3, 2.29, 2.29, 2.28, 2.27, 2.27, 2.26, 2.26, 2.25, 2.24, 2.24, 2.23, 2.22, 2.22, 2.21, 2.21, 2.2, 2.19, 2.19, 2.18, 2.17, 2.17, 2.16, 2.16, 2.15, 2.14, 2.14, 2.13, 2.12, 2.12, 2.11, 2.11, 2.1, 2.09, 2.09, 2.08, 2.07, 2.07, 2.06, 2.05, 2.05, 2.04, 2.03, 2.03, 2.02, 2.01, 2.01, 2.0, 1.99, 1.99, 1.98, 1.97, 1.96, 1.96, 1.95, 1.94, 1.94, 1.93, 1.92, 1.91, 1.91, 1.9, 1.89, 1.88, 1.88, 1.87]
11 [1.86, 1.88, 0.9, 0.89, 0.88, 0.87, 0.86, 0.85, 0.84, 0.83, 0.83, 0.84, 0.85, 0.86, 0.87, 0.88, 0.89, 0.9, 0.91, 0.92, 0.93, 0.95, 0.96, 0.97, 0.98, 0.99, 1.0, 1.72, 1.74, 1.76, 1.78, 1.8, 1.82, 1.84, 2.78, 2.81, 2.85, 2.88, 2.91, 2.95, 2.99, 3.02, 3.06, 3.09, 3.08, 3.06, 3.05, 3.03, 3.02, 3.0, 2.99, 2.97, 2.96, 2.94, 2.93, 2.92, 2.9, 2.89, 2.88, 2.86, 2.85, 2.84, 2.83, 2.81, 2.8, 2.79, 2.78, 2.77, 2.76, 2.74, 2.73, 2.72, 2.71, 1.96, 1.95, 1.94, 1.94, 1.93, 1.92, 1.91, 1.91, 1.9, 1.89, 1.9, 1.93, 1.97, 2.01, 2.05, 2.55, 2.54, 2.53, 2.52, 2.51, 2.51, 2.5, 2.49, 2.48, 2.47, 2.46, 2.45, 2.44, 2.44, 2.43, 2.42, 2.41, 2.4, 2.39, 2.38, 2.38, 2.37, 2.36, 2.35, 2.34, 2.34, 2.33, 2.32, 2.31, 2.3, 2.3, 2.29, 2.28, 2.27, 2.26, 2.26, 2.25, 2.24, 2.23, 2.22, 2.22, 2.21, 2.2, 2.19, 2.19, 2.18, 2.17, 2.16, 2.15, 2.15, 2.14, 2.13, 2.12, 2.12, 2.11, 2.1, 2.09, 2.08, 2.08, 2.07, 2.06, 2.05, 2.04, 2.04, 2.03, 2.02, 2.01, 2.0, 2.0, 1.99, 1.98, 1.97, 1.96, 1.96, 1.95, 1.94, 1.93, 1.92, 1.91, 1.91, 1.9, 1.89, 1.88, 1.87, 1.86, 1.86, 1.85, 1.84, 1.83, 1.82, 1.81, 1.8, 1.79, 1.78]
12 [1.8, 1.82, 1.84, 1.87, 1.89, 1.91, 1.93, 1.95, 0.93, 0.92, 0.91, 0.9, 0.88, 0.87, 0.86, 0.85, 0.85, 0.86, 0.87, 0.87, 0.88, 0.89, 0.9, 0.91, 0.92, 0.93, 0.94, 0.95, 0.96, 0.98, 0.99, 1.0, 1.01, 1.02, 1.75, 1.77, 1.79, 1.81, 1.83, 1.85, 1.87, 2.83, 2.86, 2.9, 2.93, 2.96, 2.99, 3.03, 3.06, 3.1, 3.13, 3.15, 3.13, 3.11, 3.09, 3.07, 3.06, 3.04, 3.02, 3.01, 2.99, 2.97, 2.96, 2.94, 2.93, 2.91, 2.9, 2.88, 2.87, 2.85, 2.84, 2.82, 2.81, 2.8, 2.78, 2.77, 2.76, 2.74, 2.73, 2.72, 2.71, 1.95, 1.94, 1.93, 1.92, 1.91, 1.9, 1.89, 1.89, 1.88, 1.87, 1.87, 1.91, 1.94, 1.98, 2.02, 2.52, 2.51, 2.5, 2.49, 2.48, 2.47, 2.46, 2.45, 2.44, 2.43, 2.42, 2.41, 2.4, 2.39, 2.38, 2.37, 2.36, 2.35, 2.34, 2.33, 2.32, 2.31, 2.3, 2.29, 2.28, 2.27, 2.26, 2.26, 2.25, 2.24, 2.23, 2.22, 2.21, 2.2, 2.19, 2.18, 2.17, 2.16, 2.15, 2.15, 2.14, 2.13, 2.12, 2.11, 2.1, 2.09, 2.08, 2.07, 2.07, 2.06, 2.05, 2.04, 2.03, 2.02, 2.01, 2.0, 1.99, 1.98, 1.98, 1.97, 1.96, 1.95, 1.94, 1.93, 1.92, 1.91, 1.9, 1.89, 1.88, 1.87, 1.87, 1.86, 1.85, 1.84, 1.83, 1.82, 1.81, 1.8, 1.79, 1.78, 1.77, 1.76, 1.75, 1.74, 1.73, 1.72]
13 [1.77, 1.79, 1.81, 1.83, 1.85, 1.87, 1.89, 1.91, 1.93, 1.95, 1.97, 1.99, 0.94, 0.93, 0.92, 0.9, 0.89, 0.88, 0.87, 0.86, 0.85, 0.86, 0.87, 0.88, 0.89, 0.9, 0.91, 0.92, 0.93, 0.94, 0.95, 0.95, 0.96, 0.97, 0.98, 1.0, 1.01, 1.02, 1.76, 1.78, 1.8, 1.82, 1.83, 1.85, 1.87, 1.89, 2.87, 2.9, 2.93, 2.96, 2.99, 3.02, 3.06, 3.09, 3.12, 3.16, 3.17, 3.15, 3.13, 3.11, 3.09, 3.07, 3.05, 3.04, 3.02, 3.0, 2.98, 2.97, 2.95, 2.93, 2.92, 2.9, 2.88, 2.87, 2.85, 2.84, 2.82, 2.81, 2.79, 2.78, 2.76, 2.75, 2.74, 2.72, 2.71, 2.69, 1.93, 1.92, 1.91, 1.9, 1.89, 1.88, 1.87, 1.87, 1.86, 1.85, 1.84, 1.87, 1.9, 1.94, 1.97, 2.01, 2.48, 2.47, 2.46, 2.45, 2.44, 2.43, 2.42, 2.4, 2.39, 2.38, 2.37, 2.36, 2.35, 2.34, 2.33, 2.32, 2.31, 2.3, 2.29, 2.28, 2.27, 2.26, 2.25, 2.24, 2.23, 2.22, 2.21, 2.2, 2.19, 2.18, 2.17, 2.16, 2.15, 2.14, 2.13, 2.12, 2.11, 2.1, 2.09, 2.08, 2.07, 2.06, 2.05, 2.04, 2.03, 2.02, 2.01, 2.0, 1.99, 1.98, 1.97, 1.96, 1.95, 1.94, 1.93, 1.92, 1.91, 1.9, 1.89, 1.88, 1.87, 1.86, 1.85, 1.84, 1.84, 1.83, 1.82, 1.81, 1.8, 1.79, 1.78, 1.77, 1.75, 1.74, 1.73, 1.72, 1.71, 1.7, 1.69, 1.68]
14 [1.74, 1.76, 1.77, 1.79, 1.81, 1.83, 1.85, 1.87, 1.89, 1.91, 1.93, 1.95, 1.97, 1.99, 2.01, 2.03, 0.96, 0.94, 0.93, 0.92, 0.9, 0.89, 0.88, 0.87, 0.86, 0.86, 0.87, 0.88, 0.89, 0.9, 0.91, 0.92, 0.93, 0.93, 0.94, 0.95, 0.96, 0.97, 0.98, 0.99, 1.0, 1.01, 1.02, 1.78, 1.8, 1.81, 1.83, 1.85, 1.87, 1.89, 1.91, 2.89, 2.92, 2.95, 2.98, 3.01, 3.04, 3.08, 3.11, 3.14, 3.17, 3.2, 3.17, 3.15, 3.13, 3.11, 3.09, 3.07, 3.05, 3.03, 3.01, 2.99, 2.98, 2.96, 2.94, 2.92, 2.9, 2.89, 2.87, 2.85, 2.84, 2.82, 2.8, 2.79, 2.77, 2.76, 2.74, 2.73, 2.71, 2.7, 2.68, 1.92, 1.9, 1.89, 1.88, 1.87, 1.87, 1.86, 1.85, 1.84, 1.83, 1.82, 1.82, 1.85, 1.89, 1.92, 1.95, 2.45, 2.44, 2.43, 2.42, 2.41, 2.39, 2.38, 2.37, 2.36, 2.35, 2.34, 2.32, 2.31, 2.3, 2.29, 2.28, 2.27, 2.26, 2.24, 2.23, 2.22, 2.21, 2.2, 2.19, 2.18, 2.17, 2.16, 2.15, 2.14, 2.12, 2.11, 2.1, 2.09, 2.08, 2.07, 2.06, 2.05, 2.04, 2.03, 2.02, 2.01, 2.0, 1.99, 1.98, 1.97, 1.96, 1.95, 1.94, 1.93, 1.91, 1.9, 1.89, 1.88, 1.87, 1.86, 1.85, 1.84, 1.83, 1.82, 1.81, 1.8, 1.79, 1.78, 1.77, 1.76, 1.75, 1.74, 1.73, 1.71, 1.7, 1.69, 1.68, 1.67, 1.66, 1.65]
15 [1.7, 1.72, 1.74, 1.76, 1.77, 1.79, 1.81, 1.83, 1.84, 1.86, 1.88, 1.9, 1.91, 1.93, 1.95, 1.97, 1.99, 2.01, 2.02, 2.04, 2.06, 2.08, 2.1, 2.12, 2.14, 0.99, 0.97, 0.95, 0.94, 0.92, 0.91, 0.9, 0.88, 0.89, 0.89, 0.9, 0.91, 0.92, 0.93, 0.93, 0.94, 0.95, 0.96, 0.97, 0.98, 0.99, 0.99, 1.0, 1.01, 1.02, 1.03, 1.04, 1.82, 1.84, 1.85, 1.87, 1.89, 1.91, 1.92, 1.94, 2.95, 2.98, 3.01, 3.04, 3.07, 3.1, 3.13, 3.16, 3.19, 3.22, 3.24, 3.21, 3.19, 3.16, 3.14, 3.12, 3.1, 3.07, 3.05, 3.03, 3.01, 2.99, 2.97, 2.95, 2.93, 2.91, 2.89, 2.87, 2.85, 2.83, 2.82, 2.8, 2.78, 2.76, 2.75, 2.73, 2.71, 2.7, 2.68, 2.66, 2.65, 1.88, 1.87, 1.86, 1.85, 1.84, 1.83, 1.82, 1.81, 1.8, 1.79, 1.78, 1.81, 1.84, 1.87, 1.9, 1.94, 2.39, 2.38, 2.37, 2.35, 2.34, 2.33, 2.31, 2.3, 2.29, 2.27, 2.26, 2.25, 2.24, 2.22, 2.21, 2.2, 2.19, 2.17, 2.16, 2.15, 2.14, 2.12, 2.11, 2.1, 2.09, 2.08, 2.06, 2.05, 2.04, 2.03, 2.02, 2.0, 1.99, 1.98, 1.97, 1.96, 1.94, 1.93, 1.92, 1.91, 1.9, 1.89, 1.87, 1.86, 1.85, 1.84, 1.83, 1.82, 1.8, 1.79, 1.78, 1.77, 1.76, 1.75, 1.73, 1.72, 1.71, 1.7, 1.69, 1.68, 1.66, 1.65, 1.64, 1.63, 1.62]
16 [1.68, 1.7, 1.71, 1.73, 1.74, 1.76, 1.78, 1.79, 1.81, 1.82, 1.84, 1.86, 1.87, 1.89, 1.9, 1.92, 1.94, 1.95, 1.97, 1.99, 2.0, 2.02, 2.04, 2.05, 2.07, 2.09, 2.1, 2.12, 2.14, 2.16, 2.17, 2.19, 2.21, 2.23, 2.24, 1.03, 1.02, 1.0, 0.98, 0.96, 0.95, 0.93, 0.92, 0.92, 0.92, 0.93, 0.94, 0.94, 0.95, 0.96, 0.97, 0.98, 0.98, 0.99, 1.0, 1.01, 1.02, 1.02, 1.03, 1.04, 1.05, 1.06, 1.86, 1.87, 1.89, 1.9, 1.92, 1.94, 1.95, 1.97, 3.0, 3.02, 3.05, 3.08, 3.1, 3.13, 3.16, 3.18, 3.21, 3.24, 3.27, 3.25, 3.22, 3.2, 3.17, 3.15, 3.12, 3.1, 3.07, 3.05, 3.02, 3.0, 2.98, 2.96, 2.93, 2.91, 2.89, 2.87, 2.85, 2.83, 2.81, 2.79, 2.77, 2.75, 2.73, 2.71, 2.69, 2.67, 2.65, 2.63, 2.62, 1.86, 1.85, 1.84, 1.82, 1.81, 1.8, 1.79, 1.77, 1.76, 1.75, 1.74, 1.74, 1.77, 1.8, 1.83, 1.86, 2.33, 2.32, 2.3, 2.29, 2.27, 2.26, 2.24, 2.23, 2.21, 2.2, 2.19, 2.17, 2.16, 2.14, 2.13, 2.11, 2.1, 2.09, 2.07, 2.06, 2.05, 2.03, 2.02, 2.0, 1.99, 1.98, 1.96, 1.95, 1.94, 1.92, 1.91, 1.9, 1.88, 1.87, 1.86, 1.84, 1.83, 1.82, 1.81, 1.79, 1.78, 1.77, 1.75, 1.74, 1.73, 1.71, 1.7, 1.69, 1.68, 1.66, 1.65, 1.64, 1.62, 1.61, 1.6]
17 [1.68, 1.69, 1.71, 1.72, 1.74, 1.75, 1.77, 1.78, 1.8, 1.81, 1.83, 1.84, 1.86, 1.87, 1.89, 1.9, 1.92, 1.93, 1.95, 1.96, 1.98, 1.99, 2.01, 2.02, 2.04, 2.06, 2.07, 2.09, 2.1, 2.12, 2.14, 2.15, 2.17, 2.18, 2.2, 2.22, 2.23, 2.25, 2.27, 2.28, 2.3, 1.06, 1.04, 1.02, 1.01, 0.99, 0.97, 0.96, 0.94, 0.93, 0.94, 0.95, 0.95, 0.96, 0.97, 0.97, 0.98, 0.99, 1.0, 1.0, 1.01, 1.02, 1.03, 1.03, 1.04, 1.05, 1.06, 1.07, 1.87, 1.89, 1.9, 1.92, 1.93, 1.95, 1.96, 1.98, 3.02, 3.04, 3.07, 3.09, 3.12, 3.14, 3.17, 3.19, 3.22, 3.25, 3.28, 3.26, 3.23, 3.21, 3.18, 3.15, 3.12, 3.1, 3.07, 3.05, 3.02, 3.0, 2.97, 2.95, 2.93, 2.9, 2.88, 2.86, 2.84, 2.81, 2.79, 2.77, 2.75, 2.73, 2.71, 2.69, 2.67, 2.65, 2.63, 2.61, 2.59, 1.84, 1.83, 1.81, 1.8, 1.79, 1.78, 1.76, 1.75, 1.74, 1.73, 1.71, 1.71, 1.73, 1.76, 1.79, 1.82, 2.29, 2.28, 2.26, 2.24, 2.23, 2.21, 2.2, 2.18, 2.17, 2.15, 2.13, 2.12, 2.1, 2.09, 2.07, 2.06, 2.04, 2.03, 2.02, 2.0, 1.99, 1.97, 1.96, 1.94, 1.93, 1.91, 1.9, 1.89, 1.87, 1.86, 1.84, 1.83, 1.82, 1.8, 1.79, 1.77, 1.76, 1.75, 1.73, 1.72, 1.7, 1.69, 1.68, 1.66, 1.65, 1.64, 1.62, 1.61, 1.59]
18 [1.68, 1.69, 1.7, 1.72, 1.73, 1.75, 1.76, 1.78, 1.79, 1.8, 1.82, 1.83, 1.85, 1.86, 1.87, 1.89, 1.9, 1.92, 1.93, 1.95, 1.96, 1.97, 1.99, 2.0, 2.02, 2.03, 2.05, 2.06, 2.08, 2.09, 2.11, 2.12, 2.13, 2.15, 2.16, 2.18, 2.19, 2.21, 2.23, 2.24, 2.26, 2.27, 2.29, 2.3, 2.32, 2.33, 2.35, 1.09, 1.07, 1.05, 1.03, 1.01, 0.99, 0.98, 0.96, 0.95, 0.95, 0.96, 0.97, 0.97, 0.98, 0.99, 0.99, 1.0, 1.01, 1.01, 1.02, 1.03, 1.04, 1.04, 1.05, 1.06, 1.06, 1.07, 1.08, 1.9, 1.92, 1.93, 1.94, 1.96, 1.97, 1.99, 3.03, 3.05, 3.07, 3.1, 3.12, 3.15, 3.17, 3.2, 3.22, 3.25, 3.27, 3.27, 3.24, 3.21, 3.18, 3.15, 3.12, 3.09, 3.07, 3.04, 3.01, 2.99, 2.96, 2.94, 2.91, 2.89, 2.86, 2.84, 2.82, 2.79, 2.77, 2.75, 2.73, 2.7, 2.68, 2.66, 2.64, 2.62, 2.6, 2.58, 2.56, 2.54, 1.8, 1.79, 1.78, 1.76, 1.75, 1.73, 1.72, 1.71, 1.7, 1.68, 1.67, 1.69, 1.71, 1.74, 1.77, 1.8, 2.23, 2.21, 2.19, 2.18, 2.16, 2.14, 2.13, 2.11, 2.09, 2.08, 2.06, 2.05, 2.03, 2.01, 2.0, 1.98, 1.97, 1.95, 1.94, 1.92, 1.91, 1.89, 1.88, 1.86, 1.85, 1.83, 1.82, 1.8, 1.79, 1.77, 1.76, 1.74, 1.73, 1.71, 1.7, 1.68, 1.67, 1.65, 1.64, 1.63, 1.61, 1.6]
19 [1.68, 1.69, 1.71, 1.72, 1.73, 1.75, 1.76, 1.77, 1.79, 1.8, 1.81, 1.83, 1.84, 1.85, 1.87, 1.88, 1.89, 1.91, 1.92, 1.93, 1.95, 1.96, 1.97, 1.99, 2.0, 2.01, 2.03, 2.04, 2.05, 2.07, 2.08, 2.09, 2.11, 2.12, 2.13, 2.15, 2.16, 2.17, 2.19, 2.2, 2.22, 2.23, 2.24, 2.26, 2.27, 2.29, 2.3, 2.32, 2.33, 2.34, 2.36, 2.37, 2.39, 2.4, 1.11, 1.09, 1.07, 1.05, 1.03, 1.01, 0.99, 0.98, 0.96, 0.97, 0.97, 0.98, 0.98, 0.99, 1.0, 1.0, 1.01, 1.02, 1.02, 1.03, 1.04, 1.04, 1.05, 1.06, 1.06, 1.07, 1.08, 1.09, 1.91, 1.93, 1.94, 1.95, 1.97, 1.98, 1.99, 3.04, 3.06, 3.08, 3.1, 3.12, 3.15, 3.17, 3.19, 3.22, 3.24, 3.27, 3.25, 3.22, 3.19, 3.16, 3.13, 3.1, 3.07, 3.04, 3.01, 2.99, 2.96, 2.93, 2.91, 2.88, 2.85, 2.83, 2.8, 2.78, 2.76, 2.73, 2.71, 2.68, 2.66, 2.64, 2.62, 2.59, 2.57, 2.55, 2.53, 2.51, 2.49, 1.77, 1.75, 1.74, 1.72, 1.71, 1.69, 1.68, 1.67, 1.65, 1.64, 1.63, 1.64, 1.67, 1.69, 1.72, 1.75, 2.16, 2.14, 2.12, 2.11, 2.09, 2.07, 2.05, 2.04, 2.02, 2.0, 1.99, 1.97, 1.95, 1.94, 1.92, 1.9, 1.89, 1.87, 1.85, 1.84, 1.82, 1.81, 1.79, 1.77, 1.76, 1.74, 1.73, 1.71, 1.7, 1.68, 1.66, 1.65, 1.63, 0.0, 0.0]
20 [1.69, 1.71, 1.72, 1.73, 1.74, 1.76, 1.77, 1.78, 1.79, 1.8, 1.82, 1.83, 1.84, 1.85, 1.87, 1.88, 1.89, 1.9, 1.91, 1.93, 1.94, 1.95, 1.96, 1.98, 1.99, 2.0, 2.01, 2.02, 2.04, 2.05, 2.06, 2.07, 2.09, 2.1, 2.11, 2.12, 2.14, 2.15, 2.16, 2.17, 2.19, 2.2, 2.21, 2.22, 2.24, 2.25, 2.26, 2.27, 2.29, 2.3, 2.31, 2.33, 2.34, 2.35, 2.37, 2.38, 2.39, 2.41, 2.42, 2.43, 2.45, 1.13, 1.11, 1.08, 1.06, 1.04, 1.02, 1.01, 0.99, 0.97, 0.98, 0.98, 0.99, 0.99, 1.0, 1.01, 1.01, 1.02, 1.02, 1.03, 1.04, 1.04, 1.05, 1.05, 1.06, 1.07, 1.07, 1.08, 1.09, 1.92, 1.93, 1.94, 1.95, 1.97, 1.98, 1.99, 3.04, 3.06, 3.08, 3.1, 3.12, 3.14, 3.16, 3.18, 3.2, 3.23, 3.25, 3.22, 3.19, 3.16, 3.13, 3.1, 3.07, 3.03, 3.01, 2.98, 2.95, 2.92, 2.89, 2.86, 2.84, 2.81, 2.78, 2.76, 2.73, 2.71, 2.68, 2.66, 2.63, 2.61, 2.59, 2.56, 2.54, 2.52, 2.49, 2.47, 2.45, 2.43, 1.72, 1.71, 1.69, 1.68, 1.66, 1.65, 1.63, 1.62, 1.6, 1.59, 1.58, 1.59, 1.62, 1.64, 1.66, 1.69, 2.08, 2.07, 2.05, 2.03, 2.01, 1.99, 1.97, 1.96, 1.94, 1.92, 1.9, 1.89, 1.87, 1.85, 1.83, 1.82, 1.8, 1.78, 1.77, 1.75, 1.73, 1.72, 1.7, 1.68, 1.67, 1.65, 1.63, 1.62]
21 [1.71, 1.72, 1.73, 1.74, 1.76, 1.77, 1.78, 1.79, 1.8, 1.81, 1.83, 1.84, 1.85, 1.86, 1.87, 1.88, 1.89, 1.9, 1.92, 1.93, 1.94, 1.95, 1.96, 1.97, 1.98, 1.99, 2.01, 2.02, 2.03, 2.04, 2.05, 2.06, 2.07, 2.08, 2.1, 2.11, 2.12, 2.13, 2.14, 2.15, 2.16, 2.17, 2.19, 2.2, 2.21, 2.22, 2.23, 2.24, 2.26, 2.27, 2.28, 2.29, 2.3, 2.31, 2.33, 2.34, 2.35, 2.36, 2.37, 2.39, 2.4, 2.41, 2.42, 2.44, 2.45, 2.46, 2.47, 2.49, 1.13, 1.11, 1.09, 1.06, 1.04, 1.03, 1.01, 0.99, 0.98, 0.98, 0.99, 0.99, 1.0, 1.01, 1.01, 1.02, 1.02, 1.03, 1.03, 1.04, 1.04, 1.05, 1.06, 1.06, 1.07, 1.07, 1.08, 1.91, 1.92, 1.93, 1.94, 1.95, 1.96, 1.98, 1.99, 3.03, 3.05, 3.07, 3.09, 3.11, 3.13, 3.15, 3.17, 3.19, 3.21, 3.21, 3.17, 3.14, 3.11, 3.07, 3.04, 3.01, 2.98, 2.95, 2.92, 2.89, 2.86, 2.83, 2.8, 2.77, 2.75, 2.72, 2.69, 2.67, 2.64, 2.62, 2.59, 2.56, 2.54, 2.52, 2.49, 2.47, 2.44, 2.42, 2.4, 2.37, 1.68, 1.67, 1.65, 1.64, 1.62, 1.61, 1.59, 1.58, 1.56, 1.55, 1.53, 1.53, 1.55, 1.57, 1.59, 1.61, 2.02, 2.0, 1.98, 1.96, 1.94, 1.92, 1.9, 1.88, 1.87, 1.85, 1.83, 1.81, 1.79, 1.78, 1.76, 1.74, 1.72, 1.7, 1.69, 1.67, 1.65, 1.63]
22 [0.97, 1.01, 1.75, 1.76, 1.77, 1.79, 1.8, 1.81, 1.82, 1.83, 1.84, 1.85, 1.86, 1.87, 1.88, 1.89, 1.9, 1.91, 1.92, 1.93, 1.94, 1.95, 1.96, 1.97, 1.98, 1.99, 2.0, 2.01, 2.02, 2.03, 2.04, 2.05, 2.07, 2.08, 2.09, 2.1, 2.11, 2.12, 2.13, 2.14, 2.15, 2.16, 2.17, 2.18, 2.19, 2.2, 2.21, 2.22, 2.23, 2.24, 2.25, 2.26, 2.27, 2.28, 2.29, 2.3, 2.31, 2.32, 2.33, 2.34, 2.36, 2.37, 2.38, 2.39, 2.4, 2.41, 2.42, 2.43, 2.44, 2.46, 2.47, 2.48, 2.49, 2.5, 2.51, 1.13, 1.11, 1.08, 1.06, 1.04, 1.02, 1.0, 0.99, 0.98, 0.99, 0.99, 1.0, 1.0, 1.0, 1.01, 1.01, 1.02, 1.02, 1.03, 1.04, 1.04, 1.05, 1.05, 1.06, 1.06, 1.07, 1.07, 1.9, 1.91, 1.92, 1.93, 1.94, 1.95, 1.96, 1.97, 3.01, 3.03, 3.04, 3.06, 3.08, 3.1, 3.11, 3.13, 3.15, 3.17, 3.15, 3.11, 3.08, 3.05, 3.01, 2.98, 2.95, 2.91, 2.88, 2.85, 2.82, 2.79, 2.76, 2.73, 2.71, 2.68, 2.65, 2.62, 2.59, 2.57, 2.54, 2.52, 2.49, 2.46, 2.44, 2.41, 2.39, 2.36, 2.34, 2.32, 2.29, 1.63, 1.61, 1.59, 1.58, 1.56, 1.55, 1.53, 1.51, 1.5, 1.48, 1.47, 1.47, 1.49, 1.51, 1.53, 1.55, 1.93, 1.91, 1.89, 1.87, 1.85, 1.83, 1.81, 1.79, 1.77, 1.75, 1.73, 1.71, 1.69, 10.0, 0.0]
23 [0.88, 0.88, 0.89, 0.91, 0.95, 0.98, 1.02, 1.06, 1.84, 1.85, 1.86, 1.86, 1.87, 1.88, 1.89, 1.9, 1.91, 1.92, 1.93, 1.94, 1.95, 1.96, 1.97, 1.98, 1.99, 2.0, 2.01, 2.02, 2.03, 2.03, 2.04, 2.05, 2.06, 2.07, 2.08, 2.09, 2.1, 2.11, 2.12, 2.13, 2.14, 2.15, 2.15, 2.16, 2.17, 2.18, 2.19, 2.2, 2.21, 2.22, 2.23, 2.24, 2.25, 2.26, 2.27, 2.28, 2.28, 2.29, 2.3, 2.31, 2.32, 2.33, 2.34, 2.35, 2.36, 2.37, 2.38, 2.39, 2.4, 2.41, 2.42, 2.43, 2.44, 2.45, 2.46, 2.47, 2.48, 2.49, 2.5, 2.51, 2.52, 1.13, 1.11, 1.09, 1.07, 1.05, 1.03, 1.01, 0.99, 0.98, 0.98, 0.99, 0.99, 0.99, 1.0, 1.0, 1.01, 1.01, 1.02, 1.02, 1.03, 1.03, 1.03, 1.04, 1.04, 1.05, 1.05, 1.06, 1.06, 1.89, 1.9, 1.91, 1.92, 1.93, 1.94, 1.95, 2.97, 2.99, 3.0, 3.02, 3.03, 3.05, 3.07, 3.08, 3.1, 3.12, 3.1, 3.07, 3.03, 2.99, 2.96, 2.93, 2.89, 2.86, 2.83, 2.8, 2.76, 2.73, 2.7, 2.67, 2.64, 2.62, 2.59, 2.56, 2.53, 2.5, 2.48, 2.45, 2.42, 2.4, 2.37, 2.35, 2.32, 2.3, 2.27, 2.25, 2.22, 1.57, 1.56, 1.54, 1.52, 1.51, 1.49, 1.48, 1.46, 1.44, 1.43, 1.41, 1.4, 1.42, 1.44, 1.45, 1.47, 1.84, 1.82, 1.8, 1.78, 1.76, 1.74, 1.72, 1.7, 1.68]
24 [0.89, 0.89, 0.9, 0.9, 0.9, 0.91, 0.91, 0.92, 0.94, 0.98, 1.01, 1.05, 1.09, 1.9, 1.91, 1.92, 1.93, 1.94, 1.94, 1.95, 1.96, 1.97, 1.98, 1.99, 2.0, 2.0, 2.01, 2.02, 2.03, 2.04, 2.05, 2.06, 2.06, 2.07, 2.08, 2.09, 2.1, 2.11, 2.11, 2.12, 2.13, 2.14, 2.15, 2.16, 2.16, 2.17, 2.18, 2.19, 2.2, 2.2, 2.21, 2.22, 2.23, 2.24, 2.25, 2.25, 2.26, 2.27, 2.28, 2.29, 2.3, 2.31, 2.31, 2.32, 2.33, 2.34, 2.35, 2.36, 2.37, 2.37, 2.38, 2.39, 2.4, 2.41, 2.42, 2.43, 2.44, 2.44, 2.45, 2.46, 2.47, 2.48, 2.49, 2.5, 2.51, 2.52, 1.15, 1.12, 1.1, 1.08, 1.05, 1.03, 1.01, 0.99, 0.98, 0.97, 0.97, 0.98, 0.98, 0.99, 0.99, 0.99, 1.0, 1.0, 1.01, 1.01, 1.01, 1.02, 1.02, 1.03, 1.03, 1.04, 1.04, 1.04, 1.86, 1.87, 1.88, 1.88, 1.89, 1.9, 1.91, 2.92, 2.93, 2.95, 2.96, 2.98, 2.99, 3.01, 3.02, 3.04, 3.05, 3.07, 3.03, 2.99, 2.96, 2.92, 2.89, 2.85, 2.82, 2.79, 2.75, 2.72, 2.69, 2.66, 2.63, 2.6, 2.57, 2.54, 2.51, 2.48, 2.45, 2.42, 2.4, 2.37, 2.34, 2.32, 2.29, 2.26, 2.24, 2.21, 2.19, 2.16, 2.14, 1.51, 1.5, 1.48, 1.46, 1.45, 1.43, 1.41, 1.4, 1.38, 1.36, 1.35, 1.34, 1.36, 1.37, 1.39, 1.41, 1.75, 1.73, 1.71]
25 [0.9, 0.9, 0.9, 0.91, 0.91, 0.92, 0.92, 0.93, 0.93, 0.93, 0.94, 0.94, 0.95, 0.98, 1.02, 1.05, 1.09, 1.95, 1.96, 1.97, 1.97, 1.98, 1.99, 2.0, 2.01, 2.01, 2.02, 2.03, 2.04, 2.04, 2.05, 2.06, 2.07, 2.07, 2.08, 2.09, 2.1, 2.1, 2.11, 2.12, 2.13, 2.13, 2.14, 2.15, 2.16, 2.16, 2.17, 2.18, 2.19, 2.19, 2.2, 2.21, 2.22, 2.22, 2.23, 2.24, 2.25, 2.25, 2.26, 2.27, 2.28, 2.28, 2.29, 2.3, 2.31, 2.31, 2.32, 2.33, 2.34, 2.34, 2.35, 2.36, 2.37, 2.38, 2.38, 2.39, 2.4, 2.41, 2.41, 2.42, 2.43, 2.44, 2.45, 2.46, 2.46, 2.47, 2.48, 2.49, 2.5, 2.5, 2.51, 2.52, 1.12, 1.09, 1.07, 1.05, 1.03, 1.01, 0.99, 0.97, 0.96, 0.96, 0.97, 0.97, 0.97, 0.98, 0.98, 0.98, 0.99, 0.99, 0.99, 1.0, 1.0, 1.01, 1.01, 1.01, 1.02, 1.02, 1.02, 1.03, 1.84, 1.85, 1.85, 1.86, 1.87, 1.88, 1.89, 2.89, 2.9, 2.91, 2.92, 2.94, 2.95, 2.96, 2.98, 2.99, 3.01, 2.97, 2.94, 2.9, 2.86, 2.83, 2.79, 2.76, 2.73, 2.69, 2.66, 2.63, 2.6, 2.57, 2.53, 2.5, 2.47, 2.44, 2.42, 2.39, 2.36, 2.33, 2.3, 2.28, 2.25, 2.22, 2.2, 2.17, 2.14, 2.12, 2.09, 2.07, 1.46, 1.45, 1.43, 1.41, 1.39, 1.38, 1.36, 1.34, 1.33, 1.31, 1.3, 1.28, 1.29, 1.3]
26 [0.9, 0.91, 0.91, 0.92, 0.92, 0.92, 0.93, 0.93, 0.94, 0.94, 0.94, 0.95, 0.95, 0.95, 0.96, 0.96, 0.99, 1.02, 1.05, 1.09, 1.13, 1.99, 2.0, 2.01, 2.01, 2.02, 2.03, 2.04, 2.04, 2.05, 2.06, 2.06, 2.07, 2.08, 2.08, 2.09, 2.1, 2.11, 2.11, 2.12, 2.13, 2.13, 2.14, 2.15, 2.15, 2.16, 2.17, 2.17, 2.18, 2.19, 2.19, 2.2, 2.21, 2.21, 2.22, 2.23, 2.23, 2.24, 2.25, 2.25, 2.26, 2.27, 2.28, 2.28, 2.29, 2.3, 2.3, 2.31, 2.32, 2.32, 2.33, 2.34, 2.34, 2.35, 2.36, 2.37, 2.37, 2.38, 2.39, 2.39, 2.4, 2.41, 2.42, 2.42, 2.43, 2.44, 2.44, 2.45, 2.46, 2.47, 2.47, 2.48, 2.49, 2.5, 2.5, 1.13, 1.11, 1.09, 1.06, 1.04, 1.02, 1.0, 0.98, 0.96, 0.95, 0.95, 0.95, 0.96, 0.96, 0.96, 0.97, 0.97, 0.97, 0.98, 0.98, 0.98, 0.99, 0.99, 0.99, 1.0, 1.0, 1.0, 1.01, 1.01, 1.81, 1.82, 1.83, 1.83, 1.84, 1.85, 1.85, 2.85, 2.86, 2.87, 2.88, 2.89, 2.9, 2.92, 2.93, 2.94, 2.95, 2.92, 2.88, 2.85, 2.81, 2.78, 2.74, 2.71, 2.67, 2.64, 2.61, 2.57, 2.54, 2.51, 2.48, 2.45, 2.42, 2.39, 2.36, 2.33, 2.3, 2.27, 2.24, 2.22, 2.19, 2.16, 2.14, 2.11, 2.08, 2.06, 2.03, 2.01, 1.98, 1.4, 1.38, 1.37, 1.35, 1.33, 1.32, 1.3, 1.28, 1.27]
27 [1.84, 0.91, 0.91, 0.92, 0.92, 0.93, 0.93, 0.93, 0.94, 0.94, 0.94, 0.95, 0.95, 0.96, 0.96, 0.96, 0.97, 0.97, 0.98, 1.02, 1.05, 1.09, 1.13, 2.01, 2.02, 2.03, 2.03, 2.04, 2.05, 2.05, 2.06, 2.07, 2.07, 2.08, 2.09, 2.09, 2.1, 2.1, 2.11, 2.12, 2.12, 2.13, 2.14, 2.14, 2.15, 2.16, 2.16, 2.17, 2.17, 2.18, 2.19, 2.19, 2.2, 2.21, 2.21, 2.22, 2.22, 2.23, 2.24, 2.24, 2.25, 2.26, 2.26, 2.27, 2.28, 2.28, 2.29, 2.29, 2.3, 2.31, 2.31, 2.32, 2.33, 2.33, 2.34, 2.35, 2.35, 2.36, 2.36, 2.37, 2.38, 2.38, 2.39, 2.4, 2.4, 2.41, 2.42, 2.42, 2.43, 2.44, 2.45, 2.45, 2.46, 2.47, 2.47, 2.48, 2.49, 2.49, 1.12, 1.1, 1.07, 1.05, 1.03, 1.01, 0.99, 0.97, 0.95, 0.93, 0.94, 0.94, 0.94, 0.95, 0.95, 0.95, 0.95, 0.96, 0.96, 0.96, 0.97, 0.97, 0.97, 0.98, 0.98, 0.98, 0.99, 0.99, 0.99, 1.79, 1.8, 1.8, 1.81, 1.82, 1.82, 1.83, 2.81, 2.82, 2.83, 2.84, 2.85, 2.87, 2.88, 2.89, 2.9, 2.91, 2.88, 2.84, 2.8, 2.77, 2.73, 2.69, 2.66, 2.63, 2.59, 2.56, 2.53, 2.49, 2.46, 2.43, 2.4, 2.37, 2.34, 2.31, 2.28, 2.25, 2.22, 2.2, 2.17, 2.14, 2.11, 2.09, 2.06, 2.03, 2.01, 1.98, 1.96, 1.93, 1.37, 1.35, 1.33, 1.31, 10.0, 0.0]
28 [1.85, 1.86, 0.91, 0.92, 0.92, 0.93, 0.93, 0.93, 0.94, 0.94, 0.94, 0.95, 0.95, 0.95, 0.96, 0.96, 0.96, 0.97, 0.97, 0.98, 1.01, 1.04, 1.08, 1.12, 1.16, 2.03, 2.03, 2.04, 2.05, 2.05, 2.06, 2.06, 2.07, 2.08, 2.08, 2.09, 2.1, 2.1, 2.11, 2.11, 2.12, 2.13, 2.13, 2.14, 2.14, 2.15, 2.16, 2.16, 2.17, 2.17, 2.18, 2.19, 2.19, 2.2, 2.2, 2.21, 2.22, 2.22, 2.23, 2.23, 2.24, 2.25, 2.25, 2.26, 2.26, 2.27, 2.28, 2.28, 2.29, 2.29, 2.3, 2.31, 2.31, 2.32, 2.32, 2.33, 2.34, 2.34, 2.35, 2.36, 2.36, 2.37, 2.37, 2.38, 2.39, 2.39, 2.4, 2.41, 2.41, 2.42, 2.43, 2.43, 2.44, 2.44, 2.45, 2.46, 2.46, 2.47, 2.48, 2.49, 1.11, 1.08, 1.06, 1.04, 1.01, 0.99, 0.97, 0.95, 0.94, 0.92, 0.93, 0.93, 0.93, 0.93, 0.94, 0.94, 0.94, 0.95, 0.95, 0.95, 0.95, 0.96, 0.96, 0.96, 0.97, 0.97, 0.97, 0.98, 0.98, 1.77, 1.78, 1.79, 1.79, 1.8, 1.8, 1.81, 2.79, 2.8, 2.81, 2.82, 2.83, 2.84, 2.85, 2.86, 2.87, 2.88, 2.84, 2.8, 2.77, 2.73, 2.69, 2.66, 2.62, 2.59, 2.56, 2.52, 2.49, 2.46, 2.43, 2.4, 2.36, 2.33, 2.3, 2.27, 2.25, 2.22, 2.19, 2.16, 2.13, 2.11, 2.08, 2.05, 2.03, 2.0, 1.97, 1.95, 1.92, 1.9, 1.34, 1.32, 1.3, 1.29]
29 [1.85, 1.86, 0.91, 0.91, 0.92, 0.92, 0.92, 0.93, 0.93, 0.93, 0.94, 0.94, 0.94, 0.95, 0.95, 0.95, 0.96, 0.96, 0.96, 0.97, 1.0, 1.03, 1.07, 1.11, 1.14, 2.02, 2.03, 2.03, 2.04, 2.05, 2.05, 2.06, 2.07, 2.07, 2.08, 2.08, 2.09, 2.1, 2.1, 2.11, 2.11, 2.12, 2.13, 2.13, 2.14, 2.14, 2.15, 2.16, 2.16, 2.17, 2.17, 2.18, 2.18, 2.19, 2.2, 2.2, 2.21, 2.21, 2.22, 2.23, 2.23, 2.24, 2.24, 2.25, 2.25, 2.26, 2.27, 2.27, 2.28, 2.28, 2.29, 2.3, 2.3, 2.31, 2.31, 2.32, 2.33, 2.33, 2.34, 2.34, 2.35, 2.36, 2.36, 2.37, 2.37, 2.38, 2.39, 2.39, 2.4, 2.41, 2.41, 2.42, 2.43, 2.43, 2.44, 2.44, 2.45, 2.46, 2.46, 2.47, 2.48, 1.09, 1.07, 1.04, 1.02, 1.0, 0.98, 0.96, 0.94, 0.92, 0.91, 0.92, 0.92, 0.92, 0.92, 0.93, 0.93, 0.93, 0.94, 0.94, 0.94, 0.94, 0.95, 0.95, 0.95, 0.96, 0.96, 0.96, 0.97, 0.97, 1.76, 1.77, 1.77, 1.78, 1.79, 1.79, 2.77, 2.78, 2.79, 2.8, 2.81, 2.82, 2.83, 2.84, 2.85, 2.86, 2.85, 2.81, 2.78, 2.74, 2.7, 2.67, 2.63, 2.6, 2.56, 2.53, 2.5, 2.47, 2.43, 2.4, 2.37, 2.34, 2.31, 2.28, 2.25, 2.22, 2.19, 2.17, 2.14, 2.11, 2.08, 2.06, 2.03, 2.0, 1.98, 1.95, 1.93, 1.9, 1.88, 1.32, 1.31, 1.29]
30 [1.84, 1.85, 0.9, 0.9, 0.91, 0.91, 0.92, 0.92, 0.92, 0.93, 0.93, 0.93, 0.94, 0.94, 0.94, 0.95, 0.95, 0.95, 0.96, 0.98, 1.01, 1.04, 1.08, 1.11, 2.01, 2.01, 2.02, 2.02, 2.03, 2.04, 2.04, 2.05, 2.06, 2.06, 2.07, 2.07, 2.08, 2.09, 2.09, 2.1, 2.1, 2.11, 2.12, 2.12, 2.13, 2.13, 2.14, 2.15, 2.15, 2.16, 2.16, 2.17, 2.17, 2.18, 2.19, 2.19, 2.2, 2.2, 2.21, 2.22, 2.22, 2.23, 2.23, 2.24, 2.24, 2.25, 2.26, 2.26, 2.27, 2.27, 2.28, 2.29, 2.29, 2.3, 2.3, 2.31, 2.31, 2.32, 2.33, 2.33, 2.34, 2.35, 2.35, 2.36, 2.36, 2.37, 2.38, 2.38, 2.39, 2.39, 2.4, 2.41, 2.41, 2.42, 2.43, 2.43, 2.44, 2.45, 2.45, 2.46, 2.47, 1.08, 1.06, 1.04, 1.01, 0.99, 0.97, 0.95, 0.93, 0.92, 0.9, 0.9, 0.91, 0.91, 0.91, 0.92, 0.92, 0.92, 0.92, 0.93, 0.93, 0.93, 0.93, 0.94, 0.94, 0.94, 0.95, 0.95, 0.95, 0.96, 0.96, 1.75, 1.76, 1.77, 1.77, 1.78, 1.79, 2.76, 2.77, 2.78, 2.79, 2.8, 2.81, 2.82, 2.83, 2.84, 2.85, 2.81, 2.77, 2.74, 2.7, 2.67, 2.63, 2.6, 2.56, 2.53, 2.5, 2.46, 2.43, 2.4, 2.37, 2.34, 2.31, 2.28, 2.25, 2.22, 2.19, 2.16, 2.14, 2.11, 2.08, 2.05, 2.03, 2.0, 1.98, 1.95, 1.92, 1.9, 1.87, 1.85, 1.3, 1.29]
31 [1.83, 0.89, 0.89, 0.89, 0.9, 0.9, 0.9, 0.91, 0.91, 0.91, 0.92, 0.92, 0.92, 0.93, 0.93, 0.93, 0.94, 0.94, 0.96, 0.99, 1.02, 1.05, 1.09, 1.13, 1.99, 2.0, 2.01, 2.01, 2.02, 2.02, 2.03, 2.04, 2.04, 2.05, 2.05, 2.06, 2.07, 2.07, 2.08, 2.08, 2.09, 2.1, 2.1, 2.11, 2.11, 2.12, 2.13, 2.13, 2.14, 2.14, 2.15, 2.16, 2.16, 2.17, 2.17, 2.18, 2.18, 2.19, 2.2, 2.2, 2.21, 2.21, 2.22, 2.22, 2.23, 2.24, 2.24, 2.25, 2.25, 2.26, 2.27, 2.27, 2.28, 2.28, 2.29, 2.29, 2.3, 2.31, 2.31, 2.32, 2.32, 2.33, 2.34, 2.34, 2.35, 2.36, 2.36, 2.37, 2.37, 2.38, 2.39, 2.39, 2.4, 2.41, 2.41, 2.42, 2.42, 2.43, 2.44, 2.44, 2.45, 1.07, 1.04, 1.02, 1.0, 0.98, 0.96, 0.94, 0.92, 0.9, 0.89, 0.89, 0.89, 0.89, 0.9, 0.9, 0.9, 0.9, 0.91, 0.91, 0.91, 0.92, 0.92, 0.92, 0.92, 0.93, 0.93, 0.93, 0.94, 0.94, 0.94, 1.74, 1.75, 1.75, 1.76, 1.76, 1.77, 2.75, 2.76, 2.77, 2.78, 2.79, 2.8, 2.81, 2.82, 2.83, 2.84, 2.8, 2.77, 2.73, 2.69, 2.66, 2.62, 2.59, 2.56, 2.52, 2.49, 2.46, 2.43, 2.39, 2.36, 2.33, 2.3, 2.27, 2.24, 2.21, 2.19, 2.16, 2.13, 2.1, 2.08, 2.05, 2.02, 2.0, 1.97, 1.94, 1.92, 1.89, 1.87, 1.84, 1.3, 1.28]
32 [0.87, 0.87, 0.87, 0.88, 0.88, 0.88, 0.89, 0.89, 0.89, 0.9, 0.9, 0.9, 0.91, 0.91, 0.91, 0.92, 0.92, 0.95, 0.98, 1.01, 1.04, 1.08, 1.96, 1.97, 1.98, 1.98, 1.99, 1.99, 2.0, 2.01, 2.01, 2.02, 2.03, 2.03, 2.04, 2.04, 2.05, 2.06, 2.06, 2.07, 2.07, 2.08, 2.09, 2.09, 2.1, 2.1, 2.11, 2.11, 2.12, 2.13, 2.13, 2.14, 2.14, 2.15, 2.16, 2.16, 2.17, 2.17, 2.18, 2.18, 2.19, 2.2, 2.2, 2.21, 2.21, 2.22, 2.23, 2.23, 2.24, 2.24, 2.25, 2.25, 2.26, 2.27, 2.27, 2.28, 2.28, 2.29, 2.3, 2.3, 2.31, 2.31, 2.32, 2.33, 2.33, 2.34, 2.35, 2.35, 2.36, 2.36, 2.37, 2.38, 2.38, 2.39, 2.4, 2.4, 2.41, 2.42, 2.42, 2.43, 2.44, 1.05, 1.02, 1.0, 0.98, 0.96, 0.94, 0.92, 0.9, 0.89, 0.87, 0.87, 0.87, 0.88, 0.88, 0.88, 0.88, 0.89, 0.89, 0.89, 0.89, 0.9, 0.9, 0.9, 0.91, 0.91, 0.91, 0.92, 0.92, 0.92, 0.92, 1.72, 1.73, 1.73, 1.74, 1.75, 1.75, 2.73, 2.74, 2.75, 2.76, 2.77, 2.78, 2.79, 2.8, 2.82, 2.83, 2.79, 2.75, 2.72, 2.68, 2.64, 2.61, 2.58, 2.54, 2.51, 2.48, 2.45, 2.41, 2.38, 2.35, 2.32, 2.29, 2.26, 2.23, 2.21, 2.18, 2.15, 2.12, 2.09, 2.07, 2.04, 2.01, 1.99, 1.96, 1.94, 1.91, 1.89, 1.86, 1.84, 0.0, 0.0]
33 [0.85, 0.85, 0.86, 0.86, 0.86, 0.87, 0.87, 0.87, 0.88, 0.88, 0.88, 0.89, 0.89, 0.89, 0.9, 0.92, 0.95, 0.98, 1.01, 1.05, 1.08, 1.94, 1.94, 1.95, 1.96, 1.96, 1.97, 1.98, 1.98, 1.99, 1.99, 2.0, 2.01, 2.01, 2.02, 2.03, 2.03, 2.04, 2.04, 2.05, 2.06, 2.06, 2.07, 2.07, 2.08, 2.09, 2.09, 2.1, 2.1, 2.11, 2.12, 2.12, 2.13, 2.13, 2.14, 2.14, 2.15, 2.16, 2.16, 2.17, 2.17, 2.18, 2.19, 2.19, 2.2, 2.2, 2.21, 2.22, 2.22, 2.23, 2.23, 2.24, 2.25, 2.25, 2.26, 2.26, 2.27, 2.28, 2.28, 2.29, 2.29, 2.3, 2.31, 2.31, 2.32, 2.33, 2.33, 2.34, 2.34, 2.35, 2.36, 2.36, 2.37, 2.38, 2.38, 2.39, 2.4, 2.4, 2.41, 2.42, 1.04, 1.01, 0.99, 0.97, 0.95, 0.93, 0.91, 0.9, 0.88, 0.86, 0.85, 0.85, 0.86, 0.86, 0.86, 0.87, 0.87, 0.87, 0.87, 0.88, 0.88, 0.88, 0.88, 0.89, 0.89, 0.89, 0.9, 0.9, 0.9, 0.91, 0.91, 1.71, 1.72, 1.72, 1.73, 1.74, 1.74, 2.73, 2.74, 2.75, 2.76, 2.77, 2.78, 2.79, 2.8, 2.81, 2.8, 2.76, 2.73, 2.69, 2.66, 2.62, 2.59, 2.55, 2.52, 2.49, 2.46, 2.43, 2.39, 2.36, 2.33, 2.3, 2.27, 2.25, 2.22, 2.19, 2.16, 2.13, 2.11, 2.08, 2.05, 2.03, 2.0, 1.97, 1.95, 1.92, 1.9, 1.87, 1.85, 1.83, 1.8, 1.27]
34 [0.83, 0.84, 0.84, 0.84, 0.85, 0.85, 0.85, 0.86, 0.86, 0.86, 0.87, 0.87, 0.87, 0.9, 0.93, 0.95, 0.98, 1.02, 1.05, 1.91, 1.91, 1.92, 1.92, 1.93, 1.94, 1.94, 1.95, 1.96, 1.96, 1.97, 1.98, 1.98, 1.99, 1.99, 2.0, 2.01, 2.01, 2.02, 2.03, 2.03, 2.04, 2.04, 2.05, 2.06, 2.06, 2.07, 2.07, 2.08, 2.09, 2.09, 2.1, 2.1, 2.11, 2.12, 2.12, 2.13, 2.13, 2.14, 2.15, 2.15, 2.16, 2.16, 2.17, 2.18, 2.18, 2.19, 2.19, 2.2, 2.21, 2.21, 2.22, 2.22, 2.23, 2.24, 2.24, 2.25, 2.25, 2.26, 2.27, 2.27, 2.28, 2.29, 2.29, 2.3, 2.3, 2.31, 2.32, 2.32, 2.33, 2.34, 2.34, 2.35, 2.36, 2.36, 2.37, 2.38, 2.38, 2.39, 2.4, 2.4, 1.0, 0.98, 0.96, 0.94, 0.92, 0.9, 0.89, 0.87, 0.85, 0.84, 0.84, 0.84, 0.84, 0.84, 0.85, 0.85, 0.85, 0.85, 0.86, 0.86, 0.86, 0.87, 0.87, 0.87, 0.87, 0.88, 0.88, 0.88, 0.89, 0.89, 0.89, 1.7, 1.71, 1.71, 1.72, 1.72, 2.71, 2.72, 2.73, 2.74, 2.75, 2.76, 2.78, 2.79, 2.8, 2.81, 2.77, 2.74, 2.7, 2.67, 2.63, 2.6, 2.56, 2.53, 2.5, 2.47, 2.44, 2.4, 2.37, 2.34, 2.31, 2.29, 2.26, 2.23, 2.2, 2.17, 2.14, 2.12, 2.09, 2.06, 2.04, 2.01, 1.99, 1.96, 1.94, 1.91, 1.89, 1.86, 1.84, 1.81, 1.79, 1.26]
35 [0.82, 0.82, 0.82, 0.83, 0.83, 0.83, 0.84, 0.84, 0.84, 0.85, 0.85, 0.87, 0.89, 0.92, 0.95, 0.98, 1.01, 1.04, 1.88, 1.89, 1.89, 1.9, 1.91, 1.91, 1.92, 1.93, 1.93, 1.94, 1.94, 1.95, 1.96, 1.96, 1.97, 1.98, 1.98, 1.99, 1.99, 2.0, 2.01, 2.01, 2.02, 2.03, 2.03, 2.04, 2.04, 2.05, 2.06, 2.06, 2.07, 2.07, 2.08, 2.09, 2.09, 2.1, 2.1, 2.11, 2.12, 2.12, 2.13, 2.13, 2.14, 2.15, 2.15, 2.16, 2.16, 2.17, 2.18, 2.18, 2.19, 2.19, 2.2, 2.21, 2.21, 2.22, 2.22, 2.23, 2.24, 2.24, 2.25, 2.26, 2.26, 2.27, 2.27, 2.28, 2.29, 2.29, 2.3, 2.31, 2.31, 2.32, 2.33, 2.33, 2.34, 2.35, 2.35, 2.36, 2.37, 2.37, 2.38, 1.0, 0.98, 0.96, 0.94, 0.92, 0.9, 0.88, 0.87, 0.85, 0.83, 0.82, 0.82, 0.82, 0.82, 0.82, 0.83, 0.83, 0.83, 0.83, 0.84, 0.84, 0.84, 0.85, 0.85, 0.85, 0.85, 0.86, 0.86, 0.86, 0.87, 0.87, 0.87, 0.88, 1.69, 1.69, 1.7, 1.71, 2.7, 2.71, 2.72, 2.73, 2.74, 2.75, 2.76, 2.77, 2.78, 2.79, 2.76, 2.72, 2.69, 2.65, 2.62, 2.58, 2.55, 2.52, 2.49, 2.45, 2.42, 2.39, 2.36, 2.33, 2.3, 2.27, 2.24, 2.22, 2.19, 2.16, 2.13, 2.11, 2.08, 2.05, 2.03, 2.0, 1.98, 1.95, 1.93, 1.9, 1.88, 1.85, 1.83, 1.81, 1.78, 1.25]
36 [0.8, 0.8, 0.81, 0.81, 0.81, 0.82, 0.82, 0.82, 0.83, 0.84, 0.86, 0.89, 0.92, 0.94, 0.97, 1.0, 1.85, 1.85, 1.86, 1.87, 1.87, 1.88, 1.89, 1.89, 1.9, 1.91, 1.91, 1.92, 1.93, 1.93, 1.94, 1.95, 1.95, 1.96, 1.96, 1.97, 1.98, 1.98, 1.99, 2.0, 2.0, 2.01, 2.01, 2.02, 2.03, 2.03, 2.04, 2.04, 2.05, 2.06, 2.06, 2.07, 2.07, 2.08, 2.09, 2.09, 2.1, 2.1, 2.11, 2.12, 2.12, 2.13, 2.13, 2.14, 2.15, 2.15, 2.16, 2.16, 2.17, 2.18, 2.18, 2.19, 2.19, 2.2, 2.21, 2.21, 2.22, 2.23, 2.23, 2.24, 2.24, 2.25, 2.26, 2.26, 2.27, 2.28, 2.28, 2.29, 2.3, 2.3, 2.31, 2.32, 2.32, 2.33, 2.34, 2.34, 2.35, 2.36, 2.36, 0.97, 0.95, 0.93, 0.91, 0.9, 0.88, 0.86, 0.84, 0.83, 0.81, 0.8, 0.8, 0.8, 0.8, 0.8, 0.81, 0.81, 0.81, 0.81, 0.82, 0.82, 0.82, 0.83, 0.83, 0.83, 0.83, 0.84, 0.84, 0.84, 0.85, 0.85, 0.85, 0.86, 1.67, 1.68, 1.68, 1.69, 2.68, 2.69, 2.7, 2.72, 2.73, 2.74, 2.75, 2.76, 2.77, 2.77, 2.74, 2.7, 2.67, 2.63, 2.6, 2.57, 2.53, 2.5, 2.47, 2.44, 2.41, 2.38, 2.35, 2.32, 2.29, 2.26, 2.23, 2.2, 2.18, 2.15, 2.12, 2.09, 2.07, 2.04, 2.02, 1.99, 1.97, 1.94, 1.92, 1.89, 1.87, 1.84, 1.82, 1.8, 1.77, 1.75]
37 [0.78, 0.79, 0.79, 0.8, 0.8, 0.8, 0.81, 0.81, 0.84, 0.86, 0.89, 0.91, 0.94, 0.97, 1.82, 1.82, 1.83, 1.84, 1.84, 1.85, 1.86, 1.86, 1.87, 1.88, 1.88, 1.89, 1.9, 1.9, 1.91, 1.92, 1.92, 1.93, 1.94, 1.94, 1.95, 1.95, 1.96, 1.97, 1.97, 1.98, 1.99, 1.99, 2.0, 2.0, 2.01, 2.02, 2.02, 2.03, 2.03, 2.04, 2.05, 2.05, 2.06, 2.06, 2.07, 2.08, 2.08, 2.09, 2.1, 2.1, 2.11, 2.11, 2.12, 2.13, 2.13, 2.14, 2.14, 2.15, 2.16, 2.16, 2.17, 2.17, 2.18, 2.19, 2.19, 2.2, 2.21, 2.21, 2.22, 2.22, 2.23, 2.24, 2.24, 2.25, 2.26, 2.26, 2.27, 2.28, 2.28, 2.29, 2.3, 2.3, 2.31, 2.32, 2.32, 2.33, 2.34, 2.34, 0.97, 0.95, 0.93, 0.91, 0.89, 0.87, 0.85, 0.84, 0.82, 0.81, 0.79, 0.78, 0.78, 0.78, 0.79, 0.79, 0.79, 0.79, 0.8, 0.8, 0.8, 0.8, 0.81, 0.81, 0.81, 0.82, 0.82, 0.82, 0.82, 0.83, 0.83, 0.83, 0.84, 0.84, 1.66, 1.66, 1.67, 1.68, 2.68, 2.69, 2.7, 2.71, 2.72, 2.73, 2.74, 2.75, 2.77, 2.75, 2.72, 2.68, 2.65, 2.61, 2.58, 2.55, 2.51, 2.48, 2.45, 2.42, 2.39, 2.36, 2.33, 2.3, 2.27, 2.24, 2.22, 2.19, 2.16, 2.13, 2.11, 2.08, 2.06, 2.03, 2.0, 1.98, 1.95, 1.93, 1.91, 1.88, 1.86, 1.83, 1.81, 1.79, 1.76, 1.74]
38 [0.77, 0.78, 0.78, 0.78, 0.79, 0.79, 0.81, 0.83, 0.85, 0.88, 0.91, 0.93, 0.96, 1.8, 1.81, 1.81, 1.82, 1.83, 1.83, 1.84, 1.85, 1.85, 1.86, 1.87, 1.87, 1.88, 1.89, 1.89, 1.9, 1.9, 1.91, 1.92, 1.92, 1.93, 1.94, 1.94, 1.95, 1.96, 1.96, 1.97, 1.97, 1.98, 1.99, 1.99, 2.0, 2.0, 2.01, 2.02, 2.02, 2.03, 2.04, 2.04, 2.05, 2.05, 2.06, 2.07, 2.07, 2.08, 2.08, 2.09, 2.1, 2.1, 2.11, 2.11, 2.12, 2.13, 2.13, 2.14, 2.15, 2.15, 2.16, 2.16, 2.17, 2.18, 2.18, 2.19, 2.2, 2.2, 2.21, 2.22, 2.22, 2.23, 2.23, 2.24, 2.25, 2.25, 2.26, 2.27, 2.27, 2.28, 2.29, 2.29, 2.3, 2.31, 2.32, 2.32, 2.33, 2.34, 0.95, 0.93, 0.91, 0.89, 0.87, 0.85, 0.84, 0.82, 0.81, 0.79, 0.78, 0.77, 0.77, 0.77, 0.78, 0.78, 0.78, 0.78, 0.79, 0.79, 0.79, 0.79, 0.8, 0.8, 0.8, 0.81, 0.81, 0.81, 0.81, 0.82, 0.82, 0.82, 0.83, 0.83, 1.65, 1.66, 1.66, 1.67, 2.67, 2.68, 2.69, 2.71, 2.72, 2.73, 2.74, 2.75, 2.76, 2.73, 2.7, 2.66, 2.63, 2.6, 2.56, 2.53, 2.5, 2.47, 2.44, 2.41, 2.38, 2.35, 2.32, 2.29, 2.26, 2.23, 2.21, 2.18, 2.15, 2.12, 2.1, 2.07, 2.05, 2.02, 2.0, 1.97, 1.95, 1.92, 1.9, 1.87, 1.85, 1.83, 1.8, 1.78, 1.76, 1.73]
39 [0.77, 0.77, 0.77, 0.78, 0.78, 0.79, 0.81, 0.84, 0.86, 0.89, 0.91, 0.94, 0.97, 1.79, 1.8, 1.8, 1.81, 1.82, 1.82, 1.83, 1.84, 1.84, 1.85, 1.86, 1.86, 1.87, 1.88, 1.88, 1.89, 1.9, 1.9, 1.91, 1.91, 1.92, 1.93, 1.93, 1.94, 1.95, 1.95, 1.96, 1.96, 1.97, 1.98, 1.98, 1.99, 2.0, 2.0, 2.01, 2.01, 2.02, 2.03, 2.03, 2.04, 2.04, 2.05, 2.06, 2.06, 2.07, 2.07, 2.08, 2.09, 2.09, 2.1, 2.11, 2.11, 2.12, 2.12, 2.13, 2.14, 2.14, 2.15, 2.15, 2.16, 2.17, 2.17, 2.18, 2.19, 2.19, 2.2, 2.21, 2.21, 2.22, 2.22, 2.23, 2.24, 2.24, 2.25, 2.26, 2.26, 2.27, 2.28, 2.28, 2.29, 2.3, 2.3, 2.31, 2.32, 2.33, 0.94, 0.92, 0.9, 0.88, 0.86, 0.85, 0.83, 0.81, 0.8, 0.78, 0.77, 0.76, 0.76, 0.76, 0.76, 0.77, 0.77, 0.77, 0.77, 0.78, 0.78, 0.78, 0.78, 0.79, 0.79, 0.79, 0.8, 0.8, 0.8, 0.8, 0.81, 0.81, 0.81, 0.82, 0.82, 1.64, 1.65, 1.66, 2.66, 2.67, 2.68, 2.69, 2.7, 2.72, 2.73, 2.74, 2.75, 2.73, 2.7, 2.66, 2.63, 2.59, 2.56, 2.53, 2.5, 2.47, 2.43, 2.4, 2.37, 2.34, 2.32, 2.29, 2.26, 2.23, 2.2, 2.18, 2.15, 2.12, 2.09, 2.07, 2.04, 2.02, 1.99, 1.97, 1.94, 1.92, 1.89, 1.87, 1.85, 1.82, 1.8, 1.78, 1.75, 1.73]
40 [0.76, 0.76, 0.76, 0.77, 0.77, 0.79, 0.82, 0.84, 0.86, 0.89, 0.91, 0.94, 1.77, 1.78, 1.79, 1.8, 1.8, 1.81, 1.82, 1.82, 1.83, 1.83, 1.84, 1.85, 1.85, 1.86, 1.87, 1.87, 1.88, 1.89, 1.89, 1.9, 1.9, 1.91, 1.92, 1.92, 1.93, 1.94, 1.94, 1.95, 1.95, 1.96, 1.97, 1.97, 1.98, 1.98, 1.99, 2.0, 2.0, 2.01, 2.01, 2.02, 2.03, 2.03, 2.04, 2.04, 2.05, 2.06, 2.06, 2.07, 2.07, 2.08, 2.09, 2.09, 2.1, 2.11, 2.11, 2.12, 2.12, 2.13, 2.14, 2.14, 2.15, 2.15, 2.16, 2.17, 2.17, 2.18, 2.19, 2.19, 2.2, 2.2, 2.21, 2.22, 2.22, 2.23, 2.24, 2.24, 2.25, 2.26, 2.26, 2.27, 2.28, 2.28, 2.29, 2.3, 2.3, 2.31, 2.32, 0.91, 0.89, 0.88, 0.86, 0.84, 0.82, 0.81, 0.79, 0.78, 0.76, 0.75, 0.74, 0.75, 0.75, 0.75, 0.75, 0.76, 0.76, 0.76, 0.76, 0.77, 0.77, 0.77, 0.78, 0.78, 0.78, 0.78, 0.79, 0.79, 0.79, 0.8, 0.8, 0.8, 0.8, 0.81, 1.63, 1.64, 1.65, 2.65, 2.66, 2.67, 2.68, 2.69, 2.71, 2.72, 2.73, 2.73, 2.7, 2.66, 2.63, 2.59, 2.56, 2.53, 2.5, 2.47, 2.43, 2.4, 2.37, 2.34, 2.32, 2.29, 2.26, 2.23, 2.2, 2.17, 2.15, 2.12, 2.09, 2.07, 2.04, 2.02, 1.99, 1.97, 1.94, 1.92, 1.89, 1.87, 1.85, 1.82, 1.8, 1.78, 1.75, 1.73]
41 [0.75, 0.75, 0.75, 0.76, 0.78, 0.81, 0.83, 0.85, 0.88, 0.9, 0.93, 1.76, 1.76, 1.77, 1.78, 1.78, 1.79, 1.8, 1.8, 1.81, 1.82, 1.82, 1.83, 1.84, 1.84, 1.85, 1.85, 1.86, 1.87, 1.87, 1.88, 1.89, 1.89, 1.9, 1.9, 1.91, 1.92, 1.92, 1.93, 1.94, 1.94, 1.95, 1.95, 1.96, 1.97, 1.97, 1.98, 1.98, 1.99, 2.0, 2.0, 2.01, 2.01, 2.02, 2.03, 2.03, 2.04, 2.04, 2.05, 2.06, 2.06, 2.07, 2.07, 2.08, 2.09, 2.09, 2.1, 2.1, 2.11, 2.12, 2.12, 2.13, 2.13, 2.14, 2.15, 2.15, 2.16, 2.17, 2.17, 2.18, 2.18, 2.19, 2.2, 2.2, 2.21, 2.22, 2.22, 2.23, 2.24, 2.24, 2.25, 2.26, 2.26, 2.27, 2.28, 2.28, 2.29, 2.3, 0.92, 0.9, 0.88, 0.86, 0.84, 0.83, 0.81, 0.8, 0.78, 0.77, 0.75, 0.74, 0.73, 0.73, 0.73, 0.74, 0.74, 0.74, 0.74, 0.75, 0.75, 0.75, 0.75, 0.76, 0.76, 0.76, 0.77, 0.77, 0.77, 0.77, 0.78, 0.78, 0.78, 0.79, 0.79, 0.79, 1.62, 1.62, 1.63, 2.64, 2.65, 2.66, 2.67, 2.68, 2.69, 2.7, 2.72, 2.72, 2.69, 2.65, 2.62, 2.59, 2.55, 2.52, 2.49, 2.46, 2.43, 2.4, 2.37, 2.34, 2.31, 2.28, 2.25, 2.22, 2.2, 2.17, 2.14, 2.11, 2.09, 2.06, 2.04, 2.01, 1.99, 1.96, 1.94, 1.91, 1.89, 1.86, 1.84, 1.82, 1.79, 1.77, 1.75, 1.73]
42 [0.75, 0.75, 0.75, 0.76, 0.78, 0.81, 0.83, 0.85, 0.88, 0.9, 0.93, 1.76, 1.76, 1.77, 1.78, 1.78, 1.79, 1.8, 1.8, 1.81, 1.82, 1.82, 1.83, 1.84, 1.84, 1.85, 1.85, 1.86, 1.87, 1.87, 1.88, 1.89, 1.89, 1.9, 1.9, 1.91, 1.92, 1.92, 1.93, 1.94, 1.94, 1.95, 1.95, 1.96, 1.97, 1.97, 1.98, 1.98, 1.99, 2.0, 2.0, 2.01, 2.01, 2.02, 2.03, 2.03, 2.04, 2.04, 2.05, 2.06, 2.06, 2.07, 2.07, 2.08, 2.09, 2.09, 2.1, 2.1, 2.11, 2.12, 2.12, 2.13, 2.13, 2.14, 2.15, 2.15, 2.16, 2.17, 2.17, 2.18, 2.18, 2.19, 2.2, 2.2, 2.21, 2.22, 2.22, 2.23, 2.24, 2.24, 2.25, 2.26, 2.26, 2.27, 2.28, 2.28, 2.29, 2.3, 0.92, 0.9, 0.88, 0.86, 0.84, 0.83, 0.81, 0.8, 0.78, 0.77, 0.75, 0.74, 0.73, 0.73, 0.73, 0.74, 0.74, 0.74, 0.74, 0.75, 0.75, 0.75, 0.75, 0.76, 0.76, 0.76, 0.77, 0.77, 0.77, 0.77, 0.78, 0.78, 0.78, 0.79, 0.79, 0.79, 1.62, 1.62, 1.63, 2.64, 2.65, 2.66, 2.67, 2.68, 2.69, 2.7, 2.72, 2.72, 2.69, 2.65, 2.62, 2.59, 2.55, 2.52, 2.49, 2.46, 2.43, 2.4, 2.37, 2.34, 2.31, 2.28, 2.25, 2.22, 2.2, 2.17, 2.14, 2.11, 2.09, 2.06, 2.04, 2.01, 1.99, 1.96, 1.94, 1.91, 1.89, 1.86, 1.84, 1.82, 1.79, 1.77, 1.75, 1.73]
43 [0.76, 0.78, 0.8, 0.82, 0.84, 0.87, 0.89, 1.69, 1.7, 1.7, 1.71, 1.72, 1.73, 1.73, 1.74, 1.75, 1.75, 1.76, 1.77, 1.77, 1.78, 1.79, 1.8, 1.8, 1.81, 1.82, 1.82, 1.83, 1.84, 1.84, 1.85, 1.85, 1.86, 1.87, 1.87, 1.88, 1.89, 1.89, 1.9, 1.91, 1.91, 1.92, 1.93, 1.93, 1.94, 1.94, 1.95, 1.96, 1.96, 1.97, 1.98, 1.98, 1.99, 2.0, 2.0, 2.01, 2.01, 2.02, 2.03, 2.03, 2.04, 2.05, 2.05, 2.06, 2.06, 2.07, 2.08, 2.08, 2.09, 2.1, 2.1, 2.11, 2.12, 2.12, 2.13, 2.14, 2.14, 2.15, 2.16, 2.16, 2.17, 2.18, 2.18, 2.19, 2.2, 2.2, 2.21, 2.22, 2.23, 2.23, 2.24, 2.25, 2.25, 2.26, 2.27, 2.28, 0.88, 0.86, 0.84, 0.82, 0.81, 0.79, 0.78, 0.76, 0.75, 0.74, 0.72, 0.71, 0.7, 0.71, 0.71, 0.71, 0.71, 0.72, 0.72, 0.72, 0.72, 0.73, 0.73, 0.73, 0.74, 0.74, 0.74, 0.74, 0.75, 0.75, 0.75, 0.76, 0.76, 0.76, 0.76, 0.77, 0.77, 1.61, 1.62, 2.64, 2.65, 2.66, 2.67, 2.68, 2.7, 2.71, 2.72, 2.72, 2.68, 2.65, 2.62, 2.58, 2.55, 2.52, 2.49, 2.46, 2.43, 2.4, 2.37, 2.34, 2.31, 2.28, 2.26, 2.23, 2.2, 2.18, 2.15, 2.12, 2.1, 2.07, 2.05, 2.02, 2.0, 1.97, 1.95, 1.92, 1.9, 1.88, 1.85, 1.83, 1.81, 1.79, 1.76, 1.74, 1.72, 1.7]
44 [1.58, 1.59, 1.59, 1.6, 1.61, 1.62, 1.63, 1.63, 1.64, 1.65, 1.66, 1.67, 1.67, 1.68, 1.69, 1.7, 1.7, 1.71, 1.72, 1.73, 1.74, 1.74, 1.75, 1.76, 1.77, 1.77, 1.78, 1.79, 1.79, 1.8, 1.81, 1.82, 1.82, 1.83, 1.84, 1.85, 1.85, 1.86, 1.87, 1.88, 1.88, 1.89, 1.9, 1.9, 1.91, 1.92, 1.93, 1.93, 1.94, 1.95, 1.95, 1.96, 1.97, 1.98, 1.98, 1.99, 2.0, 2.01, 2.01, 2.02, 2.03, 2.03, 2.04, 2.05, 2.06, 2.06, 2.07, 2.08, 2.09, 2.09, 2.1, 2.11, 2.12, 2.12, 2.13, 2.14, 2.15, 2.16, 2.16, 2.17, 2.18, 2.19, 2.2, 2.2, 2.21, 2.22, 2.23, 2.24, 2.24, 0.85, 0.83, 0.82, 0.8, 0.79, 0.77, 0.76, 0.74, 0.73, 0.72, 0.7, 0.69, 0.68, 0.68, 0.68, 0.69, 0.69, 0.69, 0.7, 0.7, 0.7, 0.7, 0.71, 0.71, 0.71, 0.72, 0.72, 0.72, 0.73, 0.73, 0.73, 0.74, 0.74, 0.74, 0.75, 0.75, 0.75, 0.76, 1.62, 1.62, 2.67, 2.68, 2.69, 2.71, 2.72, 2.74, 2.75, 2.76, 2.75, 2.72, 2.69, 2.66, 2.63, 2.59, 2.56, 2.53, 2.5, 2.48, 2.45, 2.42, 2.39, 2.36, 2.34, 2.31, 2.28, 2.26, 2.23, 2.21, 2.18, 2.16, 2.13, 2.11, 2.08, 2.06, 2.04, 2.01, 1.99, 1.97, 1.94, 1.92, 1.9, 1.88, 1.86, 1.83, 1.81, 1.79, 1.77, 1.75, 1.22, 1.2, 1.19, 1.17, 1.16]
45 [1.51, 1.52, 1.53, 1.54, 1.54, 1.55, 1.56, 1.57, 1.58, 1.59, 1.6, 1.61, 1.62, 1.63, 1.64, 1.64, 1.65, 1.66, 1.67, 1.68, 1.69, 1.7, 1.71, 1.71, 1.72, 1.73, 1.74, 1.75, 1.76, 1.77, 1.78, 1.78, 1.79, 1.8, 1.81, 1.82, 1.83, 1.84, 1.84, 1.85, 1.86, 1.87, 1.88, 1.89, 1.9, 1.91, 1.91, 1.92, 1.93, 1.94, 1.95, 1.96, 1.97, 1.98, 1.99, 1.99, 2.0, 2.01, 2.02, 2.03, 2.04, 2.05, 2.06, 2.07, 2.08, 2.09, 2.1, 2.11, 2.11, 2.12, 2.13, 2.14, 2.15, 2.16, 2.17, 2.18, 2.19, 0.82, 0.8, 0.79, 0.77, 0.76, 0.74, 0.73, 0.72, 0.71, 0.69, 0.68, 0.67, 0.66, 0.65, 0.66, 0.66, 0.66, 0.67, 0.67, 0.67, 0.68, 0.68, 0.68, 0.69, 0.69, 0.69, 0.7, 0.7, 0.7, 0.71, 0.71, 0.72, 0.72, 0.72, 0.73, 0.73, 0.74, 0.74, 0.74, 0.75, 1.64, 2.71, 2.73, 2.74, 2.76, 2.78, 2.79, 2.81, 2.83, 2.83, 2.8, 2.77, 2.74, 2.71, 2.68, 2.65, 2.62, 2.6, 2.57, 2.54, 2.51, 2.49, 2.46, 2.44, 2.41, 2.39, 2.36, 2.34, 2.31, 2.29, 2.27, 2.24, 2.22, 2.2, 2.17, 2.15, 2.13, 2.11, 2.09, 2.06, 2.04, 2.02, 2.0, 1.98, 1.96, 1.94, 1.92, 1.9, 1.88, 1.86, 1.29, 1.28, 1.27, 1.25, 1.24, 1.23, 1.21, 1.2, 1.19, 1.17, 1.16, 1.15, 1.14, 1.12, 1.15]
46 [1.45, 1.46, 1.47, 1.48, 1.49, 1.5, 1.51, 1.52, 1.53, 1.54, 1.55, 1.57, 1.58, 1.59, 1.6, 1.61, 1.62, 1.63, 1.64, 1.65, 1.66, 1.67, 1.68, 1.69, 1.7, 1.71, 1.73, 1.74, 1.75, 1.76, 1.77, 1.78, 1.79, 1.8, 1.81, 1.82, 1.83, 1.84, 1.85, 1.87, 1.88, 1.89, 1.9, 1.91, 1.92, 1.93, 1.94, 1.95, 1.97, 1.98, 1.99, 2.0, 2.01, 2.02, 2.04, 2.05, 2.06, 2.07, 2.08, 2.1, 0.77, 0.75, 0.74, 0.72, 0.71, 0.7, 0.69, 0.67, 0.66, 0.65, 0.64, 0.63, 0.62, 0.62, 0.62, 0.63, 0.63, 0.63, 0.64, 0.64, 0.65, 0.65, 0.65, 0.66, 0.66, 0.67, 0.67, 0.67, 0.68, 0.68, 0.69, 0.69, 0.7, 0.7, 0.71, 0.71, 0.72, 0.72, 0.73, 0.73, 0.74, 1.64, 2.74, 2.76, 2.78, 2.8, 2.82, 2.84, 2.86, 2.88, 2.9, 2.88, 2.85, 2.83, 2.8, 2.77, 2.75, 2.72, 2.7, 2.67, 2.65, 2.62, 2.6, 2.57, 2.55, 2.53, 2.5, 2.48, 2.46, 2.44, 2.42, 2.39, 2.37, 2.35, 2.33, 2.31, 2.29, 2.27, 2.25, 2.23, 2.21, 2.19, 2.17, 2.15, 2.13, 2.12, 2.1, 2.08, 2.06, 2.04, 2.03, 2.01, 1.39, 1.38, 1.37, 1.35, 1.34, 1.33, 1.32, 1.31, 1.3, 1.28, 1.27, 1.26, 1.25, 1.24, 1.25, 1.28, 1.32, 1.35, 1.69, 1.68, 1.66, 1.64, 1.63, 1.61, 1.6, 1.58, 1.57, 1.55, 1.54, 1.52]
47 [1.42, 1.43, 1.44, 1.46, 1.47, 1.48, 1.5, 1.51, 1.52, 1.53, 1.55, 1.56, 1.57, 1.58, 1.6, 1.61, 1.62, 1.64, 1.65, 1.66, 1.67, 1.69, 1.7, 1.71, 1.73, 1.74, 1.75, 1.77, 1.78, 1.79, 1.81, 1.82, 1.84, 1.85, 1.86, 1.88, 1.89, 1.9, 1.92, 0.7, 0.69, 0.68, 0.66, 0.65, 0.64, 0.63, 0.62, 0.61, 0.6, 0.59, 0.58, 0.57, 0.57, 0.57, 0.58, 0.58, 0.58, 0.59, 0.59, 0.6, 0.6, 0.61, 0.61, 0.62, 0.62, 0.63, 0.63, 0.64, 0.64, 0.65, 0.65, 0.66, 0.66, 0.67, 0.67, 0.68, 0.68, 0.69, 0.69, 0.7, 0.7, 1.6, 1.61, 1.62, 2.73, 2.75, 2.78, 2.8, 2.82, 2.85, 2.87, 2.9, 2.91, 2.89, 2.87, 2.84, 2.82, 2.8, 2.77, 2.75, 2.73, 2.71, 2.69, 2.67, 2.65, 2.62, 2.6, 2.58, 2.57, 2.55, 2.53, 2.51, 2.49, 2.47, 2.45, 2.43, 2.42, 2.4, 2.38, 2.36, 2.35, 2.33, 2.31, 2.3, 2.28, 2.26, 2.25, 2.23, 2.22, 2.2, 2.18, 2.17, 2.15, 2.14, 1.48, 1.47, 1.46, 1.45, 1.44, 1.43, 1.42, 1.41, 1.4, 1.39, 1.38, 1.37, 1.36, 1.35, 1.34, 1.38, 1.42, 1.46, 1.87, 1.85, 1.84, 1.83, 1.81, 1.8, 1.79, 1.77, 1.76, 1.75, 1.73, 1.72, 1.71, 1.69, 1.68, 1.67, 1.66, 1.64, 1.63, 1.62, 1.6, 1.59, 1.58, 1.56, 1.55, 1.54, 1.53, 1.51, 1.5, 1.49]
48 [1.42, 1.44, 1.45, 1.47, 1.48, 1.5, 1.51, 1.53, 1.54, 1.56, 1.57, 1.59, 1.6, 1.62, 1.63, 1.65, 1.66, 1.68, 1.69, 1.71, 1.72, 0.62, 0.61, 0.6, 0.59, 0.58, 0.57, 0.56, 0.55, 0.54, 0.53, 0.52, 0.52, 0.51, 0.51, 0.52, 0.52, 0.53, 0.53, 0.54, 0.54, 0.54, 0.55, 0.55, 0.56, 0.56, 0.57, 0.57, 0.58, 0.58, 0.59, 0.6, 0.6, 0.61, 0.61, 0.62, 0.62, 0.63, 0.63, 0.64, 0.65, 0.65, 0.66, 0.66, 1.53, 1.54, 1.56, 1.57, 2.65, 2.68, 2.7, 2.73, 2.76, 2.78, 2.81, 2.84, 2.87, 2.85, 2.83, 2.81, 2.79, 2.77, 2.75, 2.73, 2.71, 2.7, 2.68, 2.66, 2.64, 2.63, 2.61, 2.59, 2.57, 2.56, 2.54, 2.53, 2.51, 2.49, 2.48, 2.46, 2.45, 2.43, 2.42, 2.4, 2.39, 2.37, 2.36, 2.35, 2.33, 2.32, 2.31, 2.29, 2.28, 2.26, 2.25, 2.24, 2.23, 2.21, 2.2, 1.51, 1.5, 1.5, 1.49, 1.48, 1.47, 1.46, 1.45, 1.45, 1.44, 1.43, 1.42, 1.41, 1.4, 1.4, 1.45, 1.49, 1.53, 1.97, 1.96, 1.95, 1.94, 1.92, 1.91, 1.9, 1.89, 1.88, 1.87, 1.86, 1.85, 1.84, 1.82, 1.81, 1.8, 1.79, 1.78, 1.77, 1.76, 1.75, 1.74, 1.73, 1.72, 1.71, 1.69, 1.68, 1.67, 1.66, 1.65, 1.64, 1.63, 1.62, 1.61, 1.6, 1.59, 1.57, 1.56, 1.55, 1.54, 1.53, 1.52, 1.51, 1.5, 1.49]
49 [1.45, 1.47, 1.48, 1.5, 1.52, 1.53, 0.55, 0.54, 0.53, 0.52, 0.51, 0.5, 0.49, 0.48, 0.47, 0.47, 0.46, 0.45, 0.46, 0.46, 0.47, 0.47, 0.48, 0.48, 0.49, 0.49, 0.5, 0.5, 0.51, 0.51, 0.52, 0.52, 0.53, 0.53, 0.54, 0.54, 0.55, 0.55, 0.56, 0.57, 0.57, 0.58, 0.58, 0.59, 0.6, 0.6, 0.61, 0.61, 0.62, 1.44, 1.45, 1.47, 1.48, 1.5, 2.54, 2.56, 2.59, 2.62, 2.65, 2.68, 2.71, 2.74, 2.77, 2.79, 2.77, 2.75, 2.74, 2.72, 2.7, 2.69, 2.67, 2.66, 2.64, 2.62, 2.61, 2.6, 2.58, 2.57, 2.55, 2.54, 2.52, 2.51, 2.5, 2.48, 2.47, 2.46, 2.45, 2.43, 2.42, 2.41, 2.4, 2.38, 2.37, 2.36, 2.35, 2.34, 2.32, 2.31, 2.3, 2.29, 2.28, 2.27, 2.26, 2.25, 2.24, 2.23, 1.53, 1.52, 1.51, 1.5, 1.5, 1.49, 1.48, 1.48, 1.47, 1.46, 1.46, 1.45, 1.44, 1.44, 1.43, 1.47, 1.52, 1.57, 2.03, 2.02, 2.01, 2.01, 2.0, 1.99, 1.98, 1.97, 1.96, 1.95, 1.94, 1.93, 1.92, 1.91, 1.9, 1.89, 1.89, 1.88, 1.87, 1.86, 1.85, 1.84, 1.83, 1.82, 1.81, 1.8, 1.79, 1.79, 1.78, 1.77, 1.76, 1.75, 1.74, 1.73, 1.72, 1.71, 1.7, 1.69, 1.69, 1.68, 1.67, 1.66, 1.65, 1.64, 1.63, 1.62, 1.61, 1.6, 1.59, 1.58, 1.57, 1.57, 1.56, 1.55, 1.54, 1.53, 1.52, 1.51]
