0 [0.0, 0.0, 0.0, 0.0, 0.0, 0.0, 0.0, 0.0]
1 [0.0, 0.0, 0.0, 0.0, 0.0, 0.0, 0.0, 0.0]
2 [0.0, 0.0, 0.0, 0.0, 0.0, 0.0, 0.0, 0.0]
3 [0.0, 0.0, 0.0, 0.0, 0.0, 0.0, 0.0, 0.0]
4 [0.0, 0.0, 0.0, 0.0, 0.0, 0.0, 0.0, 0.0]
5 [0.0, 0.0, 0.0, 0.0, 0.0, 0.0, 0.0, 0.0]
6 [0.0, 0.0, 0.0, 0.0, 0.0, 0.0, 0.0, 0.0]
7 [0.0, 0.0, 0.0, 0.0, 0.0, 0.0, 0.0, 0.0]
8 [0.0, 0.0, 0.0, 0.0, 0.0, 0.0, 0.0, 0.0]
9 [0.0, 0.0, 0.0, 0.0, 0.0, 0.0, 0.0, 0.0]
10 [0.00928573, 0.057714276, 0.0062857093, 0.0062857093, 0.0052857106, 0.0042857113, 0.0032857123, 0.0022857133]
11 [0.00928573, 0.057714276, 0.0062857093, 0.0062857093, 0.0052857106, 0.0042857113, 0.0032857123, 0.0022857133]
12 [0.017989013, 0.930011, 0.048010983, 0.007989024, 0.004989003, 0.0019890056, 0.0030109896, 0.0070109856]
13 [0.12023626, 0.08723627, 0.08823627, 0.05068682, 0.9687637, 0.0047747246, 0.010774719, 0.018774735]
14 [0.08177473, 0.9237747, 0.04977473, 0.012225283, 0.007225264, 0.0047747246, 0.010774719, 0.018774735]
15 [0.1754652, 0.09020146, 1.0065348, 0.060201466, 0.98253477, 0.0058681266, 0.0141318785, 0.026131866]
16 [0.13887912, 0.10789866, 1.0393431, 0.06589865, 0.05689866, 0.9863431, 0.013879124, 0.029879121]
17 [0.13887912, 0.95512086, 0.06712087, 0.038120873, 0.029120883, 0.014120873, 0.013879124, 0.029879121]
18 [1.0897143, 0.15363736, 0.13328572, 0.103285715, 0.07928571, 0.9833626, 0.014175821, 0.033175826]
19 [0.14025627, 0.19538553, 1.0612291, 0.06483932, 0.040824175, 0.021824168, 0.014175821, 0.033175826]
20 [0.13333507, 0.18802977, 1.0593446, 0.07848246, 0.04346703, 0.025467025, 0.015532972, 0.036532965]
21 [0.13082054, 0.18909311, 0.11958822, 0.08881417, 0.041796707, 0.028796693, 0.0162033, 0.038203303]
22 [0.07743592, 0.106546484, 0.8490103, 0.09811984, 0.037849184, 0.032744907, 0.015900679, 0.0389011]
23 [0.08658458, 0.10931934, 0.10351927, 0.098847374, 0.03864282, 0.032831356, 0.015900781, 0.0389011]
24 [0.026797023, 1.0039113, 0.90724295, 0.11904104, 0.07359915, 0.03585676, 0.9632769, 0.040923078]
25 [0.02835853, 0.111837216, 0.8114377, 0.86402905, 0.07707538, 0.036076933, 0.015923077, 0.040923078]
26 [0.030839378, 0.10820592, 0.10449999, 0.123360276, 0.09504313, 0.03044853, 0.016554808, 0.042445052]
27 [0.88174754, 0.09986902, 0.83007497, 0.8692298, 0.11038622, 0.060417496, 0.020576792, 0.9665]
28 [0.0323651, 0.10060246, 0.10942089, 0.12557691, 0.11257693, 0.060576934, 0.020576926, 0.043423075]
29 [0.93129814, 0.029585185, 0.105066195, 0.1195304, 0.12484533, 1.0120226, 0.028153844, 0.9833303]
30 [0.9656685, 0.026664834, 0.10433517, 0.98066485, 0.12666483, 0.08466483, 0.037335165, 1.1336685]
31 [0.031502273, 0.026571881, 0.104334265, 0.10566483, 0.12666483, 0.08466483, 0.037335165, 0.20033516]
32 [0.96144456, 0.021777637, 0.10116417, 0.9801648, 0.12283517, 0.09883516, 0.044164833, 0.040164836]
33 [0.03316483, 0.021835165, 0.10116483, 0.8551648, 0.87283516, 0.09883516, 0.044164833, 0.040164836]
34 [0.031373624, 0.018626377, 0.046626374, 0.10437363, 0.11862638, 0.11462638, 0.049626373, 0.041373625]
35 [1.0366099, 0.94253296, 0.037961546, 0.85703844, 0.85303843, 1.040533, 0.98553294, 0.7949615]
36 [0.108038455, 0.013961544, 0.037961546, 0.10703846, 0.10303846, 0.11196154, 0.05696153, 0.7949615]
37 [0.12650183, 1.0024981, 0.041164845, 0.11650183, 0.09883516, 0.1308315, 0.091831505, 0.074501835]
38 [0.17752749, 0.9494725, 0.040901087, 0.9650989, 1.0266703, 0.18332967, 0.16132966, 0.13252747]
39 [0.106098905, 0.020901108, 0.040901087, 0.0900989, 0.0980989, 0.11192722, 0.098372035, 0.103638075]
40 [0.10257693, 0.023423085, 0.04042307, 0.058423076, 0.9715769, 0.108444415, 0.112716466, 0.10247369]
41 [0.10046154, 0.02453847, 0.040538456, 0.056538463, 0.09546154, 0.0995534, 0.110865526, 0.09184237]
42 [0.90296155, 0.88096154, 0.8350385, 0.051038466, 0.97596157, 0.09897277, 0.5197895, 1.6139451]
43 [0.10296153, 0.08096154, 0.035038456, 0.051038466, 0.100961536, 0.09897002, 0.100392304, 1.0118841]
44 [0.89812636, 0.8811264, 0.8388736, 0.053873632, 0.8971264, 0.09513253, 0.5119049, 0.5489365]
45 [0.5980989, 0.5820989, 0.5379011, 0.05190111, 0.9314322, 0.8471404, 0.9485992, 1.0237622]
46 [0.0980989, 0.082098894, 0.037901096, 0.05190111, 0.0980989, 0.09707654, 0.08789982, 0.01884827]
47 [0.098049454, 0.08004945, 0.03795055, 0.05195056, 0.84804946, 0.84687704, 0.0889889, 0.02321862]
48 [0.09735715, 0.077357136, 0.038642857, 0.052642867, 0.09735715, 0.09634215, 0.091512136, 0.031283073]
49 [0.65247864, 0.5816325, 0.039076924, 0.05307691, 0.84692305, 0.8457914, 0.09285617, 0.62274414]
