1 85 51.5 51.5
2 136 103.5 155.0
3 48 46.5 201.5
4 116 100.0 301.5
5 143 138.5 440.0
6 61 50.5 490.5
7 19 19.0 509.5
8 132 121.5 631.0
9 72 72.0 703.0
10 180 130.5 833.5
11 33 29.0 862.5
12 38 38.0 900.5
13 70 52.0 952.5
14 83 68.0 1020.5
15 1 0.5 1021.0
16 97 68.0 1089.0
17 196 152.5 1241.5
18 274 191.0 1432.5
19 66 66.0 1498.5
20 114 99.5 1598.0
21 63 48.0 1646.0
22 37 37.0 1683.0
23 65 54.0 1737.0
24 89 46.0 1783.0
25 71 43.0 1826.0
26 116 103.5 1929.5
27 42 35.5 1965.0
28 45 42.5 2007.5
29 32 32.0 2039.5
30 108 91.0 2130.5
31 1 1.0 2131.5
32 52 43.0 2174.5
33 39 37.0 2211.5
34 76 45.0 2256.5
35 26 25.0 2281.5
36 47 45.0 2326.5
37 81 79.0 2405.5
38 70 67.0 2472.5
39 99 81.5 2554.0
40 125 106.5 2660.5
41 148 124.5 2785.0
42 108 86.5 2871.5
43 91 82.0 2953.5
44 22 22.0 2975.5
45 85 73.0 3048.5
46 98 70.5 3119.0
47 121 83.5 3202.5
48 97 55.0 3257.5
49 43 43.0 3300.5
50 122 84.5 3385.0
51 44 43.0 3428.0
52 66 62.5 3490.5
53 109 80.5 3571.0
54 97 55.0 3626.0
55 140 120.5 3746.5
56 90 68.5 3815.0
57 53 46.0 3861.0
58 52 50.0 3911.0
59 52 29.0 3940.0
60 46 46.0 3986.0
61 315 244.0 4230.0
62 110 90.0 4320.0
63 133 75.0 4395.0
64 81 81.0 4476.0
65 31 29.0 4505.0
66 184 126.5 4631.5
67 68 54.0 4685.5
68 118 80.5 4766.0
69 23 23.0 4789.0
70 36 34.0 4823.0
71 106 71.0 4894.0
72 60 54.0 4948.0
73 244 162.0 5110.0
74 123 76.5 5186.5
75 179 148.5 5335.0
76 26 26.0 5361.0
77 84 72.0 5433.0
78 141 72.5 5505.5
79 211 166.0 5671.5
80 119 101.0 5772.5
81 50 48.0 5820.5
82 89 77.0 5897.5
83 210 136.5 6034.0
84 49 37.5 6071.5
85 54 48.0 6119.5
86 57 50.5 6170.0
87 67 65.5 6235.5
88 61 61.0 6296.5
89 191 120.5 6417.0
90 1 1.0 6418.0
91 77 66.5 6484.5
92 37 36.0 6520.5
93 137 115.5 6636.0
94 192 118.0 6754.0
95 43 37.0 6791.0
96 112 63.0 6854.0
97 86 67.0 6921.0
98 64 54.0 6975.0
99 82 54.5 7029.5
100 61 58.0 7087.5
101 65 65.0 7152.5
102 76 62.5 7215.0
103 83 81.0 7296.0
104 84 68.0 7364.0
105 50 47.5 7411.5
106 85 70.0 7481.5
107 141 113.0 7594.5
108 120 84.5 7679.0
109 86 81.5 7760.5
110 126 89.5 7850.0
111 183 155.0 8005.0
112 56 55.5 8060.5
113 142 84.5 8145.0
114 88 72.0 8217.0
115 52 49.5 8266.5
116 81 74.0 8340.5
117 42 42.0 8382.5
118 99 70.5 8453.0
119 67 54.5 8507.5
120 147 135.5 8643.0
121 46 45.0 8688.0
122 70 65.0 8753.0
123 146 125.0 8878.0
124 50 41.0 8919.0
125 219 164.5 9083.5
126 40 29.0 9112.5
127 110 76.0 9188.5
128 21 21.0 9209.5
129 91 83.5 9293.0
130 48 41.0 9334.0
131 73 60.5 9394.5
132 59 47.5 9442.0
133 78 57.0 9499.0
134 33 33.0 9532.0
135 22 20.0 9552.0
136 94 92.0 9644.0
137 26 22.5 9666.5
138 40 36.0 9702.5
139 110 65.0 9767.5
140 82 56.0 9823.5
141 27 27.0 9850.5
142 109 108.0 9958.5
143 53 53.0 10011.5
144 155 104.5 10116.0
145 94 83.0 10199.0
146 88 81.0 10280.0
147 59 56.0 10336.0
148 114 96.0 10432.0
149 135 122.5 10554.5
150 1 1.0 10555.5
151 91 73.0 10628.5
152 60 60.0 10688.5
153 109 84.0 10772.5
154 107 96.5 10869.0
155 108 74.0 10943.0
156 58 57.5 11000.5
157 57 56.0 11056.5
158 241 205.0 11261.5
159 108 92.0 11353.5
160 235 201.5 11555.0
161 64 63.5 11618.5
162 86 85.0 11703.5
163 62 47.5 11751.0
164 131 79.5 11830.5
165 77 62.0 11892.5
166 68 62.0 11954.5
167 130 84.0 12038.5
168 114 82.5 12121.0
169 42 42.0 12163.0
170 132 93.5 12256.5
171 78 52.0 12308.5
172 105 86.0 12394.5
173 116 104.5 12499.0
174 72 57.5 12556.5
175 94 79.0 12635.5
176 28 28.0 12663.5
177 137 89.0 12752.5
178 45 36.5 12789.0
179 210 153.5 12942.5
180 25 22.0 12964.5
181 222 167.5 13132.0
182 165 129.0 13261.0
183 120 98.5 13359.5
184 106 87.5 13447.0
185 105 64.5 13511.5
186 124 118.5 13630.0
187 64 62.0 13692.0
188 106 75.5 13767.5
189 141 131.0 13898.5
190 109 108.5 14007.0
191 93 63.0 14070.0
192 34 33.0 14103.0
193 43 43.0 14146.0
194 302 257.0 14403.0
195 130 112.5 14515.5
196 47 47.0 14562.5
197 274 190.0 14752.5
198 169 117.0 14869.5
199 56 54.0 14923.5
200 49 42.5 14966.0
201 124 113.5 15079.5
202 70 67.0 15146.5
203 76 50.5 15197.0
204 290 206.0 15403.0
205 57 52.0 15455.0
206 106 89.5 15544.5
207 126 81.0 15625.5
208 116 77.0 15702.5
209 161 132.5 15835.0
210 128 80.5 15915.5
211 106 86.5 16002.0
212 42 42.0 16044.0
213 127 94.5 16138.5
214 77 61.5 16200.0
215 141 95.5 16295.5
216 74 66.5 16362.0
217 37 37.0 16399.0
218 332 215.5 16614.5
219 117 110.0 16724.5
220 200 168.0 16892.5
221 114 93.0 16985.5
222 127 111.0 17096.5
223 157 122.0 17218.5
224 170 142.0 17360.5
225 131 118.0 17478.5
226 57 52.0 17530.5
227 40 39.0 17569.5
228 235 147.0 17716.5
229 134 101.0 17817.5
230 190 156.5 17974.0
231 74 64.5 18038.5
232 166 108.5 18147.0
233 121 86.0 18233.0
234 108 81.0 18314.0
235 72 65.5 18379.5
236 124 79.0 18458.5
237 120 105.0 18563.5
238 13 13.0 18576.5
239 172 119.0 18695.5
240 78 62.5 18758.0
241 59 50.5 18808.5
242 51 45.0 18853.5
243 121 99.5 18953.0
244 150 134.0 19087.0
245 92 92.0 19179.0
246 74 59.0 19238.0
247 65 48.0 19286.0
248 67 51.0 19337.0
249 114 76.5 19413.5
250 122 105.0 19518.5
251 67 65.0 19583.5
252 79 45.0 19628.5
253 320 230.0 19858.5
254 380 290.5 20149.0
255 76 52.0 20201.0
256 112 98.5 20299.5
257 257 155.5 20455.0
258 259 157.5 20612.5
259 145 100.0 20712.5
260 75 74.0 20786.5
261 360 241.0 21027.5
262 294 251.0 21278.5
263 56 43.0 21321.5
264 129 81.5 21403.0
265 254 203.5 21606.5
266 56 52.5 21659.0
267 61 53.0 21712.0
268 220 166.0 21878.0
269 207 141.0 22019.0
270 87 80.0 22099.0
271 109 89.5 22188.5
272 223 156.5 22345.0
273 115 95.5 22440.5
274 1 1.0 22441.5
275 145 107.0 22548.5
276 154 133.0 22681.5
277 102 74.0 22755.5
278 82 76.0 22831.5
279 34 29.0 22860.5
280 209 149.5 23010.0
281 83 67.0 23077.0
282 58 52.0 23129.0
283 133 113.0 23242.0
284 105 81.5 23323.5
285 98 64.5 23388.0
286 143 97.5 23485.5
287 513 340.5 23826.0
288 173 135.0 23961.0
289 71 69.0 24030.0
290 158 121.0 24151.0
291 77 75.0 24226.0
292 69 61.0 24287.0
293 109 73.0 24360.0
294 77 65.0 24425.0
295 142 110.0 24535.0
296 110 62.5 24597.5
297 96 77.5 24675.0
298 352 244.5 24919.5
299 298 206.5 25126.0
300 52 36.0 25162.0
301 85 81.5 25243.5
302 65 47.5 25291.0
303 150 104.5 25395.5
304 86 62.0 25457.5
305 77 54.0 25511.5
306 118 79.0 25590.5
307 116 114.5 25705.0
308 50 49.5 25754.5
309 10 10.0 25764.5
310 104 79.0 25843.5
311 103 86.0 25929.5
312 80 60.0 25989.5
313 156 114.0 26103.5
314 200 146.0 26249.5
315 77 55.0 26304.5
316 71 57.0 26361.5
317 145 77.0 26438.5
318 89 83.5 26522.0
319 148 122.0 26644.0
320 1 1.0 26645.0
321 157 145.0 26790.0
322 183 144.5 26934.5
323 62 51.5 26986.0
324 180 131.5 27117.5
325 335 257.5 27375.0
326 75 53.0 27428.0
327 122 87.5 27515.5
328 117 90.5 27606.0
329 63 58.5 27664.5
330 107 53.5 27718.0
331 115 102.0 27820.0
332 115 86.0 27906.0
333 94 72.5 27978.5
334 231 156.0 28134.5
335 56 53.0 28187.5
336 107 74.0 28261.5
337 55 52.0 28313.5
338 32 32.0 28345.5
339 78 73.0 28418.5
340 63 53.0 28471.5
341 30 25.0 28496.5
342 41 26.0 28522.5
343 127 95.0 28617.5
344 62 57.0 28674.5
345 279 131.5 28806.0
346 145 103.5 28909.5
347 69 56.0 28965.5
348 110 103.0 29068.5
349 44 43.5 29112.0
350 97 88.0 29200.0
351 148 133.0 29333.0
352 47 39.0 29372.0
353 51 49.5 29421.5
354 131 107.5 29529.0
355 89 82.0 29611.0
356 184 108.5 29719.5
357 30 20.5 29740.0
358 91 91.0 29831.0
359 184 151.5 29982.5
360 1 0.0 29982.5
361 119 83.0 30065.5
362 140 97.5 30163.0
363 189 140.0 30303.0
364 47 38.5 30341.5
365 59 44.5 30386.0
366 122 93.5 30479.5
367 130 77.0 30556.5
368 205 114.5 30671.0
369 63 49.0 30720.0
370 192 110.5 30830.5
371 113 82.5 30913.0
372 238 195.5 31108.5
373 104 79.0 31187.5
374 147 126.0 31313.5
375 77 66.5 31380.0
376 213 133.0 31513.0
377 160 99.0 31612.0
378 39 35.5 31647.5
379 133 124.5 31772.0
380 69 60.0 31832.0
381 199 148.5 31980.5
382 146 99.5 32080.0
383 333 261.5 32341.5
384 115 94.5 32436.0
385 140 104.5 32540.5
386 111 92.5 32633.0
387 102 77.5 32710.5
388 146 109.5 32820.0
389 108 84.5 32904.5
390 103 94.0 32998.5
391 49 38.0 33036.5
392 117 66.5 33103.0
393 127 118.0 33221.0
394 70 70.0 33291.0
395 222 137.0 33428.0
396 270 180.0 33608.0
397 71 70.0 33678.0
398 302 188.0 33866.0
399 1 1.0 33867.0
400 41 41.0 33908.0
401 276 213.5 34121.5
402 194 159.0 34280.5
403 334 249.0 34529.5
404 237 139.5 34669.0
405 392 273.5 34942.5
406 175 136.5 35079.0
407 339 230.0 35309.0
408 197 128.5 35437.5
409 73 68.0 35505.5
410 226 160.5 35666.0
411 68 63.0 35729.0
412 52 48.0 35777.0
413 95 69.5 35846.5
414 433 303.5 36150.0
415 176 102.0 36252.0
416 275 185.0 36437.0
417 34 30.5 36467.5
418 79 67.5 36535.0
419 116 83.5 36618.5
420 278 185.0 36803.5
421 123 85.0 36888.5
422 213 183.5 37072.0
423 210 124.0 37196.0
424 50 46.5 37242.5
425 430 299.0 37541.5
426 183 150.0 37691.5
427 1 1.0 37692.5
428 83 79.0 37771.5
429 585 355.5 38127.0
430 107 93.5 38220.5
431 103 102.0 38322.5
432 158 118.5 38441.0
433 134 80.0 38521.0
434 139 110.0 38631.0
435 608 426.0 39057.0
436 94 69.0 39126.0
437 57 41.5 39167.5
438 191 128.5 39296.0
439 385 262.0 39558.0
440 141 83.5 39641.5
441 256 195.5 39837.0
442 85 60.0 39897.0
443 66 64.5 39961.5
444 204 137.5 40099.0
445 247 155.5 40254.5
446 59 52.5 40307.0
447 356 254.0 40561.0
448 83 71.5 40632.5
449 77 74.0 40706.5
450 169 150.0 40856.5
451 38 38.0 40894.5
452 160 121.5 41016.0
453 107 79.5 41095.5
454 99 76.0 41171.5
455 62 49.5 41221.0
456 186 142.5 41363.5
457 229 180.5 41544.0
458 62 52.0 41596.0
459 139 106.5 41702.5
460 59 53.0 41755.5
461 217 131.0 41886.5
462 68 57.0 41943.5
463 143 106.0 42049.5
464 359 246.5 42296.0
465 588 439.0 42735.0
466 143 108.5 42843.5
467 180 130.5 42974.0
468 231 122.0 43096.0
469 87 69.5 43165.5
470 227 182.5 43348.0
471 119 92.5 43440.5
472 346 259.0 43699.5
473 275 224.5 43924.0
474 119 88.5 44012.5
475 237 173.0 44185.5
476 417 355.5 44541.0
477 22 22.0 44563.0
478 126 98.5 44661.5
479 429 325.5 44987.0
480 1 1.0 44988.0
481 202 146.5 45134.5
482 129 103.5 45238.0
483 187 94.0 45332.0
484 271 183.0 45515.0
485 189 129.0 45644.0
486 147 119.0 45763.0
487 102 83.0 45846.0
488 81 51.0 45897.0
489 95 80.0 45977.0
490 167 122.5 46099.5
491 76 70.5 46170.0
492 459 315.0 46485.0
493 265 176.5 46661.5
494 304 219.5 46881.0
495 157 110.0 46991.0
496 100 79.5 47070.5
497 700 413.0 47483.5
498 67 61.0 47544.5
499 173 119.5 47664.0
500 410 286.5 47950.5
501 700 502.5 48453.0
502 56 42.0 48495.0
503 121 84.0 48579.0
504 426 286.5 48865.5
505 176 144.5 49010.0
506 44 40.0 49050.0
507 40 39.0 49089.0
508 41 36.0 49125.0
509 173 132.0 49257.0
510 146 128.0 49385.0
511 179 122.0 49507.0
512 123 90.0 49597.0
513 74 58.5 49655.5
514 700 427.5 50083.0
515 98 73.5 50156.5
516 239 191.5 50348.0
517 82 78.5 50426.5
518 91 88.5 50515.0
519 700 455.0 50970.0
520 700 481.5 51451.5
521 81 68.5 51520.0
522 99 79.0 51599.0
523 131 81.5 51680.5
524 700 577.0 52257.5
525 322 196.5 52454.0
526 114 102.0 52556.0
527 700 501.5 53057.5
528 700 560.0 53617.5
529 151 121.5 53739.0
530 389 251.5 53990.5
531 247 162.0 54152.5
532 173 130.5 54283.0
533 1 0.5 54283.5
534 356 241.0 54524.5
535 630 475.0 54999.5
536 43 30.5 55030.0
537 250 158.0 55188.0
538 307 210.5 55398.5
539 700 520.5 55919.0
540 209 122.5 56041.5
541 141 129.0 56170.5
542 3 3.0 56173.5
543 133 108.0 56281.5
544 131 102.0 56383.5
545 42 40.0 56423.5
546 110 74.5 56498.0
547 106 79.0 56577.0
548 700 526.0 57103.0
549 184 128.0 57231.0
550 156 95.0 57326.0
551 386 251.5 57577.5
552 700 538.0 58115.5
553 410 309.0 58424.5
554 66 55.5 58480.0
555 46 45.0 58525.0
556 50 43.5 58568.5
557 137 109.5 58678.0
558 105 66.5 58744.5
559 79 75.5 58820.0
560 332 225.5 59045.5
561 134 102.0 59147.5
562 460 319.0 59466.5
563 83 83.0 59549.5
564 127 82.5 59632.0
565 197 130.0 59762.0
566 79 64.0 59826.0
567 81 69.5 59895.5
568 165 138.5 60034.0
569 100 94.0 60128.0
570 209 158.5 60286.5
571 73 68.5 60355.0
572 118 109.0 60464.0
573 228 141.5 60605.5
574 700 540.5 61146.0
575 30 30.0 61176.0
576 66 48.0 61224.0
577 64 58.5 61282.5
578 84 55.0 61337.5
579 425 299.0 61636.5
580 122 91.0 61727.5
581 288 219.0 61946.5
582 700 484.5 62431.0
583 164 117.5 62548.5
584 117 105.0 62653.5
585 700 534.0 63187.5
586 163 99.5 63287.0
587 105 69.0 63356.0
588 30 30.0 63386.0
589 53 51.5 63437.5
590 56 50.0 63487.5
591 700 457.0 63944.5
592 530 403.0 64347.5
593 141 122.5 64470.0
594 171 88.5 64558.5
595 700 511.5 65070.0
596 270 194.0 65264.0
597 246 202.5 65466.5
598 104 92.0 65558.5
599 133 88.5 65647.0
600 123 92.0 65739.0
601 623 447.5 66186.5
602 317 229.5 66416.0
603 247 165.0 66581.0
604 559 381.0 66962.0
605 154 129.0 67091.0
606 168 145.0 67236.0
607 700 469.0 67705.0
608 228 174.0 67879.0
609 218 162.5 68041.5
610 391 298.5 68340.0
611 700 447.0 68787.0
612 101 97.0 68884.0
613 120 82.0 68966.0
614 86 70.0 69036.0
615 700 573.5 69609.5
616 116 101.5 69711.0
617 231 141.5 69852.5
618 63 62.5 69915.0
619 317 199.0 70114.0
620 700 494.5 70608.5
621 700 494.0 71102.5
622 414 295.5 71398.0
623 138 89.0 71487.0
624 65 59.0 71546.0
625 401 274.5 71820.5
626 56 46.0 71866.5
627 139 107.0 71973.5
628 618 398.0 72371.5
629 414 307.0 72678.5
630 621 455.0 73133.5
631 77 62.5 73196.0
632 226 165.0 73361.0
633 115 84.0 73445.0
634 179 131.0 73576.0
635 94 69.0 73645.0
636 614 460.5 74105.5
637 145 122.0 74227.5
638 201 130.5 74358.0
639 216 185.0 74543.0
640 179 132.5 74675.5
641 239 181.5 74857.0
642 270 206.5 75063.5
643 24 24.0 75087.5
644 142 98.5 75186.0
645 215 165.5 75351.5
646 116 86.0 75437.5
647 33 33.0 75470.5
648 515 327.0 75797.5
649 700 445.5 76243.0
650 102 86.0 76329.0
651 36 36.0 76365.0
652 179 90.5 76455.5
653 121 91.0 76546.5
654 171 128.0 76674.5
655 488 332.5 77007.0
656 208 174.5 77181.5
657 199 156.0 77337.5
658 148 136.0 77473.5
659 190 139.0 77612.5
660 700 517.5 78130.0
661 182 126.0 78256.0
662 227 149.0 78405.0
663 117 87.0 78492.0
664 113 84.0 78576.0
665 84 63.0 78639.0
666 238 152.5 78791.5
667 171 100.5 78892.0
668 68 64.5 78956.5
669 349 222.0 79178.5
670 700 469.5 79648.0
671 217 167.0 79815.0
672 58 37.5 79852.5
673 200 149.0 80001.5
674 700 505.0 80506.5
675 184 117.0 80623.5
676 448 361.5 80985.0
677 146 101.0 81086.0
678 33 33.0 81119.0
679 54 47.0 81166.0
680 205 171.0 81337.0
681 700 456.5 81793.5
682 53 47.0 81840.5
683 73 60.5 81901.0
684 180 130.0 82031.0
685 514 381.5 82412.5
686 127 72.0 82484.5
687 143 113.5 82598.0
688 158 123.5 82721.5
689 83 56.5 82778.0
690 196 114.0 82892.0
691 103 82.0 82974.0
692 660 409.0 83383.0
693 73 52.5 83435.5
694 353 224.0 83659.5
695 166 76.0 83735.5
696 70 68.0 83803.5
697 687 491.0 84294.5
698 181 83.5 84378.0
699 182 99.0 84477.0
700 317 256.5 84733.5
701 146 137.0 84870.5
702 176 159.5 85030.0
703 700 494.5 85524.5
704 176 132.5 85657.0
705 700 459.0 86116.0
706 154 133.0 86249.0
707 58 58.0 86307.0
708 75 55.5 86362.5
709 700 536.0 86898.5
710 139 119.0 87017.5
711 41 41.0 87058.5
712 700 484.0 87542.5
713 91 70.5 87613.0
714 301 200.5 87813.5
715 114 88.5 87902.0
716 126 98.5 88000.5
717 187 135.0 88135.5
718 432 244.5 88380.0
719 130 98.5 88478.5
720 1 1.0 88479.5
721 56 54.0 88533.5
722 293 229.5 88763.0
723 97 86.0 88849.0
724 62 53.0 88902.0
725 156 137.5 89039.5
726 700 433.0 89472.5
727 237 137.5 89610.0
728 160 130.5 89740.5
729 120 81.0 89821.5
730 157 129.0 89950.5
731 168 142.0 90092.5
732 339 204.0 90296.5
733 242 199.5 90496.0
734 190 133.0 90629.0
735 153 107.0 90736.0
736 110 94.0 90830.0
737 680 479.5 91309.5
738 415 285.5 91595.0
739 158 120.5 91715.5
740 178 114.5 91830.0
741 139 115.0 91945.0
742 333 205.5 92150.5
743 82 62.5 92213.0
744 150 124.0 92337.0
745 700 388.0 92725.0
746 495 376.5 93101.5
747 492 342.5 93444.0
748 154 129.5 93573.5
749 700 441.0 94014.5
750 62 61.5 94076.0
751 358 260.0 94336.0
752 158 96.5 94432.5
753 57 54.0 94486.5
754 156 107.0 94593.5
755 75 52.0 94645.5
756 196 141.5 94787.0
757 120 105.5 94892.5
758 136 92.0 94984.5
759 61 59.5 95044.0
760 81 66.0 95110.0
761 700 474.0 95584.0
762 377 275.0 95859.0
763 700 472.5 96331.5
764 217 197.5 96529.0
765 46 46.0 96575.0
766 320 199.5 96774.5
767 87 75.5 96850.0
768 700 471.0 97321.0
769 235 179.5 97500.5
770 133 107.0 97607.5
771 101 86.5 97694.0
772 85 71.5 97765.5
773 97 80.5 97846.0
774 700 543.5 98389.5
775 64 35.5 98425.0
776 112 69.5 98494.5
777 304 228.0 98722.5
778 152 122.0 98844.5
779 224 169.5 99014.0
780 354 226.0 99240.0
781 118 75.0 99315.0
782 238 196.0 99511.0
783 168 108.0 99619.0
784 295 206.5 99825.5
785 170 145.0 99970.5
786 700 501.5 100472.0
787 700 502.5 100974.5
788 700 572.5 101547.0
789 541 368.0 101915.0
790 92 73.0 101988.0
791 372 253.0 102241.0
792 211 157.5 102398.5
793 700 467.5 102866.0
794 139 104.0 102970.0
795 28 21.0 102991.0
796 700 445.5 103436.5
797 52 51.0 103487.5
798 209 180.5 103668.0
799 79 69.5 103737.5
800 700 494.0 104231.5
801 149 101.0 104332.5
802 700 535.5 104868.0
803 598 507.0 105375.0
804 1 1.0 105376.0
805 700 482.0 105858.0
806 700 517.0 106375.0
807 361 313.0 106688.0
808 700 499.5 107187.5
809 335 252.0 107439.5
810 348 248.5 107688.0
811 547 329.0 108017.0
812 359 248.0 108265.0
813 1 1.0 108266.0
814 700 546.5 108812.5
815 113 77.5 108890.0
816 101 84.5 108974.5
817 103 57.0 109031.5
818 186 94.5 109126.0
819 497 346.5 109472.5
820 87 58.0 109530.5
821 1 0.5 109531.0
822 417 288.5 109819.5
823 616 387.0 110206.5
824 121 81.5 110288.0
825 115 109.5 110397.5
826 92 86.5 110484.0
827 106 82.5 110566.5
828 148 114.5 110681.0
829 122 106.0 110787.0
830 700 467.0 111254.0
831 35 34.5 111288.5
832 700 490.5 111779.0
833 130 91.0 111870.0
834 382 299.0 112169.0
835 700 554.5 112723.5
836 700 534.5 113258.0
837 178 150.5 113408.5
838 90 56.0 113464.5
839 700 492.5 113957.0
840 127 74.0 114031.0
841 106 87.5 114118.5
842 1 1.0 114119.5
843 188 141.0 114260.5
844 181 83.0 114343.5
845 700 534.5 114878.0
846 137 123.0 115001.0
847 86 70.5 115071.5
848 234 161.5 115233.0
849 255 167.0 115400.0
850 132 120.5 115520.5
851 286 187.5 115708.0
852 87 78.5 115786.5
853 387 228.0 116014.5
854 700 525.5 116540.0
855 200 115.5 116655.5
856 342 228.5 116884.0
857 184 74.5 116958.5
858 88 75.5 117034.0
859 109 85.0 117119.0
860 255 175.5 117294.5
861 97 73.5 117368.0
862 700 441.0 117809.0
863 55 55.0 117864.0
864 512 363.5 118227.5
865 247 194.5 118422.0
866 71 62.0 118484.0
867 156 127.5 118611.5
868 31 25.0 118636.5
869 519 396.0 119032.5
870 131 94.5 119127.0
871 72 60.0 119187.0
872 221 149.0 119336.0
873 144 93.0 119429.0
874 312 239.5 119668.5
875 152 82.5 119751.0
876 700 490.5 120241.5
877 498 342.0 120583.5
878 428 258.0 120841.5
879 202 171.5 121013.0
880 75 52.5 121065.5
881 97 86.0 121151.5
882 106 81.5 121233.0
883 246 184.0 121417.0
884 700 453.5 121870.5
885 177 133.0 122003.5
886 178 100.5 122104.0
887 127 79.5 122183.5
888 60 58.0 122241.5
889 197 106.5 122348.0
890 103 81.5 122429.5
891 513 333.5 122763.0
892 178 115.5 122878.5
893 43 43.0 122921.5
894 163 80.5 123002.0
895 75 55.0 123057.0
896 662 473.5 123530.5
897 700 522.5 124053.0
898 572 409.5 124462.5
899 345 256.0 124718.5
900 700 515.5 125234.0
901 219 119.0 125353.0
902 1 0.5 125353.5
903 700 465.5 125819.0
904 139 106.5 125925.5
905 94 70.0 125995.5
906 366 269.0 126264.5
907 178 116.5 126381.0
908 55 54.0 126435.0
909 700 500.5 126935.5
910 52 47.0 126982.5
911 220 174.5 127157.0
912 76 71.0 127228.0
913 205 157.0 127385.0
914 166 121.0 127506.0
915 67 48.0 127554.0
916 632 383.5 127937.5
917 625 318.0 128255.5
918 118 92.5 128348.0
919 354 193.5 128541.5
920 120 96.0 128637.5
921 192 130.5 128768.0
922 85 72.5 128840.5
923 104 88.0 128928.5
924 274 179.5 129108.0
925 70 69.5 129177.5
926 361 234.5 129412.0
927 74 63.0 129475.0
928 658 433.0 129908.0
929 41 41.0 129949.0
930 57 50.5 129999.5
931 286 167.5 130167.0
932 170 122.5 130289.5
933 700 475.5 130765.0
934 616 356.0 131121.0
935 153 109.0 131230.0
936 59 57.0 131287.0
937 248 163.5 131450.5
938 324 180.5 131631.0
939 538 359.0 131990.0
940 179 142.0 132132.0
941 152 116.5 132248.5
942 85 68.5 132317.0
943 195 157.5 132474.5
944 453 264.0 132738.5
945 77 67.5 132806.0
946 288 176.0 132982.0
947 235 211.0 133193.0
948 700 481.5 133674.5
949 161 95.0 133769.5
950 99 88.0 133857.5
951 700 496.5 134354.0
952 285 245.0 134599.0
953 700 526.0 135125.0
954 58 43.0 135168.0
955 264 199.5 135367.5
956 515 389.0 135756.5
957 170 124.5 135881.0
958 93 77.0 135958.0
959 700 467.5 136425.5
960 161 123.0 136548.5
961 700 432.0 136980.5
962 212 145.5 137126.0
963 134 96.0 137222.0
964 700 561.0 137783.0
965 158 130.0 137913.0
966 163 120.5 138033.5
967 280 168.5 138202.0
968 102 82.5 138284.5
969 700 559.0 138843.5
970 432 329.0 139172.5
971 192 154.0 139326.5
972 132 76.5 139403.0
973 42 42.0 139445.0
974 700 491.5 139936.5
975 273 148.0 140084.5
976 83 60.5 140145.0
977 49 49.0 140194.0
978 127 76.5 140270.5
979 76 66.0 140336.5
980 205 157.0 140493.5
981 75 74.5 140568.0
982 57 54.5 140622.5
983 700 472.5 141095.0
984 347 272.0 141367.0
985 564 392.5 141759.5
986 202 149.5 141909.0
987 700 531.0 142440.0
988 247 169.0 142609.0
989 188 141.5 142750.5
990 234 108.0 142858.5
991 573 409.5 143268.0
992 693 447.0 143715.0
993 211 159.5 143874.5
994 273 168.0 144042.5
995 700 471.5 144514.0
996 598 405.5 144919.5
997 269 228.5 145148.0
998 700 444.0 145592.0
999 89 70.0 145662.0
1000 66 47.0 145709.0
