1 39 38.0 38.0
2 154 127.5 165.5
3 80 56.0 221.5
4 112 109.5 331.0
5 72 63.5 394.5
6 47 32.5 427.0
7 102 86.5 513.5
8 176 154.0 667.5
9 138 71.5 739.0
10 67 40.5 779.5
11 244 209.0 988.5
12 64 64.0 1052.5
13 40 37.0 1089.5
14 340 228.0 1317.5
15 84 71.0 1388.5
16 44 29.0 1417.5
17 125 104.5 1522.0
18 81 73.5 1595.5
19 103 94.0 1689.5
20 148 105.0 1794.5
21 82 48.5 1843.0
22 76 74.0 1917.0
23 173 151.0 2068.0
24 54 45.0 2113.0
25 46 44.0 2157.0
26 65 38.5 2195.5
27 56 56.0 2251.5
28 165 139.0 2390.5
29 103 80.0 2470.5
30 72 59.5 2530.0
31 35 35.0 2565.0
32 54 43.0 2608.0
33 223 114.0 2722.0
34 65 55.0 2777.0
35 1 1.0 2778.0
36 137 118.0 2896.0
37 24 23.0 2919.0
38 95 82.5 3001.5
39 64 64.0 3065.5
40 10 10.0 3075.5
41 101 100.0 3175.5
42 64 61.5 3237.0
43 55 54.0 3291.0
44 130 76.0 3367.0
45 30 30.0 3397.0
46 41 41.0 3438.0
47 209 146.5 3584.5
48 160 119.5 3704.0
49 117 96.5 3800.5
50 72 59.5 3860.0
51 70 45.0 3905.0
52 95 90.5 3995.5
53 98 81.5 4077.0
54 89 82.0 4159.0
55 49 44.0 4203.0
56 43 43.0 4246.0
57 245 184.0 4430.0
58 63 55.0 4485.0
59 38 34.0 4519.0
60 78 69.0 4588.0
61 83 79.0 4667.0
62 126 118.0 4785.0
63 42 41.0 4826.0
64 108 66.0 4892.0
65 89 70.5 4962.5
66 137 48.0 5010.5
67 86 75.5 5086.0
68 306 231.0 5317.0
69 101 88.5 5405.5
70 48 48.0 5453.5
71 60 52.5 5506.0
72 92 72.0 5578.0
73 70 60.0 5638.0
74 81 46.0 5684.0
75 154 87.0 5771.0
76 253 165.0 5936.0
77 205 130.5 6066.5
78 94 73.5 6140.0
79 165 117.5 6257.5
80 86 74.0 6331.5
81 66 50.5 6382.0
82 89 73.0 6455.0
83 50 50.0 6505.0
84 207 170.0 6675.0
85 82 62.5 6737.5
86 247 200.5 6938.0
87 88 71.5 7009.5
88 123 116.5 7126.0
89 83 54.5 7180.5
90 58 47.5 7228.0
91 65 53.5 7281.5
92 48 45.0 7326.5
93 35 33.5 7360.0
94 86 73.0 7433.0
95 118 75.5 7508.5
96 116 71.5 7580.0
97 53 53.0 7633.0
98 1 1.0 7634.0
99 104 54.5 7688.5
100 100 85.0 7773.5
101 60 56.5 7830.0
102 62 57.5 7887.5
103 76 66.0 7953.5
104 64 60.5 8014.0
105 65 53.5 8067.5
106 75 68.0 8135.5
107 150 134.0 8269.5
108 194 156.5 8426.0
109 61 61.0 8487.0
110 1 1.0 8488.0
111 86 63.0 8551.0
112 201 161.0 8712.0
113 175 123.5 8835.5
114 53 51.5 8887.0
115 73 64.5 8951.5
116 48 39.0 8990.5
117 53 50.0 9040.5
118 328 272.0 9312.5
119 95 91.5 9404.0
120 50 44.5 9448.5
121 127 53.0 9501.5
122 42 41.5 9543.0
123 85 69.0 9612.0
124 88 63.0 9675.0
125 80 76.5 9751.5
126 144 132.5 9884.0
127 77 68.0 9952.0
128 131 104.0 10056.0
129 71 53.5 10109.5
130 108 100.0 10209.5
131 120 85.0 10294.5
132 205 157.5 10452.0
133 205 171.0 10623.0
134 64 56.0 10679.0
135 110 91.5 10770.5
136 50 45.0 10815.5
137 51 49.5 10865.0
138 191 155.5 11020.5
139 74 70.5 11091.0
140 180 130.0 11221.0
141 41 39.5 11260.5
142 209 92.0 11352.5
143 165 131.0 11483.5
144 62 51.5 11535.0
145 51 50.0 11585.0
146 74 67.5 11652.5
147 101 77.5 11730.0
148 141 125.0 11855.0
149 101 100.0 11955.0
150 37 37.0 11992.0
151 236 157.5 12149.5
152 124 60.5 12210.0
153 67 62.5 12272.5
154 158 96.0 12368.5
155 123 121.5 12490.0
156 183 124.0 12614.0
157 86 33.5 12647.5
158 1 0.5 12648.0
159 133 107.5 12755.5
160 1 1.0 12756.5
161 71 64.5 12821.0
162 105 73.5 12894.5
163 28 28.0 12922.5
164 73 69.0 12991.5
165 219 174.0 13165.5
166 140 122.0 13287.5
167 82 82.0 13369.5
168 404 318.5 13688.0
169 120 90.5 13778.5
170 159 76.0 13854.5
171 83 35.5 13890.0
172 282 215.0 14105.0
173 65 56.5 14161.5
174 92 55.0 14216.5
175 165 129.0 14345.5
176 115 84.5 14430.0
177 84 66.5 14496.5
178 43 36.5 14533.0
179 83 58.5 14591.5
180 69 55.5 14647.0
181 225 153.5 14800.5
182 53 40.5 14841.0
183 99 60.5 14901.5
184 60 49.5 14951.0
185 79 64.0 15015.0
186 102 57.0 15072.0
187 82 71.5 15143.5
188 120 102.5 15246.0
189 93 67.0 15313.0
190 228 169.0 15482.0
191 47 37.0 15519.0
192 51 49.0 15568.0
193 43 40.5 15608.5
194 49 44.5 15653.0
195 91 72.0 15725.0
196 58 52.0 15777.0
197 226 174.0 15951.0
198 72 52.5 16003.5
199 171 141.0 16144.5
200 146 92.0 16236.5
201 112 61.5 16298.0
202 1 0.5 16298.5
203 91 78.5 16377.0
204 182 141.5 16518.5
205 117 82.0 16600.5
206 111 89.5 16690.0
207 92 80.0 16770.0
208 61 61.0 16831.0
209 133 85.0 16916.0
210 50 43.0 16959.0
211 47 46.0 17005.0
212 58 54.0 17059.0
213 105 93.0 17152.0
214 118 95.5 17247.5
215 105 94.5 17342.0
216 178 139.0 17481.0
217 142 94.5 17575.5
218 98 78.5 17654.0
219 194 137.0 17791.0
220 72 58.5 17849.5
221 175 153.0 18002.5
222 119 90.0 18092.5
223 459 328.0 18420.5
224 62 53.5 18474.0
225 187 123.0 18597.0
226 113 72.0 18669.0
227 87 73.5 18742.5
228 47 33.0 18775.5
229 78 58.5 18834.0
230 81 71.0 18905.0
231 62 50.5 18955.5
232 300 257.5 19213.0
233 302 208.5 19421.5
234 274 209.5 19631.0
235 68 48.5 19679.5
236 53 53.0 19732.5
237 246 180.0 19912.5
238 43 40.5 19953.0
239 164 138.5 20091.5
240 106 89.0 20180.5
241 111 78.5 20259.0
242 197 115.5 20374.5
243 56 55.0 20429.5
244 222 178.5 20608.0
245 144 108.0 20716.0
246 106 71.5 20787.5
247 284 202.0 20989.5
248 125 85.0 21074.5
249 227 188.5 21263.0
250 45 38.0 21301.0
251 61 58.0 21359.0
252 237 184.0 21543.0
253 206 147.0 21690.0
254 222 138.5 21828.5
255 198 172.5 22001.0
256 140 118.0 22119.0
257 87 44.5 22163.5
258 80 72.0 22235.5
259 91 82.0 22317.5
260 243 139.5 22457.0
261 101 48.0 22505.0
262 144 98.5 22603.5
263 33 32.5 22636.0
264 113 87.0 22723.0
265 188 120.5 22843.5
266 139 98.5 22942.0
267 214 157.0 23099.0
268 61 46.5 23145.5
269 113 46.0 23191.5
270 1 1.0 23192.5
271 194 120.5 23313.0
272 155 137.5 23450.5
273 43 33.0 23483.5
274 44 31.5 23515.0
275 216 181.5 23696.5
276 92 87.0 23783.5
277 263 161.0 23944.5
278 129 93.5 24038.0
279 133 103.5 24141.5
280 1 1.0 24142.5
281 140 116.5 24259.0
282 87 79.5 24338.5
283 82 74.0 24412.5
284 200 136.5 24549.0
285 108 89.0 24638.0
286 154 95.0 24733.0
287 62 43.5 24776.5
288 84 84.0 24860.5
289 214 145.0 25005.5
290 214 127.0 25132.5
291 126 59.5 25192.0
292 186 119.0 25311.0
293 158 117.5 25428.5
294 52 46.0 25474.5
295 192 131.0 25605.5
296 364 206.5 25812.0
297 336 225.0 26037.0
298 54 24.5 26061.5
299 53 46.5 26108.0
300 1 1.0 26109.0
301 137 125.5 26234.5
302 232 205.0 26439.5
303 51 51.0 26490.5
304 113 100.5 26591.0
305 50 49.0 26640.0
306 180 113.5 26753.5
307 106 87.0 26840.5
308 73 59.0 26899.5
309 60 60.0 26959.5
310 1 1.0 26960.5
311 174 155.5 27116.0
312 139 107.0 27223.0
313 69 52.5 27275.5
314 57 50.5 27326.0
315 203 123.0 27449.0
316 67 67.0 27516.0
317 73 66.5 27582.5
318 43 39.0 27621.5
319 176 132.5 27754.0
320 91 88.0 27842.0
321 82 66.0 27908.0
322 149 90.0 27998.0
323 57 57.0 28055.0
324 63 55.0 28110.0
325 70 59.0 28169.0
326 314 200.0 28369.0
327 267 173.0 28542.0
328 215 194.0 28736.0
329 200 179.0 28915.0
330 73 57.5 28972.5
331 140 78.5 29051.0
332 55 54.5 29105.5
333 201 120.5 29226.0
334 62 58.5 29284.5
335 96 70.5 29355.0
336 1 1.0 29356.0
337 87 75.0 29431.0
338 71 47.5 29478.5
339 93 68.5 29547.0
340 125 103.0 29650.0
341 270 205.0 29855.0
342 227 182.5 30037.5
343 90 67.0 30104.5
344 207 144.0 30248.5
345 117 77.5 30326.0
346 126 95.0 30421.0
347 109 90.5 30511.5
348 118 113.5 30625.0
349 100 83.5 30708.5
350 260 179.5 30888.0
351 87 81.0 30969.0
352 63 61.0 31030.0
353 83 53.0 31083.0
354 43 34.0 31117.0
355 116 70.5 31187.5
356 169 107.0 31294.5
357 95 85.0 31379.5
358 108 70.5 31450.0
359 95 34.0 31484.0
360 190 127.5 31611.5
361 178 141.0 31752.5
362 110 90.0 31842.5
363 145 126.5 31969.0
364 160 138.0 32107.0
365 26 17.0 32124.0
366 161 117.0 32241.0
367 210 133.0 32374.0
368 395 263.0 32637.0
369 404 278.0 32915.0
370 41 34.5 32949.5
371 95 91.5 33041.0
372 38 38.0 33079.0
373 204 142.5 33221.5
374 37 37.0 33258.5
375 188 132.0 33390.5
376 216 159.0 33549.5
377 339 252.0 33801.5
378 102 95.5 33897.0
379 384 307.0 34204.0
380 700 514.0 34718.0
381 220 140.0 34858.0
382 209 153.0 35011.0
383 229 123.0 35134.0
384 145 113.0 35247.0
385 528 343.0 35590.0
386 112 80.5 35670.5
387 79 66.5 35737.0
388 175 132.5 35869.5
389 204 111.0 35980.5
390 112 84.5 36065.0
391 92 84.0 36149.0
392 53 45.0 36194.0
393 542 390.5 36584.5
394 246 192.0 36776.5
395 65 62.5 36839.0
396 123 108.5 36947.5
397 357 261.0 37208.5
398 167 76.5 37285.0
399 374 265.0 37550.0
400 147 98.0 37648.0
401 250 173.0 37821.0
402 100 73.0 37894.0
403 162 97.0 37991.0
404 52 40.0 38031.0
405 475 328.0 38359.0
406 152 141.5 38500.5
407 95 76.0 38576.5
408 91 78.5 38655.0
409 156 100.0 38755.0
410 67 54.5 38809.5
411 149 126.0 38935.5
412 66 42.5 38978.0
413 84 73.0 39051.0
414 208 161.5 39212.5
415 100 82.5 39295.0
416 356 276.5 39571.5
417 153 84.0 39655.5
418 700 474.5 40130.0
419 24 23.0 40153.0
420 700 466.5 40619.5
421 700 531.5 41151.0
422 105 86.5 41237.5
423 110 78.5 41316.0
424 183 129.5 41445.5
425 96 91.5 41537.0
426 1 1.0 41538.0
427 93 88.0 41626.0
428 202 167.0 41793.0
429 500 360.5 42153.5
430 203 132.0 42285.5
431 700 519.0 42804.5
432 105 96.0 42900.5
433 159 120.0 43020.5
434 210 157.5 43178.0
435 111 106.0 43284.0
436 60 60.0 43344.0
437 58 54.5 43398.5
438 94 84.0 43482.5
439 163 96.5 43579.0
440 201 151.5 43730.5
441 97 91.0 43821.5
442 700 551.0 44372.5
443 455 327.0 44699.5
444 588 438.0 45137.5
445 589 422.0 45559.5
446 655 447.0 46006.5
447 207 138.5 46145.0
448 88 75.0 46220.0
449 111 84.0 46304.0
450 372 224.5 46528.5
451 208 151.0 46679.5
452 700 529.0 47208.5
453 133 99.0 47307.5
454 109 96.0 47403.5
455 612 434.0 47837.5
456 146 112.5 47950.0
457 700 508.5 48458.5
458 672 452.5 48911.0
459 700 525.5 49436.5
460 189 113.0 49549.5
461 174 143.5 49693.0
462 127 102.0 49795.0
463 700 463.0 50258.0
464 81 75.0 50333.0
465 81 61.5 50394.5
466 111 95.0 50489.5
467 299 191.0 50680.5
468 63 58.0 50738.5
469 1 0.5 50739.0
470 384 304.5 51043.5
471 144 106.5 51150.0
472 130 105.5 51255.5
473 247 212.5 51468.0
474 119 92.5 51560.5
475 120 101.0 51661.5
476 147 119.5 51781.0
477 136 84.0 51865.0
478 553 386.0 52251.0
479 146 76.5 52327.5
480 700 454.5 52782.0
481 206 138.5 52920.5
482 168 128.5 53049.0
483 87 80.0 53129.0
484 129 109.5 53238.5
485 700 515.0 53753.5
486 700 459.0 54212.5
487 456 298.0 54510.5
488 65 54.0 54564.5
489 700 557.5 55122.0
490 120 91.5 55213.5
491 700 438.5 55652.0
492 700 494.5 56146.5
493 255 220.5 56367.0
494 408 361.5 56728.5
495 94 55.0 56783.5
496 254 162.0 56945.5
497 659 543.0 57488.5
498 172 108.5 57597.0
499 153 108.5 57705.5
500 1 1.0 57706.5
501 50 49.0 57755.5
502 356 244.0 57999.5
503 80 62.0 58061.5
504 152 111.0 58172.5
505 270 185.5 58358.0
506 588 460.5 58818.5
507 73 62.5 58881.0
508 78 55.5 58936.5
509 152 131.5 59068.0
510 82 41.5 59109.5
511 173 143.5 59253.0
512 97 63.0 59316.0
513 389 213.0 59529.0
514 389 323.0 59852.0
515 178 125.0 59977.0
516 127 115.0 60092.0
517 100 95.5 60187.5
518 483 393.5 60581.0
519 61 51.5 60632.5
520 700 448.5 61081.0
521 59 59.0 61140.0
522 149 108.5 61248.5
523 357 269.5 61518.0
524 700 550.5 62068.5
525 136 113.5 62182.0
526 281 170.5 62352.5
527 88 76.5 62429.0
528 700 508.5 62937.5
529 137 68.5 63006.0
530 158 123.5 63129.5
531 245 162.5 63292.0
532 108 81.5 63373.5
533 176 87.0 63460.5
534 143 88.0 63548.5
535 123 100.0 63648.5
536 154 115.0 63763.5
537 123 83.0 63846.5
538 85 65.0 63911.5
539 50 41.0 63952.5
540 451 312.0 64264.5
541 700 561.5 64826.0
542 236 184.5 65010.5
543 1 0.0 65010.5
544 178 131.0 65141.5
545 670 452.5 65594.0
546 173 126.5 65720.5
547 129 101.5 65822.0
548 475 320.0 66142.0
549 92 75.5 66217.5
550 700 409.0 66626.5
551 700 496.0 67122.5
552 277 209.5 67332.0
553 275 184.0 67516.0
554 41 41.0 67557.0
555 174 134.0 67691.0
556 1 1.0 67692.0
557 167 135.0 67827.0
558 54 29.5 67856.5
559 106 86.5 67943.0
560 230 159.5 68102.5
561 99 95.5 68198.0
562 403 255.0 68453.0
563 191 138.5 68591.5
564 276 217.5 68809.0
565 46 45.0 68854.0
566 328 240.5 69094.5
567 260 221.5 69316.0
568 262 203.5 69519.5
569 64 63.0 69582.5
570 700 483.5 70066.0
571 435 345.5 70411.5
572 700 432.5 70844.0
573 700 503.0 71347.0
574 44 41.5 71388.5
575 557 431.5 71820.0
576 132 108.5 71928.5
577 134 98.0 72026.5
578 143 105.0 72131.5
579 79 74.0 72205.5
580 433 294.5 72500.0
581 677 546.0 73046.0
582 103 88.0 73134.0
583 70 68.0 73202.0
584 191 127.5 73329.5
585 123 80.5 73410.0
586 165 131.5 73541.5
587 700 452.0 73993.5
588 205 188.0 74181.5
589 118 100.5 74282.0
590 700 521.0 74803.0
591 410 362.5 75165.5
592 176 132.0 75297.5
593 221 140.0 75437.5
594 123 106.5 75544.0
595 75 68.0 75612.0
596 700 505.0 76117.0
597 147 105.5 76222.5
598 122 86.0 76308.5
599 107 66.5 76375.0
600 392 279.0 76654.0
601 378 226.5 76880.5
602 84 69.0 76949.5
603 106 91.5 77041.0
604 59 59.0 77100.0
605 585 402.0 77502.0
606 47 39.0 77541.0
607 220 167.5 77708.5
608 700 562.5 78271.0
609 101 79.0 78350.0
610 700 541.0 78891.0
611 700 553.5 79444.5
612 700 500.0 79944.5
613 700 441.0 80385.5
614 676 496.0 80881.5
615 79 71.5 80953.0
616 700 542.5 81495.5
617 440 256.0 81751.5
618 611 443.5 82195.0
619 700 511.5 82706.5
620 141 109.0 82815.5
621 182 137.5 82953.0
622 44 42.5 82995.5
623 700 526.0 83521.5
624 151 131.5 83653.0
625 700 543.0 84196.0
626 264 175.5 84371.5
627 145 127.0 84498.5
628 95 88.5 84587.0
629 399 287.5 84874.5
630 700 493.0 85367.5
631 202 110.0 85477.5
632 122 84.5 85562.0
633 98 85.0 85647.0
634 700 479.5 86126.5
635 700 524.0 86650.5
636 669 481.0 87131.5
637 700 569.5 87701.0
638 52 52.0 87753.0
639 700 499.5 88252.5
640 156 121.5 88374.0
641 363 296.0 88670.0
642 321 248.5 88918.5
643 700 476.5 89395.0
644 217 139.0 89534.0
645 154 113.5 89647.5
646 406 329.0 89976.5
647 182 130.0 90106.5
648 168 148.5 90255.0
649 121 66.0 90321.0
650 192 160.0 90481.0
651 621 427.0 90908.0
652 633 408.0 91316.0
653 85 81.0 91397.0
654 85 59.5 91456.5
655 371 255.0 91711.5
656 335 257.0 91968.5
657 71 48.0 92016.5
658 700 437.5 92454.0
659 101 89.0 92543.0
660 140 124.0 92667.0
661 700 470.5 93137.5
662 334 220.5 93358.0
663 69 69.0 93427.0
664 659 435.0 93862.0
665 218 171.0 94033.0
666 268 205.0 94238.0
667 265 237.5 94475.5
668 507 356.0 94831.5
669 109 78.5 94910.0
670 1 1.0 94911.0
671 287 214.5 95125.5
672 220 132.0 95257.5
673 163 120.0 95377.5
674 204 148.5 95526.0
675 1 1.0 95527.0
676 114 107.5 95634.5
677 295 161.5 95796.0
678 345 245.5 96041.5
679 75 66.5 96108.0
680 700 545.0 96653.0
681 65 57.0 96710.0
682 291 235.0 96945.0
683 138 92.0 97037.0
684 147 107.5 97144.5
685 119 87.0 97231.5
686 236 151.0 97382.5
687 158 108.0 97490.5
688 115 79.5 97570.0
689 125 70.0 97640.0
690 700 384.5 98024.5
691 99 77.0 98101.5
692 195 112.0 98213.5
693 84 70.0 98283.5
694 68 57.0 98340.5
695 650 503.5 98844.0
696 282 216.0 99060.0
697 246 177.0 99237.0
698 700 537.0 99774.0
699 669 516.5 100290.5
700 700 463.0 100753.5
701 475 358.0 101111.5
702 100 76.0 101187.5
703 69 55.0 101242.5
704 124 106.0 101348.5
705 319 223.5 101572.0
706 334 226.0 101798.0
707 144 83.5 101881.5
708 607 453.5 102335.0
709 82 75.5 102410.5
710 73 59.0 102469.5
711 81 68.5 102538.0
712 438 283.0 102821.0
713 156 128.5 102949.5
714 607 476.5 103426.0
715 700 365.5 103791.5
716 101 69.5 103861.0
717 80 74.5 103935.5
718 700 572.5 104508.0
719 638 419.0 104927.0
720 82 61.5 104988.5
721 700 468.5 105457.0
722 176 107.0 105564.0
723 73 70.0 105634.0
724 700 442.5 106076.5
725 700 522.5 106599.0
726 151 105.5 106704.5
727 124 86.0 106790.5
728 700 542.5 107333.0
729 207 152.5 107485.5
730 117 108.5 107594.0
731 185 149.0 107743.0
732 447 330.5 108073.5
733 700 573.5 108647.0
734 132 115.5 108762.5
735 422 343.5 109106.0
736 137 111.5 109217.5
737 56 55.0 109272.5
738 65 63.5 109336.0
739 244 176.0 109512.0
740 298 225.0 109737.0
741 478 368.0 110105.0
742 181 102.5 110207.5
743 234 175.0 110382.5
744 109 73.5 110456.0
745 110 96.0 110552.0
746 152 123.5 110675.5
747 60 59.0 110734.5
748 700 472.0 111206.5
749 700 491.5 111698.0
750 403 286.5 111984.5
751 103 65.0 112049.5
752 700 516.0 112565.5
753 217 159.0 112724.5
754 88 79.0 112803.5
755 117 99.5 112903.0
756 304 208.0 113111.0
757 172 139.0 113250.0
758 136 88.0 113338.0
759 700 454.5 113792.5
760 124 88.0 113880.5
761 70 64.5 113945.0
762 148 118.5 114063.5
763 700 417.5 114481.0
764 700 456.5 114937.5
765 372 243.0 115180.5
766 211 142.5 115323.0
767 578 383.0 115706.0
768 700 484.5 116190.5
769 299 185.0 116375.5
770 468 310.0 116685.5
771 110 80.0 116765.5
772 98 69.5 116835.0
773 312 261.5 117096.5
774 1 1.0 117097.5
775 700 415.0 117512.5
776 700 522.0 118034.5
777 78 73.5 118108.0
778 1 1.0 118109.0
779 124 73.0 118182.0
780 123 96.0 118278.0
781 110 89.0 118367.0
782 58 43.0 118410.0
783 398 291.0 118701.0
784 444 382.5 119083.5
785 163 133.0 119216.5
786 243 207.5 119424.0
787 700 449.5 119873.5
788 247 222.0 120095.5
789 122 94.0 120189.5
790 680 533.0 120722.5
791 700 465.5 121188.0
792 633 382.0 121570.0
793 178 119.0 121689.0
794 518 306.5 121995.5
795 154 75.0 122070.5
796 493 233.0 122303.5
797 575 429.5 122733.0
798 1 1.0 122734.0
799 639 435.5 123169.5
800 543 354.5 123524.0
801 489 377.0 123901.0
802 681 455.0 124356.0
803 184 116.0 124472.0
804 254 172.0 124644.0
805 133 103.5 124747.5
806 582 448.0 125195.5
807 277 198.5 125394.0
808 83 58.0 125452.0
809 129 84.0 125536.0
810 90 79.5 125615.5
811 126 86.5 125702.0
812 248 174.5 125876.5
813 180 139.5 126016.0
814 195 116.0 126132.0
815 74 64.0 126196.0
816 211 154.0 126350.0
817 699 532.5 126882.5
818 213 131.5 127014.0
819 700 529.5 127543.5
820 143 77.0 127620.5
821 657 471.5 128092.0
822 286 228.0 128320.0
823 700 516.0 128836.0
824 123 92.5 128928.5
825 209 166.0 129094.5
826 102 73.5 129168.0
827 143 127.0 129295.0
828 700 508.0 129803.0
829 700 492.0 130295.0
830 502 365.0 130660.0
831 686 495.5 131155.5
832 700 511.0 131666.5
833 112 87.5 131754.0
834 243 170.0 131924.0
835 154 96.0 132020.0
836 313 243.5 132263.5
837 700 425.5 132689.0
838 433 300.0 132989.0
839 700 480.5 133469.5
840 349 244.0 133713.5
841 141 114.5 133828.0
842 155 122.5 133950.5
843 294 204.5 134155.0
844 173 89.5 134244.5
845 700 527.5 134772.0
846 272 164.0 134936.0
847 134 110.0 135046.0
848 198 135.0 135181.0
849 89 89.0 135270.0
850 116 103.5 135373.5
851 700 539.0 135912.5
852 700 454.5 136367.0
853 126 88.5 136455.5
854 700 491.0 136946.5
855 238 162.5 137109.0
856 107 97.5 137206.5
857 135 118.0 137324.5
858 91 65.5 137390.0
859 117 73.0 137463.0
860 149 125.0 137588.0
861 146 106.5 137694.5
862 700 477.0 138171.5
863 700 525.0 138696.5
864 110 110.0 138806.5
865 465 336.5 139143.0
866 112 94.0 139237.0
867 700 490.5 139727.5
868 91 83.5 139811.0
869 700 505.0 140316.0
870 395 267.5 140583.5
871 700 505.5 141089.0
872 66 62.0 141151.0
873 424 313.0 141464.0
874 390 306.0 141770.0
875 92 78.0 141848.0
876 100 82.5 141930.5
877 126 90.0 142020.5
878 525 399.0 142419.5
879 700 470.5 142890.0
880 55 53.0 142943.0
881 144 125.5 143068.5
882 700 523.0 143591.5
883 150 122.5 143714.0
884 599 479.0 144193.0
885 700 515.5 144708.5
886 106 84.0 144792.5
887 296 234.0 145026.5
888 289 140.5 145167.0
889 42 42.0 145209.0
890 147 116.5 145325.5
891 37 36.0 145361.5
892 85 64.5 145426.0
893 1 1.0 145427.0
894 242 177.0 145604.0
895 179 147.5 145751.5
896 104 78.5 145830.0
897 183 120.0 145950.0
898 1 1.0 145951.0
899 68 46.0 145997.0
900 700 478.0 146475.0
901 700 509.0 146984.0
902 71 56.5 147040.5
903 128 97.0 147137.5
904 158 113.0 147250.5
905 84 77.0 147327.5
906 294 217.0 147544.5
907 128 57.0 147601.5
908 558 427.5 148029.0
909 531 358.0 148387.0
910 196 156.5 148543.5
911 700 532.5 149076.0
912 256 174.5 149250.5
913 125 73.0 149323.5
914 699 466.0 149789.5
915 56 54.5 149844.0
916 519 308.5 150152.5
917 76 64.5 150217.0
918 366 287.5 150504.5
919 119 91.5 150596.0
920 200 134.0 150730.0
921 113 97.0 150827.0
922 700 428.0 151255.0
923 587 390.0 151645.0
924 273 162.5 151807.5
925 263 184.0 151991.5
926 422 274.5 152266.0
927 119 102.5 152368.5
928 700 417.0 152785.5
929 80 59.0 152844.5
930 627 425.5 153270.0
931 261 177.5 153447.5
932 89 71.0 153518.5
933 565 331.5 153850.0
934 167 110.5 153960.5
935 187 139.0 154099.5
936 391 280.0 154379.5
937 137 118.0 154497.5
938 492 350.5 154848.0
939 278 207.5 155055.5
940 144 117.5 155173.0
941 119 76.0 155249.0
942 75 71.5 155320.5
943 128 82.5 155403.0
944 116 79.0 155482.0
945 580 473.5 155955.5
946 336 209.0 156164.5
947 536 392.0 156556.5
948 89 62.0 156618.5
949 445 307.5 156926.0
950 216 154.0 157080.0
951 148 105.0 157185.0
952 154 138.5 157323.5
953 700 438.0 157761.5
954 578 438.5 158200.0
955 135 100.5 158300.5
956 700 508.0 158808.5
957 78 66.5 158875.0
958 107 96.5 158971.5
959 173 114.5 159086.0
960 88 64.5 159150.5
961 111 94.0 159244.5
962 321 271.5 159516.0
963 117 102.0 159618.0
964 595 415.5 160033.5
965 89 70.0 160103.5
966 118 92.5 160196.0
967 484 357.0 160553.0
968 360 267.5 160820.5
969 139 130.0 160950.5
970 220 177.5 161128.0
971 127 99.5 161227.5
972 49 47.0 161274.5
973 147 67.0 161341.5
974 120 79.5 161421.0
975 189 138.5 161559.5
976 700 533.0 162092.5
977 700 515.0 162607.5
978 369 260.5 162868.0
979 83 71.0 162939.0
980 629 463.0 163402.0
981 284 195.5 163597.5
982 192 133.0 163730.5
983 421 309.0 164039.5
984 700 539.5 164579.0
985 89 69.0 164648.0
986 301 159.5 164807.5
987 187 139.0 164946.5
988 98 81.5 165028.0
989 86 79.0 165107.0
990 245 178.0 165285.0
991 71 66.0 165351.0
992 258 200.0 165551.0
993 101 99.0 165650.0
994 301 235.0 165885.0
995 182 145.5 166030.5
996 1 1.0 166031.5
997 96 85.0 166116.5
998 131 95.5 166212.0
999 358 294.5 166506.5
1000 700 452.0 166958.5
