0 [0.0, 0.0, 0.0, 0.0, 0.0, 0.0, 0.0, 0.0]
1 [0.0, 0.0, 0.0, 0.0, 0.0, 0.0, 0.0, 0.0]
2 [0.0, 0.0, 0.0, 0.0, 0.0, 0.0, 0.0, 0.0]
3 [0.08548901, 0.157489, 0.157489, 0.13948901, 0.10351099, 0.10251099, 0.10151099, 0.10151099]
4 [0.08548901, 0.157489, 0.157489, 0.13948901, 0.10351099, 0.10251099, 0.10151099, 0.10151099]
5 [0.08562637, 0.15662637, 0.15662637, 0.14362638, 0.10437363, 0.103373624, 0.100373626, 0.100373626]
6 [0.08451099, 0.4858443, 0.9868443, 0.97984433, 0.9408223, 0.43882236, 0.37784433, 0.93382233]
7 [0.08451099, 0.15251099, 0.903511, 0.89651096, 0.10748901, 0.10548901, 0.04451099, 0.10048901]
8 [0.08637912, 0.6503791, 0.9847124, 0.9847124, 0.9419542, 0.60562086, 0.6016209, 0.5966209]
9 [0.08637912, 0.30422527, 1.0744561, 1.0744561, 1.0316978, 0.105620876, 0.25546706, 0.25046706]
10 [0.08432967, 0.14332967, 1.0203297, 1.0203297, 0.11367033, 0.10967033, 0.10367034, 0.09367032]
11 [0.084285714, 0.20638096, 1.0837301, 1.0847301, 1.0661587, 0.11271429, 0.27038094, 0.25338095]
12 [0.084285714, 0.039714288, 0.13928571, 0.14028572, 0.12171428, 0.11271429, 0.10371427, 0.08671429]
13 [0.0800055, 0.03800549, 0.12700549, 0.12900549, 0.1349945, 0.12299451, 0.1089945, 0.07699451]
14 [0.078450546, 0.042450543, 0.09953846, 1.114956, 1.0145495, 0.12354944, 0.12353846, 0.10353845]
15 [0.08098351, 0.04698352, 0.07001647, 0.11998352, 0.13801648, 0.13401648, 0.11101648, 0.08901648]
16 [0.08098351, 0.04698352, 0.07001647, 0.8699835, 0.88801646, 0.13401648, 0.11101648, 0.08901648]
17 [0.07979121, 0.048791207, 0.053208802, 0.11379121, 0.11879121, 0.13720879, 0.11520879, 0.09020879]
18 [0.07979121, 0.048791207, 0.053208802, 0.11379121, 0.11879121, 0.13720879, 0.11520879, 0.09020879]
19 [0.08329671, 0.0522967, 0.04470329, 0.11629671, 0.122296706, 0.1337033, 0.11270329, 0.8127033]
20 [0.14575824, 0.11575824, 0.10524175, 1.0537583, 1.0597582, 1.0702418, 0.17524177, 0.87524176]
21 [0.08325825, 0.05325824, 0.042741753, 0.11625824, 0.122258246, 0.13274176, 0.11274176, 0.81274176]
22 [0.30339804, 0.05117582, 0.041824173, 1.0010648, 1.0080647, 1.0237131, 0.3360464, 0.97771305]
23 [0.08117583, 0.05117582, 0.041824173, 0.9871758, 0.99417585, 0.13482419, 0.113824174, 0.088824175]
24 [0.07753847, 0.049538467, 0.039461542, 0.108538456, 0.11453846, 0.13646154, 0.11446154, 0.09246154]
25 [0.07753847, 0.049538467, 0.039461542, 0.108538456, 0.11453846, 0.13646154, 0.11446154, 0.09246154]
26 [0.07753847, 0.049538467, 0.039461542, 0.108538456, 0.11453846, 0.13646154, 0.11446154, 0.09246154]
27 [0.07557143, 0.04857143, 0.031428564, 0.85742855, 0.86642855, 1.0864285, 1.0614285, 0.09542857]
28 [0.07557143, 0.04857143, 0.031428564, 0.107428566, 0.11642858, 0.13642858, 0.11142858, 0.09542857]
29 [0.07557143, 0.04857143, 0.031428564, 0.107428566, 0.11642858, 0.13642858, 0.11142858, 0.09542857]
30 [0.07223626, 0.047236264, 0.024763739, 0.08876373, 0.99676377, 0.13476373, 0.13176373, 0.09876374]
31 [0.07223626, 0.047236264, 0.024763739, 0.08876373, 0.12176374, 0.13476373, 0.13176373, 0.09876374]
32 [0.9987472, 0.045175824, 0.021824172, 0.07982418, 0.8768242, 1.0347472, 1.0623956, 1.0303956]
33 [0.07017583, 0.045175824, 0.021824172, 0.07982418, 0.12682419, 0.106175825, 0.13382417, 0.10182418]
34 [0.06725275, 0.044252746, 0.019747254, 0.074747264, 0.12474726, 0.103252746, 0.13474725, 0.10474726]
35 [0.9412747, 0.043274723, 0.01772528, 0.06772527, 0.79339194, 0.93460804, 0.9660586, 0.93705857]
36 [0.063521974, 0.041521974, 0.016478019, 0.062478025, 0.13147803, 0.09852198, 0.12947804, 0.099478014]
37 [0.43852198, 0.041521974, 0.016478019, 0.062478025, 1.0064781, 0.47352198, 0.12947804, 0.099478014]
38 [0.4607198, 0.039719786, 0.014719785, 0.05628023, 0.5232802, 1.0322802, 1.0282801, 0.9962802]
39 [0.9563681, 0.036368135, 0.0136318635, 0.050631866, 0.10963188, 1.0356319, 1.0246319, 1.0206318]
40 [0.4313681, 0.036368135, 0.0136318635, 0.050631866, 0.9846319, 0.51063186, 0.12463187, 0.120631866]
41 [0.9291264, 0.03412638, 0.013126373, 0.04587363, 0.096873626, 1.0128736, 0.96812636, 0.99387366]
42 [0.054126374, 0.03412638, 0.013126373, 0.04587363, 0.096873626, 0.13787363, 0.09312637, 0.11887363]
43 [0.23186214, 0.21286215, 0.013956047, 0.04595604, 0.094956055, 1.0500469, 0.9991349, 1.0551349]
44 [0.42574176, 0.03274176, 0.0117417555, 0.041258242, 0.96025825, 1.0142583, 0.96574175, 0.98825824]
45 [0.05074176, 0.03274176, 0.0117417555, 0.041258242, 0.08525824, 0.13925824, 0.09074176, 0.113258235]
46 [0.08271246, 0.06471246, 0.011379117, 0.03962088, 0.08162088, 1.1229542, 0.12371245, 1.0939542]
47 [0.9243791, 0.031379122, 0.011379117, 0.03962088, 0.45662087, 0.5146209, 0.09037912, 0.11062087]
48 [0.9243791, 0.031379122, 0.011379117, 0.03962088, 0.45662087, 0.5146209, 0.09037912, 0.11062087]
49 [0.14963737, 0.13163736, 0.012637357, 0.036362633, 0.07636264, 1.1070293, 0.18963736, 1.0720292]
