0.8999998 -0.7499997
0.8999998 -0.7499997
0.90017015 -0.7497735
0.9004852 -0.74994206
0.90054256 -0.7495224
0.90068114 -0.7487528
0.9007794 -0.7478722
0.89591837 -0.7468187
0.89330596 -0.74601716
0.89330596 -0.74601716
0.88743794 -0.7437223
0.88521194 -0.74209654
0.88542634 -0.739998
0.88519466 -0.7381069
0.8839048 -0.7359589
0.8839048 -0.7359589
0.8833257 -0.7351716
0.88326186 -0.73537016
0.88326186 -0.73537016
0.88290846 -0.73497045
0.88253707 -0.73416984
0.88253707 -0.73416984
0.8837228 -0.732395
0.8854834 -0.73037934
0.8854834 -0.73037934
0.88865125 -0.7261058
0.88865125 -0.7261058
0.8893048 -0.7241
0.8892764 -0.72273374
0.8892764 -0.72273374
0.88919544 -0.7214063
0.8879529 -0.7209022
0.8860084 -0.7211311
0.88408357 -0.72184235
0.8799589 -0.72338855
0.87569845 -0.7250203
0.87569845 -0.7250203
0.87376845 -0.72596854
0.871806 -0.72693974
0.870547 -0.72764266
0.8647674 -0.73258173
0.8647674 -0.73258173
0.8589231 -0.7379907
0.85554296 -0.740865
0.85133636 -0.74380845
0.8504485 -0.7442192
0.85036343 -0.74422514
0.85036343 -0.74422514
0.8486953 -0.7443535
0.8484448 -0.74299854
0.84897137 -0.7406596
0.8476327 -0.74010867
0.8476327 -0.74010867
0.84510005 -0.74250185
0.84215224 -0.7455041
0.83928573 -0.7481391
0.8339613 -0.7515136
0.83106583 -0.75402564
0.83106583 -0.75402564
0.8285351 -0.75559574
0.8264734 -0.7564776
0.8234521 -0.75915325
0.8200369 -0.7639176
0.8200369 -0.7639176
0.8200369 -0.7639176
0.81708586 -0.76821125
0.8146663 -0.7723791
0.8129097 -0.7767092
0.8114136 -0.7805563
0.8114136 -0.7805563
0.81030977 -0.783459
0.8093071 -0.7865823
0.8093071 -0.7865823
0.80810755 -0.7919452
0.80728674 -0.7984115
0.80669403 -0.8029906
0.80669403 -0.8029906
0.80637914 -0.80663383
0.80651534 -0.8121874
0.80651534 -0.8121874
0.8065673 -0.8192855
0.8064984 -0.8242938
0.8064984 -0.8242938
0.80663455 -0.8301818
0.80697215 -0.837797
0.8077056 -0.84539145
0.8077056 -0.84539145
0.8085405 -0.85322917
0.80913657 -0.8590845
0.8096396 -0.86348
0.8096396 -0.86348
0.8097292 -0.8660041
0.80967057 -0.8678373
0.80967057 -0.8678373
0.8099559 -0.87222004
0.81049854 -0.87793887
0.8112625 -0.8834565
0.8112625 -0.8834565
0.8122916 -0.8910592
0.81380403 -0.9001843
0.8154774 -0.9087607
0.8154774 -0.9087607
0.8154774 -0.9087607
0.8179971 -0.9228363
0.8179971 -0.9228363
0.8216876 -0.94148266
0.8216876 -0.94148266
0.82425594 -0.9516269
0.82546073 -0.9575871
0.82546073 -0.9575871
0.8275364 -0.964928
0.83110046 -0.9757783
0.83110046 -0.9757783
0.8362707 -0.98939914
0.8424345 -1.0039716
0.8424345 -1.0039716
0.85326797 -1.0272408
0.85326797 -1.0272408
0.85970765 -1.040823
0.86105335 -1.0442814
0.8613268 -1.0465095
0.86122096 -1.0465688
0.8611787 -1.0465329
0.86117065 -1.046499
0.86127627 -1.0465877
0.86160773 -1.0497066
0.86372423 -1.0547209
0.8666972 -1.0610937
0.8671893 -1.0621626
0.86747724 -1.062812
0.8689944 -1.0652993
0.8723645 -1.0703576
0.8801465 -1.0822049
0.8833338 -1.0872808
0.8876387 -1.0955324
0.8887083 -1.0986168
0.89398986 -1.1082268
0.8974554 -1.1133541
0.9025974 -1.1206944
0.904189 -1.1230191
0.90310925 -1.1249473
0.90331984 -1.1262313
0.9041877 -1.1280607
0.90589845 -1.1310328
0.9066762 -1.1319373
0.90847987 -1.1353618
0.90928906 -1.1375512
0.9066367 -1.1407714
0.90606594 -1.1422293
0.906013 -1.1438425
0.90536433 -1.1468576
0.905213 -1.1480355
0.905886 -1.1506313
0.90908325 -1.1517807
0.92345 -1.1535214
0.93175906 -1.15394
0.93965894 -1.154789
0.9417162 -1.1549165
0.952892 -1.1537025
0.952892 -1.1537025
0.9639205 -1.1525478
0.9640173 -1.1526455
0.96403265 -1.1526835
0.9641212 -1.1527749
0.9645977 -1.153009
0.9669015 -1.1541969
0.9684106 -1.1552079
0.97255623 -1.1576223
0.97714585 -1.1579345
0.9865073 -1.1567208
0.99070394 -1.1556048
0.9981249 -1.1524072
1.0044543 -1.1489971
1.0115082 -1.1446561
1.020664 -1.1385437
1.0243374 -1.1354821
1.0295948 -1.1300668
1.0306659 -1.1284779
1.0311911 -1.1270739
1.0312078 -1.1263427
1.0314028 -1.1237409
1.0310758 -1.1219317
1.0301565 -1.1199478
1.029682 -1.1151127
1.0291811 -1.1127374
1.0275946 -1.1069624
1.0266585 -1.1034281
1.0246098 -1.0965164
1.0237526 -1.0933723
1.0221863 -1.0853987
1.021456 -1.0805364
1.0204427 -1.0707113
1.0203239 -1.0659366
1.0190877 -1.0602648
1.017332 -1.0475506
1.0187224 -1.0434438
1.0260673 -1.0435824
1.0307453 -1.047374
1.0391527 -1.0600834
1.0430639 -1.0697474
1.0488306 -1.0883882
1.0508949 -1.094971
1.0524068 -1.1004055
1.055366 -1.1103554
1.0567739 -1.1152679
1.0585501 -1.124185
1.059417 -1.1288627
1.0595856 -1.1423818
1.0593208 -1.1476365
1.0582284 -1.1587708
1.0558075 -1.1671963
1.0475467 -1.1865312
1.043288 -1.1947196
1.039355 -1.2016618
1.0327361 -1.21203
1.0310537 -1.215131
1.0292485 -1.2202326
1.0285511 -1.2222011
1.0274135 -1.224539
1.0269661 -1.2249887
1.0217417 -1.2283771
1.015808 -1.2322091
1.0006964 -1.2418058
0.99466056 -1.2462407
0.9893858 -1.2494874
0.9742692 -1.2587106
0.966146 -1.2641053
0.94297284 -1.2785685
0.92743987 -1.287967
0.895079 -1.3063763
0.88121116 -1.3140833
0.8612973 -1.3248947
0.85207623 -1.3301821
0.8428935 -1.3356792
0.8249531 -1.3471377
0.8162324 -1.352638
0.8004649 -1.3630602
0.79347575 -1.3676273
0.7797269 -1.3753698
0.7728351 -1.3780448
0.7589125 -1.3808645
0.75199234 -1.3812542
0.7428166 -1.3823446
0.7379493 -1.3828133
0.7329774 -1.3834884
0.7198483 -1.383019
0.71375203 -1.3819792
0.7030704 -1.3786527
0.6989279 -1.3768455
0.6937644 -1.3744423
0.6927441 -1.3739519
0.6923152 -1.3735197
0.6907568 -1.3719996
0.6870087 -1.3688502
0.67512596 -1.3591287
0.6726878 -1.357031
0.6692393 -1.3548272
0.66587216 -1.3524262
0.65002644 -1.3402779
0.63885427 -1.3319895
0.61641914 -1.3154323
0.60521936 -1.3072689
0.5821014 -1.2890438
0.5709694 -1.2789302
0.5599111 -1.2677941
0.5376699 -1.2439625
0.52556044 -1.2302183
0.502703 -1.2007538
0.49455294 -1.189255
0.4843387 -1.1750121
0.4843387 -1.1750121
0.47412705 -1.1629591
0.47160035 -1.1601495
0.4670047 -1.1556425
0.46470505 -1.1536732
0.46292982 -1.1521033
0.45944905 -1.149718
0.45751682 -1.1494839
0.45386648 -1.1486377
0.4524158 -1.1498569
0.44936442 -1.1536582
0.44812694 -1.1556838
0.44644755 -1.154499
0.44597688 -1.1521986
0.44564605 -1.1506675
0.4445072 -1.15184
0.4435622 -1.1526278
0.44007644 -1.1549027
0.4376301 -1.1557376
0.43349528 -1.1565655
0.4323 -1.1559715
0.43214312 -1.1506248
0.43180433 -1.1480048
0.431887 -1.1427402
0.4322824 -1.1403291
0.4324965 -1.1376187
0.4333195 -1.1327045
0.4341406 -1.131098
0.4345656 -1.1299735
0.4345754 -1.129098
0.4376405 -1.1228476
0.43959445 -1.1194698
0.44140992 -1.1163391
0.4414874 -1.1161847
0.44146547 -1.1162121
0.44145226 -1.1162261
0.44144422 -1.1162368
0.44143224 -1.1162506
0.44190198 -1.115919
0.44413105 -1.1147555
0.44742265 -1.1116064
0.45597547 -1.1039356
0.4593522 -1.1014869
0.46366006 -1.0984769
0.4647437 -1.0978043
0.46602744 -1.0967407
0.47151566 -1.0909997
0.47275347 -1.0898299
0.4769997 -1.0853776
0.48164544 -1.0793955
0.49280086 -1.064114
0.49880615 -1.0559543
0.51174444 -1.0375397
0.51750815 -1.0283623
0.52622664 -1.013654
0.530374 -1.0066497
0.5345849 -0.9983317
0.5412503 -0.9786539
0.54338753 -0.96745795
0.5451794 -0.94140816
0.54506147 -0.9291086
0.5441737 -0.9123308
0.5434914 -0.9019677
0.53967655 -0.8738648
0.5362882 -0.8585352
0.53199387 -0.84248006
0.52508175 -0.8186342
0.52182865 -0.80990297
0.5166069 -0.79316425
0.515761 -0.7889675
0.5142276 -0.7805364
0.51351595 -0.7760292
0.5116404 -0.7685068
0.5101659 -0.7640569
0.5099413 -0.7585438
0.5103044 -0.7568497
0.510733 -0.75586104
0.50935817 -0.7529682
0.5076451 -0.7498858
0.49994436 -0.7394084
0.49523258 -0.73344314
0.48858842 -0.72382057
0.485974 -0.7200724
0.48068172 -0.7120508
0.47837082 -0.7088993
0.47522956 -0.7054236
0.46763372 -0.69762534
0.4643848 -0.69460845
0.4603302 -0.6910275
0.45755428 -0.68925506
0.4453458 -0.68236417
0.43792748 -0.67819995
0.4285338 -0.6724609
0.42587695 -0.6707905
0.4216241 -0.6682605
0.41622144 -0.66602635
0.40779796 -0.662975
0.38056004 -0.65476215
0.36212465 -0.6498046
0.3239633 -0.63999146
0.30514848 -0.6351105
0.26819223 -0.6261533
0.24961337 -0.621786
0.21958974 -0.6148032
0.2080857 -0.6121045
0.18749885 -0.60685545
0.18227044 -0.6052722
0.17657879 -0.603568
0.1589447 -0.5990294
0.15494195 -0.5977594
0.15254205 -0.59667826
0.15039371 -0.59615266
0.13745704 -0.5941473
0.1322411 -0.5934916
0.122726716 -0.5922891
0.11496575 -0.5912174
0.10707748 -0.58994853
0.09099097 -0.5867971
0.082852945 -0.5850427
0.06744664 -0.5813347
0.06097846 -0.5801414
0.05068346 -0.5791015
0.046266206 -0.5789441
0.036502257 -0.5785953
0.032247066 -0.5787395
0.024107646 -0.57906353
0.019504065 -0.5790299
0.014836994 -0.578866
0.0065915263 -0.5787774
0.0017524001 -0.5799142
-0.013063152 -0.58618134
-0.021537917 -0.59058285
-0.038452543 -0.60057783
-0.048043087 -0.60800064
-0.06811307 -0.627068
-0.077778615 -0.6377741
-0.08683512 -0.6489037
-0.101932324 -0.6699958
-0.101932324 -0.6699958
