0 [1.0, 1.0, 1.0, 1.0, 1.0, 1.0, 1.0, 1.0]
1 [1.0, 1.0, 1.0, 1.0, 1.0, 1.0, 1.0, 1.0]
2 [1.0, 1.0, 1.0, 1.0, 1.0, 1.0, 1.0, 1.0]
3 [1.0, 1.0, 1.0, 1.0, 1.0, 1.0, 1.0, 1.0]
4 [1.0, 1.0, 1.0, 1.0, 1.0, 1.0, 1.0, 1.0]
5 [1.0, 1.0, 1.0, 1.0, 1.0, 1.0, 1.0, 1.0]
6 [1.0, 1.0, 1.0, 1.0, 1.0, 1.0, 1.0, 1.0]
7 [1.0, 1.0, 1.0, 1.0, 1.0, 1.0, 1.0, 1.0]
8 [1.0, 1.0, 1.0, 1.0, 1.0, 1.0, 1.0, 1.0]
9 [1.0, 1.0, 1.0, 1.0, 1.0, 1.0, 1.0, 1.0]
10 [1.0, 1.0, 1.0, 1.0, 1.0, 1.0, 1.0, 1.0]
11 [1.0, 1.0, 1.0, 1.0, 1.0, 1.0, 1.0, 1.0]
12 [1.0, 1.0, 1.0, 1.0, 1.0, 1.0, 1.0, 1.0]
13 [1.0, 1.0, 1.0, 1.0, 1.0, 1.0, 1.0, 1.0]
14 [1.0, 1.0, 1.0, 1.0, 1.0, 1.0, 1.0, 1.0]
15 [1.0, 1.0, 1.0, 1.0, 1.0, 1.0, 1.0, 1.0]
16 [1.0, 1.0, 1.0, 1.0, 1.0, 1.0, 1.0, 1.0]
17 [1.0, 1.0, 1.0, 1.0, 1.0, 1.0, 1.0, 1.0]
18 [1.6962347, 1.0942252, 1.0002335, 1.0, 1.0, 1.0, 1.0, 1.0]
19 [1.5873861, 1.0794941, 1.000197, 1.0, 1.0, 1.0, 1.0, 1.0]
20 [1.4476575, 1.0605838, 1.0003837, 1.0942116, 1.6961346, 1.0942116, 1.0002335, 1.0]
21 [1.3382202, 1.0457731, 1.0003105, 1.0794941, 1.5873861, 1.0794941, 1.000197, 1.0]
22 [1.255635, 1.0345964, 1.0002359, 1.0605838, 1.4476575, 1.0605838, 1.0001502, 1.0]
23 [1.1932056, 1.0261475, 1.0001785, 1.0458189, 1.3385584, 1.0458189, 1.0001136, 1.0]
24 [1.1458757, 1.0197421, 1.0001347, 1.0345964, 1.255635, 1.0345964, 1.0000857, 1.0]
25 [0.31408757, 0.90717185, 0.9998347, 1.0261475, 1.1932056, 1.0261475, 1.0000648, 1.0]
26 [0.3921312, 0.9177339, 0.9998451, 1.0197619, 1.1460217, 1.0197619, 1.000049, 1.0]
27 [0.53560245, 0.9371506, 0.9996141, 0.90717185, 0.31408757, 0.90717185, 0.9997699, 1.0]
28 [0.6486883, 0.95245516, 0.99967825, 0.9177339, 0.3921312, 0.9177339, 0.9997961, 1.0]
29 [0.7347298, 0.9640996, 0.9997552, 0.9371506, 0.53560245, 0.9371506, 0.9998442, 1.0]
30 [0.7995119, 0.9728669, 0.9998149, 0.95245516, 0.6486883, 0.95245516, 0.99988216, 1.0]
31 [0.8484743, 0.9794932, 0.9998601, 0.9642972, 0.8286896, 1.6602983, 1.0941361, 1.0002335]
32 [0.8855938, 0.9845168, 0.9998944, 0.97306377, 0.878933, 1.5597138, 1.0793538, 1.0001968]
33 [0.9135336, 0.98829806, 1.0001537, 1.0738684, 1.6052327, 1.5209312, 1.0607064, 1.00015]
34 [0.9346501, 0.99115586, 1.0001365, 1.0640359, 1.5180994, 1.4021428, 1.0459315, 1.0001135]
35 [0.950659, 0.99332243, 1.0001044, 1.0489074, 1.3953085, 1.3042014, 1.0346828, 1.0000857]
36 [0.9627089, 0.9949532, 1.000079, 1.0369937, 1.2989918, 1.2299415, 1.0262129, 1.0000647]
37 [0.971816, 0.9961857, 1.0000597, 1.0279611, 1.2259867, 1.173788, 1.0198113, 1.000049]
38 [0.97872025, 0.9971201, 1.0000451, 1.0208443, 1.0628301, 0.3346955, 0.9071609, 0.99976975]
39 [1.0, 1.0, 1.000049, 1.0195384, 1.0636823, 0.4124108, 0.91785556, 0.9997963]
40 [1.0, 1.0, 0.9997626, 0.9040731, 0.229554, 0.4402912, 0.9369755, 0.9998444]
41 [1.0, 1.0, 0.9997963, 0.9178066, 0.39266866, 0.9178066, 0.9997963, 1.0]
42 [1.0, 1.0, 0.9998442, 0.93706167, 0.49970207, 0.6718805, 0.9639438, 0.999911]
43 [1.0, 1.0, 0.9998823, 0.95243543, 0.6219332, 0.7522149, 0.9727763, 0.9999328]
44 [1.0, 1.0, 0.999911, 0.9640488, 0.71424353, 0.81272537, 0.9794247, 0.9999492]
45 [1.0, 1.0, 0.99993277, 0.9728285, 0.7840287, 0.85846066, 0.98444957, 0.9999616]
46 [1.0, 1.0, 0.9999492, 0.97948474, 0.8369355, 0.89313376, 0.98825896, 0.99997103]
47 [1.0, 1.0, 0.9999617, 0.9845104, 0.87687284, 0.91924775, 0.99112636, 0.9999781]
48 [1.0, 1.0, 0.99997103, 0.98829323, 0.90694916, 0.9390181, 0.99330014, 0.9999835]
49 [1.0, 1.0, 0.9999781, 0.99116105, 0.929744, 0.9539569, 0.9949414, 0.99998754]
