-1.1499999 0.7250001
-1.1499999 0.7250001
-1.1499999 0.7250001
-1.1499999 0.7250001
-1.1499999 0.7250001
-1.1499999 0.7250001
-1.1501193 0.7248304
-1.1503443 0.72505295
-1.1504023 0.7246213
-1.1507952 0.7228333
-1.1510923 0.7212897
-1.1506423 0.7175106
-1.1491255 0.71636134
-1.1445615 0.71548015
-1.1421188 0.7158848
-1.1376644 0.7178479
-1.1360964 0.71917826
-1.1354524 0.7220744
-1.1364202 0.72372997
-1.1384422 0.72539794
-1.1454042 0.7280904
-1.1499327 0.72921497
-1.1572255 0.73154795
-1.1601336 0.732499
-1.1638525 0.7336042
-1.1654361 0.73378605
-1.1676297 0.7327459
-1.1683719 0.73245275
-1.1689109 0.7321011
-1.1688664 0.73086905
-1.1689407 0.7304431
-1.169146 0.73022974
-1.1690221 0.7300846
-1.1674161 0.729087
-1.1640481 0.72828436
-1.1585141 0.72697014
-1.1577672 0.7259368
-1.157253 0.7249055
-1.1488546 0.7245677
-1.1436143 0.7248499
-1.1367831 0.72477067
-1.1312335 0.7253884
-1.123257 0.72604036
-1.120921 0.7263322
-1.1185043 0.7265994
-1.1153157 0.727201
-1.1015038 0.7310368
-1.0921168 0.73425657
-1.0828917 0.73777735
-1.065485 0.7461802
-1.0572686 0.75049525
-1.0463359 0.7571102
-1.0427959 0.75929344
-1.038149 0.7620963
-1.0370588 0.762688
-1.0373949 0.7628667
-1.0380228 0.763111
-1.0385817 0.764699
-1.0390017 0.7662345
-1.0396483 0.7681906
-1.0426055 0.7717733
-1.0430808 0.77317715
-1.0375001 0.77535486
-1.0330938 0.77601594
-1.0267714 0.77659905
-1.0245512 0.77668405
-1.020957 0.7761798
-1.0200055 0.77531314
-1.0212528 0.77468145
-1.0255706 0.7736468
-1.0280586 0.7729552
-1.0346076 0.770563
-1.0385926 0.7692178
-1.0431594 0.76537925
-1.0466225 0.7636415
-1.0501764 0.76104724
-1.0495263 0.7601768
-1.0419208 0.75981927
-1.0347354 0.7605301
-1.0262876 0.7618581
-1.009198 0.76642525
-1.0007374 0.7691288
-0.9925375 0.77206117
-0.984667 0.7752843
-0.984667 0.7752843
-0.975733 0.77910054
-0.966076 0.78292584
-0.966076 0.78292584
-0.95773566 0.7862239
-0.9485671 0.7891624
-0.93991965 0.7914159
-0.93318766 0.79315156
-0.927619 0.7945121
-0.91939336 0.79592335
-0.9159347 0.796059
-0.9099122 0.79532444
-0.90864295 0.79487795
-0.908501 0.7945834
-0.90851766 0.7945935
-0.907545 0.79398644
-0.9073741 0.7934297
-0.9004242 0.79132015
-0.89358485 0.7897541
-0.88501775 0.78790075
-0.8621888 0.78436697
-0.8554017 0.78308237
-0.8475984 0.7812464
-0.8448906 0.7806967
-0.8383277 0.77899915
-0.83205444 0.77854794
-0.81847763 0.77909845
-0.8122034 0.78031045
-0.8003518 0.78348976
-0.79481375 0.7854463
-0.789555 0.7877221
-0.7793541 0.79276896
-0.77470046 0.79535556
-0.76736057 0.80015576
-0.7642249 0.8024413
-0.7606282 0.80554247
-0.75940347 0.8064686
-0.7580584 0.8073025
-0.7580512 0.80729425
-0.75806475 0.80729264
-0.7581048 0.8072834
-0.7582331 0.8070213
-0.7592235 0.8055934
-0.76014245 0.80441666
-0.761973 0.80116904
-0.7618088 0.79977036
-0.76196975 0.7978388
-0.7618972 0.7973166
-0.7618597 0.79710996
-0.7617177 0.7973608
-0.7613893 0.7980068
-0.75332314 0.8003929
-0.74837554 0.8016119
-0.7440208 0.8030268
-0.7432939 0.8033438
-0.74077594 0.8033153
-0.7355625 0.8033391
-0.7192883 0.8034609
-0.7156434 0.80342835
-0.7151593 0.8032352
-0.71448 0.80265534
-0.71327275 0.80230045
-0.7109219 0.8010152
-0.7096217 0.7998931
-0.7074985 0.79663366
-0.70586073 0.794603
-0.704023 0.7909767
-0.70250964 0.7899068
-0.6931942 0.7905407
-0.6850089 0.79258573
-0.6756363 0.79562324
-0.6565435 0.80397165
-0.6470524 0.8089013
-0.62849647 0.81950176
-0.6196505 0.8248534
-0.6033476 0.8352175
-0.59611446 0.8400596
-0.58379376 0.84903747
-0.58079565 0.85306567
-0.58168477 0.8608745
-0.583799 0.8646687
-0.58630455 0.8684391
-0.5916308 0.8755026
-0.59437495 0.8789922
-0.59531885 0.8826521
-0.5926698 0.8824196
-0.58598244 0.87996036
-0.5827548 0.8779627
-0.57632035 0.8728186
-0.5721767 0.8693527
-0.56853896 0.86588514
-0.5630001 0.8592184
-0.5612436 0.8559597
-0.5608981 0.8520619
-0.5617514 0.8505603
-0.56626785 0.8464271
-0.57021606 0.8439415
-0.58141375 0.837558
-0.588444 0.8330208
-0.60546786 0.82059765
-0.6128709 0.81358325
-0.6195952 0.80649483
-0.63149697 0.7922641
-0.6361715 0.78573054
-0.64310163 0.77430755
-0.6455732 0.76974434
-0.64984334 0.7618797
-0.6519825 0.75837564
-0.6564793 0.7527614
-0.658887 0.75059783
-0.66420937 0.7474082
-0.6669501 0.74623215
-0.6695364 0.7450253
-0.6687416 0.7474955
-0.66446894 0.7518654
-0.6489831 0.76531315
-0.6416942 0.7716446
-0.63408375 0.77740914
-0.6289312 0.78100294
-0.6244514 0.78434026
-0.62396073 0.7844039
-0.6234311 0.78458774
-0.6225727 0.7857587
-0.6208275 0.7884068
-0.61070096 0.7987572
-0.6050379 0.80424166
-0.58857167 0.8177271
-0.57905537 0.8241997
-0.5594781 0.83619833
-0.5494741 0.8418908
-0.5310495 0.8508005
-0.5231031 0.85368526
-0.51589495 0.85589015
-0.5040809 0.85843265
-0.49955025 0.85924226
-0.49115562 0.85973036
-0.48349994 0.85924864
-0.47287434 0.85873336
-0.46923375 0.8582902
-0.46271572 0.8566588
-0.4601677 0.855573
-0.4581179 0.8543229
-0.45521274 0.8512085
-0.45423976 0.84952533
-0.44801956 0.844473
-0.44244537 0.8419921
-0.43223682 0.8372506
-0.42925906 0.83541745
-0.42400917 0.8314371
-0.42181635 0.8288897
-0.41698012 0.8229364
-0.41227302 0.821171
-0.40646774 0.82066023
-0.39281902 0.82416713
-0.38594761 0.82746553
-0.37369984 0.8357568
-0.3682461 0.8400855
-0.35573697 0.8522639
-0.35135025 0.85676783
-0.34062487 0.8718362
-0.33490828 0.8820013
-0.32523164 0.9036764
-0.32106566 0.9150814
-0.31724548 0.926751
-0.31071204 0.95065176
-0.30805916 0.962685
-0.30075964 0.9903638
-0.29606026 1.004339
-0.28378612 1.033098
-0.2761864 1.0482001
-0.25958514 1.0791597
-0.25095266 1.0948778
-0.24219327 1.1107738
-0.2253542 1.139862
-0.21967235 1.1498308
-0.20790882 1.1680465
-0.20195346 1.1764811
-0.18917744 1.1928413
-0.18295154 1.1998304
-0.1696603 1.2132499
-0.16274615 1.219572
-0.14969996 1.229619
-0.14389423 1.2331172
-0.13815968 1.235856
-0.12724158 1.2390381
-0.12186203 1.2397193
-0.11209669 1.2399
-0.10600449 1.2389371
-0.097456604 1.2379491
-0.09467601 1.237297
-0.08989905 1.2355638
-0.08813183 1.2344639
-0.08884346 1.233995
-0.090073474 1.2333
-0.088491686 1.2323086
-0.09137817 1.2317748
-0.091144726 1.2310884
-0.08743237 1.2283756
-0.08554576 1.2265484
-0.08319649 1.2235544
-0.08148668 1.222286
-0.07838039 1.2195122
-0.078654185 1.2183939
-0.07911174 1.2176378
-0.08058594 1.217069
-0.081136554 1.2163103
-0.08255313 1.213827
-0.083611384 1.2121025
-0.08681205 1.2074989
-0.08864987 1.2055621
-0.09307521 1.2005213
-0.09564887 1.1972764
-0.096765235 1.1941315
-0.09666779 1.1888812
-0.09638044 1.186964
-0.09548608 1.1845986
-0.095062636 1.1840965
-0.09442954 1.1843941
-0.09437532 1.1850617
-0.0947363 1.1873724
-0.09525637 1.1889427
-0.09607074 1.1917952
-0.09630884 1.1926576
-0.096346214 1.1931852
-0.094121955 1.1944778
-0.09134413 1.1953377
-0.08672553 1.1976411
-0.08501651 1.1989582
-0.07615705 1.2041612
-0.06881993 1.207993
-0.060652614 1.2139924
-0.058334447 1.2164611
-0.05561451 1.2192856
-0.05502199 1.2199595
-0.053183526 1.22049
-0.05177645 1.2208316
-0.051346194 1.220881
-0.050603658 1.2201267
-0.05087604 1.2192924
-0.053184908 1.2163012
-0.05507902 1.2141303
-0.059684772 1.2081594
-0.06358204 1.204582
-0.06797147 1.2010182
-0.07469647 1.1952164
-0.07691668 1.1932312
-0.0789402 1.1915362
-0.07797004 1.1922693
-0.07017544 1.197868
-0.06374345 1.202399
-0.051031996 1.2120799
-0.045457743 1.2168167
-0.037046596 1.2248547
-0.034016017 1.2286536
-0.03204846 1.2320476
-0.03046532 1.2370285
-0.027831137 1.239558
-0.021815073 1.2434155
-0.018916886 1.2445757
-0.013528067 1.2455732
-0.012704229 1.2454712
-0.011042858 1.2456616
-0.006541658 1.2464638
8.508374E-4 1.2475902
0.02612567 1.2504125
0.044076737 1.252137
0.081277184 1.2553732
0.09966735 1.257041
0.1356326 1.2620022
0.15136851 1.2647969
0.17957038 1.2709484
0.1938549 1.2735047
0.22212143 1.2785109
0.23535196 1.2809479
0.24640994 1.2828538
0.2666279 1.2877002
0.2748472 1.2901919
0.28761414 1.2950466
0.29229298 1.2971399
0.2997512 1.3012967
0.30263597 1.3034145
0.31268 1.3116703
0.3215895 1.3192621
0.34611863 1.340845
0.35840338 1.3521321
0.37205902 1.3645264
0.40091795 1.3884534
0.41386214 1.398196
0.4339726 1.4134716
0.4429124 1.4199109
0.46763188 1.435001
0.48167562 1.4420846
0.50395346 1.4525281
0.51003313 1.4555132
0.5129466 1.457311
0.51753575 1.4599731
0.520856 1.4613659
0.537644 1.4667135
0.54932344 1.469897
0.572691 1.4754089
0.5842933 1.4777949
0.60693294 1.4818432
0.6178497 1.4835274
0.6309945 1.4842458
0.6348463 1.4834005
0.6395627 1.4828173
0.64819205 1.4826907
0.65176237 1.4831781
0.6593637 1.4856356
0.66536695 1.489619
0.67725813 1.4993868
0.6805073 1.501888
0.6839154 1.5047582
0.68433297 1.5049214
0.68534285 1.5062157
0.6926841 1.5155089
0.6926841 1.5155089
0.70122427 1.526718
0.7065311 1.5341839
0.7173434 1.5508709
0.7173434 1.5508709
0.7173434 1.5508709
