0 [0.0, 0.0, 0.0, 0.0, 0.0, 0.0, 0.0, 0.0]
1 [0.0, 0.0, 0.0, 0.0, 0.0, 0.0, 0.0, 0.0]
2 [0.0, 0.0, 0.0, 0.0, 0.0, 0.0, 0.0, 0.0]
3 [0.0, 0.6666667, 0.75, 0.75, 0.33333334, 0.6666667, 0.6666667, 0.6666667]
4 [0.0, 0.33333334, 0.8333333, 0.8333333, 0.8333333, 0.33333334, 0.8333333, 0.8333333]
5 [0.0, 0.0, 0.0, 0.0, 0.0, 0.0, 0.0, 0.0]
6 [0.0, 0.8, 0.8, 0.8, 0.6, 0.8, 0.8, 0.8]
7 [0.0, 0.0, 0.875, 0.875, 0.0, 0.0, 0.0, 0.0]
8 [0.0, 0.0, 0.0, 0.0, 0.0, 0.0, 0.0, 0.0]
9 [0.0, 0.8888889, 0.875, 0.8888889, 0.22222222, 0.22222222, 0.8888889, 0.8888889]
10 [0.0, 0.0, 0.0, 0.0, 0.0, 0.0, 0.0, 0.0]
11 [0.0, 0.9, 0.9, 0.9, 0.0, 0.0, 0.9, 0.9]
12 [0.09090909, 0.09090909, 0.90909094, 0.90909094, 0.09090909, 0.09090909, 0.90909094, 0.90909094]
13 [0.0, 0.0, 0.0, 0.0, 0.0, 0.0, 0.0, 0.0]
14 [0.0, 0.0, 0.0, 0.0, 0.0, 0.0, 0.0, 0.0]
15 [0.0, 0.85714287, 0.875, 0.875, 0.85714287, 0.14285715, 0.85714287, 0.85714287]
16 [0.0, 0.0, 0.875, 0.875, 0.0, 0.0, 0.0, 0.0]
17 [0.0, 0.0, 0.0, 0.0, 0.0, 0.0, 0.0, 0.0]
18 [0.0, 0.0, 0.0, 0.0, 0.0, 0.0, 0.0, 0.0]
19 [0.0, 0.0, 0.0, 0.0, 0.0, 0.0, 0.0, 0.0]
20 [0.0, 0.0, 0.1, 0.95, 0.95, 0.0, 0.1, 0.1]
21 [0.0, 0.0, 0.85714287, 0.875, 0.85714287, 0.85714287, 0.42857143, 0.42857143]
22 [0.0, 0.0, 0.0, 0.0, 0.0, 0.0, 0.0, 0.0]
23 [0.0, 0.0, 0.0, 0.875, 0.875, 0.0, 0.0, 0.0]
24 [0.0, 0.0, 0.0, 0.0, 0.0, 0.0, 0.0, 0.0]
25 [0.0, 0.0, 0.0, 0.0, 0.0, 0.0, 0.0, 0.0]
26 [0.0, 0.0, 0.18181819, 0.90909094, 0.90909094, 0.90909094, 0.18181819, 0.90909094]
27 [0.0, 0.0, 0.0, 0.0, 0.0, 0.0, 0.0, 0.0]
28 [0.0, 0.0, 0.044444446, 0.9777778, 0.9777778, 0.9777778, 0.044444446, 0.9777778]
29 [0.0, 0.0, 0.0, 0.875, 0.875, 0.0, 0.0, 0.0]
30 [0.0, 0.0, 0.71428573, 0.85714287, 0.85714287, 0.85714287, 0.0, 0.71428573]
31 [0.0, 0.0, 0.0, 0.75, 0.75, 0.0, 0.0, 0.0]
32 [0.0, 0.0, 0.0, 0.0, 0.0, 0.0, 0.0, 0.0]
33 [0.0, 0.0, 0.0, 0.9375, 0.9375, 0.9375, 0.0, 0.3125]
34 [0.0, 0.0, 0.0, 0.0, 0.0, 0.0, 0.0, 0.0]
35 [0.0, 0.0, 0.0, 0.0, 0.0, 0.0, 0.0, 0.0]
36 [0.0, 0.0, 0.0, 0.9, 0.9, 0.9, 0.9, 0.0]
37 [0.0, 0.0, 0.0, 0.0, 0.95454544, 0.27272728, 0.95454544, 0.0]
38 [0.0, 0.0, 0.0, 0.0, 0.0, 0.0, 0.0, 0.0]
39 [0.0, 0.0, 0.0, 0.0, 0.0, 0.0, 0.0, 0.0]
40 [0.0, 0.0, 0.0, 0.0, 0.0, 0.0, 0.0, 0.0]
41 [0.0, 0.0, 0.0, 0.0, 0.0, 0.0, 0.0, 0.0]
42 [0.0, 0.0, 0.0, 0.0, 0.98333335, 0.0, 0.25, 0.0]
43 [0.0, 0.0, 0.0, 0.0, 0.95454544, 0.75, 0.95454544, 0.0]
44 [0.0, 0.0, 0.0, 0.0, 0.0, 0.0, 0.0, 0.0]
45 [0.0, 0.0, 0.0, 0.0, 0.96153843, 0.96153843, 0.96153843, 0.1923077]
46 [0.0, 0.0, 0.0, 0.0, 0.875, 0.875, 0.0, 0.0]
47 [0.0, 0.0, 0.0, 0.0, 0.0, 0.9, 0.9, 0.0]
48 [0.0, 0.0, 0.0, 0.0, 0.0, 0.875, 0.0, 0.0]
49 [0.375, 0.0, 0.0, 0.0, 0.0, 0.875, 0.375, 0.0]
