0 [10.0, 10.0, 10.0, 10.0, 10.0, 10.0, 10.0, 10.0, 10.0, 10.0, 10.0, 10.0, 10.0, 10.0, 10.0, 10.0, 10.0, 10.0, 10.0, 10.0, 10.0, 10.0, 10.0, 10.0, 10.0, 10.0, 10.0, 10.0, 10.0, 10.0, 10.0, 10.0, 10.0, 10.0, 10.0, 10.0, 10.0, 10.0, 10.0, 10.0, 10.0, 10.0, 10.0, 10.0, 10.0, 10.0, 10.0, 10.0, 10.0, 10.0, 10.0, 10.0, 10.0, 10.0, 10.0, 10.0, 10.0, 10.0, 10.0, 10.0, 10.0, 10.0, 10.0, 10.0, 10.0, 10.0, 10.0, 10.0, 10.0, 10.0, 10.0, 10.0, 10.0, 10.0, 10.0, 10.0, 10.0, 10.0, 10.0, 10.0, 10.0, 10.0, 10.0, 10.0, 10.0, 10.0, 10.0, 10.0, 10.0, 10.0, 10.0, 10.0, 10.0, 10.0, 10.0, 10.0, 10.0, 10.0, 10.0, 10.0, 10.0, 10.0, 10.0, 10.0, 10.0, 10.0, 10.0, 10.0, 10.0, 10.0, 10.0, 10.0, 10.0, 10.0, 10.0, 10.0, 10.0, 10.0, 10.0, 10.0, 10.0, 10.0, 10.0, 10.0, 10.0, 10.0, 10.0, 10.0, 10.0, 10.0, 10.0, 10.0, 10.0, 10.0, 10.0, 10.0, 10.0, 10.0, 10.0, 10.0, 10.0, 10.0, 10.0, 10.0, 10.0, 10.0, 10.0, 10.0, 10.0, 10.0, 10.0, 10.0, 10.0, 10.0, 10.0, 10.0, 10.0, 10.0, 10.0, 10.0, 10.0, 10.0, 10.0, 10.0, 10.0, 10.0, 10.0, 10.0, 10.0, 10.0, 10.0, 10.0, 10.0, 10.0, 10.0, 10.0, 10.0, 10.0, 10.0, 10.0, 10.0, 10.0]
1 [1.38, 1.41, 1.43, 1.46, 1.48, 1.51, 1.54, 1.56, 1.59, 1.62, 1.65, 1.68, 1.71, 1.74, 1.77, 1.8, 1.83, 1.86, 1.9, 1.93, 1.97, 2.01, 2.04, 2.08, 2.12, 2.16, 2.2, 2.25, 2.29, 2.33, 2.38, 2.43, 2.48, 0.66, 0.66, 0.66, 0.66, 0.66, 0.66, 0.66, 0.66, 0.66, 0.66, 0.66, 0.66, 0.66, 0.66, 0.66, 0.66, 0.66, 0.66, 0.66, 0.66, 0.66, 0.66, 0.66, 0.66, 0.66, 0.66, 0.66, 0.66, 0.66, 0.66, 0.69, 0.71, 0.74, 0.77, 0.8, 0.84, 3.27, 3.27, 3.27, 3.27, 3.27, 3.27, 3.27, 3.27, 2.08, 2.08, 2.08, 2.08, 2.08, 2.08, 2.08, 2.08, 2.08, 2.08, 2.08, 3.27, 3.27, 3.27, 3.27, 3.27, 3.27, 3.27, 3.27, 3.27, 3.27, 3.27, 3.27, 3.27, 3.27, 3.27, 3.26, 3.26, 3.26, 3.26, 3.26, 3.26, 3.26, 3.26, 3.26, 3.26, 3.26, 3.26, 3.26, 3.26, 3.26, 3.26, 3.26, 3.26, 3.26, 3.26, 3.26, 3.26, 3.26, 3.26, 3.26, 3.26, 3.26, 3.26, 3.26, 1.97, 1.91, 1.86, 1.82, 1.78, 1.78, 1.78, 1.78, 1.78, 1.78, 1.78, 1.78, 1.78, 1.78, 1.78, 2.56, 2.51, 2.46, 2.45, 2.45, 2.45, 2.45, 2.45, 2.45, 2.45, 3.25, 3.25, 3.25, 3.25, 3.25, 3.25, 3.25, 3.25, 3.25, 3.25, 3.25, 3.25, 3.19, 3.13, 3.08, 3.02, 2.97, 2.92, 2.87, 2.82, 2.77, 2.72, 2.67, 2.62, 2.58]
2 [1.37, 1.39, 1.42, 1.44, 1.46, 1.49, 1.52, 1.54, 1.57, 1.6, 1.62, 1.65, 1.68, 1.71, 1.74, 1.77, 1.8, 1.84, 1.87, 1.9, 1.94, 1.97, 2.01, 2.05, 2.08, 2.12, 2.16, 2.2, 2.25, 2.29, 2.34, 2.38, 2.43, 2.48, 0.66, 0.66, 0.66, 0.66, 0.66, 0.66, 0.66, 0.66, 0.66, 0.66, 0.66, 0.66, 0.66, 0.66, 0.66, 0.66, 0.66, 0.66, 0.66, 0.66, 0.66, 0.66, 0.66, 0.66, 0.66, 0.66, 0.66, 0.66, 0.66, 0.66, 0.68, 0.7, 0.73, 0.76, 0.79, 0.83, 3.28, 3.28, 3.28, 3.28, 3.28, 3.28, 3.28, 3.28, 2.09, 2.09, 2.09, 2.09, 2.09, 2.09, 2.09, 2.09, 2.08, 2.08, 2.08, 2.2, 3.27, 3.27, 3.27, 3.27, 3.27, 3.27, 3.27, 3.27, 3.27, 3.27, 3.26, 3.26, 3.26, 3.26, 3.26, 3.26, 3.26, 3.26, 3.26, 3.26, 3.26, 3.26, 3.26, 3.26, 3.26, 3.26, 3.26, 3.26, 3.26, 3.26, 3.25, 3.25, 3.25, 3.25, 3.25, 3.25, 3.25, 3.25, 3.25, 3.25, 3.25, 3.25, 3.25, 3.25, 1.92, 1.87, 1.82, 1.78, 1.77, 1.77, 1.77, 1.77, 1.77, 1.77, 1.77, 1.77, 1.77, 1.77, 2.56, 2.51, 2.46, 2.44, 2.44, 2.44, 2.43, 2.43, 2.43, 2.43, 3.23, 3.23, 3.23, 3.23, 3.23, 3.23, 3.23, 3.23, 3.23, 3.23, 3.23, 3.23, 3.18, 3.12, 3.06, 3.01, 2.96, 2.9, 2.85, 2.8, 2.75, 2.7, 2.66, 2.61]
3 [1.35, 1.37, 1.39, 1.42, 1.44, 1.46, 1.49, 1.51, 1.54, 1.57, 1.59, 1.62, 1.65, 1.68, 1.71, 1.74, 1.77, 1.8, 1.83, 1.86, 1.89, 1.93, 1.96, 2.0, 2.03, 2.07, 2.11, 2.15, 2.19, 2.23, 2.27, 2.31, 2.36, 2.41, 2.45, 2.5, 0.67, 0.67, 0.67, 0.67, 0.67, 0.67, 0.67, 0.67, 0.67, 0.67, 0.67, 0.67, 0.67, 0.67, 0.67, 0.67, 0.67, 0.67, 0.67, 0.67, 0.67, 0.66, 0.66, 0.66, 0.66, 0.66, 0.66, 0.66, 0.66, 0.66, 0.68, 0.7, 0.73, 0.76, 0.79, 0.82, 0.86, 3.29, 3.29, 3.29, 3.28, 3.28, 3.28, 3.28, 2.09, 2.09, 2.09, 2.09, 2.09, 2.09, 2.09, 2.09, 2.09, 2.09, 2.08, 2.2, 3.27, 3.27, 3.27, 3.27, 3.27, 3.26, 3.26, 3.26, 3.26, 3.26, 3.26, 3.26, 3.26, 3.26, 3.26, 3.25, 3.25, 3.25, 3.25, 3.25, 3.25, 3.25, 3.25, 3.25, 3.25, 3.24, 3.24, 3.24, 3.24, 3.24, 3.24, 3.24, 3.24, 3.24, 3.24, 3.23, 3.23, 3.23, 3.23, 3.23, 3.23, 3.23, 3.23, 3.23, 1.91, 1.86, 1.81, 1.77, 1.76, 1.76, 1.76, 1.76, 1.76, 1.75, 1.75, 1.75, 1.75, 1.75, 2.54, 2.49, 2.43, 2.41, 2.41, 2.41, 2.41, 2.41, 2.41, 2.41, 3.2, 3.19, 3.19, 3.19, 3.19, 3.19, 3.19, 3.19, 3.18, 3.18, 3.18, 3.18, 3.13, 3.07, 3.02, 2.96, 2.91, 2.86, 2.81, 2.76, 2.71, 2.66]
4 [1.33, 1.35, 1.37, 1.4, 1.42, 1.44, 1.47, 1.49, 1.52, 1.54, 1.57, 1.59, 1.62, 1.65, 1.68, 1.71, 1.73, 1.76, 1.79, 1.83, 1.86, 1.89, 1.92, 1.96, 1.99, 2.03, 2.06, 2.1, 2.14, 2.18, 2.22, 2.26, 2.3, 2.35, 2.39, 2.44, 2.49, 2.54, 0.67, 0.67, 0.67, 0.67, 0.67, 0.67, 0.67, 0.67, 0.67, 0.67, 0.67, 0.67, 0.67, 0.67, 0.67, 0.67, 0.67, 0.67, 0.67, 0.67, 0.67, 0.67, 0.67, 0.67, 0.67, 0.67, 0.67, 0.67, 0.67, 0.67, 0.69, 0.71, 0.74, 0.77, 0.8, 0.84, 3.3, 3.29, 3.29, 3.29, 3.29, 3.29, 3.29, 3.29, 2.09, 2.09, 2.09, 2.09, 2.09, 2.09, 2.09, 2.09, 2.09, 2.09, 2.08, 3.27, 3.27, 3.27, 3.27, 3.26, 3.26, 3.26, 3.26, 3.26, 3.26, 3.26, 3.25, 3.25, 3.25, 3.25, 3.25, 3.25, 3.25, 3.24, 3.24, 3.24, 3.24, 3.24, 3.24, 3.24, 3.23, 3.23, 3.23, 3.23, 3.23, 3.23, 3.23, 3.22, 3.22, 3.22, 3.22, 3.22, 3.22, 3.22, 3.21, 3.21, 3.21, 3.21, 3.21, 1.93, 1.88, 1.83, 1.79, 1.75, 1.75, 1.74, 1.74, 1.74, 1.74, 1.74, 1.74, 1.74, 1.74, 1.74, 2.5, 2.45, 2.4, 2.39, 2.39, 2.39, 2.39, 2.38, 2.38, 3.17, 3.16, 3.16, 3.16, 3.16, 3.16, 3.15, 3.15, 3.15, 3.15, 3.15, 3.14, 3.13, 3.07, 3.02, 2.96, 2.91, 2.85, 2.8, 2.75, 2.7]
5 [1.31, 1.34, 1.36, 1.38, 1.4, 1.43, 1.45, 1.47, 1.5, 1.52, 1.55, 1.58, 1.6, 1.63, 1.66, 1.68, 1.71, 1.74, 1.77, 1.8, 1.83, 1.86, 1.9, 1.93, 1.96, 2.0, 2.03, 2.07, 2.11, 2.14, 2.18, 2.22, 2.26, 2.31, 2.35, 2.4, 2.44, 2.49, 2.54, 0.68, 0.68, 0.68, 0.68, 0.67, 0.67, 0.67, 0.67, 0.67, 0.67, 0.67, 0.67, 0.67, 0.67, 0.67, 0.67, 0.67, 0.67, 0.67, 0.67, 0.67, 0.67, 0.67, 0.67, 0.67, 0.67, 0.67, 0.67, 0.67, 0.67, 0.68, 0.7, 0.73, 0.76, 0.79, 0.83, 0.86, 3.3, 3.3, 3.29, 3.29, 3.29, 3.29, 3.29, 2.09, 2.09, 2.09, 2.09, 2.09, 2.09, 2.09, 2.09, 2.08, 2.08, 2.08, 2.23, 3.27, 3.26, 3.26, 3.26, 3.26, 3.26, 3.26, 3.25, 3.25, 3.25, 3.25, 3.25, 3.25, 3.24, 3.24, 3.24, 3.24, 3.24, 3.24, 3.23, 3.23, 3.23, 3.23, 3.23, 3.22, 3.22, 3.22, 3.22, 3.22, 3.22, 3.21, 3.21, 3.21, 3.21, 3.21, 3.21, 3.2, 3.2, 3.2, 3.2, 3.2, 3.19, 3.19, 3.19, 1.89, 1.84, 1.79, 1.74, 1.74, 1.73, 1.73, 1.73, 1.73, 1.73, 1.73, 1.73, 1.73, 1.73, 2.5, 2.44, 2.39, 2.37, 2.37, 2.37, 2.37, 2.37, 2.36, 2.36, 3.14, 3.14, 3.13, 3.13, 3.13, 3.13, 3.12, 3.12, 3.12, 3.12, 3.11, 3.11, 3.06, 3.0, 2.94, 2.89, 2.84, 2.78, 2.73]
6 [1.3, 1.32, 1.35, 1.37, 1.39, 1.41, 1.44, 1.46, 1.49, 1.51, 1.53, 1.56, 1.59, 1.61, 1.64, 1.67, 1.69, 1.72, 1.75, 1.78, 1.81, 1.84, 1.87, 1.91, 1.94, 1.97, 2.01, 2.04, 2.08, 2.12, 2.15, 2.19, 2.23, 2.27, 2.32, 2.36, 2.4, 2.45, 2.5, 2.55, 0.68, 0.68, 0.68, 0.68, 0.68, 0.67, 0.67, 0.67, 0.67, 0.67, 0.67, 0.67, 0.67, 0.67, 0.67, 0.67, 0.67, 0.67, 0.67, 0.67, 0.67, 0.67, 0.67, 0.67, 0.67, 0.67, 0.67, 0.66, 0.66, 0.66, 0.68, 0.7, 0.73, 0.76, 0.79, 0.82, 0.86, 3.3, 3.3, 3.3, 3.29, 3.29, 3.29, 3.29, 2.09, 2.09, 2.09, 2.09, 2.09, 2.09, 2.08, 2.08, 2.08, 2.08, 2.08, 2.2, 3.26, 3.26, 3.26, 3.26, 3.25, 3.25, 3.25, 3.25, 3.25, 3.24, 3.24, 3.24, 3.24, 3.24, 3.23, 3.23, 3.23, 3.23, 3.23, 3.23, 3.22, 3.22, 3.22, 3.22, 3.22, 3.21, 3.21, 3.21, 3.21, 3.21, 3.2, 3.2, 3.2, 3.2, 3.19, 3.19, 3.19, 3.19, 3.19, 3.18, 3.18, 3.18, 3.18, 3.18, 1.88, 1.83, 1.78, 1.74, 1.73, 1.72, 1.72, 1.72, 1.72, 1.72, 1.72, 1.72, 1.72, 1.71, 2.49, 2.43, 2.38, 2.36, 2.35, 2.35, 2.35, 2.35, 2.35, 2.35, 3.12, 3.11, 3.11, 3.11, 3.1, 3.1, 3.1, 3.1, 3.09, 3.09, 3.09, 3.08, 3.03, 2.98, 2.92, 2.87, 2.81, 2.76]
7 [1.3, 1.32, 1.34, 1.36, 1.38, 1.41, 1.43, 1.45, 1.48, 1.5, 1.53, 1.55, 1.58, 1.6, 1.63, 1.66, 1.68, 1.71, 1.74, 1.77, 1.8, 1.83, 1.86, 1.89, 1.92, 1.96, 1.99, 2.03, 2.06, 2.1, 2.14, 2.18, 2.21, 2.25, 2.3, 2.34, 2.38, 2.43, 2.47, 2.52, 2.57, 0.68, 0.68, 0.68, 0.68, 0.68, 0.67, 0.67, 0.67, 0.67, 0.67, 0.67, 0.67, 0.67, 0.67, 0.67, 0.67, 0.67, 0.67, 0.67, 0.67, 0.67, 0.67, 0.67, 0.67, 0.67, 0.67, 0.66, 0.66, 0.66, 0.66, 0.69, 0.71, 0.74, 0.77, 0.8, 0.84, 3.3, 3.3, 3.3, 3.3, 3.29, 3.29, 3.29, 3.29, 2.09, 2.09, 2.09, 2.09, 2.09, 2.08, 2.08, 2.08, 2.08, 2.08, 2.08, 3.26, 3.26, 3.26, 3.26, 3.25, 3.25, 3.25, 3.25, 3.24, 3.24, 3.24, 3.24, 3.24, 3.23, 3.23, 3.23, 3.23, 3.23, 3.22, 3.22, 3.22, 3.22, 3.22, 3.21, 3.21, 3.21, 3.21, 3.2, 3.2, 3.2, 3.2, 3.2, 3.19, 3.19, 3.19, 3.19, 3.18, 3.18, 3.18, 3.18, 3.18, 3.17, 3.17, 3.17, 1.91, 1.86, 1.81, 1.76, 1.72, 1.72, 1.72, 1.72, 1.72, 1.71, 1.71, 1.71, 1.71, 1.71, 1.71, 2.46, 2.41, 2.35, 2.35, 2.34, 2.34, 2.34, 2.34, 2.34, 2.33, 3.1, 3.1, 3.09, 3.09, 3.09, 3.09, 3.08, 3.08, 3.08, 3.07, 3.07, 3.05, 3.0, 2.94, 2.89, 2.83, 2.78]
8 [1.29, 1.31, 1.33, 1.35, 1.38, 1.4, 1.42, 1.44, 1.47, 1.49, 1.52, 1.54, 1.57, 1.59, 1.62, 1.64, 1.67, 1.7, 1.73, 1.76, 1.79, 1.82, 1.85, 1.88, 1.91, 1.94, 1.97, 2.01, 2.04, 2.08, 2.12, 2.15, 2.19, 2.23, 2.27, 2.32, 2.36, 2.4, 2.45, 2.49, 2.54, 0.68, 0.68, 0.68, 0.68, 0.68, 0.68, 0.68, 0.67, 0.67, 0.67, 0.67, 0.67, 0.67, 0.67, 0.67, 0.67, 0.67, 0.67, 0.67, 0.67, 0.67, 0.67, 0.67, 0.67, 0.67, 0.67, 0.66, 0.66, 0.66, 0.66, 0.67, 0.69, 0.72, 0.75, 0.78, 0.81, 0.85, 3.3, 3.3, 3.3, 3.3, 3.29, 3.29, 3.29, 3.29, 2.09, 2.09, 2.09, 2.09, 2.08, 2.08, 2.08, 2.08, 2.08, 2.08, 2.08, 3.26, 3.26, 3.25, 3.25, 3.25, 3.25, 3.25, 3.24, 3.24, 3.24, 3.24, 3.23, 3.23, 3.23, 3.23, 3.22, 3.22, 3.22, 3.22, 3.22, 3.21, 3.21, 3.21, 3.21, 3.2, 3.2, 3.2, 3.2, 3.19, 3.19, 3.19, 3.19, 3.19, 3.18, 3.18, 3.18, 3.18, 3.17, 3.17, 3.17, 3.17, 3.16, 3.16, 3.16, 1.89, 1.84, 1.79, 1.74, 1.71, 1.71, 1.71, 1.71, 1.71, 1.71, 1.7, 1.7, 1.7, 1.7, 1.7, 2.43, 2.38, 2.34, 2.34, 2.33, 2.33, 2.33, 2.33, 2.32, 3.09, 3.08, 3.08, 3.08, 3.07, 3.07, 3.07, 3.06, 3.06, 3.06, 3.05, 3.05, 3.02, 2.96, 2.91, 2.85, 2.8]
9 [1.28, 1.3, 1.32, 1.34, 1.37, 1.39, 1.41, 1.43, 1.46, 1.48, 1.5, 1.53, 1.55, 1.58, 1.6, 1.63, 1.65, 1.68, 1.71, 1.74, 1.77, 1.8, 1.83, 1.86, 1.89, 1.92, 1.95, 1.99, 2.02, 2.05, 2.09, 2.13, 2.16, 2.2, 2.24, 2.28, 2.33, 2.37, 2.41, 2.46, 2.51, 2.55, 0.68, 0.68, 0.68, 0.68, 0.68, 0.68, 0.68, 0.68, 0.68, 0.68, 0.68, 0.67, 0.67, 0.67, 0.67, 0.67, 0.67, 0.67, 0.67, 0.67, 0.67, 0.67, 0.67, 0.67, 0.67, 0.67, 0.67, 0.67, 0.67, 0.66, 0.67, 0.69, 0.72, 0.75, 0.78, 0.81, 0.84, 3.31, 3.3, 3.3, 3.3, 3.3, 3.29, 3.29, 3.29, 2.09, 2.09, 2.09, 2.09, 2.08, 2.08, 2.08, 2.08, 2.08, 2.08, 2.08, 3.26, 3.25, 3.25, 3.25, 3.25, 3.24, 3.24, 3.24, 3.24, 3.23, 3.23, 3.23, 3.23, 3.22, 3.22, 3.22, 3.22, 3.21, 3.21, 3.21, 3.21, 3.2, 3.2, 3.2, 3.2, 3.19, 3.19, 3.19, 3.19, 3.18, 3.18, 3.18, 3.18, 3.17, 3.17, 3.17, 3.16, 3.16, 3.16, 3.16, 3.15, 3.15, 3.15, 3.15, 1.88, 1.83, 1.78, 1.74, 1.71, 1.7, 1.7, 1.7, 1.7, 1.7, 1.7, 1.69, 1.69, 1.69, 1.69, 2.42, 2.37, 2.32, 2.32, 2.32, 2.32, 2.31, 2.31, 2.31, 3.07, 3.06, 3.06, 3.06, 3.05, 3.05, 3.05, 3.04, 3.04, 3.03, 3.03, 3.03, 3.0, 2.94, 2.88, 2.83]
10 [1.27, 1.29, 1.31, 1.33, 1.35, 1.38, 1.4, 1.42, 1.44, 1.47, 1.49, 1.51, 1.54, 1.56, 1.59, 1.61, 1.64, 1.66, 1.69, 1.72, 1.75, 1.78, 1.8, 1.83, 1.87, 1.9, 1.93, 1.96, 1.99, 2.03, 2.06, 2.1, 2.14, 2.17, 2.21, 2.25, 2.29, 2.33, 2.38, 2.42, 2.47, 2.51, 2.56, 2.61, 0.68, 0.68, 0.68, 0.68, 0.68, 0.68, 0.68, 0.68, 0.68, 0.68, 0.68, 0.68, 0.68, 0.67, 0.67, 0.67, 0.67, 0.67, 0.67, 0.67, 0.67, 0.67, 0.67, 0.67, 0.67, 0.67, 0.67, 0.67, 0.67, 0.66, 0.69, 0.71, 0.74, 0.77, 0.81, 0.84, 3.31, 3.31, 3.3, 3.3, 3.3, 3.29, 3.29, 3.29, 2.09, 2.09, 2.09, 2.09, 2.08, 2.08, 2.08, 2.08, 2.08, 2.08, 2.07, 3.26, 3.25, 3.25, 3.25, 3.24, 3.24, 3.24, 3.24, 3.23, 3.23, 3.23, 3.22, 3.22, 3.22, 3.22, 3.21, 3.21, 3.21, 3.21, 3.2, 3.2, 3.2, 3.19, 3.19, 3.19, 3.19, 3.18, 3.18, 3.18, 3.17, 3.17, 3.17, 3.16, 3.16, 3.16, 3.16, 3.15, 3.15, 3.15, 3.14, 3.14, 3.14, 3.13, 3.13, 1.88, 1.83, 1.78, 1.73, 1.7, 1.7, 1.69, 1.69, 1.69, 1.69, 1.69, 1.69, 1.68, 1.68, 1.68, 2.41, 2.36, 2.31, 2.31, 2.3, 2.3, 2.3, 2.3, 2.29, 3.05, 3.04, 3.04, 3.03, 3.03, 3.03, 3.02, 3.02, 3.01, 3.01, 3.0, 3.0, 2.97, 2.92, 2.86]
11 [1.26, 1.28, 1.3, 1.32, 1.34, 1.36, 1.38, 1.4, 1.42, 1.45, 1.47, 1.49, 1.52, 1.54, 1.56, 1.59, 1.61, 1.64, 1.67, 1.69, 1.72, 1.75, 1.78, 1.81, 1.83, 1.86, 1.9, 1.93, 1.96, 1.99, 2.03, 2.06, 2.1, 2.13, 2.17, 2.21, 2.25, 2.29, 2.33, 2.37, 2.41, 2.46, 2.5, 2.55, 2.6, 0.69, 0.69, 0.68, 0.68, 0.68, 0.68, 0.68, 0.68, 0.68, 0.68, 0.68, 0.68, 0.68, 0.68, 0.68, 0.67, 0.67, 0.67, 0.67, 0.67, 0.67, 0.67, 0.67, 0.67, 0.67, 0.67, 0.67, 0.67, 0.67, 0.67, 0.67, 0.7, 0.73, 0.75, 0.79, 0.82, 0.86, 3.31, 3.31, 3.3, 3.3, 3.3, 3.29, 3.29, 2.09, 2.09, 2.09, 2.09, 2.08, 2.08, 2.08, 2.08, 2.08, 2.07, 2.07, 2.18, 3.25, 3.25, 3.24, 3.24, 3.24, 3.23, 3.23, 3.23, 3.22, 3.22, 3.22, 3.21, 3.21, 3.21, 3.21, 3.2, 3.2, 3.2, 3.19, 3.19, 3.19, 3.18, 3.18, 3.18, 3.17, 3.17, 3.17, 3.16, 3.16, 3.16, 3.15, 3.15, 3.15, 3.14, 3.14, 3.14, 3.13, 3.13, 3.13, 3.12, 3.12, 3.12, 3.11, 3.11, 1.84, 1.79, 1.75, 1.7, 1.68, 1.68, 1.68, 1.68, 1.68, 1.67, 1.67, 1.67, 1.67, 1.66, 2.42, 2.36, 2.31, 2.29, 2.28, 2.28, 2.28, 2.27, 2.27, 2.27, 3.01, 3.01, 3.0, 3.0, 2.99, 2.99, 2.98, 2.98, 2.97, 2.97, 2.96, 2.96, 2.91]
12 [1.26, 1.28, 1.3, 1.32, 1.34, 1.36, 1.38, 1.4, 1.42, 1.45, 1.47, 1.49, 1.52, 1.54, 1.56, 1.59, 1.61, 1.64, 1.67, 1.69, 1.72, 1.75, 1.78, 1.81, 1.83, 1.86, 1.9, 1.93, 1.96, 1.99, 2.03, 2.06, 2.1, 2.13, 2.17, 2.21, 2.25, 2.29, 2.33, 2.37, 2.41, 2.46, 2.5, 2.55, 2.6, 0.69, 0.69, 0.68, 0.68, 0.68, 0.68, 0.68, 0.68, 0.68, 0.68, 0.68, 0.68, 0.68, 0.68, 0.68, 0.67, 0.67, 0.67, 0.67, 0.67, 0.67, 0.67, 0.67, 0.67, 0.67, 0.67, 0.67, 0.67, 0.67, 0.67, 0.67, 0.7, 0.73, 0.75, 0.79, 0.82, 0.86, 3.31, 3.31, 3.3, 3.3, 3.3, 3.29, 3.29, 2.09, 2.09, 2.09, 2.09, 2.08, 2.08, 2.08, 2.08, 2.08, 2.07, 2.07, 2.18, 3.25, 3.25, 3.24, 3.24, 3.24, 3.23, 3.23, 3.23, 3.22, 3.22, 3.22, 3.21, 3.21, 3.21, 3.21, 3.2, 3.2, 3.2, 3.19, 3.19, 3.19, 3.18, 3.18, 3.18, 3.17, 3.17, 3.17, 3.16, 3.16, 3.16, 3.15, 3.15, 3.15, 3.14, 3.14, 3.14, 3.13, 3.13, 3.13, 3.12, 3.12, 3.12, 3.11, 3.11, 1.84, 1.79, 1.75, 1.7, 1.68, 1.68, 1.68, 1.68, 1.68, 1.67, 1.67, 1.67, 1.67, 1.66, 2.42, 2.36, 2.31, 2.29, 2.28, 2.28, 2.28, 2.27, 2.27, 2.27, 3.01, 3.01, 3.0, 3.0, 2.99, 2.99, 2.98, 2.98, 2.97, 2.97, 2.96, 2.96, 2.91]
13 [1.21, 1.23, 1.25, 1.27, 1.29, 1.31, 1.33, 1.35, 1.37, 1.39, 1.41, 1.43, 1.45, 1.47, 1.5, 1.52, 1.54, 1.57, 1.59, 1.61, 1.64, 1.66, 1.69, 1.71, 1.74, 1.77, 1.8, 1.82, 1.85, 1.88, 1.91, 1.94, 1.97, 2.0, 2.04, 2.07, 2.1, 2.14, 2.18, 2.21, 2.25, 2.29, 2.33, 2.37, 2.41, 2.45, 2.5, 2.54, 2.59, 2.64, 0.7, 0.7, 0.7, 0.7, 0.69, 0.69, 0.69, 0.69, 0.69, 0.69, 0.69, 0.69, 0.69, 0.68, 0.68, 0.68, 0.68, 0.68, 0.68, 0.68, 0.68, 0.68, 0.68, 0.68, 0.67, 0.67, 0.67, 0.67, 0.67, 0.67, 0.67, 0.69, 0.72, 0.75, 0.78, 0.81, 0.84, 3.32, 3.31, 3.31, 3.3, 3.3, 3.3, 3.29, 3.29, 2.09, 2.09, 2.08, 2.08, 2.08, 2.08, 2.07, 2.07, 2.07, 2.06, 2.06, 3.23, 3.23, 3.23, 3.22, 3.22, 3.21, 3.21, 3.2, 3.2, 3.19, 3.19, 3.19, 3.18, 3.18, 3.17, 3.17, 3.16, 3.16, 3.15, 3.15, 3.15, 3.14, 3.14, 3.13, 3.13, 3.12, 3.12, 3.11, 3.11, 3.1, 3.1, 3.1, 3.09, 3.09, 3.08, 3.08, 3.07, 3.07, 3.06, 3.06, 3.05, 3.05, 3.04, 3.04, 1.81, 1.76, 1.71, 1.67, 1.64, 1.64, 1.64, 1.63, 1.63, 1.63, 1.62, 1.62, 1.62, 1.61, 1.61, 2.3, 2.25, 2.21, 2.21, 2.2, 2.2, 2.19, 2.19, 2.19, 2.9, 2.89, 2.89, 2.88, 2.87, 2.87, 2.86, 2.86]
14 [1.2, 1.21, 1.23, 1.25, 1.27, 1.29, 1.31, 1.33, 1.34, 1.36, 1.38, 1.41, 1.43, 1.45, 1.47, 1.49, 1.51, 1.53, 1.56, 1.58, 1.6, 1.63, 1.65, 1.68, 1.7, 1.73, 1.75, 1.78, 1.81, 1.84, 1.86, 1.89, 1.92, 1.95, 1.98, 2.01, 2.05, 2.08, 2.11, 2.15, 2.18, 2.22, 2.26, 2.29, 2.33, 2.37, 2.41, 2.46, 2.5, 2.55, 2.59, 2.64, 2.69, 0.71, 0.7, 0.7, 0.7, 0.7, 0.7, 0.7, 0.7, 0.7, 0.69, 0.69, 0.69, 0.69, 0.69, 0.69, 0.69, 0.69, 0.68, 0.68, 0.68, 0.68, 0.68, 0.68, 0.68, 0.68, 0.68, 0.67, 0.67, 0.67, 0.67, 0.68, 0.71, 0.73, 0.76, 0.79, 0.83, 0.86, 3.32, 3.31, 3.31, 3.3, 3.3, 3.29, 3.29, 2.09, 2.09, 2.08, 2.08, 2.08, 2.07, 2.07, 2.07, 2.06, 2.06, 2.06, 3.23, 3.22, 3.22, 3.21, 3.21, 3.2, 3.2, 3.19, 3.19, 3.18, 3.18, 3.17, 3.17, 3.16, 3.16, 3.15, 3.15, 3.14, 3.14, 3.13, 3.13, 3.12, 3.12, 3.11, 3.11, 3.1, 3.1, 3.09, 3.09, 3.08, 3.08, 3.07, 3.07, 3.06, 3.06, 3.05, 3.04, 3.04, 3.03, 3.03, 3.02, 3.02, 3.01, 3.01, 1.81, 1.76, 1.71, 1.66, 1.62, 1.62, 1.62, 1.61, 1.61, 1.61, 1.6, 1.6, 1.6, 1.59, 1.59, 2.28, 2.23, 2.18, 2.17, 2.17, 2.16, 2.16, 2.15, 2.15, 2.85, 2.84, 2.84, 2.83, 2.82, 2.81]
15 [1.18, 1.19, 1.21, 1.23, 1.25, 1.27, 1.28, 1.3, 1.32, 1.34, 1.36, 1.38, 1.4, 1.42, 1.44, 1.46, 1.48, 1.5, 1.53, 1.55, 1.57, 1.59, 1.62, 1.64, 1.66, 1.69, 1.71, 1.74, 1.76, 1.79, 1.82, 1.84, 1.87, 1.9, 1.93, 1.96, 1.99, 2.02, 2.05, 2.09, 2.12, 2.15, 2.19, 2.22, 2.26, 2.3, 2.34, 2.37, 2.41, 2.46, 2.5, 2.54, 2.59, 2.64, 2.68, 2.73, 0.71, 0.71, 0.71, 0.71, 0.7, 0.7, 0.7, 0.7, 0.7, 0.7, 0.7, 0.7, 0.69, 0.69, 0.69, 0.69, 0.69, 0.69, 0.69, 0.69, 0.68, 0.68, 0.68, 0.68, 0.68, 0.68, 0.68, 0.68, 0.67, 0.67, 0.69, 0.72, 0.74, 0.77, 0.81, 0.84, 3.32, 3.32, 3.31, 3.3, 3.3, 3.29, 3.29, 2.09, 2.09, 2.08, 2.08, 2.08, 2.07, 2.07, 2.07, 2.06, 2.06, 2.05, 2.09, 3.21, 3.21, 3.2, 3.2, 3.19, 3.19, 3.18, 3.18, 3.17, 3.16, 3.16, 3.15, 3.15, 3.14, 3.14, 3.13, 3.13, 3.12, 3.11, 3.11, 3.1, 3.1, 3.09, 3.09, 3.08, 3.07, 3.07, 3.06, 3.06, 3.05, 3.04, 3.04, 3.03, 3.03, 3.02, 3.01, 3.01, 3.0, 3.0, 2.99, 2.98, 2.98, 2.97, 2.97, 1.76, 1.71, 1.66, 1.62, 1.6, 1.6, 1.59, 1.59, 1.58, 1.58, 1.58, 1.57, 1.57, 1.57, 2.27, 2.22, 2.17, 2.14, 2.13, 2.13, 2.12, 2.12, 2.11, 2.1, 2.79, 2.78, 2.77]
16 [1.18, 1.19, 1.21, 1.23, 1.25, 1.27, 1.28, 1.3, 1.32, 1.34, 1.36, 1.38, 1.4, 1.42, 1.44, 1.46, 1.48, 1.5, 1.53, 1.55, 1.57, 1.59, 1.62, 1.64, 1.66, 1.69, 1.71, 1.74, 1.76, 1.79, 1.82, 1.84, 1.87, 1.9, 1.93, 1.96, 1.99, 2.02, 2.05, 2.09, 2.12, 2.15, 2.19, 2.22, 2.26, 2.3, 2.34, 2.37, 2.41, 2.46, 2.5, 2.54, 2.59, 2.64, 2.68, 2.73, 0.71, 0.71, 0.71, 0.71, 0.7, 0.7, 0.7, 0.7, 0.7, 0.7, 0.7, 0.7, 0.69, 0.69, 0.69, 0.69, 0.69, 0.69, 0.69, 0.69, 0.68, 0.68, 0.68, 0.68, 0.68, 0.68, 0.68, 0.68, 0.67, 0.67, 0.69, 0.72, 0.74, 0.77, 0.81, 0.84, 3.32, 3.32, 3.31, 3.3, 3.3, 3.29, 3.29, 2.09, 2.09, 2.08, 2.08, 2.08, 2.07, 2.07, 2.07, 2.06, 2.06, 2.05, 2.09, 3.21, 3.21, 3.2, 3.2, 3.19, 3.19, 3.18, 3.18, 3.17, 3.16, 3.16, 3.15, 3.15, 3.14, 3.14, 3.13, 3.13, 3.12, 3.11, 3.11, 3.1, 3.1, 3.09, 3.09, 3.08, 3.07, 3.07, 3.06, 3.06, 3.05, 3.04, 3.04, 3.03, 3.03, 3.02, 3.01, 3.01, 3.0, 3.0, 2.99, 2.98, 2.98, 2.97, 2.97, 1.76, 1.71, 1.66, 1.62, 1.6, 1.6, 1.59, 1.59, 1.58, 1.58, 1.58, 1.57, 1.57, 1.57, 2.27, 2.22, 2.17, 2.14, 2.13, 2.13, 2.12, 2.12, 2.11, 2.1, 2.79, 2.78, 2.77]
17 [1.15, 1.17, 1.19, 1.21, 1.22, 1.24, 1.26, 1.27, 1.29, 1.31, 1.33, 1.35, 1.37, 1.39, 1.41, 1.42, 1.44, 1.47, 1.49, 1.51, 1.53, 1.55, 1.57, 1.59, 1.62, 1.64, 1.66, 1.69, 1.71, 1.73, 1.76, 1.78, 1.81, 1.84, 1.86, 1.89, 1.92, 1.95, 1.98, 2.01, 2.04, 2.07, 2.1, 2.13, 2.17, 2.2, 2.24, 2.27, 2.31, 2.35, 2.39, 2.43, 2.47, 2.51, 2.55, 2.6, 2.64, 2.69, 2.74, 0.72, 0.72, 0.72, 0.71, 0.71, 0.71, 0.71, 0.71, 0.71, 0.7, 0.7, 0.7, 0.7, 0.7, 0.7, 0.7, 0.69, 0.69, 0.69, 0.69, 0.69, 0.69, 0.69, 0.68, 0.68, 0.68, 0.68, 0.68, 0.68, 0.68, 0.68, 0.7, 0.73, 0.76, 0.79, 0.82, 0.86, 3.32, 3.31, 3.3, 3.3, 3.29, 3.28, 3.28, 2.08, 2.08, 2.08, 2.07, 2.07, 2.06, 2.06, 2.05, 2.05, 2.05, 2.04, 3.2, 3.19, 3.19, 3.18, 3.17, 3.17, 3.16, 3.16, 3.15, 3.14, 3.14, 3.13, 3.12, 3.12, 3.11, 3.1, 3.1, 3.09, 3.08, 3.08, 3.07, 3.07, 3.06, 3.05, 3.05, 3.04, 3.03, 3.03, 3.02, 3.01, 3.01, 3.0, 2.99, 2.99, 2.98, 2.97, 2.96, 2.96, 2.95, 2.94, 2.94, 2.93, 2.92, 2.91, 1.75, 1.7, 1.65, 1.6, 1.57, 1.57, 1.56, 1.56, 1.55, 1.55, 1.54, 1.54, 1.54, 1.53, 1.53, 2.18, 2.13, 2.09, 2.08, 2.08, 2.07, 2.06, 2.06, 2.05]
18 [1.11, 1.13, 1.14, 1.16, 1.17, 1.19, 1.21, 1.22, 1.24, 1.25, 1.27, 1.29, 1.3, 1.32, 1.34, 1.36, 1.37, 1.39, 1.41, 1.43, 1.45, 1.47, 1.49, 1.51, 1.53, 1.55, 1.57, 1.59, 1.61, 1.63, 1.65, 1.67, 1.7, 1.72, 1.74, 1.77, 1.79, 1.82, 1.84, 1.87, 1.89, 1.92, 1.95, 1.97, 2.0, 2.03, 2.06, 2.09, 2.12, 2.15, 2.18, 2.22, 2.25, 2.28, 2.32, 2.36, 2.39, 2.43, 2.47, 2.51, 2.55, 2.59, 2.64, 2.68, 2.73, 2.78, 2.83, 0.73, 0.72, 0.72, 0.72, 0.72, 0.72, 0.71, 0.71, 0.71, 0.71, 0.71, 0.7, 0.7, 0.7, 0.7, 0.7, 0.69, 0.69, 0.69, 0.69, 0.69, 0.69, 0.68, 0.68, 0.68, 0.68, 0.68, 0.67, 0.67, 0.67, 0.69, 0.71, 0.74, 0.77, 0.8, 0.84, 3.3, 3.29, 3.28, 3.27, 3.27, 3.26, 3.25, 2.06, 2.06, 2.05, 2.05, 2.04, 2.04, 2.03, 2.03, 2.02, 2.02, 2.01, 3.15, 3.14, 3.14, 3.13, 3.12, 3.11, 3.1, 3.1, 3.09, 3.08, 3.07, 3.06, 3.06, 3.05, 3.04, 3.03, 3.02, 3.02, 3.01, 3.0, 2.99, 2.98, 2.97, 2.97, 2.96, 2.95, 2.94, 2.93, 2.92, 2.92, 2.91, 2.9, 2.89, 2.88, 2.87, 2.86, 2.86, 2.85, 2.84, 2.83, 2.82, 2.81, 2.8, 2.79, 1.68, 1.63, 1.58, 1.54, 1.5, 1.49, 1.49, 1.48, 1.48, 1.47, 1.47, 1.46, 1.45, 1.45, 1.44, 2.07, 2.02]
19 [1.08, 1.09, 1.11, 1.12, 1.13, 1.15, 1.16, 1.18, 1.19, 1.21, 1.22, 1.24, 1.26, 1.27, 1.29, 1.3, 1.32, 1.34, 1.35, 1.37, 1.39, 1.4, 1.42, 1.44, 1.46, 1.47, 1.49, 1.51, 1.53, 1.55, 1.57, 1.59, 1.61, 1.63, 1.65, 1.67, 1.69, 1.71, 1.74, 1.76, 1.78, 1.8, 1.83, 1.85, 1.88, 1.9, 1.93, 1.95, 1.98, 2.01, 2.03, 2.06, 2.09, 2.12, 2.15, 2.18, 2.21, 2.24, 2.28, 2.31, 2.34, 2.38, 2.42, 2.45, 2.49, 2.53, 2.57, 2.61, 2.66, 2.7, 2.74, 2.79, 2.84, 0.72, 0.72, 0.71, 0.71, 0.71, 0.71, 0.71, 0.7, 0.7, 0.7, 0.7, 0.69, 0.69, 0.69, 0.69, 0.69, 0.68, 0.68, 0.68, 0.68, 0.68, 0.67, 0.67, 0.67, 0.67, 0.67, 0.66, 0.66, 0.66, 0.66, 0.66, 0.68, 0.7, 0.73, 0.76, 0.8, 0.83, 3.26, 3.25, 3.24, 3.23, 3.22, 3.21, 2.03, 2.03, 2.02, 2.01, 2.01, 2.0, 2.0, 1.99, 1.98, 1.98, 1.97, 2.03, 3.08, 3.07, 3.06, 3.06, 3.05, 3.04, 3.03, 3.02, 3.01, 3.0, 2.99, 2.98, 2.97, 2.96, 2.95, 2.94, 2.93, 2.92, 2.91, 2.9, 2.89, 2.88, 2.87, 2.86, 2.85, 2.84, 2.83, 2.82, 2.81, 2.8, 2.79, 2.78, 2.77, 2.76, 2.75, 2.74, 2.73, 2.72, 2.71, 2.7, 2.69, 2.68, 2.67, 2.66, 1.58, 1.53, 1.49, 1.45, 1.42, 1.41, 1.4, 1.4, 1.39, 1.38]
20 [1.02, 1.03, 1.05, 1.06, 1.07, 1.08, 1.1, 1.11, 1.12, 1.13, 1.15, 1.16, 1.17, 1.19, 1.2, 1.21, 1.23, 1.24, 1.25, 1.27, 1.28, 1.3, 1.31, 1.33, 1.34, 1.36, 1.37, 1.39, 1.4, 1.42, 1.43, 1.45, 1.46, 1.48, 1.5, 1.51, 1.53, 1.55, 1.57, 1.58, 1.6, 1.62, 1.64, 1.66, 1.68, 1.7, 1.72, 1.74, 1.76, 1.78, 1.8, 1.82, 1.84, 1.86, 1.88, 1.91, 1.93, 1.95, 1.98, 2.0, 2.03, 2.05, 2.08, 2.11, 2.13, 2.16, 2.19, 2.22, 2.25, 2.28, 2.31, 2.34, 2.38, 2.41, 2.44, 2.48, 2.52, 2.55, 2.59, 2.63, 2.67, 2.71, 2.76, 2.8, 2.85, 0.69, 0.69, 0.69, 0.69, 0.68, 0.68, 0.68, 0.67, 0.67, 0.67, 0.67, 0.66, 0.66, 0.66, 0.66, 0.65, 0.65, 0.65, 0.65, 0.64, 0.64, 0.64, 0.64, 0.63, 0.63, 0.63, 0.63, 0.62, 0.62, 0.62, 0.62, 0.61, 0.62, 0.64, 0.67, 0.7, 0.73, 0.76, 3.14, 3.13, 3.11, 3.1, 3.09, 3.08, 1.94, 1.93, 1.92, 1.92, 1.91, 1.9, 1.89, 1.88, 1.88, 1.87, 1.86, 2.93, 2.92, 2.91, 2.9, 2.88, 2.87, 2.86, 2.85, 2.84, 2.82, 2.81, 2.8, 2.79, 2.78, 2.76, 2.75, 2.74, 2.73, 2.72, 2.7, 2.69, 2.68, 2.67, 2.65, 2.64, 2.63, 2.62, 2.6, 2.59, 2.58, 2.57, 2.55, 2.54, 2.53, 2.51, 2.5, 2.49, 2.47, 2.46, 2.45, 2.43, 2.42]
21 [1.02, 1.03, 1.05, 1.06, 1.07, 1.08, 1.1, 1.11, 1.12, 1.13, 1.15, 1.16, 1.17, 1.19, 1.2, 1.21, 1.23, 1.24, 1.25, 1.27, 1.28, 1.3, 1.31, 1.33, 1.34, 1.36, 1.37, 1.39, 1.4, 1.42, 1.43, 1.45, 1.46, 1.48, 1.5, 1.51, 1.53, 1.55, 1.57, 1.58, 1.6, 1.62, 1.64, 1.66, 1.68, 1.7, 1.72, 1.74, 1.76, 1.78, 1.8, 1.82, 1.84, 1.86, 1.88, 1.91, 1.93, 1.95, 1.98, 2.0, 2.03, 2.05, 2.08, 2.11, 2.13, 2.16, 2.19, 2.22, 2.25, 2.28, 2.31, 2.34, 2.38, 2.41, 2.44, 2.48, 2.52, 2.55, 2.59, 2.63, 2.67, 2.71, 2.76, 2.8, 2.85, 0.69, 0.69, 0.69, 0.69, 0.68, 0.68, 0.68, 0.67, 0.67, 0.67, 0.67, 0.66, 0.66, 0.66, 0.66, 0.65, 0.65, 0.65, 0.65, 0.64, 0.64, 0.64, 0.64, 0.63, 0.63, 0.63, 0.63, 0.62, 0.62, 0.62, 0.62, 0.61, 0.62, 0.64, 0.67, 0.7, 0.73, 0.76, 3.14, 3.13, 3.11, 3.1, 3.09, 3.08, 1.94, 1.93, 1.92, 1.92, 1.91, 1.9, 1.89, 1.88, 1.88, 1.87, 1.86, 2.93, 2.92, 2.91, 2.9, 2.88, 2.87, 2.86, 2.85, 2.84, 2.82, 2.81, 2.8, 2.79, 2.78, 2.76, 2.75, 2.74, 2.73, 2.72, 2.7, 2.69, 2.68, 2.67, 2.65, 2.64, 2.63, 2.62, 2.6, 2.59, 2.58, 2.57, 2.55, 2.54, 2.53, 2.51, 2.5, 2.49, 2.47, 2.46, 2.45, 2.43, 2.42]
22 [0.99, 1.0, 1.01, 1.02, 1.03, 1.04, 1.05, 1.07, 1.08, 1.09, 1.1, 1.11, 1.12, 1.14, 1.15, 1.16, 1.17, 1.18, 1.2, 1.21, 1.22, 1.23, 1.25, 1.26, 1.27, 1.28, 1.3, 1.31, 1.32, 1.34, 1.35, 1.36, 1.38, 1.39, 1.41, 1.42, 1.44, 1.45, 1.46, 1.48, 1.5, 1.51, 1.53, 1.54, 1.56, 1.57, 1.59, 1.61, 1.62, 1.64, 1.66, 1.68, 1.69, 1.71, 1.73, 1.75, 1.77, 1.79, 1.81, 1.83, 1.85, 1.87, 1.89, 1.91, 1.93, 1.95, 1.98, 2.0, 2.02, 2.05, 2.07, 2.09, 2.12, 2.15, 2.17, 2.2, 2.23, 2.26, 2.28, 2.31, 2.34, 2.38, 2.41, 2.44, 2.47, 2.51, 2.54, 2.58, 2.62, 2.66, 2.7, 2.74, 2.78, 2.82, 0.68, 0.67, 0.67, 0.67, 0.66, 0.66, 0.66, 0.65, 0.65, 0.65, 0.64, 0.64, 0.64, 0.64, 0.63, 0.63, 0.63, 0.62, 0.62, 0.62, 0.61, 0.61, 0.61, 0.61, 0.6, 0.6, 0.6, 0.6, 0.59, 0.59, 0.59, 0.58, 0.58, 0.58, 0.59, 0.61, 0.64, 0.67, 0.7, 0.74, 3.01, 3.0, 2.99, 2.97, 2.96, 1.86, 1.85, 1.84, 1.83, 1.82, 1.81, 1.8, 1.79, 1.79, 1.78, 1.77, 2.79, 2.78, 2.76, 2.75, 2.73, 2.72, 2.71, 2.69, 2.68, 2.66, 2.65, 2.64, 2.62, 2.61, 2.59, 2.58, 2.57, 2.55, 2.54, 2.52, 2.51, 2.5, 2.48, 2.47, 2.45, 2.44, 2.42, 2.41, 2.39, 2.38, 2.36, 2.35]
23 [0.97, 0.98, 0.99, 1.01, 1.02, 1.03, 1.04, 1.05, 1.06, 1.07, 1.08, 1.09, 1.1, 1.12, 1.13, 1.14, 1.15, 1.16, 1.17, 1.18, 1.2, 1.21, 1.22, 1.23, 1.24, 1.26, 1.27, 1.28, 1.29, 1.31, 1.32, 1.33, 1.35, 1.36, 1.37, 1.39, 1.4, 1.41, 1.43, 1.44, 1.45, 1.47, 1.48, 1.5, 1.51, 1.53, 1.54, 1.56, 1.57, 1.59, 1.61, 1.62, 1.64, 1.66, 1.67, 1.69, 1.71, 1.72, 1.74, 1.76, 1.78, 1.8, 1.82, 1.84, 1.86, 1.88, 1.9, 1.92, 1.94, 1.96, 1.98, 2.01, 2.03, 2.05, 2.08, 2.1, 2.12, 2.15, 2.18, 2.2, 2.23, 2.26, 2.29, 2.32, 2.35, 2.38, 2.41, 2.44, 2.47, 2.51, 2.54, 2.58, 2.62, 2.65, 2.69, 2.73, 2.77, 2.82, 0.66, 0.66, 0.66, 0.65, 0.65, 0.65, 0.64, 0.64, 0.64, 0.63, 0.63, 0.63, 0.62, 0.62, 0.62, 0.61, 0.61, 0.61, 0.61, 0.6, 0.6, 0.6, 0.59, 0.59, 0.59, 0.58, 0.58, 0.58, 0.58, 0.57, 0.57, 0.57, 0.56, 0.56, 0.56, 0.57, 0.6, 0.63, 0.66, 0.69, 2.96, 2.95, 2.93, 2.92, 2.9, 1.82, 1.81, 1.8, 1.79, 1.78, 1.77, 1.76, 1.75, 1.74, 1.73, 1.72, 2.72, 2.71, 2.7, 2.68, 2.67, 2.65, 2.64, 2.62, 2.61, 2.59, 2.58, 2.56, 2.55, 2.53, 2.52, 2.5, 2.49, 2.47, 2.46, 2.44, 2.43, 2.41, 2.4, 2.38, 2.37, 2.35, 2.34, 2.32]
24 [0.97, 0.98, 0.99, 1.01, 1.02, 1.03, 1.04, 1.05, 1.06, 1.07, 1.08, 1.09, 1.1, 1.12, 1.13, 1.14, 1.15, 1.16, 1.17, 1.18, 1.2, 1.21, 1.22, 1.23, 1.24, 1.26, 1.27, 1.28, 1.29, 1.31, 1.32, 1.33, 1.35, 1.36, 1.37, 1.39, 1.4, 1.41, 1.43, 1.44, 1.45, 1.47, 1.48, 1.5, 1.51, 1.53, 1.54, 1.56, 1.57, 1.59, 1.61, 1.62, 1.64, 1.66, 1.67, 1.69, 1.71, 1.72, 1.74, 1.76, 1.78, 1.8, 1.82, 1.84, 1.86, 1.88, 1.9, 1.92, 1.94, 1.96, 1.98, 2.01, 2.03, 2.05, 2.08, 2.1, 2.12, 2.15, 2.18, 2.2, 2.23, 2.26, 2.29, 2.32, 2.35, 2.38, 2.41, 2.44, 2.47, 2.51, 2.54, 2.58, 2.62, 2.65, 2.69, 2.73, 2.77, 2.82, 0.66, 0.66, 0.66, 0.65, 0.65, 0.65, 0.64, 0.64, 0.64, 0.63, 0.63, 0.63, 0.62, 0.62, 0.62, 0.61, 0.61, 0.61, 0.61, 0.6, 0.6, 0.6, 0.59, 0.59, 0.59, 0.58, 0.58, 0.58, 0.58, 0.57, 0.57, 0.57, 0.56, 0.56, 0.56, 0.57, 0.6, 0.63, 0.66, 0.69, 2.96, 2.95, 2.93, 2.92, 2.9, 1.82, 1.81, 1.8, 1.79, 1.78, 1.77, 1.76, 1.75, 1.74, 1.73, 1.72, 2.72, 2.71, 2.7, 2.68, 2.67, 2.65, 2.64, 2.62, 2.61, 2.59, 2.58, 2.56, 2.55, 2.53, 2.52, 2.5, 2.49, 2.47, 2.46, 2.44, 2.43, 2.41, 2.4, 2.38, 2.37, 2.35, 2.34, 2.32]
25 [0.97, 0.98, 0.99, 1.01, 1.02, 1.03, 1.04, 1.05, 1.06, 1.07, 1.08, 1.09, 1.1, 1.12, 1.13, 1.14, 1.15, 1.16, 1.17, 1.18, 1.2, 1.21, 1.22, 1.23, 1.24, 1.26, 1.27, 1.28, 1.29, 1.31, 1.32, 1.33, 1.35, 1.36, 1.37, 1.39, 1.4, 1.41, 1.43, 1.44, 1.45, 1.47, 1.48, 1.5, 1.51, 1.53, 1.54, 1.56, 1.57, 1.59, 1.61, 1.62, 1.64, 1.66, 1.67, 1.69, 1.71, 1.72, 1.74, 1.76, 1.78, 1.8, 1.82, 1.84, 1.86, 1.88, 1.9, 1.92, 1.94, 1.96, 1.98, 2.01, 2.03, 2.05, 2.08, 2.1, 2.12, 2.15, 2.18, 2.2, 2.23, 2.26, 2.29, 2.32, 2.35, 2.38, 2.41, 2.44, 2.47, 2.51, 2.54, 2.58, 2.62, 2.65, 2.69, 2.73, 2.77, 2.82, 0.66, 0.66, 0.66, 0.65, 0.65, 0.65, 0.64, 0.64, 0.64, 0.63, 0.63, 0.63, 0.62, 0.62, 0.62, 0.61, 0.61, 0.61, 0.61, 0.6, 0.6, 0.6, 0.59, 0.59, 0.59, 0.58, 0.58, 0.58, 0.58, 0.57, 0.57, 0.57, 0.56, 0.56, 0.56, 0.57, 0.6, 0.63, 0.66, 0.69, 2.96, 2.95, 2.93, 2.92, 2.9, 1.82, 1.81, 1.8, 1.79, 1.78, 1.77, 1.76, 1.75, 1.74, 1.73, 1.72, 2.72, 2.71, 2.7, 2.68, 2.67, 2.65, 2.64, 2.62, 2.61, 2.59, 2.58, 2.56, 2.55, 2.53, 2.52, 2.5, 2.49, 2.47, 2.46, 2.44, 2.43, 2.41, 2.4, 2.38, 2.37, 2.35, 2.34, 2.32]
26 [0.95, 0.96, 0.97, 0.98, 0.99, 1.0, 1.01, 1.02, 1.03, 1.04, 1.05, 1.06, 1.07, 1.08, 1.09, 1.1, 1.11, 1.12, 1.13, 1.14, 1.15, 1.16, 1.18, 1.19, 1.2, 1.21, 1.22, 1.23, 1.24, 1.25, 1.26, 1.28, 1.29, 1.3, 1.31, 1.32, 1.34, 1.35, 1.36, 1.37, 1.38, 1.4, 1.41, 1.42, 1.44, 1.45, 1.46, 1.48, 1.49, 1.5, 1.52, 1.53, 1.55, 1.56, 1.57, 1.59, 1.6, 1.62, 1.64, 1.65, 1.67, 1.68, 1.7, 1.72, 1.73, 1.75, 1.77, 1.78, 1.8, 1.82, 1.84, 1.86, 1.88, 1.9, 1.92, 1.94, 1.96, 1.98, 2.0, 2.02, 2.04, 2.07, 2.09, 2.11, 2.14, 2.16, 2.19, 2.21, 2.24, 2.27, 2.3, 2.32, 2.35, 2.38, 2.41, 2.45, 2.48, 2.51, 2.55, 2.58, 2.62, 2.66, 2.69, 2.73, 2.77, 2.82, 0.63, 0.63, 0.62, 0.62, 0.62, 0.61, 0.61, 0.61, 0.6, 0.6, 0.6, 0.59, 0.59, 0.59, 0.58, 0.58, 0.58, 0.57, 0.57, 0.57, 0.56, 0.56, 0.56, 0.56, 0.55, 0.55, 0.55, 0.54, 0.54, 0.54, 0.53, 0.53, 0.53, 0.53, 0.52, 0.52, 0.52, 0.55, 0.58, 0.61, 0.65, 2.82, 2.81, 2.79, 1.74, 1.73, 1.72, 1.71, 1.7, 1.69, 1.68, 1.67, 1.66, 1.65, 1.64, 1.63, 2.58, 2.57, 2.55, 2.54, 2.52, 2.5, 2.49, 2.47, 2.46, 2.44, 2.42, 2.41, 2.39, 2.38, 2.36, 2.34, 2.33, 2.31, 2.3, 2.28]
27 [0.94, 0.95, 0.96, 0.97, 0.98, 0.99, 1.0, 1.01, 1.01, 1.02, 1.03, 1.04, 1.05, 1.06, 1.07, 1.08, 1.09, 1.1, 1.11, 1.12, 1.13, 1.14, 1.15, 1.16, 1.17, 1.19, 1.2, 1.21, 1.22, 1.23, 1.24, 1.25, 1.26, 1.27, 1.28, 1.29, 1.31, 1.32, 1.33, 1.34, 1.35, 1.36, 1.38, 1.39, 1.4, 1.41, 1.42, 1.44, 1.45, 1.46, 1.47, 1.49, 1.5, 1.51, 1.53, 1.54, 1.56, 1.57, 1.58, 1.6, 1.61, 1.63, 1.64, 1.66, 1.67, 1.69, 1.71, 1.72, 1.74, 1.75, 1.77, 1.79, 1.81, 1.82, 1.84, 1.86, 1.88, 1.9, 1.92, 1.94, 1.96, 1.98, 2.0, 2.02, 2.04, 2.06, 2.09, 2.11, 2.13, 2.16, 2.18, 2.21, 2.23, 2.26, 2.29, 2.31, 2.34, 2.37, 2.4, 2.43, 2.46, 2.5, 2.53, 2.57, 2.6, 2.64, 2.67, 2.71, 2.75, 2.79, 2.84, 0.61, 0.61, 0.61, 0.6, 0.6, 0.6, 0.59, 0.59, 0.58, 0.58, 0.58, 0.57, 0.57, 0.57, 0.56, 0.56, 0.56, 0.55, 0.55, 0.55, 0.55, 0.54, 0.54, 0.54, 0.53, 0.53, 0.53, 0.52, 0.52, 0.52, 0.51, 0.51, 0.51, 0.51, 0.5, 0.5, 0.5, 0.52, 0.55, 0.58, 0.62, 2.74, 2.73, 2.71, 1.69, 1.68, 1.66, 1.65, 1.64, 1.63, 1.62, 1.61, 1.6, 1.59, 1.58, 2.51, 2.49, 2.48, 2.46, 2.44, 2.43, 2.41, 2.39, 2.38, 2.36, 2.34, 2.33, 2.31, 2.29, 2.28, 2.26]
28 [0.93, 0.94, 0.95, 0.96, 0.96, 0.97, 0.98, 0.99, 1.0, 1.01, 1.02, 1.03, 1.04, 1.05, 1.06, 1.07, 1.08, 1.08, 1.09, 1.1, 1.11, 1.12, 1.13, 1.14, 1.15, 1.16, 1.17, 1.18, 1.19, 1.2, 1.21, 1.22, 1.23, 1.24, 1.25, 1.26, 1.27, 1.29, 1.3, 1.31, 1.32, 1.33, 1.34, 1.35, 1.36, 1.37, 1.38, 1.4, 1.41, 1.42, 1.43, 1.44, 1.46, 1.47, 1.48, 1.49, 1.51, 1.52, 1.53, 1.55, 1.56, 1.57, 1.59, 1.6, 1.61, 1.63, 1.64, 1.66, 1.67, 1.69, 1.7, 1.72, 1.73, 1.75, 1.77, 1.78, 1.8, 1.82, 1.83, 1.85, 1.87, 1.89, 1.91, 1.92, 1.94, 1.96, 1.98, 2.0, 2.03, 2.05, 2.07, 2.09, 2.11, 2.14, 2.16, 2.18, 2.21, 2.23, 2.26, 2.29, 2.31, 2.34, 2.37, 2.4, 2.43, 2.46, 2.49, 2.53, 2.56, 2.6, 2.63, 2.67, 2.71, 2.75, 2.79, 2.83, 0.6, 0.59, 0.59, 0.59, 0.58, 0.58, 0.57, 0.57, 0.57, 0.56, 0.56, 0.56, 0.55, 0.55, 0.55, 0.54, 0.54, 0.54, 0.53, 0.53, 0.53, 0.52, 0.52, 0.52, 0.51, 0.51, 0.51, 0.5, 0.5, 0.5, 0.49, 0.49, 0.49, 0.49, 0.48, 0.48, 0.48, 0.48, 0.5, 0.54, 0.57, 0.62, 2.64, 1.64, 1.63, 1.62, 1.61, 1.6, 1.59, 1.58, 1.56, 1.55, 1.54, 1.53, 1.52, 2.42, 2.4, 2.38, 2.37, 2.35, 2.33, 2.31, 2.3, 2.28, 2.26, 2.24]
29 [0.93, 0.94, 0.95, 0.96, 0.96, 0.97, 0.98, 0.99, 1.0, 1.01, 1.02, 1.03, 1.04, 1.05, 1.06, 1.07, 1.08, 1.08, 1.09, 1.1, 1.11, 1.12, 1.13, 1.14, 1.15, 1.16, 1.17, 1.18, 1.19, 1.2, 1.21, 1.22, 1.23, 1.24, 1.25, 1.26, 1.27, 1.29, 1.3, 1.31, 1.32, 1.33, 1.34, 1.35, 1.36, 1.37, 1.38, 1.4, 1.41, 1.42, 1.43, 1.44, 1.46, 1.47, 1.48, 1.49, 1.51, 1.52, 1.53, 1.55, 1.56, 1.57, 1.59, 1.6, 1.61, 1.63, 1.64, 1.66, 1.67, 1.69, 1.7, 1.72, 1.73, 1.75, 1.77, 1.78, 1.8, 1.82, 1.83, 1.85, 1.87, 1.89, 1.91, 1.92, 1.94, 1.96, 1.98, 2.0, 2.03, 2.05, 2.07, 2.09, 2.11, 2.14, 2.16, 2.18, 2.21, 2.23, 2.26, 2.29, 2.31, 2.34, 2.37, 2.4, 2.43, 2.46, 2.49, 2.53, 2.56, 2.6, 2.63, 2.67, 2.71, 2.75, 2.79, 2.83, 0.6, 0.59, 0.59, 0.59, 0.58, 0.58, 0.57, 0.57, 0.57, 0.56, 0.56, 0.56, 0.55, 0.55, 0.55, 0.54, 0.54, 0.54, 0.53, 0.53, 0.53, 0.52, 0.52, 0.52, 0.51, 0.51, 0.51, 0.5, 0.5, 0.5, 0.49, 0.49, 0.49, 0.49, 0.48, 0.48, 0.48, 0.48, 0.5, 0.54, 0.57, 0.62, 2.64, 1.64, 1.63, 1.62, 1.61, 1.6, 1.59, 1.58, 1.56, 1.55, 1.54, 1.53, 1.52, 2.42, 2.4, 2.38, 2.37, 2.35, 2.33, 2.31, 2.3, 2.28, 2.26, 2.24]
30 [0.91, 0.92, 0.93, 0.93, 0.94, 0.95, 0.96, 0.97, 0.97, 0.98, 0.99, 1.0, 1.01, 1.01, 1.02, 1.03, 1.04, 1.05, 1.06, 1.06, 1.07, 1.08, 1.09, 1.1, 1.1, 1.11, 1.12, 1.13, 1.14, 1.15, 1.16, 1.16, 1.17, 1.18, 1.19, 1.2, 1.21, 1.22, 1.23, 1.23, 1.24, 1.25, 1.26, 1.27, 1.28, 1.29, 1.3, 1.31, 1.32, 1.33, 1.34, 1.35, 1.36, 1.37, 1.38, 1.39, 1.4, 1.41, 1.42, 1.43, 1.44, 1.45, 1.46, 1.47, 1.48, 1.49, 1.51, 1.52, 1.53, 1.54, 1.55, 1.56, 1.58, 1.59, 1.6, 1.61, 1.63, 1.64, 1.65, 1.66, 1.68, 1.69, 1.71, 1.72, 1.73, 1.75, 1.76, 1.78, 1.79, 1.81, 1.82, 1.84, 1.86, 1.87, 1.89, 1.91, 1.93, 1.94, 1.96, 1.98, 2.0, 2.02, 2.04, 2.06, 2.08, 2.1, 2.12, 2.14, 2.17, 2.19, 2.21, 2.24, 2.26, 2.29, 2.31, 2.34, 2.37, 2.4, 2.43, 2.46, 2.49, 2.52, 2.55, 2.59, 2.62, 2.66, 2.7, 2.74, 2.78, 0.56, 0.55, 0.55, 0.55, 0.54, 0.54, 0.53, 0.53, 0.53, 0.52, 0.52, 0.51, 0.51, 0.51, 0.5, 0.5, 0.5, 0.49, 0.49, 0.49, 0.48, 0.48, 0.48, 0.47, 0.47, 0.46, 0.46, 0.46, 0.45, 0.45, 0.45, 0.44, 0.44, 0.44, 0.43, 0.43, 0.43, 0.42, 0.42, 0.42, 0.44, 0.48, 0.52, 1.49, 1.48, 1.47, 1.46, 1.44, 1.43, 1.42, 1.41, 1.39, 1.38]
31 [0.9, 0.91, 0.92, 0.92, 0.93, 0.94, 0.95, 0.95, 0.96, 0.97, 0.97, 0.98, 0.99, 0.99, 1.0, 1.01, 1.02, 1.02, 1.03, 1.04, 1.04, 1.05, 1.06, 1.06, 1.07, 1.08, 1.09, 1.09, 1.1, 1.11, 1.11, 1.12, 1.13, 1.14, 1.14, 1.15, 1.16, 1.16, 1.17, 1.18, 1.19, 1.19, 1.2, 1.21, 1.22, 1.22, 1.23, 1.24, 1.25, 1.25, 1.26, 1.27, 1.28, 1.28, 1.29, 1.3, 1.31, 1.32, 1.33, 1.33, 1.34, 1.35, 1.36, 1.37, 1.38, 1.38, 1.39, 1.4, 1.41, 1.42, 1.43, 1.44, 1.45, 1.46, 1.46, 1.47, 1.48, 1.49, 1.5, 1.51, 1.52, 1.53, 1.54, 1.55, 1.56, 1.57, 1.58, 1.6, 1.61, 1.62, 1.63, 1.64, 1.65, 1.66, 1.68, 1.69, 1.7, 1.71, 1.72, 1.74, 1.75, 1.76, 1.78, 1.79, 1.8, 1.82, 1.83, 1.85, 1.86, 1.88, 1.89, 1.91, 1.93, 1.94, 1.96, 1.98, 1.99, 2.01, 2.03, 2.05, 2.07, 2.09, 2.11, 2.13, 2.15, 2.17, 2.2, 2.22, 2.24, 2.27, 2.29, 2.32, 2.34, 2.37, 2.4, 2.43, 2.46, 2.49, 2.52, 2.55, 2.58, 2.62, 2.66, 2.69, 2.73, 0.51, 0.51, 0.5, 0.5, 0.49, 0.49, 0.48, 0.48, 0.48, 0.47, 0.47, 0.46, 0.46, 0.46, 0.45, 0.45, 0.44, 0.44, 0.44, 0.43, 0.43, 0.43, 0.42, 0.42, 0.41, 0.41, 0.41, 0.4, 0.4, 0.4, 0.39, 0.39, 0.39, 0.38, 0.38, 0.37, 0.37]
32 [0.91, 0.91, 0.92, 0.93, 0.93, 0.94, 0.94, 0.95, 0.96, 0.96, 0.97, 0.98, 0.98, 0.99, 0.99, 1.0, 1.01, 1.01, 1.02, 1.02, 1.03, 1.04, 1.04, 1.05, 1.06, 1.06, 1.07, 1.07, 1.08, 1.09, 1.09, 1.1, 1.1, 1.11, 1.12, 1.12, 1.13, 1.14, 1.14, 1.15, 1.15, 1.16, 1.17, 1.17, 1.18, 1.19, 1.19, 1.2, 1.2, 1.21, 1.22, 1.22, 1.23, 1.24, 1.24, 1.25, 1.26, 1.26, 1.27, 1.28, 1.28, 1.29, 1.3, 1.3, 1.31, 1.32, 1.32, 1.33, 1.34, 1.35, 1.35, 1.36, 1.37, 1.37, 1.38, 1.39, 1.4, 1.4, 1.41, 1.42, 1.43, 1.44, 1.44, 1.45, 1.46, 1.47, 1.48, 1.48, 1.49, 1.5, 1.51, 1.52, 1.53, 1.54, 1.55, 1.55, 1.56, 1.57, 1.58, 1.59, 1.6, 1.61, 1.62, 1.63, 1.64, 1.65, 1.66, 1.68, 1.69, 1.7, 1.71, 1.72, 1.73, 1.74, 1.76, 1.77, 1.78, 1.79, 1.81, 1.82, 1.83, 1.85, 1.86, 1.88, 1.89, 1.91, 1.92, 1.94, 1.95, 1.97, 1.99, 2.0, 2.02, 2.04, 2.06, 2.08, 2.09, 2.11, 2.13, 2.16, 2.18, 2.2, 2.22, 2.25, 2.27, 2.29, 2.32, 2.35, 2.37, 2.4, 2.43, 2.46, 2.49, 2.53, 2.56, 2.6, 2.63, 0.47, 0.47, 0.46, 0.46, 0.45, 0.45, 0.45, 0.44, 0.44, 0.43, 0.43, 0.43, 0.42, 0.42, 0.41, 0.41, 0.4, 0.4, 0.4, 0.39, 0.39, 0.38, 0.38, 0.38, 0.37]
33 [0.92, 0.93, 0.93, 0.94, 0.94, 0.95, 0.95, 0.96, 0.97, 0.97, 0.98, 0.98, 0.99, 0.99, 1.0, 1.0, 1.01, 1.01, 1.02, 1.02, 1.03, 1.03, 1.04, 1.04, 1.05, 1.06, 1.06, 1.07, 1.07, 1.08, 1.08, 1.09, 1.09, 1.1, 1.1, 1.11, 1.11, 1.12, 1.12, 1.13, 1.13, 1.14, 1.14, 1.15, 1.15, 1.16, 1.16, 1.17, 1.17, 1.18, 1.18, 1.19, 1.2, 1.2, 1.21, 1.21, 1.22, 1.22, 1.23, 1.23, 1.24, 1.24, 1.25, 1.25, 1.26, 1.27, 1.27, 1.28, 1.28, 1.29, 1.29, 1.3, 1.31, 1.31, 1.32, 1.32, 1.33, 1.33, 1.34, 1.35, 1.35, 1.36, 1.36, 1.37, 1.38, 1.38, 1.39, 1.4, 1.4, 1.41, 1.42, 1.42, 1.43, 1.44, 1.44, 1.45, 1.46, 1.46, 1.47, 1.48, 1.48, 1.49, 1.5, 1.51, 1.51, 1.52, 1.53, 1.54, 1.55, 1.55, 1.56, 1.57, 1.58, 1.59, 1.6, 1.6, 1.61, 1.62, 1.63, 1.64, 1.65, 1.66, 1.67, 1.68, 1.69, 1.7, 1.71, 1.72, 1.73, 1.74, 1.75, 1.77, 1.78, 1.79, 1.8, 1.81, 1.83, 1.84, 1.85, 1.87, 1.88, 1.89, 1.91, 1.92, 1.94, 1.95, 1.97, 1.99, 2.0, 2.02, 2.04, 2.06, 2.08, 2.09, 2.11, 2.14, 2.16, 2.18, 2.2, 2.22, 2.25, 2.27, 2.3, 2.32, 2.35, 2.38, 2.41, 2.44, 2.47, 2.51, 0.43, 0.43, 0.42, 0.42, 0.41, 0.41, 0.4, 0.4, 0.39, 0.39, 0.39, 0.38]
34 [0.94, 0.94, 0.95, 0.95, 0.96, 0.96, 0.97, 0.97, 0.98, 0.98, 0.99, 0.99, 1.0, 1.0, 1.01, 1.01, 1.02, 1.02, 1.02, 1.03, 1.03, 1.04, 1.04, 1.05, 1.05, 1.06, 1.06, 1.07, 1.07, 1.08, 1.08, 1.09, 1.09, 1.09, 1.1, 1.1, 1.11, 1.11, 1.12, 1.12, 1.13, 1.13, 1.14, 1.14, 1.14, 1.15, 1.15, 1.16, 1.16, 1.17, 1.17, 1.18, 1.18, 1.19, 1.19, 1.19, 1.2, 1.2, 1.21, 1.21, 1.22, 1.22, 1.23, 1.23, 1.24, 1.24, 1.25, 1.25, 1.26, 1.26, 1.27, 1.27, 1.28, 1.28, 1.28, 1.29, 1.29, 1.3, 1.3, 1.31, 1.32, 1.32, 1.33, 1.33, 1.34, 1.34, 1.35, 1.35, 1.36, 1.36, 1.37, 1.37, 1.38, 1.38, 1.39, 1.4, 1.4, 1.41, 1.41, 1.42, 1.42, 1.43, 1.44, 1.44, 1.45, 1.46, 1.46, 1.47, 1.47, 1.48, 1.49, 1.49, 1.5, 1.51, 1.51, 1.52, 1.53, 1.54, 1.54, 1.55, 1.56, 1.57, 1.57, 1.58, 1.59, 1.6, 1.61, 1.61, 1.62, 1.63, 1.64, 1.65, 1.66, 1.67, 1.68, 1.69, 1.7, 1.71, 1.72, 1.73, 1.74, 1.75, 1.76, 1.77, 1.78, 1.79, 1.8, 1.82, 1.83, 1.84, 1.86, 1.87, 1.88, 1.9, 1.91, 1.93, 1.94, 1.96, 1.97, 1.99, 2.01, 2.02, 2.04, 2.06, 2.08, 2.1, 2.12, 2.14, 2.16, 2.19, 2.21, 2.23, 2.26, 2.29, 2.31, 2.34, 2.37, 2.4, 0.4, 0.4, 0.39, 0.39]
35 [0.98, 0.98, 0.99, 0.99, 0.99, 1.0, 1.0, 1.01, 1.01, 1.01, 1.02, 1.02, 1.03, 1.03, 1.03, 1.04, 1.04, 1.04, 1.05, 1.05, 1.06, 1.06, 1.06, 1.07, 1.07, 1.07, 1.08, 1.08, 1.08, 1.09, 1.09, 1.1, 1.1, 1.1, 1.11, 1.11, 1.11, 1.12, 1.12, 1.12, 1.13, 1.13, 1.13, 1.14, 1.14, 1.14, 1.15, 1.15, 1.15, 1.16, 1.16, 1.16, 1.17, 1.17, 1.17, 1.18, 1.18, 1.18, 1.19, 1.19, 1.19, 1.2, 1.2, 1.2, 1.21, 1.21, 1.21, 1.22, 1.22, 1.22, 1.23, 1.23, 1.23, 1.24, 1.24, 1.25, 1.25, 1.25, 1.26, 1.26, 1.26, 1.27, 1.27, 1.27, 1.28, 1.28, 1.28, 1.29, 1.29, 1.3, 1.3, 1.3, 1.31, 1.31, 1.31, 1.32, 1.32, 1.33, 1.33, 1.33, 1.34, 1.34, 1.35, 1.35, 1.35, 1.36, 1.36, 1.37, 1.37, 1.37, 1.38, 1.38, 1.39, 1.39, 1.4, 1.4, 1.4, 1.41, 1.41, 1.42, 1.42, 1.43, 1.43, 1.44, 1.44, 1.45, 1.45, 1.46, 1.46, 1.47, 1.47, 1.48, 1.48, 1.49, 1.5, 1.5, 1.51, 1.51, 1.52, 1.53, 1.53, 1.54, 1.54, 1.55, 1.56, 1.56, 1.57, 1.58, 1.58, 1.59, 1.6, 1.61, 1.61, 1.62, 1.63, 1.64, 1.65, 1.65, 1.66, 1.67, 1.68, 1.69, 1.7, 1.71, 1.72, 1.73, 1.74, 1.75, 1.76, 1.77, 1.78, 1.8, 1.81, 1.82, 1.83, 1.85, 1.86, 1.88, 1.89, 1.91, 1.92, 1.94]
36 [1.0, 1.01, 1.01, 1.01, 1.02, 1.02, 1.02, 1.03, 1.03, 1.04, 1.04, 1.04, 1.05, 1.05, 1.05, 1.06, 1.06, 1.06, 1.07, 1.07, 1.07, 1.07, 1.08, 1.08, 1.08, 1.09, 1.09, 1.09, 1.1, 1.1, 1.1, 1.11, 1.11, 1.11, 1.11, 1.12, 1.12, 1.12, 1.13, 1.13, 1.13, 1.13, 1.14, 1.14, 1.14, 1.15, 1.15, 1.15, 1.16, 1.16, 1.16, 1.16, 1.17, 1.17, 1.17, 1.17, 1.18, 1.18, 1.18, 1.19, 1.19, 1.19, 1.19, 1.2, 1.2, 1.2, 1.21, 1.21, 1.21, 1.21, 1.22, 1.22, 1.22, 1.23, 1.23, 1.23, 1.23, 1.24, 1.24, 1.24, 1.25, 1.25, 1.25, 1.25, 1.26, 1.26, 1.26, 1.27, 1.27, 1.27, 1.27, 1.28, 1.28, 1.28, 1.29, 1.29, 1.29, 1.3, 1.3, 1.3, 1.31, 1.31, 1.31, 1.31, 1.32, 1.32, 1.32, 1.33, 1.33, 1.33, 1.34, 1.34, 1.34, 1.35, 1.35, 1.36, 1.36, 1.36, 1.37, 1.37, 1.37, 1.38, 1.38, 1.38, 1.39, 1.39, 1.4, 1.4, 1.4, 1.41, 1.41, 1.42, 1.42, 1.43, 1.43, 1.43, 1.44, 1.44, 1.45, 1.45, 1.46, 1.46, 1.47, 1.47, 1.48, 1.48, 1.49, 1.49, 1.5, 1.5, 1.51, 1.51, 1.52, 1.52, 1.53, 1.54, 1.54, 1.55, 1.56, 1.56, 1.57, 1.57, 1.58, 1.59, 1.6, 1.6, 1.61, 1.62, 1.63, 1.63, 1.64, 1.65, 1.66, 1.67, 1.68, 1.69, 1.7, 1.71, 1.72, 1.73, 1.74, 1.75]
37 [1.09, 1.09, 1.1, 1.1, 1.1, 1.1, 1.1, 1.11, 1.11, 1.11, 1.11, 1.11, 1.12, 1.12, 1.12, 1.12, 1.12, 1.13, 1.13, 1.13, 1.13, 1.13, 1.13, 1.14, 1.14, 1.14, 1.14, 1.14, 1.14, 1.15, 1.15, 1.15, 1.15, 1.15, 1.15, 1.16, 1.16, 1.16, 1.16, 1.16, 1.16, 1.17, 1.17, 1.17, 1.17, 1.17, 1.17, 1.17, 1.18, 1.18, 1.18, 1.18, 1.18, 1.18, 1.18, 1.19, 1.19, 1.19, 1.19, 1.19, 1.19, 1.19, 1.2, 1.2, 1.2, 1.2, 1.2, 1.2, 1.2, 1.21, 1.21, 1.21, 1.21, 1.21, 1.21, 1.21, 1.22, 1.22, 1.22, 1.22, 1.22, 1.22, 1.22, 1.22, 1.23, 1.23, 1.23, 1.23, 1.23, 1.23, 1.23, 1.24, 1.24, 1.24, 1.24, 1.24, 1.24, 1.24, 1.25, 1.25, 1.25, 1.25, 1.25, 1.25, 1.25, 1.26, 1.26, 1.26, 1.26, 1.26, 1.26, 1.27, 1.27, 1.27, 1.27, 1.27, 1.27, 1.27, 1.28, 1.28, 1.28, 1.28, 1.28, 1.28, 1.29, 1.29, 1.29, 1.29, 1.29, 1.29, 1.3, 1.3, 1.3, 1.3, 1.3, 1.3, 1.31, 1.31, 1.31, 1.31, 1.31, 1.32, 1.32, 1.32, 1.32, 1.32, 1.33, 1.33, 1.33, 1.33, 1.33, 1.34, 1.34, 1.34, 1.34, 1.35, 1.35, 1.35, 1.35, 1.36, 1.36, 1.36, 1.36, 1.37, 1.37, 1.37, 1.37, 1.38, 1.38, 1.38, 1.38, 1.39, 1.39, 1.39, 1.4, 1.4, 1.4, 1.41, 1.41, 1.41, 1.42, 1.42]
38 [1.27, 1.27, 1.27, 1.27, 1.26, 1.26, 1.26, 1.26, 1.26, 1.26, 1.26, 1.26, 1.26, 1.26, 1.26, 1.26, 1.26, 1.26, 1.25, 1.25, 1.25, 1.25, 1.25, 1.25, 1.25, 1.25, 1.25, 1.25, 1.25, 1.25, 1.25, 1.25, 1.25, 1.25, 1.24, 1.24, 1.24, 1.24, 1.24, 1.24, 1.24, 1.24, 1.24, 1.24, 1.24, 1.24, 1.24, 1.24, 1.24, 1.24, 1.24, 1.24, 1.24, 1.24, 1.23, 1.23, 1.23, 1.23, 1.23, 1.23, 1.23, 1.23, 1.23, 1.23, 1.23, 1.23, 1.23, 1.23, 1.23, 1.23, 1.23, 1.23, 1.23, 1.23, 1.23, 1.23, 1.23, 1.22, 1.22, 1.22, 1.22, 1.22, 1.22, 1.22, 1.22, 1.22, 1.22, 1.22, 1.22, 1.22, 1.22, 1.22, 1.22, 1.22, 1.22, 1.22, 1.22, 1.22, 1.22, 1.22, 1.22, 1.22, 1.21, 1.21, 1.21, 1.21, 1.21, 1.21, 1.21, 1.21, 1.21, 1.21, 1.21, 1.21, 1.21, 1.21, 1.21, 1.21, 1.21, 1.21, 1.21, 1.21, 1.21, 1.21, 1.21, 1.21, 1.2, 1.2, 1.2, 1.2, 1.2, 1.2, 1.2, 1.2, 1.2, 1.2, 1.2, 1.2, 1.2, 1.2, 1.2, 1.2, 1.2, 1.2, 1.2, 1.2, 1.2, 1.19, 1.19, 1.19, 1.19, 1.19, 1.19, 1.19, 1.19, 1.19, 1.19, 1.19, 1.19, 1.19, 1.19, 1.19, 1.19, 1.19, 1.19, 1.19, 1.18, 1.18, 1.18, 1.18, 1.18, 1.18, 1.18, 1.18, 1.18, 1.18, 1.18, 1.18, 1.18, 1.18, 1.18, 1.17]
39 [1.41, 1.41, 1.4, 1.4, 1.4, 1.39, 1.39, 1.39, 1.38, 1.38, 1.38, 1.37, 1.37, 1.37, 1.37, 1.36, 1.36, 1.36, 1.35, 1.35, 1.35, 1.35, 1.34, 1.34, 1.34, 1.34, 1.33, 1.33, 1.33, 1.33, 1.33, 1.32, 1.32, 1.32, 1.32, 1.32, 1.31, 1.31, 1.31, 1.31, 1.31, 1.3, 1.3, 1.3, 1.3, 1.3, 1.29, 1.29, 1.29, 1.29, 1.29, 1.29, 1.28, 1.28, 1.28, 1.28, 1.28, 1.27, 1.27, 1.27, 1.27, 1.27, 1.27, 1.27, 1.26, 1.26, 1.26, 1.26, 1.26, 1.26, 1.25, 1.25, 1.25, 1.25, 1.25, 1.25, 1.25, 1.24, 1.24, 1.24, 1.24, 1.24, 1.24, 1.24, 1.23, 1.23, 1.23, 1.23, 1.23, 1.23, 1.23, 1.22, 1.22, 1.22, 1.22, 1.22, 1.22, 1.22, 1.21, 1.21, 1.21, 1.21, 1.21, 1.21, 1.21, 1.2, 1.2, 1.2, 1.2, 1.2, 1.2, 1.2, 1.2, 1.19, 1.19, 1.19, 1.19, 1.19, 1.19, 1.19, 1.18, 1.18, 1.18, 1.18, 1.18, 1.18, 1.18, 1.17, 1.17, 1.17, 1.17, 1.17, 1.17, 1.17, 1.16, 1.16, 1.16, 1.16, 1.16, 1.16, 1.16, 1.15, 1.15, 1.15, 1.15, 1.15, 1.15, 1.14, 1.14, 1.14, 1.14, 1.14, 1.14, 1.14, 1.13, 1.13, 1.13, 1.13, 1.13, 1.13, 1.12, 1.12, 1.12, 1.12, 1.12, 1.11, 1.11, 1.11, 1.11, 1.11, 1.11, 1.1, 1.1, 1.1, 1.1, 1.1, 1.09, 1.09, 1.09, 1.09, 1.09, 1.08]
40 [1.32, 1.34, 1.36, 1.37, 1.39, 1.41, 1.43, 1.45, 1.47, 1.5, 1.52, 1.54, 1.53, 1.52, 1.52, 1.51, 1.51, 1.5, 1.49, 1.49, 1.48, 1.48, 1.47, 1.47, 1.46, 1.46, 1.45, 1.45, 1.44, 1.44, 1.43, 1.43, 1.43, 1.42, 1.42, 1.41, 1.41, 1.4, 1.4, 1.4, 1.39, 1.39, 1.39, 1.38, 1.38, 1.37, 1.37, 1.37, 1.36, 1.36, 1.36, 1.35, 1.35, 1.35, 1.34, 1.34, 1.34, 1.33, 1.33, 1.33, 1.32, 1.32, 1.32, 1.32, 1.31, 1.31, 1.31, 1.3, 1.3, 1.3, 1.3, 1.29, 1.29, 1.29, 1.28, 1.28, 1.28, 1.28, 1.27, 1.27, 1.27, 1.27, 1.26, 1.26, 1.26, 1.26, 1.25, 1.25, 1.25, 1.25, 1.24, 1.24, 1.24, 1.24, 1.23, 1.23, 1.23, 1.23, 1.22, 1.22, 1.22, 1.22, 1.21, 1.21, 1.21, 1.21, 1.2, 1.2, 1.2, 1.2, 1.19, 1.19, 1.19, 1.19, 1.19, 1.18, 1.18, 1.18, 1.18, 1.17, 1.17, 1.17, 1.17, 1.16, 1.16, 1.16, 1.16, 1.15, 1.15, 1.15, 1.15, 1.14, 1.14, 1.14, 1.14, 1.14, 1.13, 1.13, 1.13, 1.13, 1.12, 1.12, 1.12, 1.12, 1.11, 1.11, 1.11, 1.11, 1.1, 1.1, 1.1, 1.1, 1.09, 1.09, 1.09, 1.08, 1.08, 1.08, 1.08, 1.07, 1.07, 1.07, 1.07, 1.06, 1.06, 1.06, 1.05, 1.05, 1.05, 1.05, 1.04, 1.04, 1.04, 1.03, 1.03, 1.03, 1.02, 1.02, 1.02, 1.02, 1.01, 1.01]
41 [0.53, 0.54, 0.54, 0.55, 0.56, 0.56, 0.57, 0.58, 0.58, 0.59, 0.6, 0.6, 0.61, 0.62, 0.62, 0.63, 0.64, 0.65, 0.65, 0.66, 0.67, 0.68, 0.68, 0.69, 0.7, 1.56, 1.58, 1.6, 1.61, 1.63, 1.65, 1.67, 1.69, 1.7, 1.72, 1.74, 1.76, 1.76, 1.75, 1.74, 1.72, 1.71, 1.7, 1.69, 1.68, 1.67, 1.66, 1.65, 1.64, 1.63, 1.62, 1.61, 1.6, 1.59, 1.59, 1.58, 1.57, 1.56, 1.55, 1.54, 1.54, 1.53, 1.52, 1.51, 1.5, 1.5, 1.49, 1.48, 1.48, 1.47, 1.46, 1.45, 1.45, 1.44, 1.43, 1.43, 1.42, 1.41, 1.41, 1.4, 1.4, 1.39, 1.38, 1.38, 1.37, 1.37, 1.36, 1.35, 1.35, 1.34, 1.34, 1.33, 1.33, 1.32, 1.32, 1.31, 1.3, 1.3, 1.29, 1.29, 1.28, 1.28, 1.27, 1.27, 1.26, 1.26, 1.25, 1.25, 1.24, 1.24, 1.23, 1.23, 1.22, 1.22, 1.21, 1.21, 1.2, 1.2, 1.19, 1.19, 1.19, 1.18, 1.18, 1.17, 1.17, 1.16, 1.16, 1.15, 1.15, 1.14, 1.14, 1.13, 1.13, 1.13, 1.12, 1.12, 1.11, 1.11, 1.1, 1.1, 1.09, 1.09, 1.08, 1.08, 1.08, 1.07, 1.07, 1.06, 1.06, 1.05, 1.05, 1.04, 1.04, 1.03, 1.03, 1.03, 1.02, 1.02, 1.01, 1.01, 1.0, 1.0, 0.99, 0.99, 0.98, 0.98, 0.97, 0.97, 0.97, 0.96, 0.96, 0.95, 0.95, 0.94, 0.94, 0.93, 0.93, 0.92, 0.92, 0.91, 0.91, 0.9]
42 [1.13, 1.15, 1.16, 1.17, 1.18, 0.67, 0.65, 0.63, 0.62, 0.61, 0.6, 0.58, 0.58, 0.58, 0.59, 0.6, 0.6, 0.61, 0.61, 0.62, 0.63, 0.63, 0.64, 0.64, 0.65, 0.66, 0.66, 0.67, 0.68, 0.68, 0.69, 0.7, 0.7, 0.71, 0.72, 0.72, 0.73, 0.74, 0.75, 1.67, 1.69, 1.71, 1.72, 1.74, 1.76, 1.77, 1.79, 1.81, 1.83, 1.85, 1.85, 1.84, 1.82, 1.81, 1.79, 1.78, 1.77, 1.75, 1.74, 1.73, 1.72, 1.7, 1.69, 1.68, 1.67, 1.66, 1.65, 1.63, 1.62, 1.61, 1.6, 1.59, 1.58, 1.57, 1.56, 1.55, 1.54, 1.54, 1.53, 1.52, 1.51, 1.5, 1.49, 1.48, 1.47, 1.47, 1.46, 1.45, 1.44, 1.43, 1.42, 1.42, 1.41, 1.4, 1.39, 1.39, 1.38, 1.37, 1.36, 1.36, 1.35, 1.34, 1.34, 1.33, 1.32, 1.32, 1.31, 1.3, 1.3, 1.29, 1.28, 1.28, 1.27, 1.26, 1.26, 1.25, 1.24, 1.24, 1.23, 1.23, 1.22, 1.21, 1.21, 1.2, 1.2, 1.19, 1.18, 1.18, 1.17, 1.17, 1.16, 1.15, 1.15, 1.14, 1.14, 1.13, 1.13, 1.12, 1.11, 1.11, 1.1, 1.1, 1.09, 1.09, 1.08, 1.07, 1.07, 1.06, 1.06, 1.05, 1.05, 1.04, 1.03, 1.03, 1.02, 1.02, 1.01, 1.01, 1.0, 1.0, 0.99, 0.98, 0.98, 0.97, 0.97, 0.96, 0.96, 0.95, 0.95, 0.94, 0.93, 0.93, 0.92, 0.92, 0.91, 0.91, 0.9, 0.89, 0.89, 0.88, 0.88, 0.87]
43 [1.11, 1.12, 1.13, 1.14, 1.15, 1.16, 1.18, 1.19, 1.2, 1.21, 1.22, 1.23, 1.24, 1.25, 1.27, 1.28, 1.29, 0.73, 0.71, 0.69, 0.68, 0.66, 0.65, 0.63, 0.62, 0.62, 0.63, 0.63, 0.64, 0.65, 0.65, 0.66, 0.66, 0.67, 0.67, 0.68, 0.69, 0.69, 0.7, 0.7, 0.71, 0.72, 0.72, 0.73, 0.73, 0.74, 0.75, 0.75, 0.76, 0.77, 0.77, 1.74, 1.76, 1.77, 1.79, 1.8, 1.82, 1.83, 1.85, 1.87, 1.88, 1.9, 1.92, 1.9, 1.88, 1.86, 1.85, 1.83, 1.82, 1.8, 1.79, 1.77, 1.76, 1.74, 1.73, 1.72, 1.7, 1.69, 1.68, 1.66, 1.65, 1.64, 1.63, 1.62, 1.6, 1.59, 1.58, 1.57, 1.56, 1.55, 1.54, 1.53, 1.52, 1.51, 1.5, 1.49, 1.48, 1.47, 1.46, 1.45, 1.44, 1.43, 1.42, 1.41, 1.4, 1.39, 1.38, 1.38, 1.37, 1.36, 1.35, 1.34, 1.33, 1.32, 1.32, 1.31, 1.3, 1.29, 1.28, 1.28, 1.27, 1.26, 1.25, 1.25, 1.24, 1.23, 1.22, 1.22, 1.21, 1.2, 1.19, 1.19, 1.18, 1.17, 1.17, 1.16, 1.15, 1.15, 1.14, 1.13, 1.12, 1.12, 1.11, 1.1, 1.1, 1.09, 1.08, 1.08, 1.07, 1.06, 1.06, 1.05, 1.04, 1.04, 1.03, 1.02, 1.02, 1.01, 1.0, 1.0, 0.99, 0.99, 0.98, 0.97, 0.97, 0.96, 0.95, 0.95, 0.94, 0.93, 0.93, 0.92, 0.91, 0.91, 0.9, 0.89, 0.89, 0.88, 0.88, 0.87, 0.86, 0.86]
44 [1.1, 1.11, 1.12, 1.13, 1.14, 1.15, 1.16, 1.17, 1.18, 1.19, 1.2, 1.21, 1.22, 1.23, 1.24, 1.25, 1.26, 1.27, 1.28, 1.29, 1.3, 1.31, 1.32, 1.33, 1.34, 1.35, 1.36, 1.37, 1.38, 0.79, 0.77, 0.75, 0.73, 0.71, 0.7, 0.68, 0.67, 0.66, 0.66, 0.67, 0.67, 0.68, 0.68, 0.69, 0.69, 0.7, 0.7, 0.71, 0.71, 0.72, 0.72, 0.73, 0.73, 0.74, 0.75, 0.75, 0.76, 0.76, 0.77, 0.77, 0.78, 0.79, 0.79, 0.8, 1.8, 1.82, 1.83, 1.85, 1.86, 1.87, 1.89, 1.9, 1.92, 1.93, 1.95, 1.94, 1.92, 1.9, 1.89, 1.87, 1.85, 1.83, 1.82, 1.8, 1.78, 1.77, 1.75, 1.74, 1.72, 1.71, 1.69, 1.68, 1.66, 1.65, 1.64, 1.62, 1.61, 1.6, 1.58, 1.57, 1.56, 1.55, 1.53, 1.52, 1.51, 1.5, 1.49, 1.48, 1.46, 1.45, 1.44, 1.43, 1.42, 1.41, 1.4, 1.39, 1.38, 1.37, 1.36, 1.35, 1.34, 1.33, 1.32, 1.31, 1.3, 1.29, 1.28, 1.27, 1.27, 1.26, 1.25, 1.24, 1.23, 1.22, 1.21, 1.2, 1.2, 1.19, 1.18, 1.17, 1.16, 1.15, 1.15, 1.14, 1.13, 1.12, 1.11, 1.11, 1.1, 1.09, 1.08, 1.07, 1.07, 1.06, 1.05, 1.04, 1.04, 1.03, 1.02, 1.01, 1.01, 1.0, 0.99, 0.98, 0.98, 0.97, 0.96, 0.95, 0.95, 0.94, 0.93, 0.92, 0.92, 0.91, 0.9, 0.89, 0.89, 0.88, 0.87, 0.86, 0.0, 0.0]
45 [1.1, 1.11, 1.12, 1.13, 1.14, 1.14, 1.15, 1.16, 1.17, 1.18, 1.19, 1.2, 1.21, 1.21, 1.22, 1.23, 1.24, 1.25, 1.26, 1.27, 1.28, 1.28, 1.29, 1.3, 1.31, 1.32, 1.33, 1.34, 1.35, 1.35, 1.36, 1.37, 1.38, 1.39, 1.4, 1.41, 1.42, 1.43, 1.44, 1.45, 1.45, 1.46, 0.82, 0.8, 0.78, 0.76, 0.74, 0.72, 0.71, 0.69, 0.69, 0.69, 0.7, 0.7, 0.7, 0.71, 0.71, 0.72, 0.72, 0.73, 0.73, 0.74, 0.74, 0.75, 0.75, 0.76, 0.76, 0.77, 0.77, 0.78, 0.78, 0.79, 0.79, 0.8, 0.8, 0.81, 0.81, 1.84, 1.86, 1.87, 1.88, 1.89, 1.91, 1.92, 1.93, 1.95, 1.96, 1.97, 1.94, 1.92, 1.9, 1.88, 1.86, 1.84, 1.83, 1.81, 1.79, 1.77, 1.75, 1.74, 1.72, 1.7, 1.69, 1.67, 1.66, 1.64, 1.63, 1.61, 1.6, 1.58, 1.57, 1.55, 1.54, 1.53, 1.51, 1.5, 1.49, 1.47, 1.46, 1.45, 1.44, 1.42, 1.41, 1.4, 1.39, 1.38, 1.37, 1.35, 1.34, 1.33, 1.32, 1.31, 1.3, 1.29, 1.28, 1.27, 1.26, 1.25, 1.24, 1.23, 1.22, 1.21, 1.2, 1.19, 1.18, 1.17, 1.16, 1.15, 1.14, 1.13, 1.12, 1.11, 1.1, 1.09, 1.08, 1.07, 1.07, 1.06, 1.05, 1.04, 1.03, 1.02, 1.01, 1.0, 1.0, 0.99, 0.98, 0.97, 0.96, 0.95, 0.95, 0.94, 0.93, 0.92, 0.91, 0.9, 0.9, 0.89, 0.88, 0.87, 10.0, 0.0]
46 [1.11, 1.12, 1.13, 1.14, 1.14, 1.15, 1.16, 1.17, 1.18, 1.18, 1.19, 1.2, 1.21, 1.21, 1.22, 1.23, 1.24, 1.24, 1.25, 1.26, 1.27, 1.28, 1.28, 1.29, 1.3, 1.31, 1.31, 1.32, 1.33, 1.34, 1.34, 1.35, 1.36, 1.37, 1.37, 1.38, 1.39, 1.4, 1.41, 1.41, 1.42, 1.43, 1.44, 1.44, 1.45, 1.46, 1.47, 1.48, 1.48, 1.49, 1.5, 1.51, 1.52, 0.86, 0.83, 0.81, 0.79, 0.77, 0.75, 0.73, 0.72, 0.7, 0.71, 0.71, 0.71, 0.72, 0.72, 0.73, 0.73, 0.73, 0.74, 0.74, 0.75, 0.75, 0.75, 0.76, 0.76, 0.77, 0.77, 0.78, 0.78, 0.78, 0.79, 0.79, 0.8, 0.8, 0.81, 0.81, 1.85, 1.86, 1.87, 1.88, 1.89, 1.9, 1.92, 1.93, 1.94, 1.95, 1.97, 1.94, 1.92, 1.9, 1.88, 1.86, 1.84, 1.82, 1.8, 1.78, 1.76, 1.74, 1.72, 1.7, 1.68, 1.67, 1.65, 1.63, 1.62, 1.6, 1.58, 1.57, 1.55, 1.54, 1.52, 1.51, 1.49, 1.48, 1.46, 1.45, 1.44, 1.42, 1.41, 1.4, 1.38, 1.37, 1.36, 1.34, 1.33, 1.32, 1.31, 1.29, 1.28, 1.27, 1.26, 1.25, 1.24, 1.22, 1.21, 1.2, 1.19, 1.18, 1.17, 1.16, 1.15, 1.14, 1.13, 1.12, 1.11, 1.1, 1.09, 1.08, 1.07, 1.06, 1.05, 1.04, 1.03, 1.02, 1.01, 1.0, 0.99, 0.98, 0.97, 0.96, 0.95, 0.94, 0.93, 0.92, 0.91, 0.9, 0.89, 0.89, 0.88, 0.87]
47 [1.13, 1.14, 1.15, 1.15, 1.16, 1.17, 1.18, 1.18, 1.19, 1.2, 1.2, 1.21, 1.22, 1.22, 1.23, 1.24, 1.24, 1.25, 1.26, 1.26, 1.27, 1.28, 1.28, 1.29, 1.3, 1.3, 1.31, 1.32, 1.32, 1.33, 1.34, 1.34, 1.35, 1.36, 1.36, 1.37, 1.37, 1.38, 1.39, 1.39, 1.4, 1.41, 1.41, 1.42, 1.43, 1.43, 1.44, 1.45, 1.45, 1.46, 1.47, 1.47, 1.48, 1.49, 1.49, 1.5, 1.51, 1.51, 1.52, 1.53, 1.53, 1.54, 1.55, 1.56, 0.87, 0.85, 0.83, 0.8, 0.78, 0.76, 0.74, 0.73, 0.71, 0.71, 0.72, 0.72, 0.72, 0.73, 0.73, 0.73, 0.74, 0.74, 0.74, 0.75, 0.75, 0.75, 0.76, 0.76, 0.77, 0.77, 0.77, 0.78, 0.78, 0.78, 0.79, 0.79, 0.8, 0.8, 0.8, 1.84, 1.85, 1.86, 1.87, 1.88, 1.89, 1.9, 1.91, 1.92, 1.93, 1.94, 1.91, 1.89, 1.87, 1.84, 1.82, 1.8, 1.78, 1.76, 1.74, 1.72, 1.7, 1.68, 1.66, 1.64, 1.62, 1.6, 1.59, 1.57, 1.55, 1.54, 1.52, 1.5, 1.49, 1.47, 1.46, 1.44, 1.42, 1.41, 1.4, 1.38, 1.37, 1.35, 1.34, 1.32, 1.31, 1.3, 1.28, 1.27, 1.26, 1.24, 1.23, 1.22, 1.21, 1.19, 1.18, 1.17, 1.16, 1.15, 1.13, 1.12, 1.11, 1.1, 1.09, 1.08, 1.07, 1.05, 1.04, 1.03, 1.02, 1.01, 1.0, 0.99, 0.98, 0.97, 0.96, 0.95, 0.94, 0.93, 0.92, 0.91, 0.9, 0.89]
48 [1.16, 1.17, 1.18, 1.18, 1.19, 1.2, 1.2, 1.21, 1.21, 1.22, 1.23, 1.23, 1.24, 1.24, 1.25, 1.25, 1.26, 1.27, 1.27, 1.28, 1.28, 1.29, 1.29, 1.3, 1.31, 1.31, 1.32, 1.32, 1.33, 1.33, 1.34, 1.34, 1.35, 1.35, 1.36, 1.37, 1.37, 1.38, 1.38, 1.39, 1.39, 1.4, 1.4, 1.41, 1.41, 1.42, 1.43, 1.43, 1.44, 1.44, 1.45, 1.45, 1.46, 1.46, 1.47, 1.47, 1.48, 1.49, 1.49, 1.5, 1.5, 1.51, 1.51, 1.52, 1.52, 1.53, 1.53, 1.54, 1.55, 1.55, 1.56, 1.56, 1.57, 1.57, 1.58, 0.88, 0.86, 0.83, 0.81, 0.79, 0.77, 0.75, 0.73, 0.71, 0.72, 0.72, 0.72, 0.72, 0.73, 0.73, 0.73, 0.73, 0.74, 0.74, 0.74, 0.75, 0.75, 0.75, 0.75, 0.76, 0.76, 0.76, 0.77, 0.77, 0.77, 0.78, 0.78, 0.78, 0.79, 0.79, 0.79, 1.82, 1.83, 1.84, 1.85, 1.86, 1.87, 1.87, 1.88, 1.89, 1.89, 1.87, 1.84, 1.82, 1.8, 1.77, 1.75, 1.73, 1.71, 1.68, 1.66, 1.64, 1.62, 1.6, 1.58, 1.57, 1.55, 1.53, 1.51, 1.49, 1.47, 1.46, 1.44, 1.42, 1.41, 1.39, 1.38, 1.36, 1.34, 1.33, 1.31, 1.3, 1.28, 1.27, 1.25, 1.24, 1.23, 1.21, 1.2, 1.18, 1.17, 1.16, 1.14, 1.13, 1.12, 1.11, 1.09, 1.08, 1.07, 1.06, 1.04, 1.03, 1.02, 1.01, 1.0, 0.98, 0.97, 0.96, 0.95, 0.94, 0.93, 0.92]
49 [1.21, 1.21, 1.22, 1.22, 1.23, 1.23, 1.24, 1.24, 1.25, 1.25, 1.26, 1.26, 1.27, 1.27, 1.28, 1.28, 1.29, 1.29, 1.3, 1.3, 1.31, 1.31, 1.32, 1.32, 1.33, 1.33, 1.33, 1.34, 1.34, 1.35, 1.35, 1.36, 1.36, 1.37, 1.37, 1.37, 1.38, 1.38, 1.39, 1.39, 1.4, 1.4, 1.41, 1.41, 1.41, 1.42, 1.42, 1.43, 1.43, 1.44, 1.44, 1.44, 1.45, 1.45, 1.46, 1.46, 1.47, 1.47, 1.47, 1.48, 1.48, 1.49, 1.49, 1.5, 1.5, 1.5, 1.51, 1.51, 1.52, 1.52, 1.53, 1.53, 1.53, 1.54, 1.54, 1.55, 1.55, 1.56, 1.56, 1.57, 1.57, 1.57, 1.58, 1.58, 1.59, 1.59, 0.87, 0.85, 0.83, 0.8, 0.78, 0.76, 0.74, 0.72, 0.71, 0.71, 0.71, 0.72, 0.72, 0.72, 0.72, 0.72, 0.73, 0.73, 0.73, 0.73, 0.74, 0.74, 0.74, 0.74, 0.75, 0.75, 0.75, 0.75, 0.76, 0.76, 0.76, 0.76, 0.77, 0.77, 0.77, 0.77, 1.79, 1.79, 1.8, 1.81, 1.81, 1.82, 1.83, 1.83, 1.84, 1.82, 1.8, 1.77, 1.75, 1.72, 1.7, 1.68, 1.65, 1.63, 1.61, 1.59, 1.57, 1.55, 1.53, 1.51, 1.49, 1.47, 1.45, 1.43, 1.41, 1.4, 1.38, 1.36, 1.34, 1.33, 1.31, 1.29, 1.28, 1.26, 1.25, 1.23, 1.22, 1.2, 1.19, 1.17, 1.16, 1.14, 1.13, 1.11, 1.1, 1.09, 1.07, 1.06, 1.04, 1.03, 1.02, 1.01, 0.99, 0.98, 10.0, 0.0]
