0 [10.0, 10.0, 10.0, 10.0, 10.0, 10.0, 10.0, 10.0, 10.0, 10.0, 10.0, 10.0, 10.0, 10.0, 10.0, 10.0, 10.0, 10.0, 10.0, 10.0, 10.0, 10.0, 10.0, 10.0, 10.0, 10.0, 10.0, 10.0, 10.0, 10.0, 10.0, 10.0, 10.0, 10.0, 10.0, 10.0, 10.0, 10.0, 10.0, 10.0, 10.0, 10.0, 10.0, 10.0, 10.0, 10.0, 10.0, 10.0, 10.0, 10.0, 10.0, 10.0, 10.0, 10.0, 10.0, 10.0, 10.0, 10.0, 10.0, 10.0, 10.0, 10.0, 10.0, 10.0, 10.0, 10.0, 10.0, 10.0, 10.0, 10.0, 10.0, 10.0, 10.0, 10.0, 10.0, 10.0, 10.0, 10.0, 10.0, 10.0, 10.0, 10.0, 10.0, 10.0, 10.0, 10.0, 10.0, 10.0, 10.0, 10.0, 10.0, 10.0, 10.0, 10.0, 10.0, 10.0, 10.0, 10.0, 10.0, 10.0, 10.0, 10.0, 10.0, 10.0, 10.0, 10.0, 10.0, 10.0, 10.0, 10.0, 10.0, 10.0, 10.0, 10.0, 10.0, 10.0, 10.0, 10.0, 10.0, 10.0, 10.0, 10.0, 10.0, 10.0, 10.0, 10.0, 10.0, 10.0, 10.0, 10.0, 10.0, 10.0, 10.0, 10.0, 10.0, 10.0, 10.0, 10.0, 10.0, 10.0, 10.0, 10.0, 10.0, 10.0, 10.0, 10.0, 10.0, 10.0, 10.0, 10.0, 10.0, 10.0, 10.0, 10.0, 10.0, 10.0, 10.0, 10.0, 10.0, 10.0, 10.0, 10.0, 10.0, 10.0, 10.0, 10.0, 10.0, 10.0, 10.0, 10.0, 10.0, 10.0, 10.0, 10.0, 10.0, 10.0, 10.0, 10.0, 10.0, 10.0, 10.0, 10.0]
1 [1.1, 1.11, 1.13, 1.15, 1.17, 1.2, 1.22, 1.24, 1.26, 1.28, 1.3, 1.33, 1.35, 1.38, 1.4, 1.42, 1.45, 1.48, 1.5, 1.53, 1.56, 1.59, 1.62, 1.65, 1.68, 1.71, 1.74, 1.78, 1.81, 1.85, 1.89, 1.92, 1.96, 2.0, 2.04, 2.09, 2.13, 2.18, 2.22, 2.27, 2.32, 2.38, 2.43, 2.49, 2.55, 2.61, 2.67, 2.74, 2.81, 2.88, 2.95, 3.03, 3.12, 3.2, 3.3, 3.39, 3.45, 3.45, 3.45, 3.45, 3.45, 3.45, 3.45, 3.45, 3.45, 3.45, 3.45, 3.45, 3.45, 3.45, 1.16, 1.16, 1.16, 1.16, 1.16, 1.16, 1.16, 1.16, 1.16, 1.16, 1.16, 1.16, 1.16, 1.16, 1.16, 1.16, 1.16, 1.16, 1.16, 1.16, 3.45, 3.45, 3.45, 3.45, 3.45, 3.45, 3.45, 3.45, 3.45, 3.45, 3.45, 3.45, 3.45, 3.45, 3.45, 3.45, 3.45, 3.45, 3.45, 3.45, 3.44, 3.44, 3.44, 3.44, 3.44, 3.44, 3.44, 3.44, 3.44, 3.44, 3.44, 3.44, 3.44, 3.44, 3.44, 3.44, 3.44, 3.44, 3.44, 3.44, 3.44, 3.44, 3.44, 3.44, 3.44, 3.44, 3.44, 3.44, 2.38, 2.33, 2.27, 2.22, 2.2, 2.2, 2.2, 2.2, 2.2, 2.2, 2.2, 2.2, 3.44, 3.44, 3.44, 3.44, 3.44, 3.44, 3.44, 3.44, 3.44, 3.44, 3.44, 3.43, 3.43, 3.43, 3.43, 3.43, 3.43, 3.43, 3.43, 3.43, 3.43, 3.43, 3.43, 3.43, 3.43, 3.43, 3.43, 3.43, 3.43, 3.43, 3.43, 3.43]
2 [1.08, 1.1, 1.12, 1.14, 1.16, 1.18, 1.2, 1.22, 1.24, 1.26, 1.29, 1.31, 1.33, 1.36, 1.38, 1.4, 1.43, 1.45, 1.48, 1.51, 1.53, 1.56, 1.59, 1.62, 1.65, 1.68, 1.71, 1.75, 1.78, 1.81, 1.85, 1.89, 1.92, 1.96, 2.0, 2.04, 2.09, 2.13, 2.17, 2.22, 2.27, 2.32, 2.37, 2.43, 2.48, 2.54, 2.6, 2.66, 2.73, 2.8, 2.87, 2.94, 3.02, 3.1, 3.19, 3.28, 3.37, 3.47, 3.47, 3.47, 3.47, 3.47, 3.47, 3.46, 3.46, 3.46, 3.46, 3.46, 3.46, 3.46, 3.46, 1.16, 1.16, 1.16, 1.16, 1.16, 1.16, 1.16, 1.16, 1.16, 1.16, 1.16, 1.16, 1.16, 1.16, 1.16, 1.16, 1.16, 1.16, 1.16, 1.16, 3.45, 3.45, 3.45, 3.45, 3.45, 3.45, 3.45, 3.45, 3.45, 3.45, 3.45, 3.44, 3.44, 3.44, 3.44, 3.44, 3.44, 3.44, 3.44, 3.44, 3.44, 3.44, 3.44, 3.44, 3.44, 3.44, 3.44, 3.44, 3.44, 3.44, 3.44, 3.43, 3.43, 3.43, 3.43, 3.43, 3.43, 3.43, 3.43, 3.43, 3.43, 3.43, 3.43, 3.43, 3.43, 3.43, 3.43, 3.43, 2.39, 2.33, 2.28, 2.23, 2.19, 2.19, 2.19, 2.19, 2.19, 2.19, 2.19, 2.19, 3.42, 3.42, 3.42, 3.42, 3.41, 3.41, 3.41, 3.41, 3.41, 3.41, 3.41, 3.41, 3.41, 3.41, 3.41, 3.41, 3.41, 3.41, 3.4, 3.4, 3.4, 3.4, 3.4, 3.4, 3.4, 3.4, 3.4, 3.4, 3.4, 3.39, 3.39]
3 [1.04, 1.06, 1.08, 1.1, 1.11, 1.13, 1.15, 1.17, 1.19, 1.21, 1.23, 1.25, 1.27, 1.29, 1.32, 1.34, 1.36, 1.38, 1.41, 1.43, 1.46, 1.48, 1.51, 1.53, 1.56, 1.59, 1.62, 1.64, 1.67, 1.7, 1.74, 1.77, 1.8, 1.83, 1.87, 1.91, 1.94, 1.98, 2.02, 2.06, 2.1, 2.14, 2.19, 2.23, 2.28, 2.33, 2.38, 2.43, 2.49, 2.55, 2.61, 2.67, 2.73, 2.8, 2.87, 2.94, 3.02, 3.1, 3.18, 3.27, 3.36, 3.46, 3.51, 3.5, 3.5, 3.5, 3.5, 3.5, 3.49, 3.49, 3.49, 3.49, 3.49, 3.49, 3.48, 3.48, 1.17, 1.17, 1.17, 1.17, 1.17, 1.17, 1.16, 1.16, 1.16, 1.16, 1.16, 1.16, 1.16, 1.16, 1.16, 1.16, 1.16, 1.16, 1.16, 1.16, 3.45, 3.44, 3.44, 3.44, 3.44, 3.44, 3.44, 3.43, 3.43, 3.43, 3.43, 3.43, 3.43, 3.42, 3.42, 3.42, 3.42, 3.42, 3.42, 3.41, 3.41, 3.41, 3.41, 3.41, 3.41, 3.4, 3.4, 3.4, 3.4, 3.4, 3.4, 3.39, 3.39, 3.39, 3.39, 3.39, 3.38, 3.38, 3.38, 3.38, 3.38, 3.37, 3.37, 3.37, 3.37, 3.37, 3.37, 3.36, 2.32, 2.27, 2.21, 2.16, 2.15, 2.15, 2.14, 2.14, 2.14, 2.14, 2.14, 2.14, 3.34, 3.33, 3.33, 3.33, 3.33, 3.32, 3.32, 3.32, 3.32, 3.32, 3.31, 3.31, 3.31, 3.31, 3.3, 3.3, 3.3, 3.29, 3.29, 3.29, 3.29, 3.28, 3.28, 3.28, 3.28, 3.27]
4 [0.41, 0.42, 1.06, 1.07, 1.09, 1.11, 1.13, 1.15, 1.17, 1.18, 1.2, 1.22, 1.24, 1.26, 1.28, 1.31, 1.33, 1.35, 1.37, 1.39, 1.42, 1.44, 1.47, 1.49, 1.52, 1.54, 1.57, 1.6, 1.63, 1.65, 1.68, 1.71, 1.74, 1.78, 1.81, 1.84, 1.88, 1.91, 1.95, 1.99, 2.02, 2.06, 2.1, 2.15, 2.19, 2.24, 2.28, 2.33, 2.38, 2.43, 2.49, 2.54, 2.6, 2.66, 2.73, 2.79, 2.86, 2.93, 3.01, 3.08, 3.17, 3.25, 3.34, 3.44, 3.52, 3.52, 3.52, 3.52, 3.51, 3.51, 3.51, 3.51, 3.51, 3.5, 3.5, 3.5, 3.5, 3.49, 3.49, 1.17, 1.17, 1.17, 1.17, 1.17, 1.17, 1.17, 1.17, 1.17, 1.16, 1.16, 1.16, 1.16, 1.16, 1.16, 1.16, 1.16, 1.16, 1.16, 3.44, 3.44, 3.44, 3.44, 3.43, 3.43, 3.43, 3.43, 3.43, 3.42, 3.42, 3.42, 3.42, 3.41, 3.41, 3.41, 3.41, 3.4, 3.4, 3.4, 3.4, 3.4, 3.39, 3.39, 3.39, 3.39, 3.38, 3.38, 3.38, 3.38, 3.37, 3.37, 3.37, 3.37, 3.36, 3.36, 3.36, 3.36, 3.35, 3.35, 3.35, 3.35, 3.34, 3.34, 3.34, 3.34, 3.33, 3.33, 2.32, 2.26, 2.21, 2.16, 2.12, 2.12, 2.12, 2.12, 2.12, 2.12, 2.11, 2.11, 3.29, 3.29, 3.29, 3.28, 3.28, 3.28, 3.27, 3.27, 3.27, 3.27, 3.26, 3.26, 3.26, 3.25, 3.25, 3.24, 3.24, 3.24, 3.23, 3.23, 3.23, 3.22, 3.22, 3.21]
5 [0.4, 0.4, 0.41, 0.42, 1.06, 1.08, 1.09, 1.11, 1.13, 1.15, 1.17, 1.18, 1.2, 1.22, 1.24, 1.26, 1.28, 1.3, 1.32, 1.34, 1.37, 1.39, 1.41, 1.43, 1.46, 1.48, 1.51, 1.53, 1.56, 1.58, 1.61, 1.64, 1.67, 1.69, 1.72, 1.75, 1.79, 1.82, 1.85, 1.88, 1.92, 1.95, 1.99, 2.03, 2.07, 2.11, 2.15, 2.19, 2.24, 2.28, 2.33, 2.38, 2.43, 2.48, 2.54, 2.59, 2.65, 2.71, 2.78, 2.84, 2.91, 2.99, 3.06, 3.14, 3.23, 3.31, 3.41, 3.5, 3.54, 3.54, 3.53, 3.53, 3.53, 3.52, 3.52, 3.52, 3.51, 3.51, 3.51, 3.5, 3.5, 3.5, 1.17, 1.17, 1.17, 1.17, 1.16, 1.16, 1.16, 1.16, 1.16, 1.16, 1.16, 1.16, 1.16, 1.15, 1.15, 1.15, 1.15, 1.15, 1.15, 1.15, 3.43, 3.42, 3.42, 3.42, 3.42, 3.41, 3.41, 3.41, 3.4, 3.4, 3.4, 3.39, 3.39, 3.39, 3.38, 3.38, 3.38, 3.37, 3.37, 3.37, 3.36, 3.36, 3.36, 3.35, 3.35, 3.35, 3.34, 3.34, 3.34, 3.33, 3.33, 3.33, 3.32, 3.32, 3.32, 3.31, 3.31, 3.31, 3.3, 3.3, 3.29, 3.29, 3.29, 3.28, 3.28, 3.28, 3.27, 3.27, 2.26, 2.2, 2.15, 2.1, 2.08, 2.08, 2.07, 2.07, 2.07, 2.07, 2.06, 2.06, 3.22, 3.21, 3.21, 3.2, 3.2, 3.2, 3.19, 3.19, 3.18, 3.18, 3.17, 3.17, 3.16, 3.16, 3.15, 3.15, 3.14, 3.14, 3.13, 3.13]
6 [0.4, 0.4, 0.41, 0.42, 1.06, 1.08, 1.09, 1.11, 1.13, 1.15, 1.17, 1.18, 1.2, 1.22, 1.24, 1.26, 1.28, 1.3, 1.32, 1.34, 1.37, 1.39, 1.41, 1.43, 1.46, 1.48, 1.51, 1.53, 1.56, 1.58, 1.61, 1.64, 1.67, 1.69, 1.72, 1.75, 1.79, 1.82, 1.85, 1.88, 1.92, 1.95, 1.99, 2.03, 2.07, 2.11, 2.15, 2.19, 2.24, 2.28, 2.33, 2.38, 2.43, 2.48, 2.54, 2.59, 2.65, 2.71, 2.78, 2.84, 2.91, 2.99, 3.06, 3.14, 3.23, 3.31, 3.41, 3.5, 3.54, 3.54, 3.53, 3.53, 3.53, 3.52, 3.52, 3.52, 3.51, 3.51, 3.51, 3.5, 3.5, 3.5, 1.17, 1.17, 1.17, 1.17, 1.16, 1.16, 1.16, 1.16, 1.16, 1.16, 1.16, 1.16, 1.16, 1.15, 1.15, 1.15, 1.15, 1.15, 1.15, 1.15, 3.43, 3.42, 3.42, 3.42, 3.42, 3.41, 3.41, 3.41, 3.4, 3.4, 3.4, 3.39, 3.39, 3.39, 3.38, 3.38, 3.38, 3.37, 3.37, 3.37, 3.36, 3.36, 3.36, 3.35, 3.35, 3.35, 3.34, 3.34, 3.34, 3.33, 3.33, 3.33, 3.32, 3.32, 3.32, 3.31, 3.31, 3.31, 3.3, 3.3, 3.29, 3.29, 3.29, 3.28, 3.28, 3.28, 3.27, 3.27, 2.26, 2.2, 2.15, 2.1, 2.08, 2.08, 2.07, 2.07, 2.07, 2.07, 2.06, 2.06, 3.22, 3.21, 3.21, 3.2, 3.2, 3.2, 3.19, 3.19, 3.18, 3.18, 3.17, 3.17, 3.16, 3.16, 3.15, 3.15, 3.14, 3.14, 3.13, 3.13]
7 [0.39, 0.39, 0.4, 0.41, 0.41, 0.42, 1.07, 1.09, 1.11, 1.12, 1.14, 1.16, 1.18, 1.19, 1.21, 1.23, 1.25, 1.27, 1.29, 1.31, 1.33, 1.35, 1.37, 1.39, 1.42, 1.44, 1.46, 1.49, 1.51, 1.53, 1.56, 1.59, 1.61, 1.64, 1.67, 1.69, 1.72, 1.75, 1.78, 1.82, 1.85, 1.88, 1.91, 1.95, 1.98, 2.02, 2.06, 2.1, 2.14, 2.18, 2.22, 2.27, 2.32, 2.36, 2.41, 2.46, 2.52, 2.57, 2.63, 2.69, 2.75, 2.82, 2.88, 2.95, 3.03, 3.11, 3.19, 3.27, 3.36, 3.45, 3.55, 3.55, 3.54, 3.54, 3.53, 3.53, 3.52, 3.52, 3.52, 3.51, 3.51, 3.5, 3.5, 3.5, 3.49, 1.16, 1.16, 1.16, 1.16, 1.16, 1.15, 1.15, 1.15, 1.15, 1.15, 1.15, 1.15, 1.14, 1.14, 1.14, 1.14, 1.14, 1.14, 1.14, 1.14, 3.41, 3.41, 3.4, 3.4, 3.39, 3.39, 3.39, 3.38, 3.38, 3.37, 3.37, 3.37, 3.36, 3.36, 3.35, 3.35, 3.35, 3.34, 3.34, 3.33, 3.33, 3.33, 3.32, 3.32, 3.31, 3.31, 3.31, 3.3, 3.3, 3.29, 3.29, 3.29, 3.28, 3.28, 3.27, 3.27, 3.27, 3.26, 3.26, 3.25, 3.25, 3.24, 3.24, 3.23, 3.23, 3.23, 3.22, 3.22, 2.21, 2.16, 2.11, 2.05, 2.04, 2.04, 2.03, 2.03, 2.03, 2.02, 2.02, 2.02, 3.15, 3.15, 3.14, 3.14, 3.13, 3.13, 3.12, 3.12, 3.11, 3.11, 3.1, 3.09, 3.09, 3.08, 3.08, 3.07, 3.06]
8 [0.38, 0.38, 0.39, 0.4, 0.4, 0.41, 1.05, 1.07, 1.08, 1.1, 1.12, 1.13, 1.15, 1.17, 1.18, 1.2, 1.22, 1.24, 1.26, 1.28, 1.3, 1.32, 1.34, 1.36, 1.38, 1.4, 1.42, 1.44, 1.47, 1.49, 1.51, 1.54, 1.56, 1.59, 1.61, 1.64, 1.67, 1.7, 1.72, 1.75, 1.78, 1.81, 1.85, 1.88, 1.91, 1.95, 1.98, 2.02, 2.06, 2.09, 2.13, 2.17, 2.22, 2.26, 2.31, 2.35, 2.4, 2.45, 2.5, 2.56, 2.61, 2.67, 2.73, 2.8, 2.86, 2.93, 3.0, 3.08, 3.16, 3.24, 3.33, 3.42, 3.52, 3.54, 3.54, 3.53, 3.53, 3.52, 3.52, 3.51, 3.51, 3.5, 3.5, 3.49, 3.49, 3.49, 3.48, 1.15, 1.14, 1.14, 1.14, 1.14, 1.14, 1.14, 1.14, 1.13, 1.13, 1.13, 1.13, 1.13, 1.13, 1.13, 1.12, 1.12, 1.12, 1.12, 1.12, 1.21, 3.38, 3.38, 3.37, 3.37, 3.36, 3.36, 3.35, 3.35, 3.35, 3.34, 3.34, 3.33, 3.33, 3.32, 3.32, 3.31, 3.31, 3.3, 3.3, 3.3, 3.29, 3.29, 3.28, 3.28, 3.27, 3.27, 3.26, 3.26, 3.25, 3.25, 3.24, 3.24, 3.23, 3.23, 3.22, 3.22, 3.21, 3.21, 3.2, 3.2, 3.19, 3.19, 3.18, 3.18, 3.17, 3.17, 3.16, 3.16, 2.16, 2.11, 2.05, 2.0, 2.0, 1.99, 1.99, 1.98, 1.98, 1.98, 1.97, 1.97, 3.09, 3.08, 3.07, 3.07, 3.06, 3.05, 3.05, 3.04, 3.04, 3.03, 3.02, 3.02, 3.01, 3.0]
9 [0.37, 0.37, 0.38, 0.39, 0.39, 0.4, 0.4, 0.41, 1.06, 1.07, 1.09, 1.1, 1.12, 1.14, 1.15, 1.17, 1.19, 1.2, 1.22, 1.24, 1.26, 1.28, 1.3, 1.32, 1.34, 1.36, 1.38, 1.4, 1.42, 1.44, 1.46, 1.49, 1.51, 1.53, 1.56, 1.58, 1.61, 1.63, 1.66, 1.68, 1.71, 1.74, 1.77, 1.8, 1.83, 1.86, 1.89, 1.93, 1.96, 2.0, 2.03, 2.07, 2.11, 2.15, 2.19, 2.23, 2.27, 2.32, 2.36, 2.41, 2.46, 2.51, 2.57, 2.62, 2.68, 2.74, 2.8, 2.87, 2.94, 3.01, 3.08, 3.16, 3.24, 3.33, 3.42, 3.51, 3.55, 3.54, 3.53, 3.53, 3.52, 3.52, 3.51, 3.51, 3.5, 3.5, 3.49, 3.48, 3.48, 3.47, 1.14, 1.13, 1.13, 1.13, 1.13, 1.13, 1.13, 1.12, 1.12, 1.12, 1.12, 1.12, 1.12, 1.11, 1.11, 1.11, 1.11, 1.11, 1.11, 1.1, 1.1, 3.36, 3.35, 3.35, 3.34, 3.34, 3.33, 3.33, 3.32, 3.31, 3.31, 3.3, 3.3, 3.29, 3.29, 3.28, 3.28, 3.27, 3.27, 3.26, 3.26, 3.25, 3.25, 3.24, 3.23, 3.23, 3.22, 3.22, 3.21, 3.21, 3.2, 3.2, 3.19, 3.18, 3.18, 3.17, 3.17, 3.16, 3.16, 3.15, 3.14, 3.14, 3.13, 3.13, 3.12, 3.11, 3.11, 3.1, 3.1, 2.13, 2.08, 2.03, 1.98, 1.95, 1.94, 1.94, 1.94, 1.93, 1.93, 1.92, 1.92, 3.01, 3.0, 3.0, 2.99, 2.98, 2.97, 2.97, 2.96, 2.95, 2.94, 2.94]
10 [0.37, 0.37, 0.38, 0.38, 0.39, 0.39, 0.4, 0.4, 0.41, 1.06, 1.08, 1.09, 1.11, 1.12, 1.14, 1.16, 1.17, 1.19, 1.21, 1.23, 1.24, 1.26, 1.28, 1.3, 1.32, 1.34, 1.36, 1.38, 1.4, 1.42, 1.44, 1.47, 1.49, 1.51, 1.53, 1.56, 1.58, 1.61, 1.63, 1.66, 1.69, 1.71, 1.74, 1.77, 1.8, 1.83, 1.86, 1.89, 1.93, 1.96, 1.99, 2.03, 2.07, 2.1, 2.14, 2.18, 2.23, 2.27, 2.31, 2.36, 2.41, 2.46, 2.51, 2.56, 2.62, 2.67, 2.73, 2.79, 2.86, 2.93, 3.0, 3.07, 3.15, 3.23, 3.31, 3.4, 3.5, 3.55, 3.54, 3.54, 3.53, 3.52, 3.52, 3.51, 3.51, 3.5, 3.5, 3.49, 3.48, 3.48, 3.47, 3.47, 1.13, 1.13, 1.13, 1.13, 1.12, 1.12, 1.12, 1.12, 1.12, 1.12, 1.11, 1.11, 1.11, 1.11, 1.11, 1.1, 1.1, 1.1, 1.1, 1.1, 3.35, 3.34, 3.34, 3.33, 3.33, 3.32, 3.32, 3.31, 3.3, 3.3, 3.29, 3.29, 3.28, 3.28, 3.27, 3.27, 3.26, 3.25, 3.25, 3.24, 3.24, 3.23, 3.23, 3.22, 3.21, 3.21, 3.2, 3.2, 3.19, 3.18, 3.18, 3.17, 3.17, 3.16, 3.15, 3.15, 3.14, 3.14, 3.13, 3.12, 3.12, 3.11, 3.11, 3.1, 3.09, 3.09, 3.08, 3.07, 2.13, 2.07, 2.02, 1.97, 1.93, 1.93, 1.92, 1.92, 1.91, 1.91, 1.91, 1.9, 1.9, 2.98, 2.97, 2.96, 2.95, 2.95, 2.94, 2.93, 2.92, 2.91]
11 [0.36, 0.37, 0.37, 0.38, 0.38, 0.39, 0.39, 0.4, 1.04, 1.05, 1.07, 1.08, 1.1, 1.11, 1.13, 1.15, 1.16, 1.18, 1.2, 1.22, 1.23, 1.25, 1.27, 1.29, 1.31, 1.33, 1.35, 1.37, 1.39, 1.41, 1.43, 1.45, 1.47, 1.49, 1.52, 1.54, 1.56, 1.59, 1.61, 1.64, 1.66, 1.69, 1.72, 1.75, 1.78, 1.81, 1.84, 1.87, 1.9, 1.93, 1.96, 2.0, 2.04, 2.07, 2.11, 2.15, 2.19, 2.23, 2.27, 2.32, 2.36, 2.41, 2.46, 2.51, 2.57, 2.62, 2.68, 2.74, 2.8, 2.86, 2.93, 3.0, 3.08, 3.15, 3.24, 3.32, 3.41, 3.5, 3.54, 3.53, 3.53, 3.52, 3.51, 3.51, 3.5, 3.5, 3.49, 3.48, 3.48, 3.47, 3.47, 3.46, 3.45, 1.12, 1.12, 1.12, 1.11, 1.11, 1.11, 1.11, 1.11, 1.1, 1.1, 1.1, 1.1, 1.1, 1.1, 1.09, 1.09, 1.09, 1.09, 1.09, 1.08, 3.33, 3.33, 3.32, 3.31, 3.31, 3.3, 3.3, 3.29, 3.29, 3.28, 3.27, 3.27, 3.26, 3.26, 3.25, 3.25, 3.24, 3.23, 3.23, 3.22, 3.22, 3.21, 3.2, 3.2, 3.19, 3.19, 3.18, 3.17, 3.17, 3.16, 3.16, 3.15, 3.14, 3.14, 3.13, 3.12, 3.12, 3.11, 3.11, 3.1, 3.09, 3.09, 3.08, 3.07, 3.07, 3.06, 3.05, 3.05, 3.04, 2.06, 2.01, 1.96, 1.91, 1.91, 1.9, 1.9, 1.89, 1.89, 1.88, 1.88, 1.87, 2.94, 2.94, 2.93, 2.92, 2.91, 2.91, 2.9, 2.89]
12 [0.35, 0.36, 0.37, 0.37, 0.38, 0.38, 1.0, 1.01, 1.03, 1.04, 1.06, 1.07, 1.09, 1.1, 1.12, 1.13, 1.15, 1.17, 1.18, 1.2, 1.22, 1.23, 1.25, 1.27, 1.29, 1.31, 1.33, 1.35, 1.37, 1.39, 1.41, 1.43, 1.45, 1.47, 1.49, 1.51, 1.54, 1.56, 1.59, 1.61, 1.64, 1.66, 1.69, 1.72, 1.74, 1.77, 1.8, 1.83, 1.86, 1.89, 1.93, 1.96, 1.99, 2.03, 2.07, 2.1, 2.14, 2.18, 2.22, 2.27, 2.31, 2.35, 2.4, 2.45, 2.5, 2.55, 2.61, 2.66, 2.72, 2.79, 2.85, 2.92, 2.99, 3.06, 3.14, 3.22, 3.3, 3.39, 3.48, 3.52, 3.51, 3.51, 3.5, 3.5, 3.49, 3.48, 3.48, 3.47, 3.46, 3.46, 3.45, 3.44, 3.44, 3.43, 1.1, 1.1, 1.09, 1.09, 1.09, 1.09, 1.09, 1.08, 1.08, 1.08, 1.08, 1.08, 1.07, 1.07, 1.07, 1.07, 1.07, 1.06, 1.06, 1.06, 1.06, 3.3, 3.29, 3.29, 3.28, 3.27, 3.27, 3.26, 3.26, 3.25, 3.24, 3.24, 3.23, 3.23, 3.22, 3.21, 3.21, 3.2, 3.2, 3.19, 3.18, 3.18, 3.17, 3.17, 3.16, 3.15, 3.15, 3.14, 3.13, 3.13, 3.12, 3.11, 3.11, 3.1, 3.1, 3.09, 3.08, 3.08, 3.07, 3.06, 3.06, 3.05, 3.04, 3.03, 3.03, 3.02, 3.01, 3.01, 3.0, 2.06, 2.01, 1.96, 1.91, 1.87, 1.87, 1.86, 1.86, 1.85, 1.85, 1.84, 1.84, 1.83, 2.89, 2.89, 2.88, 2.87, 2.86, 2.85]
13 [0.35, 0.35, 0.36, 0.95, 0.96, 0.97, 0.99, 1.0, 1.02, 1.03, 1.04, 1.06, 1.07, 1.09, 1.11, 1.12, 1.14, 1.15, 1.17, 1.19, 1.2, 1.22, 1.24, 1.26, 1.27, 1.29, 1.31, 1.33, 1.35, 1.37, 1.39, 1.41, 1.43, 1.45, 1.47, 1.5, 1.52, 1.54, 1.57, 1.59, 1.61, 1.64, 1.67, 1.69, 1.72, 1.75, 1.78, 1.81, 1.84, 1.87, 1.9, 1.93, 1.96, 2.0, 2.03, 2.07, 2.11, 2.15, 2.19, 2.23, 2.27, 2.31, 2.36, 2.41, 2.46, 2.51, 2.56, 2.62, 2.67, 2.73, 2.79, 2.86, 2.93, 3.0, 3.07, 3.15, 3.23, 3.31, 3.4, 3.5, 3.5, 3.49, 3.48, 3.48, 3.47, 3.46, 3.46, 3.45, 3.44, 3.44, 3.43, 3.42, 3.42, 3.41, 3.41, 1.07, 1.07, 1.07, 1.07, 1.07, 1.06, 1.06, 1.06, 1.06, 1.06, 1.05, 1.05, 1.05, 1.05, 1.05, 1.04, 1.04, 1.04, 1.04, 1.04, 1.03, 3.27, 3.26, 3.26, 3.25, 3.24, 3.24, 3.23, 3.23, 3.22, 3.21, 3.21, 3.2, 3.2, 3.19, 3.18, 3.18, 3.17, 3.16, 3.16, 3.15, 3.15, 3.14, 3.13, 3.13, 3.12, 3.11, 3.11, 3.1, 3.09, 3.09, 3.08, 3.07, 3.07, 3.06, 3.05, 3.05, 3.04, 3.03, 3.03, 3.02, 3.01, 3.01, 3.0, 2.99, 2.99, 2.98, 2.97, 2.96, 2.96, 2.0, 1.95, 1.9, 1.85, 1.84, 1.83, 1.83, 1.82, 1.82, 1.81, 1.81, 1.8, 2.85, 2.85, 2.84, 2.83, 2.82]
14 [0.35, 0.92, 0.93, 0.94, 0.96, 0.97, 0.98, 1.0, 1.01, 1.03, 1.04, 1.06, 1.07, 1.09, 1.1, 1.12, 1.13, 1.15, 1.17, 1.18, 1.2, 1.22, 1.23, 1.25, 1.27, 1.29, 1.31, 1.33, 1.35, 1.36, 1.38, 1.41, 1.43, 1.45, 1.47, 1.49, 1.51, 1.54, 1.56, 1.58, 1.61, 1.63, 1.66, 1.69, 1.71, 1.74, 1.77, 1.8, 1.83, 1.86, 1.89, 1.92, 1.96, 1.99, 2.03, 2.06, 2.1, 2.14, 2.18, 2.22, 2.26, 2.31, 2.35, 2.4, 2.45, 2.5, 2.55, 2.61, 2.66, 2.72, 2.78, 2.85, 2.91, 2.98, 3.06, 3.13, 3.21, 3.3, 3.39, 3.48, 3.48, 3.48, 3.47, 3.46, 3.46, 3.45, 3.44, 3.44, 3.43, 3.42, 3.42, 3.41, 3.4, 3.4, 3.39, 1.06, 1.06, 1.05, 1.05, 1.05, 1.05, 1.05, 1.04, 1.04, 1.04, 1.04, 1.04, 1.04, 1.03, 1.03, 1.03, 1.03, 1.03, 1.02, 1.02, 1.02, 1.02, 3.25, 3.24, 3.24, 3.23, 3.22, 3.22, 3.21, 3.21, 3.2, 3.19, 3.19, 3.18, 3.18, 3.17, 3.16, 3.16, 3.15, 3.14, 3.14, 3.13, 3.13, 3.12, 3.11, 3.11, 3.1, 3.09, 3.09, 3.08, 3.07, 3.07, 3.06, 3.05, 3.05, 3.04, 3.03, 3.03, 3.02, 3.01, 3.01, 3.0, 2.99, 2.99, 2.98, 2.97, 2.96, 2.96, 2.95, 2.94, 2.0, 1.95, 1.91, 1.86, 1.82, 1.82, 1.81, 1.81, 1.8, 1.8, 1.79, 1.79, 1.78, 2.83, 2.82, 2.82, 2.81]
15 [0.9, 0.91, 0.92, 0.94, 0.95, 0.96, 0.98, 0.99, 1.0, 1.02, 1.03, 1.05, 1.06, 1.08, 1.09, 1.11, 1.12, 1.14, 1.16, 1.17, 1.19, 1.21, 1.22, 1.24, 1.26, 1.28, 1.3, 1.32, 1.33, 1.35, 1.37, 1.39, 1.42, 1.44, 1.46, 1.48, 1.5, 1.52, 1.55, 1.57, 1.6, 1.62, 1.65, 1.67, 1.7, 1.73, 1.76, 1.78, 1.81, 1.84, 1.88, 1.91, 1.94, 1.98, 2.01, 2.05, 2.08, 2.12, 2.16, 2.2, 2.24, 2.29, 2.33, 2.38, 2.43, 2.48, 2.53, 2.58, 2.64, 2.7, 2.76, 2.82, 2.89, 2.96, 3.03, 3.11, 3.19, 3.27, 3.36, 3.45, 3.44, 3.44, 3.43, 3.42, 3.42, 3.41, 3.41, 3.4, 3.39, 3.39, 3.38, 3.37, 3.37, 3.36, 3.35, 1.02, 1.02, 1.02, 1.02, 1.01, 1.01, 1.01, 1.01, 1.01, 1.0, 1.0, 1.0, 1.0, 1.0, 1.0, 0.99, 0.99, 0.99, 0.99, 0.99, 0.98, 0.98, 0.98, 3.21, 3.2, 3.2, 3.19, 3.18, 3.18, 3.17, 3.17, 3.16, 3.15, 3.15, 3.14, 3.13, 3.13, 3.12, 3.12, 3.11, 3.1, 3.1, 3.09, 3.08, 3.08, 3.07, 3.07, 3.06, 3.05, 3.05, 3.04, 3.03, 3.03, 3.02, 3.01, 3.01, 3.0, 2.99, 2.99, 2.98, 2.97, 2.97, 2.96, 2.95, 2.95, 2.94, 2.93, 2.92, 2.92, 2.91, 2.9, 1.97, 1.92, 1.88, 1.83, 1.79, 1.78, 1.78, 1.77, 1.77, 1.76, 1.76, 1.75, 1.75, 2.79, 2.78, 2.78]
16 [0.88, 0.89, 0.9, 0.91, 0.93, 0.94, 0.95, 0.97, 0.98, 0.99, 1.01, 1.02, 1.04, 1.05, 1.07, 1.08, 1.1, 1.11, 1.13, 1.14, 1.16, 1.18, 1.19, 1.21, 1.23, 1.24, 1.26, 1.28, 1.3, 1.32, 1.33, 1.35, 1.37, 1.39, 1.41, 1.43, 1.46, 1.48, 1.5, 1.52, 1.55, 1.57, 1.59, 1.62, 1.64, 1.67, 1.7, 1.72, 1.75, 1.78, 1.81, 1.84, 1.87, 1.9, 1.93, 1.97, 2.0, 2.04, 2.07, 2.11, 2.15, 2.19, 2.23, 2.28, 2.32, 2.37, 2.41, 2.46, 2.52, 2.57, 2.63, 2.68, 2.74, 2.81, 2.87, 2.94, 3.01, 3.09, 3.17, 3.25, 3.34, 3.4, 3.39, 3.38, 3.38, 3.37, 3.36, 3.36, 3.35, 3.34, 3.34, 3.33, 3.32, 3.32, 3.31, 3.3, 3.3, 0.97, 0.96, 0.96, 0.96, 0.96, 0.96, 0.95, 0.95, 0.95, 0.95, 0.95, 0.94, 0.94, 0.94, 0.94, 0.94, 0.94, 0.93, 0.93, 0.93, 0.93, 0.93, 0.92, 0.92, 3.14, 3.13, 3.12, 3.12, 3.11, 3.1, 3.1, 3.09, 3.08, 3.08, 3.07, 3.06, 3.06, 3.05, 3.04, 3.04, 3.03, 3.02, 3.02, 3.01, 3.0, 3.0, 2.99, 2.98, 2.98, 2.97, 2.96, 2.96, 2.95, 2.94, 2.94, 2.93, 2.92, 2.92, 2.91, 2.9, 2.89, 2.89, 2.88, 2.87, 2.86, 2.86, 2.85, 2.84, 2.83, 2.83, 2.82, 2.81, 2.8, 1.87, 1.82, 1.78, 1.74, 1.71, 1.7, 1.7, 1.69, 1.69, 1.68, 1.67, 1.67]
17 [0.86, 0.87, 0.89, 0.9, 0.91, 0.92, 0.94, 0.95, 0.96, 0.97, 0.99, 1.0, 1.02, 1.03, 1.04, 1.06, 1.07, 1.09, 1.1, 1.12, 1.13, 1.15, 1.16, 1.18, 1.2, 1.21, 1.23, 1.25, 1.26, 1.28, 1.3, 1.32, 1.34, 1.36, 1.38, 1.4, 1.42, 1.44, 1.46, 1.48, 1.5, 1.52, 1.55, 1.57, 1.59, 1.62, 1.64, 1.67, 1.7, 1.72, 1.75, 1.78, 1.81, 1.84, 1.87, 1.9, 1.93, 1.96, 2.0, 2.03, 2.07, 2.11, 2.15, 2.19, 2.23, 2.27, 2.32, 2.36, 2.41, 2.46, 2.51, 2.56, 2.62, 2.68, 2.74, 2.8, 2.86, 2.93, 3.0, 3.08, 3.16, 3.24, 3.33, 3.36, 3.36, 3.35, 3.34, 3.33, 3.33, 3.32, 3.31, 3.3, 3.3, 3.29, 3.28, 3.28, 3.27, 3.26, 3.25, 0.93, 0.92, 0.92, 0.92, 0.92, 0.92, 0.91, 0.91, 0.91, 0.91, 0.91, 0.91, 0.9, 0.9, 0.9, 0.9, 0.9, 0.89, 0.89, 0.89, 0.89, 0.89, 0.88, 0.88, 0.88, 3.08, 3.07, 3.06, 3.06, 3.05, 3.04, 3.04, 3.03, 3.02, 3.02, 3.01, 3.0, 3.0, 2.99, 2.98, 2.97, 2.97, 2.96, 2.95, 2.95, 2.94, 2.93, 2.92, 2.92, 2.91, 2.9, 2.9, 2.89, 2.88, 2.87, 2.87, 2.86, 2.85, 2.84, 2.84, 2.83, 2.82, 2.81, 2.81, 2.8, 2.79, 2.78, 2.77, 2.77, 2.76, 2.75, 2.74, 2.73, 2.72, 1.81, 1.76, 1.72, 1.68, 1.64, 1.64, 1.63, 1.63, 1.62]
18 [0.85, 0.87, 0.88, 0.89, 0.9, 0.91, 0.93, 0.94, 0.95, 0.97, 0.98, 0.99, 1.01, 1.02, 1.03, 1.05, 1.06, 1.08, 1.09, 1.11, 1.12, 1.14, 1.15, 1.17, 1.18, 1.2, 1.22, 1.23, 1.25, 1.27, 1.29, 1.3, 1.32, 1.34, 1.36, 1.38, 1.4, 1.42, 1.44, 1.46, 1.48, 1.5, 1.53, 1.55, 1.57, 1.6, 1.62, 1.65, 1.67, 1.7, 1.73, 1.75, 1.78, 1.81, 1.84, 1.87, 1.9, 1.93, 1.97, 2.0, 2.04, 2.07, 2.11, 2.15, 2.19, 2.23, 2.27, 2.32, 2.37, 2.41, 2.46, 2.51, 2.57, 2.62, 2.68, 2.74, 2.8, 2.87, 2.94, 3.01, 3.09, 3.16, 3.25, 3.33, 3.34, 3.33, 3.33, 3.32, 3.31, 3.3, 3.3, 3.29, 3.28, 3.27, 3.27, 3.26, 3.25, 3.24, 3.24, 3.23, 0.9, 0.9, 0.9, 0.9, 0.9, 0.89, 0.89, 0.89, 0.89, 0.89, 0.89, 0.88, 0.88, 0.88, 0.88, 0.88, 0.87, 0.87, 0.87, 0.87, 0.87, 0.86, 0.86, 0.86, 0.86, 0.86, 3.04, 3.04, 3.03, 3.02, 3.01, 3.01, 3.0, 2.99, 2.99, 2.98, 2.97, 2.97, 2.96, 2.95, 2.94, 2.94, 2.93, 2.92, 2.92, 2.91, 2.9, 2.89, 2.89, 2.88, 2.87, 2.86, 2.86, 2.85, 2.84, 2.83, 2.83, 2.82, 2.81, 2.8, 2.8, 2.79, 2.78, 2.77, 2.76, 2.76, 2.75, 2.74, 2.73, 2.72, 2.72, 2.71, 2.7, 2.69, 1.79, 1.75, 1.71, 1.67, 1.63, 1.61, 1.6, 1.6]
19 [0.84, 0.85, 0.87, 0.88, 0.89, 0.9, 0.91, 0.93, 0.94, 0.95, 0.96, 0.98, 0.99, 1.0, 1.02, 1.03, 1.05, 1.06, 1.07, 1.09, 1.1, 1.12, 1.13, 1.15, 1.16, 1.18, 1.2, 1.21, 1.23, 1.25, 1.26, 1.28, 1.3, 1.32, 1.33, 1.35, 1.37, 1.39, 1.41, 1.43, 1.45, 1.47, 1.5, 1.52, 1.54, 1.56, 1.59, 1.61, 1.64, 1.66, 1.69, 1.71, 1.74, 1.77, 1.8, 1.83, 1.86, 1.89, 1.92, 1.95, 1.98, 2.02, 2.06, 2.09, 2.13, 2.17, 2.21, 2.25, 2.3, 2.34, 2.39, 2.44, 2.49, 2.54, 2.59, 2.65, 2.71, 2.77, 2.83, 2.9, 2.97, 3.04, 3.12, 3.2, 3.29, 3.32, 3.32, 3.31, 3.3, 3.29, 3.28, 3.28, 3.27, 3.26, 3.25, 3.25, 3.24, 3.23, 3.22, 3.22, 3.21, 3.2, 0.88, 0.88, 0.88, 0.88, 0.87, 0.87, 0.87, 0.87, 0.87, 0.86, 0.86, 0.86, 0.86, 0.86, 0.85, 0.85, 0.85, 0.85, 0.85, 0.84, 0.84, 0.84, 0.84, 0.84, 0.83, 0.83, 3.01, 3.0, 2.99, 2.98, 2.98, 2.97, 2.96, 2.96, 2.95, 2.94, 2.93, 2.93, 2.92, 2.91, 2.9, 2.9, 2.89, 2.88, 2.87, 2.87, 2.86, 2.85, 2.84, 2.84, 2.83, 2.82, 2.81, 2.81, 2.8, 2.79, 2.78, 2.77, 2.77, 2.76, 2.75, 2.74, 2.73, 2.73, 2.72, 2.71, 2.7, 2.69, 2.68, 2.67, 2.67, 2.66, 2.65, 2.64, 1.76, 1.71, 1.67, 1.63, 1.59, 1.57]
20 [0.83, 0.84, 0.85, 0.86, 0.87, 0.89, 0.9, 0.91, 0.92, 0.93, 0.95, 0.96, 0.97, 0.99, 1.0, 1.01, 1.02, 1.04, 1.05, 1.07, 1.08, 1.09, 1.11, 1.12, 1.14, 1.15, 1.17, 1.18, 1.2, 1.22, 1.23, 1.25, 1.27, 1.28, 1.3, 1.32, 1.34, 1.36, 1.37, 1.39, 1.41, 1.43, 1.45, 1.47, 1.5, 1.52, 1.54, 1.56, 1.59, 1.61, 1.63, 1.66, 1.68, 1.71, 1.74, 1.76, 1.79, 1.82, 1.85, 1.88, 1.91, 1.94, 1.98, 2.01, 2.05, 2.08, 2.12, 2.16, 2.2, 2.24, 2.28, 2.33, 2.37, 2.42, 2.47, 2.52, 2.58, 2.63, 2.69, 2.75, 2.81, 2.88, 2.95, 3.02, 3.1, 3.18, 3.26, 3.31, 3.3, 3.29, 3.28, 3.27, 3.26, 3.26, 3.25, 3.24, 3.23, 3.22, 3.22, 3.21, 3.2, 3.19, 3.18, 3.18, 2.19, 0.86, 0.85, 0.85, 0.85, 0.85, 0.85, 0.84, 0.84, 0.84, 0.84, 0.84, 0.83, 0.83, 0.83, 0.83, 0.83, 0.82, 0.82, 0.82, 0.82, 0.82, 0.81, 0.81, 0.81, 0.81, 0.81, 2.96, 2.95, 2.95, 2.94, 2.93, 2.92, 2.92, 2.91, 2.9, 2.89, 2.88, 2.88, 2.87, 2.86, 2.85, 2.85, 2.84, 2.83, 2.82, 2.81, 2.81, 2.8, 2.79, 2.78, 2.77, 2.76, 2.76, 2.75, 2.74, 2.73, 2.72, 2.71, 2.71, 2.7, 2.69, 2.68, 2.67, 2.66, 2.65, 2.64, 2.63, 2.63, 2.62, 2.61, 2.6, 2.59, 2.58, 2.57, 1.7, 1.66, 1.62]
21 [0.81, 0.83, 0.84, 0.85, 0.86, 0.87, 0.88, 0.89, 0.9, 0.92, 0.93, 0.94, 0.95, 0.97, 0.98, 0.99, 1.0, 1.02, 1.03, 1.04, 1.06, 1.07, 1.08, 1.1, 1.11, 1.13, 1.14, 1.16, 1.17, 1.19, 1.2, 1.22, 1.23, 1.25, 1.27, 1.28, 1.3, 1.32, 1.34, 1.35, 1.37, 1.39, 1.41, 1.43, 1.45, 1.47, 1.49, 1.51, 1.53, 1.56, 1.58, 1.6, 1.63, 1.65, 1.68, 1.7, 1.73, 1.75, 1.78, 1.81, 1.84, 1.87, 1.9, 1.93, 1.96, 2.0, 2.03, 2.07, 2.1, 2.14, 2.18, 2.22, 2.26, 2.3, 2.35, 2.39, 2.44, 2.49, 2.54, 2.6, 2.65, 2.71, 2.77, 2.84, 2.9, 2.97, 3.05, 3.12, 3.21, 3.29, 3.28, 3.27, 3.27, 3.26, 3.25, 3.24, 3.23, 3.22, 3.21, 3.2, 3.2, 3.19, 3.18, 3.17, 3.16, 3.15, 3.15, 0.84, 0.84, 0.83, 0.83, 0.83, 0.83, 0.82, 0.82, 0.82, 0.82, 0.82, 0.81, 0.81, 0.81, 0.81, 0.81, 0.8, 0.8, 0.8, 0.8, 0.79, 0.79, 0.79, 0.79, 0.79, 0.78, 0.78, 0.78, 2.91, 2.9, 2.89, 2.88, 2.88, 2.87, 2.86, 2.85, 2.84, 2.83, 2.83, 2.82, 2.81, 2.8, 2.79, 2.78, 2.78, 2.77, 2.76, 2.75, 2.74, 2.73, 2.72, 2.71, 2.71, 2.7, 2.69, 2.68, 2.67, 2.66, 2.65, 2.64, 2.63, 2.62, 2.62, 2.61, 2.6, 2.59, 2.58, 2.57, 2.56, 2.55, 2.54, 2.53, 2.52, 10.0, 0.0]
22 [0.8, 0.81, 0.82, 0.83, 0.85, 0.86, 0.87, 0.88, 0.89, 0.9, 0.91, 0.92, 0.94, 0.95, 0.96, 0.97, 0.99, 1.0, 1.01, 1.02, 1.04, 1.05, 1.06, 1.08, 1.09, 1.1, 1.12, 1.13, 1.15, 1.16, 1.18, 1.19, 1.21, 1.22, 1.24, 1.25, 1.27, 1.29, 1.3, 1.32, 1.34, 1.36, 1.38, 1.39, 1.41, 1.43, 1.45, 1.47, 1.49, 1.51, 1.53, 1.56, 1.58, 1.6, 1.63, 1.65, 1.67, 1.7, 1.72, 1.75, 1.78, 1.81, 1.83, 1.86, 1.89, 1.93, 1.96, 1.99, 2.02, 2.06, 2.09, 2.13, 2.17, 2.21, 2.25, 2.29, 2.34, 2.38, 2.43, 2.48, 2.53, 2.58, 2.64, 2.7, 2.76, 2.82, 2.89, 2.96, 3.03, 3.1, 3.18, 3.27, 3.27, 3.26, 3.25, 3.24, 3.23, 3.22, 3.21, 3.2, 3.19, 3.19, 3.18, 3.17, 3.16, 3.15, 3.14, 3.13, 3.12, 2.15, 0.82, 0.82, 0.81, 0.81, 0.81, 0.81, 0.8, 0.8, 0.8, 0.8, 0.8, 0.79, 0.79, 0.79, 0.79, 0.78, 0.78, 0.78, 0.78, 0.78, 0.77, 0.77, 0.77, 0.77, 0.76, 0.76, 0.76, 0.76, 2.86, 2.86, 2.85, 2.84, 2.83, 2.82, 2.81, 2.8, 2.8, 2.79, 2.78, 2.77, 2.76, 2.75, 2.74, 2.73, 2.72, 2.72, 2.71, 2.7, 2.69, 2.68, 2.67, 2.66, 2.65, 2.64, 2.63, 2.62, 2.61, 2.6, 2.59, 2.58, 2.57, 2.56, 2.55, 2.54, 2.53, 2.52, 2.51, 2.5, 2.49, 2.48, 2.47, 2.46]
23 [0.78, 0.79, 0.8, 0.81, 0.82, 0.83, 0.84, 0.85, 0.86, 0.87, 0.88, 0.89, 0.91, 0.92, 0.93, 0.94, 0.95, 0.96, 0.97, 0.99, 1.0, 1.01, 1.02, 1.03, 1.05, 1.06, 1.07, 1.09, 1.1, 1.11, 1.13, 1.14, 1.15, 1.17, 1.18, 1.2, 1.21, 1.23, 1.24, 1.26, 1.27, 1.29, 1.31, 1.32, 1.34, 1.36, 1.38, 1.39, 1.41, 1.43, 1.45, 1.47, 1.49, 1.51, 1.53, 1.55, 1.57, 1.6, 1.62, 1.64, 1.67, 1.69, 1.71, 1.74, 1.77, 1.79, 1.82, 1.85, 1.88, 1.91, 1.94, 1.97, 2.0, 2.04, 2.07, 2.11, 2.14, 2.18, 2.22, 2.26, 2.31, 2.35, 2.4, 2.44, 2.49, 2.54, 2.6, 2.65, 2.71, 2.77, 2.83, 2.9, 2.97, 3.04, 3.12, 3.2, 3.24, 3.23, 3.22, 3.21, 3.2, 3.19, 3.18, 3.17, 3.16, 3.15, 3.14, 3.13, 3.12, 3.11, 3.1, 3.09, 3.08, 3.07, 2.1, 0.79, 0.78, 0.78, 0.78, 0.78, 0.77, 0.77, 0.77, 0.77, 0.76, 0.76, 0.76, 0.76, 0.75, 0.75, 0.75, 0.75, 0.74, 0.74, 0.74, 0.74, 0.73, 0.73, 0.73, 0.73, 0.72, 0.72, 0.72, 0.72, 2.78, 2.77, 2.76, 2.75, 2.74, 2.73, 2.72, 2.71, 2.7, 2.69, 2.68, 2.67, 2.66, 2.65, 2.64, 2.63, 2.62, 2.61, 2.6, 2.59, 2.58, 2.57, 2.56, 2.55, 2.54, 2.53, 2.52, 2.51, 2.5, 2.49, 2.48, 2.46, 2.45, 2.44, 2.43, 2.42, 2.41, 2.4]
24 [0.77, 0.78, 0.78, 0.79, 0.8, 0.81, 0.82, 0.83, 0.84, 0.85, 0.86, 0.88, 0.89, 0.9, 0.91, 0.92, 0.93, 0.94, 0.95, 0.96, 0.97, 0.99, 1.0, 1.01, 1.02, 1.03, 1.04, 1.06, 1.07, 1.08, 1.09, 1.11, 1.12, 1.13, 1.15, 1.16, 1.18, 1.19, 1.2, 1.22, 1.23, 1.25, 1.26, 1.28, 1.3, 1.31, 1.33, 1.34, 1.36, 1.38, 1.4, 1.41, 1.43, 1.45, 1.47, 1.49, 1.51, 1.53, 1.55, 1.57, 1.59, 1.62, 1.64, 1.66, 1.69, 1.71, 1.73, 1.76, 1.79, 1.81, 1.84, 1.87, 1.9, 1.93, 1.96, 1.99, 2.02, 2.06, 2.09, 2.13, 2.17, 2.2, 2.24, 2.29, 2.33, 2.37, 2.42, 2.47, 2.52, 2.57, 2.62, 2.68, 2.74, 2.8, 2.86, 2.93, 3.0, 3.07, 3.15, 3.23, 3.22, 3.2, 3.19, 3.18, 3.17, 3.16, 3.15, 3.14, 3.13, 3.12, 3.11, 3.1, 3.09, 3.08, 3.07, 3.05, 3.04, 2.08, 2.07, 0.77, 0.76, 0.76, 0.76, 0.76, 0.75, 0.75, 0.75, 0.75, 0.74, 0.74, 0.74, 0.74, 0.73, 0.73, 0.73, 0.73, 0.72, 0.72, 0.72, 0.72, 0.71, 0.71, 0.71, 0.7, 0.7, 0.7, 0.7, 0.69, 2.72, 2.71, 2.7, 2.69, 2.68, 2.67, 2.66, 2.65, 2.64, 2.62, 2.61, 2.6, 2.59, 2.58, 2.57, 2.56, 2.55, 2.54, 2.53, 2.52, 2.51, 2.5, 2.48, 2.47, 2.46, 2.45, 2.44, 2.43, 2.42, 2.41, 2.39, 2.38, 2.37, 2.36]
25 [0.73, 0.74, 0.75, 0.76, 0.77, 0.78, 0.79, 0.8, 0.8, 0.81, 0.82, 0.83, 0.84, 0.85, 0.86, 0.87, 0.88, 0.89, 0.9, 0.91, 0.92, 0.93, 0.94, 0.95, 0.96, 0.97, 0.98, 0.99, 1.0, 1.01, 1.02, 1.04, 1.05, 1.06, 1.07, 1.08, 1.09, 1.1, 1.12, 1.13, 1.14, 1.15, 1.17, 1.18, 1.19, 1.21, 1.22, 1.23, 1.25, 1.26, 1.28, 1.29, 1.31, 1.32, 1.34, 1.35, 1.37, 1.39, 1.4, 1.42, 1.44, 1.45, 1.47, 1.49, 1.51, 1.53, 1.55, 1.57, 1.59, 1.61, 1.63, 1.65, 1.67, 1.7, 1.72, 1.74, 1.77, 1.79, 1.82, 1.85, 1.87, 1.9, 1.93, 1.96, 1.99, 2.02, 2.06, 2.09, 2.13, 2.16, 2.2, 2.24, 2.28, 2.32, 2.36, 2.41, 2.45, 2.5, 2.55, 2.6, 2.66, 2.72, 2.78, 2.84, 2.9, 2.97, 3.04, 3.12, 3.17, 3.16, 3.14, 3.13, 3.12, 3.11, 3.09, 3.08, 3.07, 3.06, 3.04, 3.03, 3.02, 3.01, 2.99, 2.98, 2.97, 2.96, 2.94, 2.0, 1.99, 0.72, 0.72, 0.72, 0.71, 0.71, 0.71, 0.71, 0.7, 0.7, 0.7, 0.69, 0.69, 0.69, 0.68, 0.68, 0.68, 0.68, 0.67, 0.67, 0.67, 0.66, 0.66, 0.66, 0.66, 0.65, 0.65, 0.65, 0.64, 0.64, 0.64, 2.55, 2.54, 2.53, 2.51, 2.5, 2.49, 2.48, 2.47, 2.45, 2.44, 2.43, 2.42, 2.4, 2.39, 2.38, 2.37, 2.35, 2.34, 2.33, 2.31, 2.3, 2.29, 2.28]
26 [0.72, 0.73, 0.73, 0.74, 0.75, 0.76, 0.77, 0.78, 0.79, 0.79, 0.8, 0.81, 0.82, 0.83, 0.84, 0.85, 0.85, 0.86, 0.87, 0.88, 0.89, 0.9, 0.91, 0.92, 0.93, 0.94, 0.95, 0.96, 0.97, 0.98, 0.99, 1.0, 1.01, 1.02, 1.03, 1.04, 1.05, 1.06, 1.07, 1.09, 1.1, 1.11, 1.12, 1.13, 1.14, 1.16, 1.17, 1.18, 1.19, 1.21, 1.22, 1.23, 1.25, 1.26, 1.27, 1.29, 1.3, 1.32, 1.33, 1.35, 1.36, 1.38, 1.39, 1.41, 1.42, 1.44, 1.46, 1.48, 1.49, 1.51, 1.53, 1.55, 1.57, 1.59, 1.61, 1.63, 1.65, 1.67, 1.69, 1.72, 1.74, 1.76, 1.79, 1.81, 1.84, 1.87, 1.89, 1.92, 1.95, 1.98, 2.01, 2.04, 2.08, 2.11, 2.15, 2.18, 2.22, 2.26, 2.3, 2.34, 2.39, 2.43, 2.48, 2.53, 2.58, 2.63, 2.69, 2.74, 2.81, 2.87, 2.94, 3.01, 3.08, 3.13, 3.12, 3.11, 3.09, 3.08, 3.06, 3.05, 3.04, 3.02, 3.01, 3.0, 2.98, 2.97, 2.96, 2.94, 2.93, 2.92, 2.9, 2.89, 1.96, 1.95, 1.94, 0.7, 0.69, 0.69, 0.69, 0.68, 0.68, 0.68, 0.67, 0.67, 0.67, 0.67, 0.66, 0.66, 0.66, 0.65, 0.65, 0.65, 0.64, 0.64, 0.64, 0.63, 0.63, 0.63, 0.62, 0.62, 0.62, 0.61, 0.61, 0.61, 0.61, 0.6, 2.44, 2.42, 2.41, 2.4, 2.38, 2.37, 2.36, 2.34, 2.33, 2.32, 2.3, 2.29, 2.28, 2.26, 2.25, 2.24]
27 [0.7, 0.71, 0.72, 0.73, 0.74, 0.74, 0.75, 0.76, 0.77, 0.77, 0.78, 0.79, 0.8, 0.81, 0.82, 0.82, 0.83, 0.84, 0.85, 0.86, 0.87, 0.87, 0.88, 0.89, 0.9, 0.91, 0.92, 0.93, 0.94, 0.95, 0.95, 0.96, 0.97, 0.98, 0.99, 1.0, 1.01, 1.02, 1.03, 1.04, 1.05, 1.06, 1.07, 1.08, 1.1, 1.11, 1.12, 1.13, 1.14, 1.15, 1.16, 1.17, 1.19, 1.2, 1.21, 1.22, 1.24, 1.25, 1.26, 1.28, 1.29, 1.3, 1.32, 1.33, 1.34, 1.36, 1.37, 1.39, 1.41, 1.42, 1.44, 1.45, 1.47, 1.49, 1.5, 1.52, 1.54, 1.56, 1.58, 1.6, 1.62, 1.64, 1.66, 1.68, 1.7, 1.72, 1.75, 1.77, 1.79, 1.82, 1.84, 1.87, 1.9, 1.93, 1.95, 1.98, 2.01, 2.04, 2.08, 2.11, 2.15, 2.18, 2.22, 2.26, 2.3, 2.34, 2.38, 2.43, 2.47, 2.52, 2.57, 2.62, 2.68, 2.74, 2.8, 2.86, 2.93, 3.0, 3.07, 3.08, 3.07, 3.05, 3.04, 3.02, 3.01, 2.99, 2.98, 2.96, 2.95, 2.93, 2.92, 2.9, 2.89, 2.88, 2.86, 2.85, 2.83, 2.82, 1.91, 1.9, 1.89, 1.88, 0.67, 0.67, 0.66, 0.66, 0.66, 0.65, 0.65, 0.64, 0.64, 0.64, 0.63, 0.63, 0.63, 0.62, 0.62, 0.62, 0.61, 0.61, 0.61, 0.6, 0.6, 0.6, 0.59, 0.59, 0.59, 0.58, 0.58, 0.58, 0.57, 0.57, 0.57, 2.32, 2.3, 2.29, 2.27, 2.26, 2.25, 2.23, 2.22, 2.2]
28 [0.7, 0.71, 0.72, 0.73, 0.74, 0.74, 0.75, 0.76, 0.77, 0.77, 0.78, 0.79, 0.8, 0.81, 0.82, 0.82, 0.83, 0.84, 0.85, 0.86, 0.87, 0.87, 0.88, 0.89, 0.9, 0.91, 0.92, 0.93, 0.94, 0.95, 0.95, 0.96, 0.97, 0.98, 0.99, 1.0, 1.01, 1.02, 1.03, 1.04, 1.05, 1.06, 1.07, 1.08, 1.1, 1.11, 1.12, 1.13, 1.14, 1.15, 1.16, 1.17, 1.19, 1.2, 1.21, 1.22, 1.24, 1.25, 1.26, 1.28, 1.29, 1.3, 1.32, 1.33, 1.34, 1.36, 1.37, 1.39, 1.41, 1.42, 1.44, 1.45, 1.47, 1.49, 1.5, 1.52, 1.54, 1.56, 1.58, 1.6, 1.62, 1.64, 1.66, 1.68, 1.7, 1.72, 1.75, 1.77, 1.79, 1.82, 1.84, 1.87, 1.9, 1.93, 1.95, 1.98, 2.01, 2.04, 2.08, 2.11, 2.15, 2.18, 2.22, 2.26, 2.3, 2.34, 2.38, 2.43, 2.47, 2.52, 2.57, 2.62, 2.68, 2.74, 2.8, 2.86, 2.93, 3.0, 3.07, 3.08, 3.07, 3.05, 3.04, 3.02, 3.01, 2.99, 2.98, 2.96, 2.95, 2.93, 2.92, 2.9, 2.89, 2.88, 2.86, 2.85, 2.83, 2.82, 1.91, 1.9, 1.89, 1.88, 0.67, 0.67, 0.66, 0.66, 0.66, 0.65, 0.65, 0.64, 0.64, 0.64, 0.63, 0.63, 0.63, 0.62, 0.62, 0.62, 0.61, 0.61, 0.61, 0.6, 0.6, 0.6, 0.59, 0.59, 0.59, 0.58, 0.58, 0.58, 0.57, 0.57, 0.57, 2.32, 2.3, 2.29, 2.27, 2.26, 2.25, 2.23, 2.22, 2.2]
29 [0.68, 0.69, 0.69, 0.7, 0.71, 0.71, 0.72, 0.73, 0.73, 0.74, 0.75, 0.75, 0.76, 0.77, 0.77, 0.78, 0.79, 0.8, 0.8, 0.81, 0.82, 0.82, 0.83, 0.84, 0.85, 0.85, 0.86, 0.87, 0.88, 0.88, 0.89, 0.9, 0.91, 0.92, 0.92, 0.93, 0.94, 0.95, 0.95, 0.96, 0.97, 0.98, 0.99, 1.0, 1.01, 1.01, 1.02, 1.03, 1.04, 1.05, 1.06, 1.07, 1.08, 1.09, 1.1, 1.11, 1.11, 1.12, 1.13, 1.14, 1.16, 1.17, 1.18, 1.19, 1.2, 1.21, 1.22, 1.23, 1.24, 1.25, 1.27, 1.28, 1.29, 1.3, 1.31, 1.33, 1.34, 1.35, 1.37, 1.38, 1.39, 1.41, 1.42, 1.44, 1.45, 1.47, 1.48, 1.5, 1.52, 1.53, 1.55, 1.57, 1.58, 1.6, 1.62, 1.64, 1.66, 1.68, 1.7, 1.72, 1.74, 1.76, 1.79, 1.81, 1.83, 1.86, 1.89, 1.91, 1.94, 1.97, 2.0, 2.02, 2.06, 2.09, 2.12, 2.15, 2.19, 2.23, 2.26, 2.3, 2.35, 2.39, 2.43, 2.48, 2.53, 2.58, 2.63, 2.69, 2.75, 2.81, 2.87, 2.94, 2.96, 2.94, 2.92, 2.91, 2.89, 2.87, 2.85, 2.84, 2.82, 2.8, 2.79, 2.77, 2.75, 2.73, 2.72, 2.7, 2.68, 2.67, 2.65, 1.79, 1.78, 1.77, 1.76, 1.75, 1.73, 0.61, 0.6, 0.6, 0.6, 0.59, 0.59, 0.58, 0.58, 0.58, 0.57, 0.57, 0.57, 0.56, 0.56, 0.55, 0.55, 0.55, 0.54, 0.54, 0.53, 0.53, 0.53, 0.52, 0.52, 0.51]
30 [0.67, 0.68, 0.68, 0.69, 0.69, 0.7, 0.71, 0.71, 0.72, 0.73, 0.73, 0.74, 0.74, 0.75, 0.76, 0.76, 0.77, 0.78, 0.78, 0.79, 0.8, 0.8, 0.81, 0.81, 0.82, 0.83, 0.83, 0.84, 0.85, 0.86, 0.86, 0.87, 0.88, 0.88, 0.89, 0.9, 0.9, 0.91, 0.92, 0.92, 0.93, 0.94, 0.95, 0.95, 0.96, 0.97, 0.98, 0.98, 0.99, 1.0, 1.01, 1.02, 1.02, 1.03, 1.04, 1.05, 1.06, 1.06, 1.07, 1.08, 1.09, 1.1, 1.11, 1.12, 1.13, 1.14, 1.14, 1.15, 1.16, 1.17, 1.18, 1.19, 1.2, 1.21, 1.22, 1.23, 1.24, 1.26, 1.27, 1.28, 1.29, 1.3, 1.31, 1.32, 1.34, 1.35, 1.36, 1.37, 1.39, 1.4, 1.41, 1.43, 1.44, 1.46, 1.47, 1.49, 1.5, 1.52, 1.53, 1.55, 1.56, 1.58, 1.6, 1.62, 1.64, 1.65, 1.67, 1.69, 1.71, 1.73, 1.75, 1.78, 1.8, 1.82, 1.85, 1.87, 1.9, 1.92, 1.95, 1.98, 2.01, 2.04, 2.07, 2.1, 2.13, 2.17, 2.2, 2.24, 2.28, 2.32, 2.36, 2.4, 2.45, 2.5, 2.54, 2.6, 2.65, 2.71, 2.77, 2.83, 2.87, 2.85, 2.83, 2.81, 2.79, 2.77, 2.76, 2.74, 2.72, 2.7, 2.68, 2.66, 2.64, 2.63, 2.61, 2.59, 2.57, 2.55, 2.54, 1.71, 1.7, 1.68, 1.67, 1.66, 1.65, 1.64, 0.57, 0.57, 0.56, 0.56, 0.55, 0.55, 0.55, 0.54, 0.54, 0.53, 0.53, 0.52, 0.52, 0.52, 0.51, 0.51]
31 [0.66, 0.67, 0.67, 0.68, 0.69, 0.69, 0.7, 0.7, 0.71, 0.71, 0.72, 0.73, 0.73, 0.74, 0.74, 0.75, 0.75, 0.76, 0.77, 0.77, 0.78, 0.78, 0.79, 0.8, 0.8, 0.81, 0.81, 0.82, 0.83, 0.83, 0.84, 0.84, 0.85, 0.86, 0.86, 0.87, 0.87, 0.88, 0.89, 0.89, 0.9, 0.91, 0.91, 0.92, 0.93, 0.93, 0.94, 0.95, 0.95, 0.96, 0.97, 0.97, 0.98, 0.99, 0.99, 1.0, 1.01, 1.01, 1.02, 1.03, 1.04, 1.04, 1.05, 1.06, 1.07, 1.08, 1.08, 1.09, 1.1, 1.11, 1.12, 1.12, 1.13, 1.14, 1.15, 1.16, 1.17, 1.18, 1.18, 1.19, 1.2, 1.21, 1.22, 1.23, 1.24, 1.25, 1.26, 1.27, 1.28, 1.29, 1.3, 1.32, 1.33, 1.34, 1.35, 1.36, 1.37, 1.39, 1.4, 1.41, 1.42, 1.44, 1.45, 1.46, 1.48, 1.49, 1.51, 1.52, 1.54, 1.55, 1.57, 1.59, 1.6, 1.62, 1.64, 1.66, 1.68, 1.69, 1.71, 1.73, 1.75, 1.78, 1.8, 1.82, 1.84, 1.87, 1.89, 1.92, 1.95, 1.97, 2.0, 2.03, 2.06, 2.09, 2.13, 2.16, 2.2, 2.23, 2.27, 2.31, 2.35, 2.4, 2.44, 2.49, 2.54, 2.6, 2.65, 2.71, 2.77, 2.75, 2.73, 2.71, 2.69, 2.67, 2.65, 2.63, 2.61, 2.59, 2.57, 2.55, 2.53, 2.51, 2.49, 2.47, 2.45, 2.43, 2.41, 2.39, 1.61, 1.6, 1.58, 1.57, 1.56, 1.54, 1.53, 0.53, 0.53, 0.52, 0.52, 0.51, 0.51, 0.5]
32 [0.66, 0.66, 0.67, 0.68, 0.68, 0.69, 0.69, 0.7, 0.7, 0.71, 0.71, 0.72, 0.72, 0.73, 0.73, 0.74, 0.74, 0.75, 0.76, 0.76, 0.77, 0.77, 0.78, 0.78, 0.79, 0.79, 0.8, 0.8, 0.81, 0.81, 0.82, 0.83, 0.83, 0.84, 0.84, 0.85, 0.85, 0.86, 0.86, 0.87, 0.88, 0.88, 0.89, 0.89, 0.9, 0.9, 0.91, 0.92, 0.92, 0.93, 0.93, 0.94, 0.95, 0.95, 0.96, 0.96, 0.97, 0.98, 0.98, 0.99, 1.0, 1.0, 1.01, 1.02, 1.02, 1.03, 1.04, 1.04, 1.05, 1.06, 1.06, 1.07, 1.08, 1.09, 1.09, 1.1, 1.11, 1.11, 1.12, 1.13, 1.14, 1.15, 1.15, 1.16, 1.17, 1.18, 1.19, 1.2, 1.2, 1.21, 1.22, 1.23, 1.24, 1.25, 1.26, 1.27, 1.28, 1.29, 1.3, 1.31, 1.32, 1.33, 1.34, 1.35, 1.36, 1.38, 1.39, 1.4, 1.41, 1.42, 1.44, 1.45, 1.46, 1.48, 1.49, 1.5, 1.52, 1.53, 1.55, 1.56, 1.58, 1.6, 1.61, 1.63, 1.65, 1.67, 1.68, 1.7, 1.72, 1.74, 1.76, 1.79, 1.81, 1.83, 1.85, 1.88, 1.9, 1.93, 1.96, 1.99, 2.01, 2.04, 2.08, 2.11, 2.14, 2.18, 2.21, 2.25, 2.29, 2.34, 2.38, 2.43, 2.47, 2.53, 2.58, 2.64, 2.65, 2.63, 2.6, 2.58, 2.56, 2.54, 2.52, 2.5, 2.48, 2.46, 2.43, 2.41, 2.39, 2.37, 2.35, 2.33, 2.31, 2.29, 2.27, 2.25, 1.51, 1.5, 1.48, 1.47, 1.46, 1.44]
33 [0.66, 0.66, 0.67, 0.67, 0.68, 0.68, 0.69, 0.69, 0.7, 0.7, 0.71, 0.71, 0.72, 0.72, 0.73, 0.73, 0.74, 0.74, 0.75, 0.75, 0.76, 0.76, 0.77, 0.77, 0.78, 0.78, 0.79, 0.79, 0.8, 0.8, 0.81, 0.81, 0.82, 0.82, 0.83, 0.83, 0.84, 0.84, 0.85, 0.85, 0.86, 0.86, 0.87, 0.87, 0.88, 0.88, 0.89, 0.89, 0.9, 0.9, 0.91, 0.91, 0.92, 0.92, 0.93, 0.93, 0.94, 0.95, 0.95, 0.96, 0.96, 0.97, 0.97, 0.98, 0.98, 0.99, 1.0, 1.0, 1.01, 1.01, 1.02, 1.03, 1.03, 1.04, 1.05, 1.05, 1.06, 1.06, 1.07, 1.08, 1.08, 1.09, 1.1, 1.1, 1.11, 1.12, 1.13, 1.13, 1.14, 1.15, 1.16, 1.16, 1.17, 1.18, 1.19, 1.19, 1.2, 1.21, 1.22, 1.23, 1.24, 1.25, 1.25, 1.26, 1.27, 1.28, 1.29, 1.3, 1.31, 1.32, 1.33, 1.34, 1.35, 1.36, 1.37, 1.38, 1.4, 1.41, 1.42, 1.43, 1.44, 1.46, 1.47, 1.48, 1.5, 1.51, 1.53, 1.54, 1.56, 1.57, 1.59, 1.6, 1.62, 1.64, 1.65, 1.67, 1.69, 1.71, 1.73, 1.75, 1.77, 1.79, 1.82, 1.84, 1.86, 1.89, 1.91, 1.94, 1.97, 2.0, 2.03, 2.06, 2.09, 2.13, 2.16, 2.2, 2.24, 2.28, 2.32, 2.37, 2.41, 2.46, 2.52, 2.54, 2.51, 2.49, 2.47, 2.45, 2.42, 2.4, 2.38, 2.36, 2.34, 2.31, 2.29, 2.27, 2.25, 2.23, 2.21, 2.18, 2.16, 2.14]
34 [0.21, 0.22, 0.23, 0.24, 0.25, 0.27, 0.28, 0.29, 0.31, 0.33, 0.7, 0.7, 0.71, 0.71, 0.72, 0.72, 0.72, 0.73, 0.73, 0.74, 0.74, 0.75, 0.75, 0.75, 0.76, 0.76, 0.77, 0.77, 0.77, 0.78, 0.78, 0.79, 0.79, 0.79, 0.8, 0.8, 0.81, 0.81, 0.81, 0.82, 0.82, 0.83, 0.83, 0.83, 0.84, 0.84, 0.85, 0.85, 0.86, 0.86, 0.86, 0.87, 0.87, 0.88, 0.88, 0.89, 0.89, 0.89, 0.9, 0.9, 0.91, 0.91, 0.92, 0.92, 0.92, 0.93, 0.93, 0.94, 0.94, 0.95, 0.95, 0.96, 0.96, 0.97, 0.97, 0.98, 0.98, 0.98, 0.99, 0.99, 1.0, 1.0, 1.01, 1.01, 1.02, 1.02, 1.03, 1.04, 1.04, 1.05, 1.05, 1.06, 1.06, 1.07, 1.07, 1.08, 1.09, 1.09, 1.1, 1.1, 1.11, 1.12, 1.12, 1.13, 1.13, 1.14, 1.15, 1.15, 1.16, 1.17, 1.17, 1.18, 1.19, 1.2, 1.2, 1.21, 1.22, 1.23, 1.23, 1.24, 1.25, 1.26, 1.27, 1.28, 1.28, 1.29, 1.3, 1.31, 1.32, 1.33, 1.34, 1.35, 1.36, 1.37, 1.38, 1.39, 1.4, 1.42, 1.43, 1.44, 1.45, 1.47, 1.48, 1.49, 1.51, 1.52, 1.53, 1.55, 1.56, 1.58, 1.6, 1.61, 1.63, 1.65, 1.67, 1.69, 1.71, 1.73, 1.75, 1.77, 1.79, 1.82, 1.84, 1.87, 1.89, 1.92, 1.95, 1.98, 2.01, 2.05, 2.08, 2.12, 2.16, 2.2, 2.24, 2.29, 2.3, 2.28, 2.25, 2.23, 2.2, 2.18]
35 [0.18, 0.19, 0.2, 0.2, 0.21, 0.22, 0.23, 0.24, 0.25, 0.26, 0.27, 0.28, 0.29, 0.3, 0.32, 0.71, 0.71, 0.72, 0.72, 0.72, 0.73, 0.73, 0.73, 0.74, 0.74, 0.74, 0.75, 0.75, 0.75, 0.76, 0.76, 0.77, 0.77, 0.77, 0.78, 0.78, 0.78, 0.79, 0.79, 0.79, 0.8, 0.8, 0.8, 0.81, 0.81, 0.81, 0.82, 0.82, 0.82, 0.83, 0.83, 0.83, 0.84, 0.84, 0.84, 0.85, 0.85, 0.85, 0.86, 0.86, 0.86, 0.87, 0.87, 0.88, 0.88, 0.88, 0.89, 0.89, 0.89, 0.9, 0.9, 0.9, 0.91, 0.91, 0.92, 0.92, 0.92, 0.93, 0.93, 0.93, 0.94, 0.94, 0.95, 0.95, 0.95, 0.96, 0.96, 0.97, 0.97, 0.97, 0.98, 0.98, 0.99, 0.99, 1.0, 1.0, 1.0, 1.01, 1.01, 1.02, 1.02, 1.03, 1.03, 1.04, 1.04, 1.05, 1.05, 1.06, 1.06, 1.07, 1.07, 1.08, 1.08, 1.09, 1.09, 1.1, 1.1, 1.11, 1.12, 1.12, 1.13, 1.13, 1.14, 1.15, 1.15, 1.16, 1.16, 1.17, 1.18, 1.18, 1.19, 1.2, 1.21, 1.21, 1.22, 1.23, 1.24, 1.24, 1.25, 1.26, 1.27, 1.28, 1.29, 1.3, 1.3, 1.31, 1.32, 1.33, 1.34, 1.35, 1.36, 1.38, 1.39, 1.4, 1.41, 1.42, 1.43, 1.45, 1.46, 1.47, 1.49, 1.5, 1.52, 1.53, 1.55, 1.57, 1.58, 1.6, 1.62, 1.64, 1.66, 1.68, 1.7, 1.72, 1.75, 1.77, 1.8, 1.82, 1.85, 1.88, 1.91, 1.94]
36 [0.17, 0.17, 0.18, 0.18, 0.19, 0.19, 0.2, 0.21, 0.21, 0.22, 0.23, 0.24, 0.25, 0.26, 0.26, 0.28, 0.29, 0.3, 0.31, 0.71, 0.72, 0.72, 0.72, 0.73, 0.73, 0.73, 0.74, 0.74, 0.74, 0.74, 0.75, 0.75, 0.75, 0.76, 0.76, 0.76, 0.76, 0.77, 0.77, 0.77, 0.78, 0.78, 0.78, 0.78, 0.79, 0.79, 0.79, 0.8, 0.8, 0.8, 0.81, 0.81, 0.81, 0.81, 0.82, 0.82, 0.82, 0.83, 0.83, 0.83, 0.83, 0.84, 0.84, 0.84, 0.85, 0.85, 0.85, 0.85, 0.86, 0.86, 0.86, 0.87, 0.87, 0.87, 0.88, 0.88, 0.88, 0.89, 0.89, 0.89, 0.89, 0.9, 0.9, 0.9, 0.91, 0.91, 0.91, 0.92, 0.92, 0.92, 0.93, 0.93, 0.93, 0.94, 0.94, 0.94, 0.95, 0.95, 0.95, 0.96, 0.96, 0.97, 0.97, 0.97, 0.98, 0.98, 0.98, 0.99, 0.99, 1.0, 1.0, 1.0, 1.01, 1.01, 1.02, 1.02, 1.03, 1.03, 1.03, 1.04, 1.04, 1.05, 1.05, 1.06, 1.06, 1.07, 1.07, 1.08, 1.08, 1.09, 1.09, 1.1, 1.1, 1.11, 1.11, 1.12, 1.12, 1.13, 1.14, 1.14, 1.15, 1.16, 1.16, 1.17, 1.17, 1.18, 1.19, 1.2, 1.2, 1.21, 1.22, 1.23, 1.23, 1.24, 1.25, 1.26, 1.27, 1.28, 1.29, 1.29, 1.3, 1.31, 1.32, 1.34, 1.35, 1.36, 1.37, 1.38, 1.39, 1.41, 1.42, 1.43, 1.45, 1.46, 1.47, 1.49, 1.51, 1.52, 1.54, 1.56, 1.58, 1.6]
37 [0.15, 0.15, 0.16, 0.16, 0.17, 0.17, 0.18, 0.18, 0.19, 0.19, 0.2, 0.2, 0.21, 0.21, 0.22, 0.23, 0.23, 0.24, 0.25, 0.26, 0.27, 0.28, 0.29, 0.3, 0.31, 0.72, 0.73, 0.73, 0.73, 0.73, 0.74, 0.74, 0.74, 0.74, 0.74, 0.75, 0.75, 0.75, 0.75, 0.76, 0.76, 0.76, 0.76, 0.77, 0.77, 0.77, 0.77, 0.77, 0.78, 0.78, 0.78, 0.78, 0.79, 0.79, 0.79, 0.79, 0.8, 0.8, 0.8, 0.8, 0.8, 0.81, 0.81, 0.81, 0.81, 0.82, 0.82, 0.82, 0.82, 0.82, 0.83, 0.83, 0.83, 0.83, 0.84, 0.84, 0.84, 0.84, 0.85, 0.85, 0.85, 0.85, 0.86, 0.86, 0.86, 0.86, 0.87, 0.87, 0.87, 0.87, 0.88, 0.88, 0.88, 0.88, 0.89, 0.89, 0.89, 0.89, 0.9, 0.9, 0.9, 0.9, 0.91, 0.91, 0.91, 0.91, 0.92, 0.92, 0.92, 0.93, 0.93, 0.93, 0.93, 0.94, 0.94, 0.94, 0.95, 0.95, 0.95, 0.96, 0.96, 0.96, 0.97, 0.97, 0.97, 0.98, 0.98, 0.98, 0.99, 0.99, 0.99, 1.0, 1.0, 1.0, 1.01, 1.01, 1.02, 1.02, 1.02, 1.03, 1.03, 1.04, 1.04, 1.05, 1.05, 1.05, 1.06, 1.06, 1.07, 1.07, 1.08, 1.08, 1.09, 1.09, 1.1, 1.11, 1.11, 1.12, 1.12, 1.13, 1.13, 1.14, 1.15, 1.15, 1.16, 1.17, 1.17, 1.18, 1.19, 1.2, 1.2, 1.21, 1.22, 1.23, 1.24, 1.25, 1.26, 1.27, 1.28, 1.29, 1.3, 1.31]
