0 [0.0, 0.0, 0.0, 0.0, 0.0, 0.0, 0.0, 0.0]
1 [0.9828772, 0.349806, 0.0, 0.0, 0.0, 0.0, 0.0, 0.0]
2 [0.98146176, 0.34599283, 0.0, 0.0, 0.0, 0.0, 0.0, 0.0]
3 [0.97761565, 0.33535615, 0.0, 0.0, 0.0, 0.0, 0.0, 0.0]
4 [0.9751978, 0.33326527, 0.0, 0.0, 0.0, 0.0, 0.0, 0.0]
5 [0.9700974, 0.33074707, 0.0, 0.0, 0.0, 0.0, 0.0, 0.0]
6 [0.9654327, 0.3263022, 0.4304095, 0.0, 0.0, 0.0, 0.0, 0.0]
7 [0.96274674, 0.32191354, 0.4244031, 0.0, 0.0, 0.0, 0.0, 0.0]
8 [0.95542634, 0.31329188, 0.4088893, 0.0, 1.0014788, 0.0, 0.0, 0.0]
9 [0.950528, 0.3113232, 0.39899594, 0.0, 0.99735975, 0.0, 0.0, 0.0]
10 [0.9476666, 0.30781573, 0.39432263, 0.0, 0.99191344, 0.0, 0.0, 0.0]
11 [0.9422304, 0.29636508, 0.38634166, 0.9636283, 0.9732367, 0.0, 0.0, 0.0]
12 [0.9367959, 0.28932512, 0.37859544, 0.94898105, 0.95627, 0.0, 0.0, 0.0]
13 [0.9324858, 0.28507704, 0.0, 0.93223876, 0.93872833, 0.0, 0.0, 0.0]
14 [0.9254852, 0.2780167, 0.0, 0.90107757, 0.9067596, 0.0, 0.0, 0.0]
15 [0.9176909, 0.27006173, 0.0, 0.8647637, 0.8697733, 0.0, 0.0, 0.0]
16 [0.25171682, 0.25922766, 0.0, 0.0, 0.83253485, 0.0, 0.0, 0.0]
17 [0.24232751, 0.24881306, 0.0, 0.0, 0.7947009, 0.0, 0.0, 0.0]
18 [0.23715167, 0.24287611, 0.0, 0.0, 0.7740584, 0.0, 0.0, 0.0]
19 [0.23142579, 0.23583743, 0.0, 0.0, 0.75259566, 0.0, 0.0, 0.0]
20 [0.22544718, 0.22792023, 0.0, 0.0, 0.7311135, 0.71728045, 0.0, 0.0]
21 [0.22014697, 0.22047015, 0.0, 0.0, 0.7118556, 0.70242745, 0.0, 0.0]
22 [0.21539709, 0.87142605, 0.0, 0.0, 0.69463396, 0.6889286, 0.0, 0.0]
23 [0.21094172, 0.86389273, 0.0, 0.0, 0.679441, 0.67704916, 0.0, 0.0]
24 [0.20249899, 0.8477913, 0.95249635, 0.0, 0.65036476, 0.6568901, 0.0, 0.0]
25 [0.19432598, 0.83265144, 0.9055667, 0.0, 0.62471735, 0.6356196, 0.0, 0.0]
26 [0.19017246, 0.83235234, 0.88216, 0.0, 0.61624503, 0.623984, 0.0, 0.0]
27 [0.18734726, 0.36183107, 0.8603415, 0.0, 0.0, 0.6135958, 0.0, 0.0]
28 [0.18734726, 0.36183107, 0.8603415, 0.0, 0.0, 0.6135958, 0.0, 0.0]
29 [0.18593068, 0.15432842, 0.82172406, 0.9587422, 0.0, 0.59286404, 0.58710927, 0.0]
30 [0.18853956, 0.1492109, 0.80539244, 0.91163385, 0.0, 0.58066016, 0.5855909, 0.0]
31 [0.193559, 0.14384209, 0.7941603, 0.87245107, 0.0, 0.5729976, 0.5828535, 0.0]
32 [0.193559, 0.14384209, 0.7941603, 0.87245107, 0.0, 0.5729976, 0.5828535, 0.0]
33 [0.19957678, 0.13809231, 0.7965441, 0.8425782, 0.0, 0.0, 0.5788361, 0.0]
34 [0.21002673, 0.1230328, 0.31625548, 0.79550457, 0.9376449, 0.0, 0.56533486, 0.0]
35 [0.21550317, 0.1078616, 0.30049565, 0.75976616, 0.8596671, 0.0, 0.5473201, 0.56781906]
36 [0.20795245, 0.09034817, 0.28050804, 0.7319227, 0.80537236, 0.0, 0.0, 0.54773736]
37 [0.19957848, 0.075564176, 0.26161784, 0.71779305, 0.758897, 0.94877905, 0.0, 0.53429717]
38 [0.8610751, 0.06881192, 0.25002474, 0.70618427, 0.7211553, 0.87098217, 0.0, 0.526711]
