0 -1
1 -1
2 -1
3 509
4 24
5 509
6 18669
7 3034
8 1509
9 1534
10 19
11 18626
12 64
13 879
14 2375
15 4134
16 286752
17 237254
18 102388
19 313751
20 387501
21 234379
22 101509
23 78129
24 78129
25 121130
26 121760
27 158774
28 121756
29 315011
30 315137
31 312520
32 315000
33 11875
34 137132
35 140132
36 140132
37 202750
38 202507
39 65625
40 217506
41 -1
42 75000
43 231882
44 231257
45 328754
46 381282
47 93754
48 312504
49 4
50 312500
51 343759
52 75000
