0 [1.0, 1.0, 1.0, 1.0, 1.0, 1.0, 1.0, 1.0]
1 [1.0, 1.0, 1.0, 1.0, 1.0, 1.0, 1.0, 1.0]
2 [1.0, 1.0, 1.0, 1.0, 1.0, 1.0, 1.0, 1.0]
3 [1.0, 1.0, 1.0, 1.0, 1.0, 1.0, 1.0, 1.0]
4 [1.0, 1.0, 1.0, 1.0, 1.0, 1.0, 1.0, 1.0]
5 [1.0, 1.0, 1.0, 1.0, 1.0, 1.0, 1.0, 1.0]
6 [1.0, 1.0, 1.0, 1.0, 1.0, 1.0, 1.0, 1.0]
7 [1.0, 1.0, 1.0, 1.0, 1.0, 1.0, 1.0, 1.0]
8 [1.0, 1.0, 1.0, 1.0, 1.0, 1.0, 1.0, 1.0]
9 [1.0, 1.0, 1.0, 1.0, 1.0, 1.0, 1.0, 1.0]
10 [1.0, 1.0001553, 1.0626435, 1.4628768, 1.0626435, 1.0001553, 1.0, 1.0]
11 [1.0, 1.0001965, 1.0792751, 1.5857688, 1.0792751, 1.0001965, 1.0, 1.0]
12 [1.0, 1.0001496, 1.0603435, 1.4458818, 1.0603435, 1.0003833, 1.0942593, 1.6964872]
13 [1.0, 1.0001131, 1.0458697, 1.4314567, 1.7420471, 1.0945586, 1.0795088, 1.5857688]
14 [1.6957617, 1.0942442, 1.0339317, 1.324823, 1.604227, 1.0774671, 1.058878, 1.4336381]
15 [1.5701848, 1.0772288, 1.0256355, 1.2456204, 1.4589368, 1.0588591, 1.0444777, 1.3275733]
16 [1.4336381, 1.0587339, 1.0193758, 1.1856582, 1.3470212, 1.0445071, 1.0336169, 1.2475845]
17 [1.3275733, 1.0440989, 0.9060467, 0.3378548, 1.1534382, 1.0333363, 1.0253818, 1.1869339]
18 [1.2475845, 1.033309, 0.9202868, 0.43524128, 1.1072619, 1.0251735, 1.0191832, 1.1412816]
19 [1.1871209, 1.0251732, 0.9392247, 0.5692532, 1.0805376, 1.0187553, 0.9059203, 0.30448943]
20 [1.1412816, 1.0190064, 0.95381165, 0.5659582, 0.258487, 0.9055609, 0.9199077, 0.40991724]
21 [0.30448943, 0.90602016, 1.0589893, 1.3591312, 0.46879852, 0.92006433, 0.9389164, 0.5501137]
22 [0.40937775, 0.9201946, 1.0507557, 1.3166711, 0.6007716, 0.9390665, 0.95380044, 0.65974545]
23 [0.5791236, 0.9431309, 1.0362033, 1.2262746, 0.718238, 0.9569443, 0.9673766, 0.75973254]
24 [0.6821047, 0.9570458, 1.0273461, 1.1709285, 0.78726584, 0.96749073, 0.9753684, 0.8185908]
25 [0.7788693, 0.9701207, 1.0190222, 1.1189004, 0.8520253, 0.97738695, 0.9828665, 0.8738142]
26 [0.8328728, 0.97741765, 1.0143766, 1.0898632, 0.88816315, 0.9829094, 0.98705083, 0.90463084]
27 [0.873688, 0.982708, 0.9202265, 0.39817894, 0.8248363, 0.98685855, 0.9902132, 0.92792153]
28 [0.90463084, 0.98686165, 0.9065319, 0.30001944, 0.8345096, 0.9899954, 0.9926107, 0.9455787]
29 [0.92792153, 0.9900653, 0.92735684, 0.45617723, 0.8729236, 0.9924338, 0.9944153, 0.9588693]
30 [0.9455787, 0.99250466, 0.94742906, 0.60622036, 0.90633035, 0.99430335, 0.99998623, 1.0]
31 [0.9606791, 0.9945844, 0.96200883, 0.7154302, 0.9323139, 0.9958765, 0.99695337, 0.977562]
32 [0.97031164, 0.99591106, 0.97132283, 0.7881763, 0.9713328, 0.99992895, 1.0, 1.0]
33 [1.0, 0.9999463, 0.9783338, 0.83990693, 0.9783338, 0.9999463, 1.0, 1.0]
34 [1.0, 1.0, 1.0, 1.0, 1.0, 1.0, 1.0, 1.0]
35 [1.0, 0.99996936, 0.98763645, 0.9086448, 0.98763645, 0.99996936, 1.0, 1.0]
36 [1.0, 0.9999768, 0.9906558, 0.93095523, 0.9906558, 0.9999768, 1.0, 1.0]
37 [1.0, 0.99998254, 0.9929449, 0.94786924, 0.9929449, 1.0000083, 1.0104356, 1.0771092]
38 [1.0, 0.99998677, 0.9946678, 0.96060044, 0.9946678, 1.0002193, 1.0938463, 1.6934359]
39 [1.0, 0.9999911, 0.99642575, 0.97358966, 0.99642575, 1.0001593, 1.0678111, 1.50106]
40 [1.0, 0.9999933, 0.99730134, 0.98005944, 0.99730134, 1.0001205, 1.051295, 1.3790218]
41 [1.0, 1.0, 1.0, 1.0, 1.0, 1.0, 1.0, 1.0]
42 [1.0, 1.0, 1.0, 1.0, 1.0, 1.0000725, 1.0292463, 1.2161028]
43 [1.0, 1.0, 1.0, 1.0, 1.0, 1.0000548, 1.0221039, 1.1633271]
44 [1.0, 1.0, 1.0, 1.0, 1.0, 0.99982667, 0.9300804, 0.48336023]
45 [1.0, 1.0, 1.0, 1.0, 1.0, 0.999777, 0.9100464, 0.33532763]
46 [1.0, 1.0, 1.0, 1.0, 1.0, 0.9998259, 0.9297579, 0.480977]
47 [1.0, 1.0, 1.0, 1.0, 1.0, 0.9998682, 0.946828, 0.6071092]
48 [1.0, 1.0, 1.0, 1.0, 1.0, 0.9999098, 0.96362984, 0.73125905]
49 [1.0, 1.0, 1.0, 1.0, 1.0, 0.99993193, 0.9725393, 0.7970916]
