1.9805263280869 -0.4999991953373
1.9787250757217 -0.50004976987839
1.9729343652725 -0.50007331371307
1.9636299610138 -0.50000125169754
1.9538042545319 -0.5000119805336
1.9440352916718 -0.50001758337021
1.9344066381454 -0.50000995397568
1.9248647689819 -0.49998015165329
1.9154033660889 -0.49995484948158
1.9060599803925 -0.4999213218689
1.8968095779419 -0.49988889694214
1.8876531124115 -0.49984183907509
1.8786023855209 -0.4997915327549
1.8696264028549 -0.49975100159645
1.8607928752899 -0.49971920251846
1.8520265817642 -0.49967208504677
1.843334197998 -0.49965715408325
1.834747672081 -0.4996120929718
1.8262178897858 -0.499587059021
1.8178198337555 -0.4994977414608
1.80948138237 -0.49951228499413
1.801222205162 -0.49964866042137
1.7929832935333 -0.49975371360779
1.784769654274 -0.49994164705276
1.7765665054321 -0.50012820959091
1.7684390544891 -0.50030440092087
1.7604732513428 -0.50055694580078
1.7524449825287 -0.50078457593918
1.7445293664932 -0.5010986328125
1.7365486621857 -0.50154364109039
1.7285511493683 -0.5020660161972
1.7204916477203 -0.50262153148651
1.7124589681625 -0.5032656788826
1.7043488025665 -0.50394833087921
1.6962019205093 -0.50470650196075
1.6879856586456 -0.5055183172226
1.679741859436 -0.50640451908112
1.6714327335358 -0.50734943151474
1.6630716323853 -0.50833916664124
1.6546974182129 -0.50937259197235
1.6472890377045 -0.51027739048004
1.6406610012054 -0.51086509227753
1.6344511508942 -0.5113353729248
1.6281124353409 -0.51186525821686
1.6210210323334 -0.51268762350082
1.6137517690659 -0.513711810112
1.6065067052841 -0.51486372947693
1.5992679595947 -0.5161024928093
1.5919625759125 -0.51747649908066
1.5846750736237 -0.51891911029816
1.5774899721146 -0.52043998241425
1.5702610015869 -0.52202689647675
1.5630140304565 -0.52370685338974
1.5557056665421 -0.52558147907257
1.5483837127686 -0.52750658988953
1.5411139726639 -0.52950620651245
1.5337980985641 -0.53161925077438
1.5263378620148 -0.53384214639664
1.5188270807266 -0.536188185215
1.5113221406937 -0.53861373662949
1.5038177967072 -0.54109990596771
1.4962990283966 -0.54375690221786
1.4887908697128 -0.54644387960434
1.4812557697296 -0.54919928312302
1.473785161972 -0.5520595908165
1.4662978649139 -0.55496823787689
1.4587886333466 -0.55798041820526
1.4513269662857 -0.56106090545654
1.443852186203 -0.56421774625778
1.4363873004913 -0.56743890047073
1.4289189577103 -0.57072401046753
1.4209101200104 -0.57429414987564
1.4125329256058 -0.57818847894669
1.4042909145355 -0.58214420080185
1.3960824012756 -0.58608436584473
1.3879339694977 -0.58997130393982
1.379811167717 -0.59378921985626
1.3717283010483 -0.59760868549347
1.3636419773102 -0.60138213634491
1.3555872440338 -0.60509359836578
1.3475244045258 -0.60877960920334
1.3394610881805 -0.61243414878845
1.331384062767 -0.61604869365692
1.3233067989349 -0.61963778734207
1.3152457475662 -0.62316292524338
1.3071626424789 -0.62667620182037
1.2990382909775 -0.63014853000641
1.2909262180328 -0.63358974456787
1.2827812433243 -0.63698571920395
1.2745991945267 -0.64033704996109
1.2663595676422 -0.64367324113846
1.2581316232681 -0.64697217941284
1.2498532533646 -0.650270819664
1.2415249347687 -0.65351259708405
1.2331745624542 -0.65672832727432
1.2247672080994 -0.65992790460587
1.2157813310623 -0.66322338581085
1.2065937519073 -0.66651451587677
1.1974161863327 -0.6697860956192
1.1882245540619 -0.67306500673294
1.179053068161 -0.67634290456772
1.1698676347733 -0.67961573600769
1.1606891155243 -0.68290054798126
1.1515066623688 -0.68618887662888
1.142321228981 -0.68946862220764
1.1331607103348 -0.6927404999733
1.1239770650864 -0.69603043794632
1.1147890090942 -0.69929951429367
1.1056299209595 -0.70257198810577
1.0964401960373 -0.70586001873016
1.0872480869293 -0.70914804935455
1.078089594841 -0.71241891384125
1.0688998699188 -0.71569854021072
1.0597358942032 -0.71897375583649
1.0505540370941 -0.72226130962372
1.0413583517075 -0.72554504871368
1.0321846008301 -0.72882163524628
1.0230150222778 -0.7320973277092
1.0138339996338 -0.73537743091583
1.004655122757 -0.73865878582001
0.99546927213669 -0.74193871021271
0.98630285263062 -0.74521791934967
0.97710877656937 -0.74849879741669
0.96794527769089 -0.75177639722824
0.95876502990723 -0.75506269931793
0.94958961009979 -0.75834715366364
0.94039982557297 -0.76162469387054
0.93120908737183 -0.76491105556488
0.92204236984253 -0.76818919181824
0.91285800933838 -0.77147263288498
0.90368366241455 -0.774747133255
0.89449107646942 -0.7780374288559
0.88531571626663 -0.78131282329559
0.87613171339035 -0.78459578752518
0.86696636676788 -0.78787010908127
0.85776633024216 -0.79116410017014
0.84860593080521 -0.79443979263306
0.83942997455597 -0.79771506786346
0.83037346601486 -0.80094289779663
0.82144623994827 -0.80412369966507
0.81266194581985 -0.80725383758545
0.80408918857574 -0.81031292676926
0.79573100805283 -0.81328648328781
0.78763991594315 -0.81617832183838
0.77976858615875 -0.81897723674774
0.77212941646576 -0.82170820236206
0.7647243142128 -0.82436668872833
0.75752508640289 -0.82695043087006
0.75051987171173 -0.82946825027466
0.74370354413986 -0.83191239833832
0.73711293935776 -0.83428066968918
0.73069798946381 -0.83659106492996
0.7244810461998 -0.83882963657379
0.71839159727097 -0.84102284908295
0.71252882480621 -0.84313315153122
0.70679223537445 -0.84519720077515
0.7012425661087 -0.84720313549042
0.69583052396774 -0.84914952516556
0.69060796499252 -0.85103464126587
0.68548738956451 -0.8528944849968
0.68056660890579 -0.85467302799225
0.6757418513298 -0.8564265370369
0.67106491327286 -0.85811519622803
0.6665004491806 -0.85976707935333
0.66208076477051 -0.86137628555298
0.65779292583466 -0.86293470859528
0.65364009141922 -0.86444073915482
0.64955645799637 -0.86592853069305
0.64562809467316 -0.86735934019089
0.64178442955017 -0.86875629425049
0.63808226585388 -0.87010842561722
0.63445121049881 -0.87142598628998
0.63092857599258 -0.87271565198898
0.62752664089203 -0.87396031618118
0.62418782711029 -0.87518560886383
0.62096285820007 -0.87635815143585
0.61782020330429 -0.87750738859177
0.61478495597839 -0.87861680984497
0.61180275678635 -0.87971830368042
0.6089026927948 -0.8807800412178
0.60610163211823 -0.88180685043335
0.60338109731674 -0.88280522823334
0.60075151920319 -0.88376885652542
0.59817469120026 -0.88471400737762
0.59564250707626 -0.8856463432312
0.59367352724075 -0.88628655672073
0.59216350317001 -0.88669764995575
0.59120726585388 -0.88680571317673
0.59075462818146 -0.88659065961838
0.59123682975769 -0.8858345746994
0.592409491539 -0.88469761610031
0.59387445449829 -0.88326948881149
0.5955325961113 -0.8815820813179
0.59864389896393 -0.87905085086823
0.60240757465363 -0.87594020366669
0.60664546489716 -0.87219440937042
0.61020982265472 -0.86860835552216
0.61302489042282 -0.86534941196442
0.61533802747726 -0.86228513717651
0.61691045761108 -0.85938596725464
0.61786723136902 -0.8567601442337
0.61775594949722 -0.85501444339752
0.61720031499863 -0.85379761457443
0.61668336391449 -0.85259759426117
0.61640018224716 -0.85109025239944
0.61582767963409 -0.84974181652069
0.616146504879 -0.8473744392395
0.61589646339417 -0.84542208909988
0.61535704135895 -0.84351271390915
0.61468303203583 -0.84186971187592
0.61394774913788 -0.84026336669922
0.61323416233063 -0.83847439289093
0.61242365837097 -0.83665943145752
0.61150944232941 -0.83507537841797
0.61051791906357 -0.83367985486984
0.60923153162003 -0.83266913890839
0.60782933235168 -0.83186769485474
0.60610681772232 -0.83226203918457
0.60739749670029 -0.83120739459991
0.61332243680954 -0.82297372817993
0.61726421117783 -0.81665551662445
0.6213943362236 -0.81216156482697
0.62490886449814 -0.80814599990845
0.62798327207565 -0.80450630187988
0.63095116615295 -0.80070316791534
0.63382810354233 -0.79641592502594
0.63666266202927 -0.791783452034
0.63927280902863 -0.78740864992142
0.64151149988174 -0.78352224826813
0.64320451021194 -0.78004878759384
0.64428818225861 -0.77713930606842
0.64477360248566 -0.77487450838089
0.64467823505402 -0.77328932285309
0.64400804042816 -0.77241396903992
0.64282119274139 -0.7722390294075
0.64133620262146 -0.77255368232727
0.63960480690002 -0.77330821752548
0.63791370391846 -0.77408242225647
0.63622033596039 -0.77499544620514
0.63442319631577 -0.77700704336166
0.63257074356079 -0.77956664562225
0.63086307048798 -0.78237688541412
0.62921136617661 -0.78525370359421
0.62755310535431 -0.78824204206467
0.62592631578445 -0.79155600070953
0.62439727783203 -0.79517686367035
0.62296921014786 -0.79889857769012
0.62167197465897 -0.80275106430054
0.62047052383423 -0.80669593811035
0.61939942836761 -0.81098079681396
0.6184915304184 -0.81633377075195
