0 [1.0, 1.0, 1.0, 1.0, 1.0, 1.0, 1.0, 1.0]
1 [1.0, 1.0, 1.0, 1.0, 1.0, 1.0, 1.0, 1.0]
2 [1.0, 1.0, 1.0, 1.0, 1.0, 1.0, 1.0, 1.0]
3 [1.0, 1.0, 1.0, 1.0, 1.0, 1.0, 1.0, 1.0]
4 [1.0, 1.0, 1.0, 1.0, 1.0, 1.0, 1.0, 1.0]
5 [1.0, 1.0, 1.0, 1.0, 1.0, 1.0, 1.0, 1.0]
6 [1.0, 1.0, 1.0, 1.0, 1.0, 1.0, 1.0, 1.0]
7 [1.0, 1.0, 1.0, 1.0, 1.0, 1.0, 1.0, 1.0]
8 [1.0, 1.0, 1.0, 1.0, 1.0, 1.0000417, 1.0168363, 1.124404]
9 [1.0, 1.0, 1.0, 1.0, 1.0, 1.0002321, 1.0936477, 1.6919684]
10 [1.124404, 1.0168363, 1.0000417, 1.0, 1.0, 1.0001874, 1.0755794, 1.5584608]
11 [1.6921918, 1.093678, 1.0002322, 1.0, 1.0, 1.0001423, 1.0574151, 1.4242437]
12 [1.5589913, 1.0756513, 1.0001875, 1.0, 1.0, 1.0001075, 1.0433679, 1.3204479]
13 [1.4246665, 1.0574723, 1.0001425, 1.0, 1.0, 1.0000813, 1.0327778, 1.2421973]
14 [1.3207684, 1.0434113, 1.0001076, 1.0, 1.0, 1.0000614, 1.0247482, 1.1828662]
15 [1.1995564, 1.2265673, 1.0275692, 1.0000682, 1.0, 0.9997703, 0.9073301, 0.3152569]
16 [0.7914171, 1.6481087, 1.0931388, 1.0002311, 1.0, 0.99981743, 0.9263452, 0.45576078]
17 [0.3900489, 1.4599724, 1.0745623, 1.0001854, 1.0, 0.9998615, 0.9441089, 0.5870177]
18 [0.511504, 1.345824, 1.0566065, 1.0001408, 1.0, 0.9998953, 0.95774484, 0.68777406]
19 [0.62949944, 1.2609966, 1.0427549, 1.0001063, 1.0, 0.9999209, 0.9680953, 0.76425445]
20 [0.719881, 1.1972504, 1.0323144, 1.0000803, 1.0, 0.9999402, 0.9758869, 0.821827]
21 [0.7882845, 1.1490781, 1.0244228, 1.0000607, 1.0, 0.9999548, 0.9817757, 0.8653397]
22 [0.84014845, 1.1125582, 1.0184399, 1.0000459, 1.0, 0.9999659, 0.98624015, 0.89832765]
23 [0.7709881, 0.2855835, 0.9057379, 0.99976647, 1.0, 0.99997425, 0.98960054, 0.9231577]
24 [0.8205955, 0.41334957, 0.92243725, 0.99980783, 1.0, 0.9999805, 0.99214023, 0.94192386]
25 [0.8685615, 0.5686321, 0.94295883, 0.9998587, 1.0, 0.99998575, 0.9942583, 0.95757425]
26 [0.9007436, 0.6741822, 0.9569157, 0.99989325, 1.0, 0.9999893, 0.99566483, 0.9679674]
27 [0.9250576, 0.7539908, 0.9674691, 0.9999194, 1.0, 0.9999919, 0.9967269, 0.97581446]
28 [0.97542435, 0.8184093, 0.97542435, 0.9999391, 1.0, 1.0, 1.0, 1.0]
29 [0.9572777, 0.8597578, 0.98145515, 0.99995404, 1.0, 1.0, 1.0, 1.0]
30 [1.0, 1.0, 1.0, 1.0, 1.0, 1.0, 1.0, 1.0]
31 [0.9894222, 0.9218402, 0.9894222, 0.9999738, 1.0, 1.0, 1.0, 1.0]
32 [0.99580556, 0.9690072, 0.99580556, 0.9999896, 1.0, 1.0, 1.0, 1.0]
33 [0.9968299, 0.97657615, 0.9968299, 0.99999213, 1.0, 1.0, 1.0, 1.0]
34 [1.0, 1.0, 1.0, 1.0, 1.0, 1.0, 1.0, 1.0]
35 [1.0, 1.0, 1.0, 1.0, 1.0, 1.0, 1.0, 1.0]
36 [1.0, 1.0, 1.0, 1.0, 1.0, 1.0, 1.0, 1.0]
37 [1.0, 1.0, 1.0, 1.0, 1.0, 1.0, 1.0, 1.0]
38 [1.0, 1.0, 1.0, 1.0, 1.0, 1.0, 1.0, 1.0]
39 [1.0, 1.0, 1.0, 1.0, 1.0, 1.0, 1.0, 1.0]
40 [1.0, 1.0, 1.0, 1.0, 1.0, 1.0, 1.0, 1.0]
41 [1.0, 1.0, 1.0, 1.0, 1.0, 1.0, 1.0, 1.0]
42 [1.0889027, 1.6569073, 1.0889027, 1.0002204, 1.0, 1.0, 1.0, 1.0]
43 [1.0850747, 1.6286213, 1.0850747, 1.0002109, 1.0, 1.0, 1.0, 1.0]
44 [1.0653856, 1.4831374, 1.0653856, 1.0001621, 1.0, 1.0, 1.0, 1.0]
45 [1.0494341, 1.365271, 1.0494341, 1.0001225, 1.0, 1.0, 1.0, 1.0]
46 [1.0373654, 1.2760953, 1.0373654, 1.0000926, 1.0, 1.0, 1.0, 1.0]
47 [1.0282122, 1.2084615, 1.0282122, 1.00007, 1.0, 1.0, 1.0, 1.0]
48 [1.0213224, 1.157552, 1.0213224, 1.0000528, 1.0, 1.0, 1.0, 1.0]
49 [0.91855305, 0.39818394, 0.91855305, 0.9997981, 1.0, 1.0, 1.0, 1.0]
