0 [0.0, 0.0, 0.0, 0.0, 0.0, 0.0, 0.0, 0.0]
1 [0.0, 0.0, 0.0, 0.0, 0.0, 0.0, 0.0, 0.0]
2 [0.19217582, 0.18617582, 0.09282417, 0.09217582, 0.091824174, 0.091824174, 0.09082417, 0.19717582]
3 [0.19217582, 0.18617582, 0.09282417, 0.09217582, 0.091824174, 0.091824174, 0.09082417, 0.19717582]
4 [1.1275989, 0.2515989, 0.15840109, 0.1564011, 1.0304011, 0.0899011, 0.0879011, 0.2575989]
5 [0.3579414, 1.1079414, 0.26639196, 1.011392, 1.0073919, 0.08672527, 0.08272527, 0.3619414]
6 [0.19127473, 0.69127476, 0.5997253, 0.094725266, 0.090725265, 0.08672527, 0.5827253, 0.19527473]
7 [0.0, 0.0, 0.75, 0.0, 0.0, 0.0, 0.75, 0.0]
8 [0.18664835, 0.18764836, 0.10835165, 0.10235165, 0.09335164, 0.084351644, 0.07635166, 0.06635164]
9 [0.21954884, 1.1548822, 0.5401044, 1.0916734, 1.0786734, 0.0918956, 0.45489562, 0.066895604]
10 [0.10962088, 0.17362088, 0.16562088, 0.11937912, 0.103379115, 0.09437912, 0.08037911, 0.06637912]
11 [0.10962088, 0.17362088, 0.16562088, 0.11937912, 0.103379115, 0.09437912, 0.08037911, 0.06637912]
12 [0.10747253, 1.1039726, 0.5394725, 1.0640274, 1.0450275, 1.0380275, 0.45852748, 0.06752748]
13 [0.10747253, 0.16647252, 0.16447254, 0.12652747, 0.107527465, 0.10052747, 0.08352747, 0.06752748]
14 [0.10408791, 0.21364346, 0.21464346, 0.20146765, 1.0981343, 1.0751343, 0.08791208, 0.068912074]
15 [0.10125824, 0.31792492, 1.0977026, 0.31840843, 1.0791862, 1.0571861, 0.09074175, 0.069741756]
16 [0.10125824, 0.15125825, 0.52825826, 0.52674174, 0.13474177, 0.11274176, 0.96574175, 0.069741756]
17 [0.095807694, 0.1388077, 0.1448077, 0.16219231, 0.14719231, 0.11519232, 0.09819231, 0.073192306]
18 [0.09244506, 0.36621428, 0.89144504, 0.91555494, 1.1385659, 0.34632418, 0.10055495, 0.07455495]
19 [0.09244506, 0.13544506, 0.14144506, 0.16555494, 0.14955495, 0.115554936, 0.10055495, 0.07455495]
20 [0.09042308, 0.51803845, 0.6394231, 0.6665769, 1.1375879, 0.5001923, 0.10257693, 0.5755769]
21 [0.09042308, 0.13342308, 0.13942307, 0.16657692, 0.14857693, 0.115576915, 0.10257693, 0.07557693]
22 [0.0839011, 1.0009011, 0.13390109, 1.0480989, 1.0915989, 1.013099, 0.10509889, 0.08009889]
23 [0.07706593, 0.35756594, 1.063566, 0.14493407, 0.49143407, 0.46243405, 0.10293406, 0.08593406]
24 [0.07706593, 0.045065936, 0.50106597, 1.019934, 0.17893407, 0.14993407, 0.10293406, 0.46093404]
25 [0.07117583, 0.04117582, 0.14714286, 0.15114287, 0.21779121, 1.1478351, 0.098824166, 0.09282417]
26 [0.07117583, 0.04117582, 0.11417582, 0.6181758, 0.68482417, 0.15882418, 0.098824166, 0.59282416]
27 [0.062285718, 0.036285717, 0.10927473, 1.1037912, 0.18371427, 0.1997033, 0.1537033, 0.09071429]
28 [0.7201172, 0.030450547, 0.026549445, 0.76211727, 0.7661172, 0.18954945, 0.15754946, 0.7462161]
29 [0.044945054, 0.02394505, 0.02305494, 0.10192308, 1.0809561, 0.20803298, 0.20503297, 1.118066]
30 [1.0171672, 0.02394505, 0.02305494, 0.13550061, 0.14750062, 0.24161051, 0.2386105, 0.18461049]
31 [0.5398846, 0.022884618, 0.013115382, 0.035115384, 0.5818846, 0.5928846, 0.1621154, 0.12311538]
32 [0.959478, 0.943478, 0.016093409, 0.034093402, 0.20095056, 0.22876374, 0.29095057, 0.29795057]
33 [0.4059066, 0.014906597, 0.016093409, 0.034093402, 0.9330934, 0.4609066, 0.14809342, 0.1550934]
34 [0.7708517, 0.96739006, 0.01714835, 0.030148348, 0.045148347, 0.8208517, 0.12231319, 0.1716099]
35 [0.13853297, 0.96046704, 0.968467, 0.027467037, 0.03746703, 0.14946702, 1.026533, 0.08453297]
36 [0.538533, 0.01046703, 0.018467033, 0.027467037, 0.03746703, 0.549467, 0.57653296, 0.08453297]
37 [0.05436813, 0.95207626, 0.9580763, 0.019631865, 0.025631871, 0.032631867, 0.18547925, 1.0348126]
38 [0.05436813, 0.007631865, 0.013631871, 0.019631865, 0.025631871, 0.032631867, 0.074368134, 0.09036813]
39 [0.068049446, 0.032049455, 0.009950554, 0.011950552, 0.01395055, 0.015950548, 0.018950546, 0.08804945]
40 [0.068049446, 0.032049455, 0.009950554, 0.011950552, 0.01395055, 0.015950548, 0.018950546, 0.08804945]
41 [0.56929123, 0.5402912, 0.96370876, 0.012708797, 0.012708797, 0.011708786, 0.5117088, 0.61070883]
42 [0.06929121, 0.040291205, 0.013708796, 0.012708797, 0.012708797, 0.011708786, 0.011708786, 0.010708787]
43 [0.4426099, 0.4186099, 0.3860265, 0.97493553, 0.017390106, 0.014390108, 0.8863901, 0.008390114]
44 [0.06760989, 0.04360989, 0.022390112, 0.020390114, 0.017390106, 0.014390108, 0.011390111, 0.008390114]
45 [0.06760989, 0.04360989, 0.022390112, 0.020390114, 0.017390106, 0.014390108, 0.011390111, 0.008390114]
46 [0.06760989, 0.04360989, 0.022390112, 0.020390114, 0.017390106, 0.014390108, 0.011390111, 0.008390114]
47 [0.06693956, 0.044939563, 0.026060442, 0.024060443, 0.020060435, 0.01606044, 0.8692033, 0.008060435]
48 [0.06602748, 0.04602747, 0.95954394, 0.95954394, 0.9535439, 0.018972527, 0.013972532, 0.007972526]
49 [0.06602748, 0.04602747, 0.030972527, 0.030972527, 0.024972523, 0.018972527, 0.013972532, 0.8651154]
