-0.094472751021385 0.70000076293945
-0.096000663936138 0.70013380050659
-0.10182075202465 0.70068591833115
-0.11103546619415 0.70151650905609
-0.12081705033779 0.70236241817474
-0.13050821423531 0.70321768522263
-0.14023235440254 0.70407223701477
-0.1499542593956 0.7049343585968
-0.15964022278786 0.70581066608429
-0.16933932900429 0.706678211689
-0.17903558909893 0.70755887031555
-0.18872293829918 0.70844995975494
-0.198431879282 0.70940291881561
-0.20814135670662 0.71036195755005
-0.21779306232929 0.71143132448196
-0.22746846079826 0.71258652210236
-0.23701851069927 0.71375751495361
-0.24658998847008 0.71488285064697
-0.25633534789085 0.71587860584259
-0.2660208940506 0.71682041883469
-0.2756874859333 0.71798592805862
-0.28540068864822 0.71923816204071
-0.2950533926487 0.72035682201385
-0.30470180511475 0.72141736745834
-0.31440714001656 0.72231459617615
-0.32408490777016 0.72310650348663
-0.33375200629234 0.7238495349884
-0.34315371513367 0.72457367181778
-0.35234776139259 0.72531735897064
-0.36143213510513 0.7260502576828
-0.37037369608879 0.72676980495453
-0.37924149632454 0.72748625278473
-0.38801461458206 0.7281905412674
-0.39673644304276 0.72889506816864
-0.40538200736046 0.72953414916992
-0.41394072771072 0.73016595840454
-0.42244657874107 0.73078906536102
-0.43089446425438 0.7313734292984
-0.43930974602699 0.73192578554153
-0.4476515352726 0.73246616125107
-0.45597323775291 0.73296719789505
-0.46424794197083 0.73343598842621
-0.47244435548782 0.73386937379837
-0.48058933019638 0.73425996303558
-0.48862567543983 0.73460251092911
-0.49665421247482 0.73489892482758
-0.50466704368591 0.73518294095993
-0.51264297962189 0.73545253276825
-0.52051001787186 0.73567771911621
-0.52834379673004 0.73584347963333
-0.53620439767838 0.73598325252533
-0.54412341117859 0.73604166507721
-0.55204004049301 0.73602801561356
-0.56002026796341 0.73597514629364
-0.56797069311142 0.73585486412048
-0.57599115371704 0.73566615581512
-0.58403372764587 0.73543375730515
-0.59199130535126 0.73514848947525
-0.59986156225204 0.73481911420822
-0.60775601863861 0.73443377017975
-0.61553877592087 0.73399215936661
-0.62325972318649 0.73349589109421
-0.63098514080048 0.73293912410736
-0.63769656419754 0.73254978656769
-0.64354050159454 0.73231619596481
-0.64888709783554 0.73230850696564
-0.65412873029709 0.7322895526886
-0.66017597913742 0.73211604356766
-0.66664361953735 0.73164904117584
-0.6730677485466 0.73098576068878
-0.67944645881653 0.73026502132416
-0.68591439723969 0.72945749759674
-0.69236028194427 0.72859299182892
-0.69873988628387 0.72768145799637
-0.70508021116257 0.7267090678215
-0.71137034893036 0.72568511962891
-0.71762353181839 0.72461384534836
-0.72381711006165 0.72348612546921
-0.73000085353851 0.72230541706085
-0.73613941669464 0.72108417749405
-0.7421612739563 0.71983951330185
-0.74810081720352 0.71855711936951
-0.7539239525795 0.71726286411285
-0.75964617729187 0.71593499183655
-0.76530319452286 0.71457976102829
-0.77085530757904 0.71320760250092
-0.77635282278061 0.71182441711426
-0.78176921606064 0.71042543649673
-0.78759765625 0.70888751745224
-0.79343467950821 0.70734226703644
-0.79923886060715 0.70576119422913
-0.80500870943069 0.704161465168
-0.81079131364822 0.70254069566727
-0.81653797626495 0.70089989900589
-0.82227009534836 0.69923979043961
-0.82797634601593 0.69755876064301
-0.83372038602829 0.69584631919861
-0.83941125869751 0.69412934780121
-0.8451172709465 0.69239753484726
-0.85081899166107 0.69064265489578
-0.85650026798248 0.68886983394623
-0.86215102672577 0.68709528446198
-0.86782425642014 0.6853147149086
-0.87348014116287 0.68352258205414
-0.87910842895508 0.68172913789749
-0.88476401567459 0.67991173267365
-0.89096802473068 0.67782080173492
-0.89772844314575 0.67541724443436
-0.90454834699631 0.6729833483696
-0.91135597229004 0.67058783769608
-0.91816461086273 0.66824162006378
-0.924964427948 0.66596376895905
-0.93081486225128 0.66400825977325
-0.93561220169067 0.6622565984726
-0.93982249498367 0.66049015522003
-0.94398337602615 0.65870451927185
-0.9481355547905 0.65698307752609
-0.95229512453079 0.65537005662918
-0.95638513565063 0.65391558408737
-0.96085435152054 0.65260100364685
-0.96591460704803 0.65150654315948
-0.9709906578064 0.65061730146408
-0.97595423460007 0.64981365203857
-0.98082435131073 0.64904874563217
-0.98644351959229 0.64814287424088
-0.99237430095673 0.64714175462723
-0.99808502197266 0.64612829685211
-1.0036590099335 0.64521253108978
-1.0096381902695 0.64427733421326
-1.0147763490677 0.64346998929977
-1.0195897817612 0.64270389080048
-1.0235549211502 0.64211398363113
-1.0268695354462 0.6417475938797
-1.0301086902618 0.64142286777496
-1.0332629680634 0.64111703634262
-1.0363403558731 0.64084643125534
-1.0393403768539 0.64058136940002
-1.0422585010529 0.64031565189362
-1.0451011657715 0.64008069038391
-1.0478508472443 0.63986176252365
-1.0505609512329 0.63964456319809
-1.0532121658325 0.63945144414902
-1.0557726621628 0.639279961586
-1.0582766532898 0.6391287446022
-1.0606939792633 0.63898885250092
-1.063065290451 0.63885658979416
-1.0653836727142 0.63873040676117
-1.0676276683807 0.63860476016998
-1.0698475837708 0.63849747180939
-1.0720059871674 0.63840007781982
-1.0740947723389 0.63831031322479
-1.0761468410492 0.63822793960571
-1.0781396627426 0.63817358016968
-1.0800931453705 0.63811409473419
-1.0820037126541 0.63807100057602
-1.0838842391968 0.63802349567413
-1.0857208967209 0.63797581195831
-1.0875126123428 0.63793283700943
-1.0892595052719 0.63789695501328
-1.0909886360168 0.63786959648132
-1.0926718711853 0.63786208629608
-1.0943378210068 0.6378561258316
-1.096826672554 0.63797354698181
-1.1001422405243 0.63819605112076
-1.1038793325424 0.63885182142258
-1.1076493263245 0.63959211111069
-1.1121356487274 0.64034855365753
-1.116925239563 0.64101731777191
-1.1215417385101 0.64158368110657
-1.1260174512863 0.64210885763168
-1.1304090023041 0.64261984825134
-1.1346232891083 0.64309936761856
-1.1387320756912 0.64357143640518
-1.1427090167999 0.6440287232399
-1.1465718746185 0.64447343349457
