0 -1
1 -1
2 59470
3 59470
4 59470
5 46970
6 47450
7 47450
8 47450
9 47450
10 47450
11 47450
12 47325
13 47325
14 62950
15 312950
16 312950
17 234825
18 234825
19 234825
20 236575
21 236503
22 236503
23 235878
24 314003
25 11002
26 11002
27 10627
28 7502
29 53127
30 53127
31 37517
32 -1
33 37517
34 37512
35 37512
36 31262
37 31262
38 31337
39 31337
40 31337
41 187587
42 187587
43 156337
44 156337
45 156312
46 156312
47 156312
48 156312
49 156312
50 156312
51 156312
52 156312
53 156312
54 156312
55 156312
56 156312
57 156687
58 156687
59 156687
60 156687
61 156687
62 156687
63 156687
64 156687
65 156687
66 156687
67 156687
68 156687
69 156687
70 156687
71 156687
72 156687
73 156687
74 156687
75 156687
76 156687
77 156312
78 156312
79 156312
80 156312
81 156312
82 156337
83 156337
84 -1
85 265637
86 265637
87 31262
88 31262
89 31262
90 31262
91 15642
92 15642
93 15642
94 21892
95 21877
96 21877
97 21877
98 21877
99 21877
100 21877
101 18752
102 18752
103 18752
104 18752
105 18752
106 18752
107 35628
108 35003
109 -1
110 3753
111 3753
112 3753
113 3753
114 3754
115 3750
116 3750
117 7000
118 7000
119 7000
120 7000
121 7000
122 7000
123 3875
124 3875
125 3875
126 3875
127 7000
128 3250
129 3250
130 0
131 0
132 625
133 625
134 0
135 0
136 0
137 0
138 -1
