0 [1.0, 1.0, 1.0, 1.0, 1.0, 1.0, 1.0, 1.0]
1 [1.0, 1.0, 1.0, 1.0, 1.0, 1.0, 1.0, 1.0]
2 [1.0, 1.0, 1.0, 1.0, 1.0, 1.0, 1.0, 1.0]
3 [1.0, 1.0, 1.0, 1.0, 1.0, 1.0, 1.0, 1.0]
4 [1.0, 1.0, 1.0, 1.0, 1.0, 1.0, 1.0, 1.0]
5 [1.0, 1.0, 1.0, 1.0, 1.0, 1.0, 1.0, 1.0]
6 [1.0, 1.0, 1.0, 1.0, 1.0, 1.0, 1.0, 1.0]
7 [1.0, 1.0, 1.0, 1.0, 1.0, 1.0, 1.0, 1.0]
8 [1.0, 1.0, 1.0, 1.0, 1.0, 1.0, 1.0, 1.0]
9 [1.0, 1.0, 1.0, 1.0, 1.0, 1.0, 1.0, 1.0]
10 [1.0, 1.0, 1.0, 1.0, 1.0, 1.0, 1.0, 1.0]
11 [1.0, 1.0002337, 1.094249, 1.6964109, 1.094249, 1.0002337, 1.0, 1.0]
12 [1.0, 1.0001967, 1.0793481, 1.5863078, 1.0793481, 1.0001967, 1.0, 1.0]
13 [1.0, 1.0001497, 1.0604036, 1.4463251, 1.0604036, 1.0001497, 1.0, 1.0]
14 [1.0, 1.0001132, 1.0459154, 1.4317824, 1.7420084, 1.0943508, 1.0002337, 1.0]
15 [1.0, 1.0000856, 1.0347241, 1.3345454, 1.6213742, 1.0795066, 1.0001968, 1.0]
16 [1.0, 1.0000646, 1.026219, 1.2530904, 1.4728379, 1.0605282, 1.0001498, 1.0]
17 [1.0, 1.0000489, 1.019816, 1.1913117, 1.3575851, 1.0457762, 1.0001134, 1.0]
18 [1.0, 0.99976945, 0.9070728, 0.34725046, 1.1621114, 1.0342968, 1.0000856, 1.0]
19 [1.0, 0.9997966, 0.91801685, 0.41983947, 1.1107718, 1.0258919, 1.0000647, 1.0]
20 [1.0, 0.9998447, 0.93738604, 0.5566838, 1.0829215, 1.0195473, 1.0000489, 1.0]
21 [1.0, 0.9998825, 0.952367, 0.55678713, 0.26576358, 0.9069297, 0.99976957, 1.0]
22 [1.0, 0.9999112, 0.96396774, 0.65313923, 0.35737765, 0.9177906, 0.99979645, 1.0]
23 [1.0, 0.9999332, 0.9729013, 0.7384337, 0.511412, 0.9374564, 0.99984515, 1.0]
24 [1.0, 0.9999506, 0.9799447, 0.806379, 0.63810027, 0.95367146, 0.99988526, 1.0]
25 [1.0, 0.9999626, 0.98484254, 0.8536623, 0.7264669, 0.9649835, 0.9999133, 1.0]
26 [1.0, 0.99998856, 0.9953471, 0.9550784, 0.9160327, 0.9892509, 0.99997336, 1.0]
27 [1.0, 0.99999136, 0.99648696, 0.96608293, 0.93660235, 0.9918841, 0.9999799, 1.0]
28 [1.0, 0.99999344, 0.99734485, 0.97436607, 0.952085, 0.99386615, 0.9999848, 1.0]
29 [1.0, 1.0, 1.0, 1.0, 1.0, 1.0, 1.0, 1.0]
30 [1.0, 1.0, 0.99999136, 0.99650353, 0.97416437, 0.99650353, 0.99999136, 1.0]
31 [1.0, 1.0, 0.99999344, 0.9973574, 0.9804738, 0.9973574, 0.99999344, 1.0]
32 [1.0, 1.0, 1.0, 1.0, 1.0, 1.0, 1.0, 1.0]
33 [1.0, 1.0, 1.0, 1.0, 1.0, 1.0, 1.0, 1.0]
34 [1.0, 1.0, 1.0, 1.0, 1.0, 1.0, 1.0, 1.0]
35 [1.0, 1.0, 1.0, 1.0, 1.0, 1.0, 1.0, 1.0]
36 [1.0, 1.0, 1.0, 1.0, 1.0, 1.0, 1.0, 1.0]
37 [1.0, 1.0, 1.0, 1.0, 1.0, 1.0, 1.0, 1.0]
38 [1.0, 1.0, 1.0, 1.0, 1.0, 1.0, 1.0, 1.0]
39 [1.0, 1.0, 1.0, 1.0, 1.0, 1.0, 1.0, 1.0]
40 [1.0, 1.0, 1.0, 1.0, 1.0, 1.0, 1.0, 1.0]
41 [1.0, 1.0, 1.0002335, 1.0942252, 1.6962347, 1.0942252, 1.0002335, 1.0]
42 [1.0, 1.0, 1.000197, 1.0794941, 1.5873861, 1.0794941, 1.000197, 1.0]
43 [1.0, 1.0, 1.0001502, 1.0605838, 1.4476575, 1.0605838, 1.0001502, 1.0]
44 [1.0, 1.0, 1.0001135, 1.0457731, 1.3382202, 1.0457731, 1.0001135, 1.0]
45 [1.0, 1.0, 1.0000857, 1.0345964, 1.255635, 1.0345964, 1.0000857, 1.0]
46 [1.0, 1.0, 1.0000648, 1.0261475, 1.1932056, 1.0261475, 1.0000648, 1.0]
47 [1.0, 1.0, 1.000049, 1.0197421, 1.1458757, 1.0197421, 1.000049, 1.0]
48 [1.0, 1.0, 0.9997699, 0.90717185, 0.31408757, 0.90717185, 0.9997699, 1.0]
49 [1.0, 1.0, 0.9997963, 0.9178066, 0.39266866, 0.9178066, 0.9997963, 1.0]
