0 [1.0, 1.0, 1.0, 1.0, 1.0, 1.0, 1.0, 1.0]
1 [1.0, 1.0, 1.0, 1.0, 1.0, 1.0, 1.0, 1.0]
2 [1.0, 1.0, 1.0, 1.0, 1.0, 1.0, 1.0, 1.0]
3 [1.0, 1.0, 1.0, 1.0, 1.0, 1.0, 1.0, 1.0]
4 [1.0, 1.0, 1.0, 1.0, 1.0, 1.0, 1.0, 1.0]
5 [1.0, 1.0, 1.0, 1.0, 1.0, 1.0, 1.0, 1.0]
6 [1.0, 1.0, 1.0, 1.0, 1.0, 1.0, 1.0, 1.0]
7 [1.0, 1.0, 1.0, 1.0, 1.0, 1.0, 1.0, 1.0]
8 [1.0, 1.0, 1.0, 1.0, 1.0, 1.0, 1.0, 1.0]
9 [1.0, 1.0, 1.0, 1.0, 1.0, 1.0, 1.0, 1.0]
10 [1.0, 1.0, 1.0, 1.0, 1.0, 1.0, 1.0, 1.0]
11 [1.0, 1.0, 1.0, 1.0, 1.0, 1.0, 1.0, 1.0]
12 [1.0, 1.0, 1.0, 1.0, 1.0, 1.0, 1.0, 1.0]
13 [1.0, 1.0, 1.0, 1.0, 1.0, 1.0, 1.0, 1.0]
14 [1.0, 1.0, 1.0, 1.0, 1.0, 1.0, 1.0, 1.0]
15 [1.0, 1.0, 1.0, 1.0, 1.0, 1.0, 1.0, 1.0]
16 [1.0, 1.0, 1.0, 1.0, 1.0, 1.0, 1.0, 1.0]
17 [1.0942376, 1.6963267, 1.0942376, 1.0002337, 1.0, 1.0, 1.0, 1.0]
18 [1.079421, 1.586847, 1.079421, 1.0001968, 1.0, 1.0, 1.0, 1.0]
19 [1.0607573, 1.5414381, 1.7567585, 1.0943751, 1.0002335, 1.0, 1.0, 1.0]
20 [1.0426505, 1.3878706, 1.5898484, 1.0741853, 1.0001836, 1.0, 1.0, 1.0]
21 [1.0322361, 1.2933906, 1.4475563, 1.0563059, 1.0001394, 1.0, 1.0, 1.0]
22 [1.0243392, 1.221533, 1.3380245, 1.042527, 1.0001053, 1.0, 1.0, 1.0]
23 [1.0183952, 1.1674321, 1.2554799, 1.0321422, 1.0000795, 1.0, 1.0, 1.0]
24 [0.9060057, 0.3292845, 1.0851908, 1.0240251, 1.0000601, 1.0, 1.0, 1.0]
25 [0.92331344, 0.45133856, 1.0586033, 1.0181254, 1.0000454, 1.0, 1.0, 1.0]
26 [0.94142973, 0.47488916, 0.24668914, 0.90580094, 0.9997669, 1.0, 1.0, 1.0]
27 [0.95569843, 0.5972556, 0.3883776, 0.9230864, 0.9998096, 1.0, 1.0, 1.0]
28 [0.9665489, 0.6955594, 0.53563714, 0.9415803, 0.9998554, 1.0, 1.0, 1.0]
29 [0.9747181, 0.76988727, 0.6488873, 0.9558264, 0.9998907, 1.0, 1.0, 1.0]
30 [0.98089236, 0.82608324, 0.73462534, 0.96661305, 0.9999174, 1.0, 1.0, 1.0]
31 [0.9855732, 0.8686878, 0.79963404, 0.9747918, 0.9999376, 1.0, 1.0, 1.0]
32 [0.9891074, 0.9008556, 0.848718, 0.9809671, 0.9999529, 1.0, 1.0, 1.0]
33 [0.9917757, 0.9251432, 0.8857778, 0.9856296, 0.9999644, 1.0, 1.0, 1.0]
34 [0.99378425, 0.9434244, 0.91367275, 0.98913914, 0.9999731, 1.0, 1.0, 1.0]
35 [0.9953069, 0.9572838, 0.9348205, 0.9917997, 0.9999797, 1.0002337, 1.094249, 1.6964109]
36 [0.99645305, 0.96771586, 0.9507383, 0.99380237, 0.9999847, 1.0001967, 1.0793481, 1.5863078]
37 [0.99732196, 0.97562456, 0.96280605, 0.9953206, 0.99998844, 1.0001497, 1.0604036, 1.4463251]
38 [1.0, 1.0, 1.0, 1.0, 1.0, 1.0001132, 1.0456817, 1.3375448]
39 [0.9999934, 0.99733084, 0.9802776, 0.99733084, 0.9999934, 1.0000856, 1.0345273, 1.2551242]
40 [1.0, 1.0, 1.0, 1.0, 1.0, 1.0, 1.0, 1.0]
41 [1.0, 1.0, 1.0, 1.0, 1.0, 1.0000489, 1.0197027, 1.1455843]
42 [1.0, 1.0, 1.0, 1.0, 1.0, 0.99976945, 0.9069872, 0.31272316]
43 [1.0, 1.0, 1.0, 1.0, 1.0, 0.9997966, 0.9179522, 0.39374417]
44 [1.0, 1.0, 1.0, 1.0, 1.0, 0.9998445, 0.93727505, 0.5365219]
45 [1.0, 1.0, 1.0, 1.0, 1.0, 0.9998825, 0.95259744, 0.64974]
46 [1.0, 1.0, 1.0, 1.0, 1.0, 0.9999112, 0.9641713, 0.73525983]
47 [1.0, 1.0, 1.0, 1.0, 1.0, 0.99993294, 0.9729482, 0.8001125]
48 [1.0, 1.0, 1.0, 1.0, 1.0, 0.99994934, 0.97955465, 0.8489282]
49 [1.0, 1.0, 1.0, 1.0, 1.0, 0.9999617, 0.98454773, 0.8858224]
