0 [0.0, 0.0, 0.0, 0.0, 0.0, 0.0, 0.0, 0.0]
1 [0.0, 0.0, 0.0, 0.0, 0.0, 0.0, 0.0, 0.0]
2 [0.0, 0.0, 0.0, 0.0, 0.0, 0.0, 0.0, 0.0]
3 [0.0, 0.0, 0.0, 0.0, 0.0, 0.0, 0.0, 0.0]
4 [0.0, 0.0, 0.0, 0.0, 0.0, 0.0, 0.0, 0.0]
5 [0.0, 0.0, 0.5670666, 0.55911905, 0.0, 0.0, 0.0, 0.0]
6 [0.0, 0.0, 0.5707262, 0.56024545, 0.0, 0.0, 0.0, 0.0]
7 [0.0, 0.0, 0.57510746, 0.56065834, 0.0, 0.0, 0.0, 0.0]
8 [0.0, 0.0, 0.58167094, 0.56113523, 0.0, 0.0, 0.0, 0.0]
9 [0.0, 0.0, 0.58728176, 0.5595372, 0.0, 0.0, 0.0, 0.0]
10 [0.0, 0.0, 0.592439, 0.5558451, 0.0, 0.0, 0.0, 0.0]
11 [0.0, 0.0, 0.5984284, 0.5417561, 0.0, 0.0, 0.0, 0.0]
12 [0.0, 0.0, 0.0, 0.5303852, 0.71378803, 0.0, 0.0, 0.0]
13 [0.0, 0.0, 0.0, 0.5167984, 0.70574254, 0.0, 0.0, 0.0]
14 [0.0, 0.0, 0.0, 0.49969962, 0.6936429, 0.0, 0.0, 0.0]
15 [0.0, 0.0, 0.0, 0.4793325, 0.47730616, 0.0, 0.0, 0.0]
16 [0.0, 0.0, 0.0, 0.45951656, 0.4599696, 0.0, 0.0, 0.0]
17 [0.0, 0.0, 0.0, 0.44420147, 0.4450572, 0.0, 0.0, 0.0]
18 [0.0, 0.0, 0.0, 0.42832628, 0.42825288, 0.0, 0.0, 0.0]
19 [0.0, 0.0, 0.0, 0.4097213, 0.4090986, 0.0, 0.0, 0.0]
20 [0.0, 0.0, 0.0, 0.39163557, 0.39025015, 0.0, 0.0, 0.0]
21 [0.0, 0.0, 0.0, 0.37516752, 0.37226915, 0.0, 0.0, 0.0]
22 [0.0, 0.0, 0.0, 0.37516752, 0.37226915, 0.0, 0.0, 0.0]
23 [0.0, 0.0, 0.0, 0.34679636, 0.33745375, 0.0, 0.0, 0.0]
24 [0.0, 0.0, 0.0, 0.334037, 0.31966406, 0.0, 0.0, 0.0]
25 [0.0, 0.0, 0.0, 0.31873462, 0.29047647, 0.0, 0.0, 0.0]
26 [0.0, 0.0, 0.0, 0.317359, 0.2809813, 0.0, 0.0, 0.0]
27 [0.0, 0.0, 0.0, 0.3174305, 0.25905335, 0.45585984, 0.0, 0.0]
28 [0.0, 0.0, 0.0, 0.3174305, 0.25905335, 0.45585984, 0.0, 0.0]
29 [0.0, 0.0, 0.0, 0.0, 0.25402126, 0.24462767, 0.0, 0.0]
30 [0.0, 0.0, 0.0, 0.0, 0.25402126, 0.24462767, 0.0, 0.0]
31 [0.0, 0.0, 0.0, 0.0, 0.25623822, 0.23745283, 0.0, 0.0]
32 [0.0, 0.0, 0.0, 0.0, 0.26291984, 0.22825795, 0.0, 0.0]
33 [0.87064207, 0.0, 0.0, 0.0, 0.0, 0.22404476, 0.21760026, 0.0]
34 [0.830207, 0.0, 0.0, 0.0, 0.0, 0.22926112, 0.20861283, 0.0]
35 [0.8157451, 0.0, 0.0, 0.0, 0.0, 0.2338005, 0.20382972, 0.0]
36 [0.8157451, 0.0, 0.0, 0.0, 0.0, 0.2338005, 0.20382972, 0.0]
37 [0.8216607, 0.0, 0.0, 0.0, 0.0, 0.0, 0.20317739, 0.0]
38 [0.8195339, 0.0, 0.0, 0.0, 0.0, 0.0, 0.21467716, 0.20282382]
39 [0.8016927, 0.0, 0.0, 0.0, 0.0, 0.0, 0.23453145, 0.21017799]
40 [0.0, 0.82659686, 0.0, 0.0, 0.0, 0.0, 0.0, 0.21927415]
41 [0.0, 0.7754729, 0.0, 0.0, 0.0, 0.0, 0.0, 0.22791563]
42 [0.0, 0.7640882, 0.0, 0.0, 0.0, 0.0, 0.0, 0.24371395]
43 [0.0, 0.7558542, 0.7875036, 0.0, 0.9707555, 0.9911199, 0.0, 0.0]
44 [0.0, 0.7311333, 0.7260915, 0.0, 0.0, 0.96409357, 0.94441193, 0.0]
45 [0.0, 0.0, 0.7116668, 0.0, 0.0, 0.9271357, 0.94631636, 0.0]
46 [0.0, 0.0, 0.68858826, 0.6886385, 0.0, 0.9404251, 0.9282032, 0.0]
47 [0.0, 0.0, 0.6504877, 0.6577094, 0.0, 0.0, 0.89883876, 0.92542934]
48 [0.0, 0.0, 0.0, 0.64248025, 0.66264516, 0.0, 0.89948773, 0.8976737]
49 [0.0, 0.0, 0.0, 0.63241345, 0.63685095, 0.0, 0.9100647, 0.8919364]
