0 [1.0, 1.0, 1.0, 1.0, 1.0, 1.0, 1.0, 1.0]
1 [1.0, 1.0, 1.0, 1.0, 1.0, 1.0, 1.0, 1.0]
2 [1.0, 1.0, 1.0, 1.0, 1.0, 1.0, 1.0, 1.0]
3 [1.0, 1.0, 1.0, 1.0, 1.0, 1.0, 1.0, 1.0]
4 [1.0, 1.0, 1.0, 1.0, 1.0, 1.0, 1.0, 1.0]
5 [1.0, 1.0, 1.0, 1.0, 1.0, 1.0, 1.0, 1.0]
6 [1.0, 1.0, 1.0, 1.0, 1.0, 1.0, 1.0, 1.0]
7 [1.0, 1.0, 1.0, 1.0, 1.0, 1.0, 1.0, 1.0]
8 [1.0, 1.0, 1.0, 1.0, 1.0, 1.0, 1.0, 1.0]
9 [1.6967852, 1.0942996, 1.0002338, 1.0, 1.0, 1.0, 1.0, 1.0]
10 [1.5819978, 1.0787648, 1.0001953, 1.0, 1.0, 1.0, 1.0, 1.0]
11 [1.4432309, 1.0602145, 1.0928456, 1.6849427, 1.0926969, 1.0002297, 1.0, 1.0]
12 [1.3351915, 1.0455675, 1.082524, 1.6089432, 1.0824115, 1.0002043, 1.0, 1.0]
13 [1.2364538, 1.0321465, 1.0589412, 1.4349345, 1.058862, 1.0001459, 1.0, 1.0]
14 [1.1787083, 1.0242959, 1.0445698, 1.3288857, 1.0445099, 1.0001104, 1.0, 1.0]
15 [1.615035, 1.0833193, 1.0338138, 1.2483283, 1.0336076, 1.0000833, 1.0, 1.0]
16 [0.92081034, 0.9893388, 1.0225465, 1.1667932, 1.022573, 1.0000559, 1.0, 1.0]
17 [0.9303595, 0.9904277, 0.94045377, 0.56018233, 0.94047713, 0.9998525, 1.0, 1.0]
18 [0.9468242, 0.99257743, 0.9088094, 0.32631934, 0.90882725, 0.999774, 1.0, 1.0]
19 [0.95977473, 0.99437845, 0.9285091, 0.55637205, 1.5645056, 1.0859221, 1.0002134, 1.0]
20 [0.9696266, 0.99575484, 0.9459056, 0.68499047, 1.5826427, 1.0860659, 1.0002136, 1.0]
21 [1.4543798, 1.0613918, 0.9592694, 0.7631218, 1.4497714, 1.0663234, 1.0001646, 1.0]
22 [0.85051334, 0.97969234, 0.9690507, 0.82104427, 1.3405027, 1.0502038, 1.0001246, 1.0]
23 [0.8383262, 0.97806174, 0.9766161, 0.86488783, 1.2571241, 1.03791, 1.000094, 1.0]
24 [0.87487054, 0.98302174, 0.9823258, 0.89788467, 1.1943322, 1.0286521, 1.0000712, 1.0]
25 [0.9052505, 0.9871439, 0.98664206, 0.9228229, 1.1468732, 1.0216547, 1.0000538, 1.0]
26 [0.9284506, 0.99029183, 0.98968333, 0.84851557, 0.42213333, 0.9231364, 0.99980956, 1.0]
27 [0.9459234, 0.99266255, 0.9921267, 0.85482246, 0.33650184, 0.91121966, 0.99978, 1.0]
28 [0.21169281, 0.8933013, 0.99438614, 0.89944386, 0.5354436, 0.93781936, 0.9998459, 1.0]
29 [0.2617724, 0.90009177, 0.99963576, 0.9529749, 0.65252894, 0.9529749, 0.9998834, 1.0]
30 [0.4324393, 0.92318165, 0.99675393, 0.942529, 0.7344016, 0.96444947, 0.9999119, 1.0]
31 [0.6281022, 0.9496691, 0.9998087, 0.9731637, 0.8017052, 0.9731637, 0.9999335, 1.0]
32 [0.67565095, 0.9561041, 0.999841, 0.97971755, 0.8501319, 0.97971755, 0.99994975, 1.0]
33 [0.75510514, 0.9668571, 0.99987984, 0.9846862, 0.88684535, 0.9846862, 0.99996203, 1.0]
34 [0.8263868, 0.97650397, 0.9999149, 0.9891436, 0.9197814, 0.9891436, 0.9999731, 1.0]
35 [0.8863919, 0.9846248, 0.9999619, 1.0, 1.0, 1.0, 1.0, 1.0]
36 [0.9141368, 0.98837966, 0.99995583, 0.99380493, 0.9542242, 0.99380493, 0.9999846, 1.0]
37 [0.935106, 0.99121755, 0.9999666, 0.9953179, 0.9654034, 0.9953179, 0.9999884, 1.0]
38 [0.9510032, 0.993369, 0.9999748, 0.99646485, 0.97387856, 0.9965353, 1.0284091, 1.2099818]
39 [0.962969, 0.9949884, 0.999981, 0.9973282, 0.98025787, 0.9975594, 1.0932704, 1.6892295]
40 [1.0, 1.0, 1.0, 1.0, 1.0, 1.0001856, 1.0748634, 1.55317]
41 [0.9788687, 0.99714017, 0.9999929, 1.0, 1.0, 1.0001408, 1.0567894, 1.4196203]
42 [1.0, 1.0, 1.0, 1.0, 1.0, 1.0, 1.0, 1.0]
43 [1.0, 1.0, 1.0, 1.0, 1.0, 1.0000805, 1.0324517, 1.2397873]
44 [1.0, 1.0, 1.0, 1.0, 1.0, 1.0000607, 1.024502, 1.1810467]
45 [1.0, 1.0, 1.0, 1.0, 1.0, 1.0000459, 1.0185182, 1.1368322]
46 [1.0, 1.0, 1.0, 1.0, 1.0, 0.9997664, 0.90577114, 0.3037377]
47 [1.0, 1.0, 1.0, 1.0, 1.0, 0.9998267, 0.93009955, 0.4835018]
48 [1.0, 1.0, 1.0, 1.0, 1.0, 0.99986875, 0.94703984, 0.6086745]
49 [1.0, 1.0, 1.0, 1.0, 1.0, 0.99990076, 0.95996565, 0.70418394]
