0 1.5707965
0 2.3182125E-7
0 2.7530228E-7
0 8.3220726E-8
0 -0.0
0 -1.8927005E-7
0 -1.3909238E-7
0 -1.5707965
0 -1.5707958
1 1.5707965
1 2.3182125E-7
1 2.7530228E-7
1 8.3220726E-8
1 -0.0
1 -1.8927005E-7
1 -1.3909238E-7
1 -1.5707965
1 -1.5707958
2 -3.1376119
2 -8.757697E-5
2 -6.4670574E-5
2 -5.6972138E-5
2 -5.689787E-5
2 -6.479141E-5
2 -8.685131E-5
2 -0.003937425
2 -1.5659673
3 -3.1376119
3 -8.757697E-5
3 -6.4670574E-5
3 -5.6972138E-5
3 -5.689787E-5
3 -6.479141E-5
3 -8.685131E-5
3 -0.003937425
3 -1.5659673
4 3.1296935
4 5.7125377E-4
4 4.1537822E-4
4 3.6027166E-4
4 3.5609124E-4
4 3.9947827E-4
4 5.27998E-4
4 0.011907453
4 -1.5380726
5 3.1296935
5 5.7125377E-4
5 4.1537822E-4
5 3.6027166E-4
5 3.5609124E-4
5 3.9947827E-4
5 5.27998E-4
5 0.011907453
5 -1.5380726
6 3.1315057
6 8.6435094E-4
6 6.192535E-4
6 5.3230365E-4
6 5.2192406E-4
6 5.805989E-4
6 7.575616E-4
6 0.010091935
6 -1.5157484
7 3.1315057
7 8.6435094E-4
7 6.192535E-4
7 5.3230365E-4
7 5.2192406E-4
7 5.805989E-4
7 7.575616E-4
7 0.010091935
7 -1.5157484
8 3.130553
8 0.0015417802
8 0.0010822486
8 9.1892143E-4
8 8.920357E-4
8 9.815525E-4
8 0.0012604897
8 0.011042573
8 -1.4869045
9 3.130553
9 0.0015417802
9 0.0010822486
9 9.1892143E-4
9 8.920357E-4
9 9.815525E-4
9 0.0012604897
9 0.011042573
9 -1.4869045
10 3.1311018
10 0.0022292484
10 0.0015231223
10 0.001273184
10 0.001220147
10 0.0013245872
10 0.0016692571
10 0.010492647
10 -1.450894
11 3.1311018
11 0.0022292484
11 0.0015231223
11 0.001273184
11 0.001220147
11 0.0013245872
11 0.0016692571
11 0.010492647
11 -1.450894
12 3.131693
12 0.0030992255
12 0.0020420547
12 0.0016730126
12 0.0015781249
12 0.0016857521
12 0.0020786973
12 0.009901181
12 -1.4069955
13 3.131693
13 0.0030992255
13 0.0020420547
13 0.0016730126
13 0.0015781249
13 0.0016857521
13 0.0020786973
13 0.009901181
13 -1.4069955
14 3.1331913
14 0.003810586
14 0.002391361
14 0.0019100521
14 0.0017675585
14 0.0018526681
14 0.0022293772
14 0.008402368
14 -1.3546301
15 3.1331913
15 0.003810586
15 0.002391361
15 0.0019100521
15 0.0017675585
15 0.0018526681
15 0.0022293772
15 0.008402368
15 -1.3546301
16 3.135472
16 0.004014979
16 0.0023564496
16 0.0018230623
16 0.001648782
16 0.0016909472
16 0.0019808928
16 0.0061216243
16 -1.2935115
17 3.135472
17 0.004014979
17 0.0023564496
17 0.0018230623
17 0.001648782
17 0.0016909472
17 0.0019808928
17 0.0061216243
17 -1.2935115
18 3.1373558
18 0.0039718375
18 0.0021371776
18 0.001593232
18 0.0014050396
18 0.0014084516
18 0.0016064174
18 0.0042376
18 -1.2289892
19 3.1373558
19 0.0039718375
19 0.0021371776
19 0.001593232
19 0.0014050396
19 0.0014084516
19 0.0016064174
19 0.0042376
19 -1.2289892
20 3.1395915
20 0.0026121337
20 0.0012601033
20 9.019239E-4
20 7.7508896E-4
20 7.5978646E-4
20 8.451991E-4
20 0.0020016348
20 -1.165793
21 3.1395915
21 0.0026121337
21 0.0012601033
21 9.019239E-4
21 7.7508896E-4
21 7.5978646E-4
21 8.451991E-4
21 0.0020016348
21 -1.165793
22 -3.141002
22 -0.0013426625
22 -5.5352953E-4
22 -3.7737447E-4
22 -3.1516017E-4
22 -3.0191214E-4
22 -3.2741288E-4
22 -5.902116E-4
22 -1.0989296
23 -3.141002
23 -0.0013426625
23 -5.5352953E-4
23 -3.7737447E-4
23 -3.1516017E-4
23 -3.0191214E-4
23 -3.2741288E-4
23 -5.902116E-4
23 -1.0989296
24 -3.139781
24 -0.005946711
24 -0.0019586612
24 -0.0012636993
24 -0.0010239787
24 -9.578981E-4
24 -0.0010145386
24 -0.0018113963
24 -1.0343679
25 -3.139781
25 -0.005946711
25 -0.0019586612
25 -0.0012636993
25 -0.0010239787
25 -9.578981E-4
25 -0.0010145386
25 -0.0018113963
25 -1.0343679
26 -3.139781
26 -0.005946711
26 -0.0019586612
26 -0.0012636993
26 -0.0010239787
26 -9.578981E-4
26 -0.0010145386
26 -0.0018113963
26 -1.0343679
27 -3.139781
27 -0.005946711
27 -0.0019586612
27 -0.0012636993
27 -0.0010239787
27 -9.578981E-4
27 -0.0010145386
27 -0.0018113963
27 -1.0343679
28 -3.1406784
28 -0.018127888
28 -0.001592151
28 -8.887868E-4
28 -6.728069E-4
28 -5.995234E-4
28 -6.063869E-4
28 -9.1389695E-4
28 -0.9053943
29 -3.1406784
29 -0.018127888
29 -0.001592151
29 -8.887868E-4
29 -6.728069E-4
29 -5.995234E-4
29 -6.063869E-4
29 -9.1389695E-4
29 -0.9053943
30 -3.1406784
30 -0.018127888
30 -0.001592151
30 -8.887868E-4
30 -6.728069E-4
30 -5.995234E-4
30 -6.063869E-4
30 -9.1389695E-4
30 -0.9053943
31 -3.1406784
31 -0.018127888
31 -0.001592151
31 -8.887868E-4
31 -6.728069E-4
31 -5.995234E-4
31 -6.063869E-4
31 -9.1389695E-4
31 -0.9053943
32 3.136255
32 3.1074321
32 0.016414728
32 0.006956613
32 0.0047789863
32 0.0040078424
32 0.0038510151
32 0.0053378083
32 -0.7599478
33 3.136255
33 3.1074321
33 0.016414728
33 0.006956613
33 0.0047789863
33 0.0040078424
33 0.0038510151
33 0.0053378083
33 -0.7599478
34 3.132317
34 3.11349
34 0.103934936
34 0.01865737
34 0.010972332
34 0.008497038
34 0.007689786
34 0.009275912
34 -0.59701115
35 3.132317
35 3.11349
35 0.103934936
35 0.01865737
35 0.010972332
35 0.008497038
35 0.007689786
35 0.009275912
35 -0.59701115
36 3.1325972
36 3.1194217
36 2.5454173
36 0.023621341
36 0.0123414975
36 0.009094903
36 0.007961008
36 0.008995605
36 -0.5120684
37 3.1325972
37 3.1194217
37 2.5454173
37 0.023621341
37 0.0123414975
37 0.009094903
37 0.007961008
37 0.008995605
37 -0.5120684
38 3.1350596
38 3.1277773
38 3.0786264
38 0.023486212
38 0.010430696
38 0.007267219
38 0.0061447504
38 0.006533231
38 -0.42949384
39 3.1350596
39 3.1277773
39 3.0786264
39 0.023486212
39 0.010430696
39 0.007267219
39 0.0061447504
39 0.006533231
39 -0.42949384
40 3.1383753
40 3.1355388
40 3.1238887
40 0.016937342
40 0.005972476
40 0.0039117117
40 0.0031947996
40 0.0032175954
40 -0.35296935
41 3.1383753
41 3.1355388
41 3.1238887
41 0.016937342
41 0.005972476
41 0.0039117117
41 0.0031947996
41 0.0032175954
41 -0.35296935
42 3.1410246
42 3.140628
42 3.13933
42 0.0048521864
42 0.0012056292
42 7.3934306E-4
42 5.838856E-4
42 5.6811783E-4
42 -0.2849823
43 3.1410246
43 3.140628
43 3.13933
43 0.0048521864
43 0.0012056292
43 7.3934306E-4
43 5.838856E-4
43 5.6811783E-4
43 -0.2849823
44 -3.1404045
44 -3.139658
44 -3.1376193
44 -0.022788513
44 -0.0029929162
44 -0.001711991
44 -0.0013095513
44 -0.0011879854
44 -0.22571921
45 -3.1404045
45 -3.139658
45 -3.1376193
45 -0.022788513
45 -0.0029929162
45 -0.001711991
45 -0.0013095513
45 -0.0011879854
45 -0.22571921
46 -3.1390078
46 -3.1378365
46 -3.1350641
46 -3.0954463
46 -0.008890899
46 -0.004291247
46 -0.003072236
46 -0.0025848257
46 -0.11883087
47 -3.1390078
47 -3.1378365
47 -3.1350641
47 -3.0954463
47 -0.008890899
47 -0.004291247
47 -0.003072236
47 -0.0025848257
47 -0.11883087
48 -3.1390078
48 -3.1378365
48 -3.1350641
48 -3.0954463
48 -0.008890899
48 -0.004291247
48 -0.003072236
48 -0.0025848257
48 -0.11883087
49 -3.1390078
49 -3.1378365
49 -3.1350641
49 -3.0954463
49 -0.008890899
49 -0.004291247
49 -0.003072236
49 -0.0025848257
49 -0.11883087
