0.75552731752396 -0.84999889135361
0.7555764913559 -0.85169351100922
0.75556164979935 -0.85763090848923
0.75557333230972 -0.86664468050003
0.75554496049881 -0.87601917982101
0.75550496578217 -0.88532960414886
0.75550198554993 -0.89464205503464
0.75551015138626 -0.90395677089691
0.7555536031723 -0.9132593870163
0.75561422109604 -0.92260372638702
0.75568610429764 -0.9319241642952
0.75577932596207 -0.94125187397003
0.75601351261139 -0.95053225755692
0.75640153884888 -0.95977383852005
0.75682735443115 -0.96902018785477
0.75729751586914 -0.97821009159088
0.75765609741211 -0.98745310306549
0.75785005092621 -0.99685490131378
0.75811564922333 -1.0061918497086
0.75855219364166 -1.0154947042465
0.75911021232605 -1.0247977972031
0.75958454608917 -1.0340708494186
0.75994026660919 -1.0433768033981
0.76018631458282 -1.052784204483
0.76041454076767 -1.062183380127
0.76067793369293 -1.0716426372528
0.76096004247665 -1.0810822248459
0.76125377416611 -1.0905644893646
0.76156198978424 -1.100065112114
0.76187771558762 -1.1096060276031
0.76220911741257 -1.1191627979279
0.76258182525635 -1.1288899183273
0.76297730207443 -1.1386271715164
0.76337933540344 -1.1483652591705
0.76377093791962 -1.1581082344055
0.76418071985245 -1.1678693294525
0.76456940174103 -1.1776020526886
0.76495963335037 -1.187336564064
0.76534742116928 -1.1970728635788
0.76574629545212 -1.2068283557892
0.7661292552948 -1.2165455818176
0.76652747392654 -1.2262927293777
0.76691490411758 -1.2360272407532
0.76730918884277 -1.2457576990128
0.76769959926605 -1.2555110454559
0.76807790994644 -1.2652564048767
0.76846832036972 -1.2749804258347
0.76885271072388 -1.2847145795822
0.76924645900726 -1.2944675683975
0.76963967084885 -1.3042105436325
0.77003824710846 -1.3139450550079
0.77043300867081 -1.323673248291
0.77082699537277 -1.3334136009216
0.77121877670288 -1.3431667089462
0.77160578966141 -1.3529026508331
0.77200728654861 -1.362646818161
0.77239149808884 -1.3723814487457
0.77278870344162 -1.3821197748184
0.77318847179413 -1.3918509483337
0.77357923984528 -1.4016019105911
0.77396667003632 -1.4113347530365
0.77436739206314 -1.4210764169693
0.77476763725281 -1.4308235645294
0.7751407623291 -1.4405581951141
0.77552878856659 -1.4503066539764
0.77590572834015 -1.4600517749786
0.77628523111343 -1.4697043895721
0.7766517996788 -1.4791016578674
0.77702271938324 -1.4882074594498
0.77738493680954 -1.497055888176
0.77771991491318 -1.5054845809937
0.7780219912529 -1.5135074853897
0.77831560373306 -1.5210881233215
0.77859896421432 -1.5281852483749
0.77883893251419 -1.534906744957
0.77908289432526 -1.5412060022354
0.77930909395218 -1.5470802783966
0.7795290350914 -1.5526595115662
0.77973759174347 -1.5578668117523
0.77993452548981 -1.5627942085266
0.78011816740036 -1.5674127340317
0.78028553724289 -1.5717831850052
0.78046119213104 -1.5758541822433
0.78062117099762 -1.5797393321991
0.78076243400574 -1.5833435058594
0.78090184926987 -1.586746096611
0.78103458881378 -1.5899549722672
