0 [0.0, 0.0, 0.0, 0.0, 0.0, 0.0, 0.0, 0.0]
1 [0.0, 0.0, 0.0, 0.0, 0.0, 0.0, 0.0, 0.0]
2 [0.15486264, 0.10286264, 0.080137365, 0.14886265, 0.080137365, 0.07913736, 0.07913736, 0.07913736]
3 [0.15486264, 0.10286264, 0.080137365, 0.14886265, 0.080137365, 0.07913736, 0.07913736, 0.07913736]
4 [0.90296155, 0.8549615, 0.96303844, 1.0189615, 1.0189615, 0.083038464, 0.9550385, 0.07803847]
5 [0.90206045, 0.85506046, 0.6949396, 1.0400604, 1.0400604, 0.085939564, 0.68093956, 0.07693955]
6 [0.15206045, 0.10506044, 0.09493956, 0.14006044, 0.14006044, 0.085939564, 0.080939546, 0.07693955]
7 [0.21047252, 0.10647252, 0.10152747, 0.13547254, 0.13547254, 0.088527486, 0.082527466, 0.07652747]
8 [1.0788462, 0.97884613, 0.093153834, 1.0489231, 1.0509231, 0.096153855, 1.0112307, 0.07615385]
9 [0.20384616, 0.103846155, 0.093153834, 0.12584616, 0.12784615, 0.096153855, 0.08815384, 0.07615385]
10 [0.196, 0.10199999, 0.064, 0.12399999, 0.119, 0.10400001, 0.093, 0.07399999]
11 [0.95414335, 1.0651082, 0.42242292, 0.35889804, 1.0741203, 1.0591203, 0.32189804, 1.0291202]
12 [0.2963464, 0.106068656, 0.04733342, 0.13667582, 0.12967582, 0.114675835, 0.09967583, 0.08467582]
13 [0.9782409, 0.70590484, 0.60195374, 0.5105932, 1.210408, 1.0819737, 0.10718682, 0.24203297]
14 [1.2922505, 0.55129665, 0.45336068, 0.167706, 1.1976744, 1.0942554, 0.11487363, 0.20298475]
15 [0.2103534, 0.16424172, 0.056257706, 0.167706, 0.16822523, 0.12189141, 0.11487363, 0.09187363]
16 [1.2934705, 0.53863895, 0.96921736, 0.1064934, 0.5652233, 1.0897577, 0.12313737, 0.47313738]
17 [0.25818378, 0.1634324, 0.054650128, 0.10003774, 0.17172083, 0.15215005, 0.12313737, 0.09813737]
18 [0.99665576, 0.51036835, 0.51625115, 0.06549427, 0.5635725, 1.1076938, 1.0626318, 0.10713185]
19 [0.98818487, 0.62553674, 0.5845695, 0.30273238, 0.13676192, 1.1088254, 1.052989, 0.11641757]
20 [0.12647906, 0.13060574, 0.11049525, 0.013189036, 0.13215947, 0.1803768, 0.12441759, 0.11641757]
21 [0.12820902, 0.13084273, 0.112890385, 0.022487208, 0.22750662, 0.19591944, 0.124444135, 0.11641757]
22 [0.165435, 1.0831108, 0.09927332, 0.065725215, 0.12985495, 0.27555242, 1.1570743, 0.11504944]
23 [0.15118358, 0.11670061, 0.10067585, 0.07322196, 0.11895294, 0.1994552, 0.17907892, 0.11504944]
24 [0.088411324, 0.107717715, 0.1017024, 0.07877965, 0.109987505, 0.19644004, 0.17907175, 0.11504944]
25 [0.06620014, 0.111466795, 0.9279141, 0.07523573, 0.059098646, 0.1121057, 0.2010079, 1.1480219]
26 [0.049858008, 0.0904272, 0.091345504, 0.0781061, 0.056146737, 0.11110574, 0.17902371, 0.15901099]
27 [0.8735054, 0.9426555, 0.25514454, 0.92368317, 0.07523362, 0.44401002, 0.083405584, 1.0827345]
28 [0.029338017, 0.021389212, 0.05799436, 0.05735872, 0.027691482, 0.055017915, 0.083385214, 0.1494011]
29 [0.8719906, 0.90614265, 0.30244058, 0.82134813, 0.020136492, 0.050883107, 0.06414523, 1.2011594]
30 [0.19514704, 0.8154417, 0.30312935, 0.8642222, 0.0320413, 0.05236845, 0.064149454, 1.2011594]
31 [0.0024408111, 0.005108763, 0.012671206, 0.042239826, 0.03283798, 0.046051726, 0.05566934, 0.083675824]
32 [0.089372374, 0.8367069, 0.9083714, 0.21929854, 0.69817376, 0.047904525, 0.79660016, 1.6623297]
33 [0.004189648, 0.0060110926, 0.011327504, 0.031793576, 0.040622666, 0.048337363, 0.046667226, 0.9123297]
34 [0.17472258, 0.84959304, 0.8934568, 0.2670699, 0.78076214, 0.043500535, 0.042398967, 0.3035989]
35 [0.06295724, 0.08351272, 0.95592725, 0.024330406, 0.08280959, 0.95969933, 0.89839995, 0.04029121]
36 [0.012616895, 0.019055583, 0.022706063, 0.024330406, 0.023686565, 0.04065888, 0.04128964, 0.04029121]
37 [0.013807926, 0.019245712, 0.022706859, 0.024440542, 0.024566248, 0.040842935, 0.041290097, 0.04029121]
38 [0.014810539, 0.019405764, 0.022707928, 0.02470879, 0.02670879, 0.041291207, 0.041291207, 0.04029121]
39 [0.014420255, 0.84615976, 0.8570702, 0.8537858, 0.34362385, 0.86814684, 0.8973543, 0.040225275]
40 [0.014751038, 0.022574704, 0.023773935, 0.025654046, 0.02584841, 0.040036935, 0.040224805, 0.040225275]
41 [0.020075576, 0.91875714, 0.12488696, 0.920624, 0.02229219, 0.1326487, 0.9709312, 1.1484057]
42 [0.020328173, 0.02476537, 0.024889637, 0.02382628, 0.022438211, 0.033029087, 0.04822404, 0.1251886]
43 [0.02528022, 0.8828626, 0.3114341, 0.88086265, 0.8788626, 0.30549076, 0.97213125, 1.239865]
44 [0.027623462, 0.019723648, 0.8829168, 0.8799231, 0.8779231, 0.017782724, 0.34972763, 1.3148804]
45 [0.030862637, 0.013862638, 0.8832802, 0.88028026, 0.87628025, 0.89113736, 0.32657695, 0.92786264]
46 [0.030862637, 0.013862638, 0.02613736, 0.023137363, 0.01913736, 0.016138662, 0.0421887, 0.06553843]
47 [0.033346154, 0.017346151, 0.025653843, 0.023653844, 0.018653844, 0.014654737, 0.037236705, 0.06418534]
48 [0.0396978, 0.024697803, 0.87744504, 0.87544507, 0.8704451, 0.0083025815, 0.7308764, 2.0375469]
49 [0.0396978, 0.024697803, 0.020302195, 0.018302197, 0.013302196, 0.008300262, 0.0029910367, 0.27861926]
