0 -1
1 -1
2 509
3 509
4 65624
5 49974
6 3034
7 1509
8 65524
9 20259
10 327524
11 19509
12 15188
13 15034
14 102269
15 91334
16 101389
17 76314
18 295693
19 202562
20 62520
21 153783
22 153755
23 312575
24 381405
25 316148
26 347025
27 312918
28 312915
29 366500
30 345060
31 80870
32 75100
33 388405
34 388275
35 388900
36 76245
37 389030
38 375390
39 328125
40 364790
41 330450
42 343725
43 343776
44 343776
45 329675
46 237475
47 156750
48 313589
49 313589
50 313439
51 1069
52 312500
53 4819
54 4819
55 4814
56 500
57 124
58 -1
59 1694
60 312500
61 313000
62 5394
63 5394
64 312500
65 312500
66 312500
67 312518
68 83644
69 312500
70 312500
71 83644
72 312500
73 312500
74 312500
75 312500
76 5394
77 5394
78 312500
79 4794
80 234875
81 624
82 312500
83 4
84 312500
85 79214
86 312500
87 312500
88 157364
