0 [1.0, 1.0, 1.0, 1.0, 1.0, 1.0, 1.0, 1.0]
1 [1.0, 1.0, 1.0, 1.0, 1.0, 1.0, 1.0, 1.0]
2 [1.0, 1.0, 1.0, 1.0, 1.0, 1.0, 1.0, 1.0]
3 [1.0, 1.0, 1.0, 1.0, 1.0, 1.0, 1.0, 1.0]
4 [1.0, 1.0, 1.0, 1.0, 1.0, 1.0, 1.0, 1.0]
5 [1.0, 1.0, 1.0, 1.0, 1.0, 1.0, 1.0, 1.0]
6 [1.0, 1.0, 1.0, 1.0, 1.0, 1.0, 1.0, 1.0]
7 [1.0, 1.0, 1.0, 1.0, 1.0, 1.0, 1.0, 1.0]
8 [1.0, 1.0, 1.0, 1.0, 1.0, 1.0, 1.0, 1.0]
9 [1.0, 1.0, 1.0, 1.0, 1.0, 1.0, 1.0, 1.0]
10 [1.6963267, 1.0942376, 1.0002337, 1.0, 1.0, 1.0, 1.0, 1.0]
11 [1.5863078, 1.0793481, 1.0001967, 1.0, 1.0, 1.0, 1.0, 1.0]
12 [1.4467688, 1.0604635, 1.0001498, 1.0, 1.0, 1.0, 1.0, 1.0]
13 [1.3378824, 1.0457274, 1.0001134, 1.0, 1.0, 1.0, 1.0, 1.0]
14 [1.2551242, 1.0345273, 1.0000856, 1.0, 1.0, 1.0, 1.0, 1.0]
15 [1.1928196, 1.0260953, 1.0000647, 1.0, 1.0, 1.0, 1.0, 1.0]
16 [1.1457299, 1.0197225, 1.0000489, 1.0, 1.0, 1.0, 1.0, 1.0]
17 [0.31316614, 0.90704715, 0.99976957, 1.0, 1.0, 1.0, 1.0, 1.0]
18 [0.39320636, 0.9178794, 0.99979645, 1.0, 1.0, 1.0, 1.0, 1.0]
19 [0.5365219, 0.93727505, 0.9998445, 1.0, 1.0, 1.0, 1.0, 1.0]
20 [0.74361485, 1.6487848, 1.0941075, 1.0002335, 1.0, 1.0, 1.0, 1.0]
21 [0.81448907, 1.5515215, 1.0794052, 1.000197, 1.0, 1.0, 1.0, 1.0]
22 [0.8604362, 1.4201341, 1.0604565, 1.00015, 1.0, 1.0, 1.0, 1.0]
23 [0.8945502, 1.3177545, 1.0457224, 1.0001135, 1.0, 1.0, 1.0, 1.0]
24 [0.9203046, 1.2401673, 1.034558, 1.0000857, 1.0, 1.0, 1.0, 1.0]
25 [0.9398278, 1.1813339, 1.0260924, 1.0000647, 1.0, 1.0, 1.0, 1.0]
26 [0.95452285, 1.1370492, 1.0197203, 1.000049, 1.0, 1.0, 1.0, 1.0]
27 [0.8578662, 0.30695665, 0.90709215, 0.99976975, 1.0, 1.0, 1.0, 1.0]
28 [0.88059, 0.38763195, 0.91779417, 0.9997963, 1.0, 1.0, 1.0, 1.0]
29 [0.9090229, 0.53179586, 0.9371412, 0.9998442, 1.0, 1.0, 1.0, 1.0]
30 [0.9312654, 0.64616513, 0.95249546, 0.9998823, 1.0, 1.0, 1.0, 1.0]
31 [1.0, 1.0, 1.0, 1.0, 1.0, 1.0, 1.0, 1.0]
32 [0.972894, 0.7997123, 0.972894, 0.9999328, 1.0, 1.0, 1.0, 1.0]
33 [0.9795137, 0.8486258, 0.9795137, 0.9999492, 1.0, 1.0, 1.0, 1.0]
34 [0.9845168, 0.8855938, 0.9845168, 0.9999616, 1.0, 1.0, 1.0, 1.0]
35 [0.98830974, 0.91362005, 0.98830974, 0.99997103, 1.0, 1.0, 1.0, 1.0]
36 [0.9911647, 0.93471545, 0.9911647, 0.9999781, 1.0, 1.0, 1.0, 1.0]
37 [0.99332243, 0.950659, 0.99332243, 0.99998343, 1.0, 1.0, 1.0, 1.0]
38 [0.9949582, 0.96274614, 0.9949582, 0.9999875, 1.0, 1.0, 1.0, 1.0]
39 [0.99618953, 0.97184414, 0.99618953, 0.9999906, 1.0, 1.0, 1.0, 1.0]
40 [0.9971201, 0.97872025, 0.9971201, 0.99999285, 1.0, 1.0, 1.0, 1.0]
41 [1.0, 1.0, 1.0, 1.0, 1.0, 1.0, 1.0, 1.0]
42 [1.0, 1.0, 1.0, 1.0, 1.0, 1.0, 1.0, 1.0]
43 [1.0, 1.0, 1.0, 1.0, 1.0, 1.0, 1.0, 1.0]
44 [1.0, 1.0, 1.0, 1.0, 1.0, 1.0, 1.0, 1.0]
45 [1.0, 1.0, 1.0, 1.0, 1.0, 1.0, 1.0, 1.0]
46 [1.0, 1.0, 1.0, 1.0, 1.0, 1.0, 1.0, 1.0]
47 [1.0, 1.0, 1.0, 1.0, 1.0, 1.0, 1.0, 1.0]
48 [1.0, 1.0, 1.0, 1.0, 1.0, 1.0, 1.0, 1.0]
49 [1.0, 1.0, 1.0, 1.0, 1.0, 1.0, 1.0, 1.0]
