0 [1.0, 1.0, 1.0, 1.0, 1.0, 1.0, 1.0, 1.0]
1 [1.0, 1.0, 1.0, 1.0, 1.0, 1.0, 1.0, 1.0]
2 [1.0, 1.0, 1.0, 1.0, 1.0, 1.0, 1.0, 1.0]
3 [1.0, 1.0, 1.0, 1.0, 1.0, 1.0, 1.0, 1.0]
4 [1.0, 1.0, 1.0, 1.0, 1.0, 1.0, 1.0, 1.0]
5 [1.0, 1.0, 1.0, 1.0, 1.0, 1.0, 1.0, 1.0]
6 [1.0, 1.0, 1.0, 1.0, 1.0, 1.0, 1.0, 1.0]
7 [1.0, 1.0, 1.0, 1.0, 1.0, 1.0, 1.0, 1.0]
8 [1.0, 1.0, 1.0, 1.0, 1.0, 1.0, 1.0, 1.0]
9 [1.0605885, 1.4476918, 1.0605885, 1.0001502, 1.0, 1.0, 1.0, 1.0]
10 [1.0911175, 1.6732723, 1.0911175, 1.0002259, 1.0, 1.0, 1.0, 1.0]
11 [1.0717008, 1.5887603, 1.5153306, 1.0602363, 1.0001489, 1.0, 1.0, 1.0]
12 [1.0544698, 1.4919828, 1.7279245, 1.0913073, 1.000226, 1.0, 1.0, 1.0]
13 [1.0411432, 1.374319, 1.57018, 1.071723, 1.0001775, 1.0, 1.0, 1.0]
14 [1.0310963, 1.2830763, 1.4321718, 1.0543747, 1.0001346, 1.0, 1.0, 1.0]
15 [1.0234787, 1.2139748, 1.4206818, 1.7378858, 1.0944061, 1.0002338, 1.0, 1.0]
16 [0.9639472, 0.7642231, 1.2712783, 1.6102103, 1.0784775, 1.0001943, 1.0, 1.0]
17 [0.90713227, 0.33693808, 1.1398418, 1.4642267, 1.0597454, 1.0001479, 1.0, 1.0]
18 [0.92576146, 0.41689417, 0.71002364, 1.2976921, 1.0450045, 1.0001118, 1.0, 1.0]
19 [0.94487554, 0.50263494, 0.29994598, 1.1536646, 1.0330124, 1.0000824, 1.0, 1.0]
20 [0.9583603, 0.621253, 0.44823954, 1.1128834, 1.0249176, 1.0000622, 1.0, 1.0]
21 [0.9685283, 0.71355516, 0.5815914, 1.0851265, 1.0188318, 1.000047, 1.0, 1.0]
22 [0.9790928, 0.80944556, 0.6194725, 0.29920965, 0.91001666, 0.9997772, 1.0, 1.0]
23 [0.9842144, 0.8561203, 0.7104558, 0.45437837, 0.9298263, 0.99982625, 1.0, 1.0]
24 [0.988708, 0.897077, 0.7927463, 0.60872316, 0.9496705, 0.99987537, 1.0, 1.0]
25 [0.9914742, 0.9222902, 0.84351283, 0.7045401, 0.96199507, 0.9999059, 1.0, 1.0]
26 [0.9935564, 0.9412682, 0.8817293, 0.77669406, 0.9712762, 0.9999289, 1.0, 1.0]
27 [0.9951349, 0.9556558, 0.9107022, 0.8313976, 0.97831273, 0.9999463, 1.0, 1.0]
28 [0.996323, 0.9664854, 0.93251014, 0.872573, 0.9836091, 0.9999594, 1.0, 1.0]
29 [0.997221, 0.9746702, 0.9489923, 0.9036927, 0.987612, 0.9999693, 1.0, 1.0]
30 [1.0, 0.9999768, 0.9906558, 0.93095523, 0.9906558, 0.9999768, 1.0, 1.0]
31 [0.99999315, 0.9972127, 0.972472, 0.9450473, 0.99293095, 0.9999825, 1.0, 1.0]
32 [1.0, 1.0, 1.0, 1.0, 1.0, 1.0, 1.0, 1.0]
33 [1.0, 0.99999, 0.9959701, 0.9702224, 0.9959701, 0.99999, 1.0, 1.0]
34 [1.0, 0.99999243, 0.9969542, 0.9774946, 0.9969542, 0.99999243, 1.0, 1.0]
35 [1.0, 1.0, 1.0, 1.0, 1.0, 1.0, 1.0, 1.0]
36 [1.0, 1.0, 1.0, 1.0, 1.0, 1.0, 1.0, 1.0]
37 [1.0, 1.0, 1.0, 1.0, 1.0, 1.0, 1.0, 1.0]
38 [1.0, 1.0, 1.0, 1.0, 1.0, 1.0, 1.0, 1.0]
39 [1.0, 1.0, 1.0, 1.0, 1.0, 1.0, 1.0, 1.0]
40 [1.0, 1.0, 1.0, 1.0, 1.0, 1.0, 1.0, 1.0]
41 [1.0, 1.0, 1.0, 1.0, 1.0, 1.0, 1.0, 1.0]
42 [1.0, 1.0, 1.0, 1.0, 1.0, 1.0, 1.0, 1.0]
43 [1.0, 1.0000659, 1.0265946, 1.1965091, 1.0265946, 1.0000659, 1.0, 1.0]
44 [1.0, 1.0002313, 1.0933136, 1.6894989, 1.0933136, 1.0002313, 1.0, 1.0]
45 [1.0, 1.0001856, 1.0748634, 1.55317, 1.0748634, 1.0001856, 1.0, 1.0]
46 [1.0, 1.0001409, 1.056846, 1.4200387, 1.056846, 1.0001409, 1.0, 1.0]
47 [1.0, 1.0001065, 1.0429366, 1.3172604, 1.0429366, 1.0001065, 1.0, 1.0]
48 [1.0, 1.000073, 1.0294223, 1.2174033, 1.0294223, 1.000073, 1.0, 1.0]
49 [1.0, 1.0000551, 1.0222148, 1.1641458, 1.0222148, 1.0000551, 1.0, 1.0]
