0 [0.0, 0.0, 0.0, 0.0, 0.0, 0.0, 0.0, 0.0]
1 [0.0, 0.0, 0.56702536, 0.5590891, 0.0, 0.0, 0.0, 0.0]
2 [0.0, 0.0, 0.5703917, 0.55997354, 0.0, 0.0, 0.0, 0.0]
3 [0.0, 0.0, 0.5815344, 0.5609294, 0.0, 0.0, 0.0, 0.0]
4 [0.0, 0.0, 0.5921125, 0.55568755, 0.0, 0.0, 0.0, 0.0]
5 [0.0, 0.0, 0.0, 0.5462293, 0.7296583, 0.0, 0.0, 0.0]
6 [0.0, 0.0, 0.0, 0.5334431, 0.5352299, 0.0, 0.0, 0.0]
7 [0.0, 0.0, 0.0, 0.5389571, 0.5327234, 0.0, 0.0, 0.0]
8 [0.0, 0.0, 0.0, 0.54397196, 0.5251587, 0.0, 0.0, 0.0]
9 [0.0, 0.0, 0.0, 0.54750335, 0.5139948, 0.0, 0.0, 0.0]
10 [0.0, 0.0, 0.0, 0.5484791, 0.5006055, 0.0, 0.0, 0.0]
11 [0.0, 0.0, 0.0, 0.0, 0.48590508, 0.6731103, 0.0, 0.0]
12 [0.0, 0.0, 0.0, 0.0, 0.47046888, 0.66777724, 0.0, 0.0]
13 [0.0, 0.0, 0.0, 0.0, 0.460094, 0.46078768, 0.0, 0.0]
14 [0.0, 0.0, 0.0, 0.0, 0.45359018, 0.45073333, 0.0, 0.0]
15 [0.0, 0.0, 0.0, 0.0, 0.44789925, 0.43966797, 0.0, 0.0]
16 [0.0, 0.0, 0.0, 0.0, 0.44789925, 0.43966797, 0.0, 0.0]
17 [0.0, 0.0, 0.0, 0.0, 0.44373822, 0.41665468, 0.0, 0.0]
18 [0.7426975, 0.0, 0.0, 0.0, 0.4464813, 0.40245986, 0.0, 0.0]
19 [0.7210071, 0.0, 0.0, 0.0, 0.0, 0.38921222, 0.38937846, 0.0]
20 [0.7210071, 0.0, 0.0, 0.0, 0.0, 0.38921222, 0.38937846, 0.0]
21 [0.702502, 0.0, 0.0, 0.0, 0.0, 0.3877088, 0.38672912, 0.0]
22 [0.67626864, 0.0, 0.0, 0.0, 0.0, 0.38819838, 0.37483588, 0.0]
23 [0.67626864, 0.0, 0.0, 0.0, 0.0, 0.38819838, 0.37483588, 0.0]
24 [0.6716017, 0.0, 0.0, 0.0, 0.0, 0.39682886, 0.36161107, 0.0]
25 [0.6749166, 0.0, 0.0, 0.0, 0.0, 0.0, 0.3575444, 0.0]
26 [0.6740564, 0.0, 0.0, 0.0, 0.0, 0.0, 0.36039278, 0.0]
27 [0.6701976, 0.0, 0.0, 0.0, 0.0, 0.0, 0.366781, 0.0]
28 [0.663022, 0.0, 0.0, 0.0, 0.0, 0.0, 0.376865, 0.36091563]
29 [0.65232986, 0.0, 0.0, 0.0, 0.0, 0.0, 0.0, 0.36706942]
30 [0.83841836, 0.0, 0.0, 0.0, 0.0, 0.0, 0.0, 0.3722115]
31 [0.82465553, 0.69119805, 0.0, 0.0, 0.0, 0.0, 0.0, 0.3761246]
32 [0.0, 0.66971886, 0.0, 0.0, 0.0, 0.0, 0.0, 0.37896836]
33 [0.0, 0.65211123, 0.0, 0.0, 0.0, 0.0, 0.0, 0.38137096]
34 [0.0, 0.63577, 0.0, 0.0, 0.0, 0.0, 0.0, 0.3838618]
35 [0.0, 0.6195608, 0.0, 0.0, 0.0, 0.0, 0.0, 0.3866073]
36 [0.0, 0.6118466, 0.0, 0.0, 0.0, 0.0, 0.0, 0.388942]
37 [0.0, 0.61162627, 0.0, 0.0, 0.0, 0.0, 0.0, 0.3956884]
38 [0.0, 0.6092436, 0.0, 0.0, 0.0, 0.0, 0.0, 0.0]
39 [0.0, 0.6092436, 0.0, 0.0, 0.0, 0.0, 0.0, 0.0]
40 [0.0, 0.5984871, 0.63177896, 0.0, 0.96756136, 0.987853, 0.0, 0.0]
41 [0.0, 0.59213835, 0.6142231, 0.0, 0.96178836, 0.9815705, 0.0, 0.0]
42 [0.0, 0.57535976, 0.5833515, 0.0, 0.9515879, 0.9628515, 0.94720256, 0.0]
43 [0.0, 0.56707585, 0.57122463, 0.0, 0.948098, 0.95329785, 0.9350748, 0.0]
44 [0.0, 0.5489855, 0.5482308, 0.0, 0.94257414, 0.93204355, 0.9131381, 0.0]
45 [0.0, 0.5400806, 0.53768647, 0.0, 0.94322944, 0.92190385, 0.9089287, 0.0]
46 [0.0, 0.5250755, 0.52495694, 0.0, 0.9531463, 0.90481484, 0.9080206, 0.0]
47 [0.0, 0.5250755, 0.52495694, 0.0, 0.9531463, 0.90481484, 0.9080206, 0.0]
48 [0.0, 0.0, 0.52473843, 0.0, 0.0, 0.8911406, 0.9095835, 0.0]
49 [0.0, 0.0, 0.52473843, 0.0, 0.0, 0.8911406, 0.9095835, 0.0]
