0 -1
1 -1
2 300
3 300
4 300
5 300
6 300
7 2125
8 2125
9 1500
10 1500
11 1500
12 1500
13 1500
14 1500
15 1500
16 10625
17 10625
18 10625
19 7500
20 7500
21 7500
22 7500
23 7500
24 7500
25 7503
26 7503
27 18753
28 18753
29 18753
30 18753
31 18753
32 18753
33 18753
34 -1
35 15628
36 15628
37 15628
38 15628
39 93753
40 78128
41 78128
42 78129
43 78144
44 78140
45 78140
46 78140
47 78140
48 78140
49 78140
50 78140
51 78140
52 15
53 15
54 15
55 15085
56 15085
57 15085
58 77560
59 77560
60 77560
61 77560
62 -1
63 77560
64 77560
65 77560
66 75050
67 75050
68 75050
69 75300
70 75300
71 75300
72 387800
73 387804
74 387804
75 387829
76 376504
77 376504
78 376504
79 376504
80 376625
81 376625
82 320000
83 320000
84 320020
85 320020
86 320020
87 350020
88 350020
89 350020
90 -1
91 37600
92 203625
93 203625
94 159250
95 159250
96 158752
97 171252
98 171252
99 171252
100 246877
101 246877
102 12502
103 75002
104 75012
105 75012
106 62512
107 62510
108 62510
109 62510
110 62510
111 62510
112 62510
113 10
114 5
115 5
116 -1
117 505
118 313005
119 313005
120 313005
121 313005
122 313105
123 313105
124 606
125 611
126 576
127 576
128 62596
129 62591
130 62591
131 62591
132 62591
133 75016
134 75016
135 56265
136 71893
137 71893
138 9378
139 324378
140 245628
141 245628
142 236253
143 236753
144 236625
145 -1
146 236625
147 234825
148 234825
149 62950
150 46940
151 59460
152 59460
153 56260
154 56260
155 56260
156 56260
157 58143
158 55002
159 55002
160 53127
161 53127
162 37502
163 37502
164 40637
165 31260
166 265635
167 265635
168 171260
169 233760
170 233760
171 233810
172 233810
173 233780
174 -1
175 77530
176 77530
177 77530
178 77530
179 77530
180 77530
181 77530
182 77505
183 234255
184 234256
185 234256
186 234251
187 234251
188 234251
189 234351
190 230476
191 230476
192 230476
193 230476
194 214851
195 214851
196 214851
197 58501
198 371001
199 371001
200 371001
201 293011
202 293011
203 -1
204 274261
205 274261
206 274251
207 274251
208 195376
209 195376
210 195376
211 195376
212 195376
213 195251
214 195251
215 195251
216 175875
217 175875
218 19645
219 19570
220 19550
221 19550
222 19554
223 19554
224 19529
225 19529
226 19529
227 19529
228 19529
229 19529
230 15659
231 15659
232 -1
233 15634
234 15634
235 9
236 9
237 4
