0 1.5707964
0 2.3182098E-7
0 2.4088934E-7
0 9.078623E-8
0 -0.0
0 -2.0647656E-7
0 -9.272836E-8
0 -1.5707964
0 -1.5707968
1 1.5707964
1 2.3182098E-7
1 2.4088934E-7
1 9.078623E-8
1 -0.0
1 -2.0647656E-7
1 -9.272836E-8
1 -1.5707964
1 -1.5707968
2 -3.1385598
2 -8.082718E-5
2 -5.9878083E-5
2 -5.267239E-5
2 -5.2640946E-5
2 -5.9982733E-5
2 -8.038568E-5
2 -0.0029848502
2 -1.5658439
3 -3.1385598
3 -8.082718E-5
3 -5.9878083E-5
3 -5.267239E-5
3 -5.2640946E-5
3 -5.9982733E-5
3 -8.038568E-5
3 -0.0029848502
3 -1.5658439
4 3.1341507
4 1.2802378E-4
4 9.41972E-5
4 8.2089944E-5
4 8.157403E-5
4 9.198475E-5
4 1.2297893E-4
4 0.00745722
4 -1.5550181
5 3.1341507
5 1.2802378E-4
5 9.41972E-5
5 8.2089944E-5
5 8.157403E-5
5 9.198475E-5
5 1.2297893E-4
5 0.00745722
5 -1.5550181
6 3.1325626
6 3.054711E-4
6 2.2320845E-4
6 1.9419871E-4
6 1.9234058E-4
6 2.1632652E-4
6 2.8737567E-4
6 0.009038469
6 -1.5456493
7 3.1325626
7 3.054711E-4
7 2.2320845E-4
7 1.9419871E-4
7 1.9234058E-4
7 2.1632652E-4
7 2.8737567E-4
7 0.009038469
7 -1.5456493
8 3.1323168
8 3.3779017E-4
8 2.4651832E-4
8 2.1439146E-4
8 2.1226807E-4
8 2.3854837E-4
8 3.16661E-4
8 0.009286955
8 -1.5441878
9 3.1323168
9 3.3779017E-4
9 2.4651832E-4
9 2.1439146E-4
9 2.1226807E-4
9 2.3854837E-4
9 3.16661E-4
9 0.009286955
9 -1.5441878
10 3.132745
10 2.680088E-4
10 1.9606415E-4
10 1.7063864E-4
10 1.6919491E-4
10 1.9046543E-4
10 2.532069E-4
10 0.008853943
10 -1.5477176
11 3.132745
11 2.680088E-4
11 1.9606415E-4
11 1.7063864E-4
11 1.6919491E-4
11 1.9046543E-4
11 2.532069E-4
11 0.008853943
11 -1.5477176
12 3.1332061
12 2.1018676E-4
12 1.5402408E-4
12 1.3423795E-4
12 1.3314739E-4
12 1.4994909E-4
12 1.9972736E-4
12 0.0083954055
12 -1.5507176
13 3.1332061
13 2.1018676E-4
13 1.5402408E-4
13 1.3423795E-4
13 1.3314739E-4
13 1.4994909E-4
13 1.9972736E-4
13 0.0083954055
13 -1.5507176
14 3.1316323
14 2.3399247E-4
14 1.7175473E-4
14 1.4976531E-4
14 1.4869572E-4
14 1.676395E-4
14 2.2351308E-4
14 0.009973438
14 -1.5523438
15 3.1316323
15 2.3399247E-4
15 1.7175473E-4
15 1.4976531E-4
15 1.4869572E-4
15 1.676395E-4
15 2.2351308E-4
15 0.009973438
15 -1.5523438
16 3.1347713
16 7.463314E-5
16 5.4938482E-5
16 4.7936788E-5
16 4.7668913E-5
16 5.371948E-5
16 7.1882714E-5
16 0.006838221
16 -1.5584974
17 3.1347713
17 7.463314E-5
17 5.4938482E-5
17 4.7936788E-5
17 4.7668913E-5
17 5.371948E-5
17 7.1882714E-5
17 0.006838221
17 -1.5584974
18 1.558932
18 -1.7860458E-4
18 -1.325792E-4
18 -1.1673241E-4
18 -1.16837844E-4
18 -1.3305295E-4
18 -1.7900248E-4
18 -1.5589318
18 -1.5709686
19 1.558932
19 -1.7860458E-4
19 -1.325792E-4
19 -1.1673241E-4
19 -1.16837844E-4
19 -1.3305295E-4
19 -1.7900248E-4
19 -1.5589318
19 -1.5709686
20 -0.018178906
20 -5.6698825E-4
20 -4.2552417E-4
20 -3.7711253E-4
20 -3.7969774E-4
20 -4.3521693E-4
20 -5.9293123E-4
20 -3.1234202
20 -1.5892597
21 -0.018178906
21 -5.6698825E-4
21 -4.2552417E-4
21 -3.7711253E-4
21 -3.7969774E-4
21 -4.3521693E-4
21 -5.9293123E-4
21 -3.1234202
21 -1.5892597
22 -0.013328533
22 -8.8263804E-4
22 -6.716333E-4
22 -6.006202E-4
22 -6.096763E-4
22 -7.0542435E-4
22 -9.760472E-4
22 -3.1282678
22 -1.6127107
23 -0.013328533
23 -8.8263804E-4
23 -6.716333E-4
23 -6.006202E-4
23 -6.096763E-4
23 -7.0542435E-4
23 -9.760472E-4
23 -3.1282678
23 -1.6127107
24 -0.013328533
24 -8.8263804E-4
24 -6.716333E-4
24 -6.006202E-4
24 -6.096763E-4
24 -7.0542435E-4
24 -9.760472E-4
24 -3.1282678
24 -1.6127107
25 -0.013328533
25 -8.8263804E-4
25 -6.716333E-4
25 -6.006202E-4
25 -6.096763E-4
25 -7.0542435E-4
25 -9.760472E-4
25 -3.1282678
25 -1.6127107
26 -0.010627406
26 -0.0015763263
26 -0.0012402623
26 -0.0011353954
26 -0.0011777204
26 -0.0013987417
26 -0.0020211793
26 -3.130966
26 -1.6740788
27 -0.010627406
27 -0.0015763263
27 -0.0012402623
27 -0.0011353954
27 -0.0011777204
27 -0.0013987417
27 -0.0020211793
27 -3.130966
27 -1.6740788
28 -0.0105454475
28 -0.002066027
28 -0.0016587406
28 -0.0015409943
28 -0.0016214481
28 -0.0019602024
28 -0.002923018
28 -3.1310477
28 -1.7138774
29 -0.0105454475
29 -0.002066027
29 -0.0016587406
29 -0.0015409943
29 -0.0016214481
29 -0.0019602024
29 -0.002923018
29 -3.1310477
29 -1.7138774
30 -0.011414725
30 -0.0028274697
30 -0.0023219383
30 -0.0021944945
30 -0.00234882
30 -0.002903295
30 -0.0045117307
30 -3.1301787
30 -1.7609915
31 -0.011414725
31 -0.0028274697
31 -0.0023219383
31 -0.0021944945
31 -0.00234882
31 -0.002903295
31 -0.0045117307
31 -3.1301787
31 -1.7609915
32 -0.012234068
32 -0.0036546153
32 -0.0030703472
32 -0.0029546302
32 -0.0032216005
32 -0.004083131
32 -0.00667112
32 -3.129359
32 -1.8111497
33 -0.012234068
33 -0.0036546153
33 -0.0030703472
33 -0.0029546302
33 -0.0032216005
33 -0.004083131
33 -0.00667112
33 -3.129359
33 -1.8111497
34 -0.010912089
34 -0.0037724357
34 -0.003236947
34 -0.0031695394
34 -0.0035207798
34 -0.004581076
34 -0.007920877
34 -3.1306808
34 -1.8601103
35 -0.010912089
35 -0.0037724357
35 -0.003236947
35 -0.0031695394
35 -0.0035207798
35 -0.004581076
35 -0.007920877
35 -3.1306808
35 -1.8601103
36 -0.009061133
36 -0.003535142
36 -0.0030953414
36 -0.003083892
36 -0.003491997
36 -0.0046745595
36 -0.008642795
36 -3.132532
36 -1.9091603
37 -0.009061133
37 -0.003535142
37 -0.0030953414
37 -0.003083892
37 -0.003491997
37 -0.0046745595
37 -0.008642795
37 -3.132532
37 -1.9091603
38 -0.0067304918
38 -0.0029015825
38 -0.002588471
38 -0.0026219122
38 -0.0030259062
38 -0.00417202
38 -0.008331472
38 -3.1348624
38 -1.9561142
39 -0.0067304918
39 -0.0029015825
39 -0.002588471
39 -0.0026219122
39 -0.0030259062
39 -0.00417202
39 -0.008331472
39 -3.1348624
39 -1.9561142
40 -0.005372883
40 -0.0025014926
40 -0.0022673311
40 -0.002330502
40 -0.0027367286
40 -0.0038814559
40 -0.0084161945
40 -3.1362202
40 -1.9974203
41 -0.005372883
41 -0.0025014926
41 -0.0022673311
41 -0.002330502
41 -0.0027367286
41 -0.0038814559
41 -0.0084161945
41 -3.1362202
41 -1.9974203
42 -0.0018352134
42 -9.2746754E-4
42 -8.5171947E-4
42 -8.864881E-4
42 -0.0010569824
42 -0.0015386642
42 -0.0036271699
42 -3.1397574
42 -2.0322623
43 -0.0018352134
43 -9.2746754E-4
43 -8.5171947E-4
43 -8.864881E-4
43 -0.0010569824
43 -0.0015386642
43 -0.0036271699
43 -3.1397574
43 -2.0322623
44 1.5380113E-4
44 4.2987343E-5
44 3.9970935E-5
44 4.186478E-5
44 5.049649E-5
44 7.487883E-5
44 1.9196054E-4
44 3.1414387
44 -2.060629
45 1.5380113E-4
45 4.2987343E-5
45 3.9970935E-5
45 4.186478E-5
45 5.049649E-5
45 7.487883E-5
45 1.9196054E-4
45 3.1414387
45 -2.060629
46 0.0013764773
46 6.9279707E-4
46 6.49768E-4
46 6.899856E-4
46 8.440455E-4
46 0.0012864702
46 0.003628386
46 3.140216
46 -2.0889668
47 9.896E-4
47 5.132567E-4
47 4.871867E-4
47 5.2359316E-4
47 6.5087836E-4
47 0.0010224916
47 0.0033255473
47 3.1406028
47 -2.1220305
48 9.896E-4
48 5.132567E-4
48 4.871867E-4
48 5.2359316E-4
48 6.5087836E-4
48 0.0010224916
48 0.0033255473
48 3.1406028
48 -2.1220305
49 -0.0018144634
49 -0.001080236
49 -0.001038778
49 -0.0011320865
49 -0.0014335616
49 -0.0023382637
49 -0.009408243
49 -3.1397784
49 -2.1585033
