0 [10.0, 10.0, 10.0, 10.0, 10.0, 10.0, 10.0, 10.0, 10.0, 10.0, 10.0, 10.0, 10.0, 10.0, 10.0, 10.0, 10.0, 10.0, 10.0, 10.0, 10.0, 10.0, 10.0, 10.0, 10.0, 10.0, 10.0, 10.0, 10.0, 10.0, 10.0, 10.0, 10.0, 10.0, 10.0, 10.0, 10.0, 10.0, 10.0, 10.0, 10.0, 10.0, 10.0, 10.0, 10.0, 10.0, 10.0, 10.0, 10.0, 10.0, 10.0, 10.0, 10.0, 10.0, 10.0, 10.0, 10.0, 10.0, 10.0, 10.0, 10.0, 10.0, 10.0, 10.0, 10.0, 10.0, 10.0, 10.0, 10.0, 10.0, 10.0, 10.0, 10.0, 10.0, 10.0, 10.0, 10.0, 10.0, 10.0, 10.0, 10.0, 10.0, 10.0, 10.0, 10.0, 10.0, 10.0, 10.0, 10.0, 10.0, 10.0, 10.0, 10.0, 10.0, 10.0, 10.0, 10.0, 10.0, 10.0, 10.0, 10.0, 10.0, 10.0, 10.0, 10.0, 10.0, 10.0, 10.0, 10.0, 10.0, 10.0, 10.0, 10.0, 10.0, 10.0, 10.0, 10.0, 10.0, 10.0, 10.0, 10.0, 10.0, 10.0, 10.0, 10.0, 10.0, 10.0, 10.0, 10.0, 10.0, 10.0, 10.0, 10.0, 10.0, 10.0, 10.0, 10.0, 10.0, 10.0, 10.0, 10.0, 10.0, 10.0, 10.0, 10.0, 10.0, 10.0, 10.0, 10.0, 10.0, 10.0, 10.0, 10.0, 10.0, 10.0, 10.0, 10.0, 10.0, 10.0, 10.0, 10.0, 10.0, 10.0, 10.0, 10.0, 10.0, 10.0, 10.0, 10.0, 10.0, 10.0, 10.0, 10.0, 10.0, 10.0, 10.0, 10.0, 10.0, 10.0, 10.0, 10.0, 10.0]
1 [1.77, 1.8, 1.84, 1.87, 1.9, 1.93, 1.97, 2.0, 2.04, 2.07, 2.11, 2.15, 2.19, 2.21, 2.21, 2.21, 2.21, 2.21, 2.21, 2.21, 2.21, 1.54, 1.54, 1.54, 1.54, 1.54, 1.54, 1.54, 1.54, 1.54, 1.54, 1.54, 1.58, 1.61, 1.64, 1.68, 1.71, 2.21, 2.21, 2.21, 2.21, 2.21, 2.21, 2.21, 2.21, 2.21, 2.21, 2.21, 2.21, 2.21, 2.21, 2.21, 2.21, 2.21, 2.21, 2.21, 2.21, 2.21, 2.21, 2.21, 2.21, 2.21, 2.21, 2.21, 2.21, 2.21, 2.21, 2.2, 2.2, 2.2, 2.2, 2.2, 2.2, 2.2, 2.2, 2.2, 2.2, 2.2, 2.2, 1.11, 1.11, 1.11, 1.11, 1.11, 1.11, 1.11, 1.11, 1.11, 1.11, 1.11, 1.11, 1.11, 1.11, 1.11, 1.11, 1.11, 1.11, 1.11, 1.11, 1.11, 2.2, 2.2, 2.2, 2.2, 2.2, 2.2, 2.2, 2.2, 2.2, 2.2, 2.2, 2.2, 2.2, 2.2, 2.2, 2.2, 2.2, 2.2, 2.2, 2.2, 2.2, 2.2, 2.2, 2.2, 2.2, 2.2, 2.2, 2.2, 2.2, 2.2, 2.2, 2.2, 2.2, 2.2, 2.2, 2.2, 2.2, 2.2, 2.2, 2.2, 2.2, 2.2, 2.2, 2.2, 2.2, 2.2, 2.2, 2.2, 2.2, 2.2, 2.19, 2.19, 2.19, 2.19, 2.19, 2.19, 2.19, 2.19, 2.19, 2.19, 2.19, 2.19, 2.19, 2.19, 2.19, 2.19, 2.19, 2.19, 1.52, 1.49, 1.47, 1.44, 1.41, 1.39, 1.36, 1.34, 1.33, 1.33, 1.33, 1.33, 1.33, 1.32]
2 [1.75, 1.78, 1.81, 1.85, 1.88, 1.91, 1.94, 1.98, 2.01, 2.05, 2.08, 2.12, 2.16, 2.19, 2.23, 2.23, 2.23, 2.23, 2.23, 2.23, 2.23, 2.23, 1.55, 1.55, 1.55, 1.55, 1.55, 1.55, 1.55, 1.55, 1.55, 1.55, 1.55, 1.57, 1.61, 1.64, 1.67, 1.71, 1.75, 2.22, 2.22, 2.22, 2.22, 2.22, 2.22, 2.22, 2.22, 2.22, 2.22, 2.22, 2.22, 2.22, 2.22, 2.22, 2.22, 2.22, 2.22, 2.22, 2.22, 2.21, 2.21, 2.21, 2.21, 2.21, 2.21, 2.21, 2.21, 2.21, 2.21, 2.21, 2.21, 2.21, 2.21, 2.21, 2.21, 2.21, 2.21, 2.21, 2.21, 2.21, 2.21, 1.11, 1.11, 1.11, 1.11, 1.11, 1.11, 1.11, 1.11, 1.11, 1.11, 1.11, 1.11, 1.11, 1.11, 1.11, 1.11, 1.11, 1.11, 1.11, 1.11, 2.2, 2.2, 2.2, 2.2, 2.2, 2.2, 2.2, 2.2, 2.2, 2.2, 2.2, 2.2, 2.2, 2.2, 2.2, 2.2, 2.2, 2.2, 2.19, 2.19, 2.19, 2.19, 2.19, 2.19, 2.19, 2.19, 2.19, 2.19, 2.19, 2.19, 2.19, 2.19, 2.19, 2.19, 2.19, 2.19, 2.19, 2.19, 2.19, 2.19, 2.19, 2.19, 2.19, 2.19, 2.18, 2.18, 2.18, 2.18, 2.18, 2.18, 2.18, 2.18, 2.18, 2.18, 2.18, 2.18, 2.18, 2.18, 2.18, 2.18, 2.18, 2.18, 2.18, 2.18, 2.18, 2.18, 2.17, 2.17, 2.17, 1.49, 1.46, 1.43, 1.41, 1.38, 1.36, 1.34, 1.31, 1.31, 1.31, 1.31, 1.31]
3 [1.72, 1.75, 1.78, 1.81, 1.84, 1.88, 1.91, 1.94, 1.97, 2.01, 2.04, 2.08, 2.11, 2.15, 2.19, 2.22, 2.26, 2.26, 2.26, 2.26, 2.26, 2.26, 2.26, 2.26, 1.57, 1.57, 1.57, 1.57, 1.57, 1.56, 1.56, 1.56, 1.56, 1.56, 1.56, 1.59, 1.62, 1.65, 1.69, 1.72, 1.76, 2.24, 2.24, 2.24, 2.24, 2.24, 2.24, 2.24, 2.23, 2.23, 2.23, 2.23, 2.23, 2.23, 2.23, 2.23, 2.23, 2.23, 2.23, 2.23, 2.23, 2.22, 2.22, 2.22, 2.22, 2.22, 2.22, 2.22, 2.22, 2.22, 2.22, 2.22, 2.22, 2.22, 2.22, 2.22, 2.21, 2.21, 2.21, 2.21, 2.21, 2.21, 2.21, 1.11, 1.11, 1.11, 1.11, 1.11, 1.11, 1.11, 1.11, 1.11, 1.11, 1.11, 1.11, 1.11, 1.11, 1.11, 1.11, 1.11, 1.11, 1.11, 1.1, 2.2, 2.2, 2.2, 2.19, 2.19, 2.19, 2.19, 2.19, 2.19, 2.19, 2.19, 2.19, 2.19, 2.19, 2.19, 2.19, 2.19, 2.19, 2.18, 2.18, 2.18, 2.18, 2.18, 2.18, 2.18, 2.18, 2.18, 2.18, 2.18, 2.18, 2.18, 2.18, 2.17, 2.17, 2.17, 2.17, 2.17, 2.17, 2.17, 2.17, 2.17, 2.17, 2.17, 2.17, 2.17, 2.16, 2.16, 2.16, 2.16, 2.16, 2.16, 2.16, 2.16, 2.16, 2.16, 2.16, 2.16, 2.15, 2.15, 2.15, 2.15, 2.15, 2.15, 2.15, 2.15, 2.15, 2.15, 2.14, 2.14, 1.47, 1.44, 1.41, 1.39, 1.36, 1.34, 1.31, 1.29, 1.29, 1.29]
4 [1.65, 1.68, 1.71, 1.74, 1.77, 1.79, 1.82, 1.85, 1.88, 1.91, 1.94, 1.98, 2.01, 2.04, 2.08, 2.11, 2.14, 2.18, 2.22, 2.25, 2.29, 2.33, 2.34, 2.33, 2.33, 2.33, 2.33, 2.32, 2.32, 1.61, 1.61, 1.61, 1.61, 1.61, 1.6, 1.6, 1.6, 1.6, 1.6, 1.6, 1.62, 1.65, 1.68, 1.71, 1.75, 1.78, 2.28, 2.28, 2.28, 2.28, 2.28, 2.27, 2.27, 2.27, 2.27, 2.27, 2.27, 2.26, 2.26, 2.26, 2.26, 2.26, 2.26, 2.25, 2.25, 2.25, 2.25, 2.25, 2.25, 2.24, 2.24, 2.24, 2.24, 2.24, 2.24, 2.23, 2.23, 2.23, 2.23, 2.23, 2.23, 2.22, 2.22, 2.22, 2.22, 2.22, 2.22, 2.22, 1.11, 1.11, 1.11, 1.11, 1.11, 1.11, 1.11, 1.11, 1.11, 1.11, 1.1, 1.1, 1.1, 1.1, 1.1, 1.1, 1.1, 1.1, 1.1, 1.1, 1.1, 2.18, 2.18, 2.18, 2.18, 2.18, 2.17, 2.17, 2.17, 2.17, 2.17, 2.17, 2.16, 2.16, 2.16, 2.16, 2.16, 2.16, 2.16, 2.15, 2.15, 2.15, 2.15, 2.15, 2.15, 2.14, 2.14, 2.14, 2.14, 2.14, 2.14, 2.13, 2.13, 2.13, 2.13, 2.13, 2.12, 2.12, 2.12, 2.12, 2.12, 2.12, 2.11, 2.11, 2.11, 2.11, 2.11, 2.1, 2.1, 2.1, 2.1, 2.1, 2.09, 2.09, 2.09, 2.09, 2.09, 2.08, 2.08, 2.08, 2.08, 2.08, 2.07, 2.07, 2.07, 2.07, 2.06, 2.06, 2.06, 1.42, 1.39, 1.36, 1.34, 1.31]
5 [1.6, 1.63, 1.65, 1.68, 1.71, 1.73, 1.76, 1.79, 1.82, 1.85, 1.87, 1.9, 1.93, 1.96, 1.99, 2.03, 2.06, 2.09, 2.12, 2.16, 2.19, 2.23, 2.26, 2.3, 2.34, 2.38, 2.38, 2.38, 2.37, 2.37, 2.37, 2.36, 2.36, 1.63, 1.63, 1.63, 1.63, 1.62, 1.62, 1.62, 1.62, 1.62, 1.61, 1.61, 1.63, 1.66, 1.69, 1.73, 1.76, 1.8, 2.3, 2.3, 2.3, 2.3, 2.29, 2.29, 2.29, 2.29, 2.28, 2.28, 2.28, 2.28, 2.27, 2.27, 2.27, 2.26, 2.26, 2.26, 2.26, 2.26, 2.25, 2.25, 2.25, 2.25, 2.24, 2.24, 2.24, 2.24, 2.23, 2.23, 2.23, 2.23, 2.22, 2.22, 2.22, 2.22, 2.22, 2.21, 2.21, 2.21, 2.21, 2.2, 1.1, 1.1, 1.1, 1.1, 1.1, 1.09, 1.09, 1.09, 1.09, 1.09, 1.09, 1.09, 1.09, 1.09, 1.08, 1.08, 1.08, 1.08, 1.08, 1.08, 1.08, 2.16, 2.15, 2.15, 2.15, 2.15, 2.14, 2.14, 2.14, 2.14, 2.14, 2.13, 2.13, 2.13, 2.13, 2.12, 2.12, 2.12, 2.12, 2.11, 2.11, 2.11, 2.11, 2.11, 2.1, 2.1, 2.1, 2.1, 2.09, 2.09, 2.09, 2.09, 2.08, 2.08, 2.08, 2.08, 2.07, 2.07, 2.07, 2.07, 2.06, 2.06, 2.06, 2.06, 2.05, 2.05, 2.05, 2.04, 2.04, 2.04, 2.04, 2.03, 2.03, 2.03, 2.02, 2.02, 2.02, 2.01, 2.01, 2.01, 2.01, 2.0, 2.0, 2.0, 1.99, 1.99, 1.99, 1.98, 1.98, 1.97]
6 [1.58, 1.6, 1.63, 1.65, 1.68, 1.7, 1.73, 1.76, 1.78, 1.81, 1.84, 1.87, 1.89, 1.92, 1.95, 1.98, 2.01, 2.05, 2.08, 2.11, 2.14, 2.18, 2.21, 2.25, 2.28, 2.32, 2.35, 2.39, 2.38, 2.38, 2.38, 2.37, 2.37, 2.36, 2.36, 1.63, 1.62, 1.62, 1.62, 1.62, 1.61, 1.61, 1.61, 1.61, 1.6, 1.6, 1.63, 1.66, 1.69, 1.73, 1.76, 1.8, 2.3, 2.29, 2.29, 2.29, 2.28, 2.28, 2.28, 2.28, 2.27, 2.27, 2.27, 2.26, 2.26, 2.26, 2.25, 2.25, 2.25, 2.25, 2.24, 2.24, 2.24, 2.23, 2.23, 2.23, 2.23, 2.22, 2.22, 2.22, 2.22, 2.21, 2.21, 2.21, 2.21, 2.2, 2.2, 2.2, 2.19, 2.19, 2.19, 2.19, 2.18, 2.18, 2.18, 1.08, 1.07, 1.07, 1.07, 1.07, 1.07, 1.07, 1.07, 1.07, 1.06, 1.06, 1.06, 1.06, 1.06, 1.06, 1.06, 1.06, 1.05, 1.05, 1.05, 1.05, 2.12, 2.12, 2.12, 2.12, 2.11, 2.11, 2.11, 2.1, 2.1, 2.1, 2.1, 2.09, 2.09, 2.09, 2.09, 2.08, 2.08, 2.08, 2.08, 2.07, 2.07, 2.07, 2.06, 2.06, 2.06, 2.06, 2.05, 2.05, 2.05, 2.05, 2.04, 2.04, 2.04, 2.03, 2.03, 2.03, 2.02, 2.02, 2.02, 2.02, 2.01, 2.01, 2.01, 2.0, 2.0, 2.0, 1.99, 1.99, 1.99, 1.98, 1.98, 1.98, 1.97, 1.97, 1.97, 1.96, 1.96, 1.96, 1.95, 1.95, 1.95, 1.94, 1.94, 1.93, 1.93, 1.93]
7 [1.57, 1.6, 1.62, 1.65, 1.67, 1.7, 1.72, 1.75, 1.78, 1.8, 1.83, 1.86, 1.89, 1.92, 1.95, 1.98, 2.01, 2.04, 2.07, 2.1, 2.14, 2.17, 2.2, 2.24, 2.27, 2.31, 2.35, 2.35, 2.35, 2.34, 2.34, 2.33, 2.33, 2.33, 1.59, 1.59, 1.59, 1.58, 1.58, 1.58, 1.58, 1.57, 1.57, 1.57, 1.57, 1.59, 1.62, 1.65, 1.68, 1.72, 1.75, 2.26, 2.26, 2.26, 2.25, 2.25, 2.25, 2.24, 2.24, 2.24, 2.24, 2.23, 2.23, 2.23, 2.22, 2.22, 2.22, 2.22, 2.21, 2.21, 2.21, 2.2, 2.2, 2.2, 2.2, 2.19, 2.19, 2.19, 2.19, 2.18, 2.18, 2.18, 2.17, 2.17, 2.17, 2.17, 2.16, 2.16, 2.16, 2.16, 2.15, 2.15, 2.15, 2.15, 2.14, 1.04, 1.04, 1.04, 1.04, 1.04, 1.03, 1.03, 1.03, 1.03, 1.03, 1.03, 1.03, 1.03, 1.02, 1.02, 1.02, 1.02, 1.02, 1.02, 1.02, 1.02, 1.02, 2.09, 2.08, 2.08, 2.08, 2.08, 2.07, 2.07, 2.07, 2.07, 2.06, 2.06, 2.06, 2.06, 2.05, 2.05, 2.05, 2.04, 2.04, 2.04, 2.04, 2.03, 2.03, 2.03, 2.03, 2.02, 2.02, 2.02, 2.01, 2.01, 2.01, 2.01, 2.0, 2.0, 2.0, 1.99, 1.99, 1.99, 1.99, 1.98, 1.98, 1.98, 1.97, 1.97, 1.97, 1.96, 1.96, 1.96, 1.95, 1.95, 1.95, 1.94, 1.94, 1.94, 1.93, 1.93, 1.93, 1.92, 1.92, 1.92, 1.91, 1.91, 1.91, 1.9, 1.9, 1.89]
8 [1.58, 1.6, 1.63, 1.65, 1.68, 1.71, 1.73, 1.76, 1.79, 1.82, 1.84, 1.87, 1.9, 1.93, 1.96, 1.99, 2.02, 2.05, 2.09, 2.12, 2.15, 2.19, 2.22, 2.26, 2.29, 2.29, 2.29, 2.29, 2.28, 2.28, 2.28, 1.54, 1.54, 1.54, 1.54, 1.53, 1.53, 1.53, 1.53, 1.52, 1.52, 1.52, 1.52, 1.55, 1.58, 1.61, 1.64, 1.67, 1.7, 2.21, 2.21, 2.21, 2.21, 2.2, 2.2, 2.2, 2.19, 2.19, 2.19, 2.19, 2.18, 2.18, 2.18, 2.18, 2.17, 2.17, 2.17, 2.17, 2.16, 2.16, 2.16, 2.16, 2.15, 2.15, 2.15, 2.15, 2.14, 2.14, 2.14, 2.14, 2.13, 2.13, 2.13, 2.13, 2.12, 2.12, 2.12, 2.12, 2.12, 2.11, 2.11, 2.11, 2.11, 2.1, 1.0, 1.0, 1.0, 1.0, 1.0, 1.0, 0.99, 0.99, 0.99, 0.99, 0.99, 0.99, 0.99, 0.99, 0.99, 0.98, 0.98, 0.98, 0.98, 0.98, 0.98, 0.98, 0.98, 2.05, 2.05, 2.04, 2.04, 2.04, 2.04, 2.04, 2.03, 2.03, 2.03, 2.03, 2.02, 2.02, 2.02, 2.02, 2.01, 2.01, 2.01, 2.01, 2.0, 2.0, 2.0, 2.0, 1.99, 1.99, 1.99, 1.99, 1.98, 1.98, 1.98, 1.98, 1.97, 1.97, 1.97, 1.97, 1.96, 1.96, 1.96, 1.96, 1.95, 1.95, 1.95, 1.94, 1.94, 1.94, 1.94, 1.93, 1.93, 1.93, 1.92, 1.92, 1.92, 1.91, 1.91, 1.91, 1.9, 1.9, 1.9, 1.89, 1.89, 1.89, 1.88, 1.88, 1.88, 1.87]
9 [1.59, 1.61, 1.64, 1.66, 1.69, 1.71, 1.74, 1.77, 1.8, 1.82, 1.85, 1.88, 1.91, 1.94, 1.97, 2.0, 2.04, 2.07, 2.1, 2.13, 2.17, 2.2, 2.24, 2.24, 2.24, 2.24, 2.23, 2.23, 2.23, 1.5, 1.49, 1.49, 1.49, 1.49, 1.48, 1.48, 1.48, 1.48, 1.48, 1.47, 1.48, 1.51, 1.54, 1.56, 1.59, 1.63, 1.66, 2.17, 2.17, 2.16, 2.16, 2.16, 2.16, 2.15, 2.15, 2.15, 2.15, 2.14, 2.14, 2.14, 2.14, 2.13, 2.13, 2.13, 2.13, 2.12, 2.12, 2.12, 2.12, 2.11, 2.11, 2.11, 2.11, 2.11, 2.1, 2.1, 2.1, 2.1, 2.09, 2.09, 2.09, 2.09, 2.09, 2.08, 2.08, 2.08, 2.08, 2.08, 2.07, 2.07, 2.07, 2.07, 2.07, 0.96, 0.96, 0.96, 0.96, 0.96, 0.96, 0.96, 0.96, 0.95, 0.95, 0.95, 0.95, 0.95, 0.95, 0.95, 0.95, 0.95, 0.95, 0.95, 0.94, 0.94, 0.94, 0.94, 0.94, 2.01, 2.01, 2.01, 2.01, 2.0, 2.0, 2.0, 2.0, 2.0, 1.99, 1.99, 1.99, 1.99, 1.99, 1.98, 1.98, 1.98, 1.98, 1.97, 1.97, 1.97, 1.97, 1.97, 1.96, 1.96, 1.96, 1.96, 1.95, 1.95, 1.95, 1.95, 1.94, 1.94, 1.94, 1.94, 1.93, 1.93, 1.93, 1.93, 1.92, 1.92, 1.92, 1.92, 1.91, 1.91, 1.91, 1.91, 1.9, 1.9, 1.9, 1.9, 1.89, 1.89, 1.89, 1.88, 1.88, 1.88, 1.87, 1.87, 1.87, 1.87, 1.86, 1.86, 1.86, 1.85]
10 [1.59, 1.61, 1.64, 1.66, 1.69, 1.72, 1.75, 1.77, 1.8, 1.83, 1.86, 1.89, 1.92, 1.95, 1.98, 2.01, 2.04, 2.07, 2.11, 2.14, 2.18, 2.18, 2.17, 2.17, 2.17, 2.16, 1.43, 1.43, 1.43, 1.43, 1.43, 1.42, 1.42, 1.42, 1.42, 1.42, 1.42, 1.41, 1.43, 1.46, 1.49, 1.51, 1.54, 1.57, 1.6, 2.11, 2.11, 2.1, 2.1, 2.1, 2.1, 2.09, 2.09, 2.09, 2.09, 2.08, 2.08, 2.08, 2.08, 2.07, 2.07, 2.07, 2.07, 2.07, 2.06, 2.06, 2.06, 2.06, 2.06, 2.05, 2.05, 2.05, 2.05, 2.05, 2.04, 2.04, 2.04, 2.04, 2.04, 2.03, 2.03, 2.03, 2.03, 2.03, 2.02, 2.02, 2.02, 2.02, 2.02, 2.01, 2.01, 2.01, 2.01, 0.91, 0.91, 0.9, 0.9, 0.9, 0.9, 0.9, 0.9, 0.9, 0.9, 0.9, 0.9, 0.9, 0.9, 0.89, 0.89, 0.89, 0.89, 0.89, 0.89, 0.89, 0.89, 0.89, 0.89, 0.89, 1.96, 1.96, 1.95, 1.95, 1.95, 1.95, 1.95, 1.95, 1.94, 1.94, 1.94, 1.94, 1.94, 1.93, 1.93, 1.93, 1.93, 1.93, 1.92, 1.92, 1.92, 1.92, 1.91, 1.91, 1.91, 1.91, 1.91, 1.9, 1.9, 1.9, 1.9, 1.9, 1.89, 1.89, 1.89, 1.89, 1.88, 1.88, 1.88, 1.88, 1.87, 1.87, 1.87, 1.87, 1.86, 1.86, 1.86, 1.86, 1.85, 1.85, 1.85, 1.85, 1.84, 1.84, 1.84, 1.84, 1.83, 1.83, 1.83, 1.82, 1.82, 1.82, 1.82, 1.81]
11 [1.58, 1.61, 1.64, 1.66, 1.69, 1.71, 1.74, 1.77, 1.8, 1.82, 1.85, 1.88, 1.91, 1.94, 1.97, 2.0, 2.04, 2.07, 2.1, 2.14, 2.16, 2.16, 2.16, 2.15, 2.15, 2.15, 1.42, 1.41, 1.41, 1.41, 1.41, 1.41, 1.4, 1.4, 1.4, 1.4, 1.4, 1.4, 1.43, 1.45, 1.48, 1.51, 1.53, 1.56, 1.59, 2.09, 2.09, 2.08, 2.08, 2.08, 2.08, 2.08, 2.07, 2.07, 2.07, 2.07, 2.06, 2.06, 2.06, 2.06, 2.05, 2.05, 2.05, 2.05, 2.05, 2.04, 2.04, 2.04, 2.04, 2.04, 2.03, 2.03, 2.03, 2.03, 2.03, 2.02, 2.02, 2.02, 2.02, 2.02, 2.01, 2.01, 2.01, 2.01, 2.01, 2.0, 2.0, 2.0, 2.0, 2.0, 1.99, 1.99, 1.99, 0.89, 0.89, 0.89, 0.89, 0.88, 0.88, 0.88, 0.88, 0.88, 0.88, 0.88, 0.88, 0.88, 0.88, 0.88, 0.88, 0.87, 0.87, 0.87, 0.87, 0.87, 0.87, 0.87, 0.87, 0.87, 1.94, 1.94, 1.94, 1.93, 1.93, 1.93, 1.93, 1.93, 1.92, 1.92, 1.92, 1.92, 1.92, 1.91, 1.91, 1.91, 1.91, 1.91, 1.9, 1.9, 1.9, 1.9, 1.9, 1.89, 1.89, 1.89, 1.89, 1.89, 1.88, 1.88, 1.88, 1.88, 1.87, 1.87, 1.87, 1.87, 1.87, 1.86, 1.86, 1.86, 1.86, 1.85, 1.85, 1.85, 1.85, 1.84, 1.84, 1.84, 1.84, 1.83, 1.83, 1.83, 1.83, 1.82, 1.82, 1.82, 1.81, 1.81, 1.81, 1.81, 1.8, 1.8, 1.8, 1.79]
12 [1.58, 1.6, 1.63, 1.66, 1.68, 1.71, 1.73, 1.76, 1.79, 1.82, 1.85, 1.88, 1.9, 1.93, 1.97, 2.0, 2.03, 2.06, 2.09, 2.13, 2.12, 2.12, 2.12, 2.11, 2.11, 1.38, 1.38, 1.37, 1.37, 1.37, 1.37, 1.37, 1.36, 1.36, 1.36, 1.36, 1.37, 1.39, 1.42, 1.44, 1.47, 1.5, 1.52, 1.55, 2.05, 2.05, 2.05, 2.05, 2.04, 2.04, 2.04, 2.04, 2.03, 2.03, 2.03, 2.03, 2.03, 2.02, 2.02, 2.02, 2.02, 2.01, 2.01, 2.01, 2.01, 2.01, 2.0, 2.0, 2.0, 2.0, 2.0, 1.99, 1.99, 1.99, 1.99, 1.98, 1.98, 1.98, 1.98, 1.98, 1.97, 1.97, 1.97, 1.97, 1.97, 1.97, 1.96, 1.96, 1.96, 1.96, 1.96, 1.95, 1.95, 0.85, 0.85, 0.85, 0.85, 0.85, 0.85, 0.84, 0.84, 0.84, 0.84, 0.84, 0.84, 0.84, 0.84, 0.84, 0.84, 0.84, 0.84, 0.83, 0.83, 0.83, 0.83, 0.83, 0.83, 0.83, 0.83, 0.83, 1.9, 1.9, 1.89, 1.89, 1.89, 1.89, 1.89, 1.88, 1.88, 1.88, 1.88, 1.88, 1.87, 1.87, 1.87, 1.87, 1.87, 1.86, 1.86, 1.86, 1.86, 1.86, 1.85, 1.85, 1.85, 1.85, 1.85, 1.84, 1.84, 1.84, 1.84, 1.83, 1.83, 1.83, 1.83, 1.83, 1.82, 1.82, 1.82, 1.82, 1.81, 1.81, 1.81, 1.81, 1.8, 1.8, 1.8, 1.8, 1.79, 1.79, 1.79, 1.79, 1.78, 1.78, 1.78, 1.77, 1.77, 1.77, 1.77, 1.76, 1.76, 1.76]
13 [1.58, 1.6, 1.63, 1.65, 1.68, 1.7, 1.73, 1.76, 1.79, 1.81, 1.84, 1.87, 1.9, 1.93, 1.96, 1.99, 2.02, 2.06, 2.09, 2.08, 2.08, 2.08, 2.07, 1.34, 1.34, 1.33, 1.33, 1.33, 1.33, 1.33, 1.32, 1.32, 1.32, 1.32, 1.32, 1.34, 1.36, 1.38, 1.41, 1.43, 1.46, 1.49, 1.52, 2.01, 2.01, 2.01, 2.01, 2.0, 2.0, 2.0, 2.0, 1.99, 1.99, 1.99, 1.99, 1.98, 1.98, 1.98, 1.98, 1.98, 1.97, 1.97, 1.97, 1.97, 1.97, 1.96, 1.96, 1.96, 1.96, 1.96, 1.95, 1.95, 1.95, 1.95, 1.95, 1.94, 1.94, 1.94, 1.94, 1.94, 1.93, 1.93, 1.93, 1.93, 1.93, 1.92, 1.92, 1.92, 1.92, 1.92, 1.91, 1.91, 1.91, 0.81, 0.81, 0.81, 0.81, 0.81, 0.8, 0.8, 0.8, 0.8, 0.8, 0.8, 0.8, 0.8, 0.8, 0.8, 0.8, 0.8, 0.8, 0.79, 0.79, 0.79, 0.79, 0.79, 0.79, 0.79, 0.79, 0.79, 0.79, 1.86, 1.85, 1.85, 1.85, 1.85, 1.85, 1.85, 1.84, 1.84, 1.84, 1.84, 1.84, 1.83, 1.83, 1.83, 1.83, 1.83, 1.82, 1.82, 1.82, 1.82, 1.82, 1.81, 1.81, 1.81, 1.81, 1.8, 1.8, 1.8, 1.8, 1.8, 1.79, 1.79, 1.79, 1.79, 1.78, 1.78, 1.78, 1.78, 1.78, 1.77, 1.77, 1.77, 1.77, 1.76, 1.76, 1.76, 1.76, 1.75, 1.75, 1.75, 1.75, 1.74, 1.74, 1.74, 1.73, 1.73, 1.73, 1.73, 1.72, 1.72]
14 [1.57, 1.6, 1.62, 1.65, 1.67, 1.7, 1.73, 1.75, 1.78, 1.81, 1.84, 1.87, 1.9, 1.93, 1.96, 1.99, 2.02, 2.04, 2.04, 2.04, 2.03, 1.3, 1.3, 1.29, 1.29, 1.29, 1.29, 1.29, 1.29, 1.28, 1.28, 1.28, 1.28, 1.28, 1.31, 1.33, 1.35, 1.38, 1.4, 1.43, 1.45, 1.98, 1.97, 1.97, 1.97, 1.97, 1.96, 1.96, 1.96, 1.96, 1.95, 1.95, 1.95, 1.95, 1.95, 1.94, 1.94, 1.94, 1.94, 1.93, 1.93, 1.93, 1.93, 1.93, 1.92, 1.92, 1.92, 1.92, 1.92, 1.91, 1.91, 1.91, 1.91, 1.91, 1.9, 1.9, 1.9, 1.9, 1.9, 1.89, 1.89, 1.89, 1.89, 1.89, 1.89, 1.88, 1.88, 1.88, 1.88, 1.88, 1.87, 1.87, 1.87, 0.77, 0.77, 0.77, 0.77, 0.77, 0.76, 0.76, 0.76, 0.76, 0.76, 0.76, 0.76, 0.76, 0.76, 0.76, 0.76, 0.76, 0.76, 0.76, 0.75, 0.75, 0.75, 0.75, 0.75, 0.75, 0.75, 0.75, 0.75, 0.75, 0.75, 1.81, 1.81, 1.81, 1.81, 1.81, 1.8, 1.8, 1.8, 1.8, 1.8, 1.8, 1.79, 1.79, 1.79, 1.79, 1.79, 1.78, 1.78, 1.78, 1.78, 1.78, 1.77, 1.77, 1.77, 1.77, 1.77, 1.76, 1.76, 1.76, 1.76, 1.75, 1.75, 1.75, 1.75, 1.75, 1.74, 1.74, 1.74, 1.74, 1.73, 1.73, 1.73, 1.73, 1.72, 1.72, 1.72, 1.72, 1.71, 1.71, 1.71, 1.71, 1.7, 1.7, 1.7, 1.7, 1.69, 1.69, 1.69, 1.68]
15 [1.57, 1.59, 1.62, 1.64, 1.67, 1.7, 1.72, 1.75, 1.78, 1.8, 1.83, 1.86, 1.89, 1.92, 1.95, 1.98, 2.01, 2.0, 2.0, 2.0, 1.26, 1.26, 1.26, 1.25, 1.25, 1.25, 1.25, 1.25, 1.24, 1.24, 1.24, 1.24, 1.26, 1.28, 1.3, 1.32, 1.35, 1.37, 1.4, 1.42, 1.94, 1.94, 1.93, 1.93, 1.93, 1.93, 1.92, 1.92, 1.92, 1.92, 1.92, 1.91, 1.91, 1.91, 1.91, 1.9, 1.9, 1.9, 1.9, 1.9, 1.89, 1.89, 1.89, 1.89, 1.89, 1.88, 1.88, 1.88, 1.88, 1.88, 1.87, 1.87, 1.87, 1.87, 1.87, 1.86, 1.86, 1.86, 1.86, 1.86, 1.85, 1.85, 1.85, 1.85, 1.85, 1.85, 1.84, 1.84, 1.84, 1.84, 1.84, 1.83, 1.83, 0.73, 0.73, 0.73, 0.73, 0.73, 0.73, 0.73, 0.73, 0.73, 0.72, 0.72, 0.72, 0.72, 0.72, 0.72, 0.72, 0.72, 0.72, 0.72, 0.72, 0.72, 0.72, 0.72, 0.71, 0.71, 0.71, 0.71, 0.71, 0.71, 0.71, 0.71, 1.78, 1.77, 1.77, 1.77, 1.77, 1.77, 1.76, 1.76, 1.76, 1.76, 1.76, 1.76, 1.75, 1.75, 1.75, 1.75, 1.75, 1.74, 1.74, 1.74, 1.74, 1.74, 1.73, 1.73, 1.73, 1.73, 1.73, 1.72, 1.72, 1.72, 1.72, 1.71, 1.71, 1.71, 1.71, 1.71, 1.7, 1.7, 1.7, 1.7, 1.69, 1.69, 1.69, 1.69, 1.68, 1.68, 1.68, 1.68, 1.67, 1.67, 1.67, 1.67, 1.66, 1.66, 1.66, 1.66, 1.65, 1.65]
16 [1.56, 1.59, 1.61, 1.64, 1.67, 1.69, 1.72, 1.75, 1.77, 1.8, 1.83, 1.86, 1.89, 1.92, 1.95, 1.97, 1.97, 1.96, 1.22, 1.22, 1.22, 1.22, 1.22, 1.21, 1.21, 1.21, 1.21, 1.21, 1.21, 1.2, 1.21, 1.23, 1.25, 1.27, 1.29, 1.32, 1.34, 1.36, 1.39, 1.9, 1.9, 1.9, 1.89, 1.89, 1.89, 1.89, 1.89, 1.88, 1.88, 1.88, 1.88, 1.87, 1.87, 1.87, 1.87, 1.87, 1.86, 1.86, 1.86, 1.86, 1.86, 1.85, 1.85, 1.85, 1.85, 1.85, 1.84, 1.84, 1.84, 1.84, 1.84, 1.83, 1.83, 1.83, 1.83, 1.83, 1.82, 1.82, 1.82, 1.82, 1.82, 1.82, 1.81, 1.81, 1.81, 1.81, 1.81, 1.8, 1.8, 1.8, 1.8, 1.8, 1.8, 0.69, 0.69, 0.69, 0.69, 0.69, 0.69, 0.69, 0.69, 0.69, 0.69, 0.69, 0.69, 0.69, 0.69, 0.68, 0.68, 0.68, 0.68, 0.68, 0.68, 0.68, 0.68, 0.68, 0.68, 0.68, 0.68, 0.68, 0.68, 0.68, 0.67, 0.67, 0.67, 0.67, 1.74, 1.73, 1.73, 1.73, 1.73, 1.73, 1.73, 1.72, 1.72, 1.72, 1.72, 1.72, 1.71, 1.71, 1.71, 1.71, 1.71, 1.7, 1.7, 1.7, 1.7, 1.7, 1.69, 1.69, 1.69, 1.69, 1.69, 1.68, 1.68, 1.68, 1.68, 1.68, 1.67, 1.67, 1.67, 1.67, 1.66, 1.66, 1.66, 1.66, 1.66, 1.65, 1.65, 1.65, 1.65, 1.64, 1.64, 1.64, 1.64, 1.63, 1.63, 1.63, 1.63, 1.62, 1.62, 1.62]
17 [1.56, 1.58, 1.61, 1.64, 1.66, 1.69, 1.71, 1.74, 1.77, 1.8, 1.82, 1.85, 1.88, 1.91, 1.93, 1.93, 1.18, 1.18, 1.18, 1.18, 1.18, 1.18, 1.17, 1.17, 1.17, 1.17, 1.17, 1.16, 1.16, 1.18, 1.2, 1.22, 1.24, 1.27, 1.29, 1.31, 1.33, 1.36, 1.86, 1.86, 1.86, 1.86, 1.85, 1.85, 1.85, 1.85, 1.84, 1.84, 1.84, 1.84, 1.84, 1.83, 1.83, 1.83, 1.83, 1.82, 1.82, 1.82, 1.82, 1.82, 1.81, 1.81, 1.81, 1.81, 1.81, 1.8, 1.8, 1.8, 1.8, 1.8, 1.8, 1.79, 1.79, 1.79, 1.79, 1.79, 1.78, 1.78, 1.78, 1.78, 1.78, 1.78, 1.77, 1.77, 1.77, 1.77, 1.77, 1.77, 1.76, 1.76, 1.76, 1.76, 1.76, 0.65, 0.65, 0.65, 0.65, 0.65, 0.65, 0.65, 0.65, 0.65, 0.65, 0.65, 0.65, 0.65, 0.65, 0.65, 0.65, 0.64, 0.64, 0.64, 0.64, 0.64, 0.64, 0.64, 0.64, 0.64, 0.64, 0.64, 0.64, 0.64, 0.64, 0.64, 0.63, 0.63, 0.63, 0.63, 1.69, 1.69, 1.69, 1.69, 1.69, 1.69, 1.68, 1.68, 1.68, 1.68, 1.68, 1.67, 1.67, 1.67, 1.67, 1.67, 1.67, 1.66, 1.66, 1.66, 1.66, 1.66, 1.65, 1.65, 1.65, 1.65, 1.65, 1.64, 1.64, 1.64, 1.64, 1.63, 1.63, 1.63, 1.63, 1.63, 1.62, 1.62, 1.62, 1.62, 1.61, 1.61, 1.61, 1.61, 1.6, 1.6, 1.6, 1.6, 1.59, 1.59, 1.59, 1.59, 1.58, 1.58]
18 [1.56, 1.58, 1.61, 1.63, 1.66, 1.68, 1.71, 1.74, 1.76, 1.79, 1.82, 1.85, 1.88, 1.89, 1.14, 1.14, 1.14, 1.14, 1.14, 1.13, 1.13, 1.13, 1.13, 1.13, 1.13, 1.12, 1.12, 1.14, 1.16, 1.18, 1.2, 1.22, 1.24, 1.26, 1.28, 1.3, 1.82, 1.82, 1.82, 1.82, 1.81, 1.81, 1.81, 1.81, 1.81, 1.8, 1.8, 1.8, 1.8, 1.79, 1.79, 1.79, 1.79, 1.79, 1.78, 1.78, 1.78, 1.78, 1.78, 1.77, 1.77, 1.77, 1.77, 1.77, 1.76, 1.76, 1.76, 1.76, 1.76, 1.76, 1.75, 1.75, 1.75, 1.75, 1.75, 1.74, 1.74, 1.74, 1.74, 1.74, 1.74, 1.73, 1.73, 1.73, 1.73, 1.73, 1.73, 1.72, 1.72, 1.72, 1.72, 1.72, 1.72, 0.61, 0.61, 0.61, 0.61, 0.61, 0.61, 0.61, 0.61, 0.61, 0.61, 0.61, 0.61, 0.61, 0.61, 0.61, 0.6, 0.6, 0.6, 0.6, 0.6, 0.6, 0.6, 0.6, 0.6, 0.6, 0.6, 0.6, 0.6, 0.6, 0.6, 0.6, 0.6, 0.59, 0.59, 0.59, 0.59, 0.59, 1.65, 1.65, 1.65, 1.65, 1.64, 1.64, 1.64, 1.64, 1.64, 1.64, 1.63, 1.63, 1.63, 1.63, 1.63, 1.62, 1.62, 1.62, 1.62, 1.62, 1.61, 1.61, 1.61, 1.61, 1.61, 1.6, 1.6, 1.6, 1.6, 1.6, 1.59, 1.59, 1.59, 1.59, 1.59, 1.58, 1.58, 1.58, 1.58, 1.57, 1.57, 1.57, 1.57, 1.56, 1.56, 1.56, 1.56, 1.55, 1.55, 1.55, 1.55, 1.54]
19 [1.55, 1.58, 1.6, 1.63, 1.65, 1.68, 1.7, 1.73, 1.76, 1.79, 1.81, 1.84, 1.1, 1.1, 1.1, 1.1, 1.1, 1.1, 1.09, 1.09, 1.09, 1.09, 1.09, 1.08, 1.08, 1.1, 1.11, 1.13, 1.15, 1.17, 1.19, 1.21, 1.23, 1.25, 1.27, 1.78, 1.78, 1.78, 1.78, 1.78, 1.77, 1.77, 1.77, 1.77, 1.76, 1.76, 1.76, 1.76, 1.76, 1.75, 1.75, 1.75, 1.75, 1.75, 1.74, 1.74, 1.74, 1.74, 1.74, 1.73, 1.73, 1.73, 1.73, 1.73, 1.72, 1.72, 1.72, 1.72, 1.72, 1.72, 1.71, 1.71, 1.71, 1.71, 1.71, 1.7, 1.7, 1.7, 1.7, 1.7, 1.7, 1.69, 1.69, 1.69, 1.69, 1.69, 1.69, 1.68, 1.68, 1.68, 1.68, 1.68, 1.68, 1.67, 0.57, 0.57, 0.57, 0.57, 0.57, 0.57, 0.57, 0.57, 0.57, 0.57, 0.57, 0.57, 0.57, 0.57, 0.57, 0.57, 0.56, 0.56, 0.56, 0.56, 0.56, 0.56, 0.56, 0.56, 0.56, 0.56, 0.56, 0.56, 0.56, 0.56, 0.56, 0.56, 0.56, 0.56, 0.55, 0.55, 0.55, 0.55, 0.55, 1.61, 1.61, 1.61, 1.6, 1.6, 1.6, 1.6, 1.6, 1.59, 1.59, 1.59, 1.59, 1.59, 1.59, 1.58, 1.58, 1.58, 1.58, 1.58, 1.57, 1.57, 1.57, 1.57, 1.57, 1.56, 1.56, 1.56, 1.56, 1.56, 1.55, 1.55, 1.55, 1.55, 1.54, 1.54, 1.54, 1.54, 1.54, 1.53, 1.53, 1.53, 1.53, 1.52, 1.52, 1.52, 1.52, 1.51, 1.51, 1.51]
20 [1.55, 1.57, 1.6, 1.62, 1.65, 1.67, 1.7, 1.73, 1.75, 1.78, 1.81, 1.07, 1.06, 1.06, 1.06, 1.06, 1.06, 1.05, 1.05, 1.05, 1.05, 1.05, 1.05, 1.06, 1.07, 1.09, 1.11, 1.13, 1.15, 1.16, 1.18, 1.2, 1.22, 1.75, 1.75, 1.74, 1.74, 1.74, 1.74, 1.74, 1.73, 1.73, 1.73, 1.73, 1.72, 1.72, 1.72, 1.72, 1.72, 1.71, 1.71, 1.71, 1.71, 1.71, 1.7, 1.7, 1.7, 1.7, 1.7, 1.7, 1.69, 1.69, 1.69, 1.69, 1.69, 1.68, 1.68, 1.68, 1.68, 1.68, 1.68, 1.67, 1.67, 1.67, 1.67, 1.67, 1.67, 1.66, 1.66, 1.66, 1.66, 1.66, 1.66, 1.65, 1.65, 1.65, 1.65, 1.65, 1.65, 1.64, 1.64, 1.64, 1.64, 1.64, 0.54, 0.54, 0.54, 0.54, 0.53, 0.53, 0.53, 0.53, 0.53, 0.53, 0.53, 0.53, 0.53, 0.53, 0.53, 0.53, 0.53, 0.53, 0.53, 0.53, 0.53, 0.53, 0.53, 0.52, 0.52, 0.52, 0.52, 0.52, 0.52, 0.52, 0.52, 0.52, 0.52, 0.52, 0.52, 0.52, 0.52, 0.52, 0.52, 0.52, 0.52, 0.52, 1.57, 1.57, 1.56, 1.56, 1.56, 1.56, 1.56, 1.56, 1.55, 1.55, 1.55, 1.55, 1.55, 1.54, 1.54, 1.54, 1.54, 1.54, 1.54, 1.53, 1.53, 1.53, 1.53, 1.53, 1.52, 1.52, 1.52, 1.52, 1.51, 1.51, 1.51, 1.51, 1.51, 1.5, 1.5, 1.5, 1.5, 1.49, 1.49, 1.49, 1.49, 1.49, 1.48, 1.48, 1.48, 1.48]
21 [1.54, 1.57, 1.59, 1.62, 1.64, 1.67, 1.7, 1.72, 1.03, 1.03, 1.03, 1.02, 1.02, 1.02, 1.02, 1.02, 1.02, 1.01, 1.01, 1.01, 1.01, 1.02, 1.03, 1.05, 1.07, 1.08, 1.1, 1.12, 1.14, 1.16, 1.18, 1.2, 1.71, 1.71, 1.71, 1.7, 1.7, 1.7, 1.7, 1.7, 1.69, 1.69, 1.69, 1.69, 1.69, 1.68, 1.68, 1.68, 1.68, 1.68, 1.67, 1.67, 1.67, 1.67, 1.67, 1.66, 1.66, 1.66, 1.66, 1.66, 1.65, 1.65, 1.65, 1.65, 1.65, 1.65, 1.64, 1.64, 1.64, 1.64, 1.64, 1.64, 1.63, 1.63, 1.63, 1.63, 1.63, 1.63, 1.62, 1.62, 1.62, 1.62, 1.62, 1.62, 1.61, 1.61, 1.61, 1.61, 1.61, 1.61, 1.6, 1.6, 1.6, 1.6, 0.5, 0.5, 0.5, 0.5, 0.5, 0.5, 0.5, 0.5, 0.5, 0.49, 0.49, 0.49, 0.49, 0.49, 0.49, 0.49, 0.49, 0.49, 0.49, 0.49, 0.49, 0.49, 0.49, 0.49, 0.49, 0.49, 0.49, 0.49, 0.49, 0.49, 0.48, 0.48, 0.48, 0.48, 0.48, 0.48, 0.48, 0.48, 0.48, 0.48, 0.48, 0.48, 0.48, 0.48, 0.48, 1.53, 1.53, 1.52, 1.52, 1.52, 1.52, 1.52, 1.51, 1.51, 1.51, 1.51, 1.51, 1.51, 1.5, 1.5, 1.5, 1.5, 1.5, 1.49, 1.49, 1.49, 1.49, 1.49, 1.48, 1.48, 1.48, 1.48, 1.48, 1.47, 1.47, 1.47, 1.47, 1.47, 1.46, 1.46, 1.46, 1.46, 1.45, 1.45, 1.45, 1.45, 1.44, 1.44]
22 [1.54, 1.56, 1.59, 1.61, 1.64, 1.67, 0.99, 0.99, 0.99, 0.98, 0.98, 0.98, 0.98, 0.98, 0.97, 0.97, 0.97, 0.97, 0.97, 0.98, 1.0, 1.01, 1.03, 1.04, 1.06, 1.08, 1.1, 1.11, 1.13, 1.15, 1.67, 1.67, 1.67, 1.67, 1.66, 1.66, 1.66, 1.66, 1.66, 1.65, 1.65, 1.65, 1.65, 1.64, 1.64, 1.64, 1.64, 1.64, 1.64, 1.63, 1.63, 1.63, 1.63, 1.63, 1.62, 1.62, 1.62, 1.62, 1.62, 1.61, 1.61, 1.61, 1.61, 1.61, 1.61, 1.6, 1.6, 1.6, 1.6, 1.6, 1.6, 1.59, 1.59, 1.59, 1.59, 1.59, 1.59, 1.58, 1.58, 1.58, 1.58, 1.58, 1.58, 1.58, 1.57, 1.57, 1.57, 1.57, 1.57, 1.57, 1.56, 1.56, 1.56, 1.56, 0.46, 0.46, 0.46, 0.46, 0.46, 0.46, 0.46, 0.46, 0.46, 0.46, 0.45, 0.45, 0.45, 0.45, 0.45, 0.45, 0.45, 0.45, 0.45, 0.45, 0.45, 0.45, 0.45, 0.45, 0.45, 0.45, 0.45, 0.45, 0.45, 0.45, 0.45, 0.45, 0.44, 0.44, 0.44, 0.44, 0.44, 0.44, 0.44, 0.44, 0.44, 0.44, 0.44, 0.44, 0.44, 0.44, 0.44, 0.44, 0.44, 1.48, 1.48, 1.48, 1.48, 1.47, 1.47, 1.47, 1.47, 1.47, 1.47, 1.46, 1.46, 1.46, 1.46, 1.46, 1.45, 1.45, 1.45, 1.45, 1.45, 1.45, 1.44, 1.44, 1.44, 1.44, 1.43, 1.43, 1.43, 1.43, 1.43, 1.42, 1.42, 1.42, 1.42, 1.41, 1.41, 1.41, 1.41, 1.41]
23 [1.54, 1.56, 1.59, 1.61, 0.95, 0.95, 0.94, 0.94, 0.94, 0.94, 0.94, 0.93, 0.93, 0.93, 0.93, 0.93, 0.93, 0.94, 0.96, 0.97, 0.99, 1.01, 1.02, 1.04, 1.06, 1.07, 1.09, 1.11, 1.63, 1.63, 1.63, 1.63, 1.63, 1.62, 1.62, 1.62, 1.62, 1.61, 1.61, 1.61, 1.61, 1.61, 1.6, 1.6, 1.6, 1.6, 1.6, 1.59, 1.59, 1.59, 1.59, 1.59, 1.58, 1.58, 1.58, 1.58, 1.58, 1.58, 1.57, 1.57, 1.57, 1.57, 1.57, 1.57, 1.56, 1.56, 1.56, 1.56, 1.56, 1.56, 1.55, 1.55, 1.55, 1.55, 1.55, 1.55, 1.54, 1.54, 1.54, 1.54, 1.54, 1.54, 1.54, 1.53, 1.53, 1.53, 1.53, 1.53, 1.53, 1.52, 1.52, 1.52, 1.52, 1.52, 0.42, 0.42, 0.42, 0.42, 0.42, 0.42, 0.42, 0.42, 0.42, 0.41, 0.41, 0.41, 0.41, 0.41, 0.41, 0.41, 0.41, 0.41, 0.41, 0.41, 0.41, 0.41, 0.41, 0.41, 0.41, 0.41, 0.41, 0.41, 0.41, 0.41, 0.41, 0.41, 0.41, 0.4, 0.4, 0.4, 0.4, 0.4, 0.4, 0.4, 0.4, 0.4, 0.4, 0.4, 0.4, 0.4, 0.4, 0.4, 0.4, 0.4, 0.4, 0.4, 0.4, 1.44, 1.43, 1.43, 1.43, 1.43, 1.43, 1.43, 1.42, 1.42, 1.42, 1.42, 1.42, 1.41, 1.41, 1.41, 1.41, 1.41, 1.41, 1.4, 1.4, 1.4, 1.4, 1.4, 1.39, 1.39, 1.39, 1.39, 1.38, 1.38, 1.38, 1.38, 1.38, 1.37, 1.37, 1.37]
24 [1.53, 0.91, 0.91, 0.91, 0.9, 0.9, 0.9, 0.9, 0.9, 0.89, 0.89, 0.89, 0.89, 0.89, 0.9, 0.91, 0.92, 0.94, 0.95, 0.97, 0.98, 1.0, 1.02, 1.03, 1.05, 1.07, 1.08, 1.59, 1.59, 1.59, 1.59, 1.59, 1.58, 1.58, 1.58, 1.58, 1.57, 1.57, 1.57, 1.57, 1.57, 1.56, 1.56, 1.56, 1.56, 1.56, 1.56, 1.55, 1.55, 1.55, 1.55, 1.55, 1.54, 1.54, 1.54, 1.54, 1.54, 1.54, 1.53, 1.53, 1.53, 1.53, 1.53, 1.53, 1.52, 1.52, 1.52, 1.52, 1.52, 1.52, 1.51, 1.51, 1.51, 1.51, 1.51, 1.51, 1.51, 1.5, 1.5, 1.5, 1.5, 1.5, 1.5, 1.49, 1.49, 1.49, 1.49, 1.49, 1.49, 1.49, 1.48, 1.48, 1.48, 1.48, 1.48, 0.38, 0.38, 0.38, 0.38, 0.38, 0.38, 0.38, 0.38, 0.38, 0.38, 0.38, 0.38, 0.37, 0.37, 0.37, 0.37, 0.37, 0.37, 0.37, 0.37, 0.37, 0.37, 0.37, 0.37, 0.37, 0.37, 0.37, 0.37, 0.37, 0.37, 0.37, 0.37, 0.37, 0.37, 0.37, 0.37, 0.37, 0.37, 0.37, 0.36, 0.36, 0.36, 0.36, 0.36, 0.36, 0.36, 0.36, 0.36, 0.36, 0.36, 0.36, 0.36, 0.36, 0.36, 0.36, 0.36, 0.36, 1.39, 1.39, 1.39, 1.39, 1.38, 1.38, 1.38, 1.38, 1.38, 1.38, 1.37, 1.37, 1.37, 1.37, 1.37, 1.36, 1.36, 1.36, 1.36, 1.36, 1.35, 1.35, 1.35, 1.35, 1.34, 1.34, 1.34, 1.34, 1.34, 1.33]
25 [0.87, 0.87, 0.87, 0.86, 0.86, 0.86, 0.86, 0.86, 0.86, 0.85, 0.85, 0.85, 0.86, 0.88, 0.89, 0.9, 0.92, 0.93, 0.95, 0.96, 0.98, 1.0, 1.01, 1.03, 1.04, 1.56, 1.56, 1.55, 1.55, 1.55, 1.55, 1.55, 1.54, 1.54, 1.54, 1.54, 1.54, 1.53, 1.53, 1.53, 1.53, 1.53, 1.52, 1.52, 1.52, 1.52, 1.52, 1.51, 1.51, 1.51, 1.51, 1.51, 1.51, 1.5, 1.5, 1.5, 1.5, 1.5, 1.5, 1.49, 1.49, 1.49, 1.49, 1.49, 1.49, 1.48, 1.48, 1.48, 1.48, 1.48, 1.48, 1.48, 1.47, 1.47, 1.47, 1.47, 1.47, 1.47, 1.46, 1.46, 1.46, 1.46, 1.46, 1.46, 1.46, 1.45, 1.45, 1.45, 1.45, 1.45, 1.45, 1.45, 1.44, 1.44, 1.44, 0.34, 0.34, 0.34, 0.34, 0.34, 0.34, 0.34, 0.34, 0.34, 0.34, 0.34, 0.34, 0.34, 0.34, 0.34, 0.34, 0.34, 0.34, 0.34, 0.34, 0.34, 0.34, 0.34, 0.33, 0.33, 0.33, 0.33, 0.33, 0.33, 0.33, 0.33, 0.33, 0.33, 0.33, 0.33, 0.33, 0.33, 0.33, 0.33, 0.33, 0.33, 0.33, 0.33, 0.33, 0.33, 0.33, 0.33, 0.33, 0.33, 0.33, 0.33, 0.32, 0.32, 0.32, 0.32, 0.32, 0.32, 0.32, 0.32, 0.32, 0.32, 0.32, 0.32, 1.35, 1.34, 1.34, 1.34, 1.34, 1.34, 1.34, 1.33, 1.33, 1.33, 1.33, 1.33, 1.32, 1.32, 1.32, 1.32, 1.32, 1.31, 1.31, 1.31, 1.31, 1.3, 1.3, 1.3]
26 [0.83, 0.82, 0.82, 0.82, 0.82, 0.82, 0.82, 0.81, 0.81, 0.82, 0.83, 0.85, 0.86, 0.87, 0.89, 0.9, 0.91, 0.93, 0.94, 0.96, 0.97, 0.99, 1.01, 1.52, 1.52, 1.52, 1.52, 1.51, 1.51, 1.51, 1.51, 1.51, 1.5, 1.5, 1.5, 1.5, 1.5, 1.49, 1.49, 1.49, 1.49, 1.49, 1.48, 1.48, 1.48, 1.48, 1.48, 1.47, 1.47, 1.47, 1.47, 1.47, 1.47, 1.46, 1.46, 1.46, 1.46, 1.46, 1.46, 1.45, 1.45, 1.45, 1.45, 1.45, 1.45, 1.45, 1.44, 1.44, 1.44, 1.44, 1.44, 1.44, 1.43, 1.43, 1.43, 1.43, 1.43, 1.43, 1.43, 1.42, 1.42, 1.42, 1.42, 1.42, 1.42, 1.42, 1.41, 1.41, 1.41, 1.41, 1.41, 1.41, 1.41, 1.41, 1.4, 0.3, 0.3, 0.3, 0.3, 0.3, 0.3, 0.3, 0.3, 0.3, 0.3, 0.3, 0.3, 0.3, 0.3, 0.3, 0.3, 0.3, 0.3, 0.3, 0.3, 0.3, 0.3, 0.3, 0.3, 0.3, 0.3, 0.3, 0.3, 0.3, 0.3, 0.3, 0.3, 0.29, 0.29, 0.29, 0.29, 0.29, 0.29, 0.29, 0.29, 0.29, 0.29, 0.29, 0.29, 0.29, 0.29, 0.29, 0.29, 0.29, 0.29, 0.29, 0.29, 0.29, 0.29, 0.29, 0.29, 0.29, 0.29, 0.29, 0.29, 0.29, 0.29, 0.28, 0.28, 0.28, 0.28, 0.28, 0.28, 0.28, 0.28, 1.3, 1.3, 1.29, 1.29, 1.29, 1.29, 1.29, 1.28, 1.28, 1.28, 1.28, 1.28, 1.27, 1.27, 1.27, 1.27, 1.27]
27 [0.78, 0.78, 0.78, 0.78, 0.77, 0.77, 0.78, 0.79, 0.8, 0.81, 0.83, 0.84, 0.85, 0.87, 0.88, 0.9, 0.91, 0.92, 0.94, 0.95, 0.97, 1.48, 1.48, 1.48, 1.48, 1.47, 1.47, 1.47, 1.47, 1.47, 1.46, 1.46, 1.46, 1.46, 1.46, 1.45, 1.45, 1.45, 1.45, 1.45, 1.44, 1.44, 1.44, 1.44, 1.44, 1.44, 1.43, 1.43, 1.43, 1.43, 1.43, 1.43, 1.42, 1.42, 1.42, 1.42, 1.42, 1.42, 1.41, 1.41, 1.41, 1.41, 1.41, 1.41, 1.4, 1.4, 1.4, 1.4, 1.4, 1.4, 1.4, 1.39, 1.39, 1.39, 1.39, 1.39, 1.39, 1.39, 1.38, 1.38, 1.38, 1.38, 1.38, 1.38, 1.38, 1.38, 1.37, 1.37, 1.37, 1.37, 1.37, 1.37, 1.37, 1.36, 1.36, 1.36, 0.26, 0.26, 0.26, 0.26, 0.26, 0.26, 0.26, 0.26, 0.26, 0.26, 0.26, 0.26, 0.26, 0.26, 0.26, 0.26, 0.26, 0.26, 0.26, 0.26, 0.26, 0.26, 0.26, 0.26, 0.26, 0.26, 0.26, 0.26, 0.26, 0.26, 0.26, 0.26, 0.26, 0.25, 0.25, 0.25, 0.25, 0.25, 0.25, 0.25, 0.25, 0.25, 0.25, 0.25, 0.25, 0.25, 0.25, 0.25, 0.25, 0.25, 0.25, 0.25, 0.25, 0.25, 0.25, 0.25, 0.25, 0.25, 0.25, 0.25, 0.25, 0.25, 0.25, 0.25, 0.25, 0.25, 0.25, 0.24, 0.24, 0.24, 0.24, 0.24, 0.24, 0.24, 0.24, 0.24, 0.24, 1.25, 1.24, 1.24, 1.24, 1.24, 1.24, 1.23, 1.23, 1.23]
28 [0.73, 0.73, 0.73, 0.74, 0.75, 0.76, 0.77, 0.79, 0.8, 0.81, 0.82, 0.84, 0.85, 0.86, 0.88, 0.89, 0.9, 0.92, 1.45, 1.44, 1.44, 1.44, 1.44, 1.43, 1.43, 1.43, 1.43, 1.43, 1.42, 1.42, 1.42, 1.42, 1.42, 1.41, 1.41, 1.41, 1.41, 1.41, 1.4, 1.4, 1.4, 1.4, 1.4, 1.4, 1.39, 1.39, 1.39, 1.39, 1.39, 1.39, 1.38, 1.38, 1.38, 1.38, 1.38, 1.38, 1.38, 1.37, 1.37, 1.37, 1.37, 1.37, 1.37, 1.36, 1.36, 1.36, 1.36, 1.36, 1.36, 1.36, 1.35, 1.35, 1.35, 1.35, 1.35, 1.35, 1.35, 1.35, 1.34, 1.34, 1.34, 1.34, 1.34, 1.34, 1.34, 1.33, 1.33, 1.33, 1.33, 1.33, 1.33, 1.33, 1.33, 1.32, 1.32, 1.32, 1.32, 0.22, 0.22, 0.22, 0.22, 0.22, 0.22, 0.22, 0.22, 0.22, 0.22, 0.22, 0.22, 0.22, 0.22, 0.22, 0.22, 0.22, 0.22, 0.22, 0.22, 0.22, 0.22, 0.22, 0.22, 0.22, 0.22, 0.22, 0.22, 0.22, 0.22, 0.22, 0.22, 0.22, 0.22, 0.22, 0.22, 0.21, 0.21, 0.21, 0.21, 0.21, 0.21, 0.21, 0.21, 0.21, 0.21, 0.21, 0.21, 0.21, 0.21, 0.21, 0.21, 0.21, 0.21, 0.21, 0.21, 0.21, 0.21, 0.21, 0.21, 0.21, 0.21, 0.21, 0.21, 0.21, 0.21, 0.21, 0.21, 0.21, 0.21, 0.21, 0.21, 0.21, 0.21, 0.21, 0.2, 0.2, 0.2, 0.2, 0.2, 0.2, 0.2, 0.2, 0.2, 0.2]
29 [0.7, 0.71, 0.72, 0.73, 0.75, 0.76, 0.77, 0.78, 0.79, 0.81, 0.82, 0.83, 0.84, 0.86, 0.87, 0.89, 1.41, 1.41, 1.4, 1.4, 1.4, 1.4, 1.4, 1.39, 1.39, 1.39, 1.39, 1.39, 1.38, 1.38, 1.38, 1.38, 1.38, 1.37, 1.37, 1.37, 1.37, 1.37, 1.36, 1.36, 1.36, 1.36, 1.36, 1.36, 1.35, 1.35, 1.35, 1.35, 1.35, 1.35, 1.34, 1.34, 1.34, 1.34, 1.34, 1.34, 1.34, 1.33, 1.33, 1.33, 1.33, 1.33, 1.33, 1.33, 1.32, 1.32, 1.32, 1.32, 1.32, 1.32, 1.32, 1.31, 1.31, 1.31, 1.31, 1.31, 1.31, 1.31, 1.3, 1.3, 1.3, 1.3, 1.3, 1.3, 1.3, 1.3, 1.29, 1.29, 1.29, 1.29, 1.29, 1.29, 1.29, 1.29, 1.28, 1.28, 1.28, 1.28, 0.18, 0.18, 0.18, 0.18, 0.18, 0.18, 0.18, 0.18, 0.18, 0.18, 0.18, 0.18, 0.18, 0.18, 0.18, 0.18, 0.18, 0.18, 0.18, 0.18, 0.18, 0.18, 0.18, 0.18, 0.18, 0.18, 0.18, 0.18, 0.18, 0.18, 0.18, 0.18, 0.18, 0.18, 0.18, 0.18, 0.18, 0.18, 0.18, 0.18, 0.18, 0.18, 0.18, 0.18, 0.18, 0.18, 0.18, 0.18, 0.18, 0.18, 0.18, 0.18, 0.17, 0.17, 0.17, 0.17, 0.17, 0.17, 0.17, 0.17, 0.17, 0.17, 0.17, 0.17, 0.17, 0.17, 0.17, 0.17, 0.17, 0.17, 0.17, 0.17, 0.17, 0.17, 0.17, 0.17, 0.17, 0.17, 0.17, 0.17, 0.17, 0.17, 0.17, 0.17]
30 [0.7, 0.71, 0.72, 0.74, 0.75, 0.76, 0.77, 0.78, 0.8, 0.81, 0.82, 0.83, 0.85, 0.86, 1.38, 1.38, 1.38, 1.37, 1.37, 1.37, 1.37, 1.37, 1.36, 1.36, 1.36, 1.36, 1.36, 1.35, 1.35, 1.35, 1.35, 1.35, 1.34, 1.34, 1.34, 1.34, 1.34, 1.34, 1.33, 1.33, 1.33, 1.33, 1.33, 1.33, 1.33, 1.32, 1.32, 1.32, 1.32, 1.32, 1.32, 1.32, 1.31, 1.31, 1.31, 1.31, 1.31, 1.31, 1.31, 1.3, 1.3, 1.3, 1.3, 1.3, 1.3, 1.3, 1.3, 1.29, 1.29, 1.29, 1.29, 1.29, 1.29, 1.29, 1.29, 1.28, 1.28, 1.28, 1.28, 1.28, 1.28, 1.28, 1.28, 1.27, 1.27, 1.27, 1.27, 1.27, 1.27, 1.27, 1.27, 1.27, 1.26, 1.26, 1.26, 1.26, 1.26, 1.26, 0.17, 0.17, 0.17, 0.17, 0.17, 0.17, 0.17, 0.17, 0.17, 0.17, 0.17, 0.17, 0.17, 0.17, 0.17, 0.17, 0.17, 0.17, 0.17, 0.17, 0.17, 0.17, 0.17, 0.17, 0.17, 0.17, 0.17, 0.17, 0.16, 0.16, 0.16, 0.16, 0.16, 0.16, 0.16, 0.16, 0.16, 0.16, 0.16, 0.16, 0.16, 0.16, 0.16, 0.16, 0.16, 0.16, 0.16, 0.16, 0.16, 0.16, 0.16, 0.16, 0.16, 0.16, 0.16, 0.16, 0.16, 0.16, 0.16, 0.16, 0.16, 0.16, 0.16, 0.16, 0.16, 0.16, 0.16, 0.16, 0.16, 0.16, 0.16, 0.16, 0.16, 0.16, 0.16, 0.15, 0.15, 0.15, 0.15, 0.15, 0.15, 0.15, 0.15, 0.15]
31 [0.71, 0.72, 0.73, 0.74, 0.76, 0.77, 0.78, 0.79, 0.8, 0.82, 0.83, 0.84, 1.36, 1.36, 1.36, 1.36, 1.36, 1.36, 1.35, 1.35, 1.35, 1.35, 1.35, 1.34, 1.34, 1.34, 1.34, 1.34, 1.34, 1.33, 1.33, 1.33, 1.33, 1.33, 1.33, 1.33, 1.32, 1.32, 1.32, 1.32, 1.32, 1.32, 1.32, 1.31, 1.31, 1.31, 1.31, 1.31, 1.31, 1.31, 1.31, 1.3, 1.3, 1.3, 1.3, 1.3, 1.3, 1.3, 1.3, 1.3, 1.29, 1.29, 1.29, 1.29, 1.29, 1.29, 1.29, 1.29, 1.29, 1.28, 1.28, 1.28, 1.28, 1.28, 1.28, 1.28, 1.28, 1.28, 1.27, 1.27, 1.27, 1.27, 1.27, 1.27, 1.27, 1.27, 1.27, 1.27, 1.26, 1.26, 1.26, 1.26, 1.26, 1.26, 1.26, 1.26, 1.26, 1.26, 0.17, 0.17, 0.17, 0.17, 0.17, 0.17, 0.17, 0.17, 0.17, 0.17, 0.17, 0.17, 0.17, 0.17, 0.17, 0.17, 0.17, 0.17, 0.17, 0.17, 0.17, 0.17, 0.17, 0.17, 0.17, 0.17, 0.17, 0.17, 0.17, 0.17, 0.17, 0.17, 0.17, 0.17, 0.17, 0.17, 0.17, 0.17, 0.17, 0.17, 0.17, 0.17, 0.17, 0.17, 0.16, 0.16, 0.16, 0.16, 0.16, 0.16, 0.16, 0.16, 0.16, 0.16, 0.16, 0.16, 0.16, 0.16, 0.16, 0.16, 0.16, 0.16, 0.16, 0.16, 0.16, 0.16, 0.16, 0.16, 0.16, 0.16, 0.16, 0.16, 0.16, 0.16, 0.16, 0.16, 0.16, 0.16, 0.16, 0.16, 0.16, 0.16, 0.16, 0.16]
32 [1.51, 1.52, 1.53, 1.54, 1.55, 1.55, 1.56, 1.57, 1.58, 1.59, 1.6, 1.6, 1.61, 1.62, 1.63, 1.64, 1.64, 1.65, 1.66, 1.67, 1.68, 1.68, 1.69, 1.7, 1.71, 1.72, 1.72, 1.73, 1.74, 1.75, 1.75, 1.76, 1.77, 1.78, 1.79, 1.79, 1.8, 1.81, 1.82, 1.82, 1.83, 1.84, 1.85, 1.85, 1.86, 1.87, 1.88, 1.89, 1.89, 1.9, 1.91, 1.92, 1.92, 1.93, 1.06, 0.99, 0.94, 0.9, 0.91, 0.91, 0.91, 0.92, 0.92, 0.92, 0.93, 0.93, 0.94, 0.94, 0.94, 0.95, 0.95, 0.96, 0.96, 0.96, 0.97, 0.97, 0.97, 0.98, 0.98, 0.99, 2.15, 2.16, 2.17, 2.18, 2.19, 2.2, 2.21, 2.21, 2.22, 2.23, 2.24, 2.25, 2.26, 2.27, 2.28, 2.29, 2.3, 2.31, 2.32, 2.33, 2.34, 2.35, 2.36, 2.37, 2.38, 2.39, 2.4, 2.42, 2.43, 2.44, 2.45, 2.46, 2.47, 2.48, 2.5, 2.51, 2.52, 2.53, 2.55, 2.56, 2.57, 2.59, 2.6, 2.61, 2.63, 2.64, 2.65, 2.67, 2.68, 2.7, 2.71, 2.73, 2.75, 2.76, 1.86, 1.84, 1.82, 1.79, 1.77, 1.75, 1.74, 1.72, 1.7, 1.68, 1.69, 1.7, 1.72, 1.73, 1.74, 1.76, 2.58, 2.55, 2.52, 2.49, 2.47, 2.44, 2.41, 2.39, 2.36, 2.33, 2.31, 2.28, 2.26, 2.23, 2.21, 2.19, 2.16, 2.14, 2.11, 2.09, 2.07, 2.04, 2.02, 2.0, 1.98, 1.95, 1.93, 1.91, 1.89, 1.86, 1.84, 1.82]
33 [1.49, 1.5, 1.51, 1.52, 1.53, 1.54, 1.55, 1.55, 1.56, 1.57, 1.58, 1.59, 1.59, 1.6, 1.61, 1.62, 1.63, 1.63, 1.64, 1.65, 1.66, 1.67, 1.67, 1.68, 1.69, 1.7, 1.71, 1.71, 1.72, 1.73, 1.74, 1.74, 1.75, 1.76, 1.77, 1.77, 1.78, 1.79, 1.8, 1.81, 1.81, 1.82, 1.83, 1.84, 1.84, 1.85, 1.86, 1.87, 1.87, 1.88, 1.89, 1.9, 1.9, 1.03, 0.96, 0.9, 0.88, 0.88, 0.89, 0.89, 0.89, 0.9, 0.9, 0.9, 0.91, 0.91, 0.92, 0.92, 0.92, 0.93, 0.93, 0.93, 0.94, 0.94, 0.95, 0.95, 0.95, 0.96, 0.96, 0.97, 2.13, 2.14, 2.15, 2.16, 2.17, 2.18, 2.19, 2.19, 2.2, 2.21, 2.22, 2.23, 2.24, 2.25, 2.26, 2.27, 2.28, 2.29, 2.3, 2.31, 2.32, 2.33, 2.34, 2.35, 2.36, 2.37, 2.38, 2.4, 2.41, 2.42, 2.43, 2.44, 2.45, 2.46, 2.48, 2.49, 2.5, 2.51, 2.53, 2.54, 2.55, 2.57, 2.58, 2.59, 2.61, 2.62, 2.63, 2.65, 2.66, 2.68, 2.69, 2.71, 2.73, 2.74, 2.76, 1.82, 1.8, 1.78, 1.76, 1.74, 1.72, 1.7, 1.68, 1.66, 1.67, 1.68, 1.69, 1.71, 1.72, 1.73, 1.74, 2.53, 2.51, 2.48, 2.45, 2.42, 2.4, 2.37, 2.35, 2.32, 2.3, 2.27, 2.25, 2.22, 2.2, 2.17, 2.15, 2.13, 2.1, 2.08, 2.06, 2.03, 2.01, 1.99, 1.96, 1.94, 1.92, 1.9, 1.88, 1.86, 1.83, 1.81]
34 [1.48, 1.49, 1.5, 1.51, 1.52, 1.52, 1.53, 1.54, 1.55, 1.56, 1.57, 1.57, 1.58, 1.59, 1.6, 1.61, 1.61, 1.62, 1.63, 1.64, 1.65, 1.65, 1.66, 1.67, 1.68, 1.68, 1.69, 1.7, 1.71, 1.71, 1.72, 1.73, 1.74, 1.75, 1.75, 1.76, 1.77, 1.78, 1.78, 1.79, 1.8, 1.81, 1.81, 1.82, 1.83, 1.84, 1.84, 1.85, 1.86, 1.87, 1.87, 1.88, 1.03, 0.96, 0.9, 0.86, 0.86, 0.87, 0.87, 0.88, 0.88, 0.88, 0.89, 0.89, 0.89, 0.9, 0.9, 0.9, 0.91, 0.91, 0.92, 0.92, 0.92, 0.93, 0.93, 0.93, 0.94, 0.94, 0.95, 2.11, 2.12, 2.13, 2.13, 2.14, 2.15, 2.16, 2.17, 2.18, 2.19, 2.2, 2.21, 2.22, 2.23, 2.23, 2.24, 2.25, 2.26, 2.27, 2.28, 2.29, 2.3, 2.31, 2.32, 2.34, 2.35, 2.36, 2.37, 2.38, 2.39, 2.4, 2.41, 2.42, 2.44, 2.45, 2.46, 2.47, 2.48, 2.5, 2.51, 2.52, 2.53, 2.55, 2.56, 2.57, 2.59, 2.6, 2.62, 2.63, 2.65, 2.66, 2.68, 2.69, 2.71, 2.72, 2.74, 1.81, 1.79, 1.77, 1.75, 1.73, 1.71, 1.69, 1.67, 1.65, 1.65, 1.66, 1.67, 1.68, 1.7, 1.71, 1.72, 2.52, 2.5, 2.47, 2.44, 2.42, 2.39, 2.36, 2.34, 2.31, 2.29, 2.26, 2.24, 2.21, 2.19, 2.16, 2.14, 2.12, 2.09, 2.07, 2.05, 2.02, 2.0, 1.98, 1.96, 1.94, 1.91, 1.89, 1.87, 1.85, 10.0, 0.0]
35 [1.47, 1.48, 1.49, 1.49, 1.5, 1.51, 1.52, 1.53, 1.53, 1.54, 1.55, 1.56, 1.57, 1.57, 1.58, 1.59, 1.6, 1.61, 1.61, 1.62, 1.63, 1.64, 1.65, 1.65, 1.66, 1.67, 1.68, 1.68, 1.69, 1.7, 1.71, 1.71, 1.72, 1.73, 1.74, 1.74, 1.75, 1.76, 1.77, 1.77, 1.78, 1.79, 1.8, 1.8, 1.81, 1.82, 1.83, 1.83, 1.84, 1.85, 1.86, 1.87, 0.95, 0.88, 0.84, 0.84, 0.85, 0.85, 0.85, 0.86, 0.86, 0.86, 0.87, 0.87, 0.87, 0.88, 0.88, 0.89, 0.89, 0.89, 0.9, 0.9, 0.9, 0.91, 0.91, 0.91, 0.92, 0.92, 0.93, 2.09, 2.1, 2.11, 2.11, 2.12, 2.13, 2.14, 2.15, 2.16, 2.17, 2.18, 2.19, 2.2, 2.2, 2.21, 2.22, 2.23, 2.24, 2.25, 2.26, 2.27, 2.28, 2.29, 2.3, 2.31, 2.32, 2.33, 2.35, 2.36, 2.37, 2.38, 2.39, 2.4, 2.41, 2.42, 2.44, 2.45, 2.46, 2.47, 2.49, 2.5, 2.51, 2.52, 2.54, 2.55, 2.57, 2.58, 2.59, 2.61, 2.62, 2.64, 2.65, 2.67, 2.68, 2.7, 2.72, 1.8, 1.78, 1.76, 1.74, 1.72, 1.7, 1.68, 1.66, 1.64, 1.62, 1.63, 1.65, 1.66, 1.67, 1.68, 1.7, 1.71, 2.49, 2.46, 2.43, 2.41, 2.38, 2.35, 2.33, 2.3, 2.28, 2.25, 2.23, 2.2, 2.18, 2.16, 2.13, 2.11, 2.09, 2.06, 2.04, 2.02, 1.99, 1.97, 1.95, 1.93, 1.91, 1.88, 1.86, 1.84, 1.82, 1.8]
36 [1.45, 1.46, 1.47, 1.48, 1.49, 1.5, 1.5, 1.51, 1.52, 1.53, 1.54, 1.54, 1.55, 1.56, 1.57, 1.58, 1.58, 1.59, 1.6, 1.61, 1.61, 1.62, 1.63, 1.64, 1.65, 1.65, 1.66, 1.67, 1.68, 1.68, 1.69, 1.7, 1.71, 1.71, 1.72, 1.73, 1.74, 1.74, 1.75, 1.76, 1.77, 1.77, 1.78, 1.79, 1.8, 1.8, 1.81, 1.82, 1.83, 1.83, 1.84, 0.94, 0.87, 0.82, 0.82, 0.83, 0.83, 0.83, 0.84, 0.84, 0.84, 0.85, 0.85, 0.85, 0.86, 0.86, 0.86, 0.87, 0.87, 0.87, 0.88, 0.88, 0.88, 0.89, 0.89, 0.9, 0.9, 0.9, 0.91, 2.07, 2.08, 2.09, 2.09, 2.1, 2.11, 2.12, 2.13, 2.14, 2.15, 2.16, 2.17, 2.17, 2.18, 2.19, 2.2, 2.21, 2.22, 2.23, 2.24, 2.25, 2.26, 2.27, 2.28, 2.29, 2.3, 2.31, 2.32, 2.33, 2.35, 2.36, 2.37, 2.38, 2.39, 2.4, 2.41, 2.43, 2.44, 2.45, 2.46, 2.48, 2.49, 2.5, 2.51, 2.53, 2.54, 2.56, 2.57, 2.58, 2.6, 2.61, 2.63, 2.64, 2.66, 2.67, 2.69, 2.71, 1.76, 1.74, 1.72, 1.71, 1.69, 1.67, 1.65, 1.63, 1.61, 1.61, 1.62, 1.63, 1.64, 1.65, 1.67, 1.68, 2.48, 2.45, 2.42, 2.4, 2.37, 2.35, 2.32, 2.29, 2.27, 2.24, 2.22, 2.2, 2.17, 2.15, 2.12, 2.1, 2.08, 2.06, 2.03, 2.01, 1.99, 1.96, 1.94, 1.92, 1.9, 1.88, 1.86, 1.83, 1.81, 1.79]
37 [1.44, 1.45, 1.46, 1.47, 1.47, 1.48, 1.49, 1.5, 1.51, 1.51, 1.52, 1.53, 1.54, 1.55, 1.55, 1.56, 1.57, 1.58, 1.58, 1.59, 1.6, 1.61, 1.61, 1.62, 1.63, 1.64, 1.65, 1.65, 1.66, 1.67, 1.68, 1.68, 1.69, 1.7, 1.71, 1.71, 1.72, 1.73, 1.73, 1.74, 1.75, 1.76, 1.76, 1.77, 1.78, 1.79, 1.79, 1.8, 1.81, 1.82, 0.92, 0.85, 0.8, 0.8, 0.81, 0.81, 0.81, 0.82, 0.82, 0.82, 0.83, 0.83, 0.83, 0.84, 0.84, 0.84, 0.85, 0.85, 0.85, 0.86, 0.86, 0.86, 0.87, 0.87, 0.87, 0.88, 0.88, 0.89, 2.04, 2.05, 2.06, 2.07, 2.08, 2.09, 2.1, 2.1, 2.11, 2.12, 2.13, 2.14, 2.15, 2.16, 2.17, 2.18, 2.19, 2.2, 2.21, 2.22, 2.22, 2.23, 2.24, 2.25, 2.27, 2.28, 2.29, 2.3, 2.31, 2.32, 2.33, 2.34, 2.35, 2.36, 2.37, 2.39, 2.4, 2.41, 2.42, 2.43, 2.45, 2.46, 2.47, 2.48, 2.5, 2.51, 2.52, 2.54, 2.55, 2.57, 2.58, 2.6, 2.61, 2.63, 2.64, 2.66, 2.67, 2.69, 1.75, 1.73, 1.71, 1.69, 1.67, 1.65, 1.64, 1.62, 1.6, 1.59, 1.6, 1.61, 1.62, 1.63, 1.65, 1.66, 2.46, 2.44, 2.41, 2.38, 2.36, 2.33, 2.31, 2.28, 2.26, 2.23, 2.21, 2.19, 2.16, 2.14, 2.11, 2.09, 2.07, 2.05, 2.02, 2.0, 1.98, 1.96, 1.93, 1.91, 1.89, 1.87, 1.85, 1.83, 1.81, 1.78]
38 [1.43, 1.44, 1.44, 1.45, 1.46, 1.47, 1.48, 1.49, 1.49, 1.5, 1.51, 1.52, 1.52, 1.53, 1.54, 1.55, 1.56, 1.56, 1.57, 1.58, 1.59, 1.59, 1.6, 1.61, 1.62, 1.62, 1.63, 1.64, 1.65, 1.65, 1.66, 1.67, 1.68, 1.68, 1.69, 1.7, 1.71, 1.71, 1.72, 1.73, 1.74, 1.74, 1.75, 1.76, 1.77, 1.77, 1.78, 1.79, 1.8, 0.89, 0.82, 0.78, 0.79, 0.79, 0.79, 0.8, 0.8, 0.8, 0.81, 0.81, 0.81, 0.82, 0.82, 0.82, 0.83, 0.83, 0.83, 0.84, 0.84, 0.84, 0.85, 0.85, 0.85, 0.86, 0.86, 0.86, 0.87, 2.02, 2.03, 2.04, 2.05, 2.06, 2.07, 2.08, 2.08, 2.09, 2.1, 2.11, 2.12, 2.13, 2.14, 2.15, 2.16, 2.17, 2.18, 2.18, 2.19, 2.2, 2.21, 2.22, 2.23, 2.24, 2.25, 2.26, 2.28, 2.29, 2.3, 2.31, 2.32, 2.33, 2.34, 2.35, 2.36, 2.38, 2.39, 2.4, 2.41, 2.42, 2.44, 2.45, 2.46, 2.48, 2.49, 2.5, 2.52, 2.53, 2.54, 2.56, 2.57, 2.59, 2.6, 2.62, 2.63, 2.65, 2.67, 2.68, 1.73, 1.72, 1.7, 1.68, 1.66, 1.64, 1.62, 1.6, 1.59, 1.57, 1.59, 1.6, 1.61, 1.62, 1.63, 1.65, 2.45, 2.42, 2.4, 2.37, 2.35, 2.32, 2.3, 2.27, 2.25, 2.22, 2.2, 2.17, 2.15, 2.13, 2.1, 2.08, 2.06, 2.04, 2.01, 1.99, 1.97, 1.95, 1.92, 1.9, 1.88, 1.86, 1.84, 1.82, 1.8, 1.78]
39 [1.41, 1.42, 1.43, 1.44, 1.45, 1.46, 1.46, 1.47, 1.48, 1.49, 1.5, 1.5, 1.51, 1.52, 1.53, 1.54, 1.54, 1.55, 1.56, 1.57, 1.57, 1.58, 1.59, 1.6, 1.61, 1.61, 1.62, 1.63, 1.64, 1.64, 1.65, 1.66, 1.67, 1.67, 1.68, 1.69, 1.7, 1.7, 1.71, 1.72, 1.73, 1.73, 1.74, 1.75, 1.76, 1.76, 1.77, 0.91, 0.82, 0.77, 0.77, 0.77, 0.78, 0.78, 0.78, 0.79, 0.79, 0.79, 0.8, 0.8, 0.8, 0.81, 0.81, 0.81, 0.82, 0.82, 0.82, 0.83, 0.83, 0.83, 0.84, 0.84, 0.84, 0.85, 0.85, 0.85, 2.01, 2.02, 2.03, 2.03, 2.04, 2.05, 2.06, 2.07, 2.08, 2.09, 2.1, 2.11, 2.11, 2.12, 2.13, 2.14, 2.15, 2.16, 2.17, 2.18, 2.19, 2.2, 2.21, 2.22, 2.23, 2.24, 2.25, 2.26, 2.27, 2.28, 2.29, 2.31, 2.32, 2.33, 2.34, 2.35, 2.36, 2.38, 2.39, 2.4, 2.41, 2.43, 2.44, 2.45, 2.46, 2.48, 2.49, 2.51, 2.52, 2.53, 2.55, 2.56, 2.58, 2.59, 2.61, 2.63, 2.64, 2.66, 2.67, 1.73, 1.71, 1.7, 1.68, 1.66, 1.64, 1.62, 1.6, 1.59, 1.57, 1.57, 1.58, 1.6, 1.61, 1.62, 1.64, 1.65, 2.43, 2.4, 2.38, 2.35, 2.33, 2.3, 2.28, 2.25, 2.23, 2.21, 2.18, 2.16, 2.14, 2.11, 2.09, 2.07, 2.04, 2.02, 2.0, 1.98, 1.96, 1.93, 1.91, 1.89, 1.87, 1.85, 1.83, 1.81, 1.79, 1.77]
40 [1.4, 1.41, 1.42, 1.42, 1.43, 1.44, 1.45, 1.46, 1.46, 1.47, 1.48, 1.49, 1.5, 1.51, 1.51, 1.52, 1.53, 1.54, 1.55, 1.55, 1.56, 1.57, 1.58, 1.58, 1.59, 1.6, 1.61, 1.62, 1.62, 1.63, 1.64, 1.65, 1.65, 1.66, 1.67, 1.68, 1.69, 1.69, 1.7, 1.71, 1.72, 1.72, 1.73, 1.74, 1.75, 0.83, 0.76, 0.75, 0.75, 0.76, 0.76, 0.76, 0.77, 0.77, 0.77, 0.78, 0.78, 0.78, 0.79, 0.79, 0.79, 0.8, 0.8, 0.8, 0.81, 0.81, 0.81, 0.82, 0.82, 0.82, 0.83, 0.83, 0.84, 0.84, 1.99, 2.0, 2.01, 2.02, 2.03, 2.03, 2.04, 2.05, 2.06, 2.07, 2.08, 2.09, 2.1, 2.11, 2.12, 2.13, 2.14, 2.15, 2.16, 2.17, 2.18, 2.19, 2.2, 2.21, 2.22, 2.23, 2.24, 2.25, 2.26, 2.27, 2.28, 2.29, 2.31, 2.32, 2.33, 2.34, 2.35, 2.37, 2.38, 2.39, 2.4, 2.42, 2.43, 2.44, 2.46, 2.47, 2.48, 2.5, 2.51, 2.53, 2.54, 2.56, 2.57, 2.59, 2.6, 2.62, 2.64, 2.65, 2.67, 1.74, 1.72, 1.7, 1.68, 1.66, 1.65, 1.63, 1.61, 1.59, 1.58, 1.57, 1.58, 1.59, 1.6, 1.62, 1.63, 1.64, 2.45, 2.42, 2.4, 2.37, 2.35, 2.32, 2.3, 2.27, 2.25, 2.23, 2.2, 2.18, 2.16, 2.13, 2.11, 2.09, 2.07, 2.05, 2.02, 2.0, 1.98, 1.96, 1.94, 1.92, 1.9, 1.87, 1.85, 1.83, 1.81, 1.79, 1.77, 1.75]
41 [1.38, 1.39, 1.4, 1.41, 1.41, 1.42, 1.43, 1.44, 1.45, 1.46, 1.46, 1.47, 1.48, 1.49, 1.5, 1.51, 1.51, 1.52, 1.53, 1.54, 1.55, 1.55, 1.56, 1.57, 1.58, 1.59, 1.6, 1.6, 1.61, 1.62, 1.63, 1.64, 1.64, 1.65, 1.66, 1.67, 1.68, 1.68, 1.69, 1.7, 1.71, 0.84, 0.76, 0.73, 0.73, 0.73, 0.74, 0.74, 0.74, 0.75, 0.75, 0.75, 0.76, 0.76, 0.76, 0.77, 0.77, 0.78, 0.78, 0.78, 0.79, 0.79, 0.79, 0.8, 0.8, 0.8, 0.81, 0.81, 0.81, 0.82, 1.96, 1.97, 1.98, 1.99, 2.0, 2.0, 2.01, 2.02, 2.03, 2.04, 2.05, 2.06, 2.07, 2.08, 2.09, 2.1, 2.11, 2.12, 2.13, 2.14, 2.15, 2.16, 2.17, 2.18, 2.19, 2.2, 2.22, 2.23, 2.24, 2.25, 2.26, 2.27, 2.28, 2.3, 2.31, 2.32, 2.33, 2.34, 2.36, 2.37, 2.38, 2.4, 2.41, 2.42, 2.44, 2.45, 2.47, 2.48, 2.49, 2.51, 2.53, 2.54, 2.56, 2.57, 2.59, 2.6, 2.62, 2.64, 2.66, 2.67, 2.69, 1.73, 1.71, 1.69, 1.68, 1.66, 1.64, 1.62, 1.61, 1.59, 1.57, 1.57, 1.59, 1.6, 1.61, 1.63, 1.64, 1.66, 2.45, 2.43, 2.4, 2.38, 2.36, 2.33, 2.31, 2.28, 2.26, 2.24, 2.21, 2.19, 2.17, 2.15, 2.13, 2.1, 2.08, 2.06, 2.04, 2.02, 2.0, 1.98, 1.95, 1.93, 1.91, 1.89, 1.87, 1.85, 1.83, 1.81, 1.79, 1.77, 1.75, 1.73]
42 [1.36, 1.37, 1.38, 1.39, 1.39, 1.4, 1.41, 1.42, 1.43, 1.44, 1.45, 1.46, 1.46, 1.47, 1.48, 1.49, 1.5, 1.51, 1.52, 1.52, 1.53, 1.54, 1.55, 1.56, 1.57, 1.57, 1.58, 1.59, 1.6, 1.61, 1.62, 1.63, 1.63, 1.64, 1.65, 1.66, 0.84, 0.74, 0.7, 0.7, 0.71, 0.71, 0.72, 0.72, 0.72, 0.73, 0.73, 0.73, 0.74, 0.74, 0.74, 0.75, 0.75, 0.76, 0.76, 0.76, 0.77, 0.77, 0.77, 0.78, 0.78, 0.79, 0.79, 0.79, 0.8, 0.8, 1.93, 1.94, 1.95, 1.96, 1.97, 1.98, 1.99, 2.0, 2.01, 2.02, 2.03, 2.04, 2.05, 2.06, 2.07, 2.08, 2.09, 2.1, 2.11, 2.12, 2.13, 2.15, 2.16, 2.17, 2.18, 2.19, 2.2, 2.21, 2.23, 2.24, 2.25, 2.26, 2.27, 2.29, 2.3, 2.31, 2.33, 2.34, 2.35, 2.37, 2.38, 2.39, 2.41, 2.42, 2.44, 2.45, 2.47, 2.48, 2.5, 2.51, 2.53, 2.54, 2.56, 2.58, 2.59, 2.61, 2.63, 2.65, 2.67, 2.68, 2.7, 1.74, 1.72, 1.71, 1.69, 1.67, 1.65, 1.64, 1.62, 1.6, 1.59, 1.58, 1.59, 1.61, 1.62, 1.63, 1.65, 1.66, 2.49, 2.47, 2.44, 2.42, 2.4, 2.37, 2.35, 2.33, 2.3, 2.28, 2.26, 2.24, 2.21, 2.19, 2.17, 2.15, 2.13, 2.11, 2.09, 2.06, 2.04, 2.02, 2.0, 1.98, 1.96, 1.94, 1.92, 1.9, 1.88, 1.86, 1.84, 1.83, 1.81, 1.79, 1.77, 1.75, 1.73, 1.71]
43 [1.32, 1.33, 1.34, 1.35, 1.36, 1.37, 1.38, 1.39, 1.39, 1.4, 1.41, 1.42, 1.43, 1.44, 1.45, 1.46, 1.47, 1.48, 1.49, 1.5, 1.51, 1.52, 1.53, 0.72, 0.63, 0.64, 0.64, 0.65, 0.65, 0.65, 0.66, 0.66, 0.67, 0.67, 0.67, 0.68, 0.68, 0.69, 0.69, 0.69, 0.7, 0.7, 0.71, 0.71, 0.72, 0.72, 0.72, 0.73, 0.73, 0.74, 0.74, 0.74, 0.75, 1.84, 1.85, 1.86, 1.87, 1.88, 1.89, 1.9, 1.92, 1.93, 1.94, 1.95, 1.96, 1.97, 1.98, 1.99, 2.01, 2.02, 2.03, 2.04, 2.05, 2.07, 2.08, 2.09, 2.1, 2.12, 2.13, 2.14, 2.16, 2.17, 2.18, 2.2, 2.21, 2.22, 2.24, 2.25, 2.27, 2.28, 2.29, 2.31, 2.32, 2.34, 2.35, 2.37, 2.39, 2.4, 2.42, 2.44, 2.45, 2.47, 2.49, 2.5, 2.52, 2.54, 2.56, 2.58, 2.6, 2.62, 2.64, 2.66, 2.68, 2.7, 2.72, 2.74, 1.76, 1.75, 1.73, 1.71, 1.7, 1.68, 1.67, 1.65, 1.64, 1.62, 1.61, 1.62, 1.63, 1.65, 1.66, 1.68, 1.7, 1.71, 2.56, 2.53, 2.51, 2.49, 2.47, 2.44, 2.42, 2.4, 2.38, 2.36, 2.34, 2.32, 2.3, 2.28, 2.26, 2.24, 2.22, 2.2, 2.18, 2.16, 2.14, 2.12, 2.1, 2.09, 2.07, 2.05, 2.03, 2.01, 1.99, 1.98, 1.96, 1.94, 1.92, 1.91, 1.89, 1.87, 1.85, 1.84, 1.82, 1.8, 1.78, 1.77, 1.75, 1.73, 1.72, 1.7, 1.68, 1.67]
44 [1.3, 1.31, 1.32, 1.33, 1.34, 1.35, 1.36, 1.37, 1.38, 1.39, 1.4, 1.41, 1.42, 1.43, 1.44, 1.46, 0.6, 0.6, 0.6, 0.61, 0.61, 0.62, 0.62, 0.63, 0.63, 0.63, 0.64, 0.64, 0.65, 0.65, 0.65, 0.66, 0.66, 0.67, 0.67, 0.68, 0.68, 0.69, 0.69, 0.69, 0.7, 0.7, 0.71, 0.71, 0.72, 0.72, 1.78, 1.8, 1.81, 1.82, 1.83, 1.84, 1.85, 1.86, 1.88, 1.89, 1.9, 1.91, 1.92, 1.94, 1.95, 1.96, 1.97, 1.99, 2.0, 2.01, 2.02, 2.04, 2.05, 2.06, 2.08, 2.09, 2.1, 2.12, 2.13, 2.15, 2.16, 2.18, 2.19, 2.2, 2.22, 2.23, 2.25, 2.27, 2.28, 2.3, 2.31, 2.33, 2.35, 2.36, 2.38, 2.4, 2.41, 2.43, 2.45, 2.47, 2.49, 2.51, 2.52, 2.54, 2.56, 2.58, 2.6, 2.62, 2.65, 2.67, 2.69, 2.71, 2.73, 2.76, 1.76, 1.75, 1.73, 1.72, 1.7, 1.69, 1.67, 1.66, 1.64, 1.63, 1.62, 1.63, 1.65, 1.66, 1.68, 1.7, 1.72, 1.73, 2.59, 2.57, 2.55, 2.53, 2.51, 2.48, 2.46, 2.44, 2.42, 2.4, 2.38, 2.37, 2.35, 2.33, 2.31, 2.29, 2.27, 2.25, 2.23, 2.21, 2.2, 2.18, 2.16, 2.14, 2.12, 2.11, 2.09, 2.07, 2.06, 2.04, 2.02, 2.0, 1.99, 1.97, 1.95, 1.94, 1.92, 1.9, 1.89, 1.87, 1.85, 1.84, 1.82, 1.81, 1.79, 1.77, 1.76, 1.74, 1.73, 1.71, 1.69, 1.68, 1.66, 1.65]
45 [1.28, 1.29, 1.31, 0.53, 0.53, 0.54, 0.54, 0.55, 0.55, 0.56, 0.56, 0.56, 0.57, 0.57, 0.58, 0.58, 0.59, 0.59, 0.6, 0.6, 0.61, 0.61, 0.62, 0.62, 0.62, 0.63, 0.63, 0.64, 0.64, 0.65, 0.65, 0.66, 0.66, 1.66, 1.68, 1.69, 1.7, 1.71, 1.73, 1.74, 1.75, 1.76, 1.78, 1.79, 1.8, 1.82, 1.83, 1.84, 1.85, 1.87, 1.88, 1.9, 1.91, 1.92, 1.94, 1.95, 1.97, 1.98, 1.99, 2.01, 2.02, 2.04, 2.05, 2.07, 2.08, 2.1, 2.12, 2.13, 2.15, 2.16, 2.18, 2.2, 2.21, 2.23, 2.25, 2.27, 2.28, 2.3, 2.32, 2.34, 2.36, 2.38, 2.39, 2.41, 2.43, 2.45, 2.47, 2.5, 2.52, 2.54, 2.56, 2.58, 2.6, 2.63, 2.65, 2.68, 2.7, 2.72, 2.75, 2.78, 1.75, 1.74, 1.72, 1.71, 1.69, 1.68, 1.67, 1.65, 1.64, 1.63, 1.63, 1.64, 1.66, 1.68, 1.7, 1.72, 1.74, 1.76, 2.63, 2.61, 2.59, 2.57, 2.55, 2.53, 2.51, 2.49, 2.47, 2.46, 2.44, 2.42, 2.4, 2.39, 2.37, 2.35, 2.33, 2.32, 2.3, 2.28, 2.27, 2.25, 2.24, 2.22, 2.2, 2.19, 2.17, 2.16, 2.14, 2.12, 2.11, 2.09, 2.08, 2.06, 2.05, 2.03, 2.02, 2.0, 1.99, 1.97, 1.96, 1.94, 1.93, 1.91, 1.9, 1.88, 1.87, 1.85, 1.84, 1.83, 1.81, 1.8, 1.78, 1.77, 1.75, 1.74, 1.73, 1.71, 1.7, 1.68, 1.67, 1.65, 10.0, 10.0]
46 [0.51, 0.51, 0.52, 0.52, 0.53, 0.53, 0.54, 0.54, 0.55, 0.55, 0.56, 0.56, 0.57, 0.57, 0.58, 0.58, 0.59, 0.59, 0.6, 0.6, 0.61, 0.61, 0.62, 0.62, 0.63, 0.63, 0.64, 1.6, 1.62, 1.63, 1.64, 1.65, 1.67, 1.68, 1.69, 1.71, 1.72, 1.73, 1.75, 1.76, 1.77, 1.79, 1.8, 1.81, 1.83, 1.84, 1.86, 1.87, 1.89, 1.9, 1.91, 1.93, 1.94, 1.96, 1.97, 1.99, 2.01, 2.02, 2.04, 2.05, 2.07, 2.09, 2.1, 2.12, 2.14, 2.15, 2.17, 2.19, 2.21, 2.22, 2.24, 2.26, 2.28, 2.3, 2.32, 2.34, 2.36, 2.38, 2.4, 2.42, 2.44, 2.46, 2.48, 2.5, 2.52, 2.55, 2.57, 2.59, 2.62, 2.64, 2.67, 2.69, 2.72, 2.74, 2.77, 1.74, 1.73, 1.71, 1.7, 1.69, 1.68, 1.66, 1.65, 1.64, 1.63, 1.63, 1.64, 1.66, 1.68, 1.7, 1.72, 1.74, 1.76, 2.64, 2.62, 2.6, 2.58, 2.57, 2.55, 2.53, 2.51, 2.49, 2.48, 2.46, 2.44, 2.43, 2.41, 2.39, 2.38, 2.36, 2.35, 2.33, 2.31, 2.3, 2.28, 2.27, 2.25, 2.24, 2.22, 2.21, 2.19, 2.18, 2.16, 2.15, 2.13, 2.12, 2.1, 2.09, 2.07, 2.06, 2.05, 2.03, 2.02, 2.0, 1.99, 1.97, 1.96, 1.95, 1.93, 1.92, 1.91, 1.89, 1.88, 1.86, 1.85, 1.84, 1.82, 1.81, 1.8, 1.78, 1.77, 1.76, 1.74, 1.73, 1.71, 1.7, 1.69, 1.67, 1.66, 1.65, 1.63, 1.62]
47 [0.51, 0.51, 0.52, 0.52, 0.53, 0.53, 0.54, 0.54, 0.55, 0.55, 0.56, 0.56, 0.57, 0.57, 0.58, 0.58, 0.59, 0.59, 0.6, 0.6, 0.61, 1.54, 1.55, 1.57, 1.58, 1.59, 1.61, 1.62, 1.63, 1.65, 1.66, 1.68, 1.69, 1.7, 1.72, 1.73, 1.74, 1.76, 1.77, 1.79, 1.8, 1.82, 1.83, 1.85, 1.86, 1.88, 1.89, 1.91, 1.92, 1.94, 1.96, 1.97, 1.99, 2.0, 2.02, 2.04, 2.05, 2.07, 2.09, 2.11, 2.12, 2.14, 2.16, 2.18, 2.2, 2.22, 2.24, 2.25, 2.27, 2.29, 2.31, 2.34, 2.36, 2.38, 2.4, 2.42, 2.44, 2.46, 2.49, 2.51, 2.53, 2.56, 2.58, 2.61, 2.63, 2.66, 2.69, 2.71, 2.74, 1.74, 1.73, 1.72, 1.7, 1.69, 1.68, 1.67, 1.66, 1.64, 1.63, 1.62, 1.63, 1.65, 1.66, 1.68, 1.7, 1.73, 1.75, 2.66, 2.65, 2.63, 2.61, 2.59, 2.58, 2.56, 2.54, 2.53, 2.51, 2.49, 2.48, 2.46, 2.45, 2.43, 2.42, 2.4, 2.39, 2.37, 2.35, 2.34, 2.33, 2.31, 2.3, 2.28, 2.27, 2.25, 2.24, 2.22, 2.21, 2.2, 2.18, 2.17, 2.15, 2.14, 2.13, 2.11, 2.1, 2.09, 2.07, 2.06, 2.05, 2.03, 2.02, 2.01, 1.99, 1.98, 1.97, 1.95, 1.94, 1.93, 1.91, 1.9, 1.89, 1.87, 1.86, 1.85, 1.84, 1.82, 1.81, 1.8, 1.78, 1.77, 1.76, 1.75, 1.73, 1.72, 1.71, 1.7, 1.68, 1.67, 1.66, 1.64, 1.63, 1.62]
48 [0.51, 0.51, 0.52, 0.52, 0.53, 0.53, 0.54, 0.54, 0.55, 0.55, 0.56, 0.57, 0.57, 0.58, 0.58, 1.48, 1.49, 1.5, 1.52, 1.53, 1.54, 1.56, 1.57, 1.59, 1.6, 1.61, 1.63, 1.64, 1.66, 1.67, 1.69, 1.7, 1.72, 1.73, 1.75, 1.76, 1.78, 1.79, 1.81, 1.82, 1.84, 1.85, 1.87, 1.89, 1.9, 1.92, 1.93, 1.95, 1.97, 1.99, 2.0, 2.02, 2.04, 2.06, 2.07, 2.09, 2.11, 2.13, 2.15, 2.17, 2.19, 2.21, 2.23, 2.25, 2.27, 2.29, 2.31, 2.33, 2.35, 2.37, 2.4, 2.42, 2.44, 2.47, 2.49, 2.51, 2.54, 2.56, 2.59, 2.62, 2.64, 2.67, 2.7, 2.73, 1.73, 1.72, 1.71, 1.7, 1.69, 1.67, 1.66, 1.65, 1.64, 1.63, 1.62, 1.62, 1.64, 1.66, 1.68, 1.7, 1.73, 1.75, 1.77, 2.66, 2.64, 2.62, 2.61, 2.59, 2.58, 2.56, 2.54, 2.53, 2.51, 2.5, 2.48, 2.47, 2.45, 2.44, 2.42, 2.41, 2.39, 2.38, 2.37, 2.35, 2.34, 2.32, 2.31, 2.3, 2.28, 2.27, 2.26, 2.24, 2.23, 2.22, 2.2, 2.19, 2.18, 2.16, 2.15, 2.14, 2.12, 2.11, 2.1, 2.09, 2.07, 2.06, 2.05, 2.04, 2.02, 2.01, 2.0, 1.99, 1.97, 1.96, 1.95, 1.94, 1.93, 1.91, 1.9, 1.89, 1.88, 1.86, 1.85, 1.84, 1.83, 1.82, 1.8, 1.79, 1.78, 1.77, 1.76, 1.74, 1.73, 1.72, 1.71, 1.69, 1.68, 1.67, 1.66, 1.65, 1.63, 1.62]
49 [0.51, 0.52, 0.52, 0.53, 0.53, 0.54, 0.54, 0.55, 0.55, 0.56, 0.56, 1.43, 1.45, 1.46, 1.48, 1.49, 1.5, 1.52, 1.53, 1.55, 1.56, 1.58, 1.59, 1.6, 1.62, 1.63, 1.65, 1.66, 1.68, 1.69, 1.71, 1.72, 1.74, 1.76, 1.77, 1.79, 1.8, 1.82, 1.84, 1.85, 1.87, 1.89, 1.9, 1.92, 1.94, 1.96, 1.97, 1.99, 2.01, 2.03, 2.05, 2.06, 2.08, 2.1, 2.12, 2.14, 2.16, 2.18, 2.2, 2.22, 2.24, 2.27, 2.29, 2.31, 2.33, 2.35, 2.38, 2.4, 2.42, 2.45, 2.47, 2.5, 2.52, 2.55, 2.58, 2.6, 2.63, 2.66, 2.69, 2.71, 1.72, 1.71, 1.7, 1.69, 1.68, 1.67, 1.65, 1.64, 1.63, 1.62, 1.61, 1.62, 1.64, 1.66, 1.68, 1.7, 1.73, 1.75, 2.67, 2.66, 2.64, 2.63, 2.61, 2.6, 2.58, 2.57, 2.55, 2.54, 2.52, 2.51, 2.49, 2.48, 2.46, 2.45, 2.44, 2.42, 2.41, 2.4, 2.38, 2.37, 2.35, 2.34, 2.33, 2.32, 2.3, 2.29, 2.28, 2.26, 2.25, 2.24, 2.23, 2.21, 2.2, 2.19, 2.18, 2.16, 2.15, 2.14, 2.13, 2.12, 2.1, 2.09, 2.08, 2.07, 2.06, 2.04, 2.03, 2.02, 2.01, 2.0, 1.99, 1.97, 1.96, 1.95, 1.94, 1.93, 1.92, 1.9, 1.89, 1.88, 1.87, 1.86, 1.85, 1.84, 1.82, 1.81, 1.8, 1.79, 1.78, 1.77, 1.75, 1.74, 1.73, 1.72, 1.71, 1.7, 1.68, 1.67, 1.66, 1.65, 1.64, 1.63]
