0 -1
1 -1
2 -1
3 1018631
4 796850
5 1018630
6 1109250
7 939250
8 1095250
9 781770
10 1095250
11 783870
12 796536
13 781254
14 1096625
15 784253
16 781349
17 784250
18 781273
19 790006
20 784000
21 781270
22 783750
23 781270
24 784250
25 1187027
26 1174375
27 1177500
28 1173147
29 1171896
30 1186250
31 1171895
32 1248812
33 1186250
34 1171896
35 1186875
36 1183772
37 1171896
38 1327845
39 1171896
40 1541949
41 1174379
42 1171895
43 1363174
44 1295601
45 1497375
46 1500250
47 1484975
48 1295601
49 1184825
50 1295601
51 1172425
52 1273075
53 1172450
54 1448725
55 1172475
56 1294495
57 1310746
58 1172245
59 1214495
60 1171999
61 1262624
62 1484381
63 1359449
64 1195899
65 1179629
66 1176504
67 1424484
68 1547484
69 1176529
70 1546895
71 1259339
72 1256234
73 1515885
74 -1
75 1484375
76 1515637
77 1547499
78 1485302
79 1484375
80 1531266
81 1500006
82 1484375
83 1500006
84 1484375
85 1411859
86 1234379
87 1172375
88 1234379
89 1234379
90 1172375
91 1234379
92 1177489
93 1234379
94 1255613
95 1234379
96 1234379
97 1172375
98 1547379
99 1172375
100 1484375
101 1172375
102 1484675
103 -1
104 1484675
105 1171975
106 1328475
107 1254996
108 1254996
109 1254996
110 1254996
111 1254996
112 1484725
113 1333121
114 1254996
115 1484377
116 1484375
117 1254995
118 1484600
119 1176749
120 1484676
121 1176749
122 1176749
123 1484375
124 1406481
125 1176749
126 1406481
127 1176749
128 1406356
129 1173624
130 1176749
131 1172236
132 -1
133 1484438
134 1484375
135 1171992
136 1172874
137 1172874
138 1171971
139 1172874
140 396946
141 390645
142 703130
143 703125
144 469724
145 703261
146 703251
147 453225
148 391599
149 703125
150 703125
151 687752
152 391599
153 390725
154 391599
155 391599
156 390745
157 391599
158 391599
159 703426
160 703629
161 -1
162 703135
163 703252
164 21
165 974
166 156522
167 234399
168 234384
169 78314
170 312503
171 171939
172 346965
173 346971
174 312600
175 346972
176 78145
177 34447
178 112573
179 1406254
180 1362573
181 1406254
182 1484375
183 1440674
184 1484375
185 1440674
186 1484375
187 1484375
188 1440669
189 -1
190 1362544
191 1484379
192 1346894
193 1346889
194 1346889
195 1484375
196 1346889
197 1484375
198 1484375
199 1484375
200 1425014
201 1171995
202 1187514
203 1259279
204 1406254
205 1406254
206 390745
207 390745
208 630404
209 703129
210 465646
211 703129
212 1484379
213 1484375
214 1234395
215 -1
216 1262407
217 1234395
218 1262402
219 1184277
220 1234395
221 1184277
222 1234395
223 1184277
224 1234379
225 1494218
226 1484375
227 1249875
228 1234379
229 1234379
230 1174375
231 1184282
232 1174375
233 1330629
234 1187402
235 1251254
236 1251254
237 1184875
238 1251254
239 1184995
240 1187401
241 1184879
242 1499379
243 1171879
244 1187401
245 1486879
246 1187401
247 1499379
248 1187401
249 1187401
250 1171879
251 1174375
252 1171879
253 1187403
254 1187402
255 1171879
256 1171879
257 1174375
258 1172004
259 1265525
260 1265550
261 1171879
262 1174375
263 1171879
264 1491875
265 1171879
266 1491875
267 1174375
268 1191379
269 1495625
270 1495625
271 1174375
272 1186875
273 1174375
274 1174375
275 1186875
276 1174375
277 1186875
278 1186875
279 1184375
280 -1
281 1249375
282 1184375
283 1562375
284 1555890
285 1555890
286 1171895
287 1364514
288 1515635
289 1458394
290 1236895
291 1537144
292 1556015
293 1493390
294 1490265
295 1484395
296 709017
297 703145
298 705645
299 465625
300 709024
301 1490274
302 1484399
303 1203220
304 1486879
305 1234496
306 1171879
307 1234495
308 1234495
309 1203235
310 1174379
311 1171879
312 1234385
313 1174379
314 1234390
315 1234390
316 1174375
317 1230876
318 1230876
319 1418765
320 1234001
321 1418765
322 1184390
323 -1
324 1249626
325 1249626
326 1184375
327 1249626
328 1185627
329 1262504
330 1249626
331 1249631
332 1496875
333 1484001
334 1420628
335 1420628
336 1562126
337 639378
338 780876
339 1562126
340 1246878
341 1562126
342 1221879
343 1243750
344 1243750
345 1562001
346 1558251
347 1243750
348 1243750
349 1556250
350 1510625
351 1540625
352 1491876
353 1491251
354 1202513
355 1234375
356 1546875
357 1202514
358 1201889
359 1201889
360 1484375
361 -1
362 1217539
363 1484375
364 1217539
365 1484375
366 826919
367 826919
368 1093750
369 826919
370 1131250
371 822539
372 822539
373 823164
374 1168750
375 841919
376 841914
377 325000
378 60035
379 703125
380 703125
381 543787
382 703125
383 543788
384 696913
385 765625
386 693788
387 693788
388 693788
389 693788
390 771913
391 768788
392 768788
393 768787
394 768787
395 703125
396 750032
397 1172495
398 1184375
399 1184375
400 1312504
401 1184375
402 1500951
403 1234375
404 403125
405 462500
406 453125
407 465625
408 453131
409 688325
410 465625
411 531250
412 418750
413 750000
414 465625
415 750500
416 703956
417 1246875
418 1246875
419 1484375
420 1247375
421 1484375
422 1251117
423 -1
424 1251117
425 1234875
426 1171899
427 1234875
428 1172375
429 1251246
430 1484375
431 1171899
432 1484975
433 1484675
434 1172375
435 1484975
436 1173121
437 1172395
438 1172996
439 1015850
440 1109550
441 1137546
442 785224
443 781274
444 796354
445 781269
446 821752
447 1096200
448 1093750
449 791228
450 1109381
451 1515657
452 1484716
453 1484375
454 1328524
455 1267524
456 1361649
457 1403757
458 1403756
459 1426879
460 1405001
461 1405001
462 1268849
463 1468251
464 1468251
465 1408524
466 1393375
467 1392143
468 -1
469 1546256
470 1524379
471 1530632
472 1247661
473 1186875
474 1247031
475 1186750
476 1247036
477 1247036
478 1186250
479 1247661
480 1247661
481 1186250
482 1186350
483 1421374
484 1247661
485 1483874
486 1484484
487 1186875
488 1186875
489 1186875
490 1184477
491 1186875
492 1184477
493 1184481
494 -1
495 1186875
496 1186875
497 1246999
498 1186875
499 1243829
500 1246906
501 1246975
502 1246999
503 1246975
504 1234474
505 1534443
506 1531251
507 1553199
508 1184399
509 1246887
510 1312501
511 1390626
512 1478012
513 1560125
514 1489000
515 1484375
516 1560900
517 1484495
518 1384305
519 -1
520 1550775
521 1546995
522 1546965
523 1237375
524 1546995
525 1315500
526 1315500
527 1515685
528 1328025
529 1535090
530 1538965
531 1249495
532 1245970
533 1185030
534 1184495
535 1229399
536 1190745
537 1382524
538 1278220
539 1398149
540 1243845
541 1556335
542 1475649
543 1475649
544 1475649
545 -1
546 771945
547 703125
548 703125
549 765645
550 703125
551 765645
552 756899
553 756899
554 693774
555 737507
556 534399
557 737513
558 737513
559 609399
560 753764
561 456274
562 453149
563 453149
564 597504
565 531354
566 534379
567 531254
568 722504
569 703129
570 765629
571 722504
572 722504
573 703125
574 -1
575 722629
576 406129
577 453125
578 722629
579 722629
580 453125
581 722629
582 722629
583 312502
584 153145
585 1109378
586 1125003
587 1093828
588 1093828
589 1113425
590 1000000
591 1093750
592 781270
593 976850
594 976850
595 976850
596 1484375
597 1367475
598 1484375
599 1172375
600 1328379
601 1546875
602 1328379
603 -1
604 1328379
605 1278126
606 1288725
607 1328379
608 1546875
609 1328379
610 1484375
611 1171879
612 1531250
613 1484375
614 1382495
615 1484375
616 1461245
617 1484375
618 1172375
619 1312500
620 1229999
621 1178637
622 1241249
623 1241249
624 1491002
625 1328249
626 1456874
627 1171895
628 1171995
629 -1
630 1218467
631 1204429
632 1171895
633 1218466
634 1218441
635 1218441
636 1236324
637 1484375
638 1500006
639 1484375
640 1484375
641 1437065
642 1484375
643 1358940
644 1202690
645 1202815
646 1249379
647 827817
648 1105003
649 1093750
650 784004
651 1210889
652 1444978
653 1336127
654 1464350
655 1418100
656 -1
657 1184024
658 1205490
659 1174899
660 1174395
661 1171895
662 1348735
663 1171895
664 1344097
665 1171879
666 1325026
667 1234395
668 1171879
669 1546905
670 1171979
671 1171979
672 1171895
673 1171979
674 1171895
675 1171896
676 1171897
677 1171995
678 1171995
679 1171895
680 1171899
681 1171995
682 781254
683 781370
684 1156254
685 -1
686 1156254
687 4
688 4
689 4
690 156254
691 190664
692 1078143
693 890020
694 1077515
695 1143794
696 784250
697 1168754
698 1171250
699 783754
700 1250020
701 -1
702 1484379
703 1234375
704 1171939
705 1174375
706 1171899
707 1171879
708 1171879
709 1418454
710 1234475
711 390645
712 703125
713 300000
714 370687
715 329987
716 3024
717 71
718 75502
719 861976
720 984965
721 1143794
722 890745
723 1128163
724 1015729
725 1475038
726 1484379
727 1547343
728 1311919
729 1546914
730 -1
731 1484507
732 1174437
733 1250039
734 1172399
735 1362504
736 1334439
737 1556929
738 1171899
739 1467517
740 1486899
741 1171879
742 1527759
743 1488126
744 1540577
745 1484375
746 1228122
747 1250020
748 1390625
749 1230598
750 1234375
751 1179684
752 1234379
753 1179534
754 1484379
755 1171879
756 1172529
757 1182659
758 1183284
759 -1
760 1187188
761 1174478
762 1171879
763 1484375
764 1171977
765 1484375
766 1171896
767 1174375
768 1171896
769 1484375
770 1173139
771 1484375
772 1484375
773 1174399
774 1484375
775 1174397
776 1171896
777 1488125
778 1252502
779 1234375
780 1252502
781 1171879
782 1171879
783 1485627
784 1171879
785 1486879
786 1486879
787 1171879
788 -1
789 1171879
790 1172504
791 1174379
792 1179379
793 1173754
794 1186879
795 1171879
796 1174375
797 1186875
798 1174375
799 1186875
800 1186875
801 1186875
802 1174375
803 1174375
804 1186875
805 1186875
806 1186875
807 1174375
808 1211875
809 1171899
810 1482507
811 1484375
812 1234375
813 1234375
814 -1
815 1484375
816 1234375
817 1484375
818 1484375
819 1553129
820 1560007
821 1484375
822 1560007
823 1484375
824 1484375
825 1234375
826 1484375
827 1234375
828 1557507
829 1484375
830 1248133
831 1484375
832 1556257
833 1537812
834 1556257
835 1234375
836 765625
837 703125
838 768750
839 466258
840 778125
841 619383
842 697513
843 759375
844 703125
845 759375
846 778125
847 1553163
848 1162538
849 1093750
850 1084413
851 1162504
852 -1
853 1162538
854 781770
855 1162538
856 1162538
857 1106254
858 1162538
859 1106254
860 1143757
861 1143757
862 1143757
863 1103128
864 1159413
865 1103128
866 1159413
867 1106254
868 850044
869 928169
870 950004
871 1006289
872 843750
873 1084414
874 1106254
875 1162539
876 1162538
877 1106254
878 1162538
879 1106254
880 1106254
881 -1
882 950002
883 1162538
884 1162538
885 1106254
886 781770
887 1162538
888 1162538
889 796250
890 1143757
891 783750
892 1143782
893 1159413
894 1103128
895 1093750
896 1106254
897 871879
898 928164
899 853125
900 781750
901 783750
902 781870
903 2500
904 714750
905 721893
906 1487325
907 1486879
908 1546875
909 1184875
910 861875
911 796250
912 1171899
913 1359995
914 1171879
915 1174875
916 1171879
917 1174879
918 1531300
919 1187554
920 1531350
921 1518843
922 1171879
923 1484495
924 1171879
925 1171899
926 1171879
927 1171895
928 -1
929 781254
930 781274
931 943754
932 1025079
933 781254
934 1125034
935 856274
936 781254
937 834379
938 843753
939 781254
940 781349
941 1143787
942 843754
943 124
944 15629
945 234499
946 112
947 312504
948 619
949 4
950 1487409
951 1343996
952 1171895
953 1171979
954 -1
955 1171879
956 1172379
957 1172379
958 781254
959 953372
960 784254
961 1171879
962 1172379
963 1172379
964 1171879
965 391129
966 390629
967 578497
968 315020
969 94122
970 234895
971 4
972 546889
973 468948
974 468948
975 546889
976 390629
977 546889
978 391125
979 390649
980 390824
981 390649
982 391414
983 -1
984 391125
985 390649
986 391129
987 4034
988 156752
989 312504
990 312500
991 387509
992 384379
993 312500
994 234379
995 9
996 312500
997 312504
998 234379
999 100
