0 [0.0, 0.0, 0.0, 0.0, 0.0, 0.0, 0.0, 0.0]
1 [0.0, 0.0, 0.0, 0.0, 0.0, 0.0, 0.0, 0.0]
2 [0.0, 0.0, 0.0, 0.0, 0.0, 0.0, 0.0, 0.0]
3 [0.0, 0.0, 0.0, 0.0, 0.0, 0.0, 0.0, 0.0]
4 [0.0, 0.0, 0.0, 0.0, 0.0, 0.0, 0.0, 0.0]
5 [0.0, 0.0, 0.0, 0.0, 0.0, 0.0, 0.0, 0.0]
6 [0.0, 0.0, 0.0, 0.0, 0.0, 0.0, 0.0, 0.0]
7 [0.0, 0.0, 0.0, 0.0, 0.0, 0.0, 0.0, 0.0]
8 [0.0, 0.0, 0.0, 0.0, 0.0, 0.0, 0.0, 0.0]
9 [0.16731317, 0.11731318, 0.061686806, 0.061686806, 0.060686808, 0.060686808, 0.05968681, 0.05968681]
10 [0.16731317, 0.11731318, 0.061686806, 0.061686806, 0.060686808, 0.060686808, 0.05968681, 0.05968681]
11 [1.0417857, 0.11978571, 0.1793254, 0.17832541, 1.0096587, 0.17332539, 0.06021428, 0.93221426]
12 [0.16678572, 0.11978571, 0.0682143, 0.067214295, 0.06521428, 0.06221428, 0.06021428, 0.057214286]
13 [0.16543406, 0.12043406, 0.07456594, 0.073565945, 0.06956592, 0.06556593, 0.061565932, 0.057565935]
14 [0.54145056, 0.49945056, 0.27754945, 1.0108829, 1.0038828, 0.26554945, 0.05854945, 1.6678828]
15 [0.53772527, 0.49872527, 0.07027472, 0.27477473, 1.0137748, 0.25877473, 0.06027473, 0.92927474]
16 [0.16272528, 0.12372527, 0.07027472, 0.08727473, 0.076274715, 0.07127472, 0.06027473, 0.054274734]
17 [0.5362857, 0.49928573, 0.066285715, 0.2090989, 1.0472528, 0.1900989, 0.17309889, 0.9277143]
18 [0.16128571, 0.12428572, 0.066285715, 0.09371429, 0.085714296, 0.07471428, 0.057714276, 0.05271428]
19 [0.15367033, 0.12267032, 0.07567033, 0.15228571, 1.0913407, 0.08632967, 0.11428571, 0.09828572]
20 [0.15367033, 0.12267032, 0.07567033, 0.10832967, 0.10232968, 0.08632967, 0.07032966, 0.054329675]
21 [0.148989, 0.119989015, 0.077989005, 0.3073187, 1.0735494, 1.0525494, 0.26731867, 0.053011]
22 [0.898989, 0.86998904, 0.077989005, 0.11501099, 0.11201099, 0.09101099, 0.07501098, 0.053011]
23 [0.14139012, 0.11539011, 0.079390116, 0.08160989, 1.1069432, 0.18794322, 0.16594322, 0.14394322]
24 [0.8913901, 0.8653901, 0.079390116, 0.08160989, 0.12360989, 0.10460989, 0.082609884, 0.060609885]
25 [1.1214597, 0.11312638, 0.07912637, 0.07387363, 1.108207, 0.5902069, 0.08387362, 0.5442069]
26 [0.1360989, 0.1120989, 0.0770989, 0.07390111, 0.12390111, 0.1069011, 0.0839011, 1.0554066]
27 [0.13545056, 0.11045055, 0.07645055, 0.07054944, 0.12354944, 1.0777717, 0.08254945, 1.0327717]
28 [0.88545054, 0.86045057, 0.07645055, 0.07054944, 0.12354944, 0.105549455, 0.08254945, 0.060549453]
29 [0.13119781, 0.107197806, 0.07619781, 0.057802208, 0.12480219, 0.22518682, 0.085802205, 1.0573077]
30 [0.6311978, 0.6071978, 0.5761978, 0.057802208, 0.12480219, 0.1098022, 0.085802205, 0.0628022]
31 [0.50478023, 0.98178023, 0.4507802, 0.05421977, 0.12521978, 0.11021979, 0.08621979, 0.063219786]
32 [0.25451648, 0.23151648, 0.95051646, 0.92948353, 0.9994835, 0.23448353, 0.21048352, 0.18748352]
33 [0.5045165, 0.48151648, 0.95051646, 0.054483507, 0.12448351, 0.109483525, 0.08548352, 0.062483523]
34 [0.62950003, 0.6065, 0.5745, 0.060500007, 0.1235, 0.10750001, 0.5845, 0.5615]
35 [0.8809451, 0.85694504, 0.07394505, 0.07105494, 0.120054945, 0.10305493, 0.8310549, 0.81005496]
36 [0.5059451, 0.48194504, 0.94894505, 0.07105494, 0.120054945, 0.10305493, 0.081054956, 0.060054954]
37 [0.13495055, 0.108950555, 0.07395055, 0.09904944, 1.0436208, 1.0236208, 1.0046209, 0.27133518]
38 [1.0099505, 0.98395056, 0.07395055, 0.09904944, 0.11504945, 0.09504944, 0.07604946, 0.057049457]
39 [0.13916484, 0.11116483, 0.07016484, 0.10583516, 0.25568134, 1.0443736, 0.22368133, 0.20101099]
40 [0.89735717, 0.86535716, 0.06535715, 0.19064286, 0.18364286, 1.0383095, 0.16064286, 0.86864287]
41 [0.14735715, 0.115357146, 0.06535715, 0.090642855, 0.08364286, 0.07164285, 0.060642865, 0.76864284]
42 [0.90206593, 0.86306596, 0.072934076, 1.0497118, 1.0437118, 0.12860073, 0.11960074, 0.11760074]
43 [0.15206593, 0.113065936, 0.072934076, 0.071934074, 0.065934055, 0.06193406, 0.05293407, 0.050934073]
44 [0.15206593, 0.113065936, 0.072934076, 0.071934074, 0.065934055, 0.06193406, 0.05293407, 0.050934073]
45 [0.15206593, 0.113065936, 0.072934076, 0.071934074, 0.065934055, 0.06193406, 0.05293407, 0.050934073]
46 [0.9027033, 0.8517033, 0.09374115, 0.095741145, 1.0320745, 0.10074114, 0.059296716, 0.104741156]
47 [1.0313901, 0.0943901, 0.10227656, 1.0082765, 0.047609903, 1.0300567, 0.06360989, 1.7012765]
48 [0.8959176, 0.092250906, 0.07925092, 1.0214157, 0.10125092, 0.10141577, 0.11141576, 0.8210824]
49 [0.14591758, 0.05891757, 0.04591758, 0.03808241, 0.067917585, 0.06808243, 0.07808242, 0.07108243]
