0 [0.0, 0.0, 0.0, 0.0, 0.0, 0.0, 0.0, 0.0]
1 [0.9828772, 0.349806, 0.0, 0.0, 0.0, 0.0, 0.0, 0.0]
2 [0.98146176, 0.34599283, 0.0, 0.0, 0.0, 0.0, 0.0, 0.0]
3 [0.97982746, 0.3411371, 0.0, 0.0, 0.0, 0.0, 0.0, 0.0]
4 [0.9778767, 0.33628416, 0.0, 0.0, 0.0, 0.0, 0.0, 0.0]
5 [0.9762609, 0.33277047, 0.0, 0.0, 0.0, 0.0, 0.0, 0.0]
6 [0.9742507, 0.3290272, 0.0, 0.0, 0.0, 0.0, 0.0, 0.0]
7 [0.97234935, 0.3281677, 0.0, 0.0, 0.0, 0.0, 0.0, 0.0]
8 [0.97102475, 0.3278328, 0.0, 0.0, 0.0, 0.0, 0.0, 0.0]
9 [0.9692566, 0.32733062, 0.0, 0.0, 0.0, 0.0, 0.0, 0.0]
10 [0.9669217, 0.32572287, 0.0, 0.0, 0.0, 0.0, 0.0, 0.0]
11 [0.964046, 0.32375288, 0.4267701, 0.0, 0.0, 0.0, 0.0, 0.0]
12 [0.964046, 0.32375288, 0.4267701, 0.0, 0.0, 0.0, 0.0, 0.0]
13 [0.964046, 0.32375288, 0.4267701, 0.0, 0.0, 0.0, 0.0, 0.0]
14 [0.96024084, 0.3210341, 0.41766915, 0.0, 0.0, 0.0, 0.0, 0.0]
15 [0.96024084, 0.3210341, 0.41766915, 0.0, 0.0, 0.0, 0.0, 0.0]
16 [0.9468333, 0.31074506, 0.39180064, 0.0, 0.99456775, 0.0, 0.0, 0.0]
17 [0.94347465, 0.30679172, 0.38656208, 0.0, 0.9878063, 0.0, 0.0, 0.0]
18 [0.9411056, 0.30151808, 0.3833063, 0.0, 0.97913843, 0.0, 0.0, 0.0]
19 [0.9401782, 0.29726353, 0.3824081, 0.9654489, 0.97278655, 0.0, 0.0, 0.0]
20 [0.94014347, 0.29555073, 0.38265574, 0.96275216, 0.97052133, 0.0, 0.0, 0.0]
21 [0.94045293, 0.29306647, 0.38372016, 0.95888686, 0.96766007, 0.0, 0.0, 0.0]
22 [0.94207007, 0.2935791, 0.0, 0.95211715, 0.9629458, 0.0, 0.0, 0.0]
23 [0.94207007, 0.2935791, 0.0, 0.95211715, 0.9629458, 0.0, 0.0, 0.0]
24 [0.9439474, 0.2948091, 0.0, 0.94327927, 0.9563715, 0.0, 0.0, 0.0]
25 [0.94982505, 0.30042955, 0.0, 0.92376715, 0.94103724, 0.0, 0.0, 0.0]
26 [0.9537584, 0.30553105, 0.0, 0.9173464, 0.9352485, 0.0, 0.0, 0.0]
27 [0.4810053, 0.3106968, 0.0, 0.9119802, 0.92901814, 0.0, 0.0, 0.0]
28 [0.4810053, 0.3106968, 0.0, 0.9119802, 0.92901814, 0.0, 0.0, 0.0]
29 [0.29409322, 0.3330488, 0.0, 0.9235752, 0.9155687, 0.0, 0.0, 0.0]
30 [0.29560024, 0.33669367, 0.0, 0.9249366, 0.91270864, 0.0, 0.0, 0.0]
31 [0.29860148, 0.34516814, 0.0, 0.92336375, 0.0, 0.0, 0.0, 0.0]
32 [0.30007213, 0.35007957, 0.0, 0.92303675, 0.0, 0.0, 0.0, 0.0]
33 [0.30457374, 0.0, 0.0, 0.9225689, 0.0, 0.0, 0.0, 0.0]
34 [0.30457374, 0.0, 0.0, 0.9225689, 0.0, 0.0, 0.0, 0.0]
35 [0.30764914, 0.0, 0.8988882, 0.91389215, 0.0, 0.0, 0.0, 0.0]
36 [0.31258664, 0.0, 0.87617993, 0.8918374, 0.0, 0.0, 0.0, 0.0]
37 [0.3347729, 0.0, 0.8754558, 0.0, 0.0, 0.0, 0.0, 0.0]
38 [0.0, 0.8415008, 0.85566044, 0.0, 0.0, 0.0, 0.0, 0.853451]
39 [0.0, 0.83121496, 0.8320003, 0.0, 0.0, 0.0, 0.0, 0.79509735]
40 [0.0, 0.8318971, 0.0, 0.0, 0.0, 0.0, 0.0, 0.7696253]
41 [0.0, 0.8225837, 0.0, 0.0, 0.0, 0.0, 0.0, 0.7297689]
42 [0.0, 0.8064096, 0.0, 0.0, 0.0, 0.0, 0.0, 0.7023674]
43 [0.0, 0.78371835, 0.0, 0.0, 0.0, 0.0, 0.0, 0.67332804]
44 [0.8041324, 0.0, 0.0, 0.0, 0.0, 0.0, 0.0, 0.6436452]
45 [0.782702, 0.0, 0.0, 0.0, 0.0, 0.0, 0.0, 0.62663877]
46 [0.8011622, 0.0, 0.0, 0.0, 0.0, 0.0, 0.8876417, 0.61850655]
47 [0.80861807, 0.0, 0.0, 0.0, 0.0, 0.0, 0.81579006, 0.619705]
48 [0.80649227, 0.0, 0.0, 0.0, 0.0, 0.0, 0.74949354, 0.6242888]
49 [0.0, 0.0, 0.0, 0.0, 0.0, 0.0, 0.6970744, 0.62252694]
