0 [1.0, 1.0, 1.0, 1.0, 1.0, 1.0, 1.0, 1.0]
1 [1.0, 1.0, 1.0, 1.0, 1.0, 1.0, 1.0, 1.0]
2 [1.0, 1.0, 1.0, 1.0, 1.0, 1.0, 1.0, 1.0]
3 [1.0, 1.0, 1.0, 1.0, 1.0, 1.0, 1.0, 1.0]
4 [1.0, 1.0, 1.0, 1.0, 1.0, 1.0, 1.0, 1.0]
5 [1.0, 1.0, 1.0, 1.0, 1.0, 1.0, 1.0, 1.0]
6 [1.0, 1.0, 1.0, 1.0, 1.0, 1.0, 1.0, 1.0]
7 [1.0, 1.0, 1.0, 1.0, 1.0, 1.0, 1.0, 1.0]
8 [1.0, 1.0, 1.0, 1.0, 1.0, 1.0, 1.0, 1.0]
9 [1.0, 1.0, 1.0, 1.0, 1.0, 1.0, 1.0, 1.0]
10 [1.0, 1.0, 1.0, 1.0, 1.0, 1.0, 1.0, 1.0]
11 [1.0, 1.0, 1.0, 1.0, 1.0, 1.0, 1.0, 1.0]
12 [1.0, 1.0, 1.0, 1.0, 1.0, 1.0, 1.0, 1.0]
13 [1.0, 1.0, 1.0, 1.0, 1.0, 1.0, 1.0, 1.0]
14 [1.0, 1.0, 1.0, 1.0, 1.0, 1.0, 1.0, 1.0]
15 [1.0, 1.0, 1.0, 1.0, 1.0, 1.0, 1.0, 1.0]
16 [1.0, 1.0, 1.0, 1.0, 1.0, 1.0, 1.0, 1.0]
17 [1.0, 1.0, 1.0, 1.0, 1.0, 1.0001479, 1.0596874, 1.4410331]
18 [1.0, 1.0, 1.0, 1.0, 1.0, 1.0001119, 1.045137, 1.3335204]
19 [1.0, 1.0, 1.0, 1.0, 1.0, 1.0000845, 1.0340813, 1.2518293]
20 [1.0, 1.0, 1.0, 1.0, 1.0, 1.0000639, 1.0257583, 1.1903292]
21 [1.0, 1.0, 1.0, 1.0, 1.0, 1.0000483, 1.0194677, 1.1438477]
22 [1.0, 1.0, 1.0, 1.0, 1.0, 0.99980605, 0.9217448, 0.4217683]
23 [1.0178033, 1.0024095, 1.000006, 1.0, 1.0, 0.99985236, 0.94043124, 0.559843]
24 [1.6945069, 1.0939913, 1.0002329, 1.0, 1.0, 0.9998885, 0.9549981, 0.66747814]
25 [1.5659094, 1.0765876, 1.0001899, 1.0, 1.0, 0.9999157, 0.9659867, 0.7486739]
26 [1.286501, 1.0387737, 1.0000961, 1.0, 1.0, 0.99995756, 0.9828884, 0.8735616]
27 [1.2165354, 1.0293049, 1.0000726, 1.0, 1.0, 0.99996793, 0.98706734, 0.9044399]
28 [1.1636541, 1.0221481, 1.000055, 1.0, 1.0, 0.9999758, 0.99022573, 0.92777723]
29 [0.6779464, 0.95641476, 0.99989194, 1.0, 1.0, 0.99999356, 0.99739677, 0.98076457]
30 [1.0, 1.0, 1.0, 1.0, 1.0, 1.0, 1.0, 1.0]
31 [0.8162171, 0.9751277, 0.99993837, 1.0, 1.0, 1.0, 1.0, 1.0]
32 [0.86109984, 0.9812019, 0.9999534, 1.0, 1.0, 1.0, 1.0, 1.0]
33 [0.89512646, 0.9858069, 0.99996483, 1.0, 1.0, 1.0, 1.0, 1.0]
34 [0.9207383, 0.9892731, 0.9999734, 1.0, 1.0, 1.0, 1.0, 1.0]
35 [0.9400953, 0.99189276, 0.9999799, 1.0, 1.0, 1.0, 1.0, 1.0]
36 [0.95477027, 0.99387884, 0.9999848, 1.0, 1.0, 1.0, 1.0, 1.0]
37 [0.9658161, 0.9953737, 0.99998856, 1.0, 1.0, 1.0, 1.0, 1.0]
38 [0.97416437, 0.99650353, 0.99999136, 1.0, 1.0, 1.0, 1.0, 1.0]
39 [0.98049337, 0.99736005, 0.99999344, 1.0, 1.0, 1.0, 1.0, 1.0]
40 [1.0, 1.0, 1.0, 1.0, 1.0, 1.0, 1.0, 1.0]
41 [1.0, 1.0, 1.0, 1.0, 1.0, 1.0, 1.0, 1.0]
42 [1.0, 1.0, 1.0, 1.0, 1.0, 1.0, 1.0, 1.0]
43 [1.0, 1.0, 1.0, 1.0, 1.0, 1.0, 1.0, 1.0]
44 [1.0, 1.0, 1.0, 1.0, 1.0, 1.0, 1.0, 1.0]
45 [1.0, 1.0, 1.0, 1.0, 1.0, 1.0, 1.0, 1.0]
46 [1.0, 1.0, 1.0, 1.0, 1.0, 1.0, 1.0, 1.0]
47 [1.0, 1.0, 1.0, 1.0, 1.0, 1.0, 1.0, 1.0]
48 [1.0, 1.0, 1.0, 1.0, 1.0, 1.0, 1.0, 1.0]
49 [1.6963267, 1.0942376, 1.0002337, 1.0, 1.0, 1.0, 1.0, 1.0]
