0.14999999 1.0499998
0.14999999 1.0499998
0.14999999 1.0499998
0.14999999 1.0499998
0.14999999 1.0499998
0.14999999 1.0499998
0.15018083 1.0502586
0.15018083 1.0502586
0.15018083 1.0502586
0.14964856 1.0502188
0.14880572 1.0504289
0.14880572 1.0504289
0.14700834 1.050435
0.14700834 1.050435
0.14551821 1.0494351
0.14551821 1.0494351
0.14425978 1.0467408
0.14393547 1.0437464
0.14363518 1.0382183
0.14363518 1.0382183
0.14366391 1.0317852
0.14366391 1.0317852
0.14363098 1.0283551
0.143532 1.0245916
0.14329468 1.0203679
0.14329468 1.0203679
0.14254203 1.0105164
0.14210549 1.0052509
0.14164194 0.99992895
0.1399528 0.98971856
0.13868022 0.9849862
0.1373795 0.97520316
0.13897038 0.9698017
0.14765558 0.9583947
0.15353695 0.95365775
0.1665155 0.9463379
0.17237565 0.9438122
0.18356052 0.94050515
0.190765 0.939346
0.20124316 0.9383464
0.23099001 0.9377344
0.24825566 0.9385309
0.2847539 0.9413618
0.29852918 0.9425017
0.3244863 0.94482934
0.33798498 0.9458467
0.34685254 0.9466154
0.3520363 0.9470601
0.3520363 0.9470601
0.3520363 0.9470601
0.3520363 0.9470601
0.36640733 0.94771975
0.38264853 0.94916236
0.38264853 0.94916236
0.39082688 0.95047295
0.40081483 0.9519167
0.41220412 0.9532523
0.41220412 0.9532523
0.42331848 0.95440453
0.42331848 0.95440453
0.42331848 0.95440453
0.43574208 0.95489943
0.44957346 0.9547609
0.44957346 0.9547609
0.4772625 0.9524776
0.49214798 0.9502988
0.49214798 0.9502988
0.49214798 0.9502988
0.50665706 0.9477976
0.5208386 0.9450127
0.5208386 0.9450127
0.53517365 0.94200575
0.53517365 0.94200575
0.53517365 0.94200575
0.549434 0.9386567
0.56325793 0.93502295
0.5747276 0.93159735
0.5747276 0.93159735
0.58306134 0.92920274
0.5897699 0.927106
0.59487844 0.9255806
0.59487844 0.9255806
0.59906304 0.9240619
0.60265833 0.92261565
0.6080599 0.9194228
0.60999525 0.917735
0.6108959 0.9163847
0.61130035 0.9158416
0.6179778 0.9102637
0.6255254 0.90445626
0.636039 0.8964098
0.66239935 0.8761126
0.6715708 0.86910707
0.6815446 0.8607198
0.68855107 0.8548478
0.6991333 0.84599954
0.70186245 0.843291
0.70753753 0.83709323
0.70975536 0.8338167
0.71227545 0.82904035
0.71277773 0.8274576
0.71300495 0.8264698
0.712963 0.82592
0.7129395 0.82592136
0.71293217 0.8259648
0.712914 0.82599306
0.7128931 0.8260099
0.71243036 0.82628393
0.71104175 0.8279622
0.71020323 0.829456
0.7114939 0.83157045
0.7121177 0.8325211
0.7124052 0.8340003
0.71087015 0.83894986
0.7104548 0.84113264
0.71084684 0.84304696
0.7092162 0.84780276
0.7085728 0.849697
0.70969784 0.8502843
0.70969784 0.8502843
0.71100163 0.85042983
0.71168333 0.85050404
0.71168333 0.85050404
0.71168333 0.85050404
0.7120055 0.85037136
0.7129766 0.8491944
0.7155929 0.8465058
0.71985704 0.8422839
0.71985704 0.8422839
0.71985704 0.8422839
0.73463684 0.8279301
0.7443051 0.81818855
0.7443051 0.81818855
0.7525593 0.8102832
0.7525593 0.8102832
0.7673283 0.7934165
0.7673283 0.7934165
0.77068734 0.7891067
0.7737744 0.7845903
0.7766755 0.78015584
0.7766755 0.78015584
0.77894866 0.7756626
0.7806068 0.7714086
0.7828194 0.76677567
0.7867538 0.7618972
0.79144824 0.75730854
0.79660606 0.7533494
0.79660606 0.7533494
0.80231965 0.74993193
0.8082943 0.74746275
0.81607914 0.7450072
0.81607914 0.7450072
0.8268259 0.74276865
0.8401648 0.7411721
0.8401648 0.7411721
0.8549668 0.74043024
0.87044793 0.740617
0.8860363 0.7414571
0.8860363 0.7414571
0.901807 0.7426571
0.9174162 0.74427867
0.93295765 0.7460086
0.93295765 0.7460086
0.94824475 0.7477852
0.96124774 0.7490407
0.96124774 0.7490407
0.9725043 0.74989873
0.9816712 0.7503065
0.9891141 0.75051284
0.9891141 0.75051284
0.9965561 0.7505523
1.0036601 0.750218
1.0125225 0.74944794
1.0125225 0.74944794
1.0230553 0.7486417
1.036057 0.7475353
1.0371178 0.7473725
1.0370158 0.7472929
1.0376654 0.7471824
1.0387428 0.7467892
1.0398157 0.7461761
1.0397947 0.7460439
1.0399185 0.74556243
1.04127 0.7438325
1.042218 0.7423909
1.0429518 0.74075925
1.0447743 0.73874295
1.0482987 0.7343918
1.0509006 0.7321495
1.0509006 0.7321495
1.0555853 0.7305534
1.061317 0.7295994
1.068444 0.7295377
1.068444 0.7295377
1.0760295 0.73064935
1.0836561 0.7327917
1.0836561 0.7327917
1.0981383 0.73932326
1.1047828 0.7434476
1.1186097 0.75428164
1.12853 0.76321334
1.1498951 0.7850305
1.1587827 0.7947937
1.1711061 0.8091904
1.1802021 0.8192601
1.1892494 0.82900494
1.1957804 0.8361602
1.2012482 0.84213334
1.2068067 0.8483102
1.2122012 0.85460997
1.221946 0.8663279
1.225471 0.87072337
1.2274238 0.875342
1.2277098 0.8775948
1.2267578 0.8823145
1.2253854 0.88396966
1.2237833 0.88521326
1.2221801 0.886072
1.2207128 0.8865426
1.218275 0.88644
1.217386 0.8859267
1.2167294 0.8840755
1.2170962 0.8828618
1.2201548 0.8802317
1.2231395 0.8790668
1.2287786 0.879226
1.2370417 0.87860787
1.2399541 0.8786322
1.2435788 0.87935525
1.2475755 0.8809515
1.2559544 0.8864975
1.2612357 0.8909643
1.2756082 0.9040793
1.2831434 0.91135436
1.2968643 0.9264778
1.3025179 0.9334429
1.3025179 0.9334429
1.3072155 0.93985784
1.3107852 0.9455179
1.3121375 0.9541191
1.3121375 0.9541191
1.3116167 0.95808524
1.3116167 0.95808524
1.310631 0.9614994
1.310631 0.9614994
1.3094252 0.9643568
1.3081906 0.96691006
1.3081906 0.96691006
1.3081906 0.96691006
1.3081906 0.96691006
1.3043473 0.97230864
1.3046795 0.97331905
1.3103426 0.9740475
1.3132007 0.9739469
1.318669 0.9726342
1.3207717 0.97150123
1.3221371 0.9701847
1.3232576 0.9678768
1.323025 0.96659786
1.3212532 0.96361303
1.319574 0.96163404
1.3137456 0.95807076
1.310999 0.9563664
1.3012502 0.9510311
1.2971561 0.9486011
1.291553 0.9450849
1.2900028 0.94404536
1.2903993 0.9437912
1.2922386 0.943124
1.292989 0.942248
1.2948574 0.93913496
1.2964165 0.93731725
1.3038062 0.9361712
1.3083084 0.9371046
1.31682 0.9407711
1.3204983 0.94301206
1.3238307 0.9456002
1.3289793 0.950842
1.3300246 0.95248616
1.3307312 0.9541901
1.3303621 0.9547615
1.3297396 0.95695335
1.3325146 0.96077234
1.3397143 0.9699154
1.3425548 0.97434694
1.3463674 0.98252314
1.348417 0.9868932
1.3522298 0.99139345
1.3522298 0.99139345
