0 [1.0, 1.0, 1.0, 1.0, 1.0, 1.0, 1.0, 1.0]
1 [1.0, 1.0, 1.0, 1.0, 1.0, 1.0, 1.0, 1.0]
2 [1.0, 1.0, 1.0, 1.0, 1.0, 1.0, 1.0, 1.0]
3 [1.0, 1.0, 1.0, 1.0, 1.0, 1.0, 1.0, 1.0]
4 [1.0, 1.0, 1.0, 1.0, 1.0, 1.0, 1.0, 1.0]
5 [1.0, 1.0, 1.0, 1.0, 1.0, 1.0, 1.0, 1.0]
6 [1.0, 1.0, 1.0, 1.0, 1.0, 1.0, 1.0, 1.0]
7 [1.0, 1.0, 1.0, 1.0, 1.0, 1.0, 1.0, 1.0]
8 [1.0, 1.0, 1.0, 1.0, 1.0, 1.0, 1.0, 1.0]
9 [1.0, 1.0, 1.0, 1.0, 1.0, 1.0, 1.0, 1.0]
10 [1.0, 1.0, 1.0, 1.0, 1.0, 1.0, 1.0, 1.0]
11 [1.0, 1.0, 1.0, 1.0, 1.0, 1.0, 1.0, 1.0]
12 [1.0, 1.0, 1.0, 1.0, 1.0, 1.0, 1.0, 1.0]
13 [1.0, 1.0, 1.0, 1.0, 1.0, 1.0, 1.0, 1.0]
14 [1.0, 1.0, 1.0, 1.0, 1.0, 1.0, 1.0, 1.0]
15 [1.0, 1.0, 1.0, 1.0, 1.0, 1.0, 1.0, 1.0]
16 [1.0, 1.0, 1.0, 1.0, 1.0, 1.0, 1.0, 1.0]
17 [1.0, 1.0, 1.0, 1.0, 1.0, 1.0, 1.0, 1.0]
18 [1.0, 1.0, 1.0, 1.0, 1.0, 1.0, 1.0, 1.0]
19 [1.0, 1.0, 1.0, 1.0, 1.0, 1.0, 1.0, 1.0]
20 [1.0, 1.0, 1.0, 1.0, 1.0, 1.0, 1.0, 1.0]
21 [1.0, 1.0, 1.0, 1.0, 1.0, 1.0, 1.0, 1.0]
22 [1.0, 1.0, 1.0, 1.0, 1.0, 1.0, 1.0, 1.0]
23 [1.0, 1.0, 1.0, 1.0, 1.0, 1.0, 1.0, 1.0]
24 [1.0, 1.0, 1.0, 1.0, 1.0, 1.0, 1.0, 1.0]
25 [1.0, 1.0, 1.0, 1.0, 1.0, 1.0, 1.0, 1.0]
26 [1.0, 1.0, 1.0, 1.0, 1.0, 1.0, 1.0, 1.0]
27 [1.0, 1.0, 1.0, 1.0, 1.0, 1.0, 1.0, 1.0]
28 [1.0, 1.0, 1.0, 1.0, 1.0, 1.0, 1.0, 1.0]
29 [1.0, 1.0, 1.0, 1.0, 1.0, 1.0, 1.0, 1.0]
30 [1.0, 1.0002337, 1.0942376, 1.6963267, 1.0942376, 1.0002337, 1.0, 1.0]
31 [1.0, 1.0001968, 1.079421, 1.586847, 1.079421, 1.0001968, 1.0, 1.0]
32 [1.0, 1.0001498, 1.0604635, 1.4467688, 1.0604635, 1.0001498, 1.0, 1.0]
33 [1.0, 1.0001134, 1.0457274, 1.3378824, 1.0457274, 1.0003469, 1.0942252, 1.6962347]
34 [1.0, 1.0000856, 1.0345273, 1.2551242, 1.0345273, 1.0002824, 1.079421, 1.586847]
35 [1.0, 1.0000647, 1.0260953, 1.1928196, 1.0260953, 1.0002147, 1.0605237, 1.4472129]
36 [1.0, 1.0000489, 1.0197225, 1.1457299, 1.0197225, 1.0001624, 1.0457731, 1.3382202]
37 [1.0, 0.99976957, 0.90704715, 0.31316614, 0.90704715, 0.9998552, 1.0345619, 1.2553794]
38 [1.0, 0.99979645, 0.9178794, 0.39320636, 0.9178794, 0.9998612, 1.0261214, 1.1930125]
39 [1.0, 0.9998444, 0.9372129, 0.5360624, 0.9372129, 0.9998933, 1.0197421, 1.1458757]
40 [1.0, 0.9998824, 0.95255005, 0.64938974, 0.95255005, 0.99965215, 0.90710866, 0.31362087]
41 [1.0, 0.9999111, 0.96413547, 0.734995, 0.96413547, 0.9997074, 0.9178066, 0.39266866]
42 [1.0, 0.9999328, 0.972894, 0.7997123, 0.972894, 0.9997772, 0.9372129, 0.5360624]
43 [1.0, 0.9999493, 0.9795342, 0.84877706, 0.9795342, 0.99983156, 0.9525026, 0.64903927]
44 [1.0, 0.9999617, 0.9845323, 0.88570815, 0.9845323, 0.9998727, 0.9640996, 0.7347298]
45 [1.0, 0.99997103, 0.9883214, 0.9137064, 0.9883214, 0.99990386, 0.972894, 0.7997123]
46 [1.0, 0.9999781, 0.9911735, 0.9347807, 0.9911735, 0.99992734, 0.9795137, 0.8486258]
47 [1.0, 0.9999835, 0.9933291, 0.9507083, 0.9933291, 0.9999451, 0.9845168, 0.8855938]
48 [1.0, 0.99998754, 0.9949633, 0.9627834, 0.9949633, 0.9999586, 0.98830974, 0.91362005]
49 [1.0, 0.9999906, 0.99619335, 0.97187227, 0.99619335, 0.9999687, 0.9911647, 0.93471545]
