1.9805263281 -0.4999991953
1.9787250757 -0.5000497699
1.9729343653 -0.5000733137
1.963629961 -0.5000012517
1.9538042545 -0.5000119805
1.9440352917 -0.5000175834
1.9344066381 -0.500009954
1.9248199463 -0.4999812245
1.9153864384 -0.4999528527
1.9060137272 -0.4999101162
1.8967870474 -0.4998722076
1.8876308203 -0.4998350143
1.8785793781 -0.4998103976
1.8696508408 -0.4997625947
1.8607492447 -0.4996996522
1.8520002365 -0.4996446967
1.8432840109 -0.4996031225
1.8347584009 -0.4995588362
1.8262927532 -0.4995265901
1.8177887201 -0.4994001985
1.8093774319 -0.4992671907
1.8011703491 -0.4992893338
1.792963624 -0.4994499087
1.7847948074 -0.4996718466
1.7766004801 -0.4997465014
1.7684675455 -0.4997354448
1.7603828907 -0.4999340177
1.7523692846 -0.5001667142
1.7444493771 -0.5005282164
1.7364877462 -0.5009605885
1.7285089493 -0.5014292598
1.7205063105 -0.5019743443
1.7125307322 -0.5026033521
1.7044477463 -0.5032782555
1.6963226795 -0.504047513
1.6881917715 -0.5048683882
1.6799879074 -0.5057250261
1.671762228 -0.5066580176
1.6634413004 -0.5076241493
1.655118227 -0.5086372495
1.6467431784 -0.5097137094
1.6392492056 -0.5106207728
1.6324846745 -0.5112429857
1.626208663 -0.5116673708
1.6191747189 -0.5123492479
1.6119636297 -0.5133485794
1.6047885418 -0.5143834352
1.5975148678 -0.5155603886
1.590349555 -0.5168179274
1.583075285 -0.5181488395
1.5757359266 -0.5195733309
1.5683904886 -0.5210866332
1.5610865355 -0.5227037668
1.5537693501 -0.5244281292
1.5463900566 -0.526272893
1.5389972925 -0.5281949043
1.531616807 -0.5301826596
1.5242524147 -0.5322827101
1.5168328285 -0.5344669819
1.5093529224 -0.5367873907
1.5018743277 -0.5392315388
1.494385004 -0.5417235494
1.4868586063 -0.5443174839
1.4793735743 -0.5469872952
1.4718760252 -0.5497400165
1.4643865824 -0.5525522828
1.4569113255 -0.555460453
1.4494433403 -0.5584427118
1.4419872761 -0.5614881516
1.43450284 -0.5646138787
1.4270532131 -0.5678117871
1.4189847708 -0.5714222193
1.4105964899 -0.575361073
1.4022980928 -0.5793009996
1.3940236568 -0.5832067132
1.3858015537 -0.5870785117
1.3776214123 -0.5908993483
1.3694765568 -0.594687283
1.3613119125 -0.5984016061
1.3531867266 -0.6020909548
1.3450541496 -0.6057409644
1.3369169235 -0.609367907
1.3288097382 -0.612958014
1.3206546307 -0.6165031791
1.3125156164 -0.6200070977
1.3043544292 -0.6234840751
1.2961663008 -0.6269446015
1.2879601717 -0.6303697228
1.279722929 -0.6337424517
1.2714891434 -0.6370957494
1.263207674 -0.6404305696
1.2548954487 -0.6437252164
1.2465387583 -0.6470025182
1.2381484509 -0.6502504945
1.2296946049 -0.6534726024
1.2212136984 -0.6567075849
1.2122529745 -0.66001755
1.2030593157 -0.6633121967
1.1938903332 -0.6665807366
1.1846868992 -0.6698606014
1.1755161285 -0.6731274724
1.1663509607 -0.6763887405
1.1571794748 -0.6796589494
1.1479833126 -0.6829472184
1.1388063431 -0.6862338185
1.1296204329 -0.6895222068
1.1204345226 -0.6928018332
1.1112763882 -0.6960772276
1.1020896435 -0.6993585229
1.0928993225 -0.7026404738
1.083727479 -0.7059184909
1.0745575428 -0.709189117
1.0653636456 -0.7124714851
1.0561935902 -0.7157556415
1.0470073223 -0.7190403938
1.0378183126 -0.7223223448
1.0286347866 -0.725600481
1.019477129 -0.7288716435
1.0102851391 -0.732164979
1.0011261702 -0.7354368567
0.9919351339 -0.7387212515
0.9827651978 -0.7420056462
0.9735864401 -0.745283246
0.964409709 -0.7485617399
0.9552224874 -0.7518476844
0.9460579753 -0.7551169991
0.9368821979 -0.7583994865
0.9277137518 -0.7616735697
0.9185385704 -0.7649482489
0.9093562961 -0.7682319283
0.9001644254 -0.7715218663
0.8910047412 -0.7747951746
0.8818124533 -0.7780806422
0.8726403117 -0.7813652754
0.8634681702 -0.7846378088
0.8542906046 -0.7879065275
0.8450967669 -0.791187048
0.8359618187 -0.7944597006
0.8269519806 -0.797683835
0.8180678487 -0.8008500338
0.8093091249 -0.8039711118
0.8008168936 -0.807009995
0.792574048 -0.8099511266
0.7845574021 -0.8128148317
0.7767686248 -0.8155924678
0.7691865563 -0.818292141
0.7618563175 -0.8208993673
0.7547098398 -0.8234559298
0.7477794886 -0.825941205
0.7410283685 -0.8283669353
0.7345141768 -0.8307074308
0.7281376123 -0.8329963684
0.7219694853 -0.8352190256
0.7159646749 -0.8373810649
0.7101569772 -0.8394700885
0.7044938207 -0.8415139318
0.6989997625 -0.8434952497
0.6936424375 -0.8454265594
0.6884268522 -0.8473086357
0.6834267378 -0.8491188288
0.6784937382 -0.8509116173
0.673751533 -0.8526309729
0.6691197157 -0.8543080091
0.6646400094 -0.8559321165
0.6602562666 -0.8575214148
0.6559954882 -0.8590682149
0.6518834233 -0.8605713844
0.6478718519 -0.8620265722
0.64398247 -0.8634405136
0.6401874423 -0.8648219109
0.6365160942 -0.866158843
0.6329287887 -0.8674697876
0.6294440031 -0.8687433004
0.6260961294 -0.8699663281
0.6227908731 -0.871173501
0.6196144223 -0.8723319173
0.6165314317 -0.8734566569
0.613488555 -0.8745704889
0.610548079 -0.8756453395
0.6076945066 -0.8766938448
0.6049355865 -0.8777045012
0.6022333503 -0.8786953688
0.5996052027 -0.8796595335
0.5970642567 -0.8805904388
0.5945943594 -0.881500721
0.5922082663 -0.8823769689
0.589818716 -0.8832522631
0.5875819921 -0.8840789795
0.5853378773 -0.8849079013
0.5832005739 -0.8856949806
0.5811030865 -0.8864696622
0.5790632963 -0.8872233629
0.5770699978 -0.8879538774
0.5751595497 -0.8886624575
0.5732916594 -0.8893504143
0.5714611411 -0.8900254369
0.5696914792 -0.8906764984
0.5679808855 -0.8913113475
0.566313386 -0.8919278979
0.5646715164 -0.8925367594
0.5631124973 -0.8931132555
0.5615566969 -0.8936879039
0.560049057 -0.8942476511
0.5585973263 -0.8947834969
0.5571981072 -0.8953028917
0.5558180213 -0.8958150744
0.5544794798 -0.8963097334
0.5531746149 -0.896794498
0.5518859029 -0.8972753286
0.5506144762 -0.8977518082
0.550414741 -0.8977839351
0.5505059361 -0.8976391554
0.5505825877 -0.8974655271
0.5506489873 -0.8972826004
0.5506927371 -0.8970964551
0.5507248044 -0.8969092369
0.5507265925 -0.8967449069
0.5507400632 -0.8965875506
0.5507520437 -0.8964071274
0.5507448912 -0.8962492943
0.5507310033 -0.896086812
0.5507032275 -0.8959234357
0.5507065058 -0.8957629204
0.5506694317 -0.8956159353
0.5506461859 -0.8954575658
0.5520476699 -0.894707799
0.5541873574 -0.8934443593
0.5565143824 -0.8919590712
0.5587215424 -0.8904613256
0.560741365 -0.8890537024
0.5626034141 -0.8876854181
0.56433779 -0.8863962293
0.5659970045 -0.8850906491
0.5675303936 -0.8838278651
0.568967104 -0.8825514913
0.5703390837 -0.8813122511
0.5715892315 -0.8801912069
0.5715824366 -0.8797739148
0.5702310801 -0.880112946
0.5685049891 -0.880633831
0.5667651296 -0.8811711073
0.5651210546 -0.8816390038
0.5634345412 -0.8821591139
0.5617331862 -0.882624805
0.5601601005 -0.883128047
0.5585865378 -0.8836163282
0.5570305586 -0.8840965033
0.5555187464 -0.8845953941
0.5541335344 -0.885073483
0.5526890159 -0.8855732083
0.5512759686 -0.886071682
0.5498223305 -0.8865178227
0.548433423 -0.8870179057
0.5470005274 -0.8875635862
0.5455557108 -0.8881078959
0.5448504686 -0.8881253004
0.5443140268 -0.8876729012
0.5437470078 -0.88715446
0.5440416932 -0.8857920766
0.5447622538 -0.8837786913
0.5456901193 -0.8812945485
0.546520412 -0.8787457347
0.5470696688 -0.8763872981
0.5466521382 -0.875133872
0.5452129245 -0.8752773404
0.5437785983 -0.8756381273
0.5423446894 -0.8760583997
0.5408569574 -0.8765720129
0.5394221544 -0.8770659566
0.5379821062 -0.8774574995
0.5365086198 -0.8780323863
0.5350190401 -0.8787395358
0.5336056948 -0.8794748187
0.5320824385 -0.8804349899
0.5306288004 -0.8812457919
0.5291174054 -0.8821815252
0.5277238488 -0.8831008673
0.5257068276 -0.8854572177
0.5232654214 -0.8892070651
0.5208048224 -0.8938905597
0.5184957981 -0.8986408114
0.5165701509 -0.9027271271
0.5146770477 -0.9062014818
0.5128647089 -0.9090777636
0.5112775564 -0.9110378027
0.5098844767 -0.9121309519
0.5083404183 -0.9125707746
0.5067430735 -0.9131717682
0.5051481128 -0.9140108824
0.5035113096 -0.9151026607
0.5018338561 -0.9175502062
0.5003203154 -0.9211388826
0.4990766943 -0.9256836176
0.4981535375 -0.9309557676
0.4973801672 -0.9363740087
0.4967873991 -0.941891551
0.496278584 -0.9475029707
0.4958849847 -0.9529895782
0.4955390394 -0.9584838152
0.4953510165 -0.9639242887
0.4952174127 -0.9694567919
0.4952307642 -0.9750102162
0.4953464568 -0.9805155993
0.4956397414 -0.9863426089
0.4960218072 -0.992035687
0.496522516 -0.9976819754
0.4974840581 -1.0044444799
0.4988860488 -1.0120313168
0.5008986592 -1.020555377
0.5033513904 -1.0298299789
0.5060689449 -1.0392178297
0.5088139772 -1.0485627651
0.5115077496 -1.0579160452
0.5142005086 -1.0672539473
0.5168474317 -1.076680541
0.5194844007 -1.0860500336
0.5221217275 -1.0954501629
0.5247534513 -1.1048264503
0.5273851752 -1.1142141819
0.5300222039 -1.1236133575
0.5326516628 -1.1329827309
0.5352813601 -1.1423767805
0.5379320383 -1.1517556906
0.540558815 -1.1611481905
0.5431931615 -1.1705424786
0.5458353758 -1.1799157858
0.54847157 -1.1893001795
0.5510851741 -1.1986801624
0.5537190437 -1.2080743313
0.5563471913 -1.2174450159
0.5589609742 -1.2268359661
0.5616139174 -1.2362369299
0.5642531514 -1.2456258535
0.5668665171 -1.2549962997
0.5695052147 -1.264390707
0.5721464157 -1.2737858295
0.5747712851 -1.2831481695
0.5773969889 -1.2925341129
0.5800261497 -1.3019167185
0.5826646686 -1.31130898
0.5852957964 -1.3207048178
0.5879217386 -1.3300769329
0.590542376 -1.3394616842
0.5931799412 -1.3488395214
0.5958150029 -1.3582265377
0.5984430313 -1.3676220179
0.6010693908 -1.3770098686
0.6036883593 -1.3863930702
0.6063075066 -1.3957583904
0.608954072 -1.405154109
0.6115809679 -1.4145342112
0.6142140627 -1.4239159822
0.6168423891 -1.4333026409
0.6194688678 -1.4426834583
0.6221060753 -1.4520787001
0.6247473955 -1.461450696
0.6273690462 -1.4707791805
0.6299077272 -1.4798753262
0.6323483586 -1.4886875153
0.6347112656 -1.4971820116
0.6369686127 -1.5053287745
0.6390869617 -1.513099432
0.641158402 -1.5205926895
0.6430925131 -1.5276591778
0.6449084282 -1.534299612
0.6466106176 -1.5405757427
0.6481844783 -1.5464861393
0.6497006416 -1.5521104336
0.6510858536 -1.5573686361
0.6524397135 -1.5623630285
0.6536506414 -1.5670331717
0.6548153162 -1.571424365
0.6558754444 -1.5755034685
0.6568894386 -1.5794606209
0.6578471661 -1.5832183361
0.6587262154 -1.5866439342
0.659522891 -1.5899336338
0.6602549553 -1.5931421518

