1 69 64.5 64.5
2 78 78.0 142.5
3 29 29.0 171.5
4 60 58.5 230.0
5 116 80.0 310.0
6 20 20.0 330.0
7 70 53.0 383.0
8 97 72.5 455.5
9 57 57.0 512.5
10 39 35.0 547.5
11 47 40.0 587.5
12 55 55.0 642.5
13 95 65.0 707.5
14 113 90.5 798.0
15 69 44.5 842.5
16 98 77.0 919.5
17 31 28.0 947.5
18 76 43.0 990.5
19 101 83.0 1073.5
20 19 19.0 1092.5
21 57 57.0 1149.5
22 72 72.0 1221.5
23 73 73.0 1294.5
24 73 69.0 1363.5
25 127 104.0 1467.5
26 47 37.5 1505.0
27 65 55.5 1560.5
28 34 34.0 1594.5
29 154 105.0 1699.5
30 97 77.5 1777.0
31 150 77.5 1854.5
32 39 32.0 1886.5
33 32 30.0 1916.5
34 85 69.0 1985.5
35 34 31.0 2016.5
36 87 78.5 2095.0
37 81 63.0 2158.0
38 31 31.0 2189.0
39 74 74.0 2263.0
40 63 59.0 2322.0
41 152 125.0 2447.0
42 1 1.0 2448.0
43 64 49.5 2497.5
44 87 68.0 2565.5
45 72 39.0 2604.5
46 217 186.0 2790.5
47 64 59.0 2849.5
48 58 47.0 2896.5
49 59 47.0 2943.5
50 73 69.0 3012.5
51 107 99.0 3111.5
52 34 34.0 3145.5
53 110 99.0 3244.5
54 60 39.0 3283.5
55 222 189.5 3473.0
56 94 90.5 3563.5
57 31 31.0 3594.5
58 93 84.5 3679.0
59 63 61.5 3740.5
60 119 82.0 3822.5
61 158 117.0 3939.5
62 38 38.0 3977.5
63 46 46.0 4023.5
64 43 43.0 4066.5
65 128 62.5 4129.0
66 133 92.0 4221.0
67 79 77.0 4298.0
68 115 92.5 4390.5
69 29 25.5 4416.0
70 108 72.5 4488.5
71 128 119.5 4608.0
72 32 31.0 4639.0
73 92 80.0 4719.0
74 43 40.5 4759.5
75 44 44.0 4803.5
76 159 135.0 4938.5
77 113 84.5 5023.0
78 116 96.0 5119.0
79 42 42.0 5161.0
80 1 1.0 5162.0
81 59 54.0 5216.0
82 157 140.0 5356.0
83 227 172.5 5528.5
84 118 73.0 5601.5
85 102 92.0 5693.5
86 80 65.0 5758.5
87 115 82.5 5841.0
88 20 20.0 5861.0
89 23 21.0 5882.0
90 131 108.5 5990.5
91 78 52.0 6042.5
92 75 49.0 6091.5
93 52 52.0 6143.5
94 126 108.5 6252.0
95 156 128.0 6380.0
96 115 108.0 6488.0
97 135 103.0 6591.0
98 197 153.5 6744.5
99 195 168.0 6912.5
100 67 64.0 6976.5
101 70 52.0 7028.5
102 101 97.0 7125.5
103 30 27.5 7153.0
104 85 78.0 7231.0
105 125 110.0 7341.0
106 47 45.0 7386.0
107 98 93.0 7479.0
108 97 69.5 7548.5
109 47 48.0 7596.5
110 70 70.0 7666.5
111 37 34.0 7700.5
112 1 0.5 7701.0
113 121 101.5 7802.5
114 100 79.0 7881.5
115 32 23.5 7905.0
116 35 30.0 7935.0
117 106 82.0 8017.0
118 59 49.5 8066.5
119 103 91.5 8158.0
120 49 37.5 8195.5
121 60 53.0 8248.5
122 80 48.0 8296.5
123 29 29.0 8325.5
124 28 24.0 8349.5
125 118 64.5 8414.0
126 58 47.0 8461.0
127 82 43.5 8504.5
128 88 75.5 8580.0
129 36 27.5 8607.5
130 211 161.0 8768.5
131 69 55.0 8823.5
132 105 72.0 8895.5
133 60 49.0 8944.5
134 143 115.5 9060.0
135 188 128.5 9188.5
136 198 144.5 9333.0
137 76 68.5 9401.5
138 193 165.0 9566.5
139 83 70.0 9636.5
140 66 56.0 9692.5
141 61 58.0 9750.5
142 110 103.5 9854.0
143 50 44.0 9898.0
144 157 140.5 10038.5
145 112 89.5 10128.0
146 72 51.0 10179.0
147 84 58.0 10237.0
148 115 87.5 10324.5
149 96 74.0 10398.5
150 56 43.0 10441.5
151 52 46.0 10487.5
152 71 63.0 10550.5
153 119 75.5 10626.0
154 116 98.0 10724.0
155 84 59.0 10783.0
156 25 25.0 10808.0
157 175 154.0 10962.0
158 81 63.5 11025.5
159 78 75.0 11100.5
160 66 64.0 11164.5
161 52 52.0 11216.5
162 209 158.0 11374.5
163 124 99.0 11473.5
164 48 46.5 11520.0
165 107 95.5 11615.5
166 75 62.0 11677.5
167 85 69.5 11747.0
168 202 167.0 11914.0
169 100 96.5 12010.5
170 155 135.0 12145.5
171 181 156.5 12302.0
172 173 99.5 12401.5
173 55 54.0 12455.5
174 138 93.5 12549.0
175 66 65.0 12614.0
176 78 71.0 12685.0
177 85 68.5 12753.5
178 54 47.0 12800.5
179 113 95.5 12896.0
180 53 50.0 12946.0
181 78 70.0 13016.0
182 22 22.0 13038.0
183 137 124.0 13162.0
184 111 84.5 13246.5
185 168 131.5 13378.0
186 61 56.5 13434.5
187 98 46.0 13480.5
188 208 149.0 13629.5
189 61 58.0 13687.5
190 228 181.0 13868.5
191 204 108.5 13977.0
192 109 67.0 14044.0
193 262 168.5 14212.5
194 61 56.5 14269.0
195 226 160.0 14429.0
196 53 46.5 14475.5
197 174 137.0 14612.5
198 45 45.0 14657.5
199 67 65.5 14723.0
200 287 262.0 14985.0
201 87 76.0 15061.0
202 124 93.0 15154.0
203 201 139.0 15293.0
204 86 79.5 15372.5
205 113 96.0 15468.5
206 324 226.5 15695.0
207 54 37.5 15732.5
208 79 70.0 15802.5
209 96 86.0 15888.5
210 44 37.0 15925.5
211 78 39.5 15965.0
212 146 105.5 16070.5
213 236 170.0 16240.5
214 131 98.5 16339.0
215 29 26.5 16365.5
216 130 113.5 16479.0
217 151 114.5 16593.5
218 298 228.5 16822.0
219 240 162.5 16984.5
220 291 194.5 17179.0
221 201 151.5 17330.5
222 174 117.0 17447.5
223 1 0.0 17447.5
224 213 166.5 17614.0
225 1 1.0 17615.0
226 184 137.5 17752.5
227 71 57.5 17810.0
228 76 59.0 17869.0
229 74 60.5 17929.5
230 348 264.5 18194.0
231 226 176.0 18370.0
232 106 77.5 18447.5
233 75 63.0 18510.5
234 98 72.5 18583.0
235 104 78.5 18661.5
236 137 102.5 18764.0
237 67 56.0 18820.0
238 154 90.5 18910.5
239 68 68.0 18978.5
240 331 219.0 19197.5
241 75 55.5 19253.0
242 37 34.0 19287.0
243 156 95.0 19382.0
244 91 60.0 19442.0
245 66 61.5 19503.5
246 80 74.5 19578.0
247 61 50.5 19628.5
248 210 168.0 19796.5
249 34 34.0 19830.5
250 110 86.5 19917.0
251 124 90.5 20007.5
252 312 220.5 20228.0
253 70 70.0 20298.0
254 259 210.5 20508.5
255 71 63.0 20571.5
256 116 97.5 20669.0
257 284 182.5 20851.5
258 70 65.5 20917.0
259 129 95.0 21012.0
260 96 72.0 21084.0
261 115 111.0 21195.0
262 204 135.5 21330.5
263 67 57.5 21388.0
264 61 48.0 21436.0
265 141 87.0 21523.0
266 120 96.5 21619.5
267 140 109.5 21729.0
268 229 158.5 21887.5
269 277 206.5 22094.0
270 86 84.0 22178.0
271 197 150.0 22328.0
272 25 20.0 22348.0
273 121 80.0 22428.0
274 64 59.0 22487.0
275 133 115.0 22602.0
276 151 91.5 22693.5
277 127 116.0 22809.5
278 188 135.5 22945.0
279 28 27.0 22972.0
280 87 71.5 23043.5
281 113 76.0 23119.5
282 211 145.5 23265.0
283 181 112.5 23377.5
284 39 38.0 23415.5
285 93 68.0 23483.5
286 113 110.5 23594.0
287 167 122.0 23716.0
288 70 45.0 23761.0
289 164 124.0 23885.0
290 128 122.5 24007.5
291 167 118.0 24125.5
292 111 74.0 24199.5
293 157 128.5 24328.0
294 1 1.0 24329.0
295 317 211.0 24540.0
296 62 52.5 24592.5
297 1 1.0 24593.5
298 90 76.0 24669.5
299 120 84.5 24754.0
300 36 36.0 24790.0
301 290 223.5 25013.5
302 247 180.0 25193.5
303 198 147.5 25341.0
304 101 86.0 25427.0
305 200 185.5 25612.5
306 165 106.0 25718.5
307 436 323.0 26041.5
308 165 140.0 26181.5
309 146 104.5 26286.0
310 150 105.0 26391.0
311 3 0.0 26391.0
312 97 66.0 26457.0
313 101 85.5 26542.5
314 100 77.0 26619.5
315 356 201.5 26821.0
316 79 74.0 26895.0
317 134 111.5 27006.5
318 215 128.5 27135.0
319 1 1.0 27136.0
320 169 132.0 27268.0
321 50 48.0 27316.0
322 136 111.0 27427.0
323 125 108.5 27535.5
324 117 82.0 27617.5
325 210 164.5 27782.0
326 332 253.0 28035.0
327 195 110.0 28145.0
328 162 144.0 28289.0
329 194 156.0 28445.0
330 248 162.5 28607.5
331 70 62.0 28669.5
332 86 67.0 28736.5
333 240 175.5 28912.0
334 95 77.5 28989.5
335 167 120.5 29110.0
336 113 100.5 29210.5
337 395 251.5 29462.0
338 131 121.5 29583.5
339 212 168.0 29751.5
340 300 239.5 29991.0
341 205 148.0 30139.0
342 133 112.0 30251.0
343 47 31.0 30282.0
344 325 235.5 30517.5
345 77 71.0 30588.5
346 109 87.0 30675.5
347 120 93.0 30768.5
348 153 132.0 30900.5
349 246 197.0 31097.5
350 180 111.0 31208.5
351 313 226.0 31434.5
352 41 40.5 31475.0
353 138 108.0 31583.0
354 148 88.0 31671.0
355 108 58.0 31729.0
356 292 223.5 31952.5
357 159 105.0 32057.5
358 109 103.5 32161.0
359 49 47.5 32208.5
360 221 173.5 32382.0
361 54 54.0 32436.0
362 63 61.5 32497.5
363 122 98.5 32596.0
364 1 1.0 32597.0
365 97 90.0 32687.0
366 146 124.5 32811.5
367 111 76.5 32888.0
368 58 58.0 32946.0
369 135 84.0 33030.0
370 125 88.5 33118.5
371 50 32.0 33150.5
372 69 50.0 33200.5
373 196 142.5 33343.0
374 339 280.0 33623.0
375 541 429.5 34052.5
376 97 78.5 34131.0
377 85 61.0 34192.0
378 276 161.5 34353.5
379 70 70.0 34423.5
380 227 131.5 34555.0
381 2 2.0 34557.0
382 367 249.0 34806.0
383 128 98.5 34904.5
384 136 123.5 35028.0
385 261 207.5 35235.5
386 66 61.0 35296.5
387 70 55.0 35351.5
388 91 66.0 35417.5
389 329 271.5 35689.0
390 127 108.0 35797.0
391 56 56.0 35853.0
392 83 64.0 35917.0
393 142 118.5 36035.5
394 133 109.5 36145.0
395 188 130.5 36275.5
396 103 87.5 36363.0
397 105 90.0 36453.0
398 396 292.0 36745.0
399 364 211.5 36956.5
400 249 144.0 37100.5
401 130 107.5 37208.0
402 700 536.0 37744.0
403 230 180.0 37924.0
404 162 130.0 38054.0
405 481 344.5 38398.5
406 333 233.5 38632.0
407 107 73.0 38705.0
408 118 100.0 38805.0
409 54 54.0 38859.0
410 53 50.5 38909.5
411 254 201.0 39110.5
412 117 104.5 39215.0
413 387 297.0 39512.0
414 38 38.0 39550.0
415 230 167.0 39717.0
416 166 141.0 39858.0
417 81 71.5 39929.5
418 149 139.0 40068.5
419 108 97.0 40165.5
420 377 254.5 40420.0
421 464 289.0 40709.0
422 248 203.0 40912.0
423 19 19.0 40931.0
424 70 70.0 41001.0
425 84 70.5 41071.5
426 7 7.0 41078.5
427 57 56.0 41134.5
428 549 332.5 41467.0
429 82 64.5 41531.5
430 167 117.5 41649.0
431 155 132.5 41781.5
432 28 27.5 41809.0
433 47 43.5 41852.5
434 246 156.0 42008.5
435 121 69.5 42078.0
436 145 95.0 42173.0
437 419 335.5 42508.5
438 350 251.0 42759.5
439 140 113.0 42872.5
440 82 69.0 42941.5
441 114 79.0 43020.5
442 140 116.5 43137.0
443 700 571.0 43708.0
444 700 556.0 44264.0
445 91 73.0 44337.0
446 167 133.0 44470.0
447 185 129.5 44599.5
448 700 529.5 45129.0
449 120 106.5 45235.5
450 70 69.5 45305.0
451 1 1.0 45306.0
452 141 117.5 45423.5
453 314 200.5 45624.0
454 115 81.5 45705.5
455 248 141.0 45846.5
456 205 131.5 45978.0
457 231 172.5 46150.5
458 700 546.0 46696.5
459 700 484.0 47180.5
460 66 64.5 47245.0
461 100 91.0 47336.0
462 700 437.5 47773.5
463 105 59.0 47832.5
464 47 42.0 47874.5
465 110 65.5 47940.0
466 202 157.5 48097.5
467 209 171.5 48269.0
468 86 78.5 48347.5
469 110 90.0 48437.5
470 462 314.5 48752.0
471 61 61.0 48813.0
472 66 64.0 48877.0
473 700 567.0 49444.0
474 73 66.0 49510.0
475 700 491.5 50001.5
476 417 324.0 50325.5
477 111 80.5 50406.0
478 95 77.5 50483.5
479 107 68.5 50552.0
480 105 97.5 50649.5
481 435 273.0 50922.5
482 66 66.0 50988.5
483 73 61.5 51050.0
484 322 221.5 51271.5
485 92 88.5 51360.0
486 122 102.5 51462.5
487 155 108.0 51570.5
488 569 418.5 51989.0
489 73 63.0 52052.0
490 678 528.0 52580.0
491 700 510.0 53090.0
492 173 129.0 53219.0
493 155 95.0 53314.0
494 458 334.0 53648.0
495 141 104.0 53752.0
496 122 99.5 53851.5
497 104 92.0 53943.5
498 700 524.0 54467.5
499 48 47.5 54515.0
500 700 534.5 55049.5
501 584 430.0 55479.5
502 147 105.5 55585.0
503 41 39.0 55624.0
504 48 48.0 55672.0
505 101 71.5 55743.5
506 145 102.5 55846.0
507 190 141.5 55987.5
508 193 136.0 56123.5
509 630 432.0 56555.5
510 61 54.5 56610.0
511 186 164.0 56774.0
512 700 491.5 57265.5
513 70 42.5 57308.0
514 700 459.5 57767.5
515 122 88.5 57856.0
516 147 99.0 57955.0
517 700 485.0 58440.0
518 700 566.5 59006.5
519 65 62.5 59069.0
520 214 144.0 59213.0
521 75 65.5 59278.5
522 58 56.0 59334.5
523 700 494.0 59828.5
524 260 202.0 60030.5
525 700 466.0 60496.5
526 292 191.0 60687.5
527 127 83.5 60771.0
528 156 118.0 60889.0
529 281 201.5 61090.5
530 72 63.5 61154.0
531 86 80.0 61234.0
532 87 70.0 61304.0
533 82 73.0 61377.0
534 700 486.5 61863.5
535 73 67.0 61930.5
536 682 549.0 62479.5
537 113 73.5 62553.0
538 700 533.0 63086.0
539 68 58.0 63144.0
540 272 219.0 63363.0
541 700 477.5 63840.5
542 123 108.0 63948.5
543 668 503.0 64451.5
544 700 471.0 64922.5
545 700 495.0 65417.5
546 92 69.5 65487.0
547 374 239.0 65726.0
548 71 68.0 65794.0
549 639 431.5 66225.5
550 700 529.0 66754.5
551 284 233.5 66988.0
552 215 126.5 67114.5
553 700 512.0 67626.5
554 700 467.5 68094.0
555 700 489.5 68583.5
556 134 107.5 68691.0
557 65 54.5 68745.5
558 135 92.5 68838.0
559 690 503.5 69341.5
560 410 283.5 69625.0
561 513 367.5 69992.5
562 145 113.5 70106.0
563 700 464.5 70570.5
564 700 510.5 71081.0
565 40 36.5 71117.5
566 277 157.0 71274.5
567 188 129.0 71403.5
568 700 516.0 71919.5
569 156 118.0 72037.5
570 32 17.5 72055.0
571 700 502.0 72557.0
572 404 292.0 72849.0
573 700 465.0 73314.0
574 700 514.0 73828.0
575 124 96.0 73924.0
576 93 51.5 73975.5
577 700 540.5 74516.0
578 102 93.5 74609.5
579 261 172.0 74781.5
580 582 384.0 75165.5
581 325 274.5 75440.0
582 700 477.0 75917.0
583 215 122.5 76039.5
584 94 83.5 76123.0
585 303 242.0 76365.0
586 443 319.5 76684.5
587 140 99.5 76784.0
588 700 535.0 77319.0
589 113 102.5 77421.5
590 223 169.0 77590.5
591 700 478.5 78069.0
592 79 74.0 78143.0
593 70 64.5 78207.5
594 700 522.0 78729.5
595 225 176.5 78906.0
596 104 85.5 78991.5
597 105 68.5 79060.0
598 346 201.5 79261.5
599 33 33.0 79294.5
600 700 440.5 79735.0
601 359 272.5 80007.5
602 144 94.5 80102.0
603 700 548.5 80650.5
604 202 133.0 80783.5
605 87 78.5 80862.0
606 700 528.5 81390.5
607 188 136.0 81526.5
608 23 23.0 81549.5
609 335 300.0 81849.5
610 336 279.5 82129.0
611 207 147.0 82276.0
612 700 446.0 82722.0
613 85 77.0 82799.0
614 700 498.5 83297.5
615 140 89.0 83386.5
616 113 106.0 83492.5
617 700 524.0 84016.5
618 700 502.0 84518.5
619 117 104.0 84622.5
620 168 128.5 84751.0
621 81 65.0 84816.0
622 68 54.5 84870.5
623 327 255.0 85125.5
624 81 62.0 85187.5
625 127 99.5 85287.0
626 382 303.5 85590.5
627 52 45.0 85635.5
628 406 306.5 85942.0
629 700 563.0 86505.0
630 359 277.0 86782.0
631 225 141.5 86923.5
632 90 71.0 86994.5
633 229 116.0 87110.5
634 688 568.0 87678.5
635 201 128.5 87807.0
636 225 133.0 87940.0
637 82 64.0 88004.0
638 88 75.5 88079.5
639 349 230.5 88310.0
640 105 95.0 88405.0
641 95 74.0 88479.0
642 36 35.0 88514.0
643 700 449.0 88963.0
644 165 110.5 89073.5
645 270 230.5 89304.0
646 81 81.0 89385.0
647 123 76.0 89461.0
648 105 68.5 89529.5
649 82 42.0 89571.5
650 700 560.0 90131.5
651 165 143.0 90274.5
652 134 116.0 90390.5
653 700 579.5 90970.0
654 246 173.0 91143.0
655 549 362.5 91505.5
656 444 336.5 91842.0
657 180 102.5 91944.5
658 408 255.5 92200.0
659 616 447.0 92647.0
660 700 587.5 93234.5
661 700 512.0 93746.5
662 98 89.5 93836.0
663 241 160.5 93996.5
664 99 91.0 94087.5
665 700 502.5 94590.0
666 596 426.0 95016.0
667 233 145.5 95161.5
668 682 518.5 95680.0
669 700 411.5 96091.5
670 162 118.5 96210.0
671 265 192.5 96402.5
672 140 112.5 96515.0
673 177 112.0 96627.0
674 700 577.5 97204.5
675 700 566.5 97771.0
676 126 100.0 97871.0
677 700 518.5 98389.5
678 154 132.5 98522.0
679 262 197.0 98719.0
680 145 100.5 98819.5
681 700 471.0 99290.5
682 700 559.0 99849.5
683 700 523.0 100372.5
684 146 112.5 100485.0
685 431 340.5 100825.5
686 700 497.5 101323.0
687 200 129.0 101452.0
688 144 112.5 101564.5
689 342 242.0 101806.5
690 149 98.5 101905.0
691 681 416.0 102321.0
692 97 92.5 102413.5
693 33 30.5 102444.0
694 193 139.5 102583.5
695 148 105.5 102689.0
696 700 495.0 103184.0
697 71 65.0 103249.0
698 171 98.0 103347.0
699 277 184.0 103531.0
700 298 176.0 103707.0
701 700 530.0 104237.0
702 330 212.5 104449.5
703 700 500.5 104950.0
704 75 69.5 105019.5
705 100 75.0 105094.5
706 74 56.0 105150.5
707 75 61.5 105212.0
708 700 491.5 105703.5
709 401 253.5 105957.0
710 620 441.5 106398.5
711 335 241.0 106639.5
712 50 50.0 106689.5
713 167 106.0 106795.5
714 99 89.0 106884.5
715 214 148.5 107033.0
716 76 59.0 107092.0
717 93 91.0 107183.0
718 87 78.0 107261.0
719 128 87.5 107348.5
720 57 57.0 107405.5
721 163 140.5 107546.0
722 1 1.0 107547.0
723 700 529.5 108076.5
724 94 68.5 108145.0
725 66 66.0 108211.0
726 233 189.0 108400.0
727 434 323.0 108723.0
728 88 69.5 108792.5
729 323 243.0 109035.5
730 560 444.0 109479.5
731 482 355.5 109835.0
732 150 131.5 109966.5
733 401 258.5 110225.0
734 700 506.5 110731.5
735 393 277.5 111009.0
736 127 91.5 111100.5
737 44 44.0 111144.5
738 672 414.5 111559.0
739 170 97.0 111656.0
740 137 122.5 111778.5
741 700 482.5 112261.0
742 206 183.0 112444.0
743 374 236.5 112680.5
744 699 466.5 113147.0
745 232 151.0 113298.0
746 700 472.0 113770.0
747 700 555.0 114325.0
748 113 68.0 114393.0
749 446 300.0 114693.0
750 186 134.5 114827.5
751 63 53.5 114881.0
752 1 0.5 114881.5
753 236 178.0 115059.5
754 54 53.0 115112.5
755 312 209.0 115321.5
756 139 115.5 115437.0
757 64 63.0 115500.0
758 36 32.0 115532.0
759 137 113.0 115645.0
760 471 414.5 116059.5
761 700 509.0 116568.5
762 108 85.0 116653.5
763 210 150.5 116804.0
764 139 104.5 116908.5
765 700 526.5 117435.0
766 700 446.0 117881.0
767 700 547.0 118428.0
768 700 524.5 118952.5
769 700 511.0 119463.5
770 76 63.0 119526.5
771 115 89.0 119615.5
772 120 112.5 119728.0
773 275 197.0 119925.0
774 110 94.0 120019.0
775 62 45.0 120064.0
776 527 407.5 120471.5
777 73 60.5 120532.0
778 193 137.5 120669.5
779 482 300.5 120970.0
780 78 75.0 121045.0
781 700 571.0 121616.0
782 75 71.5 121687.5
783 118 104.5 121792.0
784 64 55.0 121847.0
785 108 78.0 121925.0
786 145 128.0 122053.0
787 167 102.5 122155.5
788 700 457.5 122613.0
789 292 172.0 122785.0
790 140 85.5 122870.5
791 700 524.5 123395.0
792 612 452.5 123847.5
793 152 136.0 123983.5
794 700 438.5 124422.0
795 95 91.0 124513.0
796 1 1.0 124514.0
797 621 425.5 124939.5
798 700 414.0 125353.5
799 442 313.0 125666.5
800 128 94.0 125760.5
801 425 291.5 126052.0
802 268 215.5 126267.5
803 29 26.0 126293.5
804 534 322.5 126616.0
805 311 171.0 126787.0
806 700 529.0 127316.0
807 522 347.0 127663.0
808 700 438.5 128101.5
809 112 66.5 128168.0
810 320 235.5 128403.5
811 40 40.0 128443.5
812 354 254.5 128698.0
813 277 219.0 128917.0
814 172 118.5 129035.5
815 176 114.0 129149.5
816 700 528.0 129677.5
817 211 165.0 129842.5
818 229 129.5 129972.0
819 105 69.0 130041.0
820 70 60.0 130101.0
821 612 440.5 130541.5
822 700 508.5 131050.0
823 149 96.5 131146.5
824 56 49.5 131196.0
825 360 226.5 131422.5
826 103 90.0 131512.5
827 188 111.5 131624.0
828 700 435.0 132059.0
829 700 482.0 132541.0
830 564 384.0 132925.0
831 121 109.5 133034.5
832 338 251.5 133286.0
833 700 542.0 133828.0
834 162 129.5 133957.5
835 700 553.0 134510.5
836 92 62.5 134573.0
837 216 146.0 134719.0
838 92 69.5 134788.5
839 147 84.0 134872.5
840 156 123.5 134996.0
841 95 72.0 135068.0
842 417 278.0 135346.0
843 700 552.0 135898.0
844 700 458.0 136356.0
845 106 92.0 136448.0
846 417 300.5 136748.5
847 237 169.5 136918.0
848 700 424.5 137342.5
849 454 369.5 137712.0
850 700 465.5 138177.5
851 152 98.5 138276.0
852 165 143.0 138419.0
853 144 116.0 138535.0
854 52 52.0 138587.0
855 142 84.0 138671.0
856 159 127.0 138798.0
857 229 182.5 138980.5
858 114 90.5 139071.0
859 195 167.5 139238.5
860 49 49.0 139287.5
861 487 316.0 139603.5
862 700 548.5 140152.0
863 252 161.0 140313.0
864 108 77.5 140390.5
865 213 176.0 140566.5
866 66 54.5 140621.0
867 281 173.5 140794.5
868 700 518.5 141313.0
869 700 474.0 141787.0
870 700 451.0 142238.0
871 57 55.0 142293.0
872 397 303.5 142596.5
873 86 85.5 142682.0
874 123 82.5 142764.5
875 700 563.0 143327.5
876 700 532.0 143859.5
877 700 531.0 144390.5
878 700 489.0 144879.5
879 700 482.5 145362.0
880 700 469.5 145831.5
881 393 176.5 146008.0
882 35 35.0 146043.0
883 99 85.0 146128.0
884 223 129.0 146257.0
885 47 47.0 146304.0
886 700 512.0 146816.0
887 67 58.0 146874.0
888 496 355.5 147229.5
889 260 196.0 147425.5
890 632 467.0 147892.5
891 670 426.5 148319.0
892 90 55.0 148374.0
893 158 101.5 148475.5
894 57 57.0 148532.5
895 195 118.5 148651.0
896 223 151.0 148802.0
897 700 360.5 149162.5
898 674 508.5 149671.0
899 1 1.0 149672.0
900 644 458.5 150130.5
901 700 550.5 150681.0
902 126 86.0 150767.0
903 700 512.0 151279.0
904 168 101.5 151380.5
905 448 366.5 151747.0
906 59 52.0 151799.0
907 700 510.0 152309.0
908 700 471.0 152780.0
909 266 173.0 152953.0
910 145 119.0 153072.0
911 143 89.0 153161.0
912 329 265.5 153426.5
913 700 465.0 153891.5
914 700 512.0 154403.5
915 150 123.0 154526.5
916 89 65.5 154592.0
917 77 69.5 154661.5
918 230 115.0 154776.5
919 700 523.0 155299.5
920 316 261.5 155561.0
921 395 231.5 155792.5
922 136 121.5 155914.0
923 113 83.0 155997.0
924 566 457.5 156454.5
925 140 117.0 156571.5
926 374 289.0 156860.5
927 72 65.5 156926.0
928 167 126.5 157052.5
929 394 260.0 157312.5
930 274 184.0 157496.5
931 699 523.5 158020.0
932 124 92.0 158112.0
933 54 52.5 158164.5
934 700 543.5 158708.0
935 700 434.0 159142.0
936 700 491.5 159633.5
937 172 118.5 159752.0
938 248 131.5 159883.5
939 199 165.0 160048.5
940 280 213.5 160262.0
941 100 81.5 160343.5
942 577 392.0 160735.5
943 700 552.5 161288.0
944 218 147.0 161435.0
945 139 96.0 161531.0
946 195 115.0 161646.0
947 146 102.0 161748.0
948 91 71.0 161819.0
949 62 47.5 161866.5
950 1 0.5 161867.0
951 154 125.0 161992.0
952 336 260.5 162252.5
953 253 180.5 162433.0
954 700 502.0 162935.0
955 700 521.5 163456.5
956 506 351.5 163808.0
957 312 224.0 164032.0
958 84 68.0 164100.0
959 128 91.0 164191.0
960 84 71.5 164262.5
961 700 453.5 164716.0
962 655 506.5 165222.5
963 62 57.5 165280.0
964 700 483.5 165763.5
965 388 259.0 166022.5
966 700 515.0 166537.5
967 265 209.5 166747.0
968 130 91.5 166838.5
969 700 433.0 167271.5
970 65 56.5 167328.0
971 182 127.0 167455.0
972 77 67.5 167522.5
973 88 70.0 167592.5
974 64 60.0 167652.5
975 613 451.0 168103.5
976 700 399.5 168503.0
977 700 434.5 168937.5
978 291 198.5 169136.0
979 700 514.5 169650.5
980 169 127.5 169778.0
981 298 184.0 169962.0
982 193 130.0 170092.0
983 203 157.5 170249.5
984 700 505.0 170754.5
985 393 270.5 171025.0
986 700 511.0 171536.0
987 700 502.5 172038.5
988 214 164.0 172202.5
989 620 410.5 172613.0
990 98 75.0 172688.0
991 700 525.0 173213.0
992 63 52.5 173265.5
993 700 531.5 173797.0
994 64 49.0 173846.0
995 51 39.5 173885.5
996 700 536.0 174421.5
997 399 264.0 174685.5
998 700 528.0 175213.5
999 324 210.0 175423.5
1000 502 296.0 175719.5
1001 176 143.0 175862.5
1002 261 199.5 176062.0
1003 187 140.5 176202.5
1004 35 35.0 176237.5
1005 700 522.5 176760.0
1006 108 93.0 176853.0
1007 167 142.5 176995.5
1008 125 103.5 177099.0
1009 174 129.0 177228.0
1010 84 68.0 177296.0
1011 155 141.0 177437.0
1012 700 453.5 177890.5
1013 188 145.5 178036.0
1014 393 281.5 178317.5
1015 700 502.0 178819.5
1016 164 104.0 178923.5
1017 669 429.0 179352.5
1018 700 496.0 179848.5
1019 171 130.5 179979.0
1020 589 354.0 180333.0
1021 206 133.0 180466.0
1022 478 380.5 180846.5
1023 79 73.5 180920.0
1024 470 301.5 181221.5
1025 175 136.0 181357.5
1026 254 198.0 181555.5
1027 43 40.5 181596.0
1028 568 383.5 181979.5
1029 118 99.5 182079.0
1030 700 488.5 182567.5
1031 101 69.0 182636.5
1032 131 109.5 182746.0
1033 196 163.5 182909.5
1034 74 69.0 182978.5
1035 306 247.5 183226.0
1036 700 438.5 183664.5
1037 700 491.0 184155.5
1038 144 101.0 184256.5
1039 47 36.5 184293.0
1040 96 81.5 184374.5
1041 273 211.0 184585.5
1042 127 105.5 184691.0
1043 118 77.5 184768.5
1044 214 139.0 184907.5
1045 138 95.5 185003.0
1046 163 124.5 185127.5
1047 149 109.5 185237.0
1048 278 208.5 185445.5
1049 71 65.0 185510.5
1050 414 294.5 185805.0
1051 700 442.5 186247.5
1052 700 531.0 186778.5
1053 216 162.0 186940.5
1054 161 124.5 187065.0
1055 530 351.5 187416.5
1056 56 49.0 187465.5
1057 246 155.0 187620.5
1058 184 139.5 187760.0
1059 317 251.5 188011.5
1060 205 138.0 188149.5
1061 208 145.5 188295.0
1062 368 286.0 188581.0
1063 95 64.5 188645.5
1064 144 93.5 188739.0
1065 371 254.0 188993.0
1066 700 516.0 189509.0
1067 78 67.0 189576.0
1068 88 77.0 189653.0
1069 230 134.5 189787.5
1070 90 85.5 189873.0
1071 206 142.0 190015.0
1072 450 298.5 190313.5
1073 113 89.0 190402.5
1074 137 108.5 190511.0
1075 207 101.0 190612.0
1076 49 49.0 190661.0
1077 77 65.0 190726.0
1078 171 121.0 190847.0
1079 1 1.0 190848.0
1080 59 53.5 190901.5
1081 700 470.0 191371.5
1082 700 544.5 191916.0
1083 68 57.0 191973.0
1084 204 154.5 192127.5
1085 165 86.5 192214.0
1086 9 7.5 192221.5
1087 209 167.0 192388.5
1088 71 69.0 192457.5
1089 314 223.5 192681.0
1090 378 268.0 192949.0
1091 700 492.0 193441.0
1092 282 199.5 193640.5
1093 700 419.5 194060.0
1094 239 149.5 194209.5
1095 1 1.0 194210.5
1096 57 48.5 194259.0
1097 186 155.0 194414.0
1098 51 51.0 194465.0
1099 700 490.0 194955.0
1100 64 48.0 195003.0
1101 242 172.5 195175.5
1102 700 469.0 195644.5
1103 700 509.5 196154.0
1104 700 491.0 196645.0
1105 77 68.5 196713.5
1106 152 142.0 196855.5
1107 421 279.5 197135.0
1108 65 61.0 197196.0
1109 28 28.0 197224.0
1110 129 102.0 197326.0
1111 149 110.5 197436.5
1112 28 28.0 197464.5
1113 1 1.0 197465.5
1114 191 127.5 197593.0
1115 233 168.0 197761.0
1116 215 195.5 197956.5
1117 147 106.5 198063.0
1118 318 240.5 198303.5
1119 167 142.5 198446.0
1120 128 100.0 198546.0
1121 142 114.5 198660.5
1122 62 53.5 198714.0
1123 111 90.5 198804.5
1124 327 210.0 199014.5
1125 96 82.5 199097.0
1126 109 89.5 199186.5
1127 70 60.5 199247.0
1128 481 363.0 199610.0
1129 581 363.0 199973.0
1130 632 367.5 200340.5
1131 114 70.5 200411.0
1132 99 81.5 200492.5
1133 75 55.0 200547.5
1134 700 468.5 201016.0
1135 700 524.0 201540.0
1136 135 102.5 201642.5
1137 98 92.0 201734.5
1138 700 515.0 202249.5
1139 63 61.0 202310.5
1140 176 143.0 202453.5
1141 56 49.0 202502.5
1142 147 109.0 202611.5
1143 321 204.5 202816.0
1144 300 212.0 203028.0
1145 200 129.5 203157.5
1146 700 489.5 203647.0
1147 700 464.5 204111.5
1148 272 204.5 204316.0
1149 164 91.5 204407.5
1150 700 492.0 204899.5
1151 700 496.0 205395.5
1152 700 445.0 205840.5
1153 120 89.0 205929.5
1154 109 78.5 206008.0
1155 53 50.5 206058.5
1156 296 165.0 206223.5
1157 162 116.5 206340.0
1158 78 64.0 206404.0
1159 122 94.0 206498.0
1160 109 94.0 206592.0
1161 110 71.0 206663.0
1162 160 125.5 206788.5
1163 103 85.0 206873.5
1164 45 42.0 206915.5
1165 106 94.0 207009.5
1166 700 507.0 207516.5
1167 141 91.0 207607.5
1168 162 107.5 207715.0
1169 700 506.5 208221.5
1170 588 421.5 208643.0
1171 700 487.0 209130.0
1172 700 506.5 209636.5
1173 190 119.5 209756.0
1174 700 507.0 210263.0
1175 700 479.0 210742.0
1176 24 21.5 210763.5
1177 301 259.0 211022.5
1178 116 86.0 211108.5
1179 1 1.0 211109.5
1180 79 70.0 211179.5
1181 497 356.0 211535.5
1182 310 222.5 211758.0
1183 196 162.0 211920.0
1184 69 60.5 211980.5
1185 156 118.5 212099.0
1186 215 154.5 212253.5
1187 77 56.5 212310.0
1188 127 105.5 212415.5
1189 646 465.5 212881.0
1190 156 108.0 212989.0
1191 217 138.5 213127.5
1192 93 77.5 213205.0
1193 129 78.0 213283.0
1194 60 58.0 213341.0
1195 700 531.5 213872.5
1196 50 44.0 213916.5
1197 153 121.0 214037.5
1198 224 146.0 214183.5
1199 147 98.5 214282.0
1200 700 465.5 214747.5
1201 154 109.5 214857.0
1202 564 368.0 215225.0
1203 310 222.0 215447.0
1204 301 202.5 215649.5
1205 97 82.5 215732.0
1206 401 288.5 216020.5
1207 118 109.5 216130.0
1208 189 151.0 216281.0
1209 92 70.0 216351.0
1210 88 65.0 216416.0
1211 104 87.5 216503.5
1212 66 62.0 216565.5
1213 700 487.5 217053.0
1214 700 541.5 217594.5
1215 613 464.0 218058.5
1216 161 118.5 218177.0
1217 56 53.5 218230.5
1218 100 84.0 218314.5
1219 208 180.0 218494.5
1220 54 52.5 218547.0
1221 65 49.5 218596.5
1222 483 339.0 218935.5
1223 139 78.0 219013.5
1224 66 61.0 219074.5
1225 120 109.0 219183.5
1226 105 93.0 219276.5
1227 412 301.5 219578.0
1228 119 69.5 219647.5
1229 48 27.0 219674.5
1230 244 133.5 219808.0
1231 519 343.0 220151.0
1232 137 81.5 220232.5
1233 370 283.5 220516.0
1234 587 426.5 220942.5
1235 109 91.5 221034.0
1236 115 96.5 221130.5
1237 1 1.0 221131.5
1238 700 468.5 221600.0
1239 700 474.5 222074.5
1240 349 236.5 222311.0
1241 638 431.5 222742.5
1242 209 171.0 222913.5
1243 700 483.5 223397.0
1244 218 170.0 223567.0
1245 520 398.0 223965.0
1246 700 444.0 224409.0
1247 127 104.5 224513.5
1248 1 1.0 224514.5
1249 274 239.5 224754.0
1250 599 421.0 225175.0
1251 700 474.0 225649.0
1252 171 132.5 225781.5
1253 557 356.0 226137.5
1254 93 81.0 226218.5
1255 348 205.0 226423.5
1256 395 308.5 226732.0
1257 112 85.5 226817.5
1258 151 108.5 226926.0
1259 435 303.5 227229.5
1260 84 79.5 227309.0
1261 700 554.0 227863.0
1262 164 104.5 227967.5
1263 103 77.0 228044.5
1264 126 88.5 228133.0
1265 317 239.0 228372.0
1266 700 484.5 228856.5
1267 180 146.0 229002.5
1268 610 396.5 229399.0
1269 670 394.0 229793.0
1270 138 107.0 229900.0
1271 198 109.0 230009.0
1272 631 486.5 230495.5
1273 63 57.0 230552.5
1274 153 120.0 230672.5
1275 128 114.5 230787.0
1276 1 1.0 230788.0
1277 700 443.5 231231.5
1278 188 137.5 231369.0
1279 409 282.0 231651.0
1280 124 87.0 231738.0
1281 149 111.5 231849.5
1282 321 208.5 232058.0
1283 260 156.0 232214.0
1284 375 254.5 232468.5
1285 680 507.0 232975.5
1286 62 54.5 233030.0
1287 700 545.0 233575.0
1288 111 92.0 233667.0
1289 71 69.0 233736.0
1290 152 128.5 233864.5
1291 316 251.5 234116.0
1292 88 62.5 234178.5
1293 78 63.5 234242.0
1294 200 171.5 234413.5
1295 700 475.0 234888.5
1296 209 170.5 235059.0
1297 111 83.0 235142.0
1298 294 159.5 235301.5
1299 204 145.5 235447.0
1300 91 73.0 235520.0
1301 700 443.0 235963.0
1302 691 531.5 236494.5
1303 43 43.0 236537.5
1304 154 120.0 236657.5
1305 700 539.0 237196.5
1306 129 89.5 237286.0
1307 107 88.5 237374.5
1308 120 76.5 237451.0
1309 219 150.0 237601.0
1310 700 541.5 238142.5
1311 65 46.0 238188.5
1312 700 467.0 238655.5
1313 105 91.0 238746.5
1314 287 194.0 238940.5
1315 209 163.5 239104.0
1316 357 262.0 239366.0
1317 216 154.5 239520.5
1318 142 113.5 239634.0
1319 226 171.0 239805.0
1320 579 460.5 240265.5
1321 188 128.5 240394.0
1322 151 105.5 240499.5
1323 700 524.0 241023.5
1324 182 128.5 241152.0
1325 81 70.0 241222.0
1326 700 534.5 241756.5
1327 90 71.0 241827.5
1328 185 134.5 241962.0
1329 209 142.5 242104.5
1330 700 482.5 242587.0
1331 39 36.5 242623.5
1332 700 438.0 243061.5
1333 700 437.0 243498.5
1334 147 103.5 243602.0
1335 700 457.0 244059.0
1336 234 163.5 244222.5
1337 227 151.0 244373.5
1338 519 322.5 244696.0
1339 115 82.5 244778.5
1340 587 502.0 245280.5
1341 242 143.5 245424.0
1342 283 224.5 245648.5
1343 587 445.5 246094.0
1344 154 122.0 246216.0
1345 700 498.5 246714.5
1346 258 157.0 246871.5
1347 238 177.0 247048.5
1348 700 525.5 247574.0
1349 700 446.0 248020.0
1350 700 523.0 248543.0
1351 565 397.0 248940.0
1352 246 166.5 249106.5
1353 700 445.0 249551.5
1354 508 339.5 249891.0
1355 110 58.0 249949.0
1356 700 553.5 250502.5
1357 221 125.5 250628.0
1358 307 185.0 250813.0
1359 700 485.0 251298.0
1360 700 515.0 251813.0
1361 700 483.5 252296.5
1362 43 39.5 252336.0
1363 145 106.5 252442.5
1364 700 454.5 252897.0
1365 700 419.0 253316.0
1366 174 119.5 253435.5
1367 4 4.0 253439.5
1368 74 60.5 253500.0
1369 238 162.5 253662.5
1370 254 154.5 253817.0
1371 387 305.5 254122.5
1372 700 424.0 254546.5
1373 98 66.0 254612.5
1374 1 0.5 254613.0
1375 291 202.5 254815.5
1376 585 460.0 255275.5
1377 1 1.0 255276.5
1378 700 471.0 255747.5
1379 700 481.5 256229.0
1380 184 116.5 256345.5
1381 143 86.5 256432.0
1382 131 93.5 256525.5
1383 328 206.5 256732.0
1384 173 129.5 256861.5
1385 220 132.0 256993.5
1386 117 104.5 257098.0
1387 344 216.5 257314.5
1388 136 97.5 257412.0
1389 116 90.0 257502.0
1390 91 81.5 257583.5
1391 222 155.5 257739.0
1392 63 60.0 257799.0
1393 700 427.5 258226.5
1394 115 73.5 258300.0
1395 84 78.5 258378.5
1396 98 93.0 258471.5
1397 700 459.0 258930.5
1398 59 57.0 258987.5
1399 272 223.5 259211.0
1400 346 252.0 259463.0
1401 241 169.0 259632.0
1402 1 1.0 259633.0
1403 313 221.0 259854.0
1404 572 330.0 260184.0
1405 678 459.5 260643.5
1406 700 497.0 261140.5
1407 579 395.0 261535.5
1408 120 116.0 261651.5
1409 700 489.5 262141.0
1410 700 432.0 262573.0
1411 700 583.5 263156.5
1412 182 116.0 263272.5
1413 700 590.0 263862.5
1414 700 524.5 264387.0
1415 161 111.5 264498.5
1416 111 90.0 264588.5
1417 183 107.0 264695.5
1418 700 493.5 265189.0
1419 129 85.5 265274.5
1420 700 544.0 265818.5
1421 379 301.0 266119.5
1422 129 78.0 266197.5
1423 98 81.0 266278.5
1424 48 46.0 266324.5
1425 516 390.5 266715.0
1426 226 170.0 266885.0
1427 161 148.0 267033.0
1428 321 181.0 267214.0
1429 700 496.0 267710.0
1430 700 490.0 268200.0
1431 89 76.0 268276.0
1432 199 127.0 268403.0
1433 257 195.0 268598.0
1434 171 129.0 268727.0
1435 700 470.5 269197.5
1436 335 210.0 269407.5
1437 241 157.5 269565.0
1438 91 78.0 269643.0
1439 72 44.5 269687.5
1440 605 412.0 270099.5
1441 263 176.5 270276.0
1442 700 559.0 270835.0
1443 700 522.5 271357.5
1444 184 127.0 271484.5
1445 109 100.0 271584.5
1446 700 505.0 272089.5
1447 270 174.0 272263.5
1448 235 184.0 272447.5
1449 60 53.5 272501.0
1450 110 100.0 272601.0
1451 337 234.5 272835.5
1452 472 331.0 273166.5
1453 450 303.5 273470.0
1454 94 73.0 273543.0
1455 64 62.0 273605.0
1456 228 151.5 273756.5
1457 79 69.0 273825.5
1458 1 1.0 273826.5
1459 217 152.5 273979.0
1460 132 100.5 274079.5
1461 700 501.0 274580.5
1462 326 235.0 274815.5
1463 55 53.5 274869.0
1464 700 502.5 275371.5
1465 82 66.5 275438.0
1466 124 111.5 275549.5
1467 123 99.0 275648.5
1468 700 471.5 276120.0
1469 201 112.0 276232.0
1470 699 450.5 276682.5
1471 119 93.0 276775.5
1472 191 122.5 276898.0
1473 700 476.5 277374.5
1474 700 462.0 277836.5
1475 700 521.0 278357.5
1476 78 55.5 278413.0
1477 223 159.5 278572.5
1478 80 73.0 278645.5
1479 700 489.0 279134.5
1480 110 80.0 279214.5
1481 236 182.0 279396.5
1482 700 520.0 279916.5
1483 292 180.5 280097.0
1484 700 575.5 280672.5
1485 104 70.5 280743.0
1486 700 514.0 281257.0
1487 126 100.0 281357.0
1488 79 78.0 281435.0
1489 259 182.0 281617.0
1490 700 506.0 282123.0
1491 700 381.5 282504.5
1492 638 491.0 282995.5
1493 95 60.5 283056.0
1494 94 79.0 283135.0
1495 43 31.5 283166.5
1496 94 73.5 283240.0
1497 193 160.5 283400.5
1498 169 167.0 283567.5
1499 700 441.5 284009.0
1500 85 77.0 284086.0
1501 71 59.5 284145.5
1502 234 165.0 284310.5
1503 255 169.0 284479.5
1504 700 477.5 284957.0
1505 134 103.0 285060.0
1506 192 150.0 285210.0
1507 421 304.5 285514.5
1508 635 464.0 285978.5
1509 111 81.0 286059.5
1510 700 469.0 286528.5
1511 700 491.0 287019.5
1512 700 477.5 287497.0
1513 104 82.5 287579.5
1514 700 499.5 288079.0
1515 144 82.5 288161.5
1516 700 477.0 288638.5
1517 316 231.0 288869.5
1518 108 74.5 288944.0
1519 141 133.5 289077.5
1520 118 88.0 289165.5
1521 490 390.5 289556.0
1522 186 127.5 289683.5
1523 700 487.5 290171.0
1524 126 96.0 290267.0
1525 680 445.5 290712.5
1526 99 75.5 290788.0
1527 124 88.0 290876.0
1528 504 373.0 291249.0
1529 135 126.5 291375.5
1530 145 112.5 291488.0
1531 243 213.0 291701.0
1532 375 269.0 291970.0
1533 167 131.5 292101.5
1534 93 66.0 292167.5
1535 700 490.0 292657.5
1536 88 76.5 292734.0
1537 700 506.0 293240.0
1538 125 74.5 293314.5
1539 150 104.5 293419.0
1540 79 61.5 293480.5
1541 700 563.5 294044.0
1542 74 58.5 294102.5
1543 615 473.5 294576.0
1544 210 125.5 294701.5
1545 92 79.5 294781.0
1546 88 75.0 294856.0
1547 80 73.5 294929.5
1548 700 448.5 295378.0
1549 700 558.0 295936.0
1550 120 33.0 295969.0
1551 117 85.0 296054.0
1552 700 536.5 296590.5
1553 700 468.0 297058.5
1554 358 262.5 297321.0
1555 175 136.0 297457.0
1556 162 114.0 297571.0
1557 270 209.0 297780.0
1558 88 86.0 297866.0
1559 268 169.0 298035.0
1560 700 535.0 298570.0
1561 70 56.5 298626.5
1562 264 179.0 298805.5
1563 79 63.5 298869.0
1564 101 77.0 298946.0
1565 198 126.0 299072.0
1566 135 121.5 299193.5
1567 120 95.5 299289.0
1568 82 76.0 299365.0
1569 301 240.0 299605.0
1570 181 139.0 299744.0
1571 304 257.5 300001.5
1572 90 72.0 300073.5
1573 103 83.5 300157.0
1574 156 121.5 300278.5
1575 336 210.5 300489.0
1576 138 110.0 300599.0
1577 191 131.0 300730.0
1578 282 220.5 300950.5
1579 700 457.5 301408.0
1580 234 188.5 301596.5
1581 180 135.5 301732.0
1582 527 403.0 302135.0
1583 700 447.0 302582.0
1584 668 461.0 303043.0
1585 115 90.0 303133.0
1586 101 73.5 303206.5
1587 700 476.5 303683.0
1588 124 112.0 303795.0
1589 105 89.0 303884.0
1590 700 469.5 304353.5
1591 181 107.5 304461.0
1592 96 49.0 304510.0
1593 136 100.0 304610.0
1594 700 471.5 305081.5
1595 169 104.0 305185.5
1596 61 47.5 305233.0
1597 700 402.0 305635.0
1598 700 503.0 306138.0
1599 216 134.0 306272.0
1600 273 205.5 306477.5
1601 214 144.5 306622.0
1602 1 1.0 306623.0
1603 700 465.5 307088.5
1604 215 157.5 307246.0
1605 219 142.0 307388.0
1606 548 357.0 307745.0
1607 428 296.0 308041.0
1608 238 154.0 308195.0
1609 93 90.0 308285.0
1610 234 158.5 308443.5
1611 611 396.5 308840.0
1612 256 198.5 309038.5
1613 619 408.0 309446.5
1614 120 76.0 309522.5
1615 196 114.5 309637.0
1616 700 506.5 310143.5
1617 312 195.0 310338.5
1618 297 222.5 310561.0
1619 132 115.5 310676.5
1620 192 149.0 310825.5
1621 91 73.0 310898.5
1622 137 77.0 310975.5
1623 90 83.5 311059.0
1624 237 162.0 311221.0
1625 115 64.5 311285.5
1626 1 1.0 311286.5
1627 189 175.5 311462.0
1628 375 253.0 311715.0
1629 539 338.0 312053.0
1630 700 525.5 312578.5
1631 664 483.5 313062.0
1632 413 271.5 313333.5
1633 700 415.5 313749.0
1634 173 137.5 313886.5
1635 96 81.0 313967.5
1636 155 100.5 314068.0
1637 130 115.5 314183.5
1638 121 87.5 314271.0
1639 700 483.0 314754.0
1640 79 54.0 314808.0
1641 491 279.5 315087.5
1642 88 75.5 315163.0
1643 303 218.5 315381.5
1644 122 83.5 315465.0
1645 173 150.5 315615.5
1646 505 375.0 315990.5
1647 640 455.0 316445.5
1648 261 179.0 316624.5
1649 700 401.5 317026.0
1650 325 221.5 317247.5
1651 295 169.0 317416.5
1652 158 128.0 317544.5
1653 58 54.0 317598.5
1654 120 74.5 317673.0
1655 241 165.0 317838.0
1656 268 199.0 318037.0
1657 270 161.0 318198.0
1658 190 153.0 318351.0
1659 508 362.0 318713.0
1660 99 93.5 318806.5
1661 624 365.0 319171.5
1662 176 119.5 319291.0
1663 658 509.5 319800.5
1664 700 473.5 320274.0
1665 71 71.0 320345.0
1666 157 109.0 320454.0
1667 510 403.5 320857.5
1668 700 466.0 321323.5
1669 700 410.0 321733.5
1670 99 66.5 321800.0
1671 700 456.0 322256.0
1672 641 503.5 322759.5
1673 120 81.0 322840.5
1674 266 171.0 323011.5
1675 120 99.0 323110.5
1676 217 187.5 323298.0
1677 700 488.0 323786.0
1678 95 78.0 323864.0
1679 591 400.5 324264.5
1680 475 310.0 324574.5
1681 63 52.5 324627.0
1682 24 24.0 324651.0
1683 141 91.5 324742.5
1684 417 331.5 325074.0
1685 220 149.0 325223.0
1686 15 15.0 325238.0
1687 700 527.0 325765.0
1688 118 97.5 325862.5
1689 92 65.0 325927.5
1690 700 512.5 326440.0
1691 175 121.0 326561.0
1692 487 367.0 326928.0
1693 109 78.5 327006.5
1694 700 532.0 327538.5
1695 334 235.5 327774.0
1696 219 164.0 327938.0
1697 310 197.0 328135.0
1698 700 555.0 328690.0
1699 160 107.0 328797.0
1700 56 55.0 328852.0
1701 361 206.0 329058.0
1702 700 426.5 329484.5
1703 218 136.0 329620.5
1704 82 66.5 329687.0
1705 209 148.5 329835.5
1706 89 75.5 329911.0
1707 232 195.0 330106.0
1708 636 507.5 330613.5
1709 120 96.0 330709.5
1710 700 398.5 331108.0
1711 107 98.0 331206.0
1712 76 68.5 331274.5
1713 93 82.5 331357.0
1714 159 117.0 331474.0
1715 91 77.5 331551.5
1716 118 82.5 331634.0
1717 137 81.0 331715.0
1718 371 234.0 331949.0
1719 104 69.5 332018.5
1720 501 322.5 332341.0
1721 332 208.0 332549.0
1722 123 101.0 332650.0
1723 135 106.0 332756.0
1724 368 258.5 333014.5
1725 700 486.5 333501.0
1726 80 76.0 333577.0
1727 154 114.0 333691.0
1728 585 449.0 334140.0
1729 64 51.0 334191.0
1730 294 227.0 334418.0
1731 209 146.5 334564.5
1732 370 212.0 334776.5
1733 147 110.5 334887.0
1734 308 219.5 335106.5
1735 162 125.5 335232.0
1736 303 176.5 335408.5
1737 89 83.0 335491.5
1738 700 455.0 335946.5
1739 78 67.5 336014.0
1740 433 331.5 336345.5
1741 181 127.0 336472.5
1742 648 413.5 336886.0
1743 1 1.0 336887.0
1744 70 66.5 336953.5
1745 428 316.5 337270.0
1746 410 220.5 337490.5
1747 104 95.5 337586.0
1748 594 503.5 338089.5
1749 173 102.5 338192.0
1750 318 192.0 338384.0
1751 700 424.0 338808.0
1752 140 114.0 338922.0
1753 700 535.0 339457.0
1754 308 168.5 339625.5
1755 1 1.0 339626.5
1756 700 481.0 340107.5
1757 111 97.5 340205.0
1758 252 220.5 340425.5
1759 192 126.0 340551.5
1760 700 526.5 341078.0
1761 203 142.5 341220.5
1762 82 71.0 341291.5
1763 152 129.0 341420.5
1764 558 283.0 341703.5
1765 700 472.5 342176.0
1766 169 129.0 342305.0
1767 63 54.5 342359.5
1768 101 70.5 342430.0
1769 173 118.5 342548.5
1770 264 159.5 342708.0
1771 398 247.5 342955.5
1772 700 438.5 343394.0
1773 294 190.0 343584.0
1774 249 166.5 343750.5
1775 163 135.0 343885.5
1776 67 62.5 343948.0
1777 700 489.5 344437.5
1778 435 286.5 344724.0
1779 78 71.0 344795.0
1780 149 103.5 344898.5
1781 522 350.5 345249.0
1782 175 113.0 345362.0
1783 65 60.5 345422.5
1784 700 560.0 345982.5
1785 693 453.0 346435.5
1786 423 278.5 346714.0
1787 139 94.0 346808.0
1788 129 84.0 346892.0
1789 79 72.0 346964.0
1790 118 84.0 347048.0
1791 624 424.5 347472.5
1792 121 98.0 347570.5
1793 202 166.0 347736.5
1794 179 102.5 347839.0
1795 159 95.5 347934.5
1796 106 82.5 348017.0
1797 700 500.0 348517.0
1798 147 124.0 348641.0
1799 627 400.5 349041.5
1800 26 25.5 349067.0
