1.9805263280869 -0.4999991953373
1.9787250757217 -0.50004976987839
1.9729343652725 -0.50007331371307
1.9636299610138 -0.50000125169754
1.9538042545319 -0.5000119805336
1.9440352916718 -0.50001758337021
1.9344066381454 -0.50000995397568
1.9248199462891 -0.4999812245369
1.9153864383698 -0.49995285272598
1.9060122966766 -0.499915599823
1.8967901468277 -0.49987316131592
1.8876483440399 -0.49984437227249
1.8785985708237 -0.49979582428932
1.8696405887604 -0.49975687265396
1.8607671260834 -0.49972873926163
1.8519904613495 -0.49969497323036
1.8433049917221 -0.49962639808655
1.8347190618515 -0.49952936172485
1.8262012004852 -0.49945464730263
1.8177086114883 -0.49942097067833
1.8093757629395 -0.49942699074745
1.8011522293091 -0.49943536520004
1.7929025888443 -0.49951124191284
1.7847318649292 -0.49967646598816
1.7765671014786 -0.49987751245499
1.768616437912 -0.49993705749512
1.7605972290039 -0.50009477138519
1.7526813745499 -0.50032019615173
1.7447187900543 -0.50067281723022
1.7367422580719 -0.50114458799362
1.7287772893906 -0.50167214870453
1.7207416296005 -0.50223529338837
1.7127139568329 -0.50284445285797
1.7046296596527 -0.50355041027069
1.696494102478 -0.50430476665497
1.688328742981 -0.50510966777802
1.6800924539566 -0.50598365068436
1.6718219518661 -0.50691521167755
1.6635080575943 -0.50787395238876
1.6551473140717 -0.50891983509064
1.6477556228638 -0.50980204343796
1.6410623788834 -0.51043283939362
1.634857416153 -0.51087963581085
1.6285022497177 -0.51141363382339
1.6214917898178 -0.51215982437134
1.6142686605453 -0.51327359676361
1.6070125102997 -0.51445758342743
1.5997678041458 -0.51568353176117
1.592401266098 -0.51708120107651
1.5850234031677 -0.51850074529648
1.5777028799057 -0.52001655101776
1.570320725441 -0.52165925502777
1.5630429983139 -0.5233610868454
1.5558044910431 -0.52516543865204
1.548553109169 -0.52704846858978
1.5411616563797 -0.52904880046844
1.5337775945663 -0.5311598777771
1.5263049602509 -0.53336822986603
1.5188833475113 -0.53568643331528
1.5114178657532 -0.53809654712677
1.5039716959 -0.54058134555817
1.4965226650238 -0.54315108060837
1.4890214204788 -0.54586350917816
1.4815380573273 -0.54863172769547
1.4740830659866 -0.55153024196625
1.4665459394455 -0.5544827580452
1.4590440988541 -0.55749303102493
1.4515590667725 -0.56058251857758
1.4440697431564 -0.56372725963593
1.4366297721863 -0.56691473722458
1.4291844367981 -0.57017195224762
1.4211431741714 -0.57388317584991
1.4128159284592 -0.57789695262909
1.4045535326004 -0.5819126367569
1.3963601589203 -0.58582270145416
1.3881976604462 -0.58970034122467
1.380077123642 -0.59354186058044
1.3719875812531 -0.59732681512833
1.3639199733734 -0.60108172893524
1.3558557033539 -0.6048036813736
1.3477929830551 -0.60848748683929
1.3397353887558 -0.61213982105255
1.3316690921783 -0.61576163768768
1.3236057758331 -0.61934614181519
1.3155467510223 -0.62290817499161
1.3074615001678 -0.62641882896423
1.2993758916855 -0.62991142272949
1.2912336587906 -0.63336086273193
1.283083319664 -0.63676488399506
1.2749326229095 -0.64015674591064
1.2667015790939 -0.64349502325058
1.2585271596909 -0.64677798748016
1.2504264116287 -0.64996010065079
1.2424424886703 -0.65303719043732
1.2345315217972 -0.65601927042007
1.2266571521759 -0.65895199775696
1.2188632488251 -0.6618264913559
1.2106382846832 -0.66486942768097
1.2022621631622 -0.66780787706375
1.1939874887466 -0.6706857085228
1.1857571601868 -0.67356646060944
1.1776123046875 -0.67646038532257
1.1696107387543 -0.67933487892151
1.161697268486 -0.68218505382538
1.1538994312286 -0.68501627445221
1.1462574005127 -0.68780076503754
1.1388181447983 -0.69056272506714
1.1315876245499 -0.69327574968338
1.1244742870331 -0.6959365606308
1.1175001859665 -0.69861799478531
1.1107003688812 -0.70128935575485
1.1039385795593 -0.7039629817009
1.0974938869476 -0.70663940906525
1.0911893844604 -0.70923882722855
1.0851708650589 -0.71186709403992
1.0794450044632 -0.71434319019318
1.0738394260406 -0.71681529283524
1.0684052705765 -0.71924167871475
1.0631806850433 -0.72164714336395
1.058161854744 -0.72403055429459
1.0533117055893 -0.72631406784058
1.0484727621078 -0.72863554954529
1.0437295436859 -0.73100101947784
1.0391473770142 -0.73340791463852
1.0345515012741 -0.73600018024445
1.0302259922028 -0.73848843574524
1.0259149074554 -0.74113571643829
1.0215774774551 -0.74392712116241
1.017368555069 -0.74676811695099
1.0131871700287 -0.74971497058868
1.0091096162796 -0.75267595052719
1.0051008462906 -0.75568735599518
1.0011497735977 -0.75881409645081
0.99710655212402 -0.76219594478607
0.99316865205765 -0.76554811000824
0.98925721645355 -0.76913899183273
0.98522073030472 -0.77597719430923
0.98077315092087 -0.78214997053146
0.97637385129929 -0.7875679731369
0.97162818908691 -0.79339897632599
0.96636044979095 -0.80030715465546
0.96091163158417 -0.80789661407471
0.9554945230484 -0.81550419330597
0.95004636049271 -0.8230636715889
0.94452095031738 -0.83067548274994
0.93895781040192 -0.83826750516891
0.93335437774658 -0.84589242935181
0.92775285243988 -0.85350304841995
0.92203152179718 -0.86119157075882
0.91624104976654 -0.86893928050995
0.91039562225342 -0.87673890590668
0.90454638004303 -0.88453567028046
0.8986724615097 -0.89232605695724
0.8928330540657 -0.90009248256683
0.88696849346161 -0.90789097547531
0.88111513853073 -0.91568553447723
0.8752589225769 -0.92348158359528
0.8693922162056 -0.93127328157425
0.86354333162308 -0.93905401229858
0.85768920183182 -0.94685536623001
0.85183542966843 -0.95465153455734
0.84598743915558 -0.96244114637375
0.84012496471405 -0.97024595737457
0.83427840471268 -0.97803390026093
0.82846260070801 -0.98576593399048
0.82268667221069 -0.99342995882034
0.81695652008057 -1.0010224580765
0.8112810254097 -1.0085306167603
0.80564558506012 -1.0159894227982
0.80005788803101 -1.0233747959137
0.79453194141388 -1.0307034254074
0.78905153274536 -1.0379936695099
0.78363734483719 -1.0452115535736
0.77826130390167 -1.0523879528046
0.77297222614288 -1.0595041513443
0.7677116394043 -1.0665706396103
0.76251304149628 -1.0735889673233
0.75736039876938 -1.0805580615997
0.75227832794189 -1.0874564647675
0.74750024080276 -1.093896150589
0.74287033081055 -1.1001073122025
0.73824691772461 -1.1062500476837
0.73379337787628 -1.1122939586639
0.72889578342438 -1.1192195415497
0.72396528720856 -1.1264433860779
0.71911591291428 -1.1336299180984
0.71434456110001 -1.1407568454742
0.70964443683624 -1.1478307247162
0.705053627491 -1.15480697155
0.70052886009216 -1.1617212295532
0.69608664512634 -1.1685227155685
0.69173395633698 -1.1752889156342
0.68746721744537 -1.1819956302643
0.68318688869476 -1.1888144016266
0.67905485630035 -1.1955602169037
0.67498034238815 -1.2022576332092
0.67094111442566 -1.2089393138885
0.66702598333359 -1.2156269550323
0.66316419839859 -1.2223119735718
0.65935480594635 -1.2290768623352
0.65558314323425 -1.2359323501587
0.65183144807816 -1.2427974939346
0.64820283651352 -1.2497173547745
0.64462125301361 -1.2566460371017
0.64105761051178 -1.2636461257935
0.63755977153778 -1.2707364559174
0.63409048318863 -1.2778822183609
0.63070923089981 -1.2850887775421
0.62739551067352 -1.2923511266708
0.62418079376221 -1.2995675802231
0.62080872058868 -1.3076674938202
0.61724174022675 -1.3166754245758
0.61382681131363 -1.3257958889008
0.61042261123657 -1.3349349498749
0.6070202589035 -1.3440636396408
0.60360598564148 -1.3531898260117
0.6001672744751 -1.362308382988
0.59671425819397 -1.3714330196381
0.59326899051666 -1.3805596828461
0.58983337879181 -1.3896726369858
0.58638513088226 -1.3987950086594
0.58294528722763 -1.4079164266586
0.5795025229454 -1.4170336723328
0.57605373859406 -1.426137804985
0.57261180877686 -1.435257434845
0.56917679309845 -1.4443646669388
0.56573051214218 -1.4534839391708
0.56229019165039 -1.4626107215881
0.55888229608536 -1.4716390371323
0.55556148290634 -1.4804303646088
0.55235660076141 -1.4890074729919
0.54924237728119 -1.4973278045654
0.54623609781265 -1.5053861141205
0.54341387748718 -1.5130511522293
0.54076111316681 -1.5202834606171
0.53823643922806 -1.527153134346
0.53588443994522 -1.5336554050446
0.53370064496994 -1.5397108793259
0.53161895275116 -1.5454936027527
0.52965247631073 -1.5509697198868
0.52778828144073 -1.5560991764069
0.52603328227997 -1.5609810352325
0.52434712648392 -1.5656034946442
0.5227757692337 -1.5699707269669
0.52129852771759 -1.5740936994553
0.51989406347275 -1.5780551433563
0.51856362819672 -1.5817139148712
0.51731008291245 -1.5853204727173
0.51609694957733 -1.5887205600739
0.51496613025665 -1.591933965683
0.51386028528214 -1.5949819087982
0.51278591156006 -1.5979316234589
0.51178181171417 -1.6007274389267
0.51082688570023 -1.6034914255142
0.50988018512726 -1.6061489582062
0.50892895460129 -1.6087491512299
0.50803577899933 -1.611269235611
0.50718230009079 -1.6137342453003
0.50638628005981 -1.6160907745361
0.50548928976059 -1.6184275150299
0.50461494922638 -1.6207383871078
0.50372695922852 -1.6229832172394
0.50286662578583 -1.6252685785294
0.50210416316986 -1.6274086236954
0.501400411129 -1.6294114589691
0.50079524517059 -1.6313087940216
0.50020223855972 -1.633148431778
0.49966996908188 -1.6350075006485
0.49910753965378 -1.6369377374649
0.49850273132324 -1.6388645172119
0.49797502160072 -1.6406255960464
0.49755215644836 -1.6423686742783
0.4971838593483 -1.6440713405609
0.49682664871216 -1.6457204818726
0.49637323617935 -1.6474869251251
0.49586766958237 -1.6491495370865
0.49528974294662 -1.6508667469025
0.49463731050491 -1.6526696681976
0.49389830231667 -1.6544816493988
0.49307984113693 -1.6563590764999
0.49223375320435 -1.6581720113754
0.49132627248764 -1.6600621938705
0.4901168346405 -1.6620540618896
0.48881787061691 -1.6640142202377
0.4873743057251 -1.666036605835
0.48572796583176 -1.6681306362152
0.48396840691566 -1.6701691150665
0.48219546675682 -1.6721311807632
0.48029670119286 -1.6741144657135
0.47834244370461 -1.6760280132294
0.47616761922836 -1.6780138015747
0.47385519742966 -1.6798845529556
0.47134199738503 -1.6817146539688
0.46858090162277 -1.6834636926651
0.46570381522179 -1.6851651668549
0.46279120445251 -1.6869167089462
0.45956173539162 -1.688526391983
0.45623487234116 -1.69009745121
0.45267015695572 -1.6916091442108
0.44854205846786 -1.6930742263794
0.44411739706993 -1.6944793462753
0.43948340415955 -1.6957689523697
0.43449169397354 -1.6969635486603
0.42927837371826 -1.6980826854706
0.42412123084068 -1.6990543603897
0.41889181733131 -1.6999032497406
0.41346111893654 -1.7006437778473
0.40802446007729 -1.7012538909912
0.40258899331093 -1.7017505168915
0.3971500992775 -1.7021019458771
0.39165586233139 -1.7023327350616
0.38610523939133 -1.7024946212769
0.38047644495964 -1.7025499343872
0.37480917572975 -1.7024519443512
0.36909073591232 -1.7022384405136
0.36333179473877 -1.7019611597061
0.35748761892319 -1.7015492916107
0.35147160291672 -1.7010457515717
0.34541791677475 -1.700411438942
0.33922186493874 -1.6996511220932
0.33308863639832 -1.6988065242767
0.32680222392082 -1.6978733539581
0.32052823901176 -1.6968305110931
0.31408995389938 -1.6956638097763
0.30762773752213 -1.6944358348846
0.30112946033478 -1.6931114196777
0.29462704062462 -1.6917514801025
0.28817248344421 -1.6903455257416
0.28169995546341 -1.688894033432
0.27526837587357 -1.6874183416367
0.26881727576256 -1.6858761310577
0.26241087913513 -1.6843271255493
0.25597041845322 -1.6827080249786
0.24958555400372 -1.6810429096222
0.24324269592762 -1.6793587207794
0.23686698079109 -1.6776161193848
0.23050718009472 -1.6758638620377
0.22412987053394 -1.6740862131119
0.217783883214 -1.6722892522812
0.21146377921104 -1.670469045639
0.20514765381813 -1.6686321496964
0.19881919026375 -1.6667627096176
0.19250996410847 -1.6648790836334
0.18620252609253 -1.6629701852798
0.18060797452927 -1.6613858938217
0.17601814866066 -1.6597967147827
0.17159622907639 -1.658122420311
0.16720858216286 -1.6564296483994
0.16284522414207 -1.6548254489899
0.15840567648411 -1.6532461643219
0.1539554297924 -1.6516916751862
0.14951963722706 -1.6501678228378
0.14410589635372 -1.6484419107437
0.13796752691269 -1.6467726230621
0.13172622025013 -1.6451539993286
0.12549629807472 -1.6435575485229
0.11925719678402 -1.6419832706451
0.11302169412374 -1.6404186487198
0.10678350925446 -1.6388679742813
0.10054416954517 -1.6373341083527
0.094301357865334 -1.6358277797699
0.088057175278664 -1.6343355178833
0.081818528473377 -1.6328630447388
0.075571291148663 -1.6314356327057
0.069312609732151 -1.6300144195557
0.06307028234005 -1.6286222934723
0.056791692972183 -1.627246260643
0.050536524504423 -1.6259009838104
0.044268287718296 -1.6245721578598
0.038026496767998 -1.6232713460922
0.031760148704052 -1.6220166683197
0.025501381605864 -1.6207863092422
0.019211169332266 -1.6196002960205
0.012930636294186 -1.6184393167496
0.0066564986482263 -1.6173022985458
0.00035584307624958 -1.6162106990814
-0.0059835431165993 -1.6151342391968
-0.01232847198844 -1.6141014099121
-0.0186788123101 -1.6130985021591
-0.025075931102037 -1.6121292114258
-0.031481321901083 -1.6112115383148
-0.037891879677773 -1.6103012561798
-0.044327389448881 -1.6094417572021
-0.050801776349545 -1.6086177825928
-0.057314764708281 -1.6078207492828
-0.06384651362896 -1.6070998907089
-0.070428654551506 -1.6064007282257
-0.077806480228901 -1.6056560277939
-0.086066022515297 -1.6049470901489
-0.094744689762592 -1.6045011281967
-0.10340992361307 -1.6041120290756
-0.11212360858917 -1.6037127971649
-0.1208176240325 -1.6032259464264
-0.12956842780113 -1.6026782989502
-0.13828244805336 -1.6020866632462
-0.14701446890831 -1.6014324426651
-0.15577319264412 -1.6007217168808
-0.1645682156086 -1.5999717712402
-0.17335955798626 -1.5991796255112
-0.18218187987804 -1.5983417034149
-0.19101096689701 -1.5974506139755
-0.19985395669937 -1.5965373516083
-0.20870439708233 -1.5955817699432
-0.21756784617901 -1.594580411911
-0.22647114098072 -1.5935304164886
-0.23538215458393 -1.592450261116
-0.24431928992271 -1.591331243515
-0.2532764673233 -1.5901712179184
-0.26224431395531 -1.5889695882797
-0.27122512459755 -1.5877237319946
-0.28024297952652 -1.586448431015
-0.28926846385002 -1.5851427316666
-0.29832345247269 -1.5837990045547
-0.30738550424576 -1.582426905632
-0.31647944450378 -1.5810143947601
-0.32560187578201 -1.5795749425888
-0.3347230553627 -1.5781137943268
-0.34389135241508 -1.5766159296036
-0.35307174921036 -1.5750815868378
-0.36227655410767 -1.5735241174698
-0.3715018928051 -1.5719274282455
-0.38074189424515 -1.5703103542328
-0.39000564813614 -1.5686708688736
-0.39929515123367 -1.5670049190521
-0.40862226486206 -1.5653235912323
-0.41795426607132 -1.5636174678802
-0.42732280492783 -1.5618872642517
-0.43672829866409 -1.5601336956024
-0.44613760709763 -1.558358669281
-0.4555672109127 -1.5565741062164
-0.46505171060562 -1.5547664165497
-0.47453370690346 -1.5529538393021
-0.48405963182449 -1.551118016243
-0.49360126256943 -1.5492765903473
-0.50317412614822 -1.547412276268
-0.51274335384369 -1.5455429553986
-0.52231049537659 -1.5436893701553
-0.5318768620491 -1.5418300628662
-0.54145175218582 -1.5399634838104
-0.55099391937256 -1.5381078720093
-0.56057274341583 -1.536251783371
-0.57014805078506 -1.5343887805939
-0.5797204375267 -1.5325347185135
-0.58928668498993 -1.5306760072708
-0.59885638952255 -1.5288231372833
-0.60842138528824 -1.5269665718079
-0.61798572540283 -1.5251039266586
-0.62753999233246 -1.5232493877411
-0.63710981607437 -1.5213961601257
-0.64667451381683 -1.5195398330688
-0.6562557220459 -1.5176783800125
-0.66583335399628 -1.5158178806305
-0.67538595199585 -1.5139565467834
-0.68495380878448 -1.5120980739594
-0.69453781843185 -1.5102363824844
-0.70409888029099 -1.5083826780319
-0.71366590261459 -1.5065301656723
-0.72322291135788 -1.5046720504761
-0.73280709981918 -1.502813577652
-0.74236923456192 -1.5009509325027
-0.75192809104919 -1.4990973472595
-0.76151156425476 -1.4972347021103
-0.77102625370026 -1.4953874349594
-0.78041911125183 -1.4935586452484
-0.78969746828079 -1.4917504787445
-0.79886955022812 -1.4899463653564
-0.80793792009354 -1.4881519079208
-0.81690436601639 -1.4863787889481
-0.82578027248383 -1.4846341609955
-0.83453226089478 -1.4829144477844
-0.84321069717407 -1.4812209606171
-0.85181522369385 -1.4795513153076
-0.85946214199066 -1.4779878854752
-0.86673659086227 -1.4764305353165
-0.87392616271973 -1.4748803377151
-0.88110417127609 -1.4733836650848
-0.88822096586227 -1.4719474315643
-0.89524519443512 -1.47056889534
-0.90227568149567 -1.4692680835724
-0.90930593013763 -1.4679908752441
-0.91628342866898 -1.4667532444
-0.92325913906097 -1.4655795097351
-0.93021214008331 -1.464434504509
-0.93711805343628 -1.4633843898773
-0.94404572248459 -1.4623882770538
-0.95094347000122 -1.461442232132
-0.95785009860992 -1.4605668783188
-0.96474123001099 -1.4597073793411
-0.9717304110527 -1.4589042663574
-0.97913962602615 -1.4581964015961
-0.98648023605347 -1.4575270414352
-0.99370831251144 -1.456921339035
-1.0010023117065 -1.4563672542572
-1.008384346962 -1.4558727741241
-1.0157825946808 -1.4554435014725
-1.0231629610062 -1.4550640583038
-1.0306465625763 -1.4547438621521
-1.0382030010223 -1.4544324874878
-1.0458188056946 -1.4542701244354
-1.0534408092499 -1.4540984630585
-1.0609368085861 -1.4540169239044
-1.0685842037201 -1.4540196657181
-1.0762133598328 -1.4540349245071
-1.082919716835 -1.4540791511536
-1.088826417923 -1.4540222883224
-1.0941056013107 -1.4537546634674
-1.098984003067 -1.4534428119659
-1.104118347168 -1.453063249588
-1.1100127696991 -1.4529711008072
-1.1166784763336 -1.4532498121262
-1.1233921051025 -1.453761100769
-1.1301575899124 -1.4544209241867
-1.1369062662125 -1.4551911354065
-1.1436675786972 -1.4560441970825
-1.1504673957825 -1.456978559494
-1.1573060750961 -1.4580365419388
-1.1641536951065 -1.459180355072
-1.171036362648 -1.460426568985
-1.1779518127441 -1.4617649316788
-1.1848967075348 -1.4632129669189
-1.191850066185 -1.4648021459579
-1.198832154274 -1.4664723873138
-1.205951333046 -1.4682910442352
-1.2130787372589 -1.4701797962189
-1.220116853714 -1.4721386432648
-1.227264881134 -1.4742481708527
-1.2344390153885 -1.4764349460602
-1.2416373491287 -1.4787180423737
-1.2488534450531 -1.4811364412308
-1.2561295032501 -1.4836381673813
-1.2634916305542 -1.4862397909164
-1.2708656787872 -1.4889777898788
-1.2790529727936 -1.4921859502792
-1.2878144979477 -1.4958024024963
-1.2966581583023 -1.4997050762177
-1.3054299354553 -1.5036062002182
-1.314080953598 -1.5074433088303
-1.3226529359818 -1.511222243309
-1.3311803340912 -1.5149754285812
-1.3395779132843 -1.5186802148819
-1.3478935956955 -1.522344827652
-1.3560982942581 -1.5259594917297
-1.3641971349716 -1.5295131206512
-1.3722105026245 -1.5330277681351
-1.3800966739655 -1.5364763736725
-1.3879523277283 -1.5398873090744
-1.3957139253616 -1.5432327985764
-1.4034407138824 -1.5464962720871
-1.4109926223755 -1.5496965646744
-1.418492436409 -1.5528290271759
-1.4259803295135 -1.5559365749359
-1.4333662986755 -1.5589416027069
-1.4407217502594 -1.5618803501129
-1.4479277133942 -1.5647464990616
-1.4553043842316 -1.5676268339157
-1.462472319603 -1.5703772306442
-1.4695999622345 -1.5730626583099
-1.4767184257507 -1.5756583213806
-1.4837628602982 -1.5782034397125
-1.4908201694489 -1.5807011127472
-1.4978213310242 -1.5831373929977
-1.5048071146011 -1.5855021476746
-1.511850476265 -1.5878558158875
-1.518758058548 -1.5900719165802
-1.5257289409637 -1.5922163724899
-1.5327256917953 -1.5942791700363
-1.5397709608078 -1.5963207483292
-1.5466847419739 -1.5982373952866
-1.5537080764771 -1.6001331806183
-1.560675740242 -1.6019576787949
-1.5676637887955 -1.6036970615387
-1.5746623277664 -1.6053920984268
-1.5816975831985 -1.6069667339325
-1.5888788700104 -1.6084867715836
-1.5960323810577 -1.609925031662
-1.6030683517456 -1.6112744808197
-1.6102333068848 -1.6125704050064
-1.6175104379654 -1.613837480545
-1.6248499155045 -1.6150230169296
-1.6320937871933 -1.6161291599274
-1.6393076181412 -1.6171287298203
-1.646647810936 -1.6180665493011
-1.6539968252182 -1.6189546585083
-1.6614768505096 -1.6197496652603
-1.6689701080322 -1.6204767227173
-1.6765079498291 -1.6211097240448
-1.6840393543243 -1.6217095851898
-1.6917111873627 -1.622247338295
-1.6993768215179 -1.6226732730865
-1.7072026729584 -1.6230621337891
-1.7149699926376 -1.6233558654785
-1.7227771282196 -1.623529791832
-1.7306530475616 -1.6236426830292
-1.7386176586151 -1.6237049102783
-1.7466329336166 -1.6236639022827
-1.7546781301498 -1.6235634088516
-1.7627813816071 -1.6233962774277
-1.7707744836807 -1.6231911182404
-1.7785164117813 -1.6229317188263
-1.7859876155853 -1.6226247549057
-1.7932374477386 -1.6222960948944
-1.8001592159271 -1.6219656467438
-1.806804895401 -1.6216375827789
-1.8131921291351 -1.6212488412857
-1.8191776275635 -1.6208698749542
-1.8249334096909 -1.6204916238785
-1.830454826355 -1.6201196908951
-1.8356558084488 -1.6197500228882
-1.8406108617783 -1.6193958520889
-1.8453395366669 -1.6190448999405
-1.8497585058212 -1.6186673641205
-1.8538911342621 -1.6183185577393
-1.8577663898468 -1.6180222034454
-1.861278295517 -1.6177623271942
-1.8646371364594 -1.6175101995468
-1.8676760196686 -1.6172778606415
-1.8705812692642 -1.6170707941055
-1.8732602596283 -1.6169162988663
-1.8757345676422 -1.6167913675308
-1.8781436681747 -1.6166623830795
-1.8804343938828 -1.6165752410889
-1.8825476169586 -1.616535782814
-1.8845771551132 -1.6165100336075
-1.8865340948105 -1.6164865493774
-1.8884153366089 -1.6164594888687
-1.8902622461319 -1.6164448261261
-1.8921514749527 -1.6163835525513
-1.8940880298615 -1.6163444519043
-1.8958957195282 -1.6163148880005
-1.8976147174835 -1.6163022518158
-1.8992038965225 -1.6162919998169
-1.900899887085 -1.6162840127945
-1.9026294946671 -1.6162828207016
-1.9042003154755 -1.6162227392197
-1.9058029651642 -1.6161054372787
-1.9073989391327 -1.6159906387329
-1.9089750051498 -1.615838766098
-1.9106556177139 -1.615736246109
-1.9122550487518 -1.6155498027802
-1.9138634204865 -1.6153762340546
-1.9154039621353 -1.6151401996613
-1.9170701503754 -1.6148138046265
-1.9186716079712 -1.614551782608
-1.9203433990479 -1.6141971349716
-1.9220283031464 -1.6138446331024
-1.923789024353 -1.6134231090546
-1.9254220724106 -1.6130183935165
-1.9271638393402 -1.6126194000244
-1.9287465810776 -1.6122785806656
-1.9302198886871 -1.6120036840439
-1.9316749572754 -1.6117852926254
-1.9330804347992 -1.6116091012955
-1.9345175027847 -1.6114021539688
-1.936026930809 -1.6111605167389
-1.9376032352448 -1.6109592914581
-1.9391965866089 -1.6107934713364
-1.9408185482025 -1.6105400323868
-1.9423631429672 -1.6103985309601
-1.9440643787384 -1.6101071834564
-1.9456812143326 -1.6099399328232
-1.9472796916962 -1.6097167730331
-1.9487836360931 -1.6095691919327
-1.9504362344742 -1.60924077034
-1.9520673751831 -1.6087974309921
-1.9537471532822 -1.6083753108978
-1.9553935527802 -1.607969045639
-1.9571317434311 -1.6074146032333
-1.9590028524399 -1.6066341400146
-1.9608995914459 -1.6056735515594
-1.9626791477203 -1.6047006845474
-1.9645426273346 -1.6034803390503
-1.9665704965591 -1.6019961833954
-1.9684950113297 -1.6003167629242
-1.9704201221466 -1.5986021757126
-1.9723701477051 -1.5968271493912
-1.9743560552597 -1.5948845148087
-1.9763281345367 -1.5927391052246
-1.9782049655914 -1.590521812439
-1.9801191091537 -1.58822286129
-1.9819650650024 -1.5855021476746
-1.9837739467621 -1.5826278924942
-1.9855537414551 -1.5795028209686
-1.98714864254 -1.5763392448425
-1.9888918399811 -1.5729470252991
-1.9905135631561 -1.5693023204803
-1.9921276569366 -1.565395116806
-1.9935477972031 -1.5612490177155
-1.9948637485504 -1.5566076040268
-1.9960695505142 -1.5517466068268
-1.997207403183 -1.5466856956482
-1.9981864690781 -1.5413949489594
-1.9990253448486 -1.5359792709351
-1.9997345209122 -1.5306485891342
-2.0003204345703 -1.5251272916794
