0 [0.0, 0.0, 0.0, 0.0, 0.0, 0.0, 0.0, 0.0]
1 [0.0, 0.0, 0.0, 0.0, 0.0, 0.0, 0.0, 0.0]
2 [0.0, 0.0, 0.0, 0.0, 0.0, 0.0, 0.0, 0.0]
3 [0.0, 0.0, 0.0, 0.0, 0.0, 0.0, 0.0, 0.0]
4 [0.0, 0.0, 0.0, 0.0, 0.0, 0.0, 0.0, 0.0]
5 [0.0, 0.0, 0.0, 0.0, 0.0, 0.0, 0.0, 0.0]
6 [0.0, 0.0, 0.0, 0.0, 0.0, 0.0, 0.0, 0.0]
7 [0.0, 0.0, 0.0, 0.0, 0.0, 0.0, 0.0, 0.0]
8 [0.0, 0.0, 0.0, 0.0, 0.0, 0.0, 0.0, 0.0]
9 [0.0, 0.0, 0.0, 0.0, 0.0, 0.0, 0.0, 0.0]
10 [0.0, 0.0, 0.0, 0.0, 0.0, 0.0, 0.0, 0.0]
11 [0.0, 0.0, 0.0, 0.0, 0.0, 0.0, 0.0, 0.0]
12 [0.0, 0.0, 0.0, 0.0, 0.0, 0.0, 0.0, 0.0]
13 [0.0, 0.0, 0.0, 0.9768221, 0.9768225, 0.0, 0.0, 0.7868713]
14 [0.0, 0.0, 0.0, 0.9783289, 0.97833276, 0.0, 0.0, 0.78687227]
15 [0.0, 0.0, 0.0, 0.9781702, 0.97817147, 0.0, 0.0, 0.7868618]
16 [0.0, 0.0, 0.0, 0.9782183, 0.97821367, 0.0, 0.0, 0.78686345]
17 [0.0, 0.0, 0.0, 0.97823364, 0.9782232, 0.0, 0.0, 0.7868663]
18 [0.0, 0.0, 0.0, 0.9782454, 0.9782348, 0.0, 0.0, 0.78686804]
19 [0.0, 0.0, 0.0, 0.97104454, 0.97065765, 0.0, 0.0, 0.78687346]
20 [0.0, 0.0, 0.0, 0.954857, 0.95719844, 0.0, 0.0, 0.787599]
21 [0.0, 0.0, 0.0, 0.94504154, 0.95244944, 0.0, 0.0, 0.78856725]
22 [0.0, 0.0, 0.0, 0.93602294, 0.9493911, 0.0, 0.0, 0.7897472]
23 [0.0, 0.0, 0.0, 0.9181024, 0.9342325, 0.0, 0.0, 0.7901749]
24 [0.0, 0.0, 0.0, 0.9065497, 0.92298377, 0.0, 0.0, 0.7902994]
25 [0.0, 0.0, 0.0, 0.8968414, 0.9151152, 0.0, 0.0, 0.7905754]
26 [0.0, 0.0, 0.0, 0.88507915, 0.90328956, 0.0, 0.0, 0.789133]
27 [0.0, 0.0, 0.0, 0.8757266, 0.8917443, 0.0, 0.0, 0.78590024]
28 [0.0, 0.0, 0.0, 0.8757266, 0.8917443, 0.0, 0.0, 0.78590024]
29 [0.0, 0.0, 0.0, 0.0, 0.87463003, 0.0, 0.0, 0.0]
30 [0.0, 0.0, 0.0, 0.0, 0.87463003, 0.0, 0.0, 0.0]
31 [0.0, 0.0, 0.0, 0.0, 0.86043596, 0.0, 0.0, 0.0]
32 [0.0, 0.0, 0.0, 0.0, 0.8432496, 0.0, 0.0, 0.0]
33 [0.0, 0.0, 0.0, 0.0, 0.816234, 0.80049443, 0.0, 0.0]
34 [0.0, 0.0, 0.0, 0.0, 0.795083, 0.77951044, 0.0, 0.0]
35 [0.0, 0.0, 0.0, 0.0, 0.795083, 0.77951044, 0.0, 0.0]
36 [0.0, 0.0, 0.0, 0.0, 0.76581115, 0.7579164, 0.0, 0.0]
37 [0.0, 0.0, 0.0, 0.0, 0.74034584, 0.7415962, 0.0, 0.0]
38 [0.0, 0.0, 0.0, 0.0, 0.7279116, 0.7365829, 0.0, 0.0]
39 [0.0, 0.0, 0.0, 0.0, 0.7150492, 0.7289075, 0.0, 0.0]
40 [0.0, 0.0, 0.0, 0.0, 0.0, 0.7220779, 0.981513, 0.0]
41 [0.0, 0.0, 0.0, 0.0, 0.0, 0.7126527, 0.9593924, 0.0]
42 [0.0, 0.0, 0.0, 0.0, 0.0, 0.6973261, 0.68983465, 0.0]
43 [0.0, 0.0, 0.0, 0.0, 0.0, 0.67611986, 0.6680199, 0.0]
44 [0.0, 0.0, 0.0, 0.0, 0.0, 0.63491094, 0.6325232, 0.0]
45 [0.0, 0.0, 0.0, 0.0, 0.0, 0.6207309, 0.6241582, 0.0]
46 [0.0, 0.0, 0.0, 0.0, 0.0, 0.59192526, 0.8477476, 0.0]
47 [0.0, 0.0, 0.0, 0.0, 0.55743295, 0.5601159, 0.8216244, 0.0]
48 [0.0, 0.0, 0.0, 0.0, 0.53713197, 0.5307668, 0.7932839, 0.0]
49 [0.0, 0.0, 0.0, 0.0, 0.5114573, 0.51562, 0.7618693, 0.0]
