0 [0.0, 0.0, 0.0, 0.0, 0.0, 0.0, 0.0, 0.0]
1 [0.0, 0.0, 0.0, 0.0, 0.0, 0.0, 0.0, 0.0]
2 [0.0, 0.0, 0.0, 0.0, 0.0, 0.0, 0.0, 0.0]
3 [0.17667033, 0.06367032, 0.033329684, 0.033329684, 0.09167033, 0.03232966, 0.03132966, 0.10267033]
4 [0.17667033, 0.06367032, 0.033329684, 0.033329684, 0.09167033, 0.03232966, 0.03132966, 0.10267033]
5 [0.1772088, 0.22687545, 0.8701245, 0.86812454, 0.9235421, 0.032791197, 0.0317912, 0.26887548]
6 [0.17640659, 0.18140659, 0.16559342, 0.9135934, 0.9644066, 0.033593398, 0.031593397, 0.2284066]
7 [0.17640659, 0.056406587, 0.040593415, 0.038593415, 0.089406595, 0.033593398, 0.031593397, 0.10340659]
8 [0.17771429, 0.11838096, 0.11295239, 0.9756191, 1.0210476, 0.034285706, 0.030285709, 1.0390476]
9 [0.17716484, 0.9538351, 0.15083517, 0.9448351, 0.9871648, 0.034835156, 0.02983516, 0.20716484]
10 [0.17716484, 0.05383516, 0.050835166, 0.04483517, 0.087164834, 0.034835156, 0.02983516, 0.10716484]
11 [0.17803296, 0.38730037, 0.38730037, 0.88030034, 0.9203663, 0.8683003, 0.02896703, 0.4423663]
12 [0.17803296, 0.05396703, 0.05396703, 0.046967037, 0.08703297, 0.034967024, 0.02896703, 0.109032966]
13 [0.8675619, 0.7917874, 0.72175837, 0.7145898, 0.7527436, 0.42041028, 0.3622564, 0.7757436]
14 [0.65180314, 1.0406969, 0.97247803, 1.0295137, 0.5051121, 0.36040598, 0.27852485, 1.0261886]
15 [0.24894217, 0.058439694, 0.055497758, 0.05176029, 0.14418484, 0.095415995, 0.028484384, 0.10952198]
16 [0.23068583, 0.05857432, 0.05531739, 0.051708296, 0.13187166, 0.0928259, 0.031281106, 0.16279946]
17 [0.23166305, 0.060912263, 0.053564165, 0.049831953, 0.13301662, 0.09363185, 0.030477522, 0.16392687]
18 [1.0050783, 0.7415857, 0.052305896, 0.7440993, 1.0059677, 0.73273927, 0.7507066, 0.17179285]
19 [0.9657093, 0.7370237, 0.052303642, 0.7362281, 0.94434243, 0.7249569, 0.7376037, 0.15669276]
20 [0.056330394, 0.051057473, 0.052249264, 0.046305723, 0.10274696, 0.035054572, 0.03044776, 0.14136276]
21 [0.23365095, 0.66813606, 0.7208857, 0.6828065, 0.509371, 0.4015382, 0.37385362, 0.9510067]
22 [0.10452942, 0.051398605, 0.054408588, 0.043044064, 0.027436446, 0.078573346, 0.030103616, 0.12715743]
23 [0.15243678, 0.52778184, 0.36692816, 0.85815763, 0.5769592, 0.8947796, 0.025925213, 0.13468128]
24 [0.15243678, 0.09093197, 0.05965773, 0.045932382, 0.05290282, 0.0829049, 0.025925213, 0.03756793]
25 [0.17657787, 0.13756013, 0.09845576, 0.08174667, 0.7464195, 1.016603, 0.02450581, 0.021442307]
26 [0.15646839, 0.091698885, 0.06816954, 0.05562565, 0.06588231, 0.084046796, 0.024952028, 0.009984318]
27 [1.054787, 0.2266372, 0.12449584, 0.102193855, 0.8447198, 1.0226258, 0.02697498, 0.010659671]
28 [1.0650564, 0.17305185, 0.1331523, 0.11298522, 0.8919256, 1.0280775, 0.027627336, 0.0104929395]
29 [0.15090914, 0.1668157, 0.093190044, 0.07549794, 0.05379927, 0.08341871, 0.02783643, 0.011223284]
30 [0.13064963, 0.05018744, 0.09252694, 0.08681924, 0.062353227, 0.083676085, 0.0831289, 0.010298507]
31 [0.1492558, 0.5388155, 0.1287094, 0.12049516, 0.0992908, 1.0468093, 0.08449564, 0.010555351]
32 [0.12739956, 0.08615405, 0.10471837, 0.0930554, 0.07374692, 0.081070155, 0.08473422, 0.010792761]
33 [0.08628672, 0.088249385, 0.11797742, 0.12813574, 0.10514835, 0.07114721, 0.08827299, 0.08457587]
34 [0.08591014, 0.094621606, 0.12469911, 0.14300998, 0.11890554, 0.09415697, 1.0692801, 0.0901629]
35 [0.13121277, 0.0995948, 0.11492136, 0.13242663, 0.11043406, 0.08343407, 0.08556594, 0.09356593]
36 [0.14436021, 0.065739624, 0.12605079, 0.13911131, 0.15411721, 0.112116426, 1.0358661, 0.11282488]
37 [0.12816834, 0.05597501, 0.13964893, 0.10529121, 0.17304212, 0.14304213, 1.0313754, 1.0669578]
38 [0.11671702, 0.051306147, 0.105266355, 0.10528866, 0.13970879, 0.1097088, 0.06470879, 0.1002912]
39 [0.110193565, 0.053594533, 0.09665859, 0.1053662, 0.13663188, 0.104631856, 0.06963187, 0.100368135]
40 [0.15709813, 0.053212766, 0.021671196, 0.1017898, 0.1362088, 0.10120878, 0.07820878, 0.03320878]
41 [1.2544585, 0.04797542, 0.020283435, 0.13982122, 0.10663187, 0.18308641, 0.14208642, 0.99917734]
42 [0.07852894, 0.044939827, 0.020300848, 0.094367385, 0.10663187, 0.13763186, 0.09663188, 0.04463188]
43 [0.7088244, 0.042484295, 0.018663414, 1.0654947, 0.09327472, 0.17971916, 0.14071916, 1.0300525]
44 [0.9716923, 0.90069234, 0.017549444, 0.5121209, 0.519138, 0.61598396, 0.8749246, 0.9959947]
45 [0.5175602, 0.040738277, 0.017546637, 0.083549455, 0.09046634, 0.14606318, 0.14665714, 0.060427368]
46 [0.07320648, 0.041422285, 0.017547319, 0.083549455, 0.09046251, 0.14373493, 0.13449666, 0.05946415]
47 [0.3421299, 0.03644359, 0.014839301, 0.43347704, 0.9960312, 0.515804, 1.2985168, 1.0166881]
48 [0.7796061, 0.036785826, 0.014839633, 0.069840655, 0.08684722, 0.13618629, 0.11168361, 0.07023619]
49 [0.81175125, 0.036489423, 0.015273925, 0.4652967, 0.9434715, 0.13168968, 0.6556383, 0.949236]
