1 177 143.5 143.5
2 94 73.5 217.0
3 52 42.5 259.5
4 61 56.5 316.0
5 1 0.0 316.0
6 166 127.5 443.5
7 111 81.0 524.5
8 107 90.5 615.0
9 33 30.0 645.0
10 206 178.0 823.0
11 1 0.5 823.5
12 560 369.0 1192.5
13 1 0.5 1193.0
14 103 91.0 1284.0
15 1 1.0 1285.0
16 1 1.0 1286.0
17 700 584.0 1870.0
18 378 307.5 2177.5
19 1 1.0 2178.5
20 360 294.0 2472.5
21 1 1.0 2473.5
22 1 1.0 2474.5
23 700 595.5 3070.0
24 347 296.5 3366.5
25 1 1.0 3367.5
26 359 276.0 3643.5
27 1 0.0 3643.5
28 616 482.5 4126.0
29 1 1.0 4127.0
30 133 114.0 4241.0
31 1 1.0 4242.0
32 700 536.5 4778.5
33 246 192.5 4971.0
34 700 578.0 5549.0
35 380 310.0 5859.0
36 1 1.0 5860.0
37 700 581.5 6441.5
38 199 193.0 6634.5
39 1 1.0 6635.5
40 192 162.5 6798.0
41 1 1.0 6799.0
42 544 500.5 7299.5
43 105 98.5 7398.0
44 66 51.0 7449.0
45 62 57.5 7506.5
46 87 77.0 7583.5
47 212 141.5 7725.0
48 3 1.5 7726.5
49 1 0.5 7727.0
50 309 220.5 7947.5
51 47 40.5 7988.0
52 114 95.5 8083.5
53 40 40.0 8123.5
54 133 101.0 8224.5
55 1 1.0 8225.5
56 607 445.5 8671.0
57 1 1.0 8672.0
58 174 155.5 8827.5
59 1 1.0 8828.5
60 414 324.5 9153.0
61 1 1.0 9154.0
62 695 575.0 9729.0
63 1 1.0 9730.0
64 436 367.5 10097.5
65 1 1.0 10098.5
66 700 466.0 10564.5
67 445 271.0 10835.5
68 1 1.0 10836.5
69 700 509.5 11346.0
70 549 442.0 11788.0
71 1 1.0 11789.0
72 269 240.5 12029.5
73 1 1.0 12030.5
74 549 412.5 12443.0
75 1 1.0 12444.0
76 595 453.0 12897.0
77 1 1.0 12898.0
78 700 425.0 13323.0
79 700 422.5 13745.5
80 694 562.5 14308.0
81 1 1.0 14309.0
82 160 144.0 14453.0
83 1 1.0 14454.0
84 700 511.5 14965.5
85 700 473.5 15439.0
86 375 311.5 15750.5
87 1 1.0 15751.5
88 327 234.5 15986.0
89 1 0.5 15986.5
90 1 0.5 15987.0
91 599 415.5 16402.5
92 1 0.0 16402.5
93 1 0.0 16402.5
94 405 311.5 16714.0
95 1 1.0 16715.0
96 700 490.5 17205.5
97 410 309.0 17514.5
98 1 1.0 17515.5
99 260 186.0 17701.5
100 283 186.0 17887.5
101 95 74.5 17962.0
102 86 65.5 18027.5
103 140 119.0 18146.5
104 70 39.5 18186.0
105 115 82.5 18268.5
106 37 31.0 18299.5
107 207 151.0 18450.5
108 60 52.0 18502.5
109 118 92.0 18594.5
110 136 94.5 18689.0
111 1 0.5 18689.5
112 1 0.5 18690.0
113 1 0.5 18690.5
114 643 467.5 19158.0
115 1 0.5 19158.5
116 1 0.5 19159.0
117 700 573.0 19732.0
118 700 491.0 20223.0
119 700 531.0 20754.0
120 312 280.0 21034.0
121 1 1.0 21035.0
122 371 314.0 21349.0
123 1 0.5 21349.5
124 660 488.5 21838.0
125 1 0.5 21838.5
126 1 1.0 21839.5
127 700 567.0 22406.5
128 458 303.5 22710.0
129 1 1.0 22711.0
130 696 479.0 23190.0
131 1 0.5 23190.5
132 346 281.0 23471.5
133 1 1.0 23472.5
134 552 444.0 23916.5
135 94 55.5 23972.0
136 148 115.0 24087.0
137 152 121.5 24208.5
138 204 158.5 24367.0
139 124 100.0 24467.0
140 65 53.5 24520.5
141 182 147.5 24668.0
142 700 480.0 25148.0
143 700 481.0 25629.0
144 185 163.5 25792.5
145 168 128.5 25921.0
146 1 0.5 25921.5
147 700 555.0 26476.5
148 279 222.0 26698.5
149 1 1.0 26699.5
150 700 541.0 27240.5
151 349 319.5 27560.0
152 1 0.0 27560.0
153 1 0.0 27560.0
154 434 308.0 27868.0
155 1 1.0 27869.0
156 462 342.5 28211.5
157 1 0.0 28211.5
158 700 514.5 28726.0
159 700 531.5 29257.5
160 642 491.5 29749.0
161 1 0.0 29749.0
162 700 449.5 30198.5
163 629 488.0 30686.5
164 1 1.0 30687.5
165 700 531.0 31218.5
166 568 406.0 31624.5
167 1 1.0 31625.5
168 304 230.0 31855.5
169 1 1.0 31856.5
170 419 310.5 32167.0
171 1 0.5 32167.5
172 700 492.0 32659.5
173 663 486.0 33145.5
174 1 1.0 33146.5
175 700 549.0 33695.5
176 700 546.5 34242.0
177 700 590.5 34832.5
178 700 567.5 35400.0
179 700 536.5 35936.5
180 317 277.5 36214.0
181 1 1.0 36215.0
182 418 336.0 36551.0
183 1 1.0 36552.0
184 700 454.5 37006.5
185 700 460.5 37467.0
186 543 421.5 37888.5
187 1 0.0 37888.5
188 700 560.5 38449.0
189 1 0.5 38449.5
190 141 117.0 38566.5
191 288 237.0 38803.5
192 135 118.5 38922.0
193 131 103.0 39025.0
194 1 1.0 39026.0
195 82 62.5 39088.5
196 133 68.0 39156.5
197 435 266.5 39423.0
198 1 1.0 39424.0
199 1 1.0 39425.0
200 1 1.0 39426.0
201 1 1.0 39427.0
202 700 575.5 40002.5
203 700 502.0 40504.5
204 700 453.0 40957.5
205 367 228.0 41185.5
206 1 0.0 41185.5
207 582 362.0 41547.5
208 1 0.5 41548.0
209 489 370.5 41918.5
210 1 1.0 41919.5
211 199 134.0 42053.5
212 1 1.0 42054.5
213 592 462.0 42516.5
214 1 0.5 42517.0
215 1 0.5 42517.5
216 663 473.5 42991.0
217 1 1.0 42992.0
218 607 381.5 43373.5
219 1 0.5 43374.0
220 700 553.5 43927.5
221 319 237.5 44165.0
222 1 1.0 44166.0
223 557 477.5 44643.5
224 1 0.0 44643.5
225 700 529.0 45172.5
226 700 538.0 45710.5
227 268 207.5 45918.0
228 402 303.5 46221.5
229 1 1.0 46222.5
230 700 593.0 46815.5
231 700 559.5 47375.0
232 700 492.5 47867.5
233 310 203.5 48071.0
234 175 154.5 48225.5
235 1 0.0 48225.5
236 659 546.0 48771.5
237 1 1.0 48772.5
238 700 535.0 49307.5
239 369 290.0 49597.5
240 1 1.0 49598.5
241 1 1.0 49599.5
242 416 297.0 49896.5
243 1 1.0 49897.5
244 700 552.5 50450.0
245 360 288.0 50738.0
246 1 1.0 50739.0
247 663 541.0 51280.0
248 1 1.0 51281.0
249 181 155.5 51436.5
250 1 1.0 51437.5
251 700 512.0 51949.5
252 213 147.0 52096.5
253 1 0.5 52097.0
254 534 422.5 52519.5
255 1 1.0 52520.5
256 283 208.5 52729.0
257 1 1.0 52730.0
258 431 326.5 53056.5
259 1 1.0 53057.5
260 592 455.0 53512.5
261 1 0.0 53512.5
262 700 494.5 54007.0
263 700 437.0 54444.0
264 444 304.0 54748.0
265 1 0.0 54748.0
266 117 97.5 54845.5
267 1 1.0 54846.5
268 595 387.0 55233.5
269 1 1.0 55234.5
270 592 462.5 55697.0
271 358 309.5 56006.5
272 1 1.0 56007.5
273 286 261.5 56269.0
274 146 118.5 56387.5
275 303 191.5 56579.0
276 98 87.5 56666.5
277 382 276.5 56943.0
278 336 261.5 57204.5
279 1 1.0 57205.5
280 700 492.5 57698.0
281 700 520.5 58218.5
282 700 491.5 58710.0
283 367 264.0 58974.0
284 1 1.0 58975.0
285 1 1.0 58976.0
286 700 454.0 59430.0
287 383 331.0 59761.0
288 1 1.0 59762.0
289 679 560.5 60322.5
290 118 91.0 60413.5
291 81 64.5 60478.0
292 200 165.0 60643.0
293 314 254.0 60897.0
294 95 82.0 60979.0
295 257 205.5 61184.5
296 1 0.5 61185.0
297 530 403.5 61588.5
298 1 1.0 61589.5
299 700 514.5 62104.0
300 700 548.0 62652.0
301 694 483.0 63135.0
302 1 0.5 63135.5
303 700 605.0 63740.5
304 433 314.5 64055.0
305 1 0.0 64055.0
306 700 545.0 64600.0
307 374 281.5 64881.5
308 1 1.0 64882.5
309 1 1.0 64883.5
310 284 193.5 65077.0
311 440 399.5 65476.5
312 1 1.0 65477.5
313 454 284.0 65761.5
314 1 0.5 65762.0
315 700 549.0 66311.0
316 700 472.0 66783.0
317 700 491.0 67274.0
318 1 1.0 67275.0
319 1 1.0 67276.0
320 431 290.0 67566.0
321 266 215.5 67781.5
322 1 1.0 67782.5
323 700 463.5 68246.0
324 340 273.0 68519.0
325 1 1.0 68520.0
326 263 181.5 68701.5
327 1 1.0 68702.5
328 246 189.5 68892.0
329 1 1.0 68893.0
330 586 451.5 69344.5
331 1 0.0 69344.5
332 700 384.0 69728.5
333 359 260.0 69988.5
334 1 1.0 69989.5
335 700 548.5 70538.0
336 700 517.0 71055.0
337 560 429.5 71484.5
338 1 1.0 71485.5
339 700 571.5 72057.0
340 700 467.5 72524.5
341 471 400.0 72924.5
342 1 0.5 72925.0
343 1 1.0 72926.0
344 135 111.5 73037.5
345 1 1.0 73038.5
346 1 1.0 73039.5
347 700 588.5 73628.0
348 700 543.0 74171.0
349 700 535.0 74706.0
350 700 518.0 75224.0
351 700 431.5 75655.5
352 649 467.5 76123.0
353 1 1.0 76124.0
354 1 1.0 76125.0
355 1 1.0 76126.0
356 632 467.0 76593.0
357 1 0.0 76593.0
358 634 525.0 77118.0
359 1 1.0 77119.0
360 700 552.5 77671.5
361 700 479.0 78150.5
362 700 474.5 78625.0
363 605 486.0 79111.0
364 1 1.0 79112.0
365 1 1.0 79113.0
366 700 453.5 79566.5
367 389 287.5 79854.0
368 1 0.5 79854.5
369 700 561.0 80415.5
370 700 456.5 80872.0
371 700 548.5 81420.5
372 1 1.0 81421.5
373 700 469.5 81891.0
374 700 498.0 82389.0
375 234 201.5 82590.5
376 1 1.0 82591.5
377 700 549.0 83140.5
378 322 221.5 83362.0
379 1 1.0 83363.0
380 365 302.0 83665.0
381 1 1.0 83666.0
382 1 1.0 83667.0
383 1 1.0 83668.0
384 1 1.0 83669.0
385 700 445.0 84114.0
386 700 507.5 84621.5
387 636 468.0 85089.5
388 1 1.0 85090.5
389 700 551.5 85642.0
390 700 496.5 86138.5
391 700 472.5 86611.0
392 690 574.0 87185.0
393 1 1.0 87186.0
394 700 486.5 87672.5
395 700 477.5 88150.0
396 700 476.5 88626.5
397 700 485.5 89112.0
398 334 234.0 89346.0
399 1 1.0 89347.0
400 1 1.0 89348.0
401 700 497.0 89845.0
402 700 450.0 90295.0
403 700 471.5 90766.5
404 700 492.0 91258.5
405 700 422.0 91680.5
406 700 497.5 92178.0
407 700 487.0 92665.0
408 700 555.0 93220.0
409 366 294.5 93514.5
410 179 131.5 93646.0
411 700 588.0 94234.0
412 700 435.5 94669.5
413 406 306.0 94975.5
414 1 0.5 94976.0
415 700 418.0 95394.0
416 700 466.0 95860.0
417 543 385.5 96245.5
418 1 0.5 96246.0
419 1 0.0 96246.0
420 700 465.0 96711.0
421 700 485.0 97196.0
422 700 517.5 97713.5
423 700 548.0 98261.5
424 451 322.0 98583.5
425 1 0.5 98584.0
426 700 460.5 99044.5
427 685 527.5 99572.0
428 1 1.0 99573.0
429 700 518.5 100091.5
430 700 516.0 100607.5
431 700 440.5 101048.0
432 514 377.0 101425.0
433 1 1.0 101426.0
434 700 479.0 101905.0
435 476 335.5 102240.5
436 1 1.0 102241.5
437 1 1.0 102242.5
438 534 342.0 102584.5
439 1 0.5 102585.0
440 454 356.5 102941.5
441 1 1.0 102942.5
442 700 591.5 103534.0
443 700 547.0 104081.0
444 700 480.0 104561.0
445 700 561.0 105122.0
446 1 1.0 105123.0
447 1 1.0 105124.0
448 700 525.5 105649.5
449 308 271.0 105920.5
450 1 1.0 105921.5
451 1 1.0 105922.5
452 1 1.0 105923.5
453 1 1.0 105924.5
454 700 511.5 106436.0
455 700 511.5 106947.5
456 700 529.0 107476.5
457 642 485.5 107962.0
458 1 1.0 107963.0
459 412 320.0 108283.0
460 1 0.5 108283.5
461 700 514.0 108797.5
462 700 529.5 109327.0
463 700 490.0 109817.0
464 700 474.0 110291.0
465 700 555.5 110846.5
466 700 467.5 111314.0
467 304 211.0 111525.0
468 700 572.0 112097.0
469 462 383.0 112480.0
470 1 1.0 112481.0
471 700 452.5 112933.5
472 700 517.5 113451.0
473 560 420.5 113871.5
474 1 1.0 113872.5
475 700 534.5 114407.0
476 700 414.5 114821.5
477 595 480.0 115301.5
478 1 0.5 115302.0
479 700 470.5 115772.5
480 700 459.0 116231.5
481 700 437.5 116669.0
482 700 581.0 117250.0
483 700 518.0 117768.0
484 271 209.5 117977.5
485 1 1.0 117978.5
486 700 539.5 118518.0
487 700 484.5 119002.5
488 700 493.5 119496.0
489 592 432.5 119928.5
490 1 0.0 119928.5
491 700 482.0 120410.5
492 700 484.0 120894.5
493 608 437.5 121332.0
494 1 1.0 121333.0
495 700 549.5 121882.5
496 700 518.0 122400.5
497 700 542.0 122942.5
498 700 516.0 123458.5
499 700 559.5 124018.0
500 700 495.0 124513.0
501 399 282.5 124795.5
502 700 450.0 125245.5
503 700 521.5 125767.0
504 700 438.5 126205.5
505 700 475.5 126681.0
506 700 499.5 127180.5
507 700 507.0 127687.5
508 484 370.5 128058.0
509 1 0.0 128058.0
510 700 477.0 128535.0
511 700 572.5 129107.5
512 700 540.0 129647.5
513 700 449.5 130097.0
514 594 495.0 130592.0
515 1 1.0 130593.0
516 1 1.0 130594.0
517 700 459.5 131053.5
518 700 502.5 131556.0
519 628 462.5 132018.5
520 1 1.0 132019.5
521 700 506.5 132526.0
522 700 512.0 133038.0
523 700 489.0 133527.0
524 700 566.0 134093.0
525 700 521.0 134614.0
526 700 547.5 135161.5
527 700 511.5 135673.0
528 700 462.5 136135.5
529 700 538.0 136673.5
530 700 476.0 137149.5
531 700 485.5 137635.0
532 410 356.5 137991.5
533 1 1.0 137992.5
534 325 272.0 138264.5
535 700 465.5 138730.0
536 700 520.5 139250.5
537 700 520.0 139770.5
538 700 401.0 140171.5
539 700 515.0 140686.5
540 700 469.5 141156.0
541 455 336.0 141492.0
542 1 1.0 141493.0
543 270 256.0 141749.0
544 1 1.0 141750.0
545 700 521.0 142271.0
546 700 437.5 142708.5
547 689 498.5 143207.0
548 1 1.0 143208.0
549 700 465.0 143673.0
550 700 519.0 144192.0
551 676 520.0 144712.0
552 1 1.0 144713.0
553 604 508.0 145221.0
554 1 1.0 145222.0
555 700 488.0 145710.0
556 700 554.5 146264.5
557 700 471.5 146736.0
558 700 482.0 147218.0
559 443 355.5 147573.5
560 1 1.0 147574.5
561 120 116.5 147691.0
562 700 526.0 148217.0
563 700 451.0 148668.0
564 700 532.5 149200.5
565 700 584.5 149785.0
566 700 515.5 150300.5
567 700 554.0 150854.5
568 652 492.0 151346.5
569 1 0.5 151347.0
570 643 463.0 151810.0
571 1 1.0 151811.0
572 480 313.5 152124.5
573 1 0.5 152125.0
574 1 0.5 152125.5
575 700 540.5 152666.0
576 700 477.0 153143.0
577 700 524.0 153667.0
578 246 215.0 153882.0
579 1 1.0 153883.0
580 700 534.5 154417.5
581 350 234.5 154652.0
582 1 1.0 154653.0
583 700 566.0 155219.0
584 529 422.5 155641.5
585 75 53.5 155695.0
586 52 50.5 155745.5
587 139 107.0 155852.5
588 556 337.5 156190.0
589 162 134.0 156324.0
590 124 103.0 156427.0
591 1 1.0 156428.0
592 456 292.0 156720.0
593 1 1.0 156721.0
594 700 528.0 157249.0
595 323 265.5 157514.5
596 1 1.0 157515.5
597 679 474.5 157990.0
598 1 1.0 157991.0
599 1 1.0 157992.0
600 700 414.5 158406.5
601 187 146.0 158552.5
602 314 259.0 158811.5
603 1 0.5 158812.0
604 700 483.5 159295.5
605 24 13.0 159308.5
606 1 0.0 159308.5
607 700 506.0 159814.5
608 439 325.5 160140.0
609 1 0.0 160140.0
610 700 531.5 160671.5
611 700 523.0 161194.5
612 700 520.0 161714.5
613 576 461.5 162176.0
614 1 1.0 162177.0
615 700 451.0 162628.0
616 379 303.0 162931.0
617 1 1.0 162932.0
618 477 422.0 163354.0
619 390 330.5 163684.5
620 1 1.0 163685.5
621 700 528.0 164213.5
622 700 484.5 164698.0
623 700 513.0 165211.0
624 403 333.0 165544.0
625 1 1.0 165545.0
626 700 544.0 166089.0
627 700 502.5 166591.5
628 700 482.5 167074.0
629 700 550.0 167624.0
630 127 107.0 167731.0
631 1 1.0 167732.0
632 163 129.5 167861.5
633 1 0.5 167862.0
634 1 0.5 167862.5
635 1 0.5 167863.0
636 671 550.0 168413.0
637 1 1.0 168414.0
638 1 1.0 168415.0
639 1 1.0 168416.0
640 181 163.5 168579.5
641 1 1.0 168580.5
642 458 373.5 168954.0
643 1 1.0 168955.0
644 700 465.5 169420.5
645 700 477.5 169898.0
646 45 39.5 169937.5
647 700 561.0 170498.5
648 152 132.0 170630.5
649 101 55.0 170685.5
650 89 88.0 170773.5
651 332 210.5 170984.0
652 62 55.5 171039.5
653 235 156.5 171196.0
654 23 17.5 171213.5
655 85 63.5 171277.0
656 425 311.0 171588.0
657 1 1.0 171589.0
658 1 1.0 171590.0
659 700 507.0 172097.0
660 700 468.0 172565.0
661 700 388.0 172953.0
662 700 429.0 173382.0
663 700 501.5 173883.5
664 700 418.0 174301.5
665 700 497.5 174799.0
666 700 501.0 175300.0
667 700 508.0 175808.0
668 319 238.0 176046.0
669 1 0.5 176046.5
670 700 465.0 176511.5
671 700 522.5 177034.0
672 612 439.0 177473.0
673 1 0.0 177473.0
674 1 0.0 177473.0
675 1 0.0 177473.0
676 700 513.5 177986.5
677 329 255.5 178242.0
678 700 560.0 178802.0
679 700 451.5 179253.5
680 639 452.5 179706.0
681 1 1.0 179707.0
682 1 1.0 179708.0
683 324 242.0 179950.0
684 101 88.0 180038.0
685 159 105.5 180143.5
686 261 193.0 180336.5
687 197 131.0 180467.5
688 188 112.5 180580.0
689 700 432.5 181012.5
690 145 79.0 181091.5
691 1 1.0 181092.5
692 1 1.0 181093.5
693 660 473.0 181566.5
694 1 1.0 181567.5
695 700 540.0 182107.5
696 639 380.0 182487.5
697 1 1.0 182488.5
698 685 512.0 183000.5
699 1 1.0 183001.5
700 356 289.5 183291.0
701 1 1.0 183292.0
702 700 464.5 183756.5
703 700 595.0 184351.5
704 700 515.5 184867.0
705 700 483.0 185350.0
706 448 307.5 185657.5
707 136 111.5 185769.0
708 128 90.0 185859.0
709 199 136.5 185995.5
710 79 69.5 186065.0
711 176 113.0 186178.0
712 50 41.5 186219.5
713 159 116.5 186336.0
714 331 273.5 186609.5
715 1 1.0 186610.5
716 700 472.5 187083.0
717 235 184.5 187267.5
718 1 0.0 187267.5
719 697 483.0 187750.5
720 1 0.5 187751.0
721 174 88.0 187839.0
722 700 520.5 188359.5
723 700 517.0 188876.5
724 311 234.0 189110.5
725 1 0.0 189110.5
726 1 0.0 189110.5
727 700 421.0 189531.5
728 700 431.5 189963.0
729 482 377.5 190340.5
730 1 0.5 190341.0
731 700 438.5 190779.5
732 528 394.0 191173.5
733 1 0.0 191173.5
734 511 358.0 191531.5
735 1 1.0 191532.5
736 1 1.0 191533.5
737 1 1.0 191534.5
738 341 239.0 191773.5
739 1 0.0 191773.5
740 471 367.5 192141.0
741 1 1.0 192142.0
742 642 522.0 192664.0
743 1 1.0 192665.0
744 493 372.5 193037.5
745 1 1.0 193038.5
746 700 513.5 193552.0
747 700 475.0 194027.0
748 700 503.5 194530.5
749 700 426.5 194957.0
750 700 538.0 195495.0
751 373 290.0 195785.0
752 1 1.0 195786.0
753 116 102.0 195888.0
754 1 1.0 195889.0
755 700 555.0 196444.0
756 224 193.5 196637.5
757 1 0.0 196637.5
758 700 517.5 197155.0
759 686 433.0 197588.0
760 1 1.0 197589.0
761 224 194.5 197783.5
762 97 76.5 197860.0
763 167 125.5 197985.5
764 66 50.5 198036.0
765 460 294.5 198330.5
766 1 1.0 198331.5
767 1 1.0 198332.5
768 274 208.0 198540.5
769 1 1.0 198541.5
770 1 1.0 198542.5
771 700 561.5 199104.0
772 700 536.0 199640.0
773 700 497.0 200137.0
774 420 341.0 200478.0
775 1 1.0 200479.0
776 393 277.5 200756.5
777 1 1.0 200757.5
778 700 460.5 201218.0
779 700 556.5 201774.5
780 700 479.5 202254.0
781 700 567.0 202821.0
782 700 459.5 203280.5
783 700 520.0 203800.5
784 700 493.0 204293.5
785 700 424.5 204718.0
786 662 447.0 205165.0
787 1 1.0 205166.0
788 676 518.0 205684.0
789 1 1.0 205685.0
790 360 271.5 205956.5
791 1 1.0 205957.5
792 648 455.5 206413.0
793 1 1.0 206414.0
794 1 1.0 206415.0
795 700 516.0 206931.0
796 548 392.0 207323.0
797 1 1.0 207324.0
798 700 482.0 207806.0
799 693 494.0 208300.0
800 1 1.0 208301.0
801 700 520.5 208821.5
802 700 513.5 209335.0
803 700 482.5 209817.5
804 700 372.0 210189.5
805 355 295.0 210484.5
806 1 1.0 210485.5
807 700 576.0 211061.5
808 700 465.5 211527.0
809 700 472.5 211999.5
810 177 119.5 212119.0
811 247 209.0 212328.0
812 343 225.5 212553.5
813 301 217.5 212771.0
814 1 1.0 212772.0
815 700 490.0 213262.0
816 700 438.5 213700.5
817 665 518.0 214218.5
818 1 0.5 214219.0
819 700 516.0 214735.0
820 700 529.0 215264.0
821 1 1.0 215265.0
822 470 295.5 215560.5
823 1 0.0 215560.5
824 655 451.0 216011.5
825 1 0.5 216012.0
826 1 0.5 216012.5
827 700 407.0 216419.5
828 700 544.5 216964.0
829 700 523.5 217487.5
830 501 350.0 217837.5
831 1 1.0 217838.5
832 700 338.0 218176.5
833 700 506.5 218683.0
834 700 505.5 219188.5
835 700 449.0 219637.5
836 700 517.0 220154.5
837 700 488.5 220643.0
838 700 461.5 221104.5
839 700 442.0 221546.5
840 700 514.0 222060.5
841 700 479.0 222539.5
842 700 575.0 223114.5
843 98 37.0 223151.5
844 1 1.0 223152.5
845 242 174.5 223327.0
846 129 87.5 223414.5
847 94 79.0 223493.5
848 199 132.5 223626.0
849 653 484.0 224110.0
850 1 0.0 224110.0
851 700 465.0 224575.0
852 700 523.5 225098.5
853 263 241.0 225339.5
854 1 0.5 225340.0
855 700 435.0 225775.0
856 700 432.0 226207.0
857 672 484.5 226691.5
858 1 1.0 226692.5
859 700 493.5 227186.0
860 700 466.0 227652.0
861 690 483.0 228135.0
862 1 1.0 228136.0
863 700 498.5 228634.5
864 480 361.0 228995.5
865 1 1.0 228996.5
866 700 549.5 229546.0
867 700 492.0 230038.0
868 634 397.5 230435.5
869 1 0.0 230435.5
870 614 420.0 230855.5
871 1 1.0 230856.5
872 153 145.5 231002.0
873 1 0.5 231002.5
874 1 0.5 231003.0
875 700 431.5 231434.5
876 700 424.0 231858.5
877 700 375.5 232234.0
878 516 408.5 232642.5
879 1 1.0 232643.5
880 700 457.0 233100.5
881 1 1.0 233101.5
882 1 1.0 233102.5
883 1 1.0 233103.5
884 1 1.0 233104.5
885 1 1.0 233105.5
886 1 1.0 233106.5
887 431 301.0 233407.5
888 1 1.0 233408.5
889 1 1.0 233409.5
890 1 1.0 233410.5
891 286 212.0 233622.5
892 251 178.0 233800.5
893 700 516.0 234316.5
894 700 404.5 234721.0
895 700 492.5 235213.5
896 700 514.5 235728.0
897 700 555.5 236283.5
898 700 502.5 236786.0
899 700 410.0 237196.0
900 677 516.5 237712.5
901 1 1.0 237713.5
902 700 458.5 238172.0
903 700 494.0 238666.0
904 700 494.5 239160.5
905 700 463.5 239624.0
906 700 564.5 240188.5
907 700 493.5 240682.0
908 528 401.5 241083.5
909 1 0.0 241083.5
910 700 474.0 241557.5
911 700 476.5 242034.0
912 700 455.5 242489.5
913 357 279.0 242768.5
914 1 1.0 242769.5
915 700 455.0 243224.5
916 700 424.5 243649.0
917 700 418.5 244067.5
918 700 492.0 244559.5
919 435 271.5 244831.0
920 700 437.5 245268.5
921 700 476.5 245745.0
922 250 169.0 245914.0
923 1 1.0 245915.0
924 700 410.0 246325.0
925 700 494.0 246819.0
926 700 413.5 247232.5
927 700 440.0 247672.5
928 700 468.5 248141.0
929 700 451.0 248592.0
930 516 420.5 249012.5
931 1 1.0 249013.5
932 581 450.5 249464.0
933 1 1.0 249465.0
934 475 358.5 249823.5
935 700 553.5 250377.0
936 700 490.5 250867.5
937 674 411.0 251278.5
938 1 0.0 251278.5
939 700 555.0 251833.5
940 700 453.0 252286.5
941 700 531.0 252817.5
942 471 376.5 253194.0
943 1 0.5 253194.5
944 700 530.5 253725.0
945 342 276.0 254001.0
946 1 1.0 254002.0
947 700 462.0 254464.0
948 700 446.0 254910.0
949 700 497.5 255407.5
950 588 452.5 255860.0
951 1 0.5 255860.5
952 700 418.5 256279.0
953 700 469.0 256748.0
954 700 466.5 257214.5
955 594 452.0 257666.5
956 1 0.0 257666.5
957 700 505.5 258172.0
958 700 442.5 258614.5
959 431 273.0 258887.5
960 282 196.0 259083.5
961 103 80.5 259164.0
962 255 157.0 259321.0
963 145 99.0 259420.0
964 700 452.0 259872.0
965 700 474.5 260346.5
966 8 8.0 260354.5
967 700 547.5 260902.0
968 700 505.5 261407.5
969 700 486.0 261893.5
970 152 113.0 262006.5
971 1 1.0 262007.5
972 1 1.0 262008.5
973 549 433.5 262442.0
974 1 1.0 262443.0
975 1 1.0 262444.0
976 700 433.5 262877.5
977 700 474.0 263351.5
978 700 522.5 263874.0
979 700 533.5 264407.5
980 700 489.5 264897.0
981 700 483.0 265380.0
982 700 466.0 265846.0
983 700 557.5 266403.5
984 173 105.0 266508.5
985 700 536.5 267045.0
986 13 13.0 267058.0
987 1 1.0 267059.0
988 1 1.0 267060.0
989 700 431.5 267491.5
990 700 449.5 267941.0
991 700 381.0 268322.0
992 700 451.5 268773.5
993 700 439.0 269212.5
994 238 191.0 269403.5
995 1 1.0 269404.5
996 700 545.5 269950.0
997 178 139.0 270089.0
998 239 171.5 270260.5
999 1 1.0 270261.5
1000 1 1.0 270262.5
