0 8.7477304E-8
0 3.890412E-8
0 1.1920898E-7
0 -1.7162279E-7
0 -3.1415927
0 -3.1415927
0 -3.1415927
0 3.1415927
0 -3.141591
1 8.7477304E-8
1 3.890412E-8
1 1.1920898E-7
1 -1.7162279E-7
1 -3.1415927
1 -3.1415927
1 -3.1415927
1 3.1415927
1 -3.141591
2 8.7477304E-8
2 3.890412E-8
2 1.1920898E-7
2 -1.7162279E-7
2 -3.1415927
2 -3.1415927
2 -3.1415927
2 3.1415927
2 -3.141591
3 8.7477304E-8
3 3.890412E-8
3 1.1920898E-7
3 -1.7162279E-7
3 -3.1415927
3 -3.1415927
3 -3.1415927
3 3.1415927
3 -3.141591
4 8.7477304E-8
4 3.890412E-8
4 1.1920898E-7
4 -1.7162279E-7
4 -3.1415927
4 -3.1415927
4 -3.1415927
4 3.1415927
4 -3.141591
5 8.7477304E-8
5 3.890412E-8
5 1.1920898E-7
5 -1.7162279E-7
5 -3.1415927
5 -3.1415927
5 -3.1415927
5 3.1415927
5 -3.141591
6 8.7477304E-8
6 3.890412E-8
6 1.1920898E-7
6 -1.7162279E-7
6 -3.1415927
6 -3.1415927
6 -3.1415927
6 3.1415927
6 -3.141591
7 8.7477304E-8
7 3.890412E-8
7 1.1920898E-7
7 -1.7162279E-7
7 -3.1415927
7 -3.1415927
7 -3.1415927
7 3.1415927
7 -3.141591
8 8.7477304E-8
8 3.890412E-8
8 1.1920898E-7
8 -1.7162279E-7
8 -3.1415927
8 -3.1415927
8 -3.1415927
8 3.1415927
8 -3.141591
9 8.7477304E-8
9 3.890412E-8
9 1.1920898E-7
9 -1.7162279E-7
9 -3.1415927
9 -3.1415927
9 -3.1415927
9 3.1415927
9 -3.141591
10 -0.0065898784
10 -0.00856629
10 -0.013064934
10 -0.03687426
10 -3.102537
10 -3.1282964
10 -3.1329532
10 -3.1350026
10 -3.1365228
11 -0.0065898784
11 -0.00856629
11 -0.013064934
11 -0.03687426
11 -3.102537
11 -3.1282964
11 -3.1329532
11 -3.1350026
11 -3.1253583
12 -0.012164547
12 -0.015457
12 -0.023025107
12 -0.059040047
12 -3.0558007
12 -3.1158054
12 -3.1252642
12 -3.129428
12 -3.1089246
13 -0.012164547
13 -0.015457
13 -0.023025107
13 -0.059040047
13 -3.0558007
13 -3.1158054
13 -3.1252642
13 -3.129428
13 -3.1089246
14 -0.011741169
14 -0.014651974
14 -0.021438122
14 -0.05148416
14 -3.0435445
14 -3.1156332
14 -3.1255205
14 -3.1298513
14 -3.0865552
15 -0.011741169
15 -0.014651974
15 -0.021438122
15 -0.05148416
15 -3.0435445
15 -3.1156332
15 -3.1255205
15 -3.1298513
15 -3.0865552
16 -0.010903865
16 -0.013306071
16 -0.019057866
16 -0.04261042
16 -3.0229087
16 -3.1160975
16 -3.1262832
16 -3.1306887
16 -3.0583408
17 -0.010903865
17 -0.013306071
17 -0.019057866
17 -0.04261042
17 -3.0229087
17 -3.1160975
17 -3.1262832
17 -3.1306887
17 -3.0583408
18 -0.011216632
18 -0.013320111
18 -0.018611247
18 -0.03859246
18 -2.9461017
18 -3.1133435
18 -3.1253235
18 -3.1303759
18 -3.0233624
19 -0.011216632
19 -0.013320111
19 -0.018611247
19 -0.03859246
19 -2.9461017
19 -3.1133435
19 -3.1253235
19 -3.1303759
19 -3.0233624
20 -0.01072627
20 -0.012331846
20 -0.016756866
20 -0.03218635
20 -2.4860024
20 -3.1117523
20 -3.125377
20 -3.1308663
20 -2.9808357
21 -0.009398817
21 -0.010406676
21 -0.0137171
21 -0.024437567
21 -0.24535166
21 -3.1116672
21 -3.1266186
21 -3.1321938
21 -2.9303179
22 -0.007915815
22 -0.008427785
22 -0.010783751
22 -0.017977964
22 -0.08453349
22 -3.1116958
22 -3.1281967
22 -3.1336768
22 -2.876661
23 -0.005121304
23 -0.0052355835
23 -0.006506677
23 -0.010221266
23 -0.033118583
23 -3.11727
23 -3.1322854
23 -3.1364713
23 -2.8195376
24 -0.0028059904
24 -0.0027440458
24 -0.0033071477
24 -0.0049057784
24 -0.012385167
24 -3.1224036
24 -3.1359956
24 -3.1387866
24 -2.7545428
25 -1.9356808E-4
25 -1.9531601E-4
25 -2.2797995E-4
25 -3.2043108E-4
25 -6.7422556E-4
25 -3.138596
25 -3.1411188
25 -3.1413991
25 -2.6814468
26 0.0017816335
26 0.0015269011
26 0.0017242351
26 0.0022984485
26 0.004207178
26 0.08587594
26 3.1369603
26 3.139811
26 -2.6004784
27 0.0021460566
27 0.001715166
27 0.0018711438
27 0.0023730802
27 0.0038829516
27 0.015980283
27 3.134447
27 3.1394465
27 -2.510725
28 0.0021460566
28 0.001715166
28 0.0018711438
28 0.0023730802
28 0.0038829516
28 0.015980283
28 3.134447
28 3.1394465
28 -2.510725
29 -0.0036979548
29 -0.0025870523
29 -0.0026426532
29 -0.0030807995
29 -0.0043169167
29 -0.0090278
29 -3.0989947
29 -3.1378949
29 -2.32927
30 -0.0036979548
30 -0.0025870523
30 -0.0026426532
30 -0.0030807995
30 -0.0043169167
30 -0.0090278
30 -3.0989947
30 -3.1378949
30 -2.32927
31 -0.008831968
31 -0.005046846
31 -0.004828504
31 -0.0052335467
31 -0.006578727
31 -0.010570888
31 -0.038757514
31 -3.1327608
31 -2.1442304
32 -0.008831968
32 -0.005046846
32 -0.004828504
32 -0.0052335467
32 -0.006578727
32 -0.010570888
32 -0.038757514
32 -3.1327608
32 -2.1442304
33 -0.008776935
33 -0.004403204
33 -0.0040675877
33 -0.0042566746
33 -0.0051105744
33 -0.007528913
33 -0.01853274
33 -3.1328158
33 -2.0478942
34 -0.008776935
34 -0.004403204
34 -0.0040675877
34 -0.0042566746
34 -0.0051105744
34 -0.007528913
34 -0.01853274
34 -3.1328158
34 -2.0478942
35 -0.008776935
35 -0.004403204
35 -0.0040675877
35 -0.0042566746
35 -0.0051105744
35 -0.007528913
35 -0.01853274
35 -3.1328158
35 -2.0478942
36 -0.001504351
36 -5.340795E-4
36 -4.5503076E-4
36 -4.4305972E-4
36 -4.891847E-4
36 -6.30985E-4
36 -0.0010692602
36 -3.1400888
36 -1.8436964
37 -0.001504351
37 -5.340795E-4
37 -4.5503076E-4
37 -4.4305972E-4
37 -4.891847E-4
37 -6.30985E-4
37 -0.0010692602
37 -3.1400888
37 -1.8436964
38 0.003737587
38 7.2798313E-4
38 5.8850745E-4
38 5.4948585E-4
38 5.8101094E-4
38 7.067747E-4
38 0.0010667245
38 3.137854
38 -1.7281669
39 0.003737587
39 7.2798313E-4
39 5.8850745E-4
39 5.4948585E-4
39 5.8101094E-4
39 7.067747E-4
39 0.0010667245
39 3.137854
39 -1.7281669
40 -3.1409197
40 -1.3222285E-4
40 -9.424299E-5
40 -8.0897466E-5
40 -7.921826E-5
40 -8.816512E-5
40 -1.1437935E-4
40 -6.715378E-4
40 -1.508581
41 -3.1409197
41 -1.3222285E-4
41 -9.424299E-5
41 -8.0897466E-5
41 -7.921826E-5
41 -8.816512E-5
41 -1.1437935E-4
41 -6.715378E-4
41 -1.508581
42 3.1402733
42 3.3180558E-4
42 2.1985322E-4
42 1.8055565E-4
42 1.7062064E-4
42 1.824548E-4
42 2.2582716E-4
42 0.0013209452
42 -1.4132767
43 3.1402733
43 3.3180558E-4
43 2.1985322E-4
43 1.8055565E-4
43 1.7062064E-4
43 1.824548E-4
43 2.2582716E-4
43 0.0013209452
43 -1.4132767
44 3.136191
44 0.00297234
44 0.0018036406
44 0.0014171044
44 0.0012956775
44 0.0013424723
44 0.0015923815
44 0.005402504
44 -1.3224258
45 3.136191
45 0.00297234
45 0.0018036406
45 0.0014171044
45 0.0012956775
45 0.0013424723
45 0.0015923815
45 0.005402504
45 -1.3224258
46 3.1336503
46 0.007546921
46 0.0040585296
46 0.0030249984
46 0.0026674543
46 0.0026738218
46 0.0030491157
46 0.0079428125
46 -1.228652
47 3.1336503
47 0.007546921
47 0.0040585296
47 0.0030249984
47 0.0026674543
47 0.0026738218
47 0.0030491157
47 0.0079428125
47 -1.228652
48 3.1319637
48 0.015431651
48 0.0069921645
48 0.0049022273
48 0.004160417
48 0.0040363614
48 0.0044397353
48 0.009629326
48 -1.1362315
49 3.1319637
49 0.015431651
49 0.0069921645
49 0.0049022273
49 0.004160417
49 0.0040363614
49 0.0044397353
49 0.009629326
49 -1.1362315
