0 -1
1 -1
2 -1
3 -1
4 -1
5 -1
6 -1
7 -1
8 -1
9 1172384
10 1172384
11 1237499
12 1237474
13 1206175
14 1171899
15 1173259
16 1206188
17 1172629
18 1269504
19 1270503
20 1191634
21 1417914
22 1192259
23 1484376
24 1487125
25 705628
26 508384
27 737129
28 737129
29 508384
30 737129
31 -1
32 508884
33 729503
34 703125
35 749004
36 728878
37 703125
38 515009
39 404379
40 730253
41 703125
42 1529754
43 1452509
44 1452509
45 1246879
46 1404383
47 1546875
48 1247543
49 1343125
50 1484375
51 1534724
52 1534593
53 465625
54 390649
