0.6055269241333 -1.7749983072281
0.60554653406143 -1.7731368541718
0.60558354854584 -1.7674051523209
0.60565167665482 -1.7582021951675
0.6056632399559 -1.7483364343643
0.60568034648895 -1.7386125326157
0.60570859909058 -1.7288545370102
0.60574728250504 -1.7190959453583
0.60578751564026 -1.709361076355
0.60583794116974 -1.6995947360992
0.60590189695358 -1.689811706543
0.60598301887512 -1.6800706386566
0.60608261823654 -1.6703412532806
0.60627287626266 -1.6606314182281
0.60654675960541 -1.6510492563248
0.60685724020004 -1.6415128707886
0.60715061426163 -1.6322103738785
0.60723173618317 -1.6227111816406
0.607293009758 -1.6130920648575
0.60745471715927 -1.6036599874496
0.60767537355423 -1.5943458080292
0.60787951946259 -1.5850789546967
0.60797208547592 -1.5760165452957
0.60787892341614 -1.567122220993
0.60772377252579 -1.5582852363586
0.60758113861084 -1.5495201349258
0.60744607448578 -1.5408798456192
0.6073397397995 -1.5323057174683
0.60726577043533 -1.5238034725189
0.60720145702362 -1.5153645277023
0.60716038942337 -1.5070323944092
0.6071263551712 -1.498747587204
0.60711807012558 -1.4905202388763
0.60717517137527 -1.4823722839355
0.60725438594818 -1.4742443561554
0.60737389326096 -1.4661965370178
0.60754030942917 -1.4581320285797
0.60774356126785 -1.4500875473022
0.6080179810524 -1.4419322013855
0.60832095146179 -1.4337524175644
0.6086767911911 -1.4255537986755
0.60909116268158 -1.4173586368561
0.60954385995865 -1.4091342687607
0.61004656553268 -1.4008440971375
0.6106134057045 -1.3925321102142
0.6112180352211 -1.3841568231583
0.61188232898712 -1.3757631778717
0.61258393526077 -1.3673505783081
0.61294692754745 -1.3597857952118
0.61306345462799 -1.3531006574631
0.61326307058334 -1.3467818498611
0.6135191321373 -1.3404313325882
0.6140530705452 -1.333447098732
0.6148025393486 -1.3261231184006
0.61566889286041 -1.3187659978867
0.61661642789841 -1.3114004135132
0.61764019727707 -1.3040249347687
0.61873233318329 -1.2966685295105
0.61991387605667 -1.2892678976059
0.62117063999176 -1.2818970680237
0.6225146651268 -1.2744823694229
0.62394404411316 -1.2670489549637
0.62545609474182 -1.259593963623
0.62706196308136 -1.2521176338196
0.62875491380692 -1.24460542202
0.63053286075592 -1.2370660305023
0.63240152597427 -1.2294983863831
0.6343514919281 -1.2218962907791
0.636385679245 -1.2142683267593
0.63850808143616 -1.2065980434418
0.64071381092072 -1.1989102363586
0.6430127620697 -1.1911867856979
0.64540308713913 -1.1834099292755
0.64787352085114 -1.1756160259247
0.65041875839233 -1.16776907444
0.65304791927338 -1.1599096059799
0.65576660633087 -1.1519758701324
0.65856230258942 -1.1440279483795
0.66142761707306 -1.1360366344452
0.6643750667572 -1.1280153989792
0.66786229610443 -1.1194447278976
0.67154210805893 -1.1104038953781
0.6752222776413 -1.1013830900192
0.67891448736191 -1.0923416614532
0.68259739875793 -1.0833206176758
0.68627798557281 -1.0742822885513
0.68993580341339 -1.0652525424957
0.69358485937119 -1.0562193393707
0.69723743200302 -1.0471794605255
0.70088571310043 -1.0381453037262
0.70453768968582 -1.0290925502777
0.70818603038788 -1.0200591087341
0.71183198690414 -1.0110245943069
0.71548998355865 -1.0019767284393
0.71913856267929 -0.99294412136078
0.72278678417206 -0.98390007019043
0.72644227743149 -0.9748557806015
0.73009037971497 -0.96582639217377
0.73374754190445 -0.95678406953812
0.73740112781525 -0.94773453474045
0.74105417728424 -0.9386979341507
0.74469470977783 -0.92967116832733
0.74835646152496 -0.92061412334442
0.75200235843658 -0.91158038377762
0.75564461946487 -0.90255278348923
0.75929737091064 -0.89349663257599
0.76294374465942 -0.88445866107941
0.76659494638443 -0.87541854381561
0.77024310827255 -0.86638069152832
0.77389568090439 -0.8573425412178
0.77754485607147 -0.84830540418625
0.78119480609894 -0.83926278352737
0.78484356403351 -0.8302281498909
0.78848826885223 -0.82118147611618
0.79212945699692 -0.81215876340866
0.79578244686127 -0.80310356616974
0.79943561553955 -0.79405987262726
0.80309182405472 -0.78501921892166
0.80674332380295 -0.77597069740295
0.81039154529572 -0.76695036888123
0.81404381990433 -0.75789660215378
0.81768035888672 -0.74886608123779
0.82132261991501 -0.73983192443848
0.82497578859329 -0.73079425096512
0.8286315202713 -0.72175443172455
0.83227074146271 -0.71272951364517
0.83592736721039 -0.70368784666061
0.83957546949387 -0.69464725255966
0.84322375059128 -0.68560427427292
0.84685915708542 -0.67661798000336
0.85045689344406 -0.66772770881653
0.85398370027542 -0.6589891910553
0.85746562480927 -0.65036988258362
0.86089688539505 -0.64187914133072
0.86429131031036 -0.63350278139114
0.86763513088226 -0.62524574995041
0.87093496322632 -0.61710768938065
0.87418925762177 -0.60908901691437
0.87734907865524 -0.60131591558456
0.88041180372238 -0.59379941225052
0.88336449861526 -0.58653128147125
0.88623297214508 -0.57947945594788
0.88902318477631 -0.57268089056015
0.89172804355621 -0.56610572338104
0.89434641599655 -0.55974543094635
0.8968540430069 -0.55357122421265
0.89928150177002 -0.54761338233948
0.90162688493729 -0.54187071323395
0.90387964248657 -0.53632652759552
0.90605610609055 -0.5309534072876
0.90814578533173 -0.5257853269577
0.91014635562897 -0.52078032493591
0.91207015514374 -0.51594579219818
0.91392296552658 -0.51130771636963
0.91569393873215 -0.50683492422104
0.91739243268967 -0.50252097845078
0.91902989149094 -0.49833005666733
0.92060261964798 -0.49428230524063
0.9221156835556 -0.49039521813393
0.9239889383316 -0.48498678207397
0.92602300643921 -0.47901549935341
0.92790997028351 -0.47326356172562
0.92973434925079 -0.46767514944077
0.93146812915802 -0.46226119995117
0.93315762281418 -0.45696061849594
0.93451154232025 -0.45266836881638
0.93583953380585 -0.4489398598671
0.937180519104 -0.44537788629532
0.93848770856857 -0.44194054603577
0.93973904848099 -0.4386203289032
0.94093877077103 -0.4353686273098
0.94207954406738 -0.43227314949036
0.94320857524872 -0.43003210425377
0.94429457187653 -0.42819708585739
0.94536256790161 -0.42654171586037
0.94654160737991 -0.42393344640732
0.94762343168259 -0.42117866873741
0.94864761829376 -0.41856184601784
0.94962298870087 -0.41615706682205
0.95058786869049 -0.41368499398232
0.95148837566376 -0.4102049767971
0.95218116044998 -0.40617713332176
0.95278137922287 -0.40232071280479
0.95332276821136 -0.39838472008705
0.95381319522858 -0.39453929662704
0.95424592494965 -0.39074105024338
0.95463860034943 -0.38707509636879
0.9549772143364 -0.38343048095703
0.95522892475128 -0.37988764047623
0.95545768737793 -0.37628731131554
0.95561563968658 -0.37271216511726
