0 -1
1 -1
2 -1
3 -1
4 -1
5 -1
6 1174395
7 843870
8 783771
9 844350
10 796870
11 1171975
12 1484875
13 1249975
14 1412375
15 1485875
16 1467303
17 1484375
18 1233825
19 1249875
20 1487379
21 1205749
22 1330875
23 1485504
24 906176
25 846250
26 1094350
27 843850
28 1262920
29 1484475
30 1175020
31 1218871
32 1190114
33 1174375
34 1234396
35 1174875
36 1250059
37 1362622
38 1484975
39 1519392
40 1519392
41 1171975
42 1506893
43 -1
44 1171995
45 1557643
46 1209379
47 1209379
48 1555903
49 1555903
50 774654
51 781026
52 403127
53 768753
54 393754
55 768879
56 545425
57 546050
58 714379
59 534330
60 707500
61 771250
62 496860
63 418735
64 1549875
65 1187365
66 1543745
67 1562225
68 1174531
69 1124895
70 938744
71 781350
72 -1
73 796854
74 1421873
75 1484375
76 1253101
77 1337499
78 1334343
79 1486687
80 1487499
81 1256063
82 1487397
83 1533397
84 1487343
85 1545710
86 1184375
87 1171995
88 1409374
89 1172395
90 1297475
91 1171975
92 1171975
93 1172375
94 1252750
95 1252750
96 1186875
97 1234379
98 1484395
99 1240627
100 1171975
101 1234379
102 1234379
103 -1
104 1390627
105 1174975
106 1265645
107 1265645
108 1173745
109 1172747
110 1273445
111 1280645
112 1484375
113 1171996
114 1452502
115 1171996
116 1171996
117 1346754
118 1250022
119 1219272
120 1190649
121 1187524
122 1234879
123 1346899
124 1209479
125 1506878
126 1215746
127 1555275
128 1559399
129 1562305
130 1562305
131 -1
132 1562430
133 1171879
134 1186875
135 1234375
136 1230621
137 1183623
138 1342125
139 1177199
140 1494500
141 1486700
142 1421804
143 1234344
144 1174375
145 1187468
146 1179877
147 1174875
148 1184374
149 1173045
150 1181224
151 1407874
152 1486874
153 1253099
154 1268724
155 1484375
156 1328749
157 1174879
