0 -1.5707963
0 -3.1415923
0 -3.1415923
0 -3.1415925
0 -3.1415927
0 3.1415925
0 3.1415925
0 1.5707964
0 1.5707976
1 -1.5707963
1 -3.1415923
1 -3.1415923
1 -3.1415925
1 -3.1415927
1 3.1415925
1 3.1415925
1 1.5707964
1 1.5707976
2 -1.5707963
2 -3.1415923
2 -3.1415923
2 -3.1415925
2 -3.1415927
2 3.1415925
2 3.1415925
2 1.5707964
2 1.5707976
3 -1.5707963
3 -3.1415923
3 -3.1415923
3 -3.1415925
3 -3.1415927
3 3.1415925
3 3.1415925
3 1.5707964
3 1.5707976
4 -1.5707963
4 -3.1415923
4 -3.1415923
4 -3.1415925
4 -3.1415927
4 3.1415925
4 3.1415925
4 1.5707964
4 1.5707976
5 -1.5707963
5 -3.1415923
5 -3.1415923
5 -3.1415925
5 -3.1415927
5 3.1415925
5 3.1415925
5 1.5707964
5 1.5707976
6 -1.5707963
6 -3.1415923
6 -3.1415923
6 -3.1415925
6 -3.1415927
6 3.1415925
6 3.1415925
6 1.5707964
6 1.5707976
7 -1.5707963
7 -3.1415923
7 -3.1415923
7 -3.1415925
7 -3.1415927
7 3.1415925
7 3.1415925
7 1.5707964
7 1.5707976
8 -1.5707963
8 -3.1415923
8 -3.1415923
8 -3.1415925
8 -3.1415927
8 3.1415925
8 3.1415925
8 1.5707964
8 1.5707976
9 -1.5707963
9 -3.1415923
9 -3.1415923
9 -3.1415925
9 -3.1415927
9 3.1415925
9 3.1415925
9 1.5707964
9 1.5707976
10 -1.5707963
10 -3.1415923
10 -3.1415923
10 -3.1415925
10 -3.1415927
10 3.1415925
10 3.1415925
10 1.5707964
10 1.5707976
11 0.010348148
11 3.1414566
11 3.1414921
11 3.1415043
11 3.1415043
11 3.1414921
11 3.1414578
11 3.131294
11 1.5756432
12 -0.01326212
12 -3.1413162
12 -3.1413894
12 -3.141415
12 -3.1414163
12 -3.1413937
12 -3.141327
12 -3.1283138
12 1.5867063
13 -0.009242784
13 -3.1411607
13 -3.1412787
13 -3.1413205
13 -3.1413236
13 -3.141291
13 -3.1411936
13 -3.132348
13 1.6036191
14 -0.009767645
14 -3.1407528
14 -3.1409912
14 -3.1410756
14 -3.1410859
14 -3.141029
14 -3.140857
14 -3.1318202
14 1.6261154
15 -0.010151055
15 -3.1401765
15 -3.1405988
15 -3.1407487
15 -3.1407735
15 -3.1406915
15 -3.1404355
15 -3.1314406
15 1.6548795
16 -0.009617414
16 -3.1395524
16 -3.1401987
16 -3.1404276
16 -3.1404762
16 -3.1403806
16 -3.1400654
16 -3.1319733
16 1.6908056
17 -0.00943542
17 -3.1386418
17 -3.1396484
17 -3.1399996
17 -3.14009
17 -3.1399875
17 -3.1396134
17 -3.1321561
17 1.7346284
18 -0.008061051
18 -3.1379473
18 -3.1393042
18 -3.1397643
18 -3.1399007
18 -3.139819
18 -3.139458
18 -3.1335309
18 1.7866548
19 -0.0058346223
19 -3.1377778
19 -3.1393528
19 -3.1398594
19 -3.140025
19 -3.1399846
19 -3.1397085
19 -3.135758
19 1.8477058
20 -0.002510131
20 -3.1392734
20 -3.1403458
20 -3.1406634
20 -3.1407733
20 -3.1407716
20 -3.1406562
20 -3.139082
20 1.9130849
21 -0.00166848
21 -3.139457
21 -3.1405587
21 -3.1408515
21 -3.1409552
21 -3.1409676
21 -3.1408968
21 -3.1399236
21 1.9739873
22 6.15267E-4
22 3.1403298
22 3.1410484
22 3.141217
22 3.1412764
22 3.141288
22 3.1412604
22 3.1409779
22 2.0261915
23 0.0016246957
23 3.1375053
23 3.1400402
23 3.1405573
23 3.1407385
23 3.1407828
23 3.140723
23 3.1399684
23 2.0695584
24 0.0013151057
24 3.1372063
24 3.140151
24 3.140663
24 3.1408393
24 3.1408882
24 3.1408465
24 3.140278
24 2.1076918
25 0.0015867469
25 3.1343787
25 3.1396341
25 3.1403742
25 3.1406236
25 3.1406987
25 3.1406586
25 3.1400063
25 2.1448772
26 0.0017474942
26 3.1298504
26 3.1391556
26 3.1401348
26 3.1404548
26 3.140557
26 3.1405244
26 3.1398454
26 2.1809676
27 9.5121824E-4
27 3.1301162
27 3.1400533
27 3.1407104
27 3.1409173
27 3.1409862
27 3.140975
27 3.1406417
27 2.2164707
28 -8.4412424E-4
28 -3.1126294
28 -3.1401892
28 -3.1408262
28 -3.141018
28 -3.1410837
28 -3.1410806
28 -3.1407483
28 2.2515683
29 -8.4412424E-4
29 -3.1126294
29 -3.1401892
29 -3.1408262
29 -3.141018
29 -3.1410837
29 -3.1410806
29 -3.1407483
29 2.2515683
30 -0.0059598475
30 -0.09028682
30 -3.1282601
30 -3.1350138
30 -3.1368458
30 -3.1374931
30 -3.1375568
30 -3.1356325
30 2.3131478
31 -0.0059598475
31 -0.09028682
31 -3.1282601
31 -3.1350138
31 -3.1368458
31 -3.1374931
31 -3.1375568
31 -3.1356325
31 2.3131478
32 -0.00725403
32 -0.07710646
32 -3.123833
32 -3.1331723
32 -3.1356008
32 -3.1364617
32 -3.1365774
32 -3.1343384
32 2.3334997
33 -0.008293908
33 -0.07056708
33 -3.1195598
33 -3.131536
33 -3.1345255
33 -3.1355865
33 -3.1357586
33 -3.1332984
33 2.3512108
34 -0.008293908
34 -0.07056708
34 -3.1195598
34 -3.131536
34 -3.1345255
34 -3.1355865
34 -3.1357586
34 -3.1332984
34 2.3512108
35 -0.00945278
35 -0.06949389
35 -3.1146786
35 -3.1297138
35 -3.1333325
35 -3.1346164
35 -3.134851
35 -3.1321397
35 2.3656442
36 -0.00945278
36 -0.06949389
36 -3.1146786
36 -3.1297138
36 -3.1333325
36 -3.1346164
36 -3.134851
36 -3.1321397
36 2.3656442
37 -0.0076012444
37 -0.04944249
37 -3.1183925
37 -3.1317117
37 -3.134795
37 -3.1358871
37 -3.1361067
37 -3.1339912
37 2.3798008
38 -0.0076012444
38 -0.04944249
38 -3.1183925
38 -3.1317117
38 -3.134795
38 -3.1358871
38 -3.1361067
38 -3.1339912
38 2.3798008
39 -0.007498798
39 -0.043849327
39 -3.1169508
39 -3.1314964
39 -3.1347232
39 -3.1358633
39 -3.1361117
39 -3.1340938
39 2.3940172
40 -0.007498798
40 -0.043849327
40 -3.1169508
40 -3.1314964
40 -3.1347232
40 -3.1358633
40 -3.1361117
40 -3.1340938
40 2.3940172
41 -0.0052178013
41 -0.027532311
41 -3.1229725
41 -3.1343057
41 -3.1366959
41 -3.1375372
41 -3.1377344
41 -3.1363745
41 2.4094145
42 -0.0052178013
42 -0.027532311
42 -3.1229725
42 -3.1343057
42 -3.1366959
42 -3.1375372
42 -3.1377344
42 -3.1363745
42 2.4094145
43 -0.001078029
43 -0.005071062
43 -3.1374767
43 -3.140063
43 -3.1405785
43 -3.1407588
43 -3.1408038
43 -3.1405144
43 2.4251297
44 -0.001078029
44 -0.005071062
44 -3.1374767
44 -3.140063
44 -3.1405785
44 -3.1407588
44 -3.1408038
44 -3.1405144
44 2.4251297
45 8.946093E-4
45 0.0041499524
45 3.137596
45 3.1401865
45 3.140672
45 3.1408408
45 3.1408854
45 3.1406982
45 2.44014
46 8.946093E-4
46 0.0041499524
46 3.137596
46 3.1401865
46 3.140672
46 3.1408408
46 3.1408854
46 3.1406982
46 2.44014
47 9.6260285E-4
47 0.0041721566
47 3.1368988
47 3.1400301
47 3.1405823
47 3.140773
47 3.1408253
47 3.1406302
47 2.4538364
48 9.6260285E-4
48 0.0041721566
48 3.1368988
48 3.1400301
48 3.1405823
48 3.140773
48 3.1408253
48 3.1406302
48 2.4538364
49 0.0020848776
49 0.008506718
49 3.1308718
49 3.1381779
49 3.1394048
49 3.1398263
49 3.1399453
49 3.139508
49 2.4637654
