0 [1.0, 1.0, 1.0, 1.0, 1.0, 1.0, 1.0, 1.0]
1 [1.0, 1.0, 1.0, 1.0, 1.0, 1.0, 1.0, 1.0]
2 [1.0, 1.0, 1.0, 1.0, 1.0, 1.0, 1.0, 1.0]
3 [1.0, 1.0, 1.0, 1.0, 1.0, 1.0, 1.0, 1.0]
4 [1.0, 1.0, 1.0, 1.0, 1.0, 1.0, 1.0, 1.0]
5 [1.0, 1.0, 1.0, 1.0, 1.0, 1.0, 1.0, 1.0]
6 [1.0, 1.0, 1.0, 1.0, 1.0, 1.0, 1.0, 1.0]
7 [1.0, 1.0, 1.0, 1.0, 1.0, 1.0, 1.0, 1.0]
8 [1.0, 1.0, 1.0, 1.0, 1.0, 1.0, 1.0, 1.0]
9 [1.0, 1.0, 1.0, 1.0, 1.0, 1.0, 1.0, 1.0]
10 [1.0, 1.0, 1.0, 1.0, 1.0, 1.0002337, 1.0942376, 1.6963267]
11 [1.0, 1.0, 1.0, 1.0, 1.0, 1.0001968, 1.079421, 1.586847]
12 [1.0942376, 1.6963267, 1.0942376, 1.0002337, 1.0, 1.0001498, 1.0604635, 1.4467688]
13 [1.079421, 1.586847, 1.079421, 1.0001968, 1.0, 1.0001134, 1.0457274, 1.3378824]
14 [1.0604635, 1.4467688, 1.0604635, 1.0001498, 1.0, 1.0000856, 1.0345273, 1.2551242]
15 [1.0457274, 1.3378824, 1.0457274, 1.0001134, 1.0, 1.0000647, 1.0260953, 1.1928196]
16 [1.0345273, 1.2551242, 1.0345273, 1.0000856, 1.0, 1.0000489, 1.0197027, 1.1455843]
17 [1.0260953, 1.1928196, 1.0260953, 1.0000647, 1.0, 0.99976957, 0.90704715, 0.31316614]
18 [1.0197027, 1.1455843, 1.0197027, 1.0000489, 1.0, 0.9997966, 0.9179522, 0.39374417]
19 [0.90704715, 0.31316614, 0.90704715, 0.99976957, 1.0, 0.9998445, 0.93727505, 0.5365219]
20 [0.9178794, 0.39320636, 0.9178794, 0.99979645, 1.0, 1.000116, 1.0467752, 1.3456244]
21 [1.0315126, 1.2328486, 1.0315126, 1.0000781, 1.0, 1.000108, 1.0435925, 1.3221068]
22 [1.0319712, 1.2362367, 1.0319712, 1.0000793, 1.0, 1.0000829, 1.0334448, 1.2471254]
23 [1.0246348, 1.1820287, 1.0246348, 1.000061, 1.0, 1.0000627, 1.025282, 1.1868106]
24 [1.0186485, 1.1377949, 1.0186485, 1.0000463, 1.0, 1.0000473, 1.0191096, 1.141202]
25 [1.014096, 1.1041565, 1.014096, 1.0000349, 1.0, 1.0000358, 1.0144428, 1.1067189]
26 [1.010643, 1.078642, 1.010643, 1.0000263, 1.0, 1.0000271, 1.0109048, 1.0805758]
27 [1.0080439, 1.0594363, 1.0080439, 1.0000199, 1.0, 0.99975324, 0.90044445, 0.26437843]
28 [0.8982295, 0.24801207, 0.8982295, 0.9997477, 1.0, 0.999784, 0.9128477, 0.35602695]
29 [0.9112152, 0.34396392, 0.9112152, 0.99977994, 1.0, 0.99983495, 0.93341, 0.5079628]
30 [0.93224335, 0.49934253, 0.93224335, 0.99983203, 1.0, 0.99987525, 0.9496759, 0.6281526]
31 [0.95255005, 0.64938974, 0.95255005, 0.9998824, 1.0, 1.0001447, 1.0583606, 1.4312297]
32 [0.9613, 0.71404386, 0.9613, 0.9999041, 1.0, 1.0001297, 1.0523422, 1.3867595]
33 [0.9729211, 0.7999125, 0.9729211, 0.9999329, 1.0, 1.00015, 1.0605237, 1.4472129]
34 [0.9795342, 0.84877706, 0.9795342, 0.9999493, 1.0, 1.0000751, 1.0303054, 1.2239285]
35 [0.98454773, 0.8858224, 0.98454773, 0.9999617, 1.0, 1.0000567, 1.0228833, 1.169086]
36 [0.9883331, 0.91379267, 0.9883331, 0.9999711, 1.0, 1.0000428, 1.0172776, 1.1276655]
37 [0.9911823, 0.9348459, 0.9911823, 0.9999781, 1.0, 1.0000324, 1.0130582, 1.0964875]
38 [0.9933424, 0.9508068, 0.9933424, 0.9999835, 1.0, 0.9997571, 0.90201545, 0.27598673]
39 [0.9949683, 0.9628206, 0.9949683, 0.99998754, 1.0, 0.99978703, 0.9140765, 0.36510676]
40 [0.9961971, 0.9719004, 0.9961971, 0.9999906, 1.0, 0.9998372, 0.93433875, 0.5148252]
41 [1.0, 1.0, 1.0, 1.0, 1.0, 0.9998824, 0.95255005, 0.64938974]
42 [1.0, 1.0, 1.0, 1.0, 1.0, 1.0, 1.0, 1.0]
43 [1.0, 1.0, 1.0, 1.0, 1.0, 0.9999328, 0.972894, 0.7997123]
44 [1.0, 1.0, 1.0, 1.0, 1.0, 0.9999492, 0.9795137, 0.8486258]
45 [1.0, 1.0, 1.0, 1.0, 1.0, 0.9999617, 0.9845323, 0.88570815]
46 [1.0, 1.0, 1.0, 1.0, 1.0, 0.99997103, 0.98830974, 0.91362005]
47 [1.0, 1.0, 1.0, 1.0, 1.0, 0.9999781, 0.9911735, 0.9347807]
48 [1.0, 1.0, 1.0, 1.0, 1.0, 0.9999835, 0.9933358, 0.95075756]
49 [1.0, 1.0, 1.0, 1.0, 1.0, 0.99998754, 0.9949633, 0.9627834]
