-1.7686387E-15 4.5614E-41
0.024999999 -0.6249999
0.02518847 -0.6251443
0.024888381 -0.62499154
0.025373036 -0.62485373
0.025373036 -0.62485373
0.02609178 -0.62500787
0.026528303 -0.62493443
0.026689306 -0.62476367
0.026689306 -0.62476367
0.026728544 -0.6247682
0.02673311 -0.6242885
0.02673311 -0.6242885
0.026699817 -0.62166363
0.026336804 -0.61757743
0.025960866 -0.61527526
0.025960866 -0.61527526
0.02605485 -0.614254
0.026054746 -0.61317474
0.026054746 -0.61317474
0.025999984 -0.61273587
0.026010294 -0.61280143
0.026010294 -0.61280143
0.026014203 -0.6128296
0.02601412 -0.6128565
0.02601412 -0.6128565
0.02601328 -0.61286485
0.026017427 -0.6128797
0.02601721 -0.61288995
0.026231369 -0.61113626
0.026231369 -0.61113626
0.026468804 -0.61024946
0.02659452 -0.6102029
0.026654681 -0.610221
0.026654681 -0.610221
0.026665833 -0.6102301
0.026670087 -0.6102432
0.026669463 -0.6102572
0.026669463 -0.6102572
0.026669001 -0.610277
0.026672024 -0.610288
0.026672607 -0.61029977
0.026674297 -0.6103102
0.026520822 -0.60880363
0.025473896 -0.59789515
0.024622763 -0.58931506
0.022374403 -0.5668203
0.021035599 -0.5534587
0.01962537 -0.5425185
0.017313313 -0.5324806
0.016249347 -0.5288919
0.014318695 -0.5198029
0.013822218 -0.51474136
0.013516238 -0.50734746
0.013502022 -0.5051662
0.013451226 -0.5038485
0.013452848 -0.50387233
0.014659395 -0.49851912
0.01637875 -0.4921194
0.01903392 -0.4827755
0.027798593 -0.45534378
0.031710364 -0.44279784
0.04028662 -0.41894498
0.045597024 -0.40445748
0.054258984 -0.37851503
0.05974433 -0.36174124
0.07172638 -0.32375154
0.0776868 -0.30480796
0.08915344 -0.2681203
0.093733326 -0.252966
0.09707046 -0.24179971
0.100746945 -0.22903076
0.10095309 -0.22765246
0.10351131 -0.2191339
0.10531046 -0.21339443
0.10586469 -0.21103823
0.10582539 -0.21105361
0.105812356 -0.21105747
0.10580289 -0.21105936
0.10579997 -0.21107554
0.1057937 -0.21108122
0.10578884 -0.21109426
0.10578068 -0.21111174
0.1057779 -0.21111372
0.105764054 -0.21112406
0.105756976 -0.21113129
0.10642103 -0.20933509
0.10838487 -0.20413046
0.11617211 -0.18326375
0.12075766 -0.17153081
0.12376449 -0.16360077
0.12587729 -0.15821365
0.12592289 -0.15830019
0.12593432 -0.158341
0.12592275 -0.15833813
0.12591133 -0.15835753
0.1266223 -0.15658486
0.12844774 -0.15165585
0.12844762 -0.15155092
0.12842986 -0.15155615
0.12841287 -0.15156397
0.12907921 -0.14972144
0.13319768 -0.13944206
0.1337029 -0.13813615
0.13522215 -0.13458589
0.13793424 -0.12810218
0.14650299 -0.10625611
0.15008673 -0.09638451
0.15885529 -0.07236639
0.16489725 -0.055058986
0.17156556 -0.036744222
0.18233809 -0.0069648237
0.18578497 0.002709917
0.19022384 0.015087619
0.19380108 0.02488262
0.20457181 0.055164557
0.21078154 0.072894044
0.22018752 0.09958934
0.22303505 0.107700266
0.22500801 0.11369945
0.22566387 0.1159114
0.22768572 0.12167428
0.2301697 0.1290641
0.23011525 0.12910092
0.23010412 0.12908491
0.23011175 0.12909093
0.23010679 0.12909392
0.23010227 0.12906699
0.23008843 0.12905014
0.23008876 0.12905437
0.23031947 0.1296286
0.23258014 0.13489944
0.23293647 0.13512912
0.23303795 0.13506068
0.23304579 0.13507232
0.23371172 0.13692205
0.2356422 0.14227775
0.24352574 0.1633888
0.24796264 0.1752837
0.25262302 0.18757924
0.25303328 0.1886405
0.25299743 0.18859313
0.25371894 0.19038749
0.25578013 0.19578786
0.2581475 0.2022183
0.2581307 0.20218217
0.25841224 0.20261681
0.25957948 0.20551577
0.26619357 0.22217035
0.27003634 0.23198684
0.27238432 0.2379059
0.2738705 0.24126327
0.2747028 0.24320415
0.27985767 0.258138
0.28421786 0.27119344
0.2917723 0.29333696
0.29383337 0.29930845
0.29548115 0.3044955
0.29759648 0.31075248
0.30548072 0.33379868
0.3112474 0.35054082
0.317478 0.36929777
0.32711273 0.39786014
0.33133098 0.4111558
0.34222835 0.44435582
0.34637326 0.45714036
0.35116857 0.47221655
0.35194522 0.47445327
0.35194921 0.47450447
0.351932 0.47447258
0.35191107 0.4744472
0.35191122 0.4744452
0.3519064 0.47442794
0.35189095 0.47439128
0.35189125 0.47439653
0.35187832 0.47436434
0.35187143 0.4743454
0.35186523 0.4743359
0.35185972 0.474337
0.35254222 0.47602686
0.35441437 0.48125815
0.3573319 0.49015173
0.3618512 0.50321686
0.3618512 0.50321686
0.36226934 0.5044272
0.3622737 0.5043856
0.3625294 0.5048544
0.3625294 0.5048544
0.36290944 0.50571203
0.36392137 0.50845563
0.36605102 0.51476324
0.36605102 0.51476324
0.36932114 0.5246874
0.37316528 0.53627664
0.37316528 0.53627664
0.3765952 0.5479859
0.38020784 0.559603
0.38306296 0.5693214
0.38306296 0.5693214
0.38480487 0.5753894
0.38544077 0.5780273
0.38544077 0.5780273
0.38538188 0.5786345
0.38531086 0.57861334
0.3853046 0.5786072
0.3853026 0.57861745
0.38528794 0.57861894
0.3852859 0.5786205
0.3852778 0.5786103
0.38526854 0.5786103
0.3852624 0.5785997
0.38589746 0.5805008
0.38786438 0.58594036
0.39233547 0.5987977
0.3929186 0.60108435
0.3928574 0.60153747
0.39284968 0.60156137
0.39584094 0.6086448
0.39862722 0.615632
0.40112567 0.62280524
0.4010407 0.6231644
0.40096754 0.6231532
0.4019044 0.62487406
0.4042259 0.62987506
0.4089896 0.641458
0.4089896 0.641458
0.4092931 0.6432283
0.40926474 0.6432072
0.40925947 0.6431821
0.40925226 0.6431601
0.41008323 0.6448144
0.4123935 0.64968437
0.41529197 0.65611404
0.41774577 0.6622046
0.41768193 0.6623108
0.41758657 0.66228193
0.41757375 0.66227376
0.41754895 0.6622499
0.41754693 0.66222775
0.41752982 0.66219187
0.4175188 0.662166
0.41750494 0.6621306
0.41749415 0.66210794
0.41771707 0.66257703
0.4202365 0.66708434
0.42042375 0.667181
0.42048454 0.6671474
0.42048723 0.6671387
0.4204836 0.66710836
0.42047185 0.6671018
0.42043728 0.6670784
0.42043385 0.66707003
0.42042708 0.66705865
0.42039427 0.6670383
0.42037576 0.6670371
0.42035812 0.6670017
0.42034525 0.66697854
0.42032513 0.6669483
0.4203115 0.6669265
0.42027742 0.6668916
0.42027068 0.6668807
0.42026025 0.66684115
0.42025313 0.66682714
0.4202403 0.6668051
0.4202196 0.66676915
0.42020655 0.66675174
0.42018563 0.6667176
0.42017284 0.66669834
0.42015046 0.666663
0.42012817 0.6666395
0.42011064 0.6666124
0.42008996 0.6665879
0.42006287 0.66655546
0.42027816 0.6671036
0.4216884 0.66976106
0.42981035 0.6846342
0.43443745 0.69341004
0.4380527 0.7002314
0.43825334 0.70045906
0.4383076 0.7004858
0.43832088 0.70049345
0.4383216 0.7004933
0.4383196 0.7004851
0.43832746 0.7004874
0.43831438 0.70047337
0.43831977 0.70047736
0.44023576 0.7035917
0.44352442 0.7097631
0.45322007 0.72868514
0.45617002 0.73452914
0.45799246 0.73785645
0.45803672 0.7378522
0.45807093 0.73788464
0.45808262 0.73788583
0.45809302 0.7378731
0.45811868 0.73787975
0.4581265 0.7378816
0.4581574 0.7379116
0.4591784 0.7397933
0.4599618 0.74158823
0.4599598 0.7415856
0.46091437 0.7434455
0.4634531 0.7489203
0.46584058 0.7542441
0.46673307 0.75625056
0.46673664 0.7562456
0.4667417 0.7562583
0.46674737 0.7562536
0.46675196 0.75624794
0.46677342 0.75628173
0.4667793 0.75627077
0.46676865 0.75624114
0.4667964 0.75625896
0.46679696 0.7562681
0.46679974 0.75626326
0.46769658 0.75811076
0.47026366 0.76353455
0.47556692 0.77598804
0.47617698 0.7781275
0.47604164 0.77832854
0.4760241 0.7783305
0.47601968 0.7783245
0.4760108 0.7783133
0.47601646 0.77831334
0.4763566 0.7786736
0.47763085 0.78121334
0.4790001 0.78361547
0.47900015 0.7835611
0.47900447 0.78354317
0.47899157 0.7835305
0.48250085 0.79035556
0.48643574 0.7988015
0.49814272 0.82419556
0.5031005 0.8357188
0.5081315 0.847768
0.50856197 0.84941006
0.50856125 0.849847
0.511918 0.85668564
0.5142797 0.861533
0.5161066 0.86516654
0.51902694 0.87087166
0.53046906 0.8925005
0.5389241 0.90828544
0.5563308 0.94033206
0.56291157 0.952397
0.56773716 0.96121323
0.57186806 0.9689821
0.5718253 0.96903515
0.5717775 0.96901894
0.5719303 0.96952
0.574636 0.97413695
0.57473975 0.974178
0.5748302 0.9740704
0.57509464 0.97449434
0.5798428 0.9828121
0.584801 0.99188596
0.5894339 1.0005094
0.5931358 1.0070996
0.5932182 1.0072231
0.59324515 1.0071951
0.5932462 1.0072024
0.5932358 1.0071883
0.59323424 1.0071918
0.5932369 1.0071826
0.5932329 1.0071721
0.59359366 1.0075697
0.5975269 1.0143448
0.59859 1.0167415
0.6028108 1.0257297
0.607351 1.0356061
0.61999625 1.0643651
0.625764 1.0778139
0.63254106 1.0946839
0.63470393 1.0998455
0.6406404 1.1127096
0.6417214 1.1150695
0.6418166 1.1152573
0.6418237 1.1151482
0.6418154 1.1151371
0.643521 1.1182964
0.64481115 1.1205328
0.6450119 1.1206123
0.64502084 1.1206137
0.64499635 1.1205878
0.6452428 1.1210127
0.64794976 1.1256845
0.64817655 1.1258543
0.6482066 1.1258266
0.6481879 1.1258085
0.6481605 1.1257796
0.6481339 1.1257517
0.6481154 1.1257246
0.6480896 1.1256893
0.64808017 1.125683
0.6483768 1.1262149
0.649857 1.128983
0.65109 1.1312579
0.6512904 1.1315172
0.6512678 1.1314939
0.65125644 1.1314882
0.65215427 1.1331824
0.65841913 1.1467974
0.6619936 1.154908
0.6659993 1.1643245
0.6697421 1.1729534
0.67538726 1.1857706
0.67613304 1.1874062
0.6761085 1.1873934
0.6761138 1.1874017
0.67613125 1.1874031
0.67614704 1.1874019
0.6761545 1.1874193
0.676168 1.1874318
0.6761758 1.1874316
0.6778916 1.1907421
0.6808399 1.1971726
0.68552405 1.2072126
0.69300795 1.2235048
0.6946393 1.2267365
0.6952112 1.2273121
0.69525754 1.2272875
0.69550914 1.2278664
0.6969009 1.2308998
0.70023954 1.238188
0.7002475 1.2383946
0.70060265 1.2391158
0.7019219 1.242153
0.7031323 1.2447274
0.7042433 1.2467794
0.70620173 1.2519763
0.708666 1.2578592
0.7086303 1.2578146
0.7086178 1.2577822
0.70860964 1.2577919
0.7116016 1.2647383
0.7134457 1.2696918
0.7139121 1.2708087
0.7139145 1.2708073
0.7139145 1.2708073
0.71389663 1.2708044
0.713874 1.2707615
0.71387595 1.2707455
0.7138709 1.2707272
0.7138803 1.2707251
0.7138835 1.2707175
0.71520805 1.273998
0.7151744 1.2739134
0.7158495 1.2756085
0.7210999 1.289481
0.7255381 1.3017204
0.7327568 1.3210396
0.735224 1.32772
0.7429987 1.3466299
0.74623656 1.3552297
0.7489011 1.3621687
0.74886525 1.3620965
0.74885005 1.3620914
0.74886584 1.3621427
0.74885726 1.3621328
0.74885356 1.3621368
0.74884427 1.3621285
0.75044173 1.3652022
0.7515959 1.3676697
0.7517712 1.3678504
0.75179076 1.3678477
0.75182986 1.36784
0.75185287 1.3678408
0.75186884 1.3678361
0.7518841 1.3678076
0.75188124 1.3678138
0.7518724 1.3678275
0.7518722 1.367832
0.754867 1.3752215
0.75839704 1.3844265
0.76744235 1.4100072
0.7705769 1.4192808
0.77316624 1.4273387
0.7730702 1.4273689
0.7730178 1.4273283
0.77377766 1.4290899
0.77575165 1.4342887
0.77985567 1.4462001
0.78153306 1.4514667
0.7882284 1.4706885
0.7909645 1.4792012
0.79639745 1.4946268
0.8004635 1.5047557
0.80525035 1.5182168
0.8057481 1.5206293
0.80602074 1.522223
0.8085365 1.5282538
0.80873024 1.5289528
0.8086901 1.5289048
0.80868405 1.5289023
0.808669 1.5289004
0.8086566 1.5288962
0.80864733 1.528899
0.8086416 1.5289147
0.8086295 1.5289319
0.8086209 1.5289648
0.8086069 1.5289646
0.80859774 1.5289559
0.80859345 1.5289552
0.808566 1.5289757
0.8085537 1.5289882
0.80946875 1.530761
0.8120389 1.5357416
0.8226352 1.5554457
0.8289658 1.5668311
0.8289658 1.5668311
