0 [1.0, 1.0, 1.0, 1.0, 1.0, 1.0, 1.0, 1.0]
1 [1.0, 1.0, 1.0, 1.0, 1.0, 1.0, 1.0, 1.0]
2 [1.0, 1.0, 1.0, 1.0, 1.0, 1.0, 1.0, 1.0]
3 [1.0, 1.0, 1.0, 1.0, 1.0, 1.0, 1.0, 1.0]
4 [1.0, 1.0, 1.0, 1.0, 1.0, 1.0, 1.0, 1.0]
5 [1.0, 1.0, 1.0, 1.0, 1.0, 1.0, 1.0, 1.0]
6 [1.0, 1.0, 1.0, 1.0, 1.0, 1.0, 1.0, 1.0]
7 [1.0, 1.0, 1.0, 1.0, 1.0, 1.0, 1.0, 1.0]
8 [1.0, 1.0, 1.0, 1.0, 1.0, 1.0, 1.0, 1.0]
9 [1.0, 1.0, 1.0, 1.0, 1.0, 1.0, 1.0, 1.0]
10 [1.0, 1.0, 1.0, 1.0, 1.0, 1.0, 1.0, 1.0]
11 [1.0, 1.0002337, 1.0942376, 1.6963267, 1.0942376, 1.0002337, 1.0, 1.0]
12 [1.0, 1.0001968, 1.079421, 1.586847, 1.079421, 1.0001968, 1.0, 1.0]
13 [1.0, 1.0001498, 1.0604635, 1.4467688, 1.0604635, 1.0003835, 1.0942376, 1.6963267]
14 [1.0, 1.0001134, 1.0457274, 1.3378824, 1.0457274, 1.0003102, 1.079421, 1.586847]
15 [1.0, 1.0000857, 1.0345619, 1.2553794, 1.0345619, 1.0002357, 1.0605237, 1.4472129]
16 [1.0, 1.0000647, 1.0260953, 1.1928196, 1.0260953, 1.0001781, 1.0457274, 1.3378824]
17 [1.0, 1.0000489, 1.0197225, 1.1457299, 1.0197225, 1.0001346, 1.0345619, 1.2553794]
18 [1.0, 0.99976975, 0.90710866, 0.31362087, 0.90710866, 0.9998345, 1.0261214, 1.1930125]
19 [1.0, 0.99979645, 0.9178794, 0.39320636, 0.9178794, 0.9998453, 1.0197225, 1.1457299]
20 [1.0, 0.9998444, 0.9372129, 0.5360624, 0.9372129, 0.9996141, 0.90710866, 0.31362087]
21 [1.0, 0.9998824, 0.95255005, 0.64938974, 0.95255005, 0.99967885, 0.9178794, 0.39320636]
22 [1.0, 0.9999111, 0.96413547, 0.734995, 0.96413547, 0.9997555, 0.9372129, 0.5360624]
23 [1.0, 0.9999329, 0.9729211, 0.7999125, 0.9729211, 0.9998153, 0.95255005, 0.64938974]
24 [1.0, 1.0001829, 1.0737593, 1.5450118, 1.0737593, 1.0000939, 0.96413547, 0.734995]
25 [1.0, 1.0001587, 1.0640264, 1.4730942, 1.0640264, 1.0000916, 0.972894, 0.7997123]
26 [1.0, 1.0001162, 1.0468959, 1.3465164, 1.0468959, 1.0000676, 0.98035634, 0.85485184]
27 [1.0, 1.0000879, 1.0354278, 1.2617782, 1.0354278, 1.000051, 0.98516846, 0.890409]
28 [1.0, 1.0000664, 1.026777, 1.1978568, 1.026777, 1.0000386, 0.9887906, 0.9171729]
29 [1.0, 1.0000502, 1.0202377, 1.1495374, 1.0202377, 1.0000292, 0.9915281, 0.93740064]
30 [1.0, 1.0000379, 1.01528, 1.112905, 1.01528, 1.000022, 0.99360347, 0.9527357]
31 [1.0, 0.9997595, 0.90297276, 0.28306007, 0.90297276, 0.9997475, 0.9951656, 0.9642784]
32 [1.0, 0.99980366, 0.92079777, 0.4147702, 0.92079777, 0.99980366, 1.0, 1.0]
33 [1.0, 0.9998506, 0.9397164, 0.554561, 0.9397164, 0.9998437, 0.9972413, 0.9796159]
34 [1.0, 1.0, 1.0, 1.0, 1.0, 1.0, 1.0, 1.0]
35 [1.0, 0.9999146, 0.96554166, 0.74538547, 0.96554166, 0.9999146, 1.0, 1.0]
36 [1.0, 0.9999355, 0.9739829, 0.80775803, 0.9739829, 0.9999355, 1.0, 1.0]
37 [1.0, 0.99995124, 0.98033667, 0.8547066, 0.98033667, 0.99995124, 1.0, 1.0]
38 [1.0, 0.99996316, 0.9851388, 0.8901896, 0.9851388, 0.99996316, 1.0, 1.0]
39 [1.0, 0.99997216, 0.98877937, 0.91709006, 0.98877937, 0.99997216, 1.0, 1.0]
40 [1.0, 0.99997896, 0.99151963, 0.937338, 0.99151963, 0.99997896, 1.0, 1.0]
41 [1.0, 0.9999841, 0.99359065, 0.95264107, 0.99359065, 0.9999841, 1.0, 1.0]
42 [1.0, 0.999988, 0.99516076, 0.9642427, 0.99516076, 0.999988, 1.0, 1.0]
43 [1.0, 0.99999094, 0.9963426, 0.9729752, 0.9963426, 0.99999094, 1.0, 1.0]
44 [1.0, 0.99999315, 0.9972386, 0.9795955, 0.9972386, 0.99999315, 1.0, 1.0]
45 [1.0, 1.0, 1.0, 1.0, 1.0, 1.0, 1.0, 1.0]
46 [1.0, 1.0, 1.0, 1.0, 1.0, 1.0, 1.0, 1.0]
47 [1.0, 1.0, 1.0, 1.0, 1.0, 1.0, 1.0, 1.0]
48 [1.0, 1.0, 1.0, 1.0, 1.0, 1.0, 1.0, 1.0]
49 [1.0, 1.0, 1.0, 1.0, 1.0, 1.0, 1.0, 1.0]
