0 [10.0, 10.0, 10.0, 10.0, 10.0, 10.0, 10.0, 10.0, 10.0, 10.0, 10.0, 10.0, 10.0, 10.0, 10.0, 10.0, 10.0, 10.0, 10.0, 10.0, 10.0, 10.0, 10.0, 10.0, 10.0, 10.0, 10.0, 10.0, 10.0, 10.0, 10.0, 10.0, 10.0, 10.0, 10.0, 10.0, 10.0, 10.0, 10.0, 10.0, 10.0, 10.0, 10.0, 10.0, 10.0, 10.0, 10.0, 10.0, 10.0, 10.0, 10.0, 10.0, 10.0, 10.0, 10.0, 10.0, 10.0, 10.0, 10.0, 10.0, 10.0, 10.0, 10.0, 10.0, 10.0, 10.0, 10.0, 10.0, 10.0, 10.0, 10.0, 10.0, 10.0, 10.0, 10.0, 10.0, 10.0, 10.0, 10.0, 10.0, 10.0, 10.0, 10.0, 10.0, 10.0, 10.0, 10.0, 10.0, 10.0, 10.0, 10.0, 10.0, 10.0, 10.0, 10.0, 10.0, 10.0, 10.0, 10.0, 10.0, 10.0, 10.0, 10.0, 10.0, 10.0, 10.0, 10.0, 10.0, 10.0, 10.0, 10.0, 10.0, 10.0, 10.0, 10.0, 10.0, 10.0, 10.0, 10.0, 10.0, 10.0, 10.0, 10.0, 10.0, 10.0, 10.0, 10.0, 10.0, 10.0, 10.0, 10.0, 10.0, 10.0, 10.0, 10.0, 10.0, 10.0, 10.0, 10.0, 10.0, 10.0, 10.0, 10.0, 10.0, 10.0, 10.0, 10.0, 10.0, 10.0, 10.0, 10.0, 10.0, 10.0, 10.0, 10.0, 10.0, 10.0, 10.0, 10.0, 10.0, 10.0, 10.0, 10.0, 10.0, 10.0, 10.0, 10.0, 10.0, 10.0, 10.0, 10.0, 10.0, 10.0, 10.0, 10.0, 10.0, 10.0, 10.0, 10.0, 10.0, 10.0, 10.0]
1 [1.78, 1.81, 1.85, 1.88, 1.91, 1.94, 1.98, 2.01, 2.05, 2.09, 2.12, 2.16, 2.2, 2.2, 2.2, 2.2, 2.2, 2.2, 2.2, 2.2, 1.53, 1.53, 1.53, 1.53, 1.53, 1.53, 1.53, 1.53, 1.53, 1.53, 1.53, 1.56, 1.59, 1.62, 1.66, 1.69, 1.73, 2.2, 2.2, 2.2, 2.2, 2.2, 2.2, 2.2, 2.2, 2.2, 2.2, 2.2, 2.2, 2.2, 2.2, 2.2, 2.2, 2.2, 2.2, 2.2, 2.2, 2.2, 2.2, 2.2, 2.2, 2.2, 2.2, 2.2, 2.2, 2.2, 2.2, 2.2, 2.2, 2.2, 2.2, 2.2, 2.2, 2.2, 2.2, 2.2, 2.2, 2.2, 2.2, 1.11, 1.11, 1.11, 1.11, 1.11, 1.11, 1.11, 1.11, 1.11, 1.11, 1.11, 1.11, 1.11, 1.11, 1.11, 1.11, 1.11, 1.11, 1.11, 1.11, 2.2, 2.2, 2.2, 2.2, 2.2, 2.2, 2.2, 2.2, 2.2, 2.2, 2.2, 2.2, 2.2, 2.2, 2.2, 2.2, 2.2, 2.2, 2.2, 2.2, 2.2, 2.2, 2.2, 2.2, 2.2, 2.2, 2.2, 2.2, 2.2, 2.2, 2.2, 2.2, 2.2, 2.2, 2.2, 2.2, 2.2, 2.2, 2.2, 2.2, 2.2, 2.2, 2.2, 2.2, 2.2, 2.2, 2.2, 2.2, 2.2, 2.2, 2.2, 2.2, 2.2, 2.2, 2.2, 2.2, 2.2, 2.2, 2.2, 2.2, 2.2, 2.2, 2.2, 2.2, 2.2, 2.2, 2.2, 2.2, 2.2, 1.51, 1.48, 1.46, 1.43, 1.4, 1.38, 1.36, 1.33, 1.33, 1.33, 1.33, 1.33, 1.33, 1.33]
2 [1.78, 1.81, 1.85, 1.88, 1.91, 1.95, 1.98, 2.01, 2.05, 2.09, 2.12, 2.16, 2.2, 2.2, 2.2, 2.2, 2.2, 2.2, 2.2, 2.2, 1.53, 1.53, 1.53, 1.53, 1.53, 1.53, 1.53, 1.53, 1.53, 1.53, 1.53, 1.56, 1.59, 1.62, 1.66, 1.69, 2.2, 2.2, 2.2, 2.2, 2.2, 2.2, 2.2, 2.2, 2.2, 2.2, 2.2, 2.2, 2.2, 2.2, 2.2, 2.2, 2.2, 2.2, 2.2, 2.2, 2.2, 2.2, 2.2, 2.2, 2.2, 2.2, 2.2, 2.2, 2.2, 2.2, 2.2, 2.2, 2.2, 2.2, 2.2, 2.2, 2.2, 2.2, 2.2, 2.2, 2.2, 2.2, 2.2, 1.1, 1.1, 1.1, 1.1, 1.1, 1.1, 1.1, 1.1, 1.1, 1.1, 1.1, 1.1, 1.1, 1.1, 1.1, 1.1, 1.1, 1.1, 1.1, 1.1, 2.2, 2.2, 2.2, 2.2, 2.2, 2.2, 2.2, 2.2, 2.2, 2.2, 2.2, 2.2, 2.2, 2.2, 2.2, 2.2, 2.2, 2.2, 2.2, 2.2, 2.2, 2.2, 2.2, 2.2, 2.2, 2.2, 2.2, 2.2, 2.2, 2.2, 2.2, 2.2, 2.2, 2.2, 2.2, 2.2, 2.2, 2.2, 2.2, 2.2, 2.2, 2.2, 2.2, 2.2, 2.2, 2.2, 2.2, 2.2, 2.2, 2.2, 2.2, 2.2, 2.2, 2.2, 2.2, 2.2, 2.2, 2.2, 2.2, 2.2, 2.2, 2.2, 2.2, 2.2, 2.2, 2.2, 2.2, 2.2, 2.2, 1.51, 1.48, 1.46, 1.43, 1.4, 1.38, 1.36, 1.33, 1.33, 1.33, 1.33, 1.33, 1.33, 1.33]
3 [1.79, 1.82, 1.86, 1.89, 1.92, 1.96, 1.99, 2.03, 2.06, 2.1, 2.14, 2.17, 2.17, 2.17, 2.17, 2.17, 2.17, 2.17, 1.5, 1.5, 1.5, 1.5, 1.5, 1.5, 1.5, 1.5, 1.5, 1.5, 1.5, 1.51, 1.54, 1.57, 1.61, 1.64, 1.68, 2.17, 2.17, 2.17, 2.17, 2.17, 2.17, 2.17, 2.17, 2.17, 2.17, 2.17, 2.17, 2.17, 2.17, 2.17, 2.17, 2.17, 2.17, 2.17, 2.17, 2.17, 2.17, 2.17, 2.17, 2.17, 2.17, 2.17, 2.17, 2.17, 2.17, 2.17, 2.17, 2.17, 2.17, 2.17, 2.17, 2.17, 2.17, 2.17, 2.17, 2.17, 2.17, 2.17, 1.08, 1.08, 1.08, 1.08, 1.08, 1.08, 1.08, 1.08, 1.08, 1.08, 1.08, 1.08, 1.08, 1.08, 1.08, 1.08, 1.08, 1.08, 1.08, 1.08, 1.08, 2.18, 2.18, 2.18, 2.18, 2.18, 2.18, 2.18, 2.18, 2.18, 2.18, 2.18, 2.18, 2.18, 2.18, 2.18, 2.18, 2.18, 2.18, 2.18, 2.18, 2.18, 2.18, 2.18, 2.18, 2.18, 2.18, 2.18, 2.18, 2.18, 2.18, 2.18, 2.18, 2.18, 2.18, 2.18, 2.18, 2.18, 2.18, 2.18, 2.18, 2.18, 2.18, 2.18, 2.18, 2.18, 2.18, 2.18, 2.18, 2.18, 2.18, 2.18, 2.18, 2.18, 2.18, 2.18, 2.18, 2.18, 2.18, 2.18, 2.18, 2.18, 2.18, 2.18, 2.18, 2.18, 2.18, 2.18, 2.18, 2.18, 1.5, 1.47, 1.45, 1.42, 1.4, 1.37, 1.35, 1.32, 1.31, 1.31, 1.31, 1.31, 1.31, 1.31]
4 [1.82, 1.85, 1.88, 1.91, 1.95, 1.98, 2.02, 2.06, 2.09, 2.11, 2.11, 2.11, 2.11, 2.11, 2.11, 2.11, 1.45, 1.45, 1.45, 1.45, 1.45, 1.45, 1.45, 1.45, 1.45, 1.45, 1.46, 1.48, 1.51, 1.55, 1.58, 1.61, 1.65, 2.12, 2.12, 2.12, 2.12, 2.12, 2.12, 2.12, 2.12, 2.12, 2.12, 2.12, 2.12, 2.12, 2.13, 2.13, 2.13, 2.13, 2.13, 2.13, 2.13, 2.13, 2.13, 2.13, 2.13, 2.13, 2.13, 2.13, 2.13, 2.13, 2.13, 2.13, 2.13, 2.13, 2.13, 2.13, 2.13, 2.13, 2.13, 2.13, 2.13, 2.13, 2.13, 2.14, 1.04, 1.04, 1.04, 1.04, 1.04, 1.04, 1.04, 1.04, 1.04, 1.04, 1.04, 1.04, 1.04, 1.04, 1.04, 1.04, 1.05, 1.05, 1.05, 1.05, 1.05, 1.05, 2.14, 2.14, 2.14, 2.14, 2.14, 2.14, 2.14, 2.15, 2.15, 2.15, 2.15, 2.15, 2.15, 2.15, 2.15, 2.15, 2.15, 2.15, 2.15, 2.15, 2.15, 2.15, 2.15, 2.15, 2.15, 2.15, 2.15, 2.15, 2.15, 2.15, 2.15, 2.15, 2.15, 2.15, 2.15, 2.15, 2.16, 2.16, 2.16, 2.16, 2.16, 2.16, 2.16, 2.16, 2.16, 2.16, 2.16, 2.16, 2.16, 2.16, 2.16, 2.16, 2.16, 2.16, 2.16, 2.16, 2.16, 2.16, 2.16, 2.16, 2.17, 2.17, 2.17, 2.17, 2.17, 2.17, 2.17, 2.17, 2.17, 2.17, 1.47, 1.45, 1.42, 1.4, 1.38, 1.35, 1.33, 1.31, 1.29, 1.29, 1.29, 1.29, 1.29, 1.29]
5 [1.84, 1.87, 1.91, 1.94, 1.98, 2.01, 2.05, 2.07, 2.07, 2.07, 2.07, 2.07, 2.07, 1.42, 1.42, 1.42, 1.42, 1.42, 1.42, 1.42, 1.42, 1.42, 1.42, 1.42, 1.43, 1.46, 1.49, 1.52, 1.55, 1.58, 1.62, 2.09, 2.09, 2.09, 2.09, 2.09, 2.09, 2.09, 2.09, 2.09, 2.09, 2.09, 2.09, 2.09, 2.09, 2.09, 2.1, 2.1, 2.1, 2.1, 2.1, 2.1, 2.1, 2.1, 2.1, 2.1, 2.1, 2.1, 2.1, 2.1, 2.1, 2.1, 2.11, 2.11, 2.11, 2.11, 2.11, 2.11, 2.11, 2.11, 2.11, 2.11, 2.11, 2.11, 1.02, 1.02, 1.02, 1.02, 1.02, 1.02, 1.02, 1.02, 1.02, 1.02, 1.02, 1.02, 1.02, 1.02, 1.02, 1.03, 1.03, 1.03, 1.03, 1.03, 1.03, 1.03, 2.12, 2.13, 2.13, 2.13, 2.13, 2.13, 2.13, 2.13, 2.13, 2.13, 2.13, 2.13, 2.13, 2.13, 2.13, 2.13, 2.13, 2.13, 2.13, 2.14, 2.14, 2.14, 2.14, 2.14, 2.14, 2.14, 2.14, 2.14, 2.14, 2.14, 2.14, 2.14, 2.14, 2.14, 2.14, 2.15, 2.15, 2.15, 2.15, 2.15, 2.15, 2.15, 2.15, 2.15, 2.15, 2.15, 2.15, 2.15, 2.15, 2.16, 2.16, 2.16, 2.16, 2.16, 2.16, 2.16, 2.16, 2.16, 2.16, 2.16, 2.16, 2.16, 2.17, 2.17, 2.17, 2.17, 2.17, 2.17, 2.17, 2.17, 2.17, 1.48, 1.45, 1.43, 1.4, 1.38, 1.35, 1.33, 1.31, 1.29, 1.29, 1.29, 1.29, 1.29, 1.29, 1.29]
6 [1.86, 1.89, 1.93, 1.96, 2.0, 2.03, 2.05, 2.05, 2.05, 2.05, 2.05, 2.06, 2.06, 1.41, 1.41, 1.41, 1.41, 1.41, 1.41, 1.41, 1.41, 1.41, 1.41, 1.42, 1.45, 1.48, 1.51, 1.54, 1.57, 1.61, 2.07, 2.08, 2.08, 2.08, 2.08, 2.08, 2.08, 2.08, 2.08, 2.08, 2.08, 2.08, 2.08, 2.09, 2.09, 2.09, 2.09, 2.09, 2.09, 2.09, 2.09, 2.09, 2.09, 2.09, 2.09, 2.1, 2.1, 2.1, 2.1, 2.1, 2.1, 2.1, 2.1, 2.1, 2.1, 2.1, 2.1, 2.1, 2.1, 2.11, 2.11, 2.11, 2.11, 1.02, 1.02, 1.02, 1.02, 1.02, 1.02, 1.02, 1.02, 1.02, 1.02, 1.02, 1.02, 1.02, 1.02, 1.02, 1.02, 1.02, 1.02, 1.03, 1.03, 1.03, 1.03, 2.12, 2.12, 2.13, 2.13, 2.13, 2.13, 2.13, 2.13, 2.13, 2.13, 2.13, 2.13, 2.13, 2.13, 2.13, 2.13, 2.14, 2.14, 2.14, 2.14, 2.14, 2.14, 2.14, 2.14, 2.14, 2.14, 2.14, 2.14, 2.14, 2.15, 2.15, 2.15, 2.15, 2.15, 2.15, 2.15, 2.15, 2.15, 2.15, 2.15, 2.15, 2.16, 2.16, 2.16, 2.16, 2.16, 2.16, 2.16, 2.16, 2.16, 2.16, 2.16, 2.17, 2.17, 2.17, 2.17, 2.17, 2.17, 2.17, 2.17, 2.17, 2.17, 2.18, 2.18, 2.18, 2.18, 2.18, 2.18, 2.18, 2.18, 2.18, 1.49, 1.46, 1.44, 1.41, 1.39, 1.36, 1.34, 1.32, 1.3, 1.3, 1.3, 1.3, 1.3, 1.3, 1.3, 1.3]
7 [1.88, 1.91, 1.95, 1.98, 2.02, 2.02, 2.02, 2.02, 2.03, 2.03, 2.03, 1.38, 1.39, 1.39, 1.39, 1.39, 1.39, 1.39, 1.39, 1.39, 1.39, 1.39, 1.42, 1.45, 1.48, 1.51, 1.54, 1.57, 2.05, 2.05, 2.05, 2.06, 2.06, 2.06, 2.06, 2.06, 2.06, 2.06, 2.06, 2.06, 2.06, 2.07, 2.07, 2.07, 2.07, 2.07, 2.07, 2.07, 2.07, 2.07, 2.07, 2.08, 2.08, 2.08, 2.08, 2.08, 2.08, 2.08, 2.08, 2.08, 2.08, 2.09, 2.09, 2.09, 2.09, 2.09, 2.09, 2.09, 2.09, 2.09, 2.09, 1.01, 1.01, 1.01, 1.01, 1.01, 1.01, 1.01, 1.01, 1.01, 1.01, 1.01, 1.01, 1.01, 1.01, 1.01, 1.01, 1.01, 1.01, 1.01, 1.02, 1.02, 1.02, 1.02, 2.12, 2.12, 2.12, 2.12, 2.12, 2.12, 2.12, 2.12, 2.12, 2.12, 2.12, 2.13, 2.13, 2.13, 2.13, 2.13, 2.13, 2.13, 2.13, 2.13, 2.13, 2.13, 2.14, 2.14, 2.14, 2.14, 2.14, 2.14, 2.14, 2.14, 2.14, 2.14, 2.15, 2.15, 2.15, 2.15, 2.15, 2.15, 2.15, 2.15, 2.15, 2.15, 2.16, 2.16, 2.16, 2.16, 2.16, 2.16, 2.16, 2.16, 2.16, 2.17, 2.17, 2.17, 2.17, 2.17, 2.17, 2.17, 2.17, 2.18, 2.18, 2.18, 2.18, 2.18, 2.18, 2.18, 2.18, 2.19, 2.19, 2.19, 2.19, 1.49, 1.47, 1.44, 1.42, 1.4, 1.37, 1.35, 1.33, 1.3, 1.3, 1.3, 1.3, 1.3, 1.3, 1.3, 1.3, 1.31]
8 [1.94, 1.95, 1.96, 1.96, 1.96, 1.96, 1.96, 1.34, 1.34, 1.34, 1.34, 1.34, 1.34, 1.34, 1.35, 1.35, 1.35, 1.35, 1.37, 1.4, 1.42, 1.45, 1.49, 1.52, 1.55, 2.0, 2.0, 2.01, 2.01, 2.01, 2.01, 2.01, 2.01, 2.02, 2.02, 2.02, 2.02, 2.02, 2.02, 2.03, 2.03, 2.03, 2.03, 2.03, 2.03, 2.04, 2.04, 2.04, 2.04, 2.04, 2.04, 2.04, 2.05, 2.05, 2.05, 2.05, 2.05, 2.05, 2.05, 2.06, 2.06, 2.06, 2.06, 2.06, 2.06, 2.06, 2.07, 2.07, 0.99, 0.99, 0.99, 0.99, 0.99, 0.99, 0.99, 0.99, 0.99, 0.99, 0.99, 0.99, 0.99, 1.0, 1.0, 1.0, 1.0, 1.0, 1.0, 1.0, 1.0, 1.0, 1.0, 2.1, 2.1, 2.1, 2.1, 2.11, 2.11, 2.11, 2.11, 2.11, 2.11, 2.11, 2.12, 2.12, 2.12, 2.12, 2.12, 2.12, 2.12, 2.13, 2.13, 2.13, 2.13, 2.13, 2.13, 2.13, 2.14, 2.14, 2.14, 2.14, 2.14, 2.14, 2.15, 2.15, 2.15, 2.15, 2.15, 2.15, 2.15, 2.16, 2.16, 2.16, 2.16, 2.16, 2.16, 2.17, 2.17, 2.17, 2.17, 2.17, 2.18, 2.18, 2.18, 2.18, 2.18, 2.18, 2.19, 2.19, 2.19, 2.19, 2.19, 2.2, 2.2, 2.2, 2.2, 2.2, 2.21, 2.21, 2.21, 2.21, 2.22, 2.22, 2.22, 1.49, 1.47, 1.44, 1.42, 1.4, 1.37, 1.35, 1.33, 1.31, 1.31, 1.31, 1.32, 1.32, 1.32, 1.32, 1.32, 1.32, 2.05, 2.01]
9 [1.89, 1.89, 1.9, 1.29, 1.29, 1.29, 1.3, 1.3, 1.3, 1.3, 1.3, 1.31, 1.31, 1.31, 1.33, 1.36, 1.39, 1.41, 1.45, 1.48, 1.51, 1.95, 1.95, 1.96, 1.96, 1.96, 1.96, 1.97, 1.97, 1.97, 1.97, 1.98, 1.98, 1.98, 1.98, 1.99, 1.99, 1.99, 1.99, 1.99, 2.0, 2.0, 2.0, 2.0, 2.01, 2.01, 2.01, 2.01, 2.01, 2.02, 2.02, 2.02, 2.02, 2.02, 2.03, 2.03, 2.03, 2.03, 2.03, 2.04, 2.04, 2.04, 2.04, 2.04, 0.97, 0.97, 0.97, 0.97, 0.98, 0.98, 0.98, 0.98, 0.98, 0.98, 0.98, 0.98, 0.98, 0.98, 0.99, 0.99, 0.99, 0.99, 0.99, 0.99, 0.99, 0.99, 0.99, 2.09, 2.09, 2.1, 2.1, 2.1, 2.1, 2.1, 2.11, 2.11, 2.11, 2.11, 2.11, 2.12, 2.12, 2.12, 2.12, 2.12, 2.13, 2.13, 2.13, 2.13, 2.13, 2.14, 2.14, 2.14, 2.14, 2.14, 2.15, 2.15, 2.15, 2.15, 2.16, 2.16, 2.16, 2.16, 2.16, 2.17, 2.17, 2.17, 2.17, 2.18, 2.18, 2.18, 2.18, 2.19, 2.19, 2.19, 2.19, 2.19, 2.2, 2.2, 2.2, 2.21, 2.21, 2.21, 2.21, 2.22, 2.22, 2.22, 2.22, 2.23, 2.23, 2.23, 2.24, 2.24, 2.24, 2.24, 2.25, 2.25, 2.25, 2.26, 2.26, 1.53, 1.51, 1.48, 1.46, 1.44, 1.41, 1.39, 1.37, 1.35, 1.34, 1.34, 1.34, 1.35, 1.35, 1.35, 1.35, 1.36, 1.36, 2.09, 2.05, 2.02, 1.99, 1.96]
10 [1.24, 1.24, 1.24, 1.24, 1.25, 1.25, 1.25, 1.25, 1.26, 1.27, 1.29, 1.32, 1.35, 1.38, 1.41, 1.44, 1.89, 1.89, 1.89, 1.9, 1.9, 1.9, 1.91, 1.91, 1.91, 1.92, 1.92, 1.92, 1.92, 1.93, 1.93, 1.93, 1.94, 1.94, 1.94, 1.95, 1.95, 1.95, 1.95, 1.96, 1.96, 1.96, 1.97, 1.97, 1.97, 1.97, 1.98, 1.98, 1.98, 1.98, 1.99, 1.99, 1.99, 1.99, 2.0, 2.0, 2.0, 2.01, 2.01, 0.95, 0.95, 0.95, 0.95, 0.95, 0.95, 0.95, 0.96, 0.96, 0.96, 0.96, 0.96, 0.96, 0.96, 0.96, 0.97, 0.97, 0.97, 0.97, 0.97, 0.97, 0.97, 0.97, 0.97, 2.07, 2.07, 2.08, 2.08, 2.08, 2.08, 2.09, 2.09, 2.09, 2.09, 2.1, 2.1, 2.1, 2.1, 2.11, 2.11, 2.11, 2.12, 2.12, 2.12, 2.12, 2.13, 2.13, 2.13, 2.13, 2.14, 2.14, 2.14, 2.15, 2.15, 2.15, 2.15, 2.16, 2.16, 2.16, 2.17, 2.17, 2.17, 2.17, 2.18, 2.18, 2.18, 2.19, 2.19, 2.19, 2.2, 2.2, 2.2, 2.21, 2.21, 2.21, 2.22, 2.22, 2.22, 2.23, 2.23, 2.23, 2.24, 2.24, 2.24, 2.25, 2.25, 2.25, 2.26, 2.26, 2.27, 2.27, 2.27, 2.28, 2.28, 2.29, 2.29, 2.3, 1.54, 1.52, 1.49, 1.47, 1.45, 1.43, 1.4, 1.38, 1.36, 1.36, 1.36, 1.36, 1.37, 1.37, 1.37, 1.38, 1.38, 1.38, 2.12, 2.09, 2.06, 2.03, 2.0, 1.97, 1.94, 1.91]
11 [1.18, 1.18, 1.18, 1.19, 1.22, 1.24, 1.27, 1.3, 1.33, 1.36, 1.8, 1.8, 1.81, 1.81, 1.82, 1.82, 1.82, 1.83, 1.83, 1.84, 1.84, 1.84, 1.85, 1.85, 1.85, 1.86, 1.86, 1.87, 1.87, 1.87, 1.88, 1.88, 1.88, 1.89, 1.89, 1.89, 1.9, 1.9, 1.91, 1.91, 1.91, 1.92, 1.92, 1.92, 1.93, 1.93, 1.93, 1.94, 1.94, 1.94, 1.95, 1.95, 1.95, 1.96, 0.91, 0.91, 0.91, 0.91, 0.92, 0.92, 0.92, 0.92, 0.92, 0.92, 0.92, 0.93, 0.93, 0.93, 0.93, 0.93, 0.93, 0.93, 0.94, 0.94, 0.94, 0.94, 0.94, 0.94, 2.04, 2.04, 2.04, 2.05, 2.05, 2.05, 2.06, 2.06, 2.06, 2.07, 2.07, 2.07, 2.08, 2.08, 2.08, 2.09, 2.09, 2.09, 2.1, 2.1, 2.1, 2.11, 2.11, 2.11, 2.12, 2.12, 2.12, 2.13, 2.13, 2.13, 2.14, 2.14, 2.14, 2.15, 2.15, 2.15, 2.16, 2.16, 2.17, 2.17, 2.17, 2.18, 2.18, 2.18, 2.19, 2.19, 2.2, 2.2, 2.2, 2.21, 2.21, 2.22, 2.22, 2.23, 2.23, 2.23, 2.24, 2.24, 2.25, 2.25, 2.26, 2.26, 2.27, 2.27, 2.28, 2.28, 2.29, 2.29, 2.3, 2.3, 2.31, 2.31, 2.32, 2.32, 1.56, 1.54, 1.51, 1.49, 1.47, 1.45, 1.42, 1.4, 1.38, 1.37, 1.37, 1.38, 1.38, 1.38, 1.39, 1.39, 1.4, 1.4, 2.17, 2.14, 2.11, 2.08, 2.05, 2.02, 1.99, 1.96, 1.93, 1.9, 1.88, 1.85]
12 [1.21, 1.24, 1.27, 1.69, 1.69, 1.7, 1.71, 1.71, 1.72, 1.72, 1.73, 1.73, 1.74, 1.74, 1.75, 1.75, 1.76, 1.76, 1.77, 1.77, 1.77, 1.78, 1.78, 1.79, 1.79, 1.8, 1.8, 1.81, 1.81, 1.82, 1.82, 1.82, 1.83, 1.83, 1.84, 1.84, 1.85, 1.85, 1.85, 1.86, 1.86, 1.87, 1.87, 1.88, 1.88, 1.88, 1.89, 0.86, 0.87, 0.87, 0.87, 0.87, 0.87, 0.87, 0.88, 0.88, 0.88, 0.88, 0.88, 0.89, 0.89, 0.89, 0.89, 0.89, 0.89, 0.9, 0.9, 0.9, 0.9, 0.9, 0.91, 1.99, 1.99, 2.0, 2.0, 2.0, 2.01, 2.01, 2.02, 2.02, 2.02, 2.03, 2.03, 2.04, 2.04, 2.04, 2.05, 2.05, 2.06, 2.06, 2.07, 2.07, 2.07, 2.08, 2.08, 2.09, 2.09, 2.1, 2.1, 2.1, 2.11, 2.11, 2.12, 2.12, 2.13, 2.13, 2.14, 2.14, 2.14, 2.15, 2.15, 2.16, 2.16, 2.17, 2.17, 2.18, 2.18, 2.19, 2.19, 2.2, 2.2, 2.21, 2.21, 2.22, 2.22, 2.23, 2.23, 2.24, 2.24, 2.25, 2.26, 2.26, 2.27, 2.27, 2.28, 2.28, 2.29, 2.3, 2.3, 2.31, 2.32, 2.32, 2.33, 2.34, 2.34, 2.35, 2.36, 1.58, 1.55, 1.53, 1.51, 1.49, 1.47, 1.45, 1.43, 1.41, 1.39, 1.39, 1.39, 1.4, 1.4, 1.41, 1.41, 1.42, 1.42, 1.43, 2.2, 2.17, 2.14, 2.11, 2.08, 2.05, 2.02, 1.99, 1.97, 1.94, 1.91, 1.89, 1.86, 1.83, 1.81, 1.78]
13 [1.24, 1.66, 1.67, 1.67, 1.68, 1.68, 1.69, 1.69, 1.7, 1.7, 1.71, 1.72, 1.72, 1.73, 1.73, 1.74, 1.74, 1.75, 1.75, 1.76, 1.76, 1.77, 1.77, 1.78, 1.78, 1.79, 1.79, 1.8, 1.8, 1.8, 1.81, 1.81, 1.82, 1.82, 1.83, 1.83, 1.84, 1.84, 1.85, 1.85, 1.85, 1.86, 1.86, 1.87, 1.87, 0.86, 0.86, 0.86, 0.86, 0.86, 0.87, 0.87, 0.87, 0.87, 0.87, 0.88, 0.88, 0.88, 0.88, 0.88, 0.89, 0.89, 0.89, 0.89, 0.89, 0.89, 0.9, 0.9, 0.9, 1.98, 1.98, 1.99, 1.99, 2.0, 2.0, 2.01, 2.01, 2.01, 2.02, 2.02, 2.03, 2.03, 2.04, 2.04, 2.04, 2.05, 2.05, 2.06, 2.06, 2.07, 2.07, 2.08, 2.08, 2.09, 2.09, 2.09, 2.1, 2.1, 2.11, 2.11, 2.12, 2.12, 2.13, 2.13, 2.14, 2.14, 2.15, 2.15, 2.16, 2.16, 2.17, 2.17, 2.18, 2.18, 2.19, 2.19, 2.2, 2.2, 2.21, 2.21, 2.22, 2.23, 2.23, 2.24, 2.24, 2.25, 2.25, 2.26, 2.27, 2.27, 2.28, 2.28, 2.29, 2.3, 2.3, 2.31, 2.32, 2.32, 2.33, 2.34, 2.34, 2.35, 2.36, 2.36, 2.37, 2.38, 1.57, 1.55, 1.53, 1.5, 1.48, 1.46, 1.44, 1.42, 1.4, 1.4, 1.4, 1.41, 1.41, 1.42, 1.42, 1.43, 1.44, 1.44, 2.23, 2.2, 2.17, 2.14, 2.11, 2.08, 2.05, 2.03, 2.0, 1.97, 1.94, 1.92, 1.89, 1.87, 1.84, 1.81, 1.79, 1.76]
14 [1.63, 1.63, 1.64, 1.65, 1.65, 1.66, 1.66, 1.67, 1.68, 1.68, 1.69, 1.69, 1.7, 1.7, 1.71, 1.72, 1.72, 1.73, 1.73, 1.74, 1.74, 1.75, 1.75, 1.76, 1.76, 1.77, 1.77, 1.78, 1.78, 1.79, 1.79, 1.8, 1.8, 1.81, 1.81, 1.82, 1.82, 1.83, 1.83, 1.84, 1.84, 1.85, 0.84, 0.85, 0.85, 0.85, 0.85, 0.85, 0.86, 0.86, 0.86, 0.86, 0.87, 0.87, 0.87, 0.87, 0.87, 0.88, 0.88, 0.88, 0.88, 0.88, 0.89, 0.89, 0.89, 0.89, 1.97, 1.97, 1.98, 1.98, 1.99, 1.99, 1.99, 2.0, 2.0, 2.01, 2.01, 2.02, 2.02, 2.03, 2.03, 2.04, 2.04, 2.05, 2.05, 2.06, 2.06, 2.07, 2.07, 2.08, 2.08, 2.09, 2.09, 2.1, 2.1, 2.11, 2.11, 2.12, 2.12, 2.13, 2.13, 2.14, 2.14, 2.15, 2.16, 2.16, 2.17, 2.17, 2.18, 2.18, 2.19, 2.19, 2.2, 2.21, 2.21, 2.22, 2.22, 2.23, 2.24, 2.24, 2.25, 2.25, 2.26, 2.27, 2.27, 2.28, 2.29, 2.29, 2.3, 2.31, 2.31, 2.32, 2.33, 2.34, 2.34, 2.35, 2.36, 2.37, 2.37, 2.38, 2.39, 2.4, 2.41, 1.59, 1.57, 1.55, 1.52, 1.5, 1.48, 1.46, 1.44, 1.42, 1.42, 1.42, 1.43, 1.43, 1.44, 1.45, 1.45, 1.46, 1.46, 2.27, 2.24, 2.21, 2.18, 2.15, 2.12, 2.1, 2.07, 2.04, 2.01, 1.99, 1.96, 1.94, 1.91, 1.88, 1.86, 1.83, 1.81, 1.79, 1.76, 1.74]
15 [1.59, 1.6, 1.6, 1.61, 1.62, 1.62, 1.63, 1.64, 1.64, 1.65, 1.65, 1.66, 1.67, 1.67, 1.68, 1.68, 1.69, 1.7, 1.7, 1.71, 1.71, 1.72, 1.73, 1.73, 1.74, 1.74, 1.75, 1.75, 1.76, 1.76, 1.77, 1.78, 1.78, 1.79, 1.79, 1.8, 1.8, 0.82, 0.82, 0.82, 0.82, 0.83, 0.83, 0.83, 0.83, 0.84, 0.84, 0.84, 0.84, 0.85, 0.85, 0.85, 0.85, 0.86, 0.86, 0.86, 0.86, 0.86, 0.87, 0.87, 0.87, 0.87, 1.94, 1.94, 1.95, 1.95, 1.96, 1.96, 1.97, 1.98, 1.98, 1.99, 1.99, 2.0, 2.0, 2.01, 2.01, 2.02, 2.02, 2.03, 2.03, 2.04, 2.04, 2.05, 2.06, 2.06, 2.07, 2.07, 2.08, 2.08, 2.09, 2.09, 2.1, 2.11, 2.11, 2.12, 2.12, 2.13, 2.14, 2.14, 2.15, 2.15, 2.16, 2.17, 2.17, 2.18, 2.18, 2.19, 2.2, 2.2, 2.21, 2.22, 2.22, 2.23, 2.24, 2.24, 2.25, 2.26, 2.26, 2.27, 2.28, 2.29, 2.29, 2.3, 2.31, 2.32, 2.32, 2.33, 2.34, 2.35, 2.36, 2.36, 2.37, 2.38, 2.39, 2.4, 2.41, 2.41, 2.42, 1.62, 1.59, 1.57, 1.55, 1.53, 1.51, 1.49, 1.47, 1.45, 1.43, 1.43, 1.44, 1.44, 1.45, 1.46, 1.46, 1.47, 1.48, 1.49, 2.3, 2.27, 2.24, 2.21, 2.18, 2.15, 2.13, 2.1, 2.07, 2.04, 2.02, 1.99, 1.97, 1.94, 1.92, 1.89, 1.87, 1.84, 1.82, 1.8, 1.77, 1.75, 1.73, 1.7]
16 [1.54, 1.55, 1.55, 1.56, 1.57, 1.58, 1.58, 1.59, 1.6, 1.6, 1.61, 1.62, 1.62, 1.63, 1.64, 1.64, 1.65, 1.65, 1.66, 1.67, 1.67, 1.68, 1.69, 1.69, 1.7, 1.7, 1.71, 1.72, 1.72, 1.73, 1.74, 0.78, 0.78, 0.78, 0.78, 0.79, 0.79, 0.79, 0.8, 0.8, 0.8, 0.8, 0.81, 0.81, 0.81, 0.81, 0.82, 0.82, 0.82, 0.82, 0.83, 0.83, 0.83, 0.83, 0.84, 0.84, 1.89, 1.89, 1.9, 1.91, 1.91, 1.92, 1.92, 1.93, 1.93, 1.94, 1.95, 1.95, 1.96, 1.96, 1.97, 1.98, 1.98, 1.99, 1.99, 2.0, 2.01, 2.01, 2.02, 2.02, 2.03, 2.04, 2.04, 2.05, 2.06, 2.06, 2.07, 2.07, 2.08, 2.09, 2.09, 2.1, 2.11, 2.11, 2.12, 2.13, 2.13, 2.14, 2.15, 2.15, 2.16, 2.17, 2.18, 2.18, 2.19, 2.2, 2.2, 2.21, 2.22, 2.23, 2.23, 2.24, 2.25, 2.26, 2.27, 2.27, 2.28, 2.29, 2.3, 2.31, 2.31, 2.32, 2.33, 2.34, 2.35, 2.36, 2.37, 2.38, 2.39, 2.4, 2.41, 2.41, 2.42, 2.43, 2.44, 1.61, 1.59, 1.57, 1.55, 1.53, 1.51, 1.49, 1.47, 1.46, 1.44, 1.44, 1.45, 1.45, 1.46, 1.47, 1.48, 1.48, 1.49, 1.5, 2.33, 2.3, 2.27, 2.24, 2.21, 2.19, 2.16, 2.13, 2.11, 2.08, 2.06, 2.03, 2.01, 1.98, 1.96, 1.93, 1.91, 1.89, 1.86, 1.84, 1.82, 1.79, 1.77, 1.75, 1.73, 1.71, 1.68, 1.66]
17 [1.5, 1.51, 1.51, 1.52, 1.53, 1.54, 1.54, 1.55, 1.56, 1.56, 1.57, 1.58, 1.59, 1.59, 1.6, 1.61, 1.61, 1.62, 1.63, 1.63, 1.64, 1.65, 1.65, 1.66, 1.67, 0.74, 0.74, 0.74, 0.75, 0.75, 0.75, 0.76, 0.76, 0.76, 0.76, 0.77, 0.77, 0.77, 0.77, 0.78, 0.78, 0.78, 0.79, 0.79, 0.79, 0.79, 0.8, 0.8, 0.8, 0.81, 0.81, 1.84, 1.85, 1.85, 1.86, 1.87, 1.87, 1.88, 1.89, 1.89, 1.9, 1.91, 1.91, 1.92, 1.92, 1.93, 1.94, 1.94, 1.95, 1.96, 1.96, 1.97, 1.98, 1.98, 1.99, 2.0, 2.0, 2.01, 2.02, 2.02, 2.03, 2.04, 2.05, 2.05, 2.06, 2.07, 2.07, 2.08, 2.09, 2.1, 2.1, 2.11, 2.12, 2.12, 2.13, 2.14, 2.15, 2.15, 2.16, 2.17, 2.18, 2.19, 2.19, 2.2, 2.21, 2.22, 2.23, 2.24, 2.24, 2.25, 2.26, 2.27, 2.28, 2.29, 2.3, 2.31, 2.32, 2.32, 2.33, 2.34, 2.35, 2.36, 2.37, 2.38, 2.39, 2.4, 2.41, 2.43, 2.44, 2.45, 2.46, 1.62, 1.6, 1.58, 1.56, 1.54, 1.52, 1.5, 1.48, 1.46, 1.44, 1.44, 1.45, 1.46, 1.47, 1.47, 1.48, 1.49, 1.5, 1.51, 2.36, 2.33, 2.3, 2.28, 2.25, 2.22, 2.2, 2.17, 2.14, 2.12, 2.09, 2.07, 2.05, 2.02, 2.0, 1.97, 1.95, 1.93, 1.9, 1.88, 1.86, 1.84, 1.82, 1.79, 1.77, 1.75, 1.73, 1.71, 1.69, 1.67, 1.65, 1.63]
18 [1.48, 1.48, 1.49, 1.5, 1.51, 1.51, 1.52, 1.53, 1.54, 1.54, 1.55, 1.56, 1.56, 1.57, 1.58, 1.59, 1.59, 1.6, 1.61, 1.61, 1.62, 1.63, 0.71, 0.71, 0.72, 0.72, 0.72, 0.72, 0.73, 0.73, 0.73, 0.74, 0.74, 0.74, 0.74, 0.75, 0.75, 0.75, 0.76, 0.76, 0.76, 0.76, 0.77, 0.77, 0.77, 0.77, 0.78, 0.78, 0.78, 1.81, 1.82, 1.82, 1.83, 1.83, 1.84, 1.85, 1.85, 1.86, 1.87, 1.87, 1.88, 1.89, 1.89, 1.9, 1.91, 1.91, 1.92, 1.93, 1.93, 1.94, 1.95, 1.95, 1.96, 1.97, 1.97, 1.98, 1.99, 1.99, 2.0, 2.01, 2.02, 2.02, 2.03, 2.04, 2.04, 2.05, 2.06, 2.07, 2.07, 2.08, 2.09, 2.09, 2.1, 2.11, 2.12, 2.13, 2.13, 2.14, 2.15, 2.16, 2.17, 2.17, 2.18, 2.19, 2.2, 2.21, 2.21, 2.22, 2.23, 2.24, 2.25, 2.26, 2.27, 2.28, 2.29, 2.3, 2.31, 2.31, 2.32, 2.33, 2.34, 2.35, 2.36, 2.38, 2.39, 2.4, 2.41, 2.42, 2.43, 2.44, 2.45, 1.59, 1.57, 1.55, 1.53, 1.51, 1.49, 1.47, 1.46, 1.44, 1.42, 1.43, 1.44, 1.44, 1.45, 1.46, 1.47, 1.48, 1.49, 1.5, 2.33, 2.3, 2.28, 2.25, 2.22, 2.2, 2.17, 2.15, 2.12, 2.1, 2.07, 2.05, 2.02, 2.0, 1.98, 1.95, 1.93, 1.91, 1.89, 1.86, 1.84, 1.82, 1.8, 1.78, 1.76, 1.74, 1.71, 1.69, 1.67, 1.65, 1.63, 1.61]
19 [1.45, 1.46, 1.46, 1.47, 1.48, 1.49, 1.49, 1.5, 1.51, 1.51, 1.52, 1.53, 1.54, 1.54, 1.55, 1.56, 1.56, 1.57, 1.58, 0.67, 0.67, 0.68, 0.68, 0.68, 0.69, 0.69, 0.69, 0.69, 0.7, 0.7, 0.7, 0.71, 0.71, 0.71, 0.71, 0.72, 0.72, 0.72, 0.72, 0.73, 0.73, 0.73, 0.74, 0.74, 0.74, 0.74, 1.76, 1.76, 1.77, 1.78, 1.78, 1.79, 1.8, 1.8, 1.81, 1.82, 1.82, 1.83, 1.83, 1.84, 1.85, 1.85, 1.86, 1.87, 1.87, 1.88, 1.89, 1.89, 1.9, 1.91, 1.91, 1.92, 1.93, 1.93, 1.94, 1.95, 1.95, 1.96, 1.97, 1.97, 1.98, 1.99, 1.99, 2.0, 2.01, 2.02, 2.02, 2.03, 2.04, 2.04, 2.05, 2.06, 2.07, 2.07, 2.08, 2.09, 2.1, 2.11, 2.11, 2.12, 2.13, 2.14, 2.15, 2.15, 2.16, 2.17, 2.18, 2.19, 2.2, 2.2, 2.21, 2.22, 2.23, 2.24, 2.25, 2.26, 2.27, 2.28, 2.29, 2.3, 2.31, 2.32, 2.33, 2.34, 2.35, 2.36, 2.37, 2.38, 2.39, 2.4, 2.41, 1.56, 1.54, 1.53, 1.51, 1.49, 1.47, 1.45, 1.43, 1.42, 1.4, 1.39, 1.39, 1.4, 1.41, 1.42, 1.43, 1.43, 1.44, 1.45, 1.46, 2.28, 2.26, 2.23, 2.2, 2.18, 2.15, 2.13, 2.1, 2.08, 2.06, 2.03, 2.01, 1.98, 1.96, 1.94, 1.92, 1.89, 1.87, 1.85, 1.83, 1.81, 1.78, 1.76, 1.74, 1.72, 1.7, 1.68, 1.66, 1.64, 1.62, 1.6]
20 [1.44, 1.44, 1.45, 1.46, 1.46, 1.47, 1.48, 1.49, 1.49, 1.5, 1.51, 1.51, 1.52, 1.53, 1.53, 1.54, 1.55, 0.65, 0.65, 0.66, 0.66, 0.66, 0.66, 0.67, 0.67, 0.67, 0.68, 0.68, 0.68, 0.68, 0.69, 0.69, 0.69, 0.69, 0.7, 0.7, 0.7, 0.7, 0.71, 0.71, 0.71, 0.72, 0.72, 0.72, 0.72, 0.73, 1.74, 1.75, 1.75, 1.76, 1.77, 1.77, 1.78, 1.78, 1.79, 1.8, 1.8, 1.81, 1.82, 1.82, 1.83, 1.83, 1.84, 1.85, 1.85, 1.86, 1.87, 1.87, 1.88, 1.89, 1.89, 1.9, 1.91, 1.91, 1.92, 1.93, 1.93, 1.94, 1.95, 1.95, 1.96, 1.97, 1.97, 1.98, 1.99, 1.99, 2.0, 2.01, 2.02, 2.02, 2.03, 2.04, 2.04, 2.05, 2.06, 2.07, 2.07, 2.08, 2.09, 2.1, 2.11, 2.11, 2.12, 2.13, 2.14, 2.15, 2.15, 2.16, 2.17, 2.18, 2.19, 2.2, 2.21, 2.21, 2.22, 2.23, 2.24, 2.25, 2.26, 2.27, 2.28, 2.29, 2.3, 2.31, 2.32, 2.33, 2.34, 2.35, 2.36, 2.37, 2.39, 2.4, 1.54, 1.52, 1.5, 1.48, 1.46, 1.44, 1.43, 1.41, 1.39, 1.38, 1.36, 1.37, 1.38, 1.39, 1.4, 1.4, 1.41, 1.42, 1.43, 1.44, 2.25, 2.22, 2.2, 2.17, 2.15, 2.12, 2.1, 2.07, 2.05, 2.03, 2.0, 1.98, 1.96, 1.93, 1.91, 1.89, 1.87, 1.84, 1.82, 1.8, 1.78, 1.76, 1.74, 1.72, 1.7, 1.68, 1.66, 1.64, 1.62, 1.6]
21 [1.41, 1.42, 1.42, 1.43, 1.44, 1.45, 1.45, 1.46, 1.47, 1.47, 1.48, 1.49, 1.49, 1.5, 0.61, 0.62, 0.62, 0.62, 0.63, 0.63, 0.63, 0.63, 0.64, 0.64, 0.64, 0.64, 0.65, 0.65, 0.65, 0.65, 0.66, 0.66, 0.66, 0.66, 0.67, 0.67, 0.67, 0.67, 0.68, 0.68, 0.68, 0.68, 0.69, 0.71, 1.7, 1.7, 1.71, 1.71, 1.72, 1.73, 1.73, 1.74, 1.75, 1.75, 1.76, 1.76, 1.77, 1.78, 1.78, 1.79, 1.79, 1.8, 1.81, 1.81, 1.82, 1.83, 1.83, 1.84, 1.85, 1.85, 1.86, 1.86, 1.87, 1.88, 1.88, 1.89, 1.9, 1.9, 1.91, 1.92, 1.92, 1.93, 1.94, 1.94, 1.95, 1.96, 1.96, 1.97, 1.98, 1.99, 1.99, 2.0, 2.01, 2.01, 2.02, 2.03, 2.04, 2.04, 2.05, 2.06, 2.07, 2.07, 2.08, 2.09, 2.1, 2.11, 2.11, 2.12, 2.13, 2.14, 2.15, 2.16, 2.16, 2.17, 2.18, 2.19, 2.2, 2.21, 2.22, 2.23, 2.24, 2.25, 2.26, 2.27, 2.28, 2.29, 2.3, 2.31, 2.32, 2.33, 2.34, 2.35, 2.36, 1.5, 1.48, 1.46, 1.44, 1.43, 1.41, 1.39, 1.38, 1.36, 1.34, 1.33, 1.33, 1.34, 1.35, 1.36, 1.36, 1.37, 1.38, 1.39, 1.4, 2.21, 2.18, 2.16, 2.13, 2.11, 2.08, 2.06, 2.04, 2.01, 1.99, 1.97, 1.94, 1.92, 1.9, 1.88, 1.85, 1.83, 1.81, 1.79, 1.77, 1.75, 1.73, 1.71, 1.69, 1.66, 1.64, 1.62, 1.6, 1.59]
22 [1.39, 1.4, 1.41, 1.42, 1.42, 1.43, 1.44, 1.44, 1.45, 1.46, 1.46, 1.47, 0.59, 0.6, 0.6, 0.6, 0.6, 0.61, 0.61, 0.61, 0.61, 0.62, 0.62, 0.62, 0.62, 0.63, 0.63, 0.63, 0.63, 0.64, 0.64, 0.64, 0.64, 0.65, 0.65, 0.65, 0.65, 0.66, 0.66, 0.66, 0.66, 0.67, 0.76, 1.67, 1.68, 1.68, 1.69, 1.7, 1.7, 1.71, 1.71, 1.72, 1.73, 1.73, 1.74, 1.75, 1.75, 1.76, 1.76, 1.77, 1.78, 1.78, 1.79, 1.79, 1.8, 1.81, 1.81, 1.82, 1.83, 1.83, 1.84, 1.84, 1.85, 1.86, 1.86, 1.87, 1.88, 1.88, 1.89, 1.9, 1.9, 1.91, 1.92, 1.92, 1.93, 1.94, 1.94, 1.95, 1.96, 1.96, 1.97, 1.98, 1.99, 1.99, 2.0, 2.01, 2.01, 2.02, 2.03, 2.04, 2.04, 2.05, 2.06, 2.07, 2.08, 2.08, 2.09, 2.1, 2.11, 2.12, 2.13, 2.13, 2.14, 2.15, 2.16, 2.17, 2.18, 2.19, 2.2, 2.2, 2.21, 2.22, 2.23, 2.24, 2.25, 2.26, 2.27, 2.28, 2.29, 2.31, 2.32, 2.33, 2.34, 1.49, 1.47, 1.45, 1.43, 1.41, 1.4, 1.38, 1.36, 1.35, 1.33, 1.32, 1.31, 1.31, 1.32, 1.33, 1.34, 1.35, 1.35, 1.36, 1.37, 1.38, 2.18, 2.15, 2.12, 2.1, 2.08, 2.05, 2.03, 2.0, 1.98, 1.96, 1.93, 1.91, 1.89, 1.87, 1.85, 1.82, 1.8, 1.78, 1.76, 1.74, 1.72, 1.7, 1.68, 1.66, 1.64, 1.62, 1.6, 1.58]
23 [1.38, 1.39, 1.4, 1.41, 1.41, 1.42, 1.43, 1.43, 1.44, 1.45, 0.58, 0.58, 0.58, 0.59, 0.59, 0.59, 0.59, 0.6, 0.6, 0.6, 0.6, 0.61, 0.61, 0.61, 0.61, 0.62, 0.62, 0.62, 0.62, 0.63, 0.63, 0.63, 0.63, 0.64, 0.64, 0.64, 0.64, 0.65, 0.65, 0.65, 0.65, 0.74, 1.66, 1.66, 1.67, 1.67, 1.68, 1.69, 1.69, 1.7, 1.7, 1.71, 1.72, 1.72, 1.73, 1.73, 1.74, 1.75, 1.75, 1.76, 1.77, 1.77, 1.78, 1.78, 1.79, 1.8, 1.8, 1.81, 1.82, 1.82, 1.83, 1.83, 1.84, 1.85, 1.85, 1.86, 1.87, 1.87, 1.88, 1.89, 1.89, 1.9, 1.91, 1.91, 1.92, 1.93, 1.93, 1.94, 1.95, 1.95, 1.96, 1.97, 1.98, 1.98, 1.99, 2.0, 2.0, 2.01, 2.02, 2.03, 2.03, 2.04, 2.05, 2.06, 2.07, 2.07, 2.08, 2.09, 2.1, 2.11, 2.12, 2.12, 2.13, 2.14, 2.15, 2.16, 2.17, 2.18, 2.19, 2.2, 2.2, 2.21, 2.22, 2.23, 2.24, 2.25, 2.26, 2.27, 2.29, 2.3, 2.31, 2.32, 2.33, 1.48, 1.46, 1.44, 1.42, 1.41, 1.39, 1.37, 1.36, 1.34, 1.32, 1.31, 1.29, 1.3, 1.31, 1.32, 1.33, 1.33, 1.34, 1.35, 1.36, 1.37, 2.17, 2.14, 2.12, 2.09, 2.07, 2.04, 2.02, 2.0, 1.97, 1.95, 1.93, 1.91, 1.88, 1.86, 1.84, 1.82, 1.8, 1.78, 1.75, 1.73, 1.71, 1.69, 1.67, 1.65, 1.63, 1.61, 1.59, 1.57]
24 [1.37, 1.38, 1.38, 1.39, 1.4, 1.4, 1.41, 1.42, 0.56, 0.56, 0.56, 0.56, 0.57, 0.57, 0.57, 0.57, 0.58, 0.58, 0.58, 0.58, 0.59, 0.59, 0.59, 0.59, 0.6, 0.6, 0.6, 0.6, 0.61, 0.61, 0.61, 0.61, 0.62, 0.62, 0.62, 0.62, 0.63, 0.63, 0.63, 0.63, 0.72, 1.63, 1.64, 1.64, 1.65, 1.65, 1.66, 1.67, 1.67, 1.68, 1.68, 1.69, 1.7, 1.7, 1.71, 1.71, 1.72, 1.73, 1.73, 1.74, 1.74, 1.75, 1.76, 1.76, 1.77, 1.78, 1.78, 1.79, 1.79, 1.8, 1.81, 1.81, 1.82, 1.82, 1.83, 1.84, 1.84, 1.85, 1.86, 1.86, 1.87, 1.88, 1.88, 1.89, 1.9, 1.9, 1.91, 1.92, 1.92, 1.93, 1.94, 1.94, 1.95, 1.96, 1.96, 1.97, 1.98, 1.99, 1.99, 2.0, 2.01, 2.02, 2.02, 2.03, 2.04, 2.05, 2.05, 2.06, 2.07, 2.08, 2.09, 2.1, 2.1, 2.11, 2.12, 2.13, 2.14, 2.15, 2.16, 2.17, 2.18, 2.18, 2.19, 2.2, 2.21, 2.22, 2.23, 2.24, 2.25, 2.26, 2.27, 2.29, 2.3, 2.31, 1.45, 1.43, 1.42, 1.4, 1.38, 1.36, 1.35, 1.33, 1.32, 1.3, 1.28, 1.27, 1.28, 1.28, 1.29, 1.3, 1.31, 1.32, 1.32, 1.33, 1.34, 2.14, 2.11, 2.09, 2.06, 2.04, 2.02, 1.99, 1.97, 1.95, 1.92, 1.9, 1.88, 1.86, 1.83, 1.81, 1.79, 1.77, 1.75, 1.73, 1.71, 1.69, 1.67, 1.65, 1.63, 1.61, 1.59, 1.57]
25 [1.37, 1.37, 1.38, 1.39, 1.39, 1.4, 1.41, 1.41, 1.42, 0.55, 0.55, 0.55, 0.55, 0.56, 0.56, 0.56, 0.56, 0.57, 0.57, 0.57, 0.57, 0.57, 0.58, 0.58, 0.58, 0.58, 0.59, 0.59, 0.59, 0.59, 0.59, 0.6, 0.6, 0.6, 0.6, 0.61, 0.61, 0.61, 0.61, 0.61, 0.62, 0.67, 0.76, 1.62, 1.63, 1.64, 1.64, 1.65, 1.65, 1.66, 1.66, 1.67, 1.67, 1.68, 1.69, 1.69, 1.7, 1.7, 1.71, 1.71, 1.72, 1.72, 1.73, 1.74, 1.74, 1.75, 1.75, 1.76, 1.76, 1.77, 1.78, 1.78, 1.79, 1.79, 1.8, 1.81, 1.81, 1.82, 1.82, 1.83, 1.83, 1.84, 1.85, 1.85, 1.86, 1.87, 1.87, 1.88, 1.88, 1.89, 1.9, 1.9, 1.91, 1.92, 1.92, 1.93, 1.94, 1.94, 1.95, 1.96, 1.96, 1.97, 1.98, 1.98, 1.99, 2.0, 2.0, 2.01, 2.02, 2.03, 2.03, 2.04, 2.05, 2.06, 2.06, 2.07, 2.08, 2.09, 2.1, 2.1, 2.11, 2.12, 2.13, 2.14, 2.15, 2.16, 2.16, 2.17, 2.18, 2.19, 2.2, 2.21, 2.22, 2.23, 2.24, 2.25, 2.26, 2.27, 1.4, 1.39, 1.37, 1.35, 1.34, 1.32, 1.3, 1.29, 1.27, 1.26, 1.24, 1.23, 1.24, 1.25, 1.26, 1.26, 1.27, 1.28, 1.29, 1.29, 1.3, 2.06, 2.04, 2.02, 1.99, 1.97, 1.94, 1.92, 1.9, 1.88, 1.85, 1.83, 1.81, 1.79, 1.77, 1.74, 1.72, 1.7, 1.68, 1.66, 1.64, 1.62, 1.6, 1.58]
26 [1.38, 1.38, 1.39, 1.4, 1.4, 1.41, 1.41, 1.42, 1.43, 1.43, 1.44, 0.55, 0.55, 0.55, 0.55, 0.56, 0.56, 0.56, 0.56, 0.57, 0.57, 0.57, 0.57, 0.57, 0.58, 0.58, 0.58, 0.58, 0.58, 0.59, 0.59, 0.59, 0.59, 0.59, 0.6, 0.6, 0.6, 0.6, 0.6, 0.61, 0.61, 0.61, 0.61, 0.63, 0.72, 1.63, 1.63, 1.64, 1.64, 1.65, 1.65, 1.66, 1.67, 1.67, 1.68, 1.68, 1.69, 1.69, 1.7, 1.7, 1.71, 1.71, 1.72, 1.72, 1.73, 1.73, 1.74, 1.74, 1.75, 1.75, 1.76, 1.76, 1.77, 1.77, 1.78, 1.79, 1.79, 1.8, 1.8, 1.81, 1.81, 1.82, 1.82, 1.83, 1.83, 1.84, 1.85, 1.85, 1.86, 1.86, 1.87, 1.87, 1.88, 1.89, 1.89, 1.9, 1.9, 1.91, 1.92, 1.92, 1.93, 1.94, 1.94, 1.95, 1.95, 1.96, 1.97, 1.97, 1.98, 1.99, 1.99, 2.0, 2.01, 2.01, 2.02, 2.03, 2.04, 2.04, 2.05, 2.06, 2.06, 2.07, 2.08, 2.09, 2.1, 2.1, 2.11, 2.12, 2.13, 2.14, 2.15, 2.15, 2.16, 2.17, 2.18, 2.19, 2.2, 2.21, 2.22, 2.23, 2.24, 1.38, 1.37, 1.35, 1.33, 1.31, 1.3, 1.28, 1.27, 1.25, 1.23, 1.22, 1.2, 1.21, 1.22, 1.22, 1.23, 1.24, 1.25, 1.25, 1.26, 1.27, 2.02, 2.0, 1.97, 1.95, 1.93, 1.9, 1.88, 1.86, 1.83, 1.81, 1.79, 1.77, 1.74, 1.72, 1.7, 1.68, 1.66, 1.64, 1.62, 1.6]
27 [1.38, 1.39, 1.4, 1.4, 1.41, 1.41, 1.42, 1.43, 1.43, 1.44, 1.44, 1.45, 0.55, 0.55, 0.55, 0.56, 0.56, 0.56, 0.56, 0.57, 0.57, 0.57, 0.57, 0.57, 0.58, 0.58, 0.58, 0.58, 0.58, 0.59, 0.59, 0.59, 0.59, 0.59, 0.6, 0.6, 0.6, 0.6, 0.6, 0.6, 0.61, 0.61, 0.61, 0.61, 0.61, 0.68, 0.77, 1.64, 1.64, 1.65, 1.65, 1.66, 1.66, 1.67, 1.67, 1.68, 1.68, 1.69, 1.69, 1.7, 1.7, 1.71, 1.71, 1.72, 1.72, 1.73, 1.73, 1.74, 1.74, 1.75, 1.75, 1.76, 1.76, 1.77, 1.77, 1.78, 1.78, 1.79, 1.79, 1.8, 1.8, 1.81, 1.81, 1.82, 1.82, 1.83, 1.83, 1.84, 1.85, 1.85, 1.86, 1.86, 1.87, 1.87, 1.88, 1.88, 1.89, 1.9, 1.9, 1.91, 1.91, 1.92, 1.92, 1.93, 1.94, 1.94, 1.95, 1.96, 1.96, 1.97, 1.97, 1.98, 1.99, 1.99, 2.0, 2.01, 2.01, 2.02, 2.03, 2.03, 2.04, 2.05, 2.06, 2.06, 2.07, 2.08, 2.09, 2.09, 2.1, 2.11, 2.12, 2.12, 2.13, 2.14, 2.15, 2.16, 2.17, 2.18, 2.18, 2.19, 2.2, 2.21, 2.22, 1.37, 1.35, 1.33, 1.31, 1.3, 1.28, 1.26, 1.25, 1.23, 1.22, 1.2, 1.19, 1.2, 1.2, 1.21, 1.22, 1.22, 1.23, 1.24, 1.25, 1.25, 1.99, 1.97, 1.94, 1.92, 1.9, 1.87, 1.85, 1.83, 1.8, 1.78, 1.76, 1.73, 1.71, 1.69, 1.67, 1.65, 1.63, 1.61]
28 [1.39, 1.39, 1.4, 1.4, 1.41, 1.42, 1.42, 1.43, 1.43, 1.44, 1.44, 1.45, 1.45, 0.55, 0.55, 0.55, 0.55, 0.55, 0.56, 0.56, 0.56, 0.56, 0.56, 0.57, 0.57, 0.57, 0.57, 0.57, 0.58, 0.58, 0.58, 0.58, 0.58, 0.58, 0.59, 0.59, 0.59, 0.59, 0.59, 0.6, 0.6, 0.6, 0.6, 0.6, 0.6, 0.61, 0.64, 0.71, 1.63, 1.64, 1.64, 1.65, 1.65, 1.66, 1.66, 1.67, 1.67, 1.67, 1.68, 1.68, 1.69, 1.69, 1.7, 1.7, 1.71, 1.71, 1.72, 1.72, 1.73, 1.73, 1.74, 1.74, 1.75, 1.75, 1.75, 1.76, 1.76, 1.77, 1.77, 1.78, 1.78, 1.79, 1.79, 1.8, 1.8, 1.81, 1.81, 1.82, 1.82, 1.83, 1.83, 1.84, 1.84, 1.85, 1.85, 1.86, 1.87, 1.87, 1.88, 1.88, 1.89, 1.89, 1.9, 1.9, 1.91, 1.91, 1.92, 1.93, 1.93, 1.94, 1.94, 1.95, 1.95, 1.96, 1.97, 1.97, 1.98, 1.99, 1.99, 2.0, 2.0, 2.01, 2.02, 2.02, 2.03, 2.04, 2.05, 2.05, 2.06, 2.07, 2.07, 2.08, 2.09, 2.1, 2.1, 2.11, 2.12, 2.13, 2.14, 2.14, 2.15, 2.16, 2.17, 2.18, 2.19, 1.35, 1.33, 1.32, 1.3, 1.28, 1.27, 1.25, 1.23, 1.22, 1.2, 1.19, 1.17, 1.17, 1.17, 1.18, 1.19, 1.19, 1.2, 1.21, 1.21, 1.22, 1.96, 1.94, 1.91, 1.89, 1.87, 1.84, 1.82, 1.8, 1.77, 1.75, 1.73, 1.71, 1.68, 1.66, 1.64, 1.62]
29 [1.4, 1.4, 1.41, 1.41, 1.42, 1.42, 1.43, 1.44, 1.44, 1.45, 1.45, 1.46, 1.46, 1.47, 1.47, 0.55, 0.55, 0.56, 0.56, 0.56, 0.56, 0.56, 0.56, 0.57, 0.57, 0.57, 0.57, 0.57, 0.58, 0.58, 0.58, 0.58, 0.58, 0.58, 0.59, 0.59, 0.59, 0.59, 0.59, 0.59, 0.6, 0.6, 0.6, 0.6, 0.6, 0.6, 0.61, 0.61, 0.65, 0.74, 1.64, 1.65, 1.65, 1.65, 1.66, 1.66, 1.67, 1.67, 1.68, 1.68, 1.69, 1.69, 1.69, 1.7, 1.7, 1.71, 1.71, 1.72, 1.72, 1.73, 1.73, 1.73, 1.74, 1.74, 1.75, 1.75, 1.76, 1.76, 1.77, 1.77, 1.77, 1.78, 1.78, 1.79, 1.79, 1.8, 1.8, 1.81, 1.81, 1.82, 1.82, 1.83, 1.83, 1.84, 1.84, 1.85, 1.85, 1.86, 1.86, 1.87, 1.87, 1.88, 1.88, 1.89, 1.89, 1.9, 1.9, 1.91, 1.91, 1.92, 1.92, 1.93, 1.94, 1.94, 1.95, 1.95, 1.96, 1.96, 1.97, 1.98, 1.98, 1.99, 1.99, 2.0, 2.01, 2.01, 2.02, 2.03, 2.03, 2.04, 2.05, 2.05, 2.06, 2.07, 2.07, 2.08, 2.09, 2.1, 2.1, 2.11, 2.12, 2.13, 2.13, 2.14, 2.15, 2.16, 2.17, 1.34, 1.32, 1.3, 1.28, 1.27, 1.25, 1.23, 1.22, 1.2, 1.19, 1.17, 1.16, 1.15, 1.16, 1.17, 1.17, 1.18, 1.18, 1.19, 1.2, 1.2, 1.94, 1.91, 1.89, 1.86, 1.84, 1.81, 1.79, 1.77, 1.74, 1.72, 1.7, 1.68, 1.65, 1.63]
30 [1.41, 1.41, 1.42, 1.42, 1.43, 1.43, 1.44, 1.44, 1.45, 1.45, 1.46, 1.46, 1.47, 1.47, 1.48, 1.48, 1.49, 0.55, 0.55, 0.55, 0.55, 0.55, 0.55, 0.55, 0.56, 0.56, 0.56, 0.56, 0.56, 0.56, 0.57, 0.57, 0.57, 0.57, 0.57, 0.57, 0.57, 0.58, 0.58, 0.58, 0.58, 0.58, 0.58, 0.58, 0.59, 0.59, 0.59, 0.59, 0.59, 0.59, 0.59, 0.62, 0.69, 0.77, 1.64, 1.65, 1.65, 1.65, 1.66, 1.66, 1.66, 1.67, 1.67, 1.68, 1.68, 1.68, 1.69, 1.69, 1.69, 1.7, 1.7, 1.71, 1.71, 1.71, 1.72, 1.72, 1.73, 1.73, 1.73, 1.74, 1.74, 1.74, 1.75, 1.75, 1.76, 1.76, 1.76, 1.77, 1.77, 1.78, 1.78, 1.78, 1.79, 1.79, 1.8, 1.8, 1.81, 1.81, 1.81, 1.82, 1.82, 1.83, 1.83, 1.84, 1.84, 1.84, 1.85, 1.85, 1.86, 1.86, 1.87, 1.87, 1.88, 1.88, 1.89, 1.89, 1.89, 1.9, 1.9, 1.91, 1.91, 1.92, 1.92, 1.93, 1.93, 1.94, 1.95, 1.95, 1.96, 1.96, 1.97, 1.97, 1.98, 1.98, 1.99, 2.0, 2.0, 2.01, 2.01, 2.02, 2.03, 2.03, 2.04, 2.05, 2.05, 2.06, 2.07, 2.07, 2.08, 2.09, 2.1, 2.1, 1.29, 1.27, 1.26, 1.24, 1.22, 1.21, 1.19, 1.17, 1.16, 1.14, 1.13, 1.11, 1.1, 1.1, 1.11, 1.11, 1.12, 1.12, 1.13, 1.14, 1.14, 1.15, 1.83, 1.81, 1.78, 1.76, 1.73, 1.71, 1.69, 1.66]
31 [1.43, 1.43, 1.44, 1.44, 1.45, 1.45, 1.46, 1.46, 1.46, 1.47, 1.47, 1.48, 1.48, 1.48, 1.49, 1.49, 1.5, 1.5, 1.5, 1.51, 0.54, 0.54, 0.54, 0.54, 0.54, 0.54, 0.55, 0.55, 0.55, 0.55, 0.55, 0.55, 0.55, 0.55, 0.56, 0.56, 0.56, 0.56, 0.56, 0.56, 0.56, 0.56, 0.57, 0.57, 0.57, 0.57, 0.57, 0.57, 0.57, 0.57, 0.57, 0.58, 0.58, 0.58, 0.58, 0.59, 0.65, 0.72, 1.64, 1.64, 1.64, 1.65, 1.65, 1.65, 1.66, 1.66, 1.66, 1.66, 1.67, 1.67, 1.67, 1.68, 1.68, 1.68, 1.69, 1.69, 1.69, 1.7, 1.7, 1.7, 1.71, 1.71, 1.71, 1.71, 1.72, 1.72, 1.72, 1.73, 1.73, 1.73, 1.74, 1.74, 1.74, 1.75, 1.75, 1.75, 1.76, 1.76, 1.76, 1.77, 1.77, 1.77, 1.78, 1.78, 1.78, 1.79, 1.79, 1.79, 1.8, 1.8, 1.8, 1.81, 1.81, 1.82, 1.82, 1.82, 1.83, 1.83, 1.83, 1.84, 1.84, 1.85, 1.85, 1.85, 1.86, 1.86, 1.87, 1.87, 1.87, 1.88, 1.88, 1.89, 1.89, 1.9, 1.9, 1.9, 1.91, 1.91, 1.92, 1.92, 1.93, 1.93, 1.94, 1.94, 1.95, 1.95, 1.96, 1.96, 1.97, 1.97, 1.98, 1.99, 1.99, 2.0, 2.0, 2.01, 2.01, 2.02, 2.03, 1.22, 1.2, 1.19, 1.17, 1.15, 1.14, 1.12, 1.11, 1.09, 1.07, 1.06, 1.04, 1.04, 1.04, 1.05, 1.05, 1.05, 1.06, 1.06, 1.07, 1.07, 1.73, 1.71]
32 [1.45, 1.46, 1.46, 1.46, 1.47, 1.47, 1.47, 1.48, 1.48, 1.48, 1.49, 1.49, 1.5, 1.5, 1.5, 1.51, 1.51, 1.51, 1.52, 1.52, 1.52, 1.52, 1.53, 0.54, 0.54, 0.54, 0.54, 0.54, 0.54, 0.54, 0.55, 0.55, 0.55, 0.55, 0.55, 0.55, 0.55, 0.55, 0.55, 0.55, 0.56, 0.56, 0.56, 0.56, 0.56, 0.56, 0.56, 0.56, 0.56, 0.56, 0.57, 0.57, 0.57, 0.57, 0.57, 0.57, 0.57, 0.57, 0.57, 0.62, 0.68, 0.75, 1.64, 1.64, 1.65, 1.65, 1.65, 1.65, 1.66, 1.66, 1.66, 1.66, 1.67, 1.67, 1.67, 1.67, 1.68, 1.68, 1.68, 1.68, 1.69, 1.69, 1.69, 1.7, 1.7, 1.7, 1.7, 1.71, 1.71, 1.71, 1.71, 1.72, 1.72, 1.72, 1.72, 1.73, 1.73, 1.73, 1.74, 1.74, 1.74, 1.74, 1.75, 1.75, 1.75, 1.76, 1.76, 1.76, 1.76, 1.77, 1.77, 1.77, 1.78, 1.78, 1.78, 1.78, 1.79, 1.79, 1.79, 1.8, 1.8, 1.8, 1.81, 1.81, 1.81, 1.82, 1.82, 1.82, 1.83, 1.83, 1.83, 1.84, 1.84, 1.84, 1.85, 1.85, 1.85, 1.86, 1.86, 1.87, 1.87, 1.87, 1.88, 1.88, 1.89, 1.89, 1.89, 1.9, 1.9, 1.91, 1.91, 1.91, 1.92, 1.92, 1.93, 1.93, 1.94, 1.94, 1.95, 1.95, 1.96, 1.96, 1.97, 1.19, 1.17, 1.15, 1.14, 1.12, 1.1, 1.09, 1.07, 1.06, 1.04, 1.03, 1.01, 1.0, 1.0, 1.0, 1.0, 1.01, 1.01, 1.02]
33 [1.53, 1.53, 1.54, 1.54, 1.54, 1.54, 1.54, 1.55, 1.55, 1.55, 1.55, 1.55, 1.56, 1.56, 1.56, 1.56, 1.56, 1.57, 1.57, 1.57, 1.57, 1.57, 1.57, 1.58, 1.58, 1.58, 1.58, 1.58, 1.58, 1.59, 1.59, 0.54, 0.55, 0.55, 0.55, 0.55, 0.55, 0.55, 0.55, 0.55, 0.55, 0.55, 0.55, 0.55, 0.55, 0.55, 0.55, 0.55, 0.55, 0.55, 0.55, 0.56, 0.56, 0.56, 0.56, 0.56, 0.56, 0.56, 0.56, 0.56, 0.56, 0.56, 0.56, 0.56, 0.56, 0.56, 0.56, 0.56, 0.57, 0.63, 0.69, 0.76, 1.65, 1.65, 1.65, 1.65, 1.65, 1.66, 1.66, 1.66, 1.66, 1.66, 1.66, 1.66, 1.66, 1.67, 1.67, 1.67, 1.67, 1.67, 1.67, 1.67, 1.68, 1.68, 1.68, 1.68, 1.68, 1.68, 1.68, 1.68, 1.69, 1.69, 1.69, 1.69, 1.69, 1.69, 1.69, 1.7, 1.7, 1.7, 1.7, 1.7, 1.7, 1.7, 1.71, 1.71, 1.71, 1.71, 1.71, 1.71, 1.71, 1.72, 1.72, 1.72, 1.72, 1.72, 1.72, 1.73, 1.73, 1.73, 1.73, 1.73, 1.73, 1.74, 1.74, 1.74, 1.74, 1.74, 1.74, 1.75, 1.75, 1.75, 1.75, 1.75, 1.75, 1.76, 1.76, 1.76, 1.76, 1.76, 1.77, 1.77, 1.77, 1.77, 1.77, 1.78, 1.78, 1.78, 1.78, 1.78, 1.79, 1.79, 1.79, 1.79, 1.8, 1.8, 1.8, 1.8, 1.81, 1.81, 1.81, 1.81, 1.82, 1.82, 1.82, 1.07, 1.06, 1.04, 1.02, 1.01, 0.99, 0.98]
34 [1.03, 1.05, 1.07, 1.09, 1.1, 1.12, 1.14, 1.17, 1.64, 1.64, 1.64, 1.64, 1.64, 1.64, 1.64, 1.64, 1.64, 1.64, 1.64, 1.64, 1.64, 1.64, 1.64, 1.64, 1.64, 1.64, 1.64, 1.64, 1.64, 1.64, 1.65, 1.65, 1.65, 1.65, 1.65, 1.65, 1.65, 1.65, 1.65, 1.65, 0.56, 0.56, 0.56, 0.56, 0.56, 0.56, 0.56, 0.56, 0.56, 0.56, 0.56, 0.56, 0.56, 0.56, 0.56, 0.56, 0.56, 0.56, 0.56, 0.56, 0.56, 0.56, 0.56, 0.56, 0.56, 0.56, 0.56, 0.56, 0.56, 0.56, 0.56, 0.56, 0.56, 0.56, 0.56, 0.56, 0.56, 0.56, 0.59, 0.65, 0.71, 1.65, 1.65, 1.65, 1.65, 1.65, 1.65, 1.66, 1.66, 1.66, 1.66, 1.66, 1.66, 1.66, 1.66, 1.66, 1.66, 1.66, 1.66, 1.66, 1.66, 1.66, 1.66, 1.66, 1.66, 1.66, 1.66, 1.66, 1.66, 1.66, 1.66, 1.66, 1.66, 1.66, 1.66, 1.66, 1.66, 1.66, 1.66, 1.66, 1.66, 1.66, 1.66, 1.66, 1.66, 1.66, 1.66, 1.66, 1.66, 1.66, 1.66, 1.66, 1.66, 1.66, 1.66, 1.66, 1.66, 1.66, 1.66, 1.66, 1.66, 1.66, 1.66, 1.66, 1.66, 1.67, 1.67, 1.67, 1.67, 1.67, 1.67, 1.67, 1.67, 1.67, 1.67, 1.67, 1.67, 1.67, 1.67, 1.67, 1.67, 1.67, 1.67, 1.67, 1.67, 1.67, 1.67, 1.67, 1.67, 1.67, 1.67, 1.67, 1.67, 1.67, 1.67, 1.67, 1.67, 1.67, 1.67, 1.67, 1.67, 1.67]
35 [1.07, 1.07, 1.06, 1.06, 1.06, 1.06, 1.06, 1.05, 1.06, 1.07, 1.09, 1.11, 1.12, 1.14, 1.16, 1.18, 1.2, 1.22, 1.24, 1.76, 1.76, 1.76, 1.75, 1.75, 1.75, 1.75, 1.74, 1.74, 1.74, 1.74, 1.74, 1.73, 1.73, 1.73, 1.73, 1.73, 1.72, 1.72, 1.72, 1.72, 1.72, 1.71, 1.71, 1.71, 1.71, 1.71, 1.71, 1.7, 1.7, 1.7, 1.7, 1.7, 0.56, 0.56, 0.55, 0.55, 0.55, 0.55, 0.55, 0.55, 0.55, 0.55, 0.55, 0.55, 0.55, 0.55, 0.55, 0.55, 0.55, 0.55, 0.55, 0.55, 0.55, 0.55, 0.55, 0.54, 0.54, 0.54, 0.54, 0.54, 0.54, 0.54, 0.54, 0.54, 0.54, 0.54, 0.54, 0.54, 0.54, 0.54, 0.54, 0.57, 0.63, 0.7, 1.63, 1.63, 1.63, 1.63, 1.63, 1.63, 1.63, 1.62, 1.62, 1.62, 1.62, 1.62, 1.62, 1.62, 1.61, 1.61, 1.61, 1.61, 1.61, 1.61, 1.61, 1.61, 1.6, 1.6, 1.6, 1.6, 1.6, 1.6, 1.6, 1.59, 1.59, 1.59, 1.59, 1.59, 1.59, 1.59, 1.58, 1.58, 1.58, 1.58, 1.58, 1.58, 1.58, 1.57, 1.57, 1.57, 1.57, 1.57, 1.57, 1.56, 1.56, 1.56, 1.56, 1.56, 1.56, 1.55, 1.55, 1.55, 1.55, 1.55, 1.55, 1.55, 1.54, 1.54, 1.54, 1.54, 1.54, 1.53, 1.53, 1.53, 1.53, 1.53, 1.53, 1.52, 1.52, 1.52, 1.52, 1.52, 1.51, 1.51, 1.51, 1.51, 1.51, 1.5, 1.5, 1.5, 1.5, 1.49]
36 [1.69, 1.72, 1.1, 1.09, 1.09, 1.09, 1.09, 1.08, 1.08, 1.08, 1.07, 1.07, 1.08, 1.09, 1.11, 1.13, 1.14, 1.16, 1.18, 1.2, 1.22, 1.23, 1.25, 1.79, 1.79, 1.79, 1.78, 1.78, 1.78, 1.77, 1.77, 1.77, 1.76, 1.76, 1.76, 1.75, 1.75, 1.75, 1.75, 1.74, 1.74, 1.74, 1.73, 1.73, 1.73, 1.73, 1.72, 1.72, 1.72, 1.72, 1.71, 1.71, 1.71, 1.71, 1.7, 0.54, 0.54, 0.54, 0.54, 0.54, 0.54, 0.54, 0.54, 0.54, 0.54, 0.54, 0.54, 0.53, 0.53, 0.53, 0.53, 0.53, 0.53, 0.53, 0.53, 0.53, 0.53, 0.53, 0.53, 0.53, 0.53, 0.53, 0.52, 0.52, 0.52, 0.52, 0.52, 0.52, 0.52, 0.52, 0.52, 0.52, 0.52, 0.52, 0.52, 0.52, 0.54, 0.59, 0.66, 1.61, 1.61, 1.61, 1.6, 1.6, 1.6, 1.6, 1.6, 1.59, 1.59, 1.59, 1.59, 1.59, 1.58, 1.58, 1.58, 1.58, 1.58, 1.57, 1.57, 1.57, 1.57, 1.57, 1.56, 1.56, 1.56, 1.56, 1.56, 1.56, 1.55, 1.55, 1.55, 1.55, 1.55, 1.54, 1.54, 1.54, 1.54, 1.53, 1.53, 1.53, 1.53, 1.53, 1.52, 1.52, 1.52, 1.52, 1.52, 1.51, 1.51, 1.51, 1.51, 1.5, 1.5, 1.5, 1.5, 1.5, 1.49, 1.49, 1.49, 1.49, 1.48, 1.48, 1.48, 1.48, 1.47, 1.47, 1.47, 1.47, 1.46, 1.46, 1.46, 1.46, 1.45, 1.45, 1.45, 1.44, 1.44, 1.44, 1.44, 1.43, 1.43, 1.43]
37 [1.66, 1.68, 1.71, 1.74, 1.09, 1.09, 1.09, 1.08, 1.08, 1.08, 1.07, 1.07, 1.07, 1.06, 1.08, 1.09, 1.11, 1.13, 1.14, 1.16, 1.18, 1.2, 1.22, 1.23, 1.25, 1.79, 1.79, 1.79, 1.78, 1.78, 1.77, 1.77, 1.77, 1.76, 1.76, 1.76, 1.75, 1.75, 1.74, 1.74, 1.74, 1.74, 1.73, 1.73, 1.73, 1.72, 1.72, 1.72, 1.71, 1.71, 1.71, 1.7, 1.7, 1.7, 1.7, 1.69, 1.69, 0.52, 0.52, 0.52, 0.52, 0.52, 0.51, 0.51, 0.51, 0.51, 0.51, 0.51, 0.51, 0.51, 0.51, 0.51, 0.51, 0.51, 0.51, 0.5, 0.5, 0.5, 0.5, 0.5, 0.5, 0.5, 0.5, 0.5, 0.5, 0.5, 0.5, 0.5, 0.49, 0.49, 0.49, 0.49, 0.49, 0.49, 0.49, 0.49, 0.49, 0.49, 0.49, 0.49, 0.54, 0.6, 0.68, 1.58, 1.57, 1.57, 1.57, 1.57, 1.56, 1.56, 1.56, 1.56, 1.56, 1.55, 1.55, 1.55, 1.55, 1.54, 1.54, 1.54, 1.54, 1.54, 1.53, 1.53, 1.53, 1.53, 1.52, 1.52, 1.52, 1.52, 1.52, 1.51, 1.51, 1.51, 1.51, 1.5, 1.5, 1.5, 1.5, 1.49, 1.49, 1.49, 1.49, 1.48, 1.48, 1.48, 1.48, 1.47, 1.47, 1.47, 1.47, 1.46, 1.46, 1.46, 1.46, 1.45, 1.45, 1.45, 1.45, 1.44, 1.44, 1.44, 1.44, 1.43, 1.43, 1.43, 1.42, 1.42, 1.42, 1.42, 1.41, 1.41, 1.41, 1.4, 1.4, 1.4, 1.39, 1.39, 1.39, 1.38, 1.38, 1.38]
38 [1.65, 1.67, 1.7, 1.08, 1.08, 1.08, 1.07, 1.07, 1.07, 1.06, 1.06, 1.06, 1.05, 1.05, 1.07, 1.08, 1.1, 1.12, 1.13, 1.15, 1.17, 1.18, 1.2, 1.22, 1.24, 1.78, 1.78, 1.78, 1.77, 1.77, 1.76, 1.76, 1.76, 1.75, 1.75, 1.74, 1.74, 1.74, 1.73, 1.73, 1.73, 1.72, 1.72, 1.72, 1.71, 1.71, 1.71, 1.7, 1.7, 1.7, 1.69, 1.69, 1.69, 1.69, 1.68, 1.68, 0.5, 0.5, 0.5, 0.5, 0.5, 0.5, 0.5, 0.5, 0.49, 0.49, 0.49, 0.49, 0.49, 0.49, 0.49, 0.49, 0.49, 0.49, 0.49, 0.49, 0.49, 0.48, 0.48, 0.48, 0.48, 0.48, 0.48, 0.48, 0.48, 0.48, 0.48, 0.48, 0.48, 0.48, 0.47, 0.47, 0.47, 0.47, 0.47, 0.47, 0.47, 0.47, 0.47, 0.47, 0.47, 0.5, 0.56, 0.64, 1.56, 1.55, 1.55, 1.55, 1.55, 1.54, 1.54, 1.54, 1.54, 1.53, 1.53, 1.53, 1.53, 1.53, 1.52, 1.52, 1.52, 1.52, 1.51, 1.51, 1.51, 1.51, 1.5, 1.5, 1.5, 1.5, 1.49, 1.49, 1.49, 1.49, 1.49, 1.48, 1.48, 1.48, 1.48, 1.47, 1.47, 1.47, 1.47, 1.46, 1.46, 1.46, 1.46, 1.45, 1.45, 1.45, 1.45, 1.44, 1.44, 1.44, 1.43, 1.43, 1.43, 1.43, 1.42, 1.42, 1.42, 1.42, 1.41, 1.41, 1.41, 1.4, 1.4, 1.4, 1.4, 1.39, 1.39, 1.39, 1.38, 1.38, 1.38, 1.37, 1.37, 1.37, 1.36, 1.36, 1.36, 1.35]
39 [1.63, 1.66, 1.68, 1.06, 1.05, 1.05, 1.05, 1.04, 1.04, 1.04, 1.03, 1.03, 1.03, 1.04, 1.06, 1.07, 1.09, 1.1, 1.12, 1.14, 1.15, 1.17, 1.19, 1.2, 1.22, 1.76, 1.76, 1.75, 1.75, 1.74, 1.74, 1.74, 1.73, 1.73, 1.72, 1.72, 1.72, 1.71, 1.71, 1.71, 1.7, 1.7, 1.7, 1.69, 1.69, 1.69, 1.68, 1.68, 1.68, 1.67, 1.67, 1.67, 1.66, 1.66, 1.66, 0.47, 0.47, 0.47, 0.47, 0.47, 0.47, 0.47, 0.47, 0.47, 0.46, 0.46, 0.46, 0.46, 0.46, 0.46, 0.46, 0.46, 0.46, 0.46, 0.46, 0.46, 0.46, 0.45, 0.45, 0.45, 0.45, 0.45, 0.45, 0.45, 0.45, 0.45, 0.45, 0.45, 0.45, 0.45, 0.45, 0.44, 0.44, 0.44, 0.44, 0.44, 0.44, 0.44, 0.44, 0.44, 0.44, 0.44, 0.45, 0.5, 0.57, 1.52, 1.52, 1.52, 1.52, 1.51, 1.51, 1.51, 1.51, 1.51, 1.5, 1.5, 1.5, 1.5, 1.49, 1.49, 1.49, 1.49, 1.48, 1.48, 1.48, 1.48, 1.47, 1.47, 1.47, 1.47, 1.47, 1.46, 1.46, 1.46, 1.46, 1.45, 1.45, 1.45, 1.45, 1.44, 1.44, 1.44, 1.44, 1.43, 1.43, 1.43, 1.43, 1.42, 1.42, 1.42, 1.41, 1.41, 1.41, 1.41, 1.4, 1.4, 1.4, 1.4, 1.39, 1.39, 1.39, 1.38, 1.38, 1.38, 1.38, 1.37, 1.37, 1.37, 1.36, 1.36, 1.36, 1.35, 1.35, 1.35, 1.35, 1.34, 1.34, 1.34, 1.33, 1.33, 1.33, 1.32]
40 [1.64, 1.66, 1.04, 1.04, 1.04, 1.03, 1.03, 1.02, 1.02, 1.02, 1.02, 1.01, 1.03, 1.04, 1.06, 1.07, 1.09, 1.11, 1.12, 1.14, 1.16, 1.17, 1.19, 1.21, 1.75, 1.74, 1.74, 1.73, 1.73, 1.73, 1.72, 1.72, 1.71, 1.71, 1.71, 1.7, 1.7, 1.7, 1.69, 1.69, 1.69, 1.68, 1.68, 1.68, 1.67, 1.67, 1.67, 1.66, 1.66, 1.66, 1.65, 1.65, 1.65, 1.64, 0.46, 0.46, 0.46, 0.46, 0.46, 0.46, 0.46, 0.45, 0.45, 0.45, 0.45, 0.45, 0.45, 0.45, 0.45, 0.45, 0.45, 0.45, 0.45, 0.45, 0.45, 0.44, 0.44, 0.44, 0.44, 0.44, 0.44, 0.44, 0.44, 0.44, 0.44, 0.44, 0.44, 0.44, 0.44, 0.44, 0.43, 0.43, 0.43, 0.43, 0.43, 0.43, 0.43, 0.43, 0.43, 0.43, 0.43, 0.43, 0.45, 0.51, 0.58, 1.51, 1.51, 1.51, 1.51, 1.5, 1.5, 1.5, 1.5, 1.5, 1.49, 1.49, 1.49, 1.49, 1.48, 1.48, 1.48, 1.48, 1.47, 1.47, 1.47, 1.47, 1.47, 1.46, 1.46, 1.46, 1.46, 1.45, 1.45, 1.45, 1.45, 1.44, 1.44, 1.44, 1.44, 1.43, 1.43, 1.43, 1.43, 1.42, 1.42, 1.42, 1.42, 1.41, 1.41, 1.41, 1.41, 1.4, 1.4, 1.4, 1.4, 1.39, 1.39, 1.39, 1.39, 1.38, 1.38, 1.38, 1.38, 1.37, 1.37, 1.37, 1.36, 1.36, 1.36, 1.35, 1.35, 1.35, 1.35, 1.34, 1.34, 1.34, 1.33, 1.33, 1.33, 1.32, 0.0, 0.0]
41 [1.01, 1.01, 1.01, 1.0, 1.0, 1.0, 0.99, 0.99, 0.99, 0.99, 1.01, 1.02, 1.04, 1.06, 1.07, 1.09, 1.1, 1.12, 1.14, 1.15, 1.17, 1.72, 1.72, 1.71, 1.71, 1.7, 1.7, 1.7, 1.69, 1.69, 1.69, 1.68, 1.68, 1.68, 1.67, 1.67, 1.67, 1.66, 1.66, 1.66, 1.65, 1.65, 1.65, 1.65, 1.64, 1.64, 1.64, 1.63, 1.63, 1.63, 1.63, 0.45, 0.45, 0.45, 0.44, 0.44, 0.44, 0.44, 0.44, 0.44, 0.44, 0.44, 0.44, 0.44, 0.44, 0.44, 0.44, 0.44, 0.44, 0.43, 0.43, 0.43, 0.43, 0.43, 0.43, 0.43, 0.43, 0.43, 0.43, 0.43, 0.43, 0.43, 0.43, 0.43, 0.43, 0.42, 0.42, 0.42, 0.42, 0.42, 0.42, 0.42, 0.42, 0.42, 0.42, 0.42, 0.42, 0.42, 0.42, 0.42, 0.42, 0.48, 0.55, 1.51, 1.5, 1.5, 1.5, 1.5, 1.49, 1.49, 1.49, 1.49, 1.49, 1.48, 1.48, 1.48, 1.48, 1.48, 1.47, 1.47, 1.47, 1.47, 1.47, 1.46, 1.46, 1.46, 1.46, 1.46, 1.45, 1.45, 1.45, 1.45, 1.44, 1.44, 1.44, 1.44, 1.44, 1.43, 1.43, 1.43, 1.43, 1.43, 1.42, 1.42, 1.42, 1.42, 1.41, 1.41, 1.41, 1.41, 1.4, 1.4, 1.4, 1.4, 1.4, 1.39, 1.39, 1.39, 1.39, 1.38, 1.38, 1.38, 1.38, 1.37, 1.37, 1.37, 1.36, 1.36, 1.36, 1.36, 1.35, 1.35, 1.35, 1.35, 1.34, 1.34, 1.34, 1.33, 1.33, 1.33, 0.0, 0.0]
42 [0.97, 0.97, 0.96, 0.96, 0.96, 0.96, 0.97, 0.98, 1.0, 1.01, 1.03, 1.05, 1.06, 1.08, 1.1, 1.11, 1.13, 1.15, 1.68, 1.68, 1.67, 1.67, 1.67, 1.66, 1.66, 1.66, 1.65, 1.65, 1.65, 1.65, 1.64, 1.64, 1.64, 1.63, 1.63, 1.63, 1.63, 1.62, 1.62, 1.62, 1.62, 1.61, 1.61, 1.61, 1.61, 1.6, 1.6, 0.43, 0.43, 0.43, 0.43, 0.43, 0.43, 0.43, 0.43, 0.43, 0.43, 0.43, 0.43, 0.42, 0.42, 0.42, 0.42, 0.42, 0.42, 0.42, 0.42, 0.42, 0.42, 0.42, 0.42, 0.42, 0.42, 0.42, 0.42, 0.42, 0.42, 0.42, 0.41, 0.41, 0.41, 0.41, 0.41, 0.41, 0.41, 0.41, 0.41, 0.41, 0.41, 0.41, 0.41, 0.41, 0.41, 0.41, 0.41, 0.41, 0.41, 0.41, 0.46, 0.52, 1.5, 1.5, 1.49, 1.49, 1.49, 1.49, 1.49, 1.49, 1.48, 1.48, 1.48, 1.48, 1.48, 1.48, 1.47, 1.47, 1.47, 1.47, 1.47, 1.46, 1.46, 1.46, 1.46, 1.46, 1.46, 1.45, 1.45, 1.45, 1.45, 1.45, 1.45, 1.44, 1.44, 1.44, 1.44, 1.44, 1.43, 1.43, 1.43, 1.43, 1.43, 1.43, 1.42, 1.42, 1.42, 1.42, 1.42, 1.41, 1.41, 1.41, 1.41, 1.41, 1.4, 1.4, 1.4, 1.4, 1.4, 1.39, 1.39, 1.39, 1.39, 1.38, 1.38, 1.38, 1.38, 1.38, 1.37, 1.37, 1.37, 1.37, 1.36, 1.36, 1.36, 1.36, 1.35, 1.35, 1.35, 1.35, 1.34, 1.34, 1.34, 1.34]
43 [0.92, 0.92, 0.93, 0.95, 0.96, 0.98, 0.99, 1.01, 1.02, 1.04, 1.06, 1.07, 1.09, 1.11, 1.63, 1.63, 1.63, 1.62, 1.62, 1.62, 1.62, 1.61, 1.61, 1.61, 1.61, 1.6, 1.6, 1.6, 1.6, 1.6, 1.59, 1.59, 1.59, 1.59, 1.59, 1.58, 1.58, 1.58, 1.58, 1.58, 1.57, 1.57, 0.41, 0.41, 0.41, 0.41, 0.41, 0.41, 0.41, 0.41, 0.41, 0.41, 0.41, 0.41, 0.41, 0.41, 0.41, 0.41, 0.41, 0.41, 0.41, 0.41, 0.41, 0.4, 0.4, 0.4, 0.4, 0.4, 0.4, 0.4, 0.4, 0.4, 0.4, 0.4, 0.4, 0.4, 0.4, 0.4, 0.4, 0.4, 0.4, 0.4, 0.4, 0.4, 0.4, 0.4, 0.4, 0.4, 0.4, 0.39, 0.39, 0.39, 0.39, 0.39, 0.42, 0.47, 0.54, 1.49, 1.49, 1.48, 1.48, 1.48, 1.48, 1.48, 1.48, 1.48, 1.48, 1.47, 1.47, 1.47, 1.47, 1.47, 1.47, 1.47, 1.46, 1.46, 1.46, 1.46, 1.46, 1.46, 1.46, 1.45, 1.45, 1.45, 1.45, 1.45, 1.45, 1.45, 1.44, 1.44, 1.44, 1.44, 1.44, 1.44, 1.44, 1.43, 1.43, 1.43, 1.43, 1.43, 1.43, 1.43, 1.42, 1.42, 1.42, 1.42, 1.42, 1.42, 1.42, 1.41, 1.41, 1.41, 1.41, 1.41, 1.41, 1.4, 1.4, 1.4, 1.4, 1.4, 1.4, 1.39, 1.39, 1.39, 1.39, 1.39, 1.38, 1.38, 1.38, 1.38, 1.38, 1.37, 1.37, 1.37, 1.37, 1.37, 1.36, 1.36, 1.36, 1.36, 1.36, 1.35]
44 [0.93, 0.94, 0.96, 0.97, 0.99, 1.01, 1.02, 1.04, 1.06, 1.58, 1.57, 1.57, 1.57, 1.57, 1.57, 1.57, 1.56, 1.56, 1.56, 1.56, 1.56, 1.56, 1.55, 1.55, 1.55, 1.55, 1.55, 1.55, 1.55, 1.54, 1.54, 1.54, 1.54, 1.54, 1.54, 1.54, 1.54, 0.39, 0.39, 0.39, 0.39, 0.39, 0.39, 0.39, 0.39, 0.39, 0.39, 0.39, 0.39, 0.39, 0.39, 0.39, 0.39, 0.39, 0.39, 0.39, 0.39, 0.39, 0.39, 0.39, 0.39, 0.39, 0.39, 0.39, 0.39, 0.39, 0.39, 0.39, 0.38, 0.38, 0.38, 0.38, 0.38, 0.38, 0.38, 0.38, 0.38, 0.38, 0.38, 0.38, 0.38, 0.38, 0.38, 0.38, 0.38, 0.38, 0.38, 0.38, 0.38, 0.38, 0.41, 0.46, 0.52, 1.48, 1.47, 1.47, 1.47, 1.47, 1.47, 1.47, 1.47, 1.47, 1.47, 1.47, 1.47, 1.46, 1.46, 1.46, 1.46, 1.46, 1.46, 1.46, 1.46, 1.46, 1.46, 1.46, 1.45, 1.45, 1.45, 1.45, 1.45, 1.45, 1.45, 1.45, 1.45, 1.45, 1.44, 1.44, 1.44, 1.44, 1.44, 1.44, 1.44, 1.44, 1.44, 1.44, 1.43, 1.43, 1.43, 1.43, 1.43, 1.43, 1.43, 1.43, 1.43, 1.43, 1.42, 1.42, 1.42, 1.42, 1.42, 1.42, 1.42, 1.42, 1.42, 1.41, 1.41, 1.41, 1.41, 1.41, 1.41, 1.41, 1.41, 1.4, 1.4, 1.4, 1.4, 1.4, 1.4, 1.4, 1.39, 1.39, 1.39, 1.39, 1.39, 1.39, 1.39, 1.38, 1.38, 1.38, 1.38, 1.38]
45 [0.96, 0.97, 0.99, 1.01, 1.02, 1.52, 1.51, 1.51, 1.51, 1.51, 1.51, 1.51, 1.51, 1.51, 1.51, 1.51, 1.51, 1.51, 1.5, 1.5, 1.5, 1.5, 1.5, 1.5, 1.5, 1.5, 1.5, 1.5, 1.5, 1.5, 1.5, 0.38, 0.38, 0.37, 0.37, 0.37, 0.37, 0.37, 0.37, 0.37, 0.37, 0.37, 0.37, 0.37, 0.37, 0.37, 0.37, 0.37, 0.37, 0.37, 0.37, 0.37, 0.37, 0.37, 0.37, 0.37, 0.37, 0.37, 0.37, 0.37, 0.37, 0.37, 0.37, 0.37, 0.37, 0.37, 0.37, 0.37, 0.37, 0.37, 0.37, 0.37, 0.37, 0.37, 0.37, 0.37, 0.37, 0.37, 0.37, 0.37, 0.37, 0.37, 0.37, 0.37, 0.37, 0.38, 0.42, 0.48, 0.54, 1.46, 1.46, 1.46, 1.46, 1.46, 1.46, 1.46, 1.46, 1.46, 1.46, 1.46, 1.46, 1.46, 1.46, 1.46, 1.46, 1.46, 1.46, 1.46, 1.46, 1.46, 1.45, 1.45, 1.45, 1.45, 1.45, 1.45, 1.45, 1.45, 1.45, 1.45, 1.45, 1.45, 1.45, 1.45, 1.45, 1.45, 1.45, 1.45, 1.45, 1.45, 1.44, 1.44, 1.44, 1.44, 1.44, 1.44, 1.44, 1.44, 1.44, 1.44, 1.44, 1.44, 1.44, 1.44, 1.44, 1.44, 1.44, 1.44, 1.43, 1.43, 1.43, 1.43, 1.43, 1.43, 1.43, 1.43, 1.43, 1.43, 1.43, 1.43, 1.43, 1.43, 1.43, 1.43, 1.42, 1.42, 1.42, 1.42, 1.42, 1.42, 1.42, 1.42, 1.42, 1.42, 1.42, 1.42, 1.42, 1.41, 1.41, 1.41, 10.0, 0.0]
46 [1.45, 1.45, 1.45, 1.45, 1.45, 1.45, 1.45, 1.45, 1.45, 1.45, 1.45, 1.45, 1.45, 1.45, 1.45, 1.45, 1.45, 1.45, 1.45, 1.45, 1.45, 1.45, 1.45, 1.45, 0.36, 0.36, 0.36, 0.36, 0.36, 0.36, 0.36, 0.36, 0.36, 0.36, 0.36, 0.36, 0.36, 0.36, 0.36, 0.36, 0.36, 0.36, 0.36, 0.36, 0.36, 0.36, 0.36, 0.36, 0.36, 0.36, 0.36, 0.36, 0.36, 0.36, 0.36, 0.36, 0.36, 0.36, 0.36, 0.36, 0.36, 0.36, 0.36, 0.36, 0.36, 0.36, 0.36, 0.36, 0.36, 0.36, 0.36, 0.36, 0.36, 0.36, 0.36, 0.36, 0.36, 0.36, 0.36, 0.36, 0.38, 0.42, 0.47, 0.53, 1.45, 1.45, 1.45, 1.45, 1.45, 1.45, 1.45, 1.45, 1.45, 1.45, 1.45, 1.45, 1.45, 1.45, 1.45, 1.45, 1.45, 1.45, 1.45, 1.45, 1.45, 1.45, 1.45, 1.45, 1.45, 1.45, 1.45, 1.45, 1.45, 1.45, 1.45, 1.45, 1.45, 1.45, 1.45, 1.45, 1.45, 1.45, 1.45, 1.45, 1.45, 1.45, 1.45, 1.45, 1.45, 1.45, 1.45, 1.45, 1.45, 1.45, 1.45, 1.45, 1.45, 1.45, 1.45, 1.45, 1.45, 1.45, 1.45, 1.45, 1.45, 1.45, 1.45, 1.45, 1.45, 1.45, 1.45, 1.45, 1.45, 1.45, 1.45, 1.45, 1.46, 1.46, 1.46, 1.46, 1.46, 1.46, 1.46, 1.46, 1.46, 1.46, 1.46, 1.46, 1.46, 1.46, 1.46, 1.46, 1.46, 1.46, 1.46, 1.46, 1.46, 1.46, 1.46, 1.46, 1.46, 1.46]
47 [1.39, 1.39, 1.39, 1.39, 1.39, 1.39, 1.39, 1.39, 1.39, 1.39, 1.4, 1.4, 1.4, 1.4, 1.4, 1.4, 1.4, 1.4, 0.34, 0.34, 0.34, 0.34, 0.34, 0.34, 0.34, 0.34, 0.34, 0.34, 0.34, 0.34, 0.34, 0.34, 0.34, 0.34, 0.34, 0.34, 0.34, 0.34, 0.34, 0.34, 0.34, 0.34, 0.34, 0.34, 0.34, 0.34, 0.34, 0.34, 0.34, 0.34, 0.34, 0.34, 0.34, 0.34, 0.34, 0.34, 0.34, 0.34, 0.34, 0.34, 0.34, 0.34, 0.34, 0.34, 0.34, 0.34, 0.35, 0.35, 0.35, 0.35, 0.35, 0.35, 0.35, 0.35, 0.35, 0.38, 0.42, 0.46, 0.52, 1.44, 1.44, 1.44, 1.44, 1.44, 1.44, 1.44, 1.44, 1.44, 1.44, 1.44, 1.44, 1.44, 1.45, 1.45, 1.45, 1.45, 1.45, 1.45, 1.45, 1.45, 1.45, 1.45, 1.45, 1.45, 1.45, 1.45, 1.45, 1.45, 1.45, 1.45, 1.45, 1.46, 1.46, 1.46, 1.46, 1.46, 1.46, 1.46, 1.46, 1.46, 1.46, 1.46, 1.46, 1.46, 1.46, 1.46, 1.46, 1.46, 1.46, 1.47, 1.47, 1.47, 1.47, 1.47, 1.47, 1.47, 1.47, 1.47, 1.47, 1.47, 1.47, 1.47, 1.47, 1.47, 1.47, 1.48, 1.48, 1.48, 1.48, 1.48, 1.48, 1.48, 1.48, 1.48, 1.48, 1.48, 1.48, 1.48, 1.49, 1.49, 1.49, 1.49, 1.49, 1.49, 1.49, 1.49, 1.49, 1.49, 1.49, 1.49, 1.5, 1.5, 1.5, 1.5, 1.5, 1.5, 1.5, 1.5, 1.5, 1.5, 1.51, 1.51]
48 [1.33, 1.33, 1.33, 1.33, 1.33, 1.34, 1.34, 1.34, 1.34, 1.34, 1.34, 0.32, 0.32, 0.32, 0.32, 0.32, 0.32, 0.32, 0.32, 0.32, 0.32, 0.32, 0.32, 0.32, 0.32, 0.32, 0.32, 0.32, 0.32, 0.32, 0.32, 0.32, 0.32, 0.33, 0.33, 0.33, 0.33, 0.33, 0.33, 0.33, 0.33, 0.33, 0.33, 0.33, 0.33, 0.33, 0.33, 0.33, 0.33, 0.33, 0.33, 0.33, 0.33, 0.33, 0.33, 0.33, 0.33, 0.33, 0.33, 0.33, 0.33, 0.33, 0.33, 0.33, 0.33, 0.33, 0.33, 0.33, 0.33, 0.36, 0.39, 0.43, 0.48, 0.53, 1.42, 1.42, 1.42, 1.42, 1.43, 1.43, 1.43, 1.43, 1.43, 1.43, 1.43, 1.43, 1.43, 1.43, 1.44, 1.44, 1.44, 1.44, 1.44, 1.44, 1.44, 1.44, 1.44, 1.45, 1.45, 1.45, 1.45, 1.45, 1.45, 1.45, 1.45, 1.45, 1.45, 1.46, 1.46, 1.46, 1.46, 1.46, 1.46, 1.46, 1.46, 1.46, 1.47, 1.47, 1.47, 1.47, 1.47, 1.47, 1.47, 1.47, 1.48, 1.48, 1.48, 1.48, 1.48, 1.48, 1.48, 1.48, 1.48, 1.49, 1.49, 1.49, 1.49, 1.49, 1.49, 1.49, 1.5, 1.5, 1.5, 1.5, 1.5, 1.5, 1.5, 1.5, 1.51, 1.51, 1.51, 1.51, 1.51, 1.51, 1.52, 1.52, 1.52, 1.52, 1.52, 1.52, 1.53, 1.53, 1.53, 1.53, 1.53, 1.53, 1.54, 1.54, 1.54, 1.54, 1.54, 1.55, 1.55, 1.55, 1.55, 1.55, 1.56, 1.56, 1.56, 1.56, 1.57, 1.57]
49 [1.27, 1.28, 1.28, 1.28, 0.3, 0.3, 0.3, 0.3, 0.3, 0.3, 0.3, 0.3, 0.3, 0.3, 0.3, 0.3, 0.3, 0.31, 0.31, 0.31, 0.31, 0.31, 0.31, 0.31, 0.31, 0.31, 0.31, 0.31, 0.31, 0.31, 0.31, 0.31, 0.31, 0.31, 0.31, 0.31, 0.31, 0.31, 0.31, 0.31, 0.32, 0.32, 0.32, 0.32, 0.32, 0.32, 0.32, 0.32, 0.32, 0.32, 0.32, 0.32, 0.32, 0.32, 0.32, 0.32, 0.32, 0.32, 0.32, 0.32, 0.32, 0.32, 0.33, 0.36, 0.39, 0.42, 0.46, 0.51, 1.4, 1.4, 1.41, 1.41, 1.41, 1.41, 1.41, 1.41, 1.42, 1.42, 1.42, 1.42, 1.42, 1.42, 1.42, 1.43, 1.43, 1.43, 1.43, 1.43, 1.43, 1.44, 1.44, 1.44, 1.44, 1.44, 1.44, 1.45, 1.45, 1.45, 1.45, 1.45, 1.45, 1.45, 1.46, 1.46, 1.46, 1.46, 1.46, 1.46, 1.47, 1.47, 1.47, 1.47, 1.47, 1.48, 1.48, 1.48, 1.48, 1.48, 1.48, 1.49, 1.49, 1.49, 1.49, 1.49, 1.5, 1.5, 1.5, 1.5, 1.5, 1.5, 1.51, 1.51, 1.51, 1.51, 1.51, 1.52, 1.52, 1.52, 1.52, 1.53, 1.53, 1.53, 1.53, 1.53, 1.54, 1.54, 1.54, 1.54, 1.55, 1.55, 1.55, 1.55, 1.56, 1.56, 1.56, 1.56, 1.57, 1.57, 1.57, 1.57, 1.58, 1.58, 1.58, 1.59, 1.59, 1.59, 1.59, 1.6, 1.6, 1.6, 1.61, 1.61, 1.61, 1.62, 1.62, 1.62, 1.63, 1.63, 1.64, 1.64, 1.64, 1.65]
