1,9805263280869 -0,4999991953373
1,9787147045135 -0,50004458427429
1,9729616641998 -0,50005525350571
1,9636837244034 -0,50004285573959
1,9538269042969 -0,50004345178604
1,9440996646881 -0,50003534555435
1,9344094991684 -0,50002318620682
1,9248807430267 -0,49999985098839
1,9153890609741 -0,49996909499168
1,9060537815094 -0,49992194771767
1,8967931270599 -0,49987182021141
1,8876264095306 -0,49982625246048
1,8785789012909 -0,49978989362717
1,869637131691 -0,49975651502609
1,8607476949692 -0,49973303079605
1,8519560098648 -0,499721378088
1,8432853221893 -0,49969998002052
1,8346935510635 -0,49967098236084
1,8261702060699 -0,49967989325523
1,8177258968353 -0,49970030784607
1,8093709945679 -0,49975052475929
1,8011281490326 -0,49979004263878
1,7928895950317 -0,4998427927494
1,7847045660019 -0,49999365210533
1,7766109704971 -0,50012141466141
1,7685747146606 -0,5002453327179
1,7605081796646 -0,50049102306366
1,7525403499603 -0,50069749355316
1,7446186542511 -0,50098031759262
1,7366850376129 -0,50130897760391
1,7287073135376 -0,50177264213562
1,7206684350967 -0,50222098827362
1,7126045227051 -0,50274926424026
1,7046028375626 -0,50339424610138
1,6964610815048 -0,50414925813675
1,6882781982422 -0,50492650270462
1,680090546608 -0,505814909935
1,6718746423721 -0,50674045085907
1,6635262966156 -0,50770914554596
1,6551815271378 -0,50874310731888
1,6476898193359 -0,50968062877655
1,6409050226212 -0,51030963659286
1,634733915329 -0,51077479124069
1,62848508358 -0,51130139827728
1,6214275360107 -0,51201498508453
1,6140851974487 -0,51302945613861
1,6068274974823 -0,51418632268906
1,599538564682 -0,51543033123016
1,5922544002533 -0,51673328876495
1,5849949121475 -0,51812875270844
1,5776748657227 -0,51962774991989
1,5703499317169 -0,52125120162964
1,5631127357483 -0,52294135093689
1,5557720661163 -0,52472770214081
1,5484265089035 -0,52662891149521
1,5410969257355 -0,52860546112061
1,5337594747543 -0,53064370155334
1,5264151096344 -0,5328214764595
1,5189545154572 -0,53511166572571
1,5114567279816 -0,5375007390976
1,5039513111115 -0,53996676206589
1,4964687824249 -0,54255300760269
1,488948225975 -0,54525423049927
1,4814418554306 -0,54798901081085
1,4739751815796 -0,55083477497101
1,4665062427521 -0,55375891923904
1,4590355157852 -0,55675315856934
1,4515291452408 -0,55985164642334
1,4440493583679 -0,56297224760056
1,4365742206573 -0,56615793704987
1,4291121959686 -0,56943327188492
1,4210131168365 -0,57318264245987
1,4126663208008 -0,57715308666229
1,4044368267059 -0,58110576868057
1,3964586257935 -0,58486902713776
1,388751745224 -0,58849322795868
1,3812557458878 -0,59195649623871
1,373922586441 -0,59534454345703
1,3667259216309 -0,59862095117569
1,359937787056 -0,60164529085159
1,353665471077 -0,60434228181839
1,3476848602295 -0,60688680410385
1,3418567180634 -0,60930204391479
1,3360307216644 -0,61170607805252
1,3303591012955 -0,6140952706337
1,3247420787811 -0,61654025316238
1,3189595937729 -0,61912524700165
1,313027381897 -0,62185853719711
1,3070313930511 -0,62470281124115
1,3011127710342 -0,62752491235733
1,2952854633331 -0,63036769628525
1,2895293235779 -0,63316655158997
1,2837903499603 -0,63598525524139
1,2781058549881 -0,6388144493103
1,2724997997284 -0,64164751768112
1,2669794559479 -0,64447051286697
1,2615592479706 -0,6472395658493
1,2562545537949 -0,64997589588165
1,2511215209961 -0,65267592668533
1,2460321187973 -0,65537703037262
1,2409960031509 -0,6580685377121
1,236006975174 -0,66080152988434
1,2310611009598 -0,66357147693634
1,2260887622833 -0,66639280319214
1,221089720726 -0,66930639743805
1,2161177396774 -0,67225921154022
1,2111845016479 -0,67525386810303
1,2062487602234 -0,67835742235184
1,2013137340546 -0,68151152133942
1,1963515281677 -0,6847562789917
1,1913384199142 -0,68807518482208
1,1862477064133 -0,69152921438217
1,1811425685883 -0,69508278369904
1,175909280777 -0,6987846493721
1,1706478595734 -0,70256865024567
1,1653279066086 -0,7064448595047
1,1599137783051 -0,71045809984207
1,1544407606125 -0,71456015110016
1,1489137411118 -0,71875369548798
1,1433155536652 -0,72303104400635
1,1376202106476 -0,72740936279297
1,1315485239029 -0,73218613862991
1,125373005867 -0,73709332942963
1,1191238164902 -0,74205195903778
1,112735748291 -0,74706941843033
1,1062428951263 -0,75216090679169
1,0996359586716 -0,75729233026505
1,0929505825043 -0,76247107982635
1,0859357118607 -0,76784646511078
