-3.46846E26 4.588E-41
0.0 0.0
0.0020051585 -4.342607E-6
0.005571939 1.4289457E-4
0.0148825 3.181098E-4
0.044786796 6.7881023E-4
0.060979087 7.7726657E-4
0.07945536 8.676026E-4
0.081598155 0.0010402945
0.08499336 0.0014500597
0.09147237 0.0015573914
0.10030341 0.0018975331
0.11080948 0.002649329
0.11540872 0.0029076976
0.1314939 0.0023333745
0.14388953 0.0014456379
0.17102109 -8.9347956E-4
0.18151289 -0.002122695
0.18977001 -0.0023351242
0.19086343 -0.00159119
0.19305477 -0.0014317066
0.2056648 -0.003448791
0.21657947 -0.0060517075
0.24053054 -0.0128938705
0.25049785 -0.01628188
0.27205735 -0.024761543
0.27205735 -0.024761543
0.30538306 -0.038706187
0.32395154 -0.04655039
0.35817423 -0.060839992
0.36991897 -0.065672345
0.38439703 -0.07158146
0.39042914 -0.07402075
0.4116063 -0.08269907
0.42298517 -0.08766379
0.43240333 -0.09191494
0.44102246 -0.096418194
0.44198275 -0.09715767
0.44968596 -0.10074552
0.45467782 -0.10278523
0.4573061 -0.10424489
0.46071205 -0.10576211
0.4772727 -0.11190661
0.4772727 -0.11190661
0.5006619 -0.11926831
0.5247806 -0.12660357
0.5410098 -0.13219154
0.546326 -0.13419488
0.56207275 -0.13738409
0.5725881 -0.13816062
0.5932761 -0.13790914
0.5932761 -0.13790914
0.6052907 -0.13680539
0.63936865 -0.1320909
0.63936865 -0.1320909
0.65629315 -0.12936386
0.6685718 -0.12730286
0.6794423 -0.12506916
0.6907099 -0.122511305
0.7019177 -0.11989838
0.7019177 -0.11989838
0.7150213 -0.116924785
0.7286264 -0.114203714
0.7286264 -0.114203714
0.7397603 -0.11215228
0.74938977 -0.11028679
0.75879157 -0.108628824
0.75879157 -0.108628824
0.7678211 -0.107320346
0.7748135 -0.106065474
0.7801939 -0.10500469
0.7801939 -0.10500469
0.7801939 -0.10500469
0.7848866 -0.10422919
0.79241884 -0.103954576
0.79553854 -0.10425571
0.7983243 -0.10490819
0.804527 -0.10706024
0.81156254 -0.10904722
0.83457863 -0.1155221
0.84481895 -0.11810361
0.8510524 -0.11977871
0.8548373 -0.12134471
0.8550302 -0.121466495
0.8550302 -0.121466495
0.854854 -0.12116835
0.8545108 -0.12052383
0.85479146 -0.11972177
0.8565167 -0.11851575
0.85761243 -0.118388295
0.8579205 -0.11821636
0.8578966 -0.11813549
0.8578951 -0.11812665
0.8578974 -0.11811904
0.8610116 -0.11921276
0.867391 -0.120984115
0.8893073 -0.12720622
0.89929533 -0.12996991
0.90887535 -0.13252863
0.9122297 -0.13338037
0.92771894 -0.13743328
0.92771894 -0.13743328
