0 -1
1 -1
2 -1
3 1409256
4 1409256
5 1485875
6 1484375
7 1487375
8 1174399
9 1368149
10 1487375
11 1331131
12 1330500
13 1330500
14 1486750
15 1174250
16 1186875
17 1094250
18 1108125
19 1093875
20 859725
21 784245
22 937975
23 844225
24 830500
25 938100
26 787600
27 859925
28 781350
29 793750
30 859725
31 793870
32 1093750
33 900649
34 784395
35 1093750
36 793770
37 781254
38 875124
39 913149
40 897599
41 890649
42 1093754
43 312500
44 -1
45 425124
46 585245
47 703145
48 488120
49 468856
50 390725
51 1174981
52 1174981
53 1171999
54 1171999
55 1174336
56 1174336
57 1174337
58 1486056
59 1505649
60 1485687
61 1561878
62 1325629
63 1174747
64 1327626
65 1174247
66 1499875
67 1186875
68 1172495
69 1174375
70 1172499
71 1484399
72 -1
73 1487499
74 1440749
75 1328627
76 1440749
77 1484379
78 1546996
79 1484406
80 1484379
81 1484375
82 1486879
83 1171999
84 1179867
85 1171895
86 1250118
87 1406493
88 1441374
89 1484499
90 1440649
91 1441274
92 1484424
93 1234375
94 1184375
95 1441274
96 1484375
97 1441274
98 1184375
99 1171895
100 1184375
