0 [1.0, 1.0, 1.0, 1.0, 1.0, 1.0, 1.0, 1.0]
1 [1.0, 1.0, 1.0, 1.0, 1.0, 1.0, 1.0, 1.0]
2 [1.0, 1.0, 1.0, 1.0, 1.0, 1.0, 1.0, 1.0]
3 [1.0, 1.0, 1.0, 1.0, 1.0, 1.0, 1.0, 1.0]
4 [1.0, 1.0, 1.0, 1.0, 1.0, 1.0, 1.0, 1.0]
5 [1.0, 1.0, 1.0, 1.0, 1.0, 1.0, 1.0, 1.0]
6 [1.0, 1.0, 1.0, 1.0, 1.0, 1.0, 1.0, 1.0]
7 [1.0, 1.0, 1.0, 1.0, 1.0, 1.0, 1.0, 1.0]
8 [1.0, 1.0, 1.0, 1.0, 1.0, 1.0, 1.0, 1.0]
9 [1.0, 1.0, 1.0, 1.0, 1.0, 1.0, 1.0, 1.0]
10 [1.060059, 1.4437786, 1.060059, 1.0001489, 1.0, 1.0, 1.0, 1.0]
11 [1.0913204, 1.7332035, 1.5309905, 1.0597489, 1.0001476, 1.0, 1.0, 1.0]
12 [1.0718474, 1.6203872, 1.7453021, 1.0913503, 1.000226, 1.0, 1.0, 1.0]
13 [1.0544757, 1.4729009, 1.5840256, 1.0718254, 1.0001777, 1.0, 1.0, 1.0]
14 [1.0411413, 1.3572981, 1.4422168, 1.0543996, 1.0001346, 1.0, 1.0, 1.0]
15 [1.0310946, 1.2700549, 1.3342961, 1.0411245, 1.0001018, 1.0, 1.0, 1.0]
16 [1.0235008, 1.204104, 1.2526603, 1.0310818, 1.0000769, 1.0, 1.0, 1.0]
17 [0.9647467, 0.76274014, 1.2320064, 1.7196631, 1.0942956, 1.0002337, 1.0, 1.0]
18 [0.90694773, 0.27877656, 0.73165315, 1.5521328, 1.0793357, 1.0001968, 1.0, 1.0]
19 [0.92547625, 0.35818595, 0.29899424, 1.3540214, 1.0602932, 1.00015, 1.0, 1.0]
20 [0.9434773, 0.5095317, 0.4404321, 1.2634495, 1.0455432, 1.0001134, 1.0, 1.0]
21 [0.9619804, 0.75898445, 1.2926584, 1.2690352, 1.0310314, 1.0000767, 1.0, 1.0]
22 [0.9712719, 0.82056606, 1.2413135, 1.2060566, 1.0234598, 1.0000579, 1.0, 1.0]
23 [0.97830987, 0.8645525, 1.1288332, 0.752383, 0.9631243, 0.99990845, 1.0, 1.0]
24 [0.98360693, 0.8974799, 1.032477, 0.3328229, 0.90716326, 0.99976975, 1.0, 1.0]
25 [0.98762274, 0.9225852, 1.0205758, 0.46707794, 0.92595583, 0.99981636, 1.0, 1.0]
26 [0.99064547, 0.94149065, 1.0153133, 0.59546876, 0.9438008, 0.99986064, 1.0, 1.0]
27 [0.9927966, 0.9019819, 0.6140452, 0.6403573, 0.9573777, 0.9998946, 1.0, 1.0]
28 [0.99439865, 0.8603881, 0.22383058, 0.66284764, 0.9676555, 0.9999204, 1.0, 1.0]
29 [0.99626607, 0.9034771, 0.45664233, 0.7721165, 0.9784824, 0.9999471, 1.0, 1.0]
30 [0.99718064, 0.92705566, 0.58925617, 0.8278746, 0.98375344, 0.99996006, 1.0, 1.0]
31 [0.9999073, 0.962567, 0.711449, 0.8726021, 0.9877278, 0.9999698, 1.0, 1.0]
32 [0.9999299, 0.9717313, 0.7911211, 0.9717313, 0.9999299, 1.0, 1.0, 1.0]
33 [0.9999539, 0.98139256, 0.8565652, 0.9366726, 0.9938997, 0.999985, 1.0, 1.0]
34 [0.9999652, 0.9859368, 0.8915943, 0.9521382, 0.9953895, 0.9999887, 1.0, 1.0]
35 [0.9999762, 0.9903923, 0.92593956, 0.96730185, 0.9968502, 0.99999225, 1.0, 1.0]
36 [1.0, 1.0, 1.0, 1.0, 1.0, 1.0, 1.0, 1.0]
37 [0.9999864, 0.9945219, 0.9595221, 0.9945219, 0.9999864, 1.0, 1.0, 1.0]
38 [0.99998975, 0.99585974, 0.9694075, 0.99585974, 0.99998975, 1.0, 1.0, 1.0]
39 [0.99999225, 0.9968709, 0.9768787, 0.9968709, 0.99999225, 1.0, 1.0, 1.0]
40 [1.0, 1.0, 1.0, 1.0, 1.0, 1.0, 1.0, 1.0]
41 [1.0, 1.0, 1.0, 1.0, 1.0, 1.0, 1.0, 1.0]
42 [1.0, 1.0, 1.0, 1.0, 1.0, 1.0, 1.0, 1.0]
43 [1.0, 1.0, 1.0, 1.0, 1.0, 1.0, 1.0, 1.0]
44 [1.0, 1.0, 1.0, 1.0, 1.0, 1.0, 1.0, 1.0]
45 [1.0, 1.0, 1.0, 1.0, 1.0, 1.0, 1.0, 1.0]
46 [1.0, 1.0, 1.0, 1.0, 1.0, 1.0, 1.0, 1.0]
47 [1.0, 1.0, 1.0, 1.0, 1.0, 1.0, 1.0, 1.0]
48 [1.0001334, 1.053792, 1.3974724, 1.053792, 1.0001334, 1.0, 1.0, 1.0]
49 [1.0002275, 1.0917597, 1.6780177, 1.0917597, 1.0002275, 1.0, 1.0, 1.0]
