-0.41947242617607 0.70000070333481
-0.41973686218262 0.69824993610382
-0.42027655243874 0.69247263669968
-0.42109808325768 0.6831596493721
-0.421950340271 0.67340844869614
-0.42282071709633 0.66370332241058
-0.4236977994442 0.65400922298431
-0.42457151412964 0.64426463842392
-0.42545127868652 0.6345831155777
-0.42634239792824 0.62484836578369
-0.42724132537842 0.61511170864105
-0.42815294861794 0.60538190603256
-0.42908653616905 0.59568512439728
-0.43007650971413 0.58603036403656
-0.4310559630394 0.57649886608124
-0.43202218413353 0.56700569391251
-0.43307709693909 0.55763614177704
-0.43416208028793 0.54856538772583
-0.43519741296768 0.53943800926208
-0.43615755438805 0.53019940853119
-0.4371592104435 0.52088010311127
-0.43816351890564 0.51153582334518
-0.43920168280602 0.50219583511353
-0.44021758437157 0.49305480718613
-0.44109758734703 0.48407316207886
-0.44182306528091 0.4751852452755
-0.4424634873867 0.46629938483238
-0.4430635869503 0.45741590857506
-0.44364404678345 0.44851112365723
-0.444180727005 0.43961983919144
-0.44470056891441 0.43070149421692
-0.44518941640854 0.42176502943039
-0.44565439224243 0.41284075379372
-0.44607862830162 0.40389680862427
-0.446483284235 0.39495459198952
-0.44685786962509 0.38598364591599
-0.44721308350563 0.37703120708466
-0.44753098487854 0.36803078651428
-0.44782266020775 0.35903772711754
-0.44807428121567 0.35089987516403
-0.44856086373329 0.34330296516418
-0.44902387261391 0.33565291762352
-0.44940918684006 0.32810726761818
-0.44970870018005 0.31997948884964
-0.44983458518982 0.31174927949905
-0.44986996054649 0.30352962017059
-0.44984999299049 0.29529222846031
-0.44977441430092 0.28713876008987
-0.44963631033897 0.27892646193504
-0.44943207502365 0.27067703008652
-0.44915995001793 0.26240521669388
-0.44881957769394 0.25416505336761
-0.44843107461929 0.24584022164345
-0.44794744253159 0.23758816719055
-0.44740256667137 0.22929632663727
-0.4468087553978 0.2209575176239
-0.44615167379379 0.2126057446003
-0.44544187188148 0.20426419377327
-0.44463402032852 0.19594103097916
-0.44373098015785 0.18755051493645
-0.44285011291504 0.17914262413979
-0.44188159704208 0.17074362933636
-0.44084006547928 0.16230654716492
-0.43974614143372 0.15384629368782
-0.43862897157669 0.14536553621292
-0.43742340803146 0.13687208294868
-0.43616637587547 0.12835031747818
-0.43486732244492 0.11980433762074
-0.43349069356918 0.11126323789358
-0.43207710981369 0.10268060863018
-0.43058890104294 0.094098404049873
-0.42904901504517 0.085441991686821
-0.42728957533836 0.0761693790555
-0.42530792951584 0.066603787243366
-0.42328530550003 0.057082187384367
-0.42126661539078 0.047560803592205
-0.41925793886185 0.038019765168428
-0.41724222898483 0.028491312637925
-0.41523569822311 0.018946113064885
-0.41323846578598 0.0094054648652673
-0.41124790906906 2.8312205913039e-08
-0.409314930439 -0.0091029172763228
-0.40740340948105 -0.017904987558722
-0.40551248192787 -0.026476925238967
-0.40368834137917 -0.034834567457438
-0.40190249681473 -0.042974002659321
-0.40015751123428 -0.050936155021191
-0.39848560094833 -0.058737725019455
-0.39683791995049 -0.066248305141926
-0.39528593420982 -0.073539696633816
-0.39375308156013 -0.080651417374611
-0.3922925889492 -0.087492480874062
-0.3908825814724 -0.094151690602303
-0.38955488801003 -0.10074120759964
-0.38820388913155 -0.10730042308569
-0.38689786195755 -0.11386497318745
-0.3856292963028 -0.12065629661083
-0.38451346755028 -0.12667115032673
-0.38346344232559 -0.13164141774178
-0.38243252038956 -0.13536521792412
-0.38127872347832 -0.13830681145191
-0.38003122806549 -0.14109969139099
-0.37880992889404 -0.14397177100182
-0.37763684988022 -0.14696358144283
-0.37665084004402 -0.15014186501503
-0.37583127617836 -0.15384347736835
-0.37510597705841 -0.15760043263435
-0.37460550665855 -0.16153393685818
-0.37413388490677 -0.16555304825306
-0.37398010492325 -0.17080679535866
-0.37416157126427 -0.17667534947395
-0.37462311983109 -0.18272812664509
-0.37522912025452 -0.18873888254166
-0.37594425678253 -0.19484451413155
-0.37674456834793 -0.20083633065224
-0.37753188610077 -0.20666578412056
-0.37839180231094 -0.21251726150513
-0.37943226099014 -0.21849922835827
-0.3806965649128 -0.22464790940285
-0.38223266601562 -0.23107543587685
-0.38414269685745 -0.23811462521553
-0.38667196035385 -0.24610921740532
-0.38978055119514 -0.25500583648682
-0.39324444532394 -0.26410001516342
-0.39680498838425 -0.2731961607933
-0.40034627914429 -0.28227844834328
-0.40380349755287 -0.29140847921371
-0.40726652741432 -0.30053228139877
-0.41069626808167 -0.30963414907455
-0.41412472724915 -0.318772315979
-0.41754394769669 -0.32789170742035
-0.42096477746964 -0.33703589439392
-0.42437705397606 -0.34615620970726
-0.42777985334396 -0.35525506734848
-0.43114310503006 -0.36432430148125
-0.43448624014854 -0.37332007288933
-0.4377948641777 -0.38223457336426
-0.44108453392982 -0.39108875393867
-0.44453009963036 -0.40021133422852
-0.4479672908783 -0.40932387113571
-0.4513968527317 -0.41844630241394
-0.45484489202499 -0.42757520079613
-0.45827811956406 -0.43668714165688
-0.46172252297401 -0.44581890106201
-0.46516436338425 -0.45492044091225
-0.46860855817795 -0.46405583620071
-0.47203087806702 -0.47315511107445
-0.47546011209488 -0.48228535056114
-0.47890812158585 -0.49141365289688
-0.4823559820652 -0.50053638219833
-0.48579102754593 -0.50966441631317
-0.48922729492188 -0.51877683401108
-0.49267607927322 -0.52789640426636
-0.49611783027649 -0.53702914714813
-0.49926051497459 -0.5455185174942
-0.5021356344223 -0.55363714694977
-0.5049831867218 -0.56173932552338
-0.50787657499313 -0.56980526447296
-0.51083606481552 -0.57783621549606
-0.51381838321686 -0.58583903312683
-0.51687598228455 -0.59380340576172
-0.51994293928146 -0.60174882411957
-0.52305054664612 -0.60969060659409
-0.52621209621429 -0.6176010966301
-0.52941977977753 -0.62551867961884
-0.5326811671257 -0.63340812921524
-0.53597462177277 -0.64127904176712
-0.5393642783165 -0.64918613433838
-0.5427953004837 -0.65710854530334
-0.5462674498558 -0.66503018140793
-0.54980874061584 -0.67293936014175
-0.55340105295181 -0.68087410926819
-0.55705201625824 -0.68883883953094
-0.56078350543976 -0.69685852527618
-0.56460738182068 -0.70486181974411
-0.56853663921356 -0.71296018362045
-0.57252597808838 -0.72110432386398
-0.57659232616425 -0.72929376363754
-0.5807181596756 -0.73751223087311
-0.58490377664566 -0.7457600235939
-0.58917039632797 -0.75409430265427
-0.5934653878212 -0.76245820522308
-0.59785109758377 -0.77088439464569
-0.6022812128067 -0.77933889627457
-0.60674548149109 -0.78781294822693
-0.61123019456863 -0.79627811908722
-0.61570352315903 -0.80470103025436
-0.62014162540436 -0.81306886672974
-0.62455415725708 -0.82137280702591
-0.62894690036774 -0.82961654663086
-0.63329470157623 -0.8378159403801
-0.6375983953476 -0.84596359729767
-0.64188957214355 -0.85407572984695
-0.6461364030838 -0.86212813854218
-0.65034288167953 -0.87009191513062
-0.65449470281601 -0.87804621458054
