0 [0.0, 0.0, 0.0, 0.0, 0.0, 0.0, 0.0, 0.0]
1 [0.0, 0.0, 0.56702536, 0.5590891, 0.0, 0.0, 0.0, 0.0]
2 [0.0, 0.0, 0.5703917, 0.55997354, 0.0, 0.0, 0.0, 0.0]
3 [0.0, 0.0, 0.5748735, 0.5603583, 0.0, 0.0, 0.0, 0.0]
4 [0.0, 0.0, 0.5748735, 0.5603583, 0.0, 0.0, 0.0, 0.0]
5 [0.0, 0.0, 0.581048, 0.560768, 0.0, 0.0, 0.0, 0.0]
6 [0.0, 0.0, 0.5813543, 0.5605914, 0.0, 0.0, 0.0, 0.0]
7 [0.0, 0.0, 0.5730751, 0.553503, 0.0, 0.0, 0.0, 0.0]
8 [0.0, 0.0, 0.5611484, 0.54123324, 0.0, 0.0, 0.0, 0.0]
9 [0.0, 0.0, 0.5556019, 0.5344004, 0.0, 0.0, 0.0, 0.0]
10 [0.0, 0.0, 0.5349297, 0.51392573, 0.0, 0.0, 0.0, 0.0]
11 [0.0, 0.0, 0.5202585, 0.50045407, 0.0, 0.0, 0.0, 0.0]
12 [0.0, 0.0, 0.4788832, 0.4644608, 0.0, 0.0, 0.0, 0.0]
13 [0.0, 0.0, 0.4788832, 0.4644608, 0.0, 0.0, 0.0, 0.0]
14 [0.0, 0.0, 0.44432205, 0.4356323, 0.0, 0.0, 0.0, 0.0]
15 [0.0, 0.0, 0.43404648, 0.4278219, 0.0, 0.0, 0.0, 0.0]
16 [0.0, 0.0, 0.42227715, 0.41875648, 0.0, 0.0, 0.0, 0.0]
17 [0.0, 0.0, 0.42110923, 0.41797397, 0.0, 0.0, 0.0, 0.0]
18 [0.0, 0.0, 0.4141952, 0.4130313, 0.0, 0.0, 0.0, 0.0]
19 [0.0, 0.0, 0.40484414, 0.404927, 0.0, 0.0, 0.0, 0.0]
20 [0.0, 0.0, 0.39693782, 0.59657, 0.0, 0.0, 0.0, 0.0]
21 [0.0, 0.0, 0.3925286, 0.5873675, 0.0, 0.0, 0.0, 0.0]
22 [0.0, 0.46036252, 0.38092107, 0.57255024, 0.0, 0.0, 0.0, 0.0]
23 [0.0, 0.42392156, 0.35680258, 0.543162, 0.0, 0.0, 0.0, 0.0]
24 [0.0, 0.39154217, 0.33234343, 0.5150318, 0.0, 0.0, 0.0, 0.0]
25 [0.0, 0.37905577, 0.32327613, 0.0, 0.0, 0.0, 0.0, 0.0]
26 [0.0, 0.33005187, 0.2964865, 0.0, 0.0, 0.0, 0.0, 0.0]
27 [0.0, 0.30945808, 0.28513646, 0.0, 0.0, 0.0, 0.0, 0.0]
28 [0.0, 0.28676134, 0.27200913, 0.0, 0.0, 0.0, 0.0, 0.0]
29 [0.0, 0.26729894, 0.45232558, 0.0, 0.0, 0.0, 0.0, 0.0]
30 [0.0, 0.25597695, 0.4432972, 0.0, 0.0, 0.0, 0.0, 0.0]
31 [0.0, 0.25110555, 0.43137363, 0.0, 0.0, 0.9867052, 0.0, 0.0]
32 [0.0, 0.23588249, 0.0, 0.0, 0.9473293, 0.94161814, 0.0, 0.0]
33 [0.37720487, 0.40001863, 0.0, 0.0, 0.9061066, 0.9150293, 0.0, 0.0]
34 [0.379299, 0.38970178, 0.0, 0.0, 0.887498, 0.90303624, 0.0, 0.0]
35 [0.381147, 0.37156507, 0.0, 0.0, 0.85379255, 0.8768704, 0.0, 0.0]
36 [0.21251924, 0.36417228, 0.0, 0.0, 0.83905774, 0.8670528, 0.0, 0.0]
37 [0.21447968, 0.0, 0.0, 0.0, 0.821805, 0.8826453, 0.0, 0.0]
38 [0.21610816, 0.0, 0.0, 0.0, 0.8007431, 0.90164435, 0.0, 0.0]
39 [0.21743983, 0.0, 0.0, 0.8932401, 0.7799735, 0.9158682, 0.0, 0.0]
40 [0.21851294, 0.0, 0.0, 0.8220625, 0.7603438, 0.0, 0.0, 0.0]
41 [0.21883534, 0.0, 0.0, 0.79093623, 0.7425232, 0.0, 0.0, 0.96996945]
42 [0.22391231, 0.0, 0.0, 0.7688819, 0.72832346, 0.0, 0.0, 0.9609967]
43 [0.23496306, 0.0, 0.0, 0.7340283, 0.7069036, 0.0, 0.0, 0.93663126]
44 [0.2429941, 0.0, 0.0, 0.71694386, 0.7013019, 0.0, 0.0, 0.92417157]
45 [0.2699461, 0.0, 0.0, 0.673883, 0.6884543, 0.0, 0.0, 0.9041245]
46 [0.3099977, 0.0, 0.0, 0.6245569, 0.6564766, 0.0, 0.0, 0.89558583]
47 [0.35147798, 0.0, 0.8377565, 0.5790076, 0.6180872, 0.0, 0.0, 0.902716]
48 [0.0, 0.0, 0.5785146, 0.5557829, 0.6339611, 0.0, 0.0, 0.9004347]
49 [0.0, 0.0, 0.5514098, 0.54092544, 0.6561954, 0.0, 0.0, 0.89536566]
