0 -1
1 -1
2 -1
3 97995
4 389370
5 600
6 381235
7 164371
8 600
9 390620
10 600
11 370
12 47225
13 475
14 370
15 375604
16 1120
17 94373
18 234950
19 98650
20 98625
21 86110
22 164110
23 14725
24 225
25 195124
26 350
27 15320
28 525
29 15425
30 575
31 233898
32 93824
33 312500
34 312500
35 120
36 62820
37 96899
38 15595
39 -1
40 31899
41 31899
42 615
43 34379
44 34379
45 124020
46 7620
47 15268
48 2368
49 93549
50 478
51 18744
52 318741
53 90254
54 31169
55 87129
56 21819
57 320288
58 312500
59 4
60 13274
61 4
62 4
63 149
64 4
65 4124
66 2500
67 313734
68 2500
69 312520
70 78749
71 79249
72 375300
73 375300
74 375309
75 79119
76 237
77 78368
78 78493
79 78494
80 291124
81 78999
82 314924
83 312879
84 78919
85 329147
86 78949
87 78944
88 78969
89 78344
90 78319
91 312824
92 313074
93 78319
94 312686
95 -1
96 172098
97 218870
98 172074
99 312500
100 168860
101 156272
102 15000
103 156298
104 327506
105 2519
106 312504
107 3004
108 96879
109 228758
110 62504
111 600
112 154383
113 62504
114 75000
115 4
116 4
117 12500
118 312500
119 15000
120 2500
121 -1
122 3000
123 12500
124 15000
125 2500
126 600
127 312800
128 62500
129 609
130 312650
131 176229
132 600
133 600
134 104
135 600
136 312500
137 78149
138 600
139 78747
140 600
141 78247
142 600
143 124
144 100
145 3000
146 531
147 3000
148 2520
149 2500
150 -1
151 15000
152 15100
153 15000
154 500
155 15000
156 12600
157 5650
158 77500
159 12500
160 75000
161 75000
162 75500
163 75500
164 63000
