0 [0.0, 0.0, 0.0, 0.0, 0.0, 0.0, 0.0, 0.0]
1 [0.0, 0.0, 0.0, 0.0, 0.0, 0.0, 0.0, 0.0]
2 [0.0, 0.0, 0.0, 0.0, 0.0, 0.0, 0.0, 0.0]
3 [0.0, 0.0, 0.0, 0.0, 0.0, 0.0, 0.0, 0.0]
4 [0.0, 0.0, 0.0, 0.0, 0.0, 0.0, 0.0, 0.0]
5 [0.0, 0.0, 0.0, 0.0, 0.0, 0.0, 0.0, 0.0]
6 [0.0, 0.0, 0.0, 0.0, 0.0, 0.0, 0.0, 0.0]
7 [0.0, 0.0, 0.0, 0.0, 0.0, 0.0, 0.0, 0.0]
8 [0.0, 0.0, 0.0, 0.0, 0.0, 0.0, 0.0, 0.0]
9 [0.0, 0.0, 0.0, 0.0, 0.0, 0.0, 0.0, 0.0]
10 [0.20243956, 0.09843956, 0.020439561, 0.032560438, 0.06856045, 0.11756045, 0.11256043, 0.099439554]
11 [0.20243956, 0.09843956, 0.020439561, 0.032560438, 0.06856045, 0.11756045, 0.11256043, 0.099439554]
12 [1.0897955, 0.9847955, 0.019906593, 0.030093407, 0.0630934, 0.109093405, 0.33631563, 0.3191288]
13 [1.0550494, 0.95004946, 0.3929066, 0.02909341, 0.060093403, 0.10309341, 0.5426648, 0.9679066]
14 [0.1979066, 0.092906594, 0.017906593, 0.02909341, 0.060093403, 0.10309341, 0.1140934, 0.092906594]
15 [1.0711484, 0.96314836, 0.8911483, 0.027851654, 0.055851653, 0.09385164, 0.36085165, 0.58914834]
16 [0.19614835, 0.088148355, 0.016148351, 0.027851654, 0.055851653, 0.09385164, 0.110851645, 0.08914835]
17 [0.19023077, 0.08023077, 0.011230768, 0.028769242, 0.053769242, 0.08776923, 0.110769235, 0.049769223]
18 [1.5874858, 1.0793903, 0.94012725, 0.030049443, 0.052049447, 0.08004944, 0.94138277, 0.8793828]
19 [0.30477202, 0.18505748, 0.06496485, 0.030049443, 0.052049447, 0.08004944, 0.10804944, 0.04604945]
20 [0.2778532, 0.5825988, 0.9401115, 0.030049443, 0.052049447, 0.08004944, 0.10804944, 0.42104945]
21 [1.4551907, 1.1003757, 0.9318296, 0.033291206, 0.051291212, 0.074291214, 0.6052912, 0.6042912]
22 [1.4560746, 1.1684136, 1.0080951, 0.039670333, 0.05267032, 0.068670325, 0.08967033, 0.20067033]
23 [0.27751672, 1.1485419, 0.21936056, 0.04698902, 0.05498901, 0.062989004, 0.07298902, 0.16932234]
24 [0.16800705, 0.14623596, 1.0110675, 0.04698902, 0.05498901, 0.062989004, 0.07298902, 0.085989006]
25 [0.077617325, 0.13022317, 0.88641196, 0.80045605, 0.056456048, 0.06345604, 0.07145603, 0.082456045]
26 [0.35170054, 0.979516, 1.0765368, 1.0082197, 0.060219787, 0.062219784, 0.06521978, 0.06821978]
27 [0.060157094, 0.118628435, 1.0016024, 0.9332198, 0.060219787, 0.062219784, 0.06521978, 0.06821978]
28 [0.03600407, 0.119248435, 1.110455, 0.12408791, 0.06690109, 0.06390109, 0.060901094, 0.056901097]
29 [0.034993008, 0.12181234, 1.0958897, 0.12996703, 1.067022, 0.07001098, 0.06101099, 0.053011]
30 [0.021666443, 0.101770714, 0.9819144, 0.982989, 0.078011, 0.07001098, 0.06101099, 0.053011]
31 [0.020570049, 1.0119585, 0.14525478, 0.14726312, 1.0755965, 0.072181314, 0.063181326, 0.05118131]
32 [0.021607634, 0.05716259, 0.100814305, 0.85281867, 0.8478187, 0.072181314, 0.063181326, 0.05118131]
33 [0.3613868, 0.06955712, 0.09450789, 0.47351098, 0.97451097, 0.071489014, 0.06448902, 0.04948901]
34 [0.023810724, 0.05275874, 0.09527785, 0.1006978, 1.0882143, 0.0996978, 0.06829122, 0.051291212]
35 [0.37834966, 0.052888777, 0.084289625, 0.9647088, 0.46870878, 0.08870879, 0.06829122, 0.051291212]
36 [0.023562556, 0.039176445, 0.09289429, 0.102895595, 1.0821043, 0.09609341, 0.08389561, 0.054401103]
37 [0.019804755, 0.030151278, 0.06432327, 0.11181869, 0.083170325, 0.091170326, 1.0831813, 0.061324183]
38 [0.3830771, 0.030193502, 0.06432349, 0.10632419, 0.9526758, 0.46067584, 0.08867583, 0.061324183]
39 [0.01934222, 0.022109149, 0.047180936, 0.123625755, 0.15162575, 0.12526312, 1.0665965, 1.0695964]
40 [0.76981866, 0.022181317, 0.047181316, 0.07918131, 0.10718131, 0.83081865, 0.088818684, 0.09181868]
41 [0.39835164, 0.0096483575, 0.02864835, 0.050648354, 0.07964836, 0.46964836, 0.9776483, 0.10035165]
42 [0.05710745, 0.9895519, 0.007670327, 0.020670326, 0.037670333, 0.0864481, 0.0944481, 0.13710745]
43 [0.12393589, 0.028935896, 0.9886026, 0.0067307656, 0.013730771, 0.020730764, 0.04839743, 0.0709359]
44 [0.09604945, 0.11838278, 0.057283882, 1.0062839, 0.02095055, 0.01995055, 0.018950552, 0.050283886]
45 [0.09604945, 0.46004945, 0.8989506, 0.022950547, 0.02095055, 0.01995055, 0.018950552, 0.39195055]
46 [0.08093406, 0.07294506, 0.06994505, 0.068043955, 1.0350659, 0.036054946, 0.026054947, 0.016054943]
47 [0.06994505, 0.07294506, 0.44494504, 0.93205494, 0.04605495, 0.036054946, 0.026054947, 0.39105493]
48 [0.029175824, 0.06017583, 0.06817582, 0.9438242, 0.06382418, 0.052175824, 0.03117582, 0.0131758265]
49 [1.5142063, 0.03904941, 0.054699577, 0.076686814, 0.9546868, 0.074313186, 0.070313185, 0.020686816]
