0 [1.0, 1.0, 1.0, 1.0, 1.0, 1.0, 1.0, 1.0]
1 [1.0, 1.0, 1.0, 1.0, 1.0, 1.0, 1.0, 1.0]
2 [1.0, 1.0, 1.0, 1.0, 1.0, 1.0, 1.0, 1.0]
3 [1.0, 1.0, 1.0, 1.0, 1.0, 1.0, 1.0, 1.0]
4 [1.0, 1.0, 1.0, 1.0, 1.0, 1.0, 1.0, 1.0]
5 [1.0, 1.0, 1.0, 1.0, 1.0, 1.0, 1.0, 1.0]
6 [1.0, 1.0, 1.0, 1.0, 1.0, 1.0, 1.0, 1.0]
7 [1.0, 1.0, 1.0, 1.0, 1.0, 1.0, 1.0, 1.0]
8 [1.6707811, 1.0907804, 1.0002251, 1.0, 1.0, 1.0, 1.0, 1.0]
9 [1.6201695, 1.0839309, 1.000208, 1.0, 1.0, 1.0, 1.0, 1.0]
10 [1.4755615, 1.0643603, 1.0001595, 1.0, 1.0, 1.0, 1.0, 1.0]
11 [1.3594787, 1.0488752, 1.090901, 1.6707811, 1.0907804, 1.0002251, 1.0, 1.0]
12 [1.2703581, 1.0367963, 1.0837334, 1.6180408, 1.0836427, 1.0002073, 1.0, 1.0]
13 [1.203518, 1.0277015, 1.0639213, 1.4718134, 1.063853, 1.0001583, 1.0, 1.0]
14 [0.6209314, 0.948798, 1.0399473, 1.2961121, 1.0400743, 1.0000993, 1.0, 1.0]
15 [1.017242, 1.0024058, 1.0291936, 1.2156711, 1.0291879, 1.0000724, 1.0, 1.0]
16 [1.0956318, 1.0129969, 1.0220257, 1.1625125, 1.0219936, 1.0000545, 1.0, 1.0]
17 [1.0770837, 1.0102539, 0.9281171, 0.4686622, 0.9280912, 0.9998218, 1.0, 1.0]
18 [1.0584359, 1.0076865, 0.9104966, 0.33850938, 0.910477, 0.9997781, 1.0, 1.0]
19 [1.0395707, 1.0052149, 0.94335824, 0.5813728, 0.94334495, 0.9998596, 1.0, 1.0]
20 [1.0302762, 1.0042113, 1.0459559, 1.3394957, 1.0459458, 1.0001138, 1.0, 1.0]
21 [1.0228593, 1.0031928, 1.0399737, 1.295311, 1.039966, 1.0000991, 1.0, 1.0]
22 [0.21614826, 0.8939929, 1.0302603, 1.2255387, 1.0305233, 1.0000757, 1.0, 1.0]
23 [0.35656267, 0.9129774, 1.0228494, 1.1704308, 1.0230653, 1.0000572, 1.0, 1.0]
24 [0.5105928, 0.93380916, 1.0172694, 1.1288174, 1.0174335, 1.0000433, 1.0, 1.0]
25 [0.6299251, 0.94994843, 1.013052, 1.0973587, 1.0131761, 1.0000327, 1.0, 1.0]
26 [0.72057146, 0.96220815, 1.0098546, 1.0735086, 1.0099484, 1.0000247, 1.0, 1.0]
27 [0.78881174, 0.9711684, 0.8989025, 0.2535085, 0.89897335, 0.9997496, 1.0, 1.0]
28 [0.8567265, 0.98041457, 0.92111427, 0.41746384, 0.9211623, 0.99980456, 1.0, 1.0]
29 [0.89171624, 0.985187, 0.9360782, 0.5279463, 0.93611443, 0.99984163, 1.0, 1.0]
30 [0.9182427, 0.98881567, 0.9517092, 0.64337933, 0.9517366, 0.9998803, 1.0, 1.0]
31 [1.0, 0.9999152, 0.96578205, 0.7471615, 0.96578205, 0.9999152, 1.0, 1.0]
32 [0.9533928, 0.9936283, 0.9741229, 0.808908, 0.9741385, 0.9999359, 1.0, 1.0]
33 [0.964775, 0.99518436, 0.9804425, 0.85557574, 0.9804543, 0.99995154, 1.0, 1.0]
34 [0.97340417, 0.99636406, 0.9852335, 0.89095557, 0.9852424, 0.9999634, 1.0, 1.0]
35 [0.9798993, 0.997252, 0.98883975, 0.917586, 0.9888465, 0.99997234, 1.0, 1.0]
36 [1.0, 1.0, 1.0, 1.0, 1.0, 1.0002337, 1.0942593, 1.6964872]
37 [1.0, 0.9999842, 0.99363536, 0.95297146, 0.99363536, 1.0001807, 1.0792751, 1.5857688]
38 [1.0, 0.9999881, 0.9951897, 0.96445656, 0.9951897, 1.0001378, 1.0604036, 1.4463251]
39 [1.0, 0.999991, 0.9963681, 0.9731637, 0.9963681, 1.0001041, 1.045636, 1.3372077]
40 [1.0, 0.9999932, 0.9972551, 0.97971755, 0.9972551, 1.0000787, 1.0344929, 1.2548692]
41 [1.0, 1.0, 1.0, 1.0, 1.0, 1.0, 1.0, 1.0]
42 [1.0, 1.0, 1.0, 1.0, 1.0, 1.0000488, 1.019683, 1.1454388]
43 [1.0, 1.0, 1.0, 1.0, 1.0, 0.99976945, 0.9069872, 0.31272316]
44 [1.0, 1.0, 1.0, 1.0, 1.0, 0.9997966, 0.9179522, 0.39374417]
45 [1.0, 1.0, 1.0, 1.0, 1.0, 0.9998447, 0.9373372, 0.5369811]
46 [1.0, 1.0, 1.0, 1.0, 1.0, 0.9998825, 0.95259744, 0.64974]
47 [1.0, 1.0, 1.0, 1.0, 1.0, 0.9999112, 0.9641713, 0.73525983]
48 [1.0, 1.0, 1.0, 1.0, 1.0, 0.9999329, 0.9729211, 0.7999125]
49 [1.0, 1.0, 1.0, 1.0, 1.0, 0.99994934, 0.97955465, 0.8489282]
