0 [0.0, 0.0, 0.0, 0.0, 0.0, 0.0, 0.0, 0.0]
1 [0.0, 0.0, 0.0, 0.0, 0.0, 0.0, 0.0, 0.0]
2 [0.5, 0.5, 0.5, 0.5, 0.5, 0.5, 0.0, 0.875]
3 [0.0, 0.0, 0.0, 0.0, 0.0, 0.0, 0.0, 0.0]
4 [0.0, 0.0, 0.0, 0.375, 0.85714287, 0.85714287, 0.0, 0.875]
5 [0.0, 0.0, 0.0, 0.0, 0.0, 0.0, 0.0, 0.0]
6 [0.0, 0.0, 0.0, 0.0, 0.0, 0.0, 0.0, 0.0]
7 [0.99450547, 0.016483517, 0.016483517, 0.5, 0.5, 0.0, 0.0, 0.5]
8 [0.0, 0.0, 0.0, 0.0, 0.0, 0.0, 0.0, 0.0]
9 [0.9285714, 0.071428575, 0.0, 0.375, 0.375, 0.0, 0.071428575, 0.9285714]
10 [0.5, 0.5, 0.75, 0.75, 0.75, 0.0, 0.0, 0.875]
11 [0.0, 0.0, 0.0, 0.0, 0.0, 0.0, 0.0, 0.0]
12 [0.85714287, 0.85714287, 0.85714287, 0.85714287, 0.375, 0.0, 0.0, 0.875]
13 [0.0, 0.0, 0.0, 0.0, 0.0, 0.0, 0.0, 0.0]
14 [0.93333334, 0.93333334, 0.2, 0.93333334, 0.2, 0.0, 0.0, 0.93333334]
15 [0.0, 0.0, 0.0, 0.0, 0.0, 0.0, 0.0, 0.0]
16 [0.0, 0.0, 0.0, 0.0, 0.0, 0.0, 0.0, 0.0]
17 [0.22222222, 0.22222222, 0.0, 0.9777778, 0.375, 0.0, 0.0, 0.9777778]
18 [0.0, 0.0, 0.0, 0.0, 0.0, 0.0, 0.0, 0.0]
19 [0.0, 0.0, 0.0, 0.0, 0.0, 0.0, 0.0, 0.0]
20 [0.027472528, 0.027472528, 0.0, 0.375, 0.375, 0.0, 0.0, 0.99450547]
21 [0.0, 0.0, 0.0, 0.0, 0.0, 0.0, 0.0, 0.0]
22 [0.027472528, 0.99450547, 0.0, 0.375, 0.375, 0.0, 0.0, 0.875]
23 [0.98333335, 0.1, 0.0, 0.375, 0.375, 0.0, 0.0, 0.98333335]
24 [0.0, 0.0, 0.0, 0.0, 0.0, 0.0, 0.0, 0.0]
25 [0.9722222, 0.25, 0.0, 0.375, 0.375, 0.0, 0.0, 0.9722222]
26 [0.0, 0.0, 0.0, 0.0, 0.0, 0.0, 0.0, 0.0]
27 [0.0, 0.0, 0.0, 0.0, 0.0, 0.0, 0.0, 0.0]
28 [0.26666668, 0.26666668, 0.0, 0.375, 0.375, 0.0, 0.0, 0.96666664]
29 [0.0, 0.0, 0.0, 0.0, 0.0, 0.0, 0.0, 0.0]
30 [0.9777778, 0.044444446, 0.0, 0.375, 0.375, 0.0, 0.9777778, 0.875]
31 [0.0, 0.0, 0.0, 0.0, 0.0, 0.0, 0.0, 0.0]
32 [0.0, 0.0, 0.0, 0.0, 0.0, 0.0, 0.0, 0.0]
33 [0.9, 0.3, 0.0, 0.375, 0.375, 0.9, 0.9, 0.875]
34 [0.0, 0.0, 0.0, 0.0, 0.0, 0.0, 0.0, 0.0]
35 [0.0, 0.0, 0.0, 0.0, 0.0, 0.0, 0.0, 0.0]
36 [0.9444444, 0.9444444, 0.0, 0.0, 0.9444444, 0.0, 0.0, 0.9444444]
37 [0.0, 0.0, 0.0, 0.0, 0.0, 0.0, 0.0, 0.0]
38 [0.0, 0.0, 0.0, 0.375, 0.375, 0.0, 0.0, 0.875]
39 [0.0, 0.0, 0.0, 0.75, 0.75, 0.0, 0.0, 0.0]
40 [0.98333335, 0.0, 0.0, 0.0, 0.31666666, 0.0, 0.0, 0.98333335]
41 [0.0, 0.0, 0.0, 0.75, 0.75, 0.0, 0.0, 0.0]
42 [0.9722222, 0.027777778, 0.027777778, 0.027777778, 0.027777778, 0.027777778, 0.027777778, 0.027777778]
43 [0.0, 0.0, 0.6666667, 0.6666667, 0.6666667, 0.6666667, 0.0, 0.0]
44 [0.0, 0.0, 0.0, 0.875, 0.875, 0.0, 0.0, 0.0]
45 [0.9, 0.2, 0.9, 0.9, 0.9, 0.0, 0.0, 0.2]
46 [0.0, 0.0, 0.0, 0.75, 0.75, 0.0, 0.0, 0.0]
47 [0.0, 0.0, 0.0, 0.5, 0.5, 0.5, 0.0, 0.0]
48 [0.8333333, 0.33333334, 0.33333334, 0.8333333, 0.8333333, 0.0, 0.0, 0.0]
49 [0.0, 0.0, 0.0, 0.5, 0.5, 0.5, 0.0, 0.0]
