0.0 0.0
-6.898978E-4 1.13987035E-5
-0.0019458241 1.0078322E-5
-0.001782349 1.14565155E-5
-0.001782349 1.14565155E-5
-0.001626952 1.252737E-5
2.9675118E-4 3.7240952E-5
2.9675118E-4 3.7240952E-5
0.004090293 6.122618E-5
0.007837542 -1.4339753E-4
0.013406411 -2.6300256E-4
0.013406411 -2.6300256E-4
0.022461465 -2.1783347E-4
0.034687612 2.2476944E-4
0.034687612 2.2476944E-4
0.047756616 9.862774E-4
0.061161537 0.0018902188
0.07432566 0.0026497808
0.07432566 0.0026497808
0.089173324 0.0035093906
0.10614908 0.0045241034
0.124573365 0.0058833165
0.124573365 0.0058833165
0.14294127 0.007037934
0.16160224 0.00812819
0.16160224 0.00812819
0.1949526 0.009847778
0.1949526 0.009847778
0.21062791 0.010317301
0.22603591 0.010206295
0.22603591 0.010206295
0.26206547 0.008611403
0.26206547 0.008611403
0.29638582 0.006461949
0.30870128 0.0055733435
0.32235426 0.00460885
0.32373688 0.0045241285
0.32388684 0.0045261784
0.3258352 0.004019733
0.33848196 0.0020225148
0.3434256 0.0010325791
0.34762925 -4.0210853E-4
0.34829214 -7.49678E-4
0.34929365 -9.161529E-4
0.35898376 -0.0013557425
0.36847058 -0.0013035717
0.38179153 -0.0010492522
0.38539776 -8.636022E-4
0.40135106 1.11425645E-4
0.41289082 8.858357E-4
0.44275054 0.00386129
0.45924798 0.006359537
0.45924798 0.006359537
0.4995122 0.013486381
0.5107531 0.0153732505
0.52428603 0.017304124
0.5305246 0.017933866
0.5442722 0.018873857
0.55241525 0.020010231
0.5685563 0.02284849
0.57738245 0.025657535
0.5933672 0.03299157
0.5999153 0.036841277
0.60633266 0.041013207
0.6222025 0.054207712
0.62963074 0.061980285
0.6468495 0.08396611
0.65603864 0.097667344
0.67484456 0.12918214
0.68415105 0.14607997
0.70247555 0.1795534
0.711693 0.19628648
0.7312433 0.23197916
0.7423862 0.2514866
0.75346124 0.2700237
0.7743003 0.30276078
0.7828618 0.3158242
0.79434997 0.33296043
0.79792595 0.3388123
0.81024665 0.35685605
0.8195058 0.37068674
0.8356554 0.39475834
0.8406823 0.40222988
0.8436943 0.40655917
0.84516513 0.4083655
0.84551734 0.40920812
0.845236 0.40973848
0.84481144 0.40972486
0.8438864 0.41002804
0.8446984 0.4117455
0.8525445 0.42405444
0.8584857 0.43327275
0.87154543 0.45374662
0.88023615 0.46672702
0.88985986 0.47983497
0.9105485 0.5053474
0.91846687 0.5145555
0.9374093 0.5364141
0.94932586 0.5498293
0.95956403 0.5614683
0.96696395 0.56991845
0.97418463 0.5788192
0.97602284 0.5810379
0.9772172 0.5830155
0.98388034 0.59120125
0.98388034 0.59120125
0.99624616 0.6043583
1.004156 0.6125456
1.0261477 0.6321572
1.038946 0.6418015
1.0595627 0.65651906
1.0693841 0.6626587
1.0970252 0.67948765
1.1089736 0.68658125
1.119716 0.6926283
1.1449615 0.705716
1.1553112 0.7109429
1.1825017 0.7238413
1.1978118 0.7304523
1.220504 0.73991865
1.2265947 0.7425311
1.242913 0.7489861
1.2562535 0.753534
1.2718344 0.75815
1.2957629 0.7645668
1.3049862 0.76648885
1.3258349 0.7704455
1.341147 0.7731506
1.3807967 0.78012574
1.3975213 0.7822765
1.3975213 0.7822765
