0 [0.0, 0.0, 0.0, 0.0, 0.0, 0.0, 0.0, 0.0]
1 [0.0, 0.0, 0.0, 0.0, 0.0, 0.0, 0.0, 0.0]
2 [0.0, 0.0, 0.0, 0.0, 0.0, 0.0, 0.0, 0.0]
3 [0.04128572, 0.04128572, 0.025714288, 0.08328572, 0.08328572, 0.025714288, 0.025714288, 0.06128571]
4 [0.54168683, 0.54168683, 0.5263132, 0.5836868, 0.5836868, 0.5263132, 0.02531319, 0.9366868]
5 [0.041686818, 0.041686818, 0.026313188, 0.08368681, 0.08368681, 0.026313188, 0.02531319, 0.06168681]
6 [0.04155495, 0.04155495, 0.026445055, 0.45855495, 0.9406978, 0.8825879, 0.025445057, 0.93655497]
7 [0.04155495, 0.04155495, 0.026445055, 0.083554946, 0.083554946, 0.025445057, 0.025445057, 0.061554942]
8 [0.041500006, 0.041500006, 0.026500002, 0.0835, 0.0835, 0.025500001, 0.025500001, 0.061499998]
9 [1.0357912, 0.05777901, 0.04507716, 0.8773724, 0.623086, 0.025718637, 0.025714288, 0.56128573]
10 [0.04128572, 0.041294944, 0.028032038, 0.13875492, 0.090792656, 0.025724381, 0.027468894, 0.09218535]
11 [0.968945, 0.1118217, 0.028500317, 0.6967442, 0.49063358, 0.026636967, 0.1068931, 1.6492592]
12 [0.53934616, 0.53941745, 0.81925875, 1.2186049, 1.2979543, 0.027412202, 0.026394827, 1.4252746]
13 [0.039346162, 0.03935009, 0.02877379, 0.11566202, 0.14221238, 0.027972102, 0.02597418, 0.086914845]
14 [0.88674724, 0.89660615, 0.91183335, 1.2196405, 0.7125144, 0.02634204, 0.024560144, 1.2192357]
15 [0.029604394, 0.039398585, 0.02844949, 0.10932352, 0.13089608, 0.02634204, 0.024560144, 0.08357867]
16 [0.96441025, 0.9723118, 0.23334895, 1.2442613, 0.40375075, 0.02536417, 0.022751864, 1.2240113]
17 [0.031456042, 0.03853656, 0.026254196, 0.03935446, 0.10168915, 0.024342494, 0.022944216, 0.0760266]
18 [0.037421927, 0.03952482, 0.025937764, 0.03159926, 0.09495907, 0.024118831, 0.020725004, 0.028176205]
19 [0.4273196, 0.28592902, 0.02576895, 0.54554856, 0.5022797, 0.023146564, 0.01883303, 0.35981688]
20 [0.047660086, 0.04228048, 0.02622421, 0.04591903, 0.032240786, 0.020910744, 0.01976922, 0.045185834]
21 [0.043937877, 0.042355772, 0.026821846, 0.052787922, 0.026275435, 0.020889994, 0.021781834, 0.08491893]
22 [0.07693758, 0.06942485, 0.02707549, 0.32740065, 0.21247058, 0.021330588, 0.022683745, 1.3361657]
23 [0.03833245, 0.040362418, 0.027278451, 0.06653603, 0.050410554, 0.02171294, 0.022499869, 0.075779505]
24 [0.0782651, 1.0596294, 0.027745599, 0.38406584, 0.31895348, 0.022311335, 0.021659631, 1.0791026]
25 [1.1628889, 0.14192174, 0.027304085, 0.40305048, 0.35325405, 0.021985423, 0.021994358, 1.1635258]
26 [0.011946001, 0.035632245, 0.027383426, 0.077315554, 0.07035074, 0.022150509, 0.02191201, 0.065566786]
27 [0.4309208, 0.26763153, 0.027614143, 0.42749554, 0.39908993, 0.023419844, 0.022016807, 1.0989861]
28 [0.02206896, 0.037801016, 0.027665406, 0.08060414, 0.07663044, 0.023512192, 0.01960677, 0.014763385]
29 [0.027195357, 0.038770255, 0.026303766, 0.08211419, 0.07909962, 0.023185669, 0.020551872, 0.022181937]
30 [0.23166342, 0.29819077, 0.02497884, 0.4458525, 0.43455076, 0.022887815, 0.021600885, 0.54503167]
31 [0.034036662, 0.040870015, 0.02505851, 0.08446958, 0.082425945, 0.022930289, 0.022029594, 0.038137928]
32 [0.876721, 0.084160276, 0.024630694, 0.45936814, 0.45936814, 0.026629638, 0.97148484, 0.69990677]
33 [0.0395973, 0.04076612, 0.024630789, 0.084101744, 0.08239979, 0.026546093, 0.026926983, 0.046557955]
34 [0.9558736, 0.34087363, 0.015126378, 0.46887362, 0.46787363, 0.9210823, 0.905334, 1.452855]
35 [0.05244523, 0.04053421, 0.015126067, 0.09387363, 0.092873625, 0.02112561, 0.022789827, 0.731047]
36 [0.04402395, 0.030969242, 0.024834784, 0.084164836, 0.08316483, 0.030834323, 0.032474026, 0.050681688]
37 [0.95703435, 0.9615102, 0.02464806, 0.08435165, 1.0267961, 0.0316477, 0.034360338, 0.9365102]
38 [0.046098568, 0.02157082, 0.024648128, 0.08435165, 0.08235165, 0.03164786, 0.034430895, 0.050877478]
39 [0.04640459, 0.021589754, 0.024648182, 0.45935166, 0.45735165, 0.03164798, 0.034484, 0.8958136]
40 [0.04762088, 0.02237912, 0.083620876, 0.8336209, 0.83262086, 0.032379124, 0.03637912, 0.05062088]
41 [1.0314213, 0.02191209, 0.084087916, 0.084087916, 0.39975458, 0.031911876, 0.035814885, 1.0117723]
42 [0.048087914, 0.02191209, 0.084087916, 0.8340879, 0.8330879, 0.031912092, 0.03591209, 0.04908791]
43 [1.020453, 0.049547013, 0.11200855, 0.11200855, 0.110008545, 0.060547017, 0.06454701, 0.077008545]
44 [0.046565935, 0.022434069, 0.083565935, 0.95856595, 0.95856595, 0.03043406, 0.03343407, 0.047565937]
45 [0.944467, 0.22446704, 0.92453295, 0.984467, 0.983467, 0.028532965, 0.029532965, 0.24546704]
46 [0.044467036, 0.024467032, 0.02453297, 0.83446705, 0.833467, 0.028532965, 0.029532965, 0.045467034]
47 [0.04170329, 0.0317033, 0.026296703, 0.5847033, 0.5847033, 0.5252967, 0.024296705, 0.024296705]
48 [0.87141573, 0.36941576, 0.36125094, 0.91741574, 0.91741574, 0.023917586, 0.022917587, 0.020917576]
49 [0.038082413, 0.036082417, 0.027917583, 0.5840824, 0.5840824, 0.52391756, 0.022917587, 0.020917576]
