1.3703649E-11 4.5766E-41
-0.10000025 0.07500021
-0.10000025 0.07500021
-0.10000025 0.07500021
-0.10000025 0.07500021
-0.10000025 0.07500021
-0.10000025 0.07500021
-0.09992863 0.07516552
-0.1000127 0.07491121
-0.1000127 0.07491121
-0.09992901 0.076223396
-0.09992901 0.076223396
-0.10172316 0.07696695
-0.1069933 0.077101514
-0.1069933 0.077101514
-0.11351577 0.077167556
-0.11833389 0.07756163
-0.12310368 0.078073815
-0.12752809 0.07875257
-0.13219076 0.07916476
-0.13856201 0.078800626
-0.13856201 0.078800626
-0.1441889 0.07843948
-0.14797887 0.07816365
-0.14797887 0.07816365
-0.15193251 0.07766398
-0.15561363 0.07728006
-0.15561363 0.07728006
-0.16220738 0.07703771
-0.16464502 0.07855552
-0.1649447 0.07926293
-0.16556069 0.079510234
-0.17198463 0.07659145
-0.17198463 0.07659145
-0.1736323 0.07541333
-0.1736323 0.07541333
-0.17387737 0.0752971
-0.17739311 0.074525855
-0.17739311 0.074525855
-0.19044226 0.06914292
-0.2010858 0.06402843
-0.21736982 0.056015156
-0.2205976 0.05454901
-0.22194684 0.053983875
-0.22194108 0.054011893
-0.2237372 0.05291756
-0.23365271 0.046387028
-0.2354945 0.045193885
-0.2354945 0.045193885
-0.23604468 0.04486087
-0.23723581 0.044376813
-0.23626228 0.046239525
-0.23626228 0.046239525
-0.23586226 0.047814634
-0.23640975 0.04855274
-0.23724246 0.049541004
-0.24178037 0.049988393
-0.24423103 0.050680973
-0.24721524 0.052088737
-0.247999 0.052633457
-0.24936013 0.052015685
-0.25297138 0.0500518
-0.25522444 0.048947334
-0.26151204 0.04578323
-0.26517412 0.042737976
-0.26838613 0.03938019
-0.27624345 0.026297828
-0.28130183 0.015185123
-0.29093936 -0.0134759145
-0.29524755 -0.030203953
-0.30230206 -0.06360421
-0.30517736 -0.07770012
-0.31283766 -0.11099784
-0.31699282 -0.12843981
-0.31699282 -0.12843981
-0.3292617 -0.18035051
-0.33546093 -0.20567568
-0.33546093 -0.20567568
-0.3382191 -0.21965814
-0.34028453 -0.2273597
-0.34028453 -0.2273597
-0.34326032 -0.2360299
-0.34696308 -0.24408571
-0.35052127 -0.25102526
-0.35052127 -0.25102526
-0.35382265 -0.25680664
-0.35668302 -0.2614928
-0.35668302 -0.2614928
-0.35660943 -0.26504052
-0.35660943 -0.26504052
-0.35631973 -0.2665058
-0.35631973 -0.2665058
-0.35805655 -0.26951787
-0.36172503 -0.2737149
-0.36779547 -0.27918336
-0.36779547 -0.27918336
-0.37522233 -0.28518987
-0.3836551 -0.2915694
-0.392995 -0.29815918
-0.392995 -0.29815918
-0.4028574 -0.3044706
-0.41320047 -0.31013006
-0.42258137 -0.31463447
-0.42258137 -0.31463447
-0.42903167 -0.31803286
-0.4363776 -0.32121927
-0.4450794 -0.32443303
-0.4450794 -0.32443303
-0.4524569 -0.32727888
-0.46059594 -0.32991427
-0.46983233 -0.33235016
-0.46983233 -0.33235016
-0.46983233 -0.33235016
-0.4778583 -0.33439705
-0.4847591 -0.335934
-0.49752873 -0.33831114
-0.49752873 -0.33831114
-0.51032156 -0.34113356
-0.51032156 -0.34113356
-0.5168322 -0.34217554
-0.5241614 -0.34234467
-0.5321082 -0.3413959
-0.5402575 -0.33938524
-0.54838765 -0.33655643
-0.5668627 -0.32770404
-0.5668627 -0.32770404
-0.58382297 -0.315468
-0.59216726 -0.3076919
-0.6004094 -0.29852718
-0.6121748 -0.28454748
-0.6153932 -0.2810888
-0.61973596 -0.27624133
-0.6220495 -0.27266258
-0.62768286 -0.26456976
-0.62908995 -0.26371533
-0.63171333 -0.26401433
-0.6332538 -0.264357
-0.6355412 -0.26363134
-0.64090085 -0.25798112
-0.64385575 -0.25477856
-0.65002453 -0.24780063
-0.65323925 -0.24410565
-0.6600188 -0.23678696
-0.6637111 -0.23303995
-0.6705424 -0.22571766
-0.6723259 -0.22121274
-0.672501 -0.21574235
-0.66813046 -0.20327823
-0.6640869 -0.19700691
-0.6534779 -0.1844655
-0.6473628 -0.17926726
-0.6381295 -0.1711349
-0.63329494 -0.16747716
-0.621075 -0.16197947
-0.6147974 -0.15963744
-0.59886324 -0.15744732
-0.59067404 -0.15797758
-0.58253366 -0.15949087
-0.5658926 -0.1646875
-0.55738235 -0.16808298
-0.5415575 -0.17675343
-0.5346892 -0.18230426
-0.5221551 -0.19600844
-0.5171987 -0.20304962
-0.51036495 -0.2121804
-0.5069004 -0.21709104
-0.49988574 -0.2263257
-0.49624443 -0.23039591
-0.4924295 -0.23419134
-0.48428854 -0.24079123
-0.47992176 -0.2434727
-0.4693466 -0.24818821
-0.46334687 -0.25087672
-0.45026192 -0.25851297
-0.44396073 -0.26397556
-0.43188024 -0.27718243
-0.4266953 -0.28445014
-0.42314973 -0.2918623
-0.42137814 -0.3058419
-0.42302662 -0.31133717
-0.43000174 -0.31919488
-0.43384925 -0.32298917
-0.44377622 -0.33053088
-0.44981664 -0.33388123
-0.46331382 -0.33914185
-0.47010398 -0.34127203
-0.4837533 -0.34485257
-0.4905416 -0.34618896
-0.49698788 -0.34719342
-0.50688136 -0.34569642
-0.51071656 -0.3442188
-0.51225406 -0.33822575
-0.5090861 -0.3337478
-0.49492174 -0.32383943
-0.4870192 -0.31975836
-0.4696343 -0.31260815
-0.46012473 -0.30930826
-0.45049682 -0.30642053
-0.43105143 -0.30177084
-0.42039204 -0.3006007
-0.39907044 -0.30224174
-0.38911378 -0.304758
-0.370932 -0.31275743
-0.36326653 -0.31741804
-0.34988615 -0.32752025
-0.34220785 -0.3353216
-0.32688567 -0.355443
-0.32048944 -0.36522987
-0.31605002 -0.37164885
-0.31131572 -0.37836775
-0.309844 -0.3808614
-0.3053744 -0.39053947
-0.30248666 -0.39635485
-0.2964579 -0.40843076
-0.29363453 -0.41353512
-0.28900316 -0.42323217
-0.28660825 -0.43163395
-0.28249812 -0.45206183
-0.2809245 -0.4630951
-0.27952132 -0.47450882
-0.27790043 -0.49719024
-0.27755895 -0.5079917
-0.27764615 -0.5275745
-0.27792722 -0.53648174
-0.2797822 -0.553302
-0.2816078 -0.5609844
-0.28496107 -0.5728891
-0.28545225 -0.5779242
-0.28654772 -0.58323926
-0.2872497 -0.5949634
-0.28918573 -0.600904
-0.2967645 -0.6104047
-0.30083114 -0.6139068
-0.30868226 -0.6189538
-0.3126999 -0.6209498
-0.32193667 -0.6243001
-0.32629815 -0.6253716
-0.33412856 -0.6267105
-0.33733067 -0.6270781
-0.3401228 -0.62736285
-0.34454775 -0.62753564
-0.34681007 -0.62944776
-0.35258716 -0.6346657
-0.35258716 -0.6346657
-0.36649933 -0.6442853
-0.37250924 -0.6473775
-0.38416463 -0.65260774
-0.3907327 -0.6549157
-0.3982428 -0.65677154
-0.41509867 -0.6589893
-0.42356125 -0.6595691
-0.43636417 -0.6571851
-0.44150177 -0.6555267
-0.45026088 -0.6522869
-0.45577583 -0.65081364
-0.4679335 -0.6471193
-0.47231755 -0.64509183
-0.47844213 -0.64154625
-0.4777883 -0.64062655
-0.4746109 -0.64023995
-0.46043935 -0.6413535
-0.44937354 -0.6429512
-0.41846055 -0.6500713
-0.4051916 -0.65341717
-0.39149985 -0.6569344
-0.38851517 -0.6581284
-0.38395846 -0.6593875
-0.38243544 -0.65949947
-0.37944716 -0.6603702
-0.36315414 -0.6663381
-0.3497633 -0.6715807
-0.32168224 -0.6822728
-0.31233448 -0.68581367
-0.29662547 -0.6913029
-0.2904592 -0.69317204
-0.2849366 -0.6930627
-0.28277245 -0.69210255
-0.28111428 -0.69062614
-0.27869362 -0.6846804
-0.27792948 -0.680395
-0.27720204 -0.6714577
-0.27706093 -0.6671395
-0.2766659 -0.6604778
-0.27577156 -0.6585866
-0.27292836 -0.65422577
-0.27079037 -0.6519562
-0.26536983 -0.65197337
-0.26536983 -0.65197337
-0.2584433 -0.6680334
-0.25681394 -0.67689157
-0.25558513 -0.6869662
-0.25491723 -0.7087219
-0.2555218 -0.7199594
-0.25906488 -0.74199826
-0.26183373 -0.7521858
-0.26933643 -0.76945096
-0.27411988 -0.7774929
-0.28914404 -0.7929028
-0.2988264 -0.79900706
-0.3091241 -0.80355674
-0.32545918 -0.81008804
-0.33542165 -0.812072
-0.35545927 -0.8127077
-0.36503577 -0.81123763
-0.38377 -0.8051567
-0.39314514 -0.800234
-0.41146213 -0.7876028
-0.41146213 -0.7876028
-0.42942443 -0.7738154
-0.4357214 -0.768597
-0.44180313 -0.7636782
-0.4518489 -0.7548669
-0.4564546 -0.74914396
-0.46629056 -0.73047125
-0.47052693 -0.71857464
-0.47761887 -0.691064
-0.4805471 -0.67818564
-0.48437247 -0.66029763
-0.4855516 -0.65341306
-0.4855516 -0.65341306
-0.48724812 -0.6387541
-0.48783064 -0.634133
-0.48940128 -0.6243999
-0.4903124 -0.6198009
-0.49123487 -0.6124699
-0.49123782 -0.60954595
-0.49040437 -0.6050014
-0.4900906 -0.6040239
-0.48977986 -0.603515
-0.4892888 -0.60319555
-0.48811325 -0.60180163
-0.48267 -0.59191144
-0.4775632 -0.5829443
-0.46691912 -0.5641264
-0.4629003 -0.55756164
-0.4556389 -0.546744
-0.45316657 -0.54373777
-0.4480123 -0.5365857
-0.44517875 -0.53283393
-0.43946066 -0.5261306
-0.43720275 -0.5235303
-0.4354865 -0.52136976
-0.4333611 -0.51776993
-0.4328789 -0.51636016
-0.43166822 -0.51398003
-0.43080172 -0.51258475
-0.42981538 -0.5104219
-0.42905673 -0.5092668
-0.4276883 -0.5070098
-0.42735252 -0.505283
-0.42719072 -0.50151247
-0.42836827 -0.48603982
-0.42943627 -0.47741884
-0.4298481 -0.4705237
-0.42991066 -0.46992597
-0.42980295 -0.4692804
-0.4293669 -0.468561
-0.42761105 -0.46641254
-0.4262573 -0.46515998
-0.42203826 -0.46374288
-0.41880172 -0.4641467
-0.41483378 -0.46523085
-0.41057292 -0.46719536
-0.40087852 -0.47194153
-0.38895744 -0.47719175
-0.38325086 -0.47954005
-0.3733456 -0.48348603
-0.36789638 -0.48526344
-0.35553855 -0.48774767
-0.34955555 -0.4885921
-0.34548753 -0.48870692
-0.33898816 -0.4873739
-0.33558398 -0.4860882
-0.3291598 -0.48171368
-0.3262989 -0.4787499
-0.32125205 -0.4705608
-0.31921372 -0.46556824
-0.31232923 -0.45309243
-0.30915567 -0.44648528
-0.30320194 -0.43295893
-0.30062205 -0.4250968
-0.29727614 -0.4148241
-0.29099712 -0.39130548
-0.28886747 -0.3794088
-0.28820425 -0.36118835
-0.28979388 -0.35615516
-0.29492337 -0.3543634
-0.2973004 -0.35577327
-0.3019276 -0.3606144
-0.30450714 -0.36386833
-0.3094566 -0.37319636
-0.310975 -0.37950015
-0.31149143 -0.3860082
-0.31006417 -0.39927137
-0.30772546 -0.4069596
-0.2974767 -0.42839795
-0.29002586 -0.44037905
-0.2776476 -0.45823175
-0.27113336 -0.46613097
-0.25127706 -0.48843074
-0.24210486 -0.498192
-0.23584731 -0.5047766
-0.22879227 -0.5121208
-0.22545965 -0.5157312
-0.21913111 -0.5237812
-0.21758775 -0.52691275
-0.21650371 -0.53111607
-0.21338472 -0.5347802
-0.20495322 -0.54331154
-0.20040631 -0.5479382
-0.19073407 -0.55747545
-0.18590507 -0.56222063
-0.18163237 -0.56671137
-0.1764282 -0.57593036
-0.17653058 -0.58050627
-0.1727487 -0.5884226
-0.16988608 -0.5922672
-0.16279896 -0.60021365
-0.15890558 -0.6046368
-0.15089487 -0.6138192
-0.14693275 -0.6181187
-0.14301534 -0.621837
-0.13542649 -0.6281221
-0.13179204 -0.63074267
-0.1253157 -0.63537794
-0.122662865 -0.6374382
-0.11924811 -0.63628787
-0.11846785 -0.6335795
-0.11869601 -0.6271757
-0.11954416 -0.6240026
-0.1199285 -0.6221219
-0.11998441 -0.62168306
-0.119802535 -0.62095225
-0.117844716 -0.62035286
-0.11597361 -0.62165904
-0.11370214 -0.6238222
-0.11383712 -0.62324905
-0.11755021 -0.61637485
-0.12117821 -0.60973597
-0.1256367 -0.6017748
-0.12714842 -0.6001298
-0.1298619 -0.5957831
-0.14059998 -0.57713526
-0.14702585 -0.5665535
-0.15411355 -0.5550982
-0.15489586 -0.55398256
-0.1547778 -0.5536555
-0.15356943 -0.55473995
-0.15216985 -0.5551435
-0.15366915 -0.5518955
-0.15829805 -0.5427352
-0.1600959 -0.5385171
-0.1614575 -0.5354361
-0.16282128 -0.5324721
-0.16283433 -0.53241146
-0.16315371 -0.5320531
-0.16369572 -0.5309797
-0.16470261 -0.5273407
-0.16501561 -0.5254348
-0.1650702 -0.5235824
-0.16501027 -0.52355427
-0.16607963 -0.52195156
-0.16665764 -0.52031124
-0.16729604 -0.5184357
-0.1684075 -0.51495117
-0.16880809 -0.5141388
-0.16929041 -0.5134492
-0.16972767 -0.51224643
-0.17527631 -0.50628585
-0.17984556 -0.5023807
-0.18539304 -0.4977352
-0.18840864 -0.49503484
-0.19172844 -0.49182057
-0.2029858 -0.4821537
-0.20747736 -0.4786687
-0.21722789 -0.47119093
-0.22604091 -0.46576533
-0.24558592 -0.45444974
-0.2518723 -0.4506937
-0.26937076 -0.44224066
-0.27876008 -0.4383542
-0.28879023 -0.43376154
-0.29184276 -0.43234086
-0.2961262 -0.43086642
-0.31361014 -0.42697915
-0.3272411 -0.42504328
-0.35976845 -0.42300415
-0.35976845 -0.42300415
-0.41144162 -0.4222508
-0.42383724 -0.4221413
-0.43758073 -0.4216941
-0.43758073 -0.4216941
-0.44158643 -0.42082912
-0.4451906 -0.4208157
-0.4451906 -0.4208157
-0.46116424 -0.4201928
-0.46699184 -0.4197952
-0.47832355 -0.41840863
-0.48348838 -0.41722226
-0.49093705 -0.41344556
-0.49222574 -0.41037717
-0.49392933 -0.4027632
-0.49498573 -0.39796442
-0.4961683 -0.39261168
-0.4999937 -0.3799929
-0.50351876 -0.37425932
-0.5132135 -0.37148643
-0.51792896 -0.37355858
-0.5251182 -0.3818852
-0.52686465 -0.38878936
-0.5274758 -0.40653762
-0.5266307 -0.41639772
-0.5229856 -0.43437615
-0.5186604 -0.44346485
-0.51244986 -0.4530159
-0.50021183 -0.46888986
-0.49412447 -0.47499952
-0.48161727 -0.4842228
-0.4751513 -0.4875651
-0.4570807 -0.49232277
-0.44598722 -0.49337426
-0.41994318 -0.49237233
-0.40637764 -0.490479
-0.39288208 -0.48789817
-0.36628813 -0.4815421
-0.36628813 -0.4815421
-0.3391803 -0.47372818
-0.30795968 -0.46561235
-0.27681613 -0.45997626
-0.27681613 -0.45997626
-0.25819927 -0.45730868
-0.25819927 -0.45730868
-0.24600871 -0.45523363
-0.2417697 -0.45406207
-0.2412068 -0.45315513
-0.24114855 -0.45106903
-0.2392724 -0.44976887
-0.23746498 -0.44849235
-0.2373604 -0.4483172
-0.23665507 -0.44728404
-0.2366058 -0.44697848
-0.23712978 -0.44619685
-0.23705216 -0.4451653
-0.23682082 -0.44185057
-0.2356716 -0.4401404
-0.23253691 -0.43903947
-0.21928847 -0.43952435
-0.2100087 -0.44138074
-0.18845204 -0.44764933
-0.17671727 -0.4518148
-0.15441875 -0.4623836
-0.1453666 -0.46748537
-0.13371271 -0.4740449
-0.12967719 -0.47567287
-0.12486658 -0.47829294
-0.112314545 -0.48897165
-0.10641132 -0.49570617
-0.09768109 -0.5069845
-0.094087675 -0.5119587
-0.08623998 -0.5224403
-0.08240243 -0.5277412
-0.07471462 -0.53779924
-0.07118265 -0.5423946
-0.06624503 -0.5520426
-0.06535572 -0.55917716
-0.06555055 -0.5675957
-0.06981401 -0.5862861
-0.07336044 -0.5964321
-0.08217766 -0.61704355
-0.08864257 -0.6281492
-0.10663891 -0.6488869
-0.11726923 -0.6575602
-0.13470481 -0.66993576
-0.14362308 -0.67483914
-0.15337306 -0.6792232
-0.17475869 -0.6867181
-0.18610676 -0.6899215
-0.20870046 -0.6932663
-0.22126901 -0.6934765
-0.24847189 -0.69155777
-0.25967103 -0.69034636
-0.2811851 -0.6865171
-0.29208326 -0.6840993
-0.3044053 -0.6816966
-0.310605 -0.68002903
-0.3183223 -0.6773292
-0.34085763 -0.66852105
-0.35094625 -0.6641265
-0.36841202 -0.65560114
-0.37442446 -0.6523107
-0.37989086 -0.64863855
-0.38469902 -0.645968
-0.3955943 -0.64032596
-0.39841488 -0.63866365
-0.40180922 -0.63652146
-0.40434107 -0.6350275
-0.406886 -0.63366866
-0.41158214 -0.6317321
-0.4172182 -0.63022536
-0.42343417 -0.62836105
-0.42367348 -0.62822723
-0.42364517 -0.62822676
-0.42363873 -0.62822825
-0.42363185 -0.6282326
-0.42361617 -0.6282368
-0.4236259 -0.62823766
-0.4306305 -0.6268111
-0.4394122 -0.62506574
-0.4662965 -0.6210768
-0.48077732 -0.6191369
-0.5102325 -0.61424243
-0.52496994 -0.6116698
-0.55387914 -0.6072256
-0.56790566 -0.60545474
-0.5937545 -0.60396343
-0.6054165 -0.60457885
-0.6054165 -0.60457885
-0.61860716 -0.6065246
-0.64852464 -0.613706
-0.64852464 -0.613706
-0.6638974 -0.61838907
-0.6894676 -0.62752324
-0.7000922 -0.6324791
-0.71734315 -0.64222515
-0.72599185 -0.6479169
-0.733552 -0.65279406
-0.74737906 -0.66376865
-0.74737906 -0.66376865
-0.75394183 -0.67026126
-0.7600876 -0.67728716
-0.76627827 -0.6863392
-0.76627827 -0.6863392
-0.77231246 -0.6972773
-0.7774994 -0.7074224
-0.7816534 -0.71633935
-0.7816534 -0.71633935
-0.78529143 -0.7257561
-0.78821653 -0.73602426
-0.78821653 -0.73602426
-0.7901512 -0.74654794
-0.7913641 -0.75728655
-0.79240125 -0.7664303
-0.79240125 -0.7664303
-0.7930622 -0.7750124
-0.79336375 -0.7839712
-0.79336375 -0.7839712
-0.79335445 -0.7926973
-0.792868 -0.8014122
-0.7922276 -0.8086465
-0.7922276 -0.8086465
-0.78997797 -0.8211622
-0.78825295 -0.82675266
-0.7847825 -0.8350755
-0.78437567 -0.83639985
-0.784478 -0.8359043
-0.7845928 -0.8346821
-0.78473157 -0.83274764
-0.7853273 -0.8266918
-0.7856878 -0.82299614
-0.7858989 -0.81755716
-0.7844192 -0.8182639
-0.78037775 -0.82121676
-0.77757263 -0.82387525
-0.7715899 -0.8337177
-0.7693902 -0.8384697
-0.7661258 -0.8491942
-0.76437527 -0.8583266
-0.7629044 -0.87097996
-0.76072013 -0.8976506
-0.7600006 -0.9060317
-0.7589373 -0.9136704
-0.7586396 -0.9148548
-0.7583755 -0.9151808
-0.7582212 -0.915356
-0.75725985 -0.9167674
-0.75633436 -0.9179241
-0.7550612 -0.9192643
-0.7516788 -0.92285407
-0.75038594 -0.92542744
-0.748668 -0.92908096
-0.74830836 -0.9303293
-0.7482613 -0.9313671
-0.75054675 -0.93752354
-0.75691587 -0.95294887
-0.76242507 -0.9651599
-0.77869916 -0.9976615
-0.7856606 -1.0119566
-0.7907124 -1.0220382
-0.80124724 -1.0408176
-0.8081893 -1.054571
-0.8251526 -1.0892352
-0.83285826 -1.10515
-0.8441106 -1.1288168
-0.8493698 -1.1400193
-0.856139 -1.155091
-0.8570498 -1.1579081
-0.85753554 -1.159909
-0.8577417 -1.1621993
-0.8583021 -1.1662382
-0.8556589 -1.165343
-0.85507715 -1.1659691
-0.8539759 -1.166709
-0.8522502 -1.1659007
-0.8490485 -1.1642665
-0.84829885 -1.1637937
-0.84813005 -1.1638615
-0.8477005 -1.164161
-0.84682286 -1.164664
-0.8439145 -1.1663182
-0.8423611 -1.167319
-0.83964175 -1.1690557
-0.83799064 -1.1701316
-0.83503306 -1.1720418
-0.833742 -1.1729194
-0.8305715 -1.1754992
-0.8286184 -1.1772263
-0.826736 -1.1791441
-0.82364243 -1.1822078
-0.82396173 -1.1836817
-0.8318693 -1.1874405
-0.8384101 -1.189106
-0.8561369 -1.1930106
-0.86846095 -1.1941961
-0.89734066 -1.1937431
-0.91341954 -1.1923157
-0.9450911 -1.188885
-0.9565252 -1.1874151
-0.9643132 -1.1866105
-0.97808945 -1.1845009
-0.9870862 -1.1828103
-1.005564 -1.1789476
-1.0148607 -1.1769493
-1.0331017 -1.1726431
-1.0425293 -1.169436
-1.0549 -1.1668222
-1.0549 -1.1668222
