0 [1.0, 1.0, 1.0, 1.0, 1.0, 1.0, 1.0, 1.0]
1 [1.0, 1.0, 1.0, 1.0, 1.0, 1.0, 1.0, 1.0]
2 [1.0, 1.0, 1.0, 1.0, 1.0, 1.0, 1.0, 1.0]
3 [1.0, 1.0, 1.0, 1.0, 1.0, 1.0, 1.0, 1.0]
4 [1.0, 1.0, 1.0, 1.0, 1.0, 1.0, 1.0, 1.0]
5 [1.0, 1.0, 1.0, 1.0, 1.0, 1.0, 1.0, 1.0]
6 [1.0, 1.0, 1.0, 1.0, 1.0, 1.0, 1.0, 1.0]
7 [1.0, 1.0, 1.0, 1.0, 1.0, 1.0, 1.0, 1.0]
8 [1.0, 1.0, 1.0, 1.0, 1.0, 1.0, 1.0, 1.0]
9 [1.0, 1.0, 1.0, 1.0, 1.0, 1.0, 1.0, 1.0]
10 [1.0, 1.0, 1.0, 1.0, 1.0, 1.0, 1.0, 1.0]
11 [1.0, 1.0, 1.0, 1.0, 1.0, 1.0, 1.0, 1.0]
12 [1.0, 1.0, 1.0, 1.0, 1.0, 1.0, 1.0, 1.0]
13 [1.0, 1.0, 1.0, 1.0, 1.0, 1.0, 1.0, 1.0]
14 [1.0, 1.0, 1.0, 1.0, 1.0, 1.0, 1.0, 1.0]
15 [1.0, 1.0, 1.0, 1.0, 1.0, 1.0, 1.0, 1.0]
16 [1.0, 1.0, 1.0, 1.0, 1.0, 1.0, 1.0, 1.0]
17 [1.0, 1.0, 1.0, 1.0, 1.0, 1.0, 1.0, 1.0]
18 [1.0, 1.0, 1.0, 1.0, 1.0, 1.0, 1.0, 1.0]
19 [1.0, 1.0, 1.0, 1.0, 1.0, 1.0, 1.0, 1.0]
20 [1.0, 1.0, 1.0, 1.0, 1.0, 1.0, 1.0, 1.0]
21 [1.0, 1.0, 1.0002337, 1.0942686, 1.6965559, 1.0942686, 1.0002337, 1.0]
22 [1.0, 1.0, 1.0001961, 1.0791293, 1.5846909, 1.0791293, 1.0001961, 1.0]
23 [1.0, 1.0, 1.0001494, 1.0602837, 1.445439, 1.0602837, 1.0001494, 1.0]
24 [1.0, 1.0, 1.000113, 1.0455905, 1.3368708, 1.0455905, 1.000113, 1.0]
25 [1.0, 1.0, 1.0000851, 1.0343552, 1.2538519, 1.0343552, 1.0000851, 1.0]
26 [1.0, 1.0, 1.0000643, 1.0259132, 1.1914746, 1.0259132, 1.0000643, 1.0]
27 [1.0, 1.0, 1.0000485, 1.0195848, 1.1447134, 1.0195848, 1.0000485, 1.0]
28 [1.0, 1.0, 0.9997686, 0.90666014, 0.31030643, 0.90666014, 0.9997686, 1.0]
29 [1.0, 1.0, 0.9997977, 0.91838926, 0.3969738, 0.91838926, 0.9997977, 1.0]
30 [1.0, 1.0, 0.99984545, 0.93764704, 0.5392704, 0.93764704, 0.99984545, 1.0]
31 [1.0, 1.0, 0.9998832, 0.9528808, 0.6518338, 0.9528808, 0.9998832, 1.0]
32 [1.0, 1.0, 0.9999117, 0.9643856, 0.7368434, 0.9643856, 0.9999117, 1.0]
33 [1.0, 1.0, 0.9999333, 0.9730831, 0.80110943, 0.9730831, 0.9999333, 1.0]
34 [1.0, 1.0, 0.99994963, 0.97967696, 0.84983194, 0.97967696, 0.99994963, 1.0]
35 [1.0, 1.0, 0.9999619, 0.9846402, 0.88650537, 0.9846402, 0.9999619, 1.0]
36 [1.0, 1.0, 0.9999714, 0.9884607, 0.91473573, 0.9884607, 0.9999714, 1.0]
37 [1.0, 1.0, 0.9999784, 0.9912875, 0.93562305, 0.9912875, 0.9999784, 1.0]
38 [1.0, 1.0, 0.99998367, 0.99341524, 0.95134497, 0.99341524, 0.99998367, 1.0]
39 [1.0, 1.0, 0.99998766, 0.9950283, 0.96326405, 0.9950283, 0.99998766, 1.0]
40 [1.0, 1.0, 0.9999907, 0.9962425, 0.97223556, 0.9962425, 0.9999907, 1.0]
41 [1.0, 1.0, 0.99999297, 0.997163, 0.9790371, 0.997163, 0.99999297, 1.0]
42 [1.0, 1.0, 1.0, 1.0, 1.0, 1.0, 1.0, 1.0]
43 [1.0, 1.0, 1.0, 1.0, 1.0, 1.0, 1.0, 1.0]
44 [1.0, 1.0, 1.0, 1.0, 1.0, 1.0, 1.0, 1.0]
45 [1.0, 1.0, 1.0, 1.0, 1.0, 1.0, 1.0, 1.0]
46 [1.0, 1.0, 1.0, 1.0, 1.0, 1.0, 1.0, 1.0]
47 [1.0, 1.0, 1.0, 1.0, 1.0, 1.0, 1.0, 1.0]
48 [1.0, 1.0, 1.0, 1.0, 1.0, 1.0, 1.0, 1.0]
49 [1.0, 1.0, 1.0, 1.0, 1.0, 1.0, 1.0, 1.0]
