0 [0.0, 0.0, 0.0, 0.0, 0.0, 0.0, 0.0, 0.0]
1 [0.0, 0.0, 0.0, 0.0, 0.0, 0.0, 0.0, 0.0]
2 [0.0, 0.0, 0.0, 0.0, 0.0, 0.0, 0.0, 0.0]
3 [0.0, 0.0, 0.0, 0.0, 0.0, 0.0, 0.0, 0.0]
4 [0.0, 0.0, 0.0, 0.0, 0.0, 0.0, 0.0, 0.0]
5 [0.0, 0.0, 0.0, 0.0, 0.0, 0.0, 0.0, 0.0]
6 [0.0, 0.0, 0.0, 0.0, 0.0, 0.0, 0.0, 0.0]
7 [0.0, 0.0, 0.0, 0.0, 0.0, 0.0, 0.0, 0.0]
8 [0.0, 0.0, 0.0, 0.0, 0.0, 0.0, 0.0, 0.0]
9 [0.0, 0.0, 0.0, 0.0, 0.0, 0.0, 0.0, 0.0]
10 [0.0, 0.0, 0.0, 0.0, 0.0, 0.0, 0.0, 0.0]
11 [0.0, 0.0, 0.0, 0.0, 0.0, 0.0, 0.0, 0.0]
12 [0.0, 0.0, 0.0, 0.0, 0.0, 0.0, 0.0, 0.0]
13 [0.03435164, 0.03764835, 0.030351644, 0.084648356, 0.08564835, 0.022351652, 0.020351654, 0.06764836]
14 [0.03435164, 0.03764835, 0.030351644, 0.084648356, 0.08564835, 0.022351652, 0.020351654, 0.06764836]
15 [0.14526495, 0.14926495, 0.14326495, 0.974735, 0.97573507, 0.020153854, 0.017153857, 0.43984616]
16 [0.03415384, 0.03815384, 0.03215384, 0.085846156, 0.08684615, 0.020153854, 0.017153857, 0.06484615]
17 [0.03415384, 0.03815384, 0.03215384, 0.085846156, 0.08684615, 0.020153854, 0.017153857, 0.06484615]
18 [0.037527468, 0.9424725, 0.13447252, 0.40547252, 0.9885274, 0.9194725, 0.013472517, 0.93452746]
19 [0.037527468, 0.042472538, 0.03447252, 0.030472524, 0.08852747, 0.019472536, 0.013472517, 0.05952747]
20 [0.042835165, 0.055164836, 0.042164825, 0.038164828, 0.83683515, 0.087835155, 0.012164829, 0.75683516]
21 [0.042835165, 0.055164836, 0.042164825, 0.038164828, 0.08683516, 0.087835155, 0.012164829, 0.006835164]
22 [0.042835165, 0.055164836, 0.042164825, 0.038164828, 0.83683515, 0.087835155, 0.012164829, 0.75683516]
23 [0.045082416, 0.19225092, 0.9872509, 0.17425092, 1.0194157, 1.0224158, 0.010917579, 0.010082413]
24 [0.045082416, 0.058917582, 0.053917587, 0.040917575, 0.086082414, 0.08908242, 0.010917579, 0.010082413]
25 [0.048681322, 0.065318674, 0.065318674, 0.04831869, 0.9606813, 0.08968132, 0.01031868, 0.015681319]
26 [0.048681322, 0.13198534, 0.13198534, 0.11498536, 1.052348, 0.08968132, 0.01031868, 0.015681319]
27 [0.046862643, 0.06713736, 0.06713736, 0.048137352, 0.035137363, 0.09086263, 0.010137363, 0.015862634]
28 [0.045609895, 0.0653901, 0.06439011, 0.0473901, 0.5856099, 0.5906099, 0.5103901, 0.5146099]
29 [0.045609895, 0.0653901, 0.06439011, 0.0473901, 0.8356099, 0.8406099, 0.010390111, 0.014609889]
30 [0.04085714, 0.09347619, 1.0118095, 0.07447618, 0.119190484, 1.0555238, 0.9778095, 0.009857146]
31 [0.04085714, 0.08236508, 0.06736507, 0.06336507, 0.96085715, 1.0666349, 0.011142857, 0.009857146]
32 [0.035697807, 0.052302208, 0.040302195, 0.0353022, 0.9616978, 0.088697806, 0.013302196, 0.0053021912]
33 [0.035697807, 0.052302208, 0.040302195, 0.0353022, 0.0866978, 0.088697806, 0.013302196, 0.0053021912]
34 [0.035697807, 0.052302208, 0.040302195, 0.0353022, 0.0866978, 0.088697806, 0.013302196, 0.0053021912]
35 [0.035697807, 0.052302208, 0.040302195, 0.0353022, 0.0866978, 0.088697806, 0.013302196, 0.0053021912]
36 [0.031340666, 1.0100073, 0.068674, 0.063674, 1.0543259, 1.0543259, 0.015340656, 0.009340662]
37 [0.031340666, 0.043340653, 0.03534066, 0.030340666, 0.96265936, 0.087659344, 0.015340656, 0.88434064]
38 [0.033060443, 0.04992857, 0.04004946, 0.09792857, 1.0769506, 0.020060433, 0.017060434, 0.067928575]
39 [0.049727112, 0.055606224, 0.045727115, 0.103606224, 1.0712729, 0.020060433, 0.017060434, 0.07360623]
40 [0.042445052, 0.042445052, 0.024554942, 0.46044505, 0.46044505, 0.023554944, 0.023554944, 0.93744504]
41 [0.046505492, 0.043505494, 0.024494499, 0.0835055, 1.0490227, 0.031494517, 0.034494516, 0.054505497]
42 [0.046505492, 0.043505494, 0.024494499, 0.5835055, 0.5835055, 0.031494517, 0.034494516, 0.55450547]
43 [0.053280223, 0.01871978, 0.08428022, 0.83428025, 0.03371979, 0.038719784, 0.04571978, 0.7962802]
44 [0.057983514, 0.016016487, 0.085983515, 1.0016502, 0.95168316, 0.042016488, 0.051016476, 0.9606502]
45 [0.057983514, 0.016016487, 0.085983515, 0.08498352, 0.035016492, 0.042016488, 0.051016476, 0.043983515]
46 [1.0174011, 0.0065989005, 0.0954011, 0.8424011, 0.9835989, 0.094598904, 0.10259889, 1.7675989]
47 [1.0219465, 0.0065989005, 0.5954011, 1.0469465, 0.03359891, 0.5445989, 0.5525989, 1.7721443]
48 [1.0301123, 0.009109893, 0.59289014, 1.0611123, 0.0371099, 0.04910989, 1.029332, 1.0131123]
49 [0.057890113, 0.009109893, 0.09289011, 0.088890105, 0.0371099, 0.04910989, 0.05710988, 0.04089011]
