0 [1.0, 1.0, 1.0, 1.0, 1.0, 1.0, 1.0, 1.0]
1 [1.0, 1.0, 1.0, 1.0, 1.0, 1.0, 1.0, 1.0]
2 [1.0, 1.0, 1.0, 1.0, 1.0, 1.0, 1.0, 1.0]
3 [1.0, 1.0, 1.0, 1.0, 1.0, 1.0, 1.0, 1.0]
4 [1.0, 1.0, 1.0, 1.0, 1.0, 1.0, 1.0, 1.0]
5 [1.0, 1.0, 1.0, 1.0, 1.0, 1.0, 1.0, 1.0]
6 [1.0, 1.0, 1.0, 1.0, 1.0, 1.0, 1.0, 1.0]
7 [1.0, 1.0, 1.0, 1.0, 1.0, 1.0, 1.0, 1.0]
8 [1.0, 1.0, 1.0, 1.0, 1.0, 1.0, 1.0, 1.0]
9 [1.0, 1.0, 1.0, 1.0, 1.0, 1.0, 1.0, 1.0]
10 [1.0, 1.0, 1.0, 1.0, 1.0, 1.0, 1.0, 1.0]
11 [1.0, 1.0, 1.0, 1.0, 1.0, 1.0, 1.0, 1.0]
12 [1.0, 1.0, 1.0, 1.0, 1.0, 1.0, 1.0, 1.0]
13 [1.0, 1.0, 1.0, 1.0, 1.0, 1.0, 1.0, 1.0]
14 [1.0, 1.0, 1.0, 1.0, 1.0, 1.0, 1.0, 1.0]
15 [1.0, 1.0, 1.0, 1.0, 1.0, 1.0, 1.0, 1.0]
16 [1.0, 1.0, 1.0, 1.0, 1.0, 1.0, 1.0, 1.0]
17 [1.0, 1.0002337, 1.0942376, 1.6963267, 1.0942376, 1.0002337, 1.0, 1.0]
18 [1.0, 1.0001968, 1.079421, 1.586847, 1.079421, 1.0001968, 1.0, 1.0]
19 [1.0, 1.0001498, 1.0604635, 1.4467688, 1.0604635, 1.0001498, 1.0, 1.0]
20 [1.0, 1.0001134, 1.0457274, 1.3378824, 1.0457274, 1.0001134, 1.0, 1.0]
21 [1.0, 1.0000857, 1.0345619, 1.2553794, 1.0345619, 1.0000857, 1.0, 1.0]
22 [1.0, 1.0000647, 1.0260953, 1.1928196, 1.0260953, 1.0000647, 1.0, 1.0]
23 [1.0, 1.0000489, 1.0197225, 1.1457299, 1.0197225, 1.0000489, 1.0, 1.0]
24 [1.0, 0.99976957, 0.90704715, 0.31316614, 0.90704715, 0.99976957, 1.0, 1.0]
25 [1.6962347, 1.0940216, 0.91811293, 0.39320636, 0.9178794, 0.99979645, 1.0, 1.0]
26 [1.5873861, 1.0793384, 0.93740994, 0.5360624, 0.9372129, 0.9998444, 1.0, 1.0]
27 [1.4472129, 1.0604061, 0.9527001, 0.64938974, 0.95255005, 0.9998824, 1.0, 1.0]
28 [1.3382202, 1.0456842, 0.96424896, 0.734995, 0.96413547, 0.9999111, 1.0, 1.0]
29 [1.2553794, 1.0344946, 0.97297966, 0.7997123, 0.972894, 0.9999328, 1.0, 1.0]
30 [1.1930125, 1.0260707, 0.97959894, 0.84877706, 0.9795342, 0.9999493, 1.0, 1.0]
31 [1.1458757, 1.0197039, 0.98458123, 0.88570815, 0.9845323, 0.9999617, 1.0, 1.0]
32 [0.31362087, 0.9070797, 0.9880912, 0.9137064, 0.9883214, 0.99997103, 1.0, 1.0]
33 [0.39320636, 0.9178575, 0.9909788, 0.9348459, 0.9911823, 0.9999781, 1.0, 1.0]
34 [0.5360624, 0.9371964, 0.99318016, 0.95075756, 0.9933358, 0.9999835, 1.0, 1.0]
35 [0.64903927, 0.95249015, 0.99484557, 0.9627834, 0.9951968, 1.0942127, 1.6962347, 1.0942252]
36 [0.734995, 0.96412605, 0.99610823, 0.9719004, 0.996394, 1.0794117, 1.586847, 1.079421]
37 [0.7997123, 0.97288686, 0.9970587, 0.9787628, 0.9972759, 1.0605166, 1.4472129, 1.0605237]
38 [1.0, 1.0, 1.0, 1.0, 1.0001134, 1.0457274, 1.3378824, 1.0457274]
39 [0.88570815, 0.9845323, 0.9999617, 1.0, 1.0000857, 1.0345619, 1.2553794, 1.0345619]
40 [0.9137064, 0.9883214, 0.99997103, 1.0002337, 1.0943023, 1.7224221, 1.2870572, 1.0263289]
41 [0.9347807, 0.9911735, 0.9999781, 1.0001968, 1.0794699, 1.6065694, 1.2251511, 1.0199193]
42 [0.95075756, 0.9933358, 0.9999835, 1.0001498, 1.0602331, 1.353816, 0.37362972, 0.907197]
43 [0.9628206, 0.9949683, 0.99998754, 1.0001132, 1.0454783, 1.255497, 0.4394259, 0.9180654]
44 [0.9719004, 0.9961971, 0.9999906, 1.0000856, 1.0343719, 1.1923993, 0.5710492, 0.93736064]
45 [0.9787628, 0.99712586, 0.99999285, 1.0000647, 1.0262114, 1.2396072, 1.3718119, 1.0468524]
46 [1.0, 1.0, 1.0, 1.0000489, 1.0198994, 1.2249324, 1.6060104, 1.079397]
47 [1.0, 1.0, 1.0, 0.99976945, 0.90706986, 0.34607488, 1.1534247, 1.0331212]
48 [1.0, 1.0, 1.0, 0.9997966, 0.91801476, 0.41898054, 1.1044252, 1.025033]
49 [1.0, 1.0, 1.0, 0.9998447, 0.9373844, 0.556037, 1.078143, 1.0189006]
