0 [0.0, 0.0, 0.0, 0.0, 0.0, 0.0, 0.0, 0.0]
1 [0.0, 0.0, 0.0, 0.0, 0.0, 0.0, 0.0, 0.0]
2 [0.0, 0.0, 0.0, 0.0, 0.0, 0.0, 0.0, 0.0]
3 [0.0, 0.0, 0.0, 0.0, 0.0, 0.0, 0.0, 0.0]
4 [0.0, 0.0, 0.0, 0.0, 0.0, 0.0, 0.0, 0.0]
5 [0.0, 0.0, 0.0, 0.0, 0.0, 0.0, 0.0, 0.0]
6 [0.0, 0.0, 0.0, 0.0, 0.0, 0.0, 0.0, 0.0]
7 [0.0, 0.0, 0.0, 0.0, 0.0, 0.0, 0.0, 0.0]
8 [0.0, 0.0, 0.0, 0.0, 0.0, 0.0, 0.0, 0.0]
9 [0.75, 0.75, 0.0, 0.875, 0.75, 0.0, 0.75, 0.75]
10 [0.75, 0.0, 0.75, 0.75, 0.75, 0.0, 0.0, 0.0]
11 [0.0, 0.0, 0.0, 0.0, 0.0, 0.0, 0.0, 0.0]
12 [0.375, 0.0, 0.0, 0.875, 0.8, 0.8, 0.0, 0.0]
13 [0.0, 0.0, 0.0, 0.0, 0.0, 0.0, 0.0, 0.0]
14 [0.0, 0.0, 0.0, 0.0, 0.0, 0.0, 0.0, 0.0]
15 [0.96666664, 0.96666664, 0.0, 0.5, 0.5, 0.96666664, 0.23333333, 0.23333333]
16 [0.0, 0.0, 0.0, 0.0, 0.0, 0.0, 0.0, 0.0]
17 [0.9, 0.9, 0.0, 0.5, 0.5, 0.3, 0.9, 0.9]
18 [0.9230769, 0.46153846, 0.0, 0.5, 0.5, 0.9230769, 0.9230769, 0.9230769]
19 [0.0, 0.0, 0.0, 0.0, 0.0, 0.0, 0.0, 0.0]
20 [0.0, 0.0, 0.0, 0.0, 0.0, 0.0, 0.0, 0.0]
21 [0.0, 0.0, 0.0, 0.0, 0.0, 0.0, 0.0, 0.0]
22 [0.0, 0.0, 0.0, 0.0, 0.0, 0.0, 0.0, 0.0]
23 [0.13333334, 0.0, 0.0, 0.75, 0.75, 0.96666664, 0.13333334, 0.13333334]
24 [0.0, 0.0, 0.0, 0.0, 0.0, 0.0, 0.0, 0.0]
25 [0.75, 0.0, 0.0, 0.75, 0.75, 0.0, 0.75, 0.75]
26 [0.0, 0.0, 0.0, 0.0, 0.0, 0.0, 0.0, 0.0]
27 [0.0, 0.0, 0.0, 0.0, 0.0, 0.0, 0.0, 0.0]
28 [0.05, 0.0, 0.0, 0.75, 0.75, 0.98333335, 0.98333335, 0.05]
29 [0.0, 0.0, 0.0, 0.0, 0.0, 0.0, 0.0, 0.0]
30 [0.5555556, 0.0, 0.0, 0.75, 0.8888889, 0.8888889, 0.5555556, 0.5555556]
31 [0.0, 0.0, 0.0, 0.0, 0.9166667, 0.9166667, 0.5, 0.0]
32 [0.0, 0.0, 0.0, 0.0, 0.0, 0.0, 0.0, 0.0]
33 [0.0, 0.0, 0.0, 0.875, 0.989011, 0.989011, 0.06593407, 0.0]
34 [0.0, 0.0, 0.0, 0.875, 0.0, 0.0, 0.0, 0.0]
35 [0.0, 0.0, 0.75, 0.75, 0.0, 0.0, 0.0, 0.0]
36 [0.0, 0.0, 0.0, 0.989011, 0.08791209, 0.989011, 0.08791209, 0.0]
37 [0.0, 0.0, 0.0, 0.0, 0.0, 0.0, 0.0, 0.0]
38 [0.0, 0.0, 0.0, 0.9722222, 0.0, 0.9722222, 0.9722222, 0.0]
39 [0.0, 0.0, 0.0, 0.0, 0.0, 0.0, 0.0, 0.989011]
40 [0.0, 0.0, 0.0, 0.0, 0.0, 0.0, 0.0, 0.0]
41 [0.0, 0.0, 0.75, 0.75, 0.0, 0.64835167, 0.989011, 0.0]
42 [0.0, 0.0, 0.5, 0.5, 0.0, 0.0, 0.5, 0.0]
43 [0.0, 0.0, 0.0, 0.0, 0.0, 0.0, 0.0, 0.0]
44 [0.0, 0.0, 0.0, 0.0, 0.0, 0.0, 0.0, 0.0]
45 [0.010989011, 0.010989011, 0.010989011, 0.989011, 0.010989011, 0.010989011, 0.989011, 0.010989011]
46 [0.98333335, 0.05, 0.05, 0.05, 0.0, 0.0, 0.98333335, 0.0]
47 [0.0, 0.0, 0.5, 0.98333335, 0.0, 0.98333335, 0.5, 0.0]
48 [0.0, 0.0, 0.0, 0.0, 0.0, 0.0, 0.0, 0.0]
49 [0.0, 0.0, 0.5, 0.98333335, 0.98333335, 0.0, 0.5, 0.0]
