0 [0.0, 0.0, 0.0, 0.0, 0.0, 0.0, 0.0, 0.0]
1 [0.0, 0.0, 0.0, 0.0, 0.0, 0.0, 0.0, 0.0]
2 [0.98146176, 0.34599283, 0.0, 0.0, 0.0, 0.0, 0.0, 0.0]
3 [0.97761565, 0.33535615, 0.0, 0.0, 0.0, 0.0, 0.0, 0.0]
4 [0.96877813, 0.33628318, 0.43737397, 0.0, 0.0, 0.0, 0.0, 0.0]
5 [0.94193, 0.33597317, 0.37366253, 0.0, 0.0, 0.0, 0.0, 0.0]
6 [0.94230574, 0.33205423, 0.35539085, 0.0, 0.0, 0.0, 0.0, 0.0]
7 [0.94230574, 0.33205423, 0.35539085, 0.0, 0.0, 0.0, 0.0, 0.0]
8 [0.94230574, 0.33205423, 0.35539085, 0.0, 0.0, 0.0, 0.0, 0.0]
9 [0.94954824, 0.50470895, 0.31553987, 0.0, 0.0, 0.0, 0.0, 0.0]
10 [0.95198536, 0.4980916, 0.30589533, 0.0, 0.0, 0.0, 0.0, 0.0]
11 [0.9533648, 0.49037498, 0.29897305, 0.0, 0.0, 0.9986297, 0.0, 0.0]
12 [0.9533648, 0.49037498, 0.29897305, 0.0, 0.0, 0.9986297, 0.0, 0.0]
13 [0.9530132, 0.481588, 0.29000086, 0.3906087, 0.0, 0.9888974, 0.0, 0.0]
14 [0.9507781, 0.47055587, 0.27784657, 0.37308505, 0.9625543, 0.9756052, 0.0, 0.0]
15 [0.7883518, 0.23715325, 0.24488962, 0.0, 0.0, 0.92906666, 0.0, 0.0]
16 [0.9155668, 0.2255977, 0.23609325, 0.0, 0.0, 0.91338784, 0.0, 0.0]
17 [0.90394974, 0.21362549, 0.227233, 0.0, 0.0, 0.8972396, 0.0, 0.0]
18 [0.89335096, 0.20244442, 0.21914096, 0.0, 0.0, 0.8820573, 0.0, 0.0]
19 [0.8847963, 0.19231503, 0.21141787, 0.0, 0.0, 0.86848587, 0.0, 0.0]
20 [0.87619096, 0.18103889, 0.20238794, 0.0, 0.0, 0.85319287, 0.0, 0.0]
21 [0.86180127, 0.15969852, 0.17985138, 0.0, 0.0, 0.8202055, 0.0, 0.0]
22 [0.85837734, 0.15086265, 0.16868928, 0.0, 0.0, 0.8056527, 0.7914353, 0.0]
23 [0.8511149, 0.13241285, 0.14649962, 0.0, 0.0, 0.7763016, 0.76128244, 0.0]
24 [0.84596163, 0.10976013, 0.11990307, 0.9160959, 0.0, 0.7429292, 0.73276067, 0.0]
25 [0.8396662, 0.088266216, 0.09610531, 0.86977136, 0.0, 0.7129262, 0.7111553, 0.0]
