0 -1
1 -1
2 -1
3 -1
4 0
5 3
6 3
7 3
8 0
9 0
10 0
11 4
12 4
13 4
14 4
15 4
16 4
17 4
18 0
19 0
20 0
21 0
22 0
23 0
24 0
25 0
26 0
27 0
28 0
29 0
30 0
31 0
32 0
33 0
34 0
35 0
36 0
37 0
38 0
39 0
40 0
41 0
42 0
43 0
44 0
