0 8.7477304E-8
0 3.890412E-8
0 1.1920898E-7
0 -1.7162279E-7
0 -3.1415927
0 -3.1415927
0 -3.1415927
0 3.1415927
0 -3.141591
1 8.7477304E-8
1 3.890412E-8
1 1.1920898E-7
1 -1.7162279E-7
1 -3.1415927
1 -3.1415927
1 -3.1415927
1 3.1415927
1 -3.141591
2 8.7477304E-8
2 3.890412E-8
2 1.1920898E-7
2 -1.7162279E-7
2 -3.1415927
2 -3.1415927
2 -3.1415927
2 3.1415927
2 -3.141591
3 -0.0065974547
3 -0.008576601
3 -0.013081362
3 -0.036929715
3 -3.1025078
3 -3.1282823
3 -3.1329436
3 -3.1349952
3 -3.136589
4 -0.013978718
4 -0.018005885
4 -0.027198864
4 -0.073670186
4 -3.0532687
4 -3.112842
4 -3.123096
4 -3.1276138
4 -3.1255736
5 -0.012152998
5 -0.015438688
5 -0.022992369
5 -0.058902144
5 -3.055708
5 -3.115816
5 -3.1252756
5 -3.1294396
5 -3.1086326
6 -0.012152998
6 -0.015438688
6 -0.022992369
6 -0.058902144
6 -3.055708
6 -3.115816
6 -3.1252756
6 -3.1294396
6 -3.1086326
7 -0.011742182
7 -0.014649157
7 -0.021428337
7 -0.05141197
7 -3.0432575
7 -3.1156135
7 -3.1255143
7 -3.1298504
7 -3.0862105
8 -0.010862883
8 -0.013254076
8 -0.018980587
8 -0.042420182
8 -3.0231116
8 -3.1161838
8 -3.126338
8 -3.1307297
8 -3.0581534
9 -0.011110987
9 -0.013194491
9 -0.018435435
9 -0.03822622
9 -2.9478142
9 -3.113608
9 -3.1254764
9 -3.1304815
9 -3.0233376
10 -0.010722135
10 -0.0123291025
10 -0.016755378
10 -0.03219454
10 -2.4935484
10 -3.1117795
10 -3.1253865
10 -3.1308706
10 -2.9810479
11 -0.010357672
11 -0.011513809
11 -0.015224401
11 -0.027324945
11 -0.31362563
11 -3.1091287
11 -3.1251884
11 -3.131235
11 -2.9357681
12 -0.008943126
12 -0.009632598
12 -0.012432204
12 -0.021116117
12 -0.116322264
12 -3.1096196
12 -3.126739
12 -3.1326494
12 -2.8927333
13 -0.0066587273
13 -0.0069394135
13 -0.008742951
13 -0.014113276
13 -0.05318946
13 -3.1134703
13 -3.1299102
13 -3.134934
13 -2.8468864
14 -0.0039725783
14 -0.003989907
14 -0.0048974883
14 -0.0075128158
14 -0.021746833
14 -3.120181
14 -3.1341155
14 -3.13762
14 -2.7938993
15 -0.0039725783
15 -0.003989907
15 -0.0048974883
15 -0.0075128158
15 -0.021746833
15 -3.120181
15 -3.1341155
15 -3.13762
15 -2.7938993
16 -0.0013177263
16 -0.0012780047
16 -0.0015260206
16 -0.002227278
16 -0.005302927
16 -3.1310167
16 -3.1388624
16 -3.140275
16 -2.7340393
17 0.0010948138
17 9.887333E-4
17 0.0011517996
17 0.0016115995
17 0.0033579357
17 3.1251576
17 3.139166
17 3.140498
17 -2.6765442
18 0.0020136787
18 0.0017663768
18 0.0020171748
18 0.0027353137
18 0.005226508
18 2.977058
18 3.1366582
18 3.139579
18 -2.62845
19 0.0018416225
19 0.0015627268
19 0.0017557351
19 0.0023222668
19 0.0041726534
19 0.050483298
19 3.136654
19 3.139751
19 -2.587384
20 0.0018416225
20 0.0015627268
20 0.0017557351
20 0.0023222668
20 0.0041726534
20 0.050483298
20 3.136654
20 3.139751
20 -2.587384
21 0.0018416225
21 0.0015627268
21 0.0017557351
21 0.0023222668
21 0.0041726534
21 0.050483298
21 3.136654
21 3.139751
21 -2.587384
22 -9.845777E-4
22 -8.1479974E-4
22 -8.867416E-4
22 -0.0011212373
22 -0.001822645
22 -0.0071793552
22 -3.1381066
22 -3.140608
22 -2.504447
23 -0.003532223
23 -0.002775192
23 -0.0029753265
23 -0.0036859834
23 -0.0057541784
23 -0.018073084
23 -3.127268
23 -3.1380606
23 -2.4638598
24 -0.005751469
24 -0.0043776482
24 -0.00463466
24 -0.005647667
24 -0.008545896
24 -0.023335114
24 -3.1141894
24 -3.1358414
24 -2.429319
25 -0.0069620744
25 -0.005157942
25 -0.0054010022
25 -0.006489753
25 -0.009573985
25 -0.023688834
25 -3.1018078
25 -3.1346307
25 -2.3987467
26 -0.008319988
26 -0.0059839636
26 -0.006192892
26 -0.007333706
26 -0.01054886
26 -0.023919525
26 -3.0800765
26 -3.1332726
26 -2.3659441
27 -0.008253205
27 -0.005741765
27 -0.0058658067
27 -0.006838426
27 -0.009583036
27 -0.020045148
27 -3.0475454
27 -3.1333394
27 -2.3294456
28 -0.006173666
28 -0.0041509615
28 -0.00418467
28 -0.0048031746
28 -0.006565009
28 -0.012808054
28 -2.9644907
28 -3.1354191
28 -2.2918584
29 -0.0046951976
29 -0.0030522123
29 -0.0030379314
29 -0.0034366036
29 -0.004593205
29 -0.008461089
29 -0.22283663
29 -3.1368976
29 -2.2556934
30 -0.003812255
30 -0.0024050614
30 -0.002367643
30 -0.0026458409
30 -0.0034723121
30 -0.0061242473
30 -0.052860793
30 -3.1377804
30 -2.2245388
31 -0.0030052713
31 -0.0018438039
31 -0.0017965583
31 -0.0019853183
31 -0.0025638542
31 -0.0043598725
31 -0.024363842
31 -3.1385875
31 -2.195498
32 -8.95249E-4
32 -5.519743E-4
32 -5.316905E-4
32 -5.805769E-4
32 -7.3696725E-4
32 -0.0012086559
32 -0.0050331843
32 -3.1406977
32 -2.1632884
33 0.0013234027
33 7.0003234E-4
33 6.6513824E-4
33 7.1551104E-4
33 8.905722E-4
33 0.0014028378
33 0.0046213325
33 3.140269
33 -2.124645
34 0.00273412
34 0.0013884179
34 0.0012971947
34 0.0013723071
34 0.0016707082
34 0.0025239873
34 0.006849603
34 3.1388583
34 -2.078458
35 0.0039677033
35 0.0018835438
35 0.0017282208
35 0.0017966845
35 0.0021394123
35 0.0031069536
35 0.0072772526
35 3.1376247
35 -2.0297
36 0.0031217134
36 0.0013646381
36 0.0012313775
36 0.0012600546
36 0.0014720731
36 0.0020699152
36 0.004375283
36 3.1384706
36 -1.9854609
37 0.0020437946
37 8.0472714E-4
37 7.13773E-4
37 7.1894017E-4
37 8.2441216E-4
37 0.0011254769
37 0.002189475
37 3.1395485
37 -1.9410619
38 3.995439E-5
38 -2.6210064E-5
38 -2.2673914E-5
38 -2.2586135E-5
38 -2.5577367E-5
38 -3.415452E-5
38 -6.126346E-5
38 3.1415522
38 -1.8918004
39 -0.0027216014
39 -9.2081586E-4
39 -7.83137E-4
39 -7.6134515E-4
39 -8.3916186E-4
39 -0.001079837
39 -0.0018207415
39 -3.1388717
39 -1.8394736
40 -0.0027216014
40 -9.2081586E-4
40 -7.83137E-4
40 -7.6134515E-4
40 -8.3916186E-4
40 -0.001079837
40 -0.0018207415
40 -3.1388717
40 -1.8394736
41 -0.004091382
41 -0.0011511975
41 -9.564278E-4
41 -9.1233425E-4
41 -9.85788E-4
41 -0.0012339521
41 -0.0019651754
41 -3.1375022
41 -1.7864798
42 -0.004091382
42 -0.0011511975
42 -9.564278E-4
42 -9.1233425E-4
42 -9.85788E-4
42 -0.0012339521
42 -0.0019651754
42 -3.1375022
42 -1.7864798
43 -0.006826099
43 -0.0015362083
43 -0.0012475887
43 -0.0011691871
43 -0.0012407685
43 -0.0015166674
43 -0.0023075596
43 -3.1347673
43 -1.737519
44 -0.00738152
44 -0.0012855269
44 -0.0010216873
44 -9.421638E-4
44 -9.841679E-4
44 -0.0011790672
44 -0.0017297008
44 -3.1342123
44 -1.6936142
45 -0.0073248353
45 -9.18963E-4
45 -7.1557635E-4
45 -6.5020146E-4
45 -6.6974305E-4
45 -7.8874524E-4
45 -0.0011233006
45 -3.1342683
45 -1.6542709
46 -0.0073248353
46 -9.18963E-4
46 -7.1557635E-4
46 -6.5020146E-4
46 -6.6974305E-4
46 -7.8874524E-4
46 -0.0011233006
46 -3.1342683
46 -1.6542709
47 -0.0073248353
47 -9.18963E-4
47 -7.1557635E-4
47 -6.5020146E-4
47 -6.6974305E-4
47 -7.8874524E-4
47 -0.0011233006
47 -3.1342683
47 -1.6542709
48 1.566656
48 -8.3198574E-5
48 -6.16721E-5
48 -5.4266307E-5
48 -5.436741E-5
48 -6.200734E-5
48 -8.329563E-5
48 -1.5666559
48 -1.5677805
49 1.566656
49 -8.3198574E-5
49 -6.16721E-5
49 -5.4266307E-5
49 -5.436741E-5
49 -6.200734E-5
49 -8.329563E-5
49 -1.5666559
49 -1.5677805
