0 8.746679E-8
0 7.780826E-8
0 1.1920902E-7
0 -0.0
0 -3.1415927
0 -3.1415927
0 -3.1415927
0 3.1415927
0 -3.1415915
1 8.746679E-8
1 7.780826E-8
1 1.1920902E-7
1 -0.0
1 -3.1415927
1 -3.1415927
1 -3.1415927
1 3.1415927
1 -3.1415915
2 -0.0066039497
2 -0.0085874405
2 -0.013101953
2 -0.037036225
2 -3.1025467
2 -3.1282773
2 -3.1329377
2 -3.1349885
2 -3.13693
3 -0.0066039497
3 -0.0085874405
3 -0.013101953
3 -0.037036225
3 -3.1025467
3 -3.1282773
3 -3.1329377
3 -3.1349885
3 -3.13693
4 -0.012579832
4 -0.01621115
4 -0.024499143
4 -0.066497445
4 -3.0623217
4 -3.1157417
4 -3.1249542
4 -3.1290128
4 -3.1260877
5 -0.012579832
5 -0.01621115
5 -0.024499143
5 -0.066497445
5 -3.0623217
5 -3.1157417
5 -3.1249542
5 -3.1290128
5 -3.1260877
6 -0.0112302285
6 -0.0142742945
6 -0.021270534
6 -0.05461342
6 -3.0625694
6 -3.117802
6 -3.126523
6 -3.1303623
6 -3.1093032
7 -0.0112302285
7 -0.0142742945
7 -0.021270534
7 -0.05461342
7 -3.0625694
7 -3.117802
7 -3.126523
7 -3.1303623
7 -3.1093032
8 -0.011383164
8 -0.014214097
8 -0.020810049
8 -0.050083812
8 -3.0471144
8 -3.1164613
8 -3.126021
8 -3.1302094
8 -3.0873246
9 -0.011177185
9 -0.013647361
9 -0.019556915
9 -0.04380095
9 -3.020911
9 -3.115498
9 -3.12591
9 -3.1304154
9 -3.0590725
10 -0.010877356
10 -0.012926743
10 -0.018073395
10 -0.03754767
10 -2.9548912
10 -3.114254
10 -3.1258295
10 -3.1307151
10 -3.0243032
11 -0.010299848
11 -0.011887154
11 -0.016204603
11 -0.03138821
11 -2.645972
11 -3.1132913
11 -3.1260996
11 -3.1312928
11 -2.9858932
12 -0.009557926
12 -0.010732701
12 -0.014305086
12 -0.026172008
12 -0.4861193
12 -3.1127348
12 -3.1266685
12 -3.1320348
12 -2.9492898
13 -0.008410004
13 -0.009180728
13 -0.011968763
13 -0.02078924
13 -0.14510584
13 -3.1132185
13 -3.1279063
13 -3.1331825
13 -2.9109445
14 -0.0062980102
14 -0.0066464525
14 -0.008448346
14 -0.013889099
14 -0.058951426
14 -3.1166914
14 -3.1307707
14 -3.1352947
14 -2.864076
15 -0.0034616387
15 -0.0035264478
15 -0.004368647
15 -0.0068204175
15 -0.021429688
15 -3.124625
15 -3.1352398
15 -3.138131
15 -2.8130224
16 -0.0024575547
16 -0.0024234492
16 -0.0029350119
16 -0.004392038
16 -0.01146786
16 -3.1259189
16 -3.136764
16 -3.1391351
16 -2.7652102
17 -0.0012645603
17 -0.0012169795
17 -0.0014457128
17 -0.0020910574
17 -0.0048274663
17 -3.1303477
17 -3.1389208
17 -3.1403282
17 -2.7222393
18 -0.0012645603
18 -0.0012169795
18 -0.0014457128
18 -0.0020910574
18 -0.0048274663
18 -3.1303477
18 -3.1389208
18 -3.1403282
18 -2.7222393
19 -2.1728202E-4
19 -2.1723019E-4
19 -2.536092E-4
19 -3.564762E-4
19 -7.5116416E-4
19 -3.138293
19 -3.1410666
19 -3.1413753
19 -2.682082
20 -2.1728202E-4
20 -2.1723019E-4
20 -2.536092E-4
20 -3.564762E-4
20 -7.5116416E-4
20 -3.138293
20 -3.1410666
20 -3.1413753
20 -2.682082
21 8.818974E-4
21 7.7526027E-4
21 8.924207E-4
21 0.0012250579
21 0.0024193462
21 3.1162477
21 3.1395414
21 3.1407108
21 -2.6479352
22 8.818974E-4
22 7.7526027E-4
22 8.924207E-4
22 0.0012250579
22 0.0024193462
22 3.1162477
22 3.1395414
22 3.1407108
22 -2.6479352
23 7.941441E-4
23 6.800864E-4
23 7.736411E-4
23 0.0010425944
23 0.0019618997
23 -1.5713991
23 3.1396391
23 3.1407986
23 -2.6187432
24 0.001077271
24 9.0878375E-4
24 0.0010224682
24 0.0013552107
24 0.00244802
24 0.03339973
24 3.1387544
24 3.1405153
24 -2.5910962
25 0.0014607776
25 0.0012131712
25 0.0013509807
25 0.0017638038
25 0.0030747133
25 0.02258381
25 3.137461
25 3.1401317
25 -2.5646641
26 0.001393569
26 0.001128799
26 0.0012428564
26 0.0015964909
26 0.002684767
26 0.013572862
26 3.13732
26 3.140199
26 -2.5351074
27 -1.5779585E-4
27 -1.487772E-4
27 -1.6163838E-4
27 -2.0432832E-4
27 -3.308673E-4
27 -0.0012747182
27 -3.1409461
27 -3.141435
27 -2.500993
28 -0.0021567987
28 -0.0017007674
28 -0.0018220841
28 -0.00225517
28 -0.0035137294
28 -0.010935809
28 -3.132722
28 -3.139436
28 -2.461833
29 -0.0021567987
29 -0.0017007674
29 -0.0018220841
29 -0.00225517
29 -0.0035137294
29 -0.010935809
29 -3.132722
29 -3.139436
29 -2.461833
30 -0.004923006
30 -0.0037388718
30 -0.0039530834
30 -0.004808855
30 -0.007253627
30 -0.019550517
30 -3.1176383
30 -3.1366696
30 -2.4256053
31 -0.0074683554
31 -0.0055245194
31 -0.005781894
31 -0.006942943
31 -0.010230981
31 -0.025210207
31 -3.0985212
31 -3.1341243
31 -2.3973346
32 -0.008482248
32 -0.006112312
32 -0.0063306494
32 -0.0075040315
32 -0.010811816
32 -0.024648363
32 -3.0801475
32 -3.1331105
32 -2.3681633
33 -0.00789909
33 -0.0055126357
33 -0.0056379964
33 -0.006581643
33 -0.009243345
33 -0.019459594
33 -3.0556977
33 -3.1336937
33 -2.3326025
34 -0.005177796
34 -0.0034807874
34 -0.003507101
34 -0.004023041
34 -0.005493612
34 -0.01069032
34 -2.982333
34 -3.136415
34 -2.2903483
35 -0.0020280196
35 -0.0013137525
35 -0.0013003098
35 -0.0014618096
35 -0.0019354123
35 -0.0034850712
35 -0.04409044
35 -3.1395648
35 -2.2397559
36 0.0019297089
36 0.0011189355
36 0.0010862146
36 0.001195234
36 0.0015343745
36 0.0025762576
36 0.012874402
36 3.1396627
36 -2.1848276
37 0.0034554726
37 0.0018950342
37 0.0018040286
37 0.0019449977
37 0.0024276935
37 0.0038464484
37 0.013039929
37 3.138137
37 -2.1302643
38 0.0033920433
38 0.001714576
38 0.001598056
38 0.0016866997
38 0.0020472428
38 0.003075832
38 0.008163299
38 3.1382005
38 -2.0719838
39 0.002887283
39 0.0013041513
39 0.0011853976
39 0.001221338
39 0.0014386249
39 0.0020508696
39 0.0045205257
39 3.1387053
39 -2.004752
40 0.002887283
40 0.0013041513
40 0.0011853976
40 0.001221338
40 0.0014386249
40 0.0020508696
40 0.0045205257
40 3.1387053
40 -2.004752
41 -0.00217165
41 -8.0143416E-4
41 -6.9013564E-4
41 -6.780072E-4
41 -7.556982E-4
41 -9.88334E-4
41 -0.001727771
41 -3.1394215
41 -1.8687838
42 -0.00217165
42 -8.0143416E-4
42 -6.9013564E-4
42 -6.780072E-4
42 -7.556982E-4
42 -9.88334E-4
42 -0.001727771
42 -3.1394215
42 -1.8687838
43 -0.0062722717
43 -0.001525575
43 -0.001248484
43 -0.0011769277
43 -0.0012563809
43 -0.0015475709
43 -0.0023885255
43 -3.1353211
43 -1.753678
44 -0.0062722717
44 -0.001525575
44 -0.001248484
44 -0.0011769277
44 -0.0012563809
44 -0.0015475709
44 -0.0023885255
44 -3.1353211
44 -1.753678
45 -0.006608756
45 -0.001237156
45 -9.883804E-4
45 -9.149739E-4
45 -9.593238E-4
45 -0.0011546751
45 -0.0017079168
45 -3.1349847
45 -1.7039843
46 -0.006608756
46 -0.001237156
46 -9.883804E-4
46 -9.149739E-4
46 -9.593238E-4
46 -0.0011546751
46 -0.0017079168
46 -3.1349847
46 -1.7039843
47 -0.0071365936
47 -9.031812E-4
47 -7.0348603E-4
47 -6.393163E-4
47 -6.587685E-4
47 -7.75914E-4
47 -0.0011055837
47 -3.134457
47 -1.6549696
48 -0.0071365936
48 -9.031812E-4
48 -7.0348603E-4
48 -6.393163E-4
48 -6.587685E-4
48 -7.75914E-4
48 -0.0011055837
48 -3.134457
48 -1.6549696
49 -0.0041701617
49 -2.6004133E-4
49 -1.9681412E-4
49 -1.755219E-4
49 -1.7761183E-4
49 -2.0482397E-4
49 -2.817524E-4
49 -3.137427
49 -1.6036193
