0 [0.0, 0.0, 0.0, 0.0, 0.0, 0.0, 0.0, 0.0]
1 [0.0, 0.0, 0.0, 0.0, 0.0, 0.0, 0.0, 0.0]
2 [0.6666667, 0.6666667, 0.6666667, 0.6666667, 0.0, 0.0, 0.0, 0.0]
3 [0.0, 0.0, 0.0, 0.375, 0.375, 0.0, 0.0, 0.875]
4 [0.0, 0.0, 0.0, 0.5, 0.5, 0.0, 0.0, 0.5]
5 [0.0, 0.0, 0.0, 0.0, 0.0, 0.0, 0.0, 0.99450547]
6 [0.0, 0.0, 0.0, 0.875, 0.375, 0.0, 0.0, 0.375]
7 [0.0, 0.0, 0.0, 0.375, 0.375, 0.0, 0.0, 0.875]
8 [0.96153843, 0.3846154, 0.0, 0.0, 0.0, 0.0, 0.0, 0.96153843]
9 [0.0, 0.0, 0.0, 0.5, 0.5, 0.0, 0.0, 0.5]
10 [0.8888889, 0.8888889, 0.0, 0.0, 0.8888889, 0.0, 0.0, 0.0]
11 [0.99450547, 0.054945055, 0.0, 0.0, 0.054945055, 0.0, 0.0, 0.0]
12 [0.0, 0.0, 0.0, 0.0, 0.0, 0.0, 0.0, 0.0]
13 [0.95454544, 0.59090906, 0.0, 0.5, 0.5, 0.0, 0.0, 0.95454544]
14 [0.0, 0.0, 0.0, 0.0, 0.0, 0.0, 0.0, 0.0]
15 [0.0, 0.0, 0.0, 0.0, 0.0, 0.0, 0.0, 0.0]
16 [0.99450547, 0.071428575, 0.0, 0.375, 0.375, 0.0, 0.0, 0.875]
17 [0.0, 0.0, 0.0, 0.0, 0.0, 0.0, 0.0, 0.0]
18 [0.5769231, 0.5769231, 0.0, 0.375, 0.5769231, 0.0, 0.96153843, 0.96153843]
19 [0.96666664, 0.56666666, 0.0, 0.375, 0.56666666, 0.0, 0.96666664, 0.96666664]
20 [0.0, 0.0, 0.0, 0.0, 0.0, 0.0, 0.0, 0.0]
21 [0.95, 0.95, 0.0, 0.375, 0.95, 0.0, 0.0, 0.875]
22 [0.0, 0.0, 0.0, 0.375, 0.375, 0.0, 0.0, 0.875]
23 [0.0, 0.0, 0.0, 0.0, 0.0, 0.0, 0.0, 0.0]
24 [0.99450547, 0.0, 0.0, 0.375, 0.375, 0.0, 0.0, 0.875]
25 [0.0, 0.0, 0.0, 0.0, 0.0, 0.0, 0.0, 0.0]
26 [0.082417585, 0.0, 0.0, 0.375, 0.375, 0.0, 0.0, 0.99450547]
27 [0.95454544, 0.0, 0.0, 0.95454544, 0.0, 0.0, 0.0, 0.95454544]
28 [0.0, 0.0, 0.0, 0.0, 0.0, 0.0, 0.0, 0.0]
29 [0.96153843, 0.0, 0.0, 0.875, 0.0, 0.0, 0.0, 0.96153843]
30 [0.0, 0.0, 0.0, 0.0, 0.0, 0.0, 0.0, 0.0]
31 [0.0, 0.0, 0.0, 0.0, 0.0, 0.0, 0.0, 0.0]
32 [0.0, 0.0, 0.0, 0.875, 0.0, 0.0, 0.0, 0.0]
33 [0.0, 0.0, 0.0, 0.0, 0.0, 0.0, 0.0, 0.0]
34 [0.96153843, 0.0, 0.0, 0.875, 0.0, 0.0, 0.0, 0.96153843]
35 [0.0, 0.0, 0.0, 0.0, 0.0, 0.0, 0.0, 0.0]
36 [0.0, 0.0, 0.0, 0.0, 0.0, 0.0, 0.0, 0.0]
37 [0.0, 0.0, 0.0, 0.875, 0.0, 0.0, 0.0, 0.0]
38 [0.115384616, 0.0, 0.0, 0.0, 0.0, 0.0, 0.0, 0.99450547]
39 [0.989011, 0.0, 0.75, 0.75, 0.0, 0.0, 0.0, 0.989011]
40 [0.0, 0.0, 0.0, 0.0, 0.0, 0.0, 0.0, 0.0]
41 [0.99450547, 0.0, 0.75, 0.75, 0.0, 0.0, 0.0, 0.0]
42 [0.0, 0.0, 0.0, 0.0, 0.0, 0.0, 0.0, 0.0]
43 [0.0, 0.0, 0.75, 0.75, 0.0, 0.0, 0.0, 0.0]
44 [0.0, 0.0, 0.0, 0.0, 0.0, 0.0, 0.0, 0.0]
45 [0.0, 0.0, 0.75, 0.75, 0.0, 0.0, 0.0, 0.0]
46 [0.0, 0.0, 0.0, 0.0, 0.0, 0.0, 0.0, 0.0]
47 [0.0, 0.0, 0.0, 0.0, 0.0, 0.0, 0.0, 0.0]
48 [0.0, 0.0, 0.75, 0.99450547, 0.0, 0.0, 0.0, 0.0]
49 [0.0, 0.0, 0.0, 0.0, 0.0, 0.0, 0.0, 0.0]
