0 -3.1415925
0 -3.1415925
0 -3.1415925
0 3.1415925
0 -0.0
0 -0.0
0 -0.0
0 -0.0
0 -0.0
1 -3.1415925
1 -3.1415925
1 -3.1415925
1 3.1415925
1 -0.0
1 -0.0
1 -0.0
1 -0.0
1 -0.0
2 3.1360822
2 3.134399
2 3.1305716
2 3.109868
2 0.031724393
2 0.011021053
2 0.007193605
2 0.0055106636
2 9.1948874E-7
3 3.1273336
3 3.1229794
3 3.11308
3 3.0596523
3 0.08193431
3 0.028512213
3 0.018613031
3 0.014259183
3 -6.4950027E-6
4 3.1288607
4 3.1249728
4 3.1161325
4 3.0683944
4 0.07318885
4 0.025459241
4 0.016619604
4 0.012731939
4 -1.0926654E-5
5 3.1297219
5 3.1260967
5 3.1178539
5 3.07333
5 0.06825439
5 0.02373802
5 0.015495672
5 0.01187083
5 -1.0582022E-5
6 3.129452
6 3.1257446
6 3.1173143
6 3.0717812
6 0.06979769
6 0.024277132
6 0.015847728
6 0.012140637
6 -1.7443916E-5
7 3.1293755
7 3.1256442
7 3.1171606
7 3.0713363
7 0.07023281
7 0.024429569
7 0.015947664
7 0.012217284
7 -2.9370029E-5
8 3.129481
8 3.125782
8 3.1173716
8 3.0719411
8 0.06962648
8 0.024218692
8 0.015809672
8 0.012111699
8 -3.275232E-5
9 3.1294568
9 3.12575
9 3.1173224
9 3.071797
9 0.06976204
9 0.024266748
9 0.015841473
9 0.012136085
9 -4.324644E-5
10 3.128356
10 3.1243117
10 3.1151161
10 3.0654328
10 0.07600871
10 0.026460463
10 0.017276064
10 0.013236689
10 -1.7586518E-4
11 3.1282706
11 3.124186
11 3.1149006
11 3.0645237
11 0.07608461
11 0.026587207
11 0.017373456
11 0.013322198
11 -0.0011380861
12 3.1296072
12 3.125905
12 3.117491
12 3.0713978
12 0.06768035
12 0.023834135
12 0.015602972
12 0.011985443
12 -0.0032259747
13 3.1315606
13 3.1284277
13 3.1213102
13 3.0817554
13 0.055726264
13 0.019845577
13 0.013026674
13 0.010032118
13 -0.0062871547
14 3.1349347
14 3.1328197
14 3.1280158
14 3.1006844
14 0.03604213
14 0.013062168
14 0.008610142
14 0.006657983
14 -0.011160301
15 3.1401348
15 3.1396632
15 3.1385913
15 3.1323252
15 0.0076688244
15 0.0028332425
15 0.0018763855
15 0.0014580437
15 -0.016647771
16 -3.139696
16 -3.1390717
16 -3.137656
16 -3.1292038
16 -0.009772389
16 -0.0036624535
16 -0.0024342593
16 -0.0018965661
16 -0.020817287
17 -3.139696
17 -3.1390717
17 -3.137656
17 -3.1292038
17 -0.009772389
17 -0.0036624535
17 -0.0024342593
17 -0.0018965661
17 -0.020817287
18 -3.139065
18 -3.1382241
18 -3.1363165
18 -3.1247435
18 -0.012818183
18 -0.0048553785
18 -0.0032356558
18 -0.0025275878
18 -0.023959855
19 -3.140848
19 -3.1405969
19 -3.1400285
19 -3.1365259
19 -0.0037256056
19 -0.0014246854
19 -9.518577E-4
19 -7.446103E-4
19 -0.026896624
20 -3.140848
20 -3.1405969
20 -3.1400285
20 -3.1365259
20 -0.0037256056
20 -0.0014246854
20 -9.518577E-4
20 -7.446103E-4
20 -0.026896624
21 -3.1415806
21 -3.141575
21 -3.1415648
21 -3.1415012
21 -6.363038E-5
21 -2.4688443E-5
21 -1.6639679E-5
21 -1.1878611E-5
21 -0.03207827
22 3.1413455
22 3.1412613
22 3.1410668
22 3.139789
22 0.0011641409
22 4.6116282E-4
22 3.1089465E-4
22 2.471443E-4
22 -0.037957445
23 -3.1402748
23 -3.1398013
23 -3.138726
23 -3.131328
23 -0.0060320287
23 -0.0024452722
23 -0.0016589361
23 -0.0013178943
23 -0.04576851
24 -3.1402748
24 -3.1398013
24 -3.138726
24 -3.131328
24 -0.0060320287
24 -0.0024452722
24 -0.0016589361
24 -0.0013178943
24 -0.04576851
25 -3.1390088
25 -3.1380568
25 -3.1358871
25 -3.1201305
25 -0.011399207
25 -0.004729501
25 -0.0032292735
25 -0.0025838707
25 -0.05395158
26 -3.1390088
26 -3.1380568
26 -3.1358871
26 -3.1201305
26 -0.011399207
26 -0.004729501
26 -0.0032292735
26 -0.0025838707
26 -0.05395158
27 -3.1397173
27 -3.1390128
27 -3.137406
27 -3.1252775
27 -0.0080845365
27 -0.003404296
27 -0.0023344136
27 -0.0018753355
27 -0.05941328
28 3.1413844
28 3.1413085
28 3.1411297
28 3.139738
28 8.727164E-4
28 3.712543E-4
28 2.5544237E-4
28 2.0843574E-4
28 -0.06343666
29 3.1388977
29 3.1378655
29 3.1354911
29 3.1164045
29 0.011198894
29 0.0048191645
29 0.003325696
29 0.002695062
29 -0.067701556
30 3.1364672
30 3.1344707
30 3.1298704
30 3.0914066
30 0.020879926
30 0.009098652
30 0.0063024047
30 0.0051254285
30 -0.07263613
31 3.1350236
31 3.132412
31 3.1263773
31 3.0731492
31 0.026102113
31 0.0115504805
31 0.008038461
31 0.00656924
31 -0.07889653
32 3.1339955
32 3.1309063
32 3.1237392
32 3.0562017
32 0.029360065
32 0.013213715
32 0.009244196
32 0.0075972034
32 -0.086027555
33 3.1333287
33 3.1298854
33 3.1218574
33 3.039945
33 0.031009104
33 0.01420521
33 0.009994132
33 0.008263995
33 -0.093814544
34 3.133389
34 3.1298852
34 3.1216702
34 3.0298083
34 0.029891575
34 0.013933834
34 0.009858986
34 0.008203644
34 -0.10179669
35 3.1348696
35 3.1319897
35 3.1252306
35 3.0485616
35 0.024404781
35 0.011400596
35 0.008072338
35 0.0067231646
35 -0.10283263
36 3.1348696
36 3.1319897
36 3.1252306
36 3.0485616
36 0.024404781
36 0.011400596
36 0.008072338
36 0.0067231646
36 -0.10283263
37 3.1379328
37 3.1363747
37 3.1327178
37 3.0919077
37 0.013353862
37 0.0062173656
37 0.004397614
37 0.003659936
37 -0.10131923
38 3.1415389
38 3.1415212
38 3.1414714
38 3.1409395
38 1.8662873E-4
38 8.597858E-5
38 6.07594E-5
38 5.3975386E-5
38 -0.09756666
39 -3.1394458
39 -3.138544
39 -3.136451
39 -3.1149278
39 -0.008063126
39 -0.0036958682
39 -0.002600814
39 -0.0021467637
39 -0.094184235
40 -3.1390254
40 -3.1379578
40 -3.1354833
40 -3.110835
40 -0.009746428
40 -0.004437856
40 -0.0031165318
40 -0.0025672016
40 -0.09123639
41 -3.1390254
41 -3.1379578
41 -3.1354833
41 -3.110835
41 -0.009746428
41 -0.004437856
41 -0.0031165318
41 -0.0025672016
41 -0.09123639
42 -3.140578
42 -3.140154
42 -3.1391752
42 -3.1294641
42 -0.0038651472
42 -0.0017585924
42 -0.0012345492
42 -0.0010146324
42 -0.09085122
43 3.1393895
43 3.1384811
43 3.1363602
43 3.1151383
43 0.008327665
43 0.0037952852
43 0.0026660943
43 0.0022032287
43 -0.09165056
44 3.1358023
44 3.1334043
44 3.127818
44 3.0718067
44 0.021875245
44 0.009979349
44 0.0070116534
44 0.0057904785
44 -0.091998816
45 3.1332524
45 3.129795
45 3.1217444
45 3.0410664
45 0.03149227
45 0.014372811
45 0.010099791
45 0.008340259
45 -0.092136875
46 3.1332524
46 3.129795
46 3.1217444
46 3.0410664
46 0.03149227
46 0.014372811
46 0.010099791
46 0.008340259
46 -0.092136875
47 3.1332524
47 3.129795
47 3.1217444
47 3.0410664
47 0.03149227
47 0.014372811
47 0.010099791
47 0.008340259
47 -0.092136875
48 3.1352053
48 3.1325586
48 3.1263926
48 3.0644925
48 0.024117442
48 0.011005817
48 0.007733938
48 0.006387399
48 -0.09215189
49 3.1352053
49 3.1325586
49 3.1263926
49 3.0644925
49 0.024117442
49 0.011005817
49 0.007733938
49 0.006387399
49 -0.09215189
