0.024999999 -0.6249999
0.024999999 -0.6249999
0.024999999 -0.6249999
0.024999999 -0.6249999
0.024999999 -0.6249999
0.024999999 -0.6249999
0.024999999 -0.6249999
0.024999999 -0.6249999
0.024888381 -0.62499154
0.025373036 -0.62485373
0.026078153 -0.6250873
0.028789025 -0.6255271
0.030630996 -0.62551504
0.035356496 -0.6253436
0.038009353 -0.62573725
0.039811943 -0.62499535
0.04208348 -0.6231077
0.042135842 -0.62005055
0.04071449 -0.6159137
0.037605654 -0.6086699
0.035680857 -0.6052524
0.02865771 -0.5917927
0.024481041 -0.5848509
0.019268472 -0.5782643
0.017699877 -0.5769877
0.015758961 -0.57567394
0.012709553 -0.5744271
0.0120749045 -0.57464373
0.012090439 -0.5762305
0.012011412 -0.5775453
0.011908677 -0.5796014
0.011571269 -0.5788242
0.009141593 -0.57191527
0.0074938 -0.5677771
0.005119617 -0.5617076
-0.0010528603 -0.539574
-0.0041670804 -0.5238503
-0.008821617 -0.4910581
-0.0108763 -0.47655946
-0.013658883 -0.45673975
-0.015032992 -0.4472471
-0.01796282 -0.43054828
-0.019154128 -0.4253417
-0.020675529 -0.41789046
-0.021021025 -0.41552955
-0.02137933 -0.4133585
-0.022346888 -0.40694386
-0.022607531 -0.40269843
-0.021081883 -0.3890575
-0.018548142 -0.37799448
-0.010221103 -0.35169998
-0.0071288534 -0.34277308
-0.004711253 -0.33464402
-0.0026474462 -0.3306536
0.0010146368 -0.32326385
0.013583764 -0.2989422
0.022473589 -0.28308874
0.041897397 -0.250489
0.05176239 -0.23423438
0.07175686 -0.20092404
0.08191738 -0.18379244
0.1024821 -0.14940947
0.11285879 -0.13233688
0.13265184 -0.09806937
0.14247747 -0.081332244
0.15139875 -0.06663515
0.16439787 -0.045652665
0.17039554 -0.036175467
0.18029997 -0.02102693
0.18463503 -0.015524293
0.19231214 -0.007034426
0.1953051 -0.0041164504
0.1981686 -7.4923615E-4
0.1978462 -2.3283064E-8
0.19727507 0.0016478983
0.1958293 0.0014970547
0.1939291 0.001423592
0.19345255 0.0029126834
0.19353685 0.0033760308
0.19332664 0.0036511864
0.19303842 0.0040726797
0.19589633 0.0063887774
0.19706547 0.0071471334
0.19751187 0.007541778
0.19749139 0.007548242
0.1975644 0.0074809194
0.1977014 0.00867592
0.19893053 0.010158252
0.20858221 0.014268559
0.21774833 0.016542483
0.24584696 0.020590037
0.2602596 0.021692233
0.27693373 0.02301566
0.2795235 0.023446258
0.2802509 0.023509132
0.28023368 0.023488492
0.28022838 0.023486232
0.2802114 0.023475695
0.2801683 0.02348658
0.28127572 0.024076488
0.28642306 0.024226364
0.30754974 0.023794241
0.31932873 0.02328651
0.33508256 0.022478491
0.34710747 0.021346856
0.3608027 0.019626891
0.3808401 0.01713558
0.3857556 0.016913695
0.39225167 0.016590599
0.39641726 0.015713263
0.41369438 0.010814407
0.42719078 0.0062666326
0.46138635 -0.0069713667
0.48001248 -0.014865224
0.515987 -0.030764386
0.5293665 -0.03679067
0.53935176 -0.041357793
0.55104417 -0.047031067
0.55625165 -0.04991839
0.56113005 -0.053940654
0.5637399 -0.05568438
0.5759145 -0.060118448
0.58620393 -0.062393643
0.6012978 -0.06570455
0.6053778 -0.06669588
0.6159621 -0.0672545
0.6256875 -0.06724073
0.63702595 -0.066941924
0.6617205 -0.06507663
0.6789018 -0.06322863
0.7174526 -0.059806902
0.73521966 -0.05850345
0.76151055 -0.056794018
0.7758434 -0.05582899
0.8123964 -0.053169228
0.831456 -0.051273327
0.8502801 -0.049147498
0.8881062 -0.044781256
0.9050476 -0.042570174
0.92758733 -0.039690487
0.93536425 -0.038637716
0.94321406 -0.035979584
0.94321406 -0.035979584
