-0.10000025 0.07500021
-0.09992863 0.07516552
-0.1000127 0.07491121
-0.10003195 0.075391464
-0.09992901 0.076223396
-0.099774905 0.07887033
-0.099886194 0.08083369
-0.099886194 0.08083369
-0.10059269 0.08288431
-0.10216389 0.08514838
-0.10216389 0.08514838
-0.104643 0.08734261
-0.109329715 0.08882264
-0.109329715 0.08882264
-0.116989374 0.088598
-0.12595621 0.08699681
-0.13623759 0.084327556
-0.13623759 0.084327556
-0.14715208 0.08060026
-0.15804984 0.076297924
-0.15804984 0.076297924
-0.1684657 0.0711287
-0.17798844 0.06499983
-0.18743643 0.058089446
-0.18743643 0.058089446
-0.19538711 0.052195035
-0.20203483 0.047146376
-0.20203483 0.047146376
-0.20754977 0.04260994
-0.21224988 0.03669713
-0.2166152 0.029743832
-0.220723 0.021929838
-0.22398026 0.013685715
-0.22616144 0.0053060064
-0.22721514 -0.003147877
-0.22721514 -0.003147877
-0.2272917 -0.011453066
-0.2267948 -0.020183418
-0.2267948 -0.020183418
-0.22475569 -0.029515758
-0.22252691 -0.03811474
-0.22019017 -0.04543022
-0.22019017 -0.04543022
-0.21641774 -0.052886806
-0.21110699 -0.06076157
-0.205986 -0.067707166
-0.205986 -0.067707166
-0.19947688 -0.07476767
-0.19281262 -0.08137608
-0.19281262 -0.08137608
-0.18515143 -0.08773285
-0.1756968 -0.09410183
-0.1651829 -0.10007548
-0.1532645 -0.10545556
-0.12802094 -0.113603316
-0.12802094 -0.113603316
-0.11489077 -0.116652176
-0.10136998 -0.119757116
-0.10136998 -0.119757116
-0.08762969 -0.12274398
-0.07371163 -0.1254932
-0.061644692 -0.12779585
-0.061644692 -0.12779585
-0.04175553 -0.1312607
-0.032652874 -0.13224174
-0.017159924 -0.13313207
-0.008708945 -0.13298562
0.006992215 -0.13153557
0.015456659 -0.12964994
0.026359305 -0.12598078
0.051673613 -0.11400671
0.064821616 -0.10627325
0.08959717 -0.08952366
0.10085579 -0.08122654
0.12280063 -0.06414338
0.13460243 -0.055030346
0.15931213 -0.037510347
0.16918994 -0.030679692
0.17931548 -0.02308724
0.18175241 -0.020938378
0.18331954 -0.019460319
0.19174393 -0.01471754
0.20057365 -0.010701643
0.2271634 -6.66594E-4
0.2417589 0.003921115
0.27779466 0.013827187
0.27779466 0.013827187
0.33593068 0.029740032
0.3558451 0.035136133
0.37367126 0.039826192
0.3877564 0.043475084
0.41279545 0.05005418
0.43778548 0.05669261
0.4480876 0.059355848
0.46182933 0.06270991
0.4669076 0.06431034
0.48086897 0.071072556
0.49111825 0.07761005
0.5146541 0.09608138
0.5270318 0.107378975
0.5379443 0.11800705
0.55323017 0.13363197
0.55998385 0.14141747
0.5732171 0.15686016
0.5796038 0.16457072
0.5929544 0.1809383
0.6012923 0.18989746
0.62035197 0.20629403
0.6313939 0.214077
0.65535253 0.22852285
0.6637773 0.2334049
0.66937983 0.23660505
0.6729396 0.23916852
0.67314947 0.23943417
0.673115 0.23943245
0.6735753 0.23953843
0.67507315 0.23943803
0.67507315 0.23943803
0.67554724 0.23881319
0.6762172 0.23660019
0.6762172 0.23660019
0.6781344 0.2358079
0.6823592 0.23610024
0.68670696 0.23677187
0.68670696 0.23677187
0.6898808 0.23738089
0.69236505 0.23799257
0.69424677 0.23869145
0.69424677 0.23869145
0.6956068 0.23943989
0.6963561 0.24026315
0.6963561 0.24026315
0.6966655 0.2407867
0.6959058 0.24053983
0.6958488 0.24087985
0.6958488 0.24087985
0.6949784 0.24069147
0.69476664 0.24102068
0.69598824 0.2423145
0.69598824 0.2423145
0.70066094 0.24610174
0.70670074 0.25043052
0.71577394 0.25672153
0.7426432 0.27512383
0.7565606 0.28441125
0.77952665 0.2998896
0.7880341 0.30571002
0.8104476 0.31980583
0.82190907 0.3262152
0.8372344 0.33470657
0.8435653 0.33771172
0.84959126 0.3403101
0.85941553 0.34372094
0.8602985 0.3438092
0.86058104 0.34361702
0.86053544 0.34352762
0.86046696 0.34276566
0.86206675 0.34310845
0.8731577 0.34710005
0.87959594 0.34925032
0.88641083 0.35064328
0.8879611 0.35075945
0.88842666 0.35070226
0.88837177 0.35058925
0.8899106 0.35150728
0.8983324 0.35564673
0.9006609 0.35705078
0.91115427 0.36290875
0.921548 0.3684169
0.9513949 0.38461295
0.9681754 0.39320686
0.9988426 0.40875012
1.0098946 0.41442052
1.0176945 0.4183442
1.0318841 0.4253819
1.0396464 0.42886513
1.0466061 0.43161407
1.0513847 0.4335815
1.0619166 0.43811423
1.0630451 0.4384591
1.0626316 0.43829602
1.0614626 0.43801683
1.0602556 0.43778196
1.0599663 0.4377411
1.0599613 0.43773475
1.0582383 0.43705162
1.057021 0.43665308
1.0543263 0.43642178
1.052951 0.43714967
1.0491513 0.43996143
1.0472943 0.44189954
1.0424836 0.4449013
1.0411366 0.44624504
1.0420456 0.44788533
1.0513474 0.45099783
1.060422 0.45230293
1.0742002 0.4540576
1.0805858 0.45401186
1.0983108 0.4541568
1.1112833 0.45326528
1.1320202 0.45139378
1.1368488 0.45147982
1.139873 0.4518898
1.1492716 0.4509991
1.1570176 0.44904524
1.1719105 0.44434446
1.1755486 0.44326267
1.1834328 0.4398293
1.1892972 0.43680722
1.2001741 0.42996964
1.2052867 0.42628083
1.2101718 0.42175174
1.2113298 0.42057687
1.2118403 0.41996655
1.2187827 0.41591486
1.2254097 0.41223103
1.2395012 0.4042778
1.2468082 0.39982498
1.2609186 0.3912783
1.2666359 0.38797265
1.2770209 0.3822265
1.2809865 0.37939817
1.2839407 0.37393862
1.282629 0.3713328
1.2806708 0.36894053
1.2756069 0.36482137
1.2728322 0.36308774
1.2671348 0.36060172
1.2643397 0.359896
1.2608526 0.36003682
1.2612325 0.36070675
1.2581469 0.36097938
1.256641 0.36147323
1.2553375 0.36228007
1.2531573 0.364955
1.2523136 0.36689883
1.2525423 0.37210098
1.2543315 0.374956
1.2619321 0.3792767
1.26833 0.37980473
1.2861081 0.3772754
1.2937142 0.3755341
1.3054422 0.37218577
1.3054422 0.37218577
