-6.187467E-12 4.589E-41
-0.10000025 0.07500021
-0.10000025 0.07500021
-0.10000025 0.07500021
-0.10000025 0.07500021
-0.09987173 0.07518638
-0.099860415 0.07476852
-0.099860415 0.07476852
-0.0998034 0.07599382
-0.09976259 0.0769576
-0.09962009 0.07835617
-0.09987135 0.08008632
-0.09987135 0.08008632
-0.10090371 0.08139022
-0.10218897 0.083045624
-0.10218897 0.083045624
-0.10218897 0.083045624
-0.104244076 0.08460681
-0.104244076 0.08460681
-0.1082565 0.08511168
-0.1082565 0.08511168
-0.1082565 0.08511168
-0.11477961 0.08453115
-0.11477961 0.08453115
-0.11477961 0.08453115
-0.11477961 0.08453115
-0.12398241 0.08259052
-0.12398241 0.08259052
-0.13523753 0.07952879
-0.13523753 0.07952879
-0.13523753 0.07952879
-0.15885901 0.071624406
-0.15885901 0.071624406
-0.19620496 0.053999018
-0.19620496 0.053999018
-0.2144862 0.04327165
-0.22117305 0.03921167
-0.22813602 0.034972273
-0.23677485 0.029680246
-0.24610035 0.023335794
-0.24610035 0.023335794
-0.2534554 0.0180668
-0.2534554 0.0180668
-0.25962755 0.013513496
-0.25962755 0.013513496
-0.25962755 0.013513496
-0.26619208 0.008758881
-0.27288693 0.0041008876
-0.27865225 1.7876658E-4
-0.28459185 -0.004549864
-0.29198155 -0.011418244
-0.29198155 -0.011418244
-0.2983692 -0.017797744
-0.3041409 -0.024089415
-0.3041409 -0.024089415
-0.3041409 -0.024089415
-0.310667 -0.032025527
-0.31612703 -0.03872877
-0.32019833 -0.04382532
-0.3243071 -0.050185926
-0.3243071 -0.050185926
-0.32898396 -0.05939902
-0.32898396 -0.05939902
-0.33755082 -0.082723945
-0.33755082 -0.082723945
-0.34115463 -0.09668259
-0.34115463 -0.09668259
-0.34620258 -0.123673715
-0.34620258 -0.123673715
-0.34830725 -0.14047787
-0.34830725 -0.14047787
-0.34830725 -0.14047787
-0.3498816 -0.15536277
-0.351079 -0.16561031
-0.351079 -0.16561031
-0.35174352 -0.17503235
-0.35174352 -0.17503235
-0.35174352 -0.17503235
-0.35266644 -0.18535277
-0.35367417 -0.19754028
-0.35367417 -0.19754028
-0.3548718 -0.22500928
-0.3548718 -0.22500928
-0.35529655 -0.23670919
-0.3555959 -0.2468724
-0.3554717 -0.2575913
-0.3554717 -0.2575913
-0.3545111 -0.2687617
-0.35277477 -0.28034547
-0.35277477 -0.28034547
-0.34999883 -0.29239213
-0.34601682 -0.3051271
-0.34119937 -0.31800798
-0.34119937 -0.31800798
-0.33569664 -0.33088073
-0.32388523 -0.35620177
-0.3171485 -0.3692055
-0.303567 -0.39385715
-0.29901198 -0.40206018
-0.29123765 -0.41688958
-0.29123765 -0.41688958
-0.28699446 -0.42287382
-0.2806322 -0.4306582
-0.2728453 -0.43915263
-0.24585445 -0.4646133
-0.22711873 -0.4783391
-0.22711873 -0.4783391
-0.22059473 -0.48293605
-0.21283622 -0.4878777
-0.18947485 -0.49880224
-0.15496758 -0.50931925
-0.15496758 -0.50931925
-0.13611072 -0.51392376
-0.121741295 -0.517159
-0.11205189 -0.5196153
-0.11205189 -0.5196153
-0.106787845 -0.5214746
-0.09927534 -0.5210883
-0.09927534 -0.5210883
-0.08949005 -0.5218146
-0.07606909 -0.5227042
-0.0593911 -0.5233615
-0.0593911 -0.5233615
-0.043589924 -0.52349293
-0.028454086 -0.5230278
-0.012852038 -0.52203625
-0.012852038 -0.52203625
0.002883314 -0.5208438
0.002883314 -0.5208438
0.002883314 -0.5208438
0.033448 -0.51713693
0.04651827 -0.5150112
0.058755677 -0.51266253
0.058755677 -0.51266253
0.07117731 -0.50973064
0.08217963 -0.5071514
0.08217963 -0.5071514
0.09335478 -0.50398695
0.09335478 -0.50398695
0.1103666 -0.4985229
0.1103666 -0.4985229
0.11856129 -0.49530825
0.11856129 -0.49530825
0.12876539 -0.49008018
0.14058891 -0.48283663
0.16335823 -0.4659652
0.17393783 -0.4566641
0.18271856 -0.44852453
0.18271856 -0.44852453
0.18271856 -0.44852453
0.19019319 -0.4413169
0.19019319 -0.4413169
0.19746624 -0.4337371
0.19746624 -0.4337371
0.21715021 -0.4131895
0.21715021 -0.4131895
0.24117485 -0.38925028
0.25316045 -0.3773495
0.2651074 -0.3656883
0.28895319 -0.34564018
0.30083698 -0.33705068
0.3210698 -0.32407284
0.3273816 -0.31997663
0.3317738 -0.31557947
0.33140942 -0.31460688
0.3347854 -0.3109221
0.3388676 -0.30861682
0.34787774 -0.30420968
0.35583162 -0.3016158
0.373249 -0.29710454
0.37817895 -0.29550156
0.38210547 -0.29444623
0.3865848 -0.2929948
0.3873088 -0.29275233
0.38786742 -0.29275587
0.38846546 -0.29303876
0.38789684 -0.2945825
0.38680083 -0.29560062
0.3917155 -0.29681206
0.3996603 -0.29692605
0.41653863 -0.2972963
0.4210802 -0.29790056
0.4266737 -0.298226
0.4428454 -0.2974276
0.44768208 -0.29731327
0.4625493 -0.29510307
0.47292238 -0.29287547
0.49556226 -0.28702477
0.5076034 -0.2829349
0.5243274 -0.2768335
0.53222 -0.27341706
0.5411379 -0.2691539
0.5568846 -0.25957015
0.5568846 -0.25957015
0.5568846 -0.25957015
0.5568846 -0.25957015
0.5728442 -0.24798386
0.5812038 -0.24177119
0.58614945 -0.23792
0.59140396 -0.23329177
0.59140396 -0.23329177
0.59140396 -0.23329177
0.59140396 -0.23329177
0.5967247 -0.22909684
0.5967247 -0.22909684
0.6023704 -0.22456813
0.6023704 -0.22456813
0.6112534 -0.21782216
0.62177855 -0.21014638
0.6427215 -0.1945288
0.6427215 -0.1945288
0.6427215 -0.1945288
0.6427215 -0.1945288
0.6427215 -0.1945288
0.65312237 -0.18664923
0.65312237 -0.18664923
0.6649005 -0.17838274
0.6649005 -0.17838274
0.6649005 -0.17838274
0.67801946 -0.16999222
0.69228244 -0.16196178
0.70640457 -0.15450108
0.7185036 -0.14830045
0.7420075 -0.13751082
0.75655 -0.13120322
0.7711216 -0.1251066
0.78591835 -0.11897154
0.78591835 -0.11897154
0.80064094 -0.11316602
0.8154583 -0.10791987
0.8512696 -0.09771856
0.86799556 -0.09368564
0.88045275 -0.090754636
0.8890173 -0.08877126
0.8961927 -0.08687713
0.8966549 -0.08657782
0.8971217 -0.08642175
0.9002348 -0.08619003
0.9002348 -0.08619003
