-0.10000025 0.07500021
-0.09987173 0.07518638
-0.09987173 0.07518638
-0.09983133 0.075233005
-0.09983133 0.075233005
-0.0998034 0.07599382
-0.0998034 0.07599382
-0.10018231 0.07779692
-0.10018231 0.07779692
-0.10091297 0.07830555
-0.10351451 0.07816031
-0.10351451 0.07816031
-0.111416735 0.076645754
-0.111416735 0.076645754
-0.111416735 0.076645754
-0.11401522 0.07592667
-0.11401522 0.07592667
-0.11401522 0.07592667
-0.116060294 0.07499312
-0.120091245 0.07317974
-0.120091245 0.07317974
-0.1276016 0.07065629
-0.13296445 0.06919517
-0.138545 0.068026416
-0.14781055 0.06695357
-0.154713 0.06718847
-0.16364542 0.06812079
-0.16364542 0.06812079
-0.18968305 0.07197908
-0.20389673 0.07430644
-0.23037839 0.079599306
-0.24286063 0.08267069
-0.25339055 0.08520648
-0.25339055 0.08520648
-0.2636499 0.08805393
-0.27376845 0.091773726
-0.27376845 0.091773726
-0.28234026 0.09538705
-0.29071146 0.09975139
-0.29968372 0.10553807
-0.308572 0.112223305
-0.308572 0.112223305
-0.31870234 0.12100418
-0.32924446 0.13159168
-0.32924446 0.13159168
-0.3388922 0.14307314
-0.34771517 0.15548193
-0.35588488 0.16846332
-0.35588488 0.16846332
-0.363792 0.18231502
-0.37159625 0.19684279
-0.37926012 0.21159665
-0.37926012 0.21159665
-0.3863475 0.22634438
-0.39249825 0.24075237
-0.39249825 0.24075237
-0.39833096 0.25501654
-0.4033204 0.26751462
-0.4033204 0.26751462
-0.4077285 0.2787272
-0.4077285 0.2787272
-0.41579595 0.2993805
-0.41885525 0.30702165
-0.41885525 0.30702165
-0.42167625 0.31598538
-0.42167625 0.31598538
-0.4242623 0.32593817
-0.42638224 0.33494064
-0.42795944 0.34320387
-0.42882237 0.3527222
-0.42882237 0.3527222
-0.42957026 0.3610684
-0.42957026 0.3610684
-0.42957026 0.3610684
-0.43002802 0.36858493
-0.43029118 0.37696978
-0.43029118 0.37696978
-0.43059817 0.38540855
-0.43080097 0.3934307
-0.43080097 0.3934307
-0.42915922 0.40882415
-0.42205977 0.4310735
-0.41074005 0.45450383
-0.41074005 0.45450383
-0.40694126 0.4624113
-0.4031268 0.47120935
-0.40056124 0.47594792
-0.3982469 0.48077053
-0.39523074 0.48677716
-0.38469648 0.5020441
-0.3787525 0.50975347
-0.37237513 0.51747304
-0.37237513 0.51747304
-0.36586878 0.52490866
-0.35918102 0.5312863
-0.344554 0.54158276
-0.33648223 0.54627204
-0.32791996 0.55105484
-0.32791996 0.55105484
-0.3107832 0.5595251
-0.3030744 0.5625425
-0.28589177 0.5661459
-0.27610788 0.56667024
-0.25516507 0.5664753
-0.24498336 0.5653575
-0.23635224 0.5637858
-0.22850218 0.56172574
-0.21963708 0.5586071
-0.20150773 0.55099016
-0.19517519 0.548164
-0.18414141 0.542507
-0.18414141 0.542507
-0.16706297 0.5299424
-0.1573938 0.52092224
-0.13823405 0.50017625
-0.12969372 0.49028808
-0.12969372 0.49028808
-0.12145828 0.48024178
-0.12145828 0.48024178
-0.107077144 0.4615647
-0.107077144 0.4615647
-0.107077144 0.4615647
-0.09876271 0.4514532
-0.09876271 0.4514532
-0.09526396 0.44731408
-0.09114467 0.44084254
-0.08755909 0.43452984
-0.08755909 0.43452984
-0.08010587 0.41637555
-0.08010587 0.41637555
-0.08010587 0.41637555
-0.08010587 0.41637555
-0.07623595 0.4030222
-0.07018264 0.37562504
-0.07018264 0.37562504
-0.065747395 0.3510795
-0.065747395 0.3510795
-0.06357059 0.33836684
-0.06357059 0.33836684
-0.06174474 0.3258838
-0.060327344 0.3138794
-0.059572738 0.3007787
-0.059192073 0.28938797
-0.059192073 0.28938797
-0.05926379 0.28022578
-0.060325705 0.27088884
-0.062418412 0.26044202
-0.062418412 0.26044202
-0.06450387 0.2511005
-0.06692037 0.24284025
-0.070049204 0.23533933
-0.07732203 0.22234535
-0.08252659 0.21535642
-0.09735549 0.20119739
-0.10479633 0.19530047
-0.11921076 0.18568762
-0.12997693 0.1800184
-0.14609745 0.17220986
-0.15467283 0.16903277
-0.18085924 0.16192624
-0.19612113 0.15900163
-0.21196198 0.1564478
-0.23600383 0.15251593
-0.24481252 0.1513252
-0.26470554 0.15005247
-0.27119145 0.14961609
-0.28971145 0.1505617
-0.29987127 0.15179168
-0.31217414 0.15301643
-0.3163602 0.15346144
-0.32135934 0.15395424
-0.32224196 0.15401688
-0.3226158 0.15421042
-0.32470557 0.15515737
-0.32816848 0.1565115
-0.33755273 0.16010891
-0.34285304 0.16207346
-0.34681004 0.16326259
-0.34906158 0.16373739
-0.35259092 0.16434868
-0.3528519 0.16429575
-0.3528519 0.16429575
-0.3528519 0.16429575
-0.3528519 0.16429575
-0.35436937 0.16486357
-0.35436937 0.16486357
-0.35529894 0.16533576
-0.35529894 0.16533576
-0.35637593 0.16580413
-0.35637593 0.16580413
-0.35734487 0.1659185
-0.35734487 0.1659185
-0.3593982 0.16672167
-0.36227584 0.16820753
-0.3664268 0.1703982
-0.3664268 0.1703982
-0.3664268 0.1703982
-0.37338096 0.1742529
-0.383339 0.1800207
-0.41236186 0.1977192
-0.42859846 0.20786865
-0.42859846 0.20786865
-0.42859846 0.20786865
-0.44301763 0.21663204
-0.45430344 0.2234499
-0.45430344 0.2234499
-0.46437445 0.22911039
-0.474269 0.23523395
-0.48602396 0.242281
-0.5059016 0.2543029
-0.5059016 0.2543029
-0.5145541 0.25948372
-0.5145541 0.25948372
-0.5145541 0.25948372
-0.5314569 0.26974154
-0.54329383 0.2768144
-0.5584524 0.28567767
-0.5730947 0.29416215
-0.5837057 0.30029267
-0.5837057 0.30029267
-0.59503967 0.30670968
-0.6102178 0.31535164
-0.6102178 0.31535164
-0.64408207 0.33438691
-0.64408207 0.33438691
-0.6788718 0.3539426
-0.6957537 0.363441
-0.6957537 0.363441
-0.71023625 0.37140435
-0.7206737 0.3771662
-0.72796196 0.38112
-0.72796196 0.38112
-0.73262364 0.38342297
-0.7360945 0.38528556
-0.7481359 0.39227203
-0.753388 0.39524686
-0.7591211 0.3984684
-0.7801757 0.41115838
-0.7953106 0.420623
-0.82774514 0.44190645
-0.8415286 0.4508416
-0.86784285 0.4685263
-0.88296306 0.47898477
-0.9066943 0.49470496
-0.91402197 0.49954742
-0.9183329 0.50236976
-0.91964006 0.5031912
-0.9196192 0.5031789
-0.9197019 0.5031363
-0.91994554 0.50285757
-0.9204652 0.50246525
-0.9204652 0.50246525
-0.92270267 0.50306153
-0.9242376 0.5029407
-0.9243399 0.50212616
-0.9243399 0.50212616
-0.9243399 0.50212616
-0.9262198 0.50195616
-0.9303292 0.5032126
-0.9303292 0.5032126
-0.9303292 0.5032126
-0.9359886 0.5062184
-0.9405798 0.5086189
-0.9455632 0.5118786
-0.9455632 0.5118786
-0.95249367 0.51750654
-0.9585434 0.5227343
-0.9585434 0.5227343
-0.9649178 0.5292301
-0.9649178 0.5292301
-0.97216195 0.5373386
-0.97216195 0.5373386
-0.97216195 0.5373386
-0.97216195 0.5373386
-0.97928655 0.54588455
-0.9864588 0.55462307
-0.9864588 0.55462307
-0.9864588 0.55462307
-0.9864588 0.55462307
-0.99351645 0.5638289
-0.99351645 0.5638289
-0.9998786 0.5730993
-1.0055401 0.5824191
-1.0160308 0.60195243
-1.0207007 0.611824
-1.0277191 0.63537246
-1.0291116 0.6472892
-1.0291808 0.6591455
-1.0282015 0.67064154
-1.026184 0.6816725
-1.0211806 0.701317
-1.0194151 0.708275
-1.0155269 0.7214047
-1.0114762 0.73002994
-1.002047 0.7470277
-0.99672717 0.7551101
-0.9913023 0.7620931
-0.9856407 0.7682133
-0.9856407 0.7682133
-0.9732729 0.7797508
-0.9665524 0.785795
-0.952068 0.79694724
-0.94419086 0.8016136
-0.92468894 0.8090104
-0.9130162 0.8115161
-0.89483404 0.8142909
-0.88687885 0.8147572
-0.87724084 0.8148114
-0.8645334 0.8140969
-0.8208908 0.80732167
-0.80606574 0.8043598
-0.79059225 0.800636
-0.76456964 0.7932954
-0.7520452 0.7895998
-0.72278047 0.77992576
-0.7084934 0.77402866
-0.67977476 0.760217
-0.6680308 0.7543918
-0.641471 0.7397025
-0.6268412 0.7309111
-0.61218 0.7219596
-0.58312404 0.7037386
-0.58312404 0.7037386
-0.5541012 0.68251956
-0.53905475 0.670544
-0.5092506 0.6465236
-0.5092506 0.6465236
-0.49599338 0.6357821
-0.48247018 0.62506217
-0.45201868 0.6010269
-0.43884152 0.5908801
-0.4143839 0.57102686
-0.3999885 0.55974483
-0.3999885 0.55974483
-0.36987758 0.53640443
-0.35354182 0.5230764
-0.33813336 0.5101229
-0.33813336 0.5101229
-0.32329735 0.49721336
-0.30890435 0.4845542
-0.29493123 0.47211495
-0.29493123 0.47211495
-0.2808682 0.45963126
-0.2658152 0.44634858
-0.2658152 0.44634858
-0.2501399 0.43271613
-0.23362449 0.41856757
-0.21740296 0.40446854
-0.21740296 0.40446854
-0.20217748 0.39085275
-0.18904237 0.37834066
-0.17871828 0.3681417
-0.17871828 0.3681417
-0.17111549 0.36042827
-0.17111549 0.36042827
-0.1647567 0.35414976
-0.15039459 0.3404525
-0.14022247 0.33037215
-0.14022247 0.33037215
-0.12952271 0.3188656
-0.11882579 0.30662242
-0.11882579 0.30662242
-0.10840241 0.29358366
-0.09796034 0.28032976
-0.09796034 0.28032976
-0.08758429 0.26702222
-0.08758429 0.26702222
-0.08758429 0.26702222
-0.07829359 0.25459743
-0.068412796 0.2406536
-0.05802993 0.22508267
-0.05802993 0.22508267
-0.04935106 0.21116182
-0.04284185 0.20049927
-0.04284185 0.20049927
-0.036338598 0.18901145
-0.028371345 0.17447056
-0.028371345 0.17447056
-0.021410687 0.16116422
-0.01656454 0.1520171
-0.0114686685 0.1414016
-0.0114686685 0.1414016
-0.0047591706 0.12720922
0.0024686323 0.11085187
0.0024686323 0.11085187
0.009833118 0.09339564
0.017208539 0.075049825
0.017208539 0.075049825
0.024346823 0.056467034
0.04001557 0.017966336
0.04001557 0.017966336
0.053688157 -0.015658755
0.059060533 -0.02848802
0.0655411 -0.043823496
0.067297764 -0.046695016
0.067297764 -0.046695016
0.071836166 -0.05757463
0.07502181 -0.06775449
0.07853601 -0.08133263
0.08185221 -0.0970174
0.084835514 -0.11342585
0.084835514 -0.11342585
0.087434925 -0.1302977
0.087434925 -0.1302977
0.09253677 -0.1719718
0.09253677 -0.1719718
0.09427485 -0.19357719
0.095096275 -0.21572042
0.095096275 -0.21572042
0.0952399 -0.23772256
0.09486465 -0.2562911
0.094174266 -0.27320516
0.092828885 -0.29002318
0.0879626 -0.32546604
0.08461623 -0.34424818
0.07734721 -0.38183516
0.07376573 -0.4005882
0.070491716 -0.41757926
0.06595164 -0.4406426
0.064089976 -0.45055038
0.05843435 -0.481277
0.05480043 -0.50075585
0.047743414 -0.5387969
0.044231333 -0.5575152
0.03793845 -0.5932082
0.03793845 -0.5932082
0.03483873 -0.61111367
0.031685412 -0.62741613
0.027483422 -0.6489638
0.027483422 -0.6489638
