-2.044472694397 -1.1249985694885
-2.0444624423981 -1.1230906248093
-2.0443601608276 -1.1192708015442
-2.044668674469 -1.1155253648758
-2.045135974884 -1.1121189594269
-2.045756816864 -1.1092207431793
-2.0463819503784 -1.1061320304871
-2.0468969345093 -1.1029818058014
-2.0473237037659 -1.099630355835
-2.0476667881012 -1.0962349176407
-2.0479617118835 -1.092755317688
-2.0481538772583 -1.0890492200851
-2.0482294559479 -1.0852280855179
-2.0482060909271 -1.0812999010086
-2.0481295585632 -1.0779122114182
-2.0479254722595 -1.0746240615845
-2.0476667881012 -1.0712878704071
-2.0473427772522 -1.0679438114166
-2.0469746589661 -1.0645167827606
-2.0465493202209 -1.0610430240631
-2.0460562705994 -1.0576642751694
-2.0454888343811 -1.0541373491287
-2.0448470115662 -1.050622344017
-2.0441825389862 -1.0470315217972
-2.0434637069702 -1.0433776378632
-2.0426683425903 -1.039710521698
-2.0418126583099 -1.0360028743744
-2.040904045105 -1.0322940349579
-2.0399751663208 -1.0285537242889
-2.0390124320984 -1.0247988700867
-2.0379967689514 -1.0209975242615
-2.0369322299957 -1.0171537399292
-2.0358490943909 -1.0133113861084
-2.0347323417664 -1.0094723701477
-2.0335872173309 -1.0056110620499
-2.0324268341064 -1.001745223999
-2.0312538146973 -0.99789541959763
-2.0298316478729 -0.99292296171188
-2.0283076763153 -0.98753416538239
-2.0267703533173 -0.98205649852753
-2.0251932144165 -0.97658079862595
-2.0235800743103 -0.97108346223831
-2.0218942165375 -0.96560895442963
-2.0202021598816 -0.96011161804199
-2.0184695720673 -0.9546400308609
-2.0167298316956 -0.9491828083992
-2.0149595737457 -0.94371300935745
-2.0131351947784 -0.9382609128952
-2.0113120079041 -0.93279713392258
-2.0094714164734 -0.92733699083328
-2.007618188858 -0.92188185453415
-2.0057334899902 -0.91644030809402
-2.0038425922394 -0.9109942317009
-2.0019383430481 -0.90556609630585
-2.0000214576721 -0.90013778209686
-1.9980933666229 -0.89470559358597
-1.9961588382721 -0.88928020000458
-1.9942171573639 -0.88384974002838
-1.9922611713409 -0.87842118740082
-1.9903053045273 -0.87300789356232
-1.9883468151093 -0.86758452653885
-1.9863945245743 -0.86217927932739
-1.9844620227814 -0.85679340362549
-1.9825407266617 -0.85139071941376
-1.9806022644043 -0.84601414203644
-1.9786583185196 -0.84061986207962
-1.9767143726349 -0.83520030975342
-1.9747995138168 -0.82978975772858
-1.972883939743 -0.8243562579155
-1.9709831476212 -0.8189269900322
-1.9691041707993 -0.81348562240601
-1.9672286510468 -0.80800771713257
-1.9653642177582 -0.80253946781158
-1.9634988307953 -0.79699701070786
-1.9616588354111 -0.79146009683609
-1.9598484039307 -0.78589409589767
-1.9580402374268 -0.78028964996338
-1.9562282562256 -0.77468550205231
-1.9544460773468 -0.76902157068253
-1.9526656866074 -0.7633308172226
-1.950904250145 -0.75762337446213
-1.9491707086563 -0.75185406208038
-1.947424530983 -0.74605989456177
-1.945728302002 -0.74021905660629
-1.9440295696259 -0.73434859514236
-1.9423694610596 -0.72840577363968
-1.9405225515366 -0.72158896923065
-1.9386072158813 -0.71378570795059
-1.9367625713348 -0.70547330379486
-1.9349248409271 -0.69715625047684
-1.9330208301544 -0.68879467248917
-1.9310318231583 -0.68039816617966
-1.9289674758911 -0.67198586463928
-1.9268290996552 -0.66358941793442
-1.9246362447739 -0.65513908863068
-1.9223921298981 -0.64666068553925
-1.920074224472 -0.63811272382736
-1.9177032709122 -0.62957203388214
-1.9152199029922 -0.62102794647217
-1.9127258062363 -0.61240381002426
-1.9101606607437 -0.60379338264465
-1.9075527191162 -0.59516489505768
-1.9048944711685 -0.58646833896637
-1.9021987915039 -0.57777059078217
-1.8994390964508 -0.56900548934937
-1.8966156244278 -0.56021529436111
-1.8937546014786 -0.55139243602753
-1.8908571004868 -0.54252535104752
-1.8879306316376 -0.53364163637161
-1.884957909584 -0.52471202611923
-1.881947517395 -0.5157550573349
-1.8789024353027 -0.50674194097519
-1.875821352005 -0.49770337343216
-1.8727180957794 -0.48862028121948
-1.8695688247681 -0.47950109839439
-1.8663918972015 -0.470329195261
-1.8631938695908 -0.46112823486328
-1.8600002527237 -0.4519277215004
-1.856785774231 -0.44270712137222
-1.8535754680634 -0.43350523710251
-1.8503696918488 -0.42429119348526
-1.8471658229828 -0.41509675979614
-1.8439626693726 -0.40587839484215
-1.8407675027847 -0.39667528867722
-1.837566614151 -0.38747930526733
-1.8343660831451 -0.37826576828957
-1.8311628103256 -0.36904820799828
-1.8279653787613 -0.35985112190247
-1.8247706890106 -0.35063022375107
-1.8215668201447 -0.34142538905144
-1.8183618783951 -0.33220595121384
-1.8151559829712 -0.32300642132759
-1.8119509220123 -0.31378951668739
-1.808744430542 -0.3045819401741
-1.8055503368378 -0.29536432027817
-1.8023700714111 -0.28626176714897
-1.7992103099823 -0.27722722291946
-1.7960720062256 -0.26827871799469
-1.7929668426514 -0.25939953327179
-1.7898788452148 -0.25059965252876
-1.7868051528931 -0.24185657501221
-1.7837717533112 -0.23320350050926
-1.7807668447495 -0.22461065649986
-1.7778030633926 -0.21607899665833
-1.7748705148697 -0.20759911835194
-1.7719690799713 -0.19915877282619
-1.7690970897675 -0.19078150391579
-1.7662582397461 -0.1824491918087
-1.7634605169296 -0.17413082718849
-1.7606747150421 -0.16584751009941
-1.7579319477081 -0.15756392478943
-1.7552324533463 -0.14932569861412
-1.7525478601456 -0.14108331501484
-1.7499008178711 -0.13287016749382
-1.7472894191742 -0.12467460334301
-1.7447286844254 -0.11649323999882
-1.7422018051147 -0.10834570229053
-1.7396959066391 -0.10020069032907
-1.7373292446136 -0.0922836586833
-1.7350416183472 -0.084594175219536
-1.7328555583954 -0.077104441821575
-1.7308470010757 -0.070658661425114
-1.7289588451385 -0.065061181783676
-1.7271041870117 -0.059730749577284
-1.7253736257553 -0.05456667393446
-1.7237672805786 -0.049527205526829
-1.7223345041275 -0.044667512178421
-1.7208427190781 -0.038948707282543
-1.7193915843964 -0.032907351851463
-1.7180544137955 -0.027074288576841
-1.7168010473251 -0.021407643333077
-1.7155975103378 -0.015919020399451
-1.7144391536713 -0.010558835230768
-1.7133321762085 -0.005371886305511
-1.7122894525528 -0.00035229959757999
-1.7112776041031 0.0045590521767735
-1.7103484869003 0.0093169081956148
-1.7094442844391 0.013948125764728
-1.7085918188095 0.018450060859323
-1.7077716588974 0.022813942283392
-1.7070171833038 0.027047475799918
-1.7062915563583 0.031149303540587
-1.705594420433 0.035126443952322
-1.7049300670624 0.038985535502434
-1.7042951583862 0.042732026427984
-1.7036737203598 0.046382285654545
-1.7030922174454 0.049944188445807
-1.7025581598282 0.053423643112183
-1.7020251750946 0.056789614260197
-1.7015273571014 0.060059376060963
-1.7010504007339 0.063223607838154
-1.700612783432 0.066294819116592
-1.7001895904541 0.069276198744774
-1.6997921466827 0.072181940078735
-1.6993986368179 0.075002565979958
-1.6990258693695 0.077747128903866
-1.6986749172211 0.080408364534378
-1.6983289718628 0.082985423505306
-1.6980133056641 0.085486203432083
-1.6976945400238 0.087919317185879
-1.6974048614502 0.090279415249825
-1.6971257925034 0.092569567263126
-1.6968648433685 0.094801180064678
-1.6966075897217 0.096966788172722
-1.6963622570038 0.099067963659763
-1.6961281299591 0.1011106967926
-1.6959006786346 0.10309825837612
-1.6956861019135 0.105025626719
-1.6954901218414 0.10689187049866
-1.6953010559082 0.10871382802725
-1.6951110363007 0.11047448217869
-1.6949374675751 0.11218788474798
-1.6947656869888 0.11385364830494
-1.6946128606796 0.11546383798122
-1.6944551467896 0.1170312166214
-1.6943137645721 0.11855961382389
-1.6941757202148 0.12003201246262
-1.6940406560898 0.12147138267756
-1.693922996521 0.12286056578159
-1.6938009262085 0.12420668452978
-1.6936891078949 0.12552197277546
-1.6935842037201 0.12678804993629
-1.6934869289398 0.12802812457085
-1.6933931112289 0.12923429906368
-1.6933023929596 0.13039368391037
-1.6932165622711 0.13152578473091
-1.6931354999542 0.13262125849724
-1.6930530071259 0.13368514180183
-1.6929792165756 0.13471707701683
-1.6929069757462 0.13571992516518
-1.692840218544 0.1366963237524
-1.6927801370621 0.13744185864925
-1.6927273273468 0.13799585402012
-1.6926530599594 0.13842804729939
-1.6925728321075 0.1387430280447
-1.6924798488617 0.13901081681252
-1.6923984289169 0.13925620913506
-1.6923112869263 0.13950672745705
-1.6922245025635 0.13976486027241
-1.6921411752701 0.14000961184502
-1.6920667886734 0.14025613665581
-1.6919893026352 0.140496134758
-1.6919075250626 0.14070677757263
-1.6918208599091 0.14090090990067
-1.6917377710342 0.14110504090786
-1.6916501522064 0.14127661287785
-1.6915652751923 0.14140191674232
-1.6916406154633 0.13947901129723
-1.691784620285 0.13591310381889
-1.6917858123779 0.13257363438606
-1.6917448043823 0.12942378222942
-1.6916955709457 0.12645721435547
-1.6916459798813 0.12366330623627
-1.6915394067764 0.12103994190693
-1.6914278268814 0.11857160180807
-1.6913207769394 0.11626668274403
-1.6911699771881 0.11404176801443
-1.6909974813461 0.11189786344767
-1.6908012628555 0.10987045615911
-1.6905065774918 0.10932211577892
-1.6900898218155 0.10993603616953
-1.6895697116852 0.11063764244318
-1.6890786886215 0.11119002103806
-1.6885639429092 0.1117495149374
-1.6880903244019 0.11234279721975
-1.6876615285873 0.11306683719158
-1.6872409582138 0.11391508579254
-1.6868432760239 0.11497465521097
-1.6865062713623 0.11611171066761
-1.6862146854401 0.11732159554958
-1.6860736608505 0.11926710605621
-1.6861509084702 0.1218808889389
-1.6863847970963 0.12464912235737
-1.6866565942764 0.12745082378387
-1.6869577169418 0.13027414679527
-1.6872726678848 0.13306042551994
-1.6875826120377 0.13578742742538
-1.6878877878189 0.13843841850758
-1.6878877878189 0.13843841850758
-1.6878877878189 0.13843841850758
-1.6878877878189 0.13843841850758
-1.6878877878189 0.13843841850758
-1.6878877878189 0.13843841850758
-1.6878877878189 0.13843841850758
-1.6878877878189 0.13843841850758
-1.6879441738129 0.13869234919548
-1.6879514455795 0.13937804102898
-1.6880569458008 0.13998490571976
-1.6881942749023 0.14060914516449
-1.6883491277695 0.14127749204636
-1.6884660720825 0.14185491204262
-1.6885839700699 0.14241819083691
-1.6887302398682 0.14298239350319
-1.6889005899429 0.14349035918713
-1.6890805959702 0.14397165179253
-1.6892400979996 0.14453636109829
-1.6894292831421 0.14505180716515
-1.6896423101425 0.14553451538086
-1.6898123025894 0.14607015252113
-1.6900027990341 0.14662978053093
-1.6902271509171 0.14720034599304
-1.6904449462891 0.14774125814438
-1.6906363964081 0.14830194413662
-1.6914834976196 0.14761456847191
-1.6926593780518 0.14602123200893
-1.6938076019287 0.14446364343166
-1.6949046850204 0.14297179877758
-1.6959297657013 0.1415840536356
-1.6969468593597 0.14021734893322
-1.6979194879532 0.13893784582615
-1.6988760232925 0.13770000636578
-1.6997954845428 0.13650521636009
-1.7006847858429 0.13537013530731
-1.7015228271484 0.13431695103645
-1.702364563942 0.13329449295998
-1.7031713724136 0.13231229782104
-1.7039886713028 0.131332218647
-1.7047426700592 0.13043364882469
-1.7054513692856 0.12960144877434
-1.7061465978622 0.12879936397076
-1.7068039178848 0.12804624438286
-1.7074253559113 0.12732464075089
-1.7080627679825 0.12664875388145
-1.70865213871 0.12598969042301
-1.7092227935791 0.12538969516754
-1.709764122963 0.12485095113516
-1.7103255987167 0.12430875003338
-1.7108585834503 0.12381322681904
-1.7113599777222 0.12331725656986
-1.7114719152451 0.12344535440207
-1.711345911026 0.1242203861475
-1.7112274169922 0.12520524859428
-1.7110850811005 0.12609833478928
-1.7109419107437 0.12698301672935
-1.7108196020126 0.12787510454655
-1.7106277942657 0.12874034047127
-1.7105153799057 0.12957061827183
-1.7104070186615 0.13040806353092
-1.7102749347687 0.13124838471413
-1.7101576328278 0.13215655088425
-1.7090213298798 0.13389906287193
-1.7068059444427 0.13662259280682
-1.7042096853256 0.1396179497242
-1.7016147375107 0.14252534508705
-1.6990963220596 0.14531297981739
-1.6966054439545 0.14806275069714
-1.6941627264023 0.15071307122707
-1.691766500473 0.15329994261265
-1.6894328594208 0.15583485364914
-1.6871427297592 0.15829774737358
-1.6848961114883 0.16069731116295
-1.6827042102814 0.16306817531586
-1.6805772781372 0.16536632180214
-1.6784454584122 0.1676439344883
-1.676947593689 0.16916331648827
-1.6762399673462 0.17023904621601
-1.6761894226074 0.17098335921764
-1.6766965389252 0.17148338258266
-1.6774441003799 0.17194564640522
-1.6781498193741 0.17246350646019
-1.6788975000381 0.17286643385887
-1.6796226501465 0.17336921393871
-1.6804416179657 0.17387680709362
-1.6812636852264 0.17433543503284
-1.6834119558334 0.17392884194851
-1.6862370967865 0.17280066013336
-1.6891305446625 0.17164616286755
-1.6910082101822 0.17105826735497
-1.6917616128922 0.17104268074036
-1.6917787790298 0.17127230763435
-1.6917451620102 0.17155078053474
-1.6917288303375 0.17179150879383
-1.6910673379898 0.17232541739941
-1.6902316808701 0.17288902401924
-1.6894601583481 0.17342951893806
-1.6887171268463 0.17393863201141
-1.6879732608795 0.1744581758976
-1.6872482299805 0.17497381567955
-1.6865800619125 0.17544655501842
-1.6859362125397 0.17591236531734
-1.6853252649307 0.17633983492851
-1.684722661972 0.17677487432957
-1.6841233968735 0.17719580233097
-1.6835550069809 0.17760927975178
-1.6830095052719 0.17799171805382
-1.6824795007706 0.17837138473988
-1.6819584369659 0.17874151468277
-1.6814628839493 0.17909877002239
-1.6809667348862 0.17945758998394
-1.680526137352 0.17978957295418
-1.6800712347031 0.18012854456902
-1.679659485817 0.18043804168701
-1.6792275905609 0.18075668811798
-1.6788141727448 0.18105478584766
-1.6784251928329 0.18135248124599
-1.6780462265015 0.18164028227329
-1.6776746511459 0.18192428350449
-1.6773401498795 0.18218992650509
-1.6769828796387 0.18246939778328
-1.676638007164 0.18273259699345
-1.6763412952423 0.18298032879829
-1.6760203838348 0.18324431777
-1.6757520437241 0.18347649276257
-1.6754261255264 0.18372678756714
-1.6751630306244 0.18394324183464
-1.6749089956284 0.18416568636894
-1.6746599674225 0.18438717722893
-1.6744258403778 0.18460656702518
-1.6741832494736 0.18482549488544
-1.6739552021027 0.18503220379353
-1.6736993789673 0.18525488674641
-1.6734848022461 0.18545606732368
-1.6732906103134 0.18564423918724
-1.6730842590332 0.18583425879478
-1.6728967428207 0.18601673841476
-1.6726583242416 0.1862386316061
-1.6725015640259 0.18639260530472
-1.6722955703735 0.18658605217934
-1.6721210479736 0.186757594347
-1.6719677448273 0.18696156144142
-1.6718111038208 0.18713393807411
-1.6716302633286 0.18729986250401
-1.67147564888 0.18745431303978
-1.6713157892227 0.18761307001114
-1.6711416244507 0.18778571486473
-1.670986533165 0.1879566013813
-1.6708424091339 0.18811374902725
-1.670695066452 0.18828010559082
-1.670555472374 0.18843588232994
-1.6704113483429 0.18860921263695
-1.6703016757965 0.18875601887703
-1.6701486110687 0.18891678750515
-1.6700150966644 0.18907199800014
-1.6698831319809 0.1892197728157
-1.6697536706924 0.18936833739281
-1.6696557998657 0.18953150510788
-1.6695091724396 0.18969485163689
-1.6693754196167 0.18985877931118
-1.6692777872086 0.19000639021397
-1.6691528558731 0.19016221165657
-1.6690425872803 0.19032180309296
-1.6689355373383 0.19047456979752
-1.6688213348389 0.19062450528145
-1.6686995029449 0.1907804608345
-1.6685625314713 0.19094127416611
-1.6684480905533 0.19109381735325
-1.6683143377304 0.19124221801758
-1.6682102680206 0.19137801229954
-1.6680816411972 0.19153589010239
-1.6679620742798 0.19169989228249
-1.6678587198257 0.19184990227222
-1.667738199234 0.19199986755848
-1.6676193475723 0.19215366244316
-1.6674972772598 0.19232538342476
-1.6673885583878 0.19248859584332
-1.6672537326813 0.1926584392786
-1.667147397995 0.19281873106956
-1.667013168335 0.19298331439495
-1.6668889522552 0.1931496411562
-1.6667640209198 0.19331128895283
-1.6666221618652 0.19347435235977
-1.6664779186249 0.1936344653368
-1.6663324832916 0.1937940120697
-1.6661698818207 0.1939443051815
-1.6660223007202 0.19410565495491
-1.6658687591553 0.19427713751793
-1.6657282114029 0.19444493949413
-1.6655727624893 0.1945980489254
-1.6653801202774 0.19477580487728
-1.6652103662491 0.19494403898716
-1.6650403738022 0.19509705901146
-1.6648836135864 0.19524881243706
-1.66468334198 0.19541941583157
-1.6645233631134 0.19558428227901
-1.6643604040146 0.19574482738972
-1.6641871929169 0.19590529799461
-1.6639833450317 0.19607685506344
-1.6640306711197 0.19616854190826
-1.6640300750732 0.19626705348492
-1.6640592813492 0.19637641310692
-1.6640651226044 0.19649238884449
-1.6640584468842 0.19660079479218
-1.6640522480011 0.19671347737312
-1.6640278100967 0.19683156907558
-1.6640088558197 0.19694468379021
-1.6639763116837 0.19707135856152
-1.6639518737793 0.19718722999096
-1.6639057397842 0.19729897379875
