0 [0.0, 0.0, 0.0, 0.0, 0.0, 0.0, 0.0, 0.0]
1 [0.0, 0.0, 0.0, 0.0, 0.0, 0.0, 0.0, 0.0]
2 [0.031835165, 0.031835165, 0.031835165, 0.031835165, 0.031835165, 0.031835165, 0.031835165, 1.8207033]
3 [0.06983516, 0.048164833, 0.048164833, 0.10083517, 0.10083517, 0.047164835, 0.047164835, 1.0416703]
4 [0.06983516, 0.048164833, 0.048164833, 0.10083517, 0.10083517, 0.047164835, 0.047164835, 0.047164835]
5 [0.44474176, 0.1985989, 0.04925824, 0.9777418, 0.95988464, 0.1871154, 0.1851154, 0.1841154]
6 [0.069741756, 0.055741757, 0.04925824, 0.10274176, 0.10274176, 0.044258244, 0.042258244, 0.041258246]
7 [0.44280767, 0.059807688, 0.0521923, 0.9778077, 0.936141, 0.8775256, 0.039192315, 0.038192317]
8 [0.06780769, 0.059807688, 0.0521923, 0.10280769, 0.10280769, 0.04419231, 0.039192315, 0.038192317]
9 [0.06780769, 0.059807688, 0.0521923, 0.10280769, 0.10280769, 0.04419231, 0.039192315, 0.038192317]
10 [0.06517033, 0.06517033, 0.05482966, 0.99105924, 0.9930592, 0.10417033, 0.04217033, 0.03382968]
11 [0.44017035, 0.06517033, 0.05482966, 0.97717035, 0.47917032, 0.10419467, 0.046144843, 0.05738904]
12 [0.06517033, 0.06517033, 0.05482966, 0.102170326, 0.10417033, 0.10419467, 0.046144843, 0.05738904]
13 [0.93994504, 0.56494504, 0.55605495, 0.6029451, 0.6039451, 0.6040083, 0.5658643, 0.6980103]
14 [0.06494506, 0.06494506, 0.056054935, 0.10294506, 0.103945054, 0.10395327, 0.04431383, 0.039604217]
15 [0.6652583, 0.86325824, 0.05574175, 0.9022583, 0.90325826, 0.9033121, 0.861503, 0.7476097]
16 [0.06525824, 0.063258246, 0.05574175, 0.10225824, 0.10325824, 0.103256136, 0.0409197, 0.032635357]
17 [0.06525824, 0.063258246, 0.05574175, 0.10225824, 0.10325824, 0.10323421, 0.03738524, 0.010643947]
18 [0.56525826, 0.063258246, 0.05574175, 0.60225827, 0.60325825, 0.103238784, 0.038122173, 0.01522914]
19 [0.06588461, 0.06088462, 0.054115377, 0.10188462, 0.10288461, 0.10287052, 0.037679736, 0.021954576]
20 [0.5667088, 0.5587088, 0.0532912, 0.60170877, 0.6027088, 0.5442349, 0.51677513, 0.37222704]
21 [0.06670879, 0.058708787, 0.0532912, 0.10170879, 0.102708794, 0.04428775, 0.03805136, 0.029362984]
22 [0.4424835, 0.057483513, 0.05251648, 0.9764835, 0.4774835, 0.04451385, 0.039550196, 0.03255274]
23 [1.0155983, 0.10440171, 0.047846153, 0.102153845, 1.0465983, 0.10139719, 0.09859379, 0.08704286]
24 [0.07115384, 0.04884615, 0.047846153, 0.102153845, 0.102153845, 0.04584461, 0.04423583, 0.040336423]
25 [1.0153407, 0.041159343, 0.043159343, 0.85384065, 1.0403407, 0.110656515, 0.11446969, 0.106869034]
26 [0.07784066, 0.041159343, 0.043159343, 0.85384065, 0.85284066, 0.04815841, 0.052746497, 0.05010887]
27 [0.101139806, 0.03208243, 0.10891758, 1.0856954, 0.12813981, 0.078303486, 0.08281571, 0.03643081]
28 [0.078917585, 0.03208243, 0.10891758, 0.98291755, 0.10591758, 0.05608179, 0.060811732, 0.03683541]
29 [0.68690294, 0.030236257, 0.10776374, 0.7724304, 0.7209029, 0.7378968, 0.7394181, 0.08266598]
30 [0.018642863, 0.029642852, 1.0083572, 1.0043571, 0.95464283, 0.3756405, 0.37768438, 0.0837606]
31 [0.018642863, 0.029642852, 0.85835713, 0.8543571, 0.054642852, 0.075642854, 0.07864285, 0.085357144]
32 [0.018642863, 0.029642852, 0.85835713, 0.8543571, 0.054642852, 0.075642854, 0.07864285, 0.085357144]
33 [0.018642863, 0.029642852, 0.10835714, 0.104357146, 0.054642852, 0.075642854, 0.07864285, 0.085357144]
34 [0.018170334, 0.10582967, 0.85182965, 1.0511813, 0.106148355, 0.11914834, 0.06417032, 0.096807696]
35 [0.018170334, 0.10582967, 0.10182967, 0.062170327, 0.084170334, 0.097170316, 0.06417032, 0.074829675]
36 [0.018170334, 0.10582967, 0.97682965, 0.062170327, 0.084170334, 0.097170316, 0.06417032, 0.074829675]
37 [0.110857144, 0.10485715, 0.93314284, 0.08714286, 0.110142864, 0.08914286, 0.05985714, 0.058857143]
38 [1.064456, 1.057456, 0.10154395, 0.14454396, 1.0585439, 0.07054395, 0.10945605, 0.08845604]
39 [0.11445604, 0.10745604, 0.051543947, 0.094543956, 0.10854396, 0.07054395, 0.059456043, 0.03845604]
40 [1.0728971, 0.9921938, 0.7926483, 0.14810291, 0.1521029, 0.053660557, 1.1068796, 0.07272827]
41 [1.0763476, 0.98774326, 0.8201978, 0.14665236, 0.0861978, 0.06081311, 0.11394849, 0.074905545]
42 [0.121802196, 0.0331978, 0.07019779, 0.10119781, 0.0861978, 0.060810465, 0.06413673, 0.068578415]
43 [1.0755495, 0.92054945, 0.124450564, 0.14645056, 0.06745054, 1.0126535, 0.10471825, 1.3083751]
44 [0.12554945, 0.04554945, 0.07445056, 0.09645056, 0.06745054, 0.062554315, 0.05213187, 0.06347329]
45 [0.021543954, 0.04954395, 0.082456045, 0.09345603, 0.054456044, 0.061547562, 0.031266604, 0.06172968]
46 [0.9635323, 0.9965323, 0.14746764, 0.14346763, 0.8050879, 0.114635386, 0.029232875, 0.7856987]
47 [0.019087909, 0.052087914, 0.09191208, 0.08791208, 0.05508791, 0.059075434, 0.027526058, 0.01857532]
48 [0.019087909, 0.052087914, 0.09191208, 0.08791208, 0.05508791, 0.059075434, 0.027526058, 0.01857532]
49 [0.20169231, 0.8181648, 0.229022, 0.05916484, 0.80383515, 0.15266757, 0.026015144, 0.5031175]
