0 [0.0, 0.0, 0.0, 0.0, 0.0, 0.0, 0.0, 0.0]
1 [0.0, 0.0, 0.0, 0.0, 0.0, 0.0, 0.0, 0.0]
2 [0.8622038, 0.0, 0.0, 0.6558624, 0.65669066, 0.0, 0.0, 0.0]
3 [0.86221254, 0.0, 0.0, 0.65523344, 0.657991, 0.0, 0.0, 0.0]
4 [0.86401826, 0.0, 0.0, 0.65114254, 0.6608, 0.0, 0.0, 0.0]
5 [0.86401826, 0.0, 0.0, 0.65114254, 0.6608, 0.0, 0.0, 0.0]
6 [0.86513656, 0.0, 0.0, 0.65008444, 0.66229874, 0.0, 0.0, 0.0]
7 [0.86513656, 0.0, 0.0, 0.65008444, 0.66229874, 0.0, 0.0, 0.0]
8 [0.86539644, 0.0, 0.0, 0.6474496, 0.65943265, 0.0, 0.0, 0.0]
9 [0.86507523, 0.0, 0.0, 0.6389595, 0.6509144, 0.0, 0.0, 0.0]
10 [0.86507523, 0.0, 0.0, 0.6389595, 0.6509144, 0.0, 0.0, 0.0]
11 [0.86474925, 0.0, 0.0, 0.63573414, 0.6475499, 0.0, 0.0, 0.0]
12 [0.8643761, 0.0, 0.0, 0.63527715, 0.64588964, 0.0, 0.0, 0.0]
13 [0.8627531, 0.0, 0.0, 0.63630146, 0.642207, 0.0, 0.0, 0.0]
14 [0.0, 0.0, 0.0, 0.63258153, 0.6244444, 0.0, 0.0, 0.0]
15 [0.0, 0.0, 0.0, 0.6293007, 0.61793137, 0.0, 0.0, 0.0]
16 [0.0, 0.0, 0.0, 0.6213465, 0.0, 0.0, 0.0, 0.0]
17 [0.0, 0.0, 0.60029066, 0.6097225, 0.0, 0.0, 0.0, 0.0]
18 [0.0, 0.0, 0.58971244, 0.60059625, 0.0, 0.0, 0.0, 0.0]
19 [0.0, 0.0, 0.56340975, 0.57355857, 0.0, 0.0, 0.0, 0.0]
20 [0.0, 0.0, 0.54287225, 0.54335475, 0.0, 0.0, 0.0, 0.0]
21 [0.0, 0.0, 0.5241087, 0.0, 0.0, 0.0, 0.0, 0.0]
22 [0.0, 0.51157165, 0.51534396, 0.0, 0.0, 0.0, 0.0, 0.0]
23 [0.0, 0.49787, 0.50568324, 0.0, 0.0, 0.0, 0.0, 0.0]
24 [0.0, 0.49026015, 0.49498457, 0.0, 0.0, 0.0, 0.0, 0.0]
25 [0.0, 0.48731253, 0.48497537, 0.0, 0.0, 0.0, 0.0, 0.0]
26 [0.0, 0.4832723, 0.0, 0.0, 0.0, 0.0, 0.0, 0.0]
27 [0.0, 0.47753474, 0.0, 0.0, 0.98671603, 0.0, 0.0, 0.0]
28 [0.0, 0.47115716, 0.0, 0.0, 0.9810696, 0.0, 0.0, 0.0]
29 [0.0, 0.4628333, 0.0, 0.0, 0.96989, 0.0, 0.0, 0.0]
30 [0.48476753, 0.45080325, 0.0, 0.0, 0.95359915, 0.0, 0.0, 0.0]
31 [0.4688573, 0.6341889, 0.0, 0.93790287, 0.93497556, 0.0, 0.0, 0.0]
32 [0.45619434, 0.0, 0.0, 0.90343547, 0.91510844, 0.0, 0.0, 0.0]
33 [0.4458241, 0.0, 0.0, 0.892386, 0.89534354, 0.0, 0.0, 0.0]
34 [0.4363439, 0.0, 0.0, 0.88140064, 0.87432414, 0.0, 0.0, 0.0]
35 [0.42734894, 0.0, 0.0, 0.8697067, 0.0, 0.0, 0.0, 0.0]
36 [0.4295774, 0.0, 0.0, 0.8565647, 0.0, 0.0, 0.0, 0.0]
37 [0.4295774, 0.0, 0.0, 0.8565647, 0.0, 0.0, 0.0, 0.0]
38 [0.43417355, 0.0, 0.0, 0.8281906, 0.0, 0.0, 0.0, 0.0]
39 [0.43417355, 0.0, 0.0, 0.8281906, 0.0, 0.0, 0.0, 0.0]
40 [0.4373415, 0.0, 0.85142, 0.80092144, 0.0, 0.0, 0.0, 0.0]
41 [0.4373415, 0.0, 0.85142, 0.80092144, 0.0, 0.0, 0.0, 0.0]
42 [0.43757188, 0.0, 0.8169485, 0.78809005, 0.0, 0.0, 0.0, 0.0]
43 [0.6310651, 0.0, 0.74942183, 0.7579722, 0.0, 0.0, 0.0, 0.0]
44 [0.0, 0.0, 0.74918383, 0.7433169, 0.0, 0.0, 0.0, 0.0]
45 [0.0, 0.0, 0.74591523, 0.9203606, 0.0, 0.0, 0.0, 0.0]
46 [0.0, 0.0, 0.74591523, 0.9203606, 0.0, 0.0, 0.0, 0.0]
47 [0.0, 0.0, 0.7404891, 0.0, 0.0, 0.0, 0.0, 0.0]
48 [0.0, 0.8026768, 0.7339055, 0.0, 0.0, 0.0, 0.0, 0.0]
49 [0.0, 0.7334332, 0.71571356, 0.0, 0.0, 0.0, 0.0, 0.0]
