0 -3.1415286
0 -3.1415925
0 -3.1415925
0 -3.1415925
0 -3.1415927
0 3.1415923
0 3.1415925
0 -6.4194304E-5
0 1.0471984
1 -3.1415286
1 -3.1415925
1 -3.1415925
1 -3.1415925
1 -3.1415927
1 3.1415923
1 3.1415925
1 -6.4194304E-5
1 1.0471984
2 -3.1415286
2 -3.1415925
2 -3.1415925
2 -3.1415925
2 -3.1415927
2 3.1415923
2 3.1415925
2 -6.4194304E-5
2 1.0471984
3 3.1288924
3 3.1349492
3 3.1353862
3 3.135026
3 3.1335979
3 3.1295142
3 3.1088343
3 0.012699871
3 1.0631946
4 3.130139
4 3.1357467
4 3.1361663
4 3.1358876
4 3.134703
4 3.1313357
4 3.115345
4 0.011453253
4 1.0807498
5 3.130139
5 3.1357467
5 3.1361663
5 3.1358876
5 3.134703
5 3.1313357
5 3.115345
5 0.011453253
5 1.0807498
6 3.1301658
6 3.1359546
6 3.136403
6 3.1361809
6 3.1351235
6 3.1321347
6 3.1189408
6 0.011426659
6 1.1034174
7 3.1301658
7 3.1359546
7 3.136403
7 3.1361809
7 3.1351235
7 3.1321347
7 3.1189408
7 0.011426659
7 1.1034174
8 3.1302874
8 3.1361935
8 3.1366618
8 3.1364882
8 3.1355467
8 3.1328926
8 3.1218376
8 0.011305043
8 1.1241614
9 3.1302874
9 3.1361935
9 3.1366618
9 3.1364882
9 3.1355467
9 3.1328926
9 3.1218376
9 0.011305043
9 1.1241614
10 3.1299565
10 3.1361637
10 3.1366606
10 3.1365125
10 3.1356118
10 3.1330743
10 3.1228766
10 0.011635959
10 1.1381986
11 3.1299565
11 3.1361637
11 3.1366606
11 3.1365125
11 3.1356118
11 3.1330743
11 3.1228766
11 0.011635959
11 1.1381986
12 3.1290083
12 3.1358387
12 3.1363885
12 3.1362543
12 3.135339
12 3.1327586
12 3.122671
12 0.012584254
12 1.1497786
13 3.1290083
13 3.1358387
13 3.1363885
13 3.1362543
13 3.135339
13 3.1327586
13 3.122671
13 0.012584254
13 1.1497786
14 3.13054
14 3.136605
14 3.1370955
14 3.1369927
14 3.1362224
14 3.1340487
14 3.1257033
14 0.0110524995
14 1.157816
15 3.13054
15 3.136605
15 3.1370955
15 3.1369927
15 3.1362224
15 3.1340487
15 3.1257033
15 0.0110524995
15 1.157816
16 3.131047
16 3.1368663
16 3.1373377
16 3.1372466
16 3.1365275
16 3.1344972
16 3.126771
16 0.01054548
16 1.1618712
17 3.131047
17 3.1368663
17 3.1373377
17 3.1372466
17 3.1365275
17 3.1344972
17 3.126771
17 0.01054548
17 1.1618712
18 3.12977
18 3.1363575
18 3.136891
18 3.1368005
18 3.136022
18 3.133823
18 3.1255603
18 0.011822542
18 1.1680751
19 3.12977
19 3.1363575
19 3.136891
19 3.1368005
19 3.136022
19 3.133823
19 3.1255603
19 0.011822542
19 1.1680751
20 3.1299887
20 3.13656
20 3.1370924
20 3.1370244
20 3.1363072
20 3.134276
20 3.126817
20 0.011603614
20 1.1793733
21 3.1299887
21 3.13656
21 3.1370924
21 3.1370244
21 3.1363072
21 3.134276
21 3.126817
21 0.011603614
21 1.1793733
22 3.1299887
22 3.13656
22 3.1370924
22 3.1370244
22 3.1363072
22 3.134276
22 3.126817
22 0.011603614
22 1.1793733
23 3.1299887
23 3.13656
23 3.1370924
23 3.1370244
23 3.1363072
23 3.134276
23 3.126817
23 0.011603614
23 1.1793733
24 3.131812
24 3.1373603
24 3.137811
24 3.1377566
24 3.137158
24 3.1354618
24 3.1292565
24 0.00978045
24 1.1813443
25 3.131812
25 3.1373603
25 3.137811
25 3.1377566
25 3.137158
25 3.1354618
25 3.1292565
25 0.00978045
25 1.1813443
26 3.1315193
26 3.1372437
26 3.1377082
26 3.1376538
26 3.1370413
26 3.1353047
26 3.1289647
26 0.010073275
26 1.1824055
27 3.1315193
27 3.1372437
27 3.1377082
27 3.1376538
27 3.1370413
27 3.1353047
27 3.1289647
27 0.010073275
27 1.1824055
28 3.131104
28 3.1370559
28 3.137539
28 3.1374803
28 3.1368384
28 3.1350195
28 3.1283638
28 0.010488401
28 1.1812398
29 3.131104
29 3.1370559
29 3.137539
29 3.1374803
29 3.1368384
29 3.1350195
29 3.1283638
29 0.010488401
29 1.1812398
30 3.1312032
30 3.1370373
30 3.1375105
30 3.1374412
30 3.1367786
30 3.1349049
30 3.127949
30 0.0103891725
30 1.1739961
31 3.1315186
31 3.1370502
31 3.137498
31 3.1374054
31 3.1367059
31 3.1347318
31 3.127166
31 0.010073911
31 1.1586344
32 3.1315186
32 3.1370502
32 3.137498
32 3.1374054
32 3.1367059
32 3.1347318
32 3.127166
32 0.010073911
32 1.1586344
33 3.131938
33 3.1370602
33 3.1374702
33 3.1373422
33 3.1365824
33 3.1344411
33 3.1257756
33 0.009654386
33 1.1352923
34 3.131938
34 3.1370602
34 3.1374702
34 3.1373422
34 3.1365824
34 3.1344411
34 3.1257756
34 0.009654386
34 1.1352923
35 3.1333182
35 3.1372602
35 3.1375473
35 3.1373143
35 3.136387
35 3.1337364
35 3.1203783
35 0.008274204
35 1.0644889
36 3.1333182
36 3.1372602
36 3.1375473
36 3.1373143
36 3.136387
36 3.1337364
36 3.1203783
36 0.008274204
36 1.0644889
37 3.134383
37 3.1375968
37 3.1378047
37 3.1375253
37 3.1365445
37 3.1336827
37 3.1162927
37 0.0072096325
37 1.0228908
38 3.134383
38 3.1375968
38 3.1378047
38 3.1375253
38 3.1365445
38 3.1336827
38 3.1162927
38 0.0072096325
38 1.0228908
39 3.1354618
39 3.1378732
39 3.1379714
39 3.137595
39 3.136437
39 3.1328506
39 3.0940645
39 0.0061307657
39 0.94850683
40 3.1354618
40 3.1378732
40 3.1379714
40 3.137595
40 3.136437
40 3.1328506
40 3.0940645
40 0.0061307657
40 0.94850683
41 3.1351829
41 3.1375613
41 3.1376214
41 3.137152
41 3.1357586
41 3.1312785
41 3.0493417
41 0.0064096916
41 0.91523236
42 3.1351829
42 3.1375613
42 3.1376214
42 3.137152
42 3.1357586
42 3.1312785
42 3.0493417
42 0.0064096916
42 0.91523236
43 3.1336572
43 3.136318
43 3.1362941
43 3.1355362
43 3.1333678
43 3.1258173
43 0.38737622
43 0.00793545
43 0.8599034
44 3.1336572
44 3.136318
44 3.1362941
44 3.1355362
44 3.1333678
44 3.1258173
44 0.38737622
44 0.00793545
44 0.8599034
45 3.132492
45 3.1353996
45 3.1353168
45 3.134346
45 3.131593
45 3.121575
45 0.16180386
45 0.009100647
45 0.8350678
46 3.132492
46 3.1353996
46 3.1353168
46 3.134346
46 3.131593
46 3.121575
46 0.16180386
46 0.009100647
46 0.8350678
47 3.1319344
47 3.1348448
47 3.134686
47 3.1335227
47 3.130242
47 3.117592
47 0.10162743
47 0.009658275
47 0.8068347
48 3.1319344
48 3.1348448
48 3.134686
48 3.1335227
48 3.130242
48 3.117592
48 0.10162743
48 0.009658275
48 0.8068347
49 3.1329913
49 3.1354134
49 3.1352003
49 3.1340265
49 3.1307185
49 3.1170027
49 0.06425418
49 0.008601216
49 0.7767733
