1.1055272817612 1.475000500679
1.1039761304855 1.4740040302277
1.1000244617462 1.4717342853546
1.0951707363129 1.4691959619522
1.0894693136215 1.4662103652954
1.0832599401474 1.4630258083344
1.0770283937454 1.4596893787384
1.0708364248276 1.4561938047409
1.0645643472672 1.452597618103
1.0582408905029 1.4488263130188
1.0517380237579 1.4448553323746
1.0452547073364 1.4407708644867
1.0387609004974 1.4365736246109
1.0322245359421 1.4321918487549
1.0257151126862 1.4276206493378
1.0192114114761 1.4229624271393
1.0126348733902 1.4181333780289
1.005965590477 1.413204908371
0.99928390979767 1.4081944227219
0.9925724864006 1.4030162096024
0.98583853244781 1.3977152109146
0.97902727127075 1.3922778367996
0.97217929363251 1.3867156505585
0.96530735492706 1.3810515403748
0.9583722949028 1.3752604722977
0.95141524076462 1.3693649768829
0.94438970088959 1.3633447885513
0.93731099367142 1.3572160005569
0.93019187450409 1.350997209549
0.92303258180618 1.344694852829
0.91581213474274 1.338280081749
0.90852642059326 1.3318009376526
0.9012542963028 1.325320482254
0.89396411180496 1.3188239336014
0.88670098781586 1.3123369216919
0.87942332029343 1.3058525323868
0.87214154005051 1.2993729114532
0.86486852169037 1.2929050922394
0.8575884103775 1.2864224910736
0.85031110048294 1.2799446582794
0.84302008152008 1.2734571695328
0.83573806285858 1.2669723033905
0.82847040891647 1.2605009078979
0.82118189334869 1.254016160965
0.81390476226807 1.2475365400314
0.80663555860519 1.2410720586777
0.79936188459396 1.2345883846283
0.7920583486557 1.2280995845795
0.78477561473846 1.2216217517853
0.77750235795975 1.2151569128036
0.77021586894989 1.2086727619171
0.76294142007828 1.2021981477737
0.75565820932388 1.1957175731659
0.74838268756866 1.1892321109772
0.74110436439514 1.1827615499496
0.7338240146637 1.1762833595276
0.72654569149017 1.1698120832443
0.71927273273468 1.1633350849152
0.71198880672455 1.1568474769592
0.70471012592316 1.1503647565842
0.69744765758514 1.1439075469971
0.69016546010971 1.1374228000641
0.68288362026215 1.1309397220612
0.67561036348343 1.1244604587555
0.66833221912384 1.1179826259613
0.66105103492737 1.1115055084229
0.65378099679947 1.105032324791
0.64650559425354 1.0985614061356
0.63923144340515 1.0920826196671
0.63194090127945 1.085594534874
0.62467062473297 1.0791224241257
0.6173882484436 1.072639465332
0.61009728908539 1.0661551952362
0.60281974077225 1.059672832489
0.59554988145828 1.0531959533691
0.58825576305389 1.0467157363892
0.58098161220551 1.0402361154556
0.57370072603226 1.0337532758713
0.56641685962677 1.0272779464722
0.55912929773331 1.0207928419113
0.5518507361412 1.0143175125122
0.54457312822342 1.0078397989273
0.5372948050499 1.0013610124588
0.53002870082855 0.99487245082855
0.52275824546814 0.98839551210403
0.51547169685364 0.9819170832634
0.50818932056427 0.9754301905632
0.50091797113419 0.96894896030426
0.49362272024155 0.96245747804642
0.48634895682335 0.95598304271698
0.47907662391663 0.94949609041214
0.47180169820786 0.94302189350128
0.4645249247551 0.93652898073196
0.45723295211792 0.93004548549652
0.44995746016502 0.92357188463211
0.44268760085106 0.91709768772125
0.43540722131729 0.91063040494919
0.42812031507492 0.90413635969162
0.42084342241287 0.89766293764114
0.41357231140137 0.89118736982346
0.40629348158836 0.88471013307571
0.39901456236839 0.87822961807251
0.39172098040581 0.87174022197723
0.384437084198 0.86526381969452
0.37715607881546 0.85878449678421
0.36988228559494 0.85230082273483
0.36260148882866 0.84582197666168
0.35532280802727 0.83934050798416
0.3480481505394 0.8328692317009
0.34075888991356 0.82637280225754
0.33349132537842 0.81989830732346
0.32621783018112 0.81342774629593
0.31893786787987 0.80694085359573
0.31166940927505 0.80045652389526
0.30437073111534 0.79396289587021
0.29710617661476 0.78748995065689
0.2898206114769 0.78101313114166
0.28255271911621 0.774542927742
0.27526664733887 0.76805382966995
0.26797264814377 0.76157402992249
0.26069530844688 0.75509822368622
0.25340965390205 0.74861508607864
0.24612948298454 0.74213737249374
0.23885102570057 0.73566418886185
0.23156435787678 0.72917264699936
0.22429020702839 0.72270238399506
0.21700146794319 0.71620810031891
0.20974171161652 0.70975160598755
0.20244626700878 0.70325481891632
0.1951654702425 0.69677340984344
0.18789480626583 0.6902933716774
0.18061938881874 0.68381649255753
0.17332902550697 0.67733436822891
0.16605092585087 0.67085593938828
0.15876725316048 0.66436970233917
0.15147939324379 0.65788292884827
0.14420565962791 0.65140104293823
0.13694579899311 0.64493590593338
0.12964515388012 0.63844615221024
0.1223601475358 0.63195788860321
0.11508087068796 0.6254757642746
0.10780986398458 0.61899966001511
0.10053487867117 0.61252754926682
0.093248888850212 0.60603868961334
0.085963509976864 0.59955894947052
0.078688204288483 0.59307909011841
0.071408286690712 0.58659613132477
0.064144134521484 0.58013117313385
0.056842226535082 0.57363379001617
0.049574222415686 0.56717258691788
0.042288441210985 0.56069046258926
0.035006783902645 0.55421197414398
0.027721311897039 0.54772657155991
0.020437214523554 0.54123967885971
0.013156816363335 0.53476345539093
0.0058821211569011 0.52828788757324
-0.0014061523834243 0.52180421352386
-0.0086859371513128 0.5153221487999
-0.015952374786139 0.50885337591171
-0.02323566749692 0.50237452983856
-0.030503589659929 0.49590158462524
-0.037787578999996 0.48942360281944
-0.045071475207806 0.48293098807335
-0.052338533103466 0.47646135091782
-0.059637565165758 0.46997246146202
-0.066904798150063 0.46349948644638
-0.074167765676975 0.45703735947609
-0.081445455551147 0.45055589079857
-0.088739894330502 0.44406533241272
-0.096008040010929 0.43759393692017
-0.10329215228558 0.43111076951027
-0.11057849228382 0.42463564872742
-0.11785169690847 0.41815519332886
-0.12513676285744 0.41167932748795
-0.13241793215275 0.40519732236862
-0.13970965147018 0.39870226383209
-0.14698204398155 0.39222532510757
-0.15426269173622 0.38573864102364
-0.16154490411282 0.37925949692726
-0.16881975531578 0.37278613448143
-0.17611572146416 0.36628839373589
-0.18338157236576 0.35981851816177
-0.19065922498703 0.35332924127579
-0.1979428678751 0.34684056043625
-0.20521938800812 0.34036245942116
-0.21249464154243 0.33388644456863
-0.2197782099247 0.3274093568325
-0.22706177830696 0.32094126939774
-0.23434022068977 0.31446415185928
-0.24163070321083 0.3079706132412
-0.24890112876892 0.30148833990097
-0.25618448853493 0.29502385854721
-0.26347598433495 0.28854092955589
-0.27074953913689 0.28207477927208
-0.27802431583405 0.27557927370071
-0.2852957546711 0.26910975575447
-0.29253816604614 0.26267546415329
-0.29970565438271 0.25629186630249
-0.30679240822792 0.24999304115772
-0.3138182759285 0.24378445744514
-0.32076382637024 0.23763763904572
-0.32763054966927 0.2315411567688
-0.33402225375175 0.22591452300549
-0.34020951390266 0.2205413132906
-0.34629037976265 0.21524980664253
-0.35225838422775 0.21006652712822
-0.35802894830704 0.20501145720482
-0.36371678113937 0.20003378391266
-0.3692874610424 0.19510927796364
-0.37471917271614 0.1902668774128
-0.38000625371933 0.1855643093586
-0.38505828380585 0.18095561861992
-0.39008709788322 0.17632429301739
-0.39505961537361 0.17179957032204
-0.39992016553879 0.16730347275734
-0.40460753440857 0.16286703944206
-0.4092378616333 0.15843273699284
-0.41375741362572 0.15413416922092
-0.41813677549362 0.14987210929394
-0.42244726419449 0.14562731981277
-0.42665180563927 0.14140583574772
-0.43068441748619 0.13728964328766
-0.4345837533474 0.13327930867672
-0.4384760260582 0.12919320166111
-0.44229784607887 0.1251492202282
-0.44697612524033 0.1199888959527
-0.45177084207535 0.11428408324718
-0.45643249154091 0.10850121080875
-0.46095356345177 0.102763235569
-0.46546539664268 0.096965610980988
-0.46989971399307 0.091204278171062
-0.47429656982422 0.085436448454857
-0.47860661149025 0.07967684417963
-0.482850253582 0.073917455971241
-0.48662763834 0.068864725530148
-0.48985370993614 0.064744062721729
-0.49290245771408 0.061235804110765
-0.49593925476074 0.057834714651108
-0.49888095259666 0.054612290114164
-0.50165861845016 0.051487345248461
-0.50496500730515 0.047012984752655
-0.50843727588654 0.041530836373568
-0.51182252168655 0.035507652908564
-0.51512479782104 0.029184365645051
-0.51832270622253 0.022873377427459
-0.52143484354019 0.016580410301685
-0.52442443370819 0.010311285033822
-0.52732992172241 0.004028448369354
-0.53014922142029 -0.002243762370199
-0.53287255764008 -0.0085570802912116
-0.5355076789856 -0.014936842024326
-0.53805255889893 -0.021382605656981
-0.54049742221832 -0.027820369228721
-0.54284799098969 -0.034313205629587
-0.5451278090477 -0.040875151753426
-0.54727566242218 -0.047474928200245
-0.54932397603989 -0.054134797304869
-0.55125230550766 -0.060847848653793
-0.55309963226318 -0.06762670725584
-0.55489152669907 -0.075406692922115
-0.55650293827057 -0.084039628505707
-0.5580188035965 -0.093400880694389
-0.55942040681839 -0.10293608903885
-0.56077301502228 -0.11248580366373
-0.56211024522781 -0.12208591401577
-0.56347364187241 -0.13165892660618
-0.56484073400497 -0.14131772518158
-0.56621539592743 -0.15096463263035
-0.5676132440567 -0.1606292873621
-0.56901347637177 -0.17028203606606
-0.57040226459503 -0.17992582917213
-0.57179605960846 -0.18958088755608
-0.57318866252899 -0.19923493266106
-0.57458120584488 -0.20888409018517
-0.57597464323044 -0.21853260695934
-0.57735931873322 -0.22818093001842
-0.57877171039581 -0.23783114552498
-0.58014917373657 -0.24747106432915
