0 [0.0, 0.0, 0.0, 0.0, 0.0, 0.0, 0.0, 0.0]
1 [0.0, 0.48113614, 0.66941476, 0.0, 0.0, 0.0, 0.0, 0.6680822]
2 [0.0, 0.4777677, 0.67283833, 0.0, 0.0, 0.0, 0.0, 0.67353284]
3 [0.0, 0.47531497, 0.47572255, 0.0, 0.0, 0.0, 0.0, 0.67648566]
4 [0.0, 0.4766191, 0.4780429, 0.0, 0.0, 0.0, 0.0, 0.67866343]
5 [0.0, 0.47876266, 0.4792792, 0.0, 0.0, 0.0, 0.0, 0.6798502]
6 [0.0, 0.4792546, 0.4788747, 0.0, 0.0, 0.0, 0.0, 0.6808383]
7 [0.0, 0.478331, 0.47730154, 0.0, 0.0, 0.0, 0.0, 0.68139344]
8 [0.0, 0.4780757, 0.47668973, 0.0, 0.0, 0.0, 0.0, 0.68161815]
9 [0.0, 0.47829115, 0.4762917, 0.0, 0.0, 0.0, 0.0, 0.6819899]
10 [0.0, 0.47267136, 0.4698114, 0.0, 0.0, 0.0, 0.0, 0.6825783]
11 [0.0, 0.47267136, 0.4698114, 0.0, 0.0, 0.0, 0.0, 0.6825783]
12 [0.0, 0.46905172, 0.4661948, 0.0, 0.0, 0.0, 0.0, 0.68269616]
13 [0.0, 0.4686665, 0.46571985, 0.0, 0.0, 0.0, 0.0, 0.6827297]
14 [0.0, 0.4683011, 0.46550226, 0.0, 0.0, 0.0, 0.0, 0.6827077]
15 [0.0, 0.46392503, 0.463507, 0.0, 0.0, 0.0, 0.0, 0.681636]
16 [0.0, 0.46016654, 0.46144235, 0.0, 0.0, 0.0, 0.0, 0.6803687]
17 [0.0, 0.46632138, 0.6542598, 0.0, 0.0, 0.0, 0.0, 0.6731028]
18 [0.0, 0.46915537, 0.0, 0.0, 0.0, 0.0, 0.0, 0.6668345]
19 [0.0, 0.46727186, 0.0, 0.0, 0.0, 0.0, 0.0, 0.65228456]
20 [0.0, 0.46374726, 0.0, 0.0, 0.0, 0.0, 0.0, 0.6551124]
21 [0.0, 0.45659095, 0.0, 0.0, 0.0, 0.0, 0.0, 0.67036355]
22 [0.0, 0.4518403, 0.0, 0.0, 0.0, 0.0, 0.0, 0.6773108]
23 [0.5239051, 0.44449452, 0.0, 0.0, 0.0, 0.0, 0.0, 0.6840729]
24 [0.507234, 0.6360013, 0.0, 0.0, 0.0, 0.0, 0.0, 0.6931227]
25 [0.4951943, 0.63020223, 0.0, 0.0, 0.0, 0.0, 0.8136803, 0.70303833]
26 [0.48392597, 0.0, 0.0, 0.0, 0.0, 0.0, 0.8148426, 0.71166486]
27 [0.47081023, 0.0, 0.0, 0.0, 0.0, 0.0, 0.8156683, 0.7237139]
28 [0.44439906, 0.0, 0.0, 0.0, 0.0, 0.0, 0.6228603, 0.0]
29 [0.4485933, 0.0, 0.0, 0.0, 0.0, 0.0, 0.624933, 0.0]
30 [0.45321828, 0.0, 0.0, 0.0, 0.0, 0.0, 0.6259582, 0.0]
31 [0.45780608, 0.0, 0.0, 0.0, 0.0, 0.0, 0.6257344, 0.0]
32 [0.46450606, 0.0, 0.0, 0.0, 0.0, 0.0, 0.6220517, 0.0]
33 [0.46491817, 0.0, 0.0, 0.0, 0.0, 0.7867214, 0.6167351, 0.0]
34 [0.65448546, 0.0, 0.0, 0.0, 0.0, 0.7923878, 0.60745656, 0.0]
35 [0.6514952, 0.0, 0.0, 0.0, 0.0, 0.6024595, 0.601063, 0.0]
36 [0.0, 0.0, 0.0, 0.0, 0.0, 0.6016125, 0.6209342, 0.0]
37 [0.0, 0.0, 0.0, 0.0, 0.0, 0.59718007, 0.6416045, 0.0]
38 [0.0, 0.0, 0.0, 0.0, 0.0, 0.5906088, 0.6624284, 0.0]
39 [0.0, 0.0, 0.0, 0.0, 0.0, 0.5906088, 0.6624284, 0.0]
40 [0.0, 0.0, 0.0, 0.0, 0.75225335, 0.5706083, 0.0, 0.0]
41 [0.0, 0.0, 0.0, 0.0, 0.75225335, 0.5706083, 0.0, 0.0]
42 [0.0, 0.0, 0.0, 0.0, 0.55678505, 0.5682316, 0.0, 0.0]
43 [0.0, 0.0, 0.0, 0.0, 0.55144626, 0.5835336, 0.0, 0.0]
44 [0.0, 0.0, 0.0, 0.0, 0.5466695, 0.6033823, 0.0, 0.0]
45 [0.0, 0.0, 0.0, 0.7065006, 0.54081094, 0.6293904, 0.0, 0.0]
46 [0.0, 0.0, 0.0, 0.7079809, 0.5308913, 0.0, 0.0, 0.0]
47 [0.0, 0.0, 0.0, 0.51469713, 0.5172417, 0.0, 0.0, 0.0]
48 [0.0, 0.0, 0.0, 0.51250416, 0.51913375, 0.0, 0.0, 0.0]
49 [0.0, 0.0, 0.0, 0.5072358, 0.53356695, 0.0, 0.0, 0.0]
