0 [0.0, 0.0, 0.0, 0.0, 0.0, 0.0, 0.0, 0.0]
1 [0.0, 0.0, 0.0, 0.0, 0.0, 0.0, 0.0, 0.0]
2 [0.0, 0.0, 0.0, 0.0, 0.0, 0.0, 0.0, 0.0]
3 [0.0, 0.0, 0.0, 0.0, 0.0, 0.0, 0.0, 0.0]
4 [0.0, 0.0, 0.0, 0.0, 0.0, 0.0, 0.0, 0.0]
5 [0.0, 0.0, 0.0, 0.0, 0.0, 0.0, 0.0, 0.0]
6 [0.0, 0.0, 0.0, 0.0, 0.0, 0.0, 0.0, 0.0]
7 [0.0, 0.0, 0.0, 0.0, 0.0, 0.0, 0.0, 0.0]
8 [0.0, 0.0, 0.0, 0.0, 0.0, 0.0, 0.0, 0.0]
9 [0.0, 0.0, 0.0, 0.0, 0.0, 0.0, 0.0, 0.0]
10 [0.040120885, 0.040120885, 0.026879122, 0.08312088, 0.08312088, 0.025879122, 0.025879122, 0.062120877]
11 [0.040120885, 0.040120885, 0.026879122, 0.08312088, 0.08312088, 0.025879122, 0.025879122, 0.062120877]
12 [0.14160562, 0.15061662, 0.13960561, 0.9733944, 0.9743944, 0.023494508, 0.02149451, 0.17761661]
13 [0.030494502, 0.039505504, 0.028494503, 0.9595055, 0.4605055, 0.023494508, 0.02149451, 0.4415055]
14 [0.03415384, 0.03815384, 0.03215384, 0.085846156, 0.08684615, 0.020153854, 0.017153857, 0.06484615]
15 [0.037527468, 0.9424725, 0.13447252, 0.5304725, 0.9885274, 0.9194725, 0.013472517, 0.55952746]
16 [0.037527468, 0.042472538, 0.03447252, 0.030472524, 0.83852744, 0.019472536, 0.013472517, 0.80952746]
17 [0.042835165, 0.14607394, 0.99671024, 0.12907392, 1.0413806, 0.087835155, 0.012164829, 0.097744256]
18 [0.044945054, 0.20191209, 0.9826264, 0.96962637, 1.0145165, 1.0175165, 0.011054941, 0.01094505]
19 [0.044945054, 0.059054945, 0.05405495, 0.041054938, 0.08594505, 0.08894506, 0.011054941, 0.01094505]
20 [0.044945054, 0.059054945, 0.05405495, 0.041054938, 0.08594505, 0.08894506, 0.011054941, 0.01094505]
21 [0.046351645, 0.06264835, 0.05864835, 0.04464834, 0.085351646, 0.089351654, 0.010648349, 0.012351653]
22 [0.046351645, 0.06264835, 0.05864835, 0.04464834, 0.96035165, 0.089351654, 0.010648349, 0.012351653]
23 [0.046109885, 0.953779, 0.950779, 0.934779, 0.9739988, 0.08910989, 0.0108901085, 0.014109892]
24 [0.046109885, 0.0648901, 0.061890107, 0.0458901, 0.8351099, 0.8391099, 0.0108901085, 0.014109892]
25 [0.04619231, 0.06680769, 0.065807685, 0.047807682, 0.7848077, 0.8401923, 0.009807695, 0.015192306]
26 [1.0327858, 0.06822527, 0.06722527, 0.049225267, 0.78622526, 0.8397747, 0.0112252785, 0.013774721]
27 [0.043774728, 0.06822527, 0.06722527, 0.049225267, 0.036225278, 0.08977473, 0.0112252785, 0.013774721]
28 [0.7100788, 0.7332546, 0.7312546, 0.7142546, 0.7845879, 0.8404121, 0.010587916, 0.6810788]
29 [0.043412093, 0.06658791, 0.06458791, 0.047587905, 0.7845879, 0.8404121, 0.010587916, 0.014412084]
30 [0.3286099, 0.9232473, 0.92124724, 0.9052473, 0.9420385, 0.3756099, 0.2968187, 0.2996099]
31 [0.042895608, 0.0661044, 0.06410439, 0.048104387, 0.0848956, 0.089895606, 0.011104399, 0.013895601]
32 [0.7928022, 0.8151978, 0.8121978, 0.047197796, 0.8348022, 0.8398022, 0.011197805, 0.7628022]
33 [0.9501514, 0.24475774, 0.24075776, 0.043939557, 0.086060435, 0.27187863, 0.9200305, 0.9221514]
34 [0.041060444, 0.06293956, 0.05893957, 0.043939557, 0.8360604, 0.8400605, 0.010939565, 0.013060436]
35 [0.37092125, 0.8957454, 0.39174545, 0.044412088, 0.08458791, 0.08958791, 0.8457454, 0.84392124]
36 [0.037587907, 0.062412094, 0.058412097, 0.044412088, 0.83458793, 0.8395879, 0.012412093, 0.010587909]
37 [0.038423073, 0.06157693, 0.056576934, 0.042576924, 0.8364231, 0.83942306, 0.011576928, 0.0104230745]
38 [0.5217399, 1.0449268, 1.0399268, 0.042593405, 1.0697399, 0.089406595, 0.49492672, 0.4937399]
39 [0.038406588, 0.061593413, 0.056593418, 0.042593405, 0.086406596, 0.089406595, 0.011593412, 0.010406591]
40 [0.03842858, 0.06357143, 0.05857144, 0.044571426, 0.08542857, 0.089428574, 0.011571423, 0.011428568]
41 [0.03842858, 0.06357143, 0.05857144, 0.044571426, 0.08542857, 0.089428574, 0.011571423, 0.011428568]
42 [0.03842858, 0.06357143, 0.05857144, 0.044571426, 0.08542857, 0.089428574, 0.011571423, 0.011428568]
43 [0.03842858, 0.06357143, 0.05857144, 0.044571426, 0.08542857, 0.089428574, 0.011571423, 0.011428568]
44 [0.03842858, 0.06357143, 0.05857144, 0.044571426, 0.08542857, 0.089428574, 0.011571423, 0.011428568]
45 [0.09485776, 1.0081422, 1.0041423, 0.98914224, 1.0297467, 0.8403022, 0.06725335, 0.06685775]
46 [0.039302204, 0.06369781, 0.05969781, 0.044697803, 0.085302204, 0.0903022, 0.011697796, 0.011302194]
47 [1.0226411, 1.0470257, 0.7930257, 0.7780256, 0.8353077, 0.8403077, 0.011692302, 0.011307688]
48 [0.0393077, 0.06369231, 0.059692316, 0.044692308, 0.085307695, 0.09030769, 0.011692302, 0.011307688]
49 [0.036120877, 0.39521247, 0.87921244, 0.37621248, 0.9184542, 0.9224542, 0.8452124, 0.009120877]
