0 -3.1415925
0 -3.1415925
0 -3.1415925
0 3.1415925
0 -0.0
0 -0.0
0 -0.0
0 -0.0
0 -0.0
1 -3.1415925
1 -3.1415925
1 -3.1415925
1 3.1415925
1 -0.0
1 -0.0
1 -0.0
1 -0.0
1 -0.0
2 -3.1415925
2 -3.1415925
2 -3.1415925
2 3.1415925
2 -0.0
2 -0.0
2 -0.0
2 -0.0
2 -0.0
3 -3.1415925
3 -3.1415925
3 -3.1415925
3 3.1415925
3 -0.0
3 -0.0
3 -0.0
3 -0.0
3 -0.0
4 -3.1415925
4 -3.1415925
4 -3.1415925
4 3.1415925
4 -0.0
4 -0.0
4 -0.0
4 -0.0
4 -0.0
5 -3.1415925
5 -3.1415925
5 -3.1415925
5 3.1415925
5 -0.0
5 -0.0
5 -0.0
5 -0.0
5 -0.0
6 -3.1415925
6 -3.1415925
6 -3.1415925
6 3.1415925
6 -0.0
6 -0.0
6 -0.0
6 -0.0
6 -0.0
7 -3.1415925
7 -3.1415925
7 -3.1415925
7 3.1415925
7 -0.0
7 -0.0
7 -0.0
7 -0.0
7 -0.0
8 -3.1415925
8 -3.1415925
8 -3.1415925
8 3.1415925
8 -0.0
8 -0.0
8 -0.0
8 -0.0
8 -0.0
9 -3.1415925
9 -3.1415925
9 -3.1415925
9 3.1415925
9 -0.0
9 -0.0
9 -0.0
9 -0.0
9 -0.0
10 -3.1415925
10 -3.1415925
10 -3.1415925
10 3.1415925
10 -0.0
10 -0.0
10 -0.0
10 -0.0
10 -0.0
11 -3.1415925
11 -3.1415925
11 -3.1415925
11 3.1415925
11 -0.0
11 -0.0
11 -0.0
11 -0.0
11 -0.0
12 -3.1415925
12 -3.1415925
12 -3.1415925
12 3.1415925
12 -0.0
12 -0.0
12 -0.0
12 -0.0
12 -0.0
13 3.134978
13 3.1329947
13 3.1284802
13 3.1045918
13 0.039213974
13 0.013347542
13 0.008672125
13 0.006614587
13 0.00512552
14 3.127543
14 3.1235008
14 3.1142719
14 3.067685
14 0.08896329
14 0.02891456
14 0.018595885
14 0.01404965
14 0.016368639
15 3.1294124
15 3.1261203
15 3.118552
15 3.0825827
15 0.08612824
15 0.025838392
15 0.016355006
15 0.012180353
15 0.03304555
16 3.1304867
16 3.127735
16 3.121318
16 3.0929163
16 0.09287038
16 0.024561448
16 0.015204391
16 0.011105893
16 0.055163436
17 3.12985
17 3.1272638
17 3.1210706
17 3.0957172
17 0.12778082
17 0.027457682
17 0.0164877
17 0.011742823
17 0.08329688
18 3.12985
18 3.1272638
18 3.1210706
18 3.0957172
18 0.12778082
18 0.027457682
18 0.0164877
18 0.011742823
18 0.08329688
19 3.130257
19 3.1281269
19 3.122773
19 3.102538
19 0.19619182
19 0.028524434
19 0.016435834
19 0.011335919
19 0.117837295
20 3.1304655
20 3.1287408
20 3.1240616
20 3.1075764
20 0.5053467
20 0.030493854
20 0.01671958
20 0.0111273145
20 0.15464836
21 3.13052
21 3.1291246
21 3.1249368
21 3.1109502
21 2.4783623
21 0.033080608
21 0.017218411
21 0.011072672
21 0.18846413
22 3.1317322
22 3.1307395
22 3.1273525
22 3.1164927
22 2.9293964
22 0.032134514
22 0.015844919
22 0.009860458
22 0.21925999
23 3.1317322
23 3.1307395
23 3.1273525
23 3.1164927
23 2.9293964
23 0.032134514
23 0.015844919
23 0.009860458
23 0.21925999
24 3.1317322
24 3.1307395
24 3.1273525
24 3.1164927
24 2.9293964
24 0.032134514
24 0.015844919
24 0.009860458
24 0.21925999
25 3.1317322
25 3.1307395
25 3.1273525
25 3.1164927
25 2.9293964
25 0.032134514
25 0.015844919
25 0.009860458
25 0.21925999
26 3.1317322
26 3.1307395
26 3.1273525
26 3.1164927
26 2.9293964
26 0.032134514
26 0.015844919
26 0.009860458
26 0.21925999
27 3.133435
27 3.1327643
27 3.1301587
27 3.1220229
27 3.025403
27 0.028572125
27 0.013453076
27 0.008157615
27 0.24251029
28 3.1348546
28 3.1343868
28 3.1323435
28 3.1260705
28 3.0645506
28 0.024949143
28 0.011328792
28 0.006738256
28 0.2591313
29 3.1348546
29 3.1343868
29 3.1323435
29 3.1260705
29 3.0645506
29 0.024949143
29 0.011328792
29 0.006738256
29 0.2591313
30 3.1372724
30 3.1370115
30 3.1357527
30 3.1319337
30 3.0987585
30 0.016755644
30 0.007380526
30 0.004320383
30 0.27201217
31 -3.1414413
31 -3.141445
31 -3.141405
31 -3.1412857
31 -3.1403224
31 -5.6226435E-4
31 -2.4225886E-4
31 -1.5131563E-4
31 0.28112116
32 -3.1401076
32 -3.1400478
32 -3.1396363
32 -3.1384015
32 -3.128737
32 -0.005980777
32 -0.0025509926
32 -0.0014849802
32 0.28479934
33 -3.138788
33 -3.1386607
33 -3.137876
33 -3.1355186
33 -3.116805
33 -0.011256392
33 -0.004824139
33 -0.0028047257
33 0.2829562
34 -3.1403303
34 -3.1402738
34 -3.1399162
34 -3.1388361
34 -3.1298769
34 -0.004940269
34 -0.00214706
34 -0.0012622911
34 0.27746305
35 -3.1403303
35 -3.1402738
35 -3.1399162
35 -3.1388361
35 -3.1298769
35 -0.004940269
35 -0.00214706
35 -0.0012622911
35 0.27746305
36 -3.1403303
36 -3.1402738
36 -3.1399162
36 -3.1388361
36 -3.1298769
36 -0.004940269
36 -0.00214706
36 -0.0012622911
36 0.27746305
37 -3.1403303
37 -3.1402738
37 -3.1399162
37 -3.1388361
37 -3.1298769
37 -0.004940269
37 -0.00214706
37 -0.0012622911
37 0.27746305
38 -3.1403618
38 -3.140304
38 -3.1399522
38 -3.138887
38 -3.1298275
38 -0.0047647725
38 -0.0020858515
38 -0.0012307782
38 0.274535
39 -3.1407125
39 -3.1406715
39 -3.1404173
39 -3.1396463
39 -3.1328573
39 -0.0033490174
39 -0.0014800841
39 -8.80183E-4
39 0.2706399
40 -3.1408083
40 -3.1407707
40 -3.1405423
40 -3.1398463
40 -3.1335235
40 -0.0029436848
40 -0.0013117342
40 -7.8425556E-4
40 0.267189
41 3.141348
41 3.1413212
41 3.141245
41 3.1410105
41 3.1387722
41 9.514872E-4
41 4.292434E-4
41 2.4481502E-4
41 0.2619038
42 3.140142
42 3.1400287
42 3.1395812
42 3.1382012
42 3.1240695
42 0.00533042
42 0.0024410724
42 0.0014508176
42 0.25525633
43 3.1398475
43 3.1397052
43 3.1391568
43 3.137455
43 3.11874
43 0.0062709646
43 0.0029115013
43 0.0017450695
43 0.24899481
44 3.138286
44 3.138011
44 3.1369565
44 3.1336668
44 3.0949595
44 0.011641881
44 0.0054687797
44 0.0033066566
44 0.24354549
45 3.1373298
45 3.1369667
45 3.1355937
45 3.131295
45 3.0784256
45 0.014837597
45 0.007019129
45 0.0042628907
45 0.24018312
46 3.136665
46 3.13625
46 3.1346672
46 3.1297164
46 3.0695152
46 0.017190002
46 0.008118619
46 0.0049277064
46 0.24098238
47 3.1369326
47 3.1365428
47 3.13505
47 3.1303847
47 3.0743017
47 0.016303383
47 0.007685833
47 0.0046599694
47 0.24184948
48 3.1369326
48 3.1365428
48 3.13505
48 3.1303847
48 3.0743017
48 0.016303383
48 0.007685833
48 0.0046599694
48 0.24184948
49 3.1369326
49 3.1365428
49 3.13505
49 3.1303847
49 3.0743017
49 0.016303383
49 0.007685833
49 0.0046599694
49 0.24184948
