0 -1
1 -1
2 -1
3 -1
4 -1
5 -1
6 -1
7 -1
8 -1
9 -1
10 237375
11 237375
12 237375
13 237375
14 236875
15 236875
16 236875
17 236875
18 236875
19 236875
20 15000
21 15000
22 15000
23 15000
24 15000
25 15000
26 15000
27 15000
28 15000
29 15000
30 15000
31 15000
32 15000
33 15000
34 15000
35 15000
36 15000
37 15000
38 15000
39 -1
40 15000
41 15000
42 15000
43 15000
44 15000
45 15000
46 15000
47 15000
48 2500
49 2500
50 2500
51 2500
52 3000
53 3000
54 3000
55 315375
56 314750
57 314750
58 314750
59 314750
60 314750
61 314750
62 312875
63 -1
64 312950
65 312950
66 312950
67 312950
68 312950
69 312950
70 312950
71 312950
72 312950
73 234825
74 234825
75 234825
76 312950
77 312950
78 234825
79 234825
80 234825
81 234825
82 234825
83 234825
84 234825
85 234825
86 234825
87 234825
88 234825
89 234450
90 234450
91 234450
92 234465
93 234465
94 234435
95 234435
96 234435
97 234435
98 234435
99 234385
100 234385
101 234385
102 234387
103 234392
104 234392
105 234377
106 234377
107 234377
108 234377
109 234877
110 234877
111 -1
112 234877
113 234978
114 234978
115 234978
116 234978
117 234978
118 234978
119 234978
120 234978
121 234950
122 156700
123 156700
124 156700
125 156700
126 156700
127 156700
128 156825
129 156825
130 156825
131 156825
132 156825
133 156825
134 156825
135 156700
136 -1
137 156340
138 156315
139 156315
140 156315
141 156315
142 156315
143 156315
144 156315
145 156315
146 156315
147 156315
148 234435
149 234435
150 234435
151 234435
152 234435
153 234435
154 234435
155 234435
156 234435
157 234435
158 234435
159 234435
160 234380
161 234385
162 234385
163 234385
164 234385
165 -1
166 234387
167 234387
168 234387
169 234387
170 234387
171 234377
172 156252
173 156252
174 156852
175 156852
176 156852
177 156852
178 156852
179 156852
180 156852
181 156852
182 156852
183 156852
184 156852
185 156852
186 156852
187 31852
188 31852
189 31852
190 31852
191 31852
192 31852
193 31852
194 -1
195 31872
196 31872
197 31872
198 31872
199 31872
200 31872
201 31872
202 31872
203 31870
204 31870
205 31870
206 31870
207 31870
208 31870
209 31870
210 31870
211 31870
212 31870
213 31870
214 40749
215 40749
216 37624
217 37624
218 37624
219 37624
220 37624
221 37624
222 37624
223 -1
224 8149
225 7524
226 7524
227 7524
228 7524
229 3774
230 3774
231 4024
232 4024
233 754
234 754
235 754
236 754
237 754
238 754
239 754
240 804
241 779
242 779
243 150
244 150
245 150
246 150
247 150
248 150
249 150
250 155
251 155
252 -1
253 30
254 25
255 25
256 25
257 0
258 0
259 0
260 0
261 0
262 0
263 0
264 62500
265 62500
266 62500
267 62501
268 75000
269 325000
270 325000
271 325000
272 325000
273 325000
274 327500
275 327500
276 323750
277 323750
278 326875
279 326875
280 326875
281 314375
282 314750
283 314750
284 314750
285 315375
286 315375
287 314750
288 314750
289 314625
290 314625
291 314625
292 314625
293 314625
294 314625
295 314625
296 314625
297 314625
298 314625
299 314000
300 314000
301 314000
302 314000
303 314000
304 314000
305 314000
306 314000
307 314000
308 314000
309 314000
310 314000
311 314000
312 314000
313 314000
314 314000
315 314000
316 314000
317 314000
318 314000
319 314000
320 314000
321 314000
322 314000
323 314000
324 314000
325 314000
326 314000
327 313250
328 313250
329 -1
330 313250
331 313250
332 313875
333 313875
334 313925
335 313925
336 313925
337 313925
338 312675
339 312650
340 312650
341 312650
342 312650
343 312655
344 155
345 155
346 155
347 62530
348 62530
349 62530
350 62525
351 62525
352 62525
353 62525
354 62525
355 62525
356 62525
357 62525
358 -1
359 62525
360 62525
361 46876
362 46876
363 46876
364 46876
365 46875
366 49875
367 49875
368 49875
369 49975
370 49975
371 49975
372 49975
373 49975
374 49975
375 49975
376 49975
377 49995
378 49995
379 49995
380 49995
381 49995
382 49995
383 49995
384 49995
385 49995
386 49995
387 -1
388 59370
389 59370
390 59370
391 59370
392 59370
393 59370
394 56865
395 56840
396 56844
397 56844
398 38094
399 38094
400 38094
401 53719
402 6844
403 6844
404 8093
405 8093
406 8093
407 8093
408 8093
409 8093
410 8093
411 7593
412 7593
413 7593
414 7593
415 1618
416 -1
417 1618
418 1618
419 1518
420 1518
421 1518
422 1518
423 323
424 298
425 153
426 153
427 153
428 153
429 153
430 33
431 33
432 34
433 34
434 34
435 34
436 6
437 6
438 1
439 1
440 1
441 1
442 1
443 156251
444 156251
445 -1
446 156252
447 156252
448 156250
449 156750
450 156850
451 156850
452 156850
453 156350
454 156370
455 156370
456 156370
457 156370
458 156370
459 187620
460 31270
461 31270
462 31270
463 31270
464 31270
465 31270
466 31270
467 40629
468 37504
469 37504
470 37504
471 37504
472 37504
473 37500
474 -1
475 37504
476 34379
477 35629
478 35629
479 3754
480 3754
481 3750
482 3750
483 3750
484 3750
485 3750
486 3750
487 3750
488 4000
489 4000
490 4000
491 4000
492 313250
493 313250
494 313250
495 313250
496 313250
497 375750
498 63300
499 62650
500 62650
501 62650
502 62650
503 -1
504 62650
505 75150
506 75160
507 75160
508 75030
509 77530
510 77530
511 77530
512 77500
513 77500
514 77500
515 77500
516 77500
517 77500
518 61875
519 62375
520 62375
521 58625
522 58625
523 58630
524 58630
525 58625
526 58500
527 58500
528 58500
529 58500
530 58500
531 58601
532 -1
533 58601
534 58601
535 58601
536 292950
537 289095
538 289095
539 289095
540 289090
541 289065
542 289065
543 289065
544 289065
545 289065
546 289065
547 289065
548 289060
549 289060
550 289060
551 242185
552 242185
553 242185
554 242185
555 241410
556 241410
557 241410
558 241410
559 241405
560 241405
561 -1
562 241405
563 241405
564 241405
565 241405
566 241405
567 241405
568 235157
569 235782
570 48281
571 48281
572 48281
573 48281
574 47031
575 47031
576 47031
577 47031
578 47031
579 47031
580 47031
581 59531
582 59531
583 59656
584 56531
585 56531
586 56281
587 56281
588 56281
589 56281
590 -1
591 53156
592 55031
593 8131
594 8131
595 8131
596 8131
597 7506
598 8131
599 8131
600 8131
601 8131
602 8131
603 8131
604 38756
605 38756
606 35631
607 35631
608 34381
609 34381
610 34431
611 34431
612 34431
613 18781
614 18781
615 21906
616 21906
617 21906
618 21906
619 21906
620 -1
621 21906
622 21906
623 21906
624 15656
625 15656
626 187531
627 187531
628 187656
629 187651
630 187651
631 187651
632 78275
633 78275
634 78275
635 78250
636 78250
637 78250
638 78250
639 78250
640 155750
641 155750
642 155750
643 155625
644 155625
645 155625
646 155625
