0 -1
1 -1
2 1484399
3 1484399
4 1253009
5 1484399
6 1484399
7 1184375
8 1331172
9 1312620
10 783770
11 843850
12 784271
13 793770
14 844050
15 793850
16 1234975
17 1172375
18 1250500
19 1248000
20 1247500
21 1484252
22 1409252
23 1409253
24 1374626
25 1499378
26 1312126
27 1175004
28 1490504
29 1553879
30 722375
31 548129
32 403125
33 499379
34 481879
35 1180627
36 1315649
37 -1
38 1215627
39 1484495
40 1246899
41 1359497
42 1265639
43 1174875
44 1418843
45 1195799
46 1484378
47 1171879
48 1484379
49 1171895
50 1518788
51 1172481
52 1171995
53 1174875
54 1556250
55 1246875
56 1484375
57 1484384
58 1561875
59 1171879
60 1484375
61 1547399
62 1515777
63 1515782
64 1558728
65 1516091
66 1516091
67 1431235
68 1486878
69 1487500
70 483528
71 1311503
72 1337514
73 1249643
74 1237524
75 1253146
76 1532639
77 1490646
78 1171995
79 1184435
80 1171884
81 969098
82 781323
83 830470
84 1174375
85 1387476
86 1174379
87 1484375
88 1542002
89 1181264
90 1553757
91 1218854
92 1250014
93 1174399
94 1499375
95 1176548
96 1419466
97 1196571
98 1550450
99 1503579
100 1403152
101 1553282
102 1550032
103 1171899
104 1515657
105 1172395
106 1171995
107 1172375
108 1171975
109 1186875
110 -1
111 1546875
112 1174995
113 1174375
114 1531254
115 1174375
116 1546889
117 1546899
118 1174375
119 1186880
120 1184375
121 1406470
122 1462520
123 1171975
124 1172475
125 781350
126 1093850
127 950560
128 1094731
129 1234475
130 1484627
131 705377
132 549376
133 390629
134 403125
135 1186875
136 1246999
137 1184395
138 796945
139 -1
140 781770
141 781350
142 1250350
143 1234875
144 703377
145 393129
146 1171879
147 1180627
148 1218773
149 1171975
150 1184375
151 1172375
152 1218774
153 1246875
154 1546875
155 1246875
156 1171889
157 1171895
158 1171990
159 1172375
160 1171975
161 1174375
162 1546875
163 1171879
164 781254
165 1131250
166 1156354
167 1174495
168 -1
169 1484975
170 1528079
171 393129
172 1561899
173 1166261
174 843850
175 1487399
176 391125
177 766220
178 695006
179 695006
180 1476251
181 1476251
182 1516097
183 1500019
184 1249500
185 1192154
186 1184409
187 1296309
188 1296314
189 1296314
190 1172475
191 1296319
192 1515631
193 1174375
194 1171975
195 1462524
196 1462524
197 -1
198 1234375
199 1250009
200 1484468
201 1265649
202 1265649
203 1265649
204 1484379
205 1462619
206 1533684
207 954698
208 1032823
209 937572
210 759984
211 625020
212 1327899
213 1184375
214 1553876
215 1553751
216 1312516
217 1484375
218 1196860
219 515301
220 393129
221 695001
222 1180649
223 1181374
224 1234887
225 1171894
226 -1
227 1311294
228 1484825
229 1540629
230 1531282
231 1174224
232 1515657
233 1518788
234 1183625
235 1546899
236 1230625
237 1184825
238 1346894
239 1250009
240 1265649
241 1484379
242 1484480
243 1172479
244 1539953
245 781850
246 971315
247 1109589
248 1184875
249 1485623
250 703125
251 705455
252 667879
253 1249653
254 -1
255 1557637
256 1215635
257 1171895
258 843770
259 1096854
260 781350
261 1485600
262 703625
263 704379
264 698131
265 698131
266 698126
267 616250
268 718750
269 418774
270 731258
271 1553751
272 1553751
273 1184479
274 1491254
275 1484375
276 1487509
277 1250500
278 1487475
279 1231274
280 1406269
281 1406269
282 1406269
283 1515787
284 1515787
285 1484388
286 1484375
287 -1
288 1172375
289 1171919
290 1171919
291 1237375
292 1171975
293 1171894
294 1172375
295 1171919
296 1187519
297 1171894
298 1531862
299 1534338
300 1406269
301 1284351
302 1410019
303 1409394
304 1262493
305 1406264
306 1415618
307 1503139
308 1547490
309 1519384
310 1522182
311 1503127
312 584999
313 575104
314 737502
315 753843
316 772501
317 398249
318 418774
319 398129
320 653149
321 418774
322 1171879
323 1505754
324 1404626
325 1506004
326 1312126
327 1172375
328 1296551
329 1002125
330 -1
331 808710
332 1000350
333 805590
334 805590
335 793850
336 793850
337 802496
338 1250350
339 1184395
340 1250174
341 1172049
342 1484375
343 1484375
344 1421919
345 1250500
346 1234496
347 1171929
348 1172376
349 1468874
350 1484375
351 1561528
352 453149
353 403129
354 703125
355 703125
356 468403
357 1171879
358 1406025
359 -1
360 1252750
361 781750
362 1094250
363 1156850
364 1174375
365 1546975
366 1174395
367 1172379
368 1171975
369 1172375
370 1500152
371 1519055
372 1171995
373 1172495
374 1171980
375 1171895
376 1190674
377 1328129
378 1484375
379 1171884
380 1546875
381 1246875
382 1246875
383 1174375
384 1186875
385 1174995
386 1171899
387 1406254
388 1484379
389 1484375
390 1171879
391 1246875
392 1171999
393 390649
394 403129
395 1184399
396 1484379
397 1468576
398 1093750
399 1123276
400 812317
401 812498
402 809372
403 1215623
404 1324225
405 1502487
406 703130
407 703125
408 402600
409 465281
410 418552
411 703125
412 703125
413 1484375
414 796498
415 938000
416 1093750
417 1247495
418 1484475
419 1174399
420 1359395
421 1521875
422 1186875
423 1515625
424 1184375
425 1172475
426 -1
427 1484499
428 1172491
429 1518788
430 1406269
431 1515631
432 1540714
433 1546907
434 1475162
435 1515927
436 1559412
437 1484375
438 1237518
439 1467544
440 1389419
441 1184375
442 1234375
443 1174375
444 1206259
445 453725
446 403149
447 775629
448 1171895
449 1174379
450 1482751
451 1487379
452 999001
453 1014626
454 827951
455 -1
456 843750
457 806246
458 1485785
459 1531345
460 1484537
461 1469070
462 772630
463 772630
464 1246975
465 1248257
466 1093876
467 1315624
468 1186995
469 1171975
470 1172399
471 1171895
472 1306373
473 1484375
474 1174375
475 1325000
476 1268764
477 1171975
478 1171895
479 1171896
480 1484375
481 1184375
482 1234375
483 1174375
484 -1
485 403129
486 1171895
487 783754
488 921551
489 858870
490 1172475
491 1484529
492 765725
493 481270
494 1186875
495 1499925
496 1541228
497 1093750
498 799985
499 1000502
500 1172425
501 1250100
502 1203499
503 1174375
504 1171975
505 1266145
506 1171895
507 1381867
508 1346992
509 1406271
510 1268848
511 1268848
512 1484379
513 -1
514 1268774
515 1484379
516 1171884
517 1484375
518 1265634
519 1265634
520 1265634
521 1546875
522 1503139
523 1484375
524 1518794
525 1518794
526 1234375
527 1546875
528 1559378
529 1320250
530 1381324
531 1295250
532 1184375
533 1373435
534 1515662
