0 [1.0, 1.0, 1.0, 1.0, 1.0, 1.0, 1.0, 1.0]
1 [1.0, 1.0, 1.0, 1.0, 1.0, 1.0, 1.0, 1.0]
2 [1.0, 1.0, 1.0, 1.0, 1.0, 1.0, 1.0, 1.0]
3 [1.0, 1.0, 1.0, 1.0, 1.0, 1.0, 1.0, 1.0]
4 [1.0, 1.0, 1.0, 1.0, 1.0, 1.0, 1.0, 1.0]
5 [1.0, 1.0, 1.0, 1.0, 1.0, 1.0, 1.0, 1.0]
6 [1.0, 1.0, 1.0, 1.0, 1.0, 1.0, 1.0, 1.0]
7 [1.0, 1.0, 1.0, 1.0, 1.0, 1.0, 1.0, 1.0]
8 [1.0, 1.0, 1.0, 1.0, 1.0, 1.0, 1.0, 1.0]
9 [1.0, 1.0, 1.0, 1.0, 1.0, 1.0, 1.0, 1.0]
10 [1.0, 1.0, 1.0, 1.0, 1.0, 1.0, 1.0, 1.0]
11 [1.0, 1.0, 1.0, 1.0, 1.0, 1.0, 1.0, 1.0]
12 [1.0, 1.0, 1.0, 1.0, 1.0, 1.0, 1.0, 1.0]
13 [1.0, 1.0, 1.0, 1.0, 1.0, 1.0, 1.0, 1.0]
14 [1.0, 1.0, 1.0, 1.0, 1.0, 1.0, 1.0, 1.0]
15 [1.0, 1.0, 1.0, 1.0, 1.0, 1.0, 1.0, 1.0]
16 [1.0, 1.0, 1.0, 1.0, 1.0, 1.0, 1.0, 1.0]
17 [1.0, 1.0, 1.0, 1.0, 1.0, 1.0, 1.0, 1.0]
18 [1.0, 1.0, 1.0, 1.0, 1.0, 1.0, 1.0, 1.0]
19 [1.0, 1.0, 1.0, 1.0, 1.0, 1.0, 1.0, 1.0]
20 [1.0, 1.0, 1.0, 1.0, 1.0, 1.0, 1.0, 1.0]
21 [1.0, 1.0, 1.0, 1.0, 1.0, 1.0, 1.0, 1.0]
22 [1.0, 1.0, 1.0, 1.0, 1.0, 1.0, 1.0, 1.0]
23 [1.0, 1.0, 1.0, 1.0, 1.0, 1.0, 1.0, 1.0]
24 [1.0, 1.0, 1.0, 1.0, 1.0, 1.0, 1.0, 1.0]
25 [1.0, 1.0, 1.0, 1.0, 1.0, 1.0, 1.0, 1.0]
26 [1.0, 1.0, 1.0, 1.0, 1.0, 1.0, 1.0, 1.0]
27 [1.0, 1.0, 1.0, 1.0, 1.0, 1.0, 1.0, 1.0]
28 [1.0, 1.0, 1.0, 1.0, 1.0, 1.0, 1.0, 1.0]
29 [1.0, 1.0, 1.0, 1.0, 1.0, 1.0, 1.0, 1.0]
30 [1.0, 1.0, 1.0, 1.0, 1.0, 1.0, 1.0, 1.0]
31 [1.0, 1.0, 1.0, 1.0, 1.0, 1.0, 1.0, 1.0]
32 [1.0, 1.0, 1.0, 1.0, 1.0, 1.0, 1.0, 1.0]
33 [1.0, 1.0, 1.0, 1.0, 1.0, 1.0, 1.0, 1.0]
34 [1.0942768, 1.6966166, 1.0942768, 1.0002337, 1.0, 1.0, 1.0, 1.0]
35 [1.7756264, 1.6773651, 1.0791444, 1.0001956, 1.0, 1.0, 1.0, 1.0]
36 [1.6437175, 1.5230963, 1.0602999, 1.000149, 1.0, 1.0, 1.0, 1.0]
37 [1.4895215, 1.3956308, 1.0455576, 1.0001125, 1.0, 1.0, 1.0, 1.0]
38 [1.3173592, 1.2563714, 1.0295188, 1.000073, 1.0, 1.0001957, 1.0789798, 1.5835865]
39 [1.2398578, 1.1937618, 1.0223099, 1.0000551, 1.0, 1.0002189, 1.088305, 1.652491]
40 [1.097146, 0.60349125, 1.5162818, 1.0788128, 1.0001957, 1.0001696, 1.0684124, 1.5055032]
41 [0.22513008, 0.40340504, 1.4826269, 1.0757449, 1.0001882, 1.000108, 1.0435852, 1.3220537]
42 [0.45622432, 0.55273896, 1.3659003, 1.0574396, 1.0001427, 1.0000815, 1.0328763, 1.2429249]
43 [1.2087481, 0.745955, 1.2765834, 1.0433868, 1.0001078, 1.0000615, 1.0248226, 1.1834157]
44 [1.1950623, 0.8130341, 1.2090564, 1.0327921, 1.0000815, 1.0000465, 1.0187606, 1.1386226]
45 [1.1496928, 0.85900056, 1.1580026, 1.0247838, 1.0000616, 0.99976623, 0.90569335, 0.30316275]
46 [1.1131601, 0.89356, 1.1192964, 1.0187125, 1.0000465, 0.9998055, 0.9215265, 0.420155]
47 [1.085264, 0.81106997, 0.2885564, 0.90565705, 0.99976623, 0.9998519, 0.94025326, 0.55852807]
48 [1.0643593, 0.85008323, 0.4091268, 0.9214991, 0.9998055, 0.9998881, 0.9548629, 0.6664796]
49 [1.0486406, 0.88625765, 0.5501932, 0.9402326, 0.9998519, 0.9999154, 0.9658845, 0.74791884]
