0 [0.0, 0.0, 0.0, 0.0, 0.0, 0.0, 0.0, 0.0]
1 [0.0, 0.0, 0.0, 0.0, 0.0, 0.0, 0.0, 0.0]
2 [0.0, 0.0, 0.0, 0.0, 0.0, 0.0, 0.0, 0.0]
3 [0.0, 0.0, 0.0, 0.0, 0.0, 0.0, 0.0, 0.0]
4 [0.0, 0.0, 0.0, 0.0, 0.0, 0.0, 0.0, 0.0]
5 [0.0, 0.0, 0.0, 0.0, 0.0, 0.0, 0.0, 0.0]
6 [0.0, 0.0, 0.0, 0.0, 0.0, 0.0, 0.0, 0.0]
7 [0.0, 0.0, 0.0, 0.0, 0.0, 0.0, 0.0, 0.0]
8 [0.0, 0.0, 0.0, 0.0, 0.0, 0.0, 0.0, 0.0]
9 [0.0, 0.0, 0.0, 0.0, 0.0, 0.0, 0.0, 0.0]
10 [0.0, 0.0, 0.0, 0.0, 0.0, 0.0, 0.0, 0.0]
11 [0.0, 0.0, 0.0, 0.0, 0.0, 0.0, 0.0, 0.0]
12 [0.0, 0.0, 0.0, 0.0, 0.0, 0.0, 0.0, 0.0]
13 [0.0, 0.0, 0.0, 0.0, 0.0, 0.0, 0.0, 0.0]
14 [0.0, 0.0, 0.0, 0.0, 0.0, 0.0, 0.0, 0.0]
15 [0.0, 0.0, 0.0, 0.0, 0.0, 0.0, 0.0, 0.0]
16 [0.0, 0.0, 0.0, 0.0, 0.0, 0.0, 0.0, 0.0]
17 [0.0, 0.0, 0.0, 0.0, 0.0, 0.0, 0.0, 0.0]
18 [0.0, 0.0, 0.0, 0.0, 0.0, 0.0, 0.0, 0.0]
19 [0.0, 0.0, 0.0, 0.0, 0.0, 0.0, 0.0, 0.0]
20 [0.0, 0.0, 0.0, 0.0, 0.0, 0.0, 0.0, 0.0]
21 [0.0, 0.0, 0.0, 0.0, 0.0, 0.0, 0.0, 0.0]
22 [0.0, 0.0, 0.0, 0.0, 0.0, 0.0, 0.0, 0.0]
23 [0.0, 0.0, 0.0, 0.0, 0.0, 0.0, 0.0, 0.0]
24 [0.0, 0.0, 0.0, 0.0, 0.0, 0.0, 0.0, 0.0]
25 [0.0, 0.0, 0.0, 0.0, 0.0, 0.0, 0.0, 0.0]
26 [0.92708, 0.929011, 0.049010992, 0.91708, 0.91407996, 0.0019890056, 0.004010989, 0.008010985]
27 [0.081362635, 0.047362633, 0.04936264, 0.0136373695, 0.0076373518, 0.0043626367, 0.010362632, 0.018362647]
28 [1.0313627, 0.9223626, 0.99936265, 0.06363737, 0.9576373, 0.0043626367, 0.010362632, 0.018362647]
29 [0.14172527, 0.05827472, 0.041274734, 0.028274722, 0.016274735, 0.00627472, 0.0137252845, 0.026725272]
30 [0.15562882, 0.9645934, 0.10181563, 0.06381562, 0.05681563, 0.99537116, 0.013406594, 0.03040659]
31 [0.1334066, 0.0895934, 0.07959341, 0.041593403, 0.034593407, 0.0175934, 0.013406594, 0.03040659]
32 [0.13467766, 0.13767765, 0.12765568, 0.10665567, 0.059655674, 0.028989019, 1.0003443, 0.055677652]
33 [0.050829664, 0.10882967, 0.98384064, 0.13614833, 0.10615935, 0.04114836, 0.018159337, 1.0338516]
34 [0.039840654, 0.09784066, 0.98384064, 0.12515932, 0.10615935, 0.03015935, 0.018159337, 0.044840664]
35 [0.9813413, 0.025835155, 1.0483413, 0.120835155, 0.12583515, 0.069835156, 0.022835156, 0.9863413]
36 [0.040164832, 0.025835155, 0.10716484, 0.120835155, 0.12583515, 0.069835156, 0.022835156, 0.04516484]
37 [0.038291205, 0.017708788, 0.091291204, 0.104291216, 0.12270878, 0.09970878, 0.04329121, 0.042291213]
38 [1.0258864, 0.9324469, 0.044780213, 1.0208864, 1.0374469, 0.11378022, 0.9644469, 0.041219775]
39 [0.10921978, 0.01578022, 0.044780213, 0.10421979, 0.120780215, 0.11378022, 0.047780212, 0.041219775]
40 [0.10921978, 0.01578022, 0.044780213, 0.10421979, 0.120780215, 0.11378022, 0.047780212, 0.041219775]
41 [0.11473627, 0.017263738, 0.04126374, 0.09773626, 0.099736266, 0.11826374, 0.07126374, 0.052736264]
42 [0.91224176, 0.81875825, 0.041758247, 0.9652418, 0.97224176, 0.11875825, 0.07875824, 0.053241756]
43 [0.11224176, 0.018758247, 0.041758247, 0.09024176, 0.09724176, 0.11875825, 0.07875824, 0.053241756]
44 [0.16948901, 0.958511, 0.040011, 0.12351098, 1.0324891, 0.17551097, 0.16051099, 0.12148902]
45 [1.0033681, 0.9883681, 0.9396318, 0.058631863, 0.96936816, 1.0086318, 0.20963186, 0.9633681]
46 [0.10336813, 0.088368125, 0.03963186, 0.058631863, 0.09436814, 0.108631864, 0.10963186, 0.06336813]
47 [0.098153844, 1.0485348, 0.9862271, 0.04684616, 0.96615386, 1.0525348, 1.0442271, 1.0145348]
48 [0.098153844, 0.09615385, 0.033846147, 0.04684616, 0.091153845, 0.10015385, 0.09184616, 0.062153846]
49 [0.015802208, 0.0901978, 1.0295788, 0.040802207, 0.7998022, 1.0555787, 0.1021978, 0.0738022]
