-1.1194725036621 0.70000064373016
-1.1177124977112 0.70003616809845
-1.1124619245529 0.70003879070282
-1.1066255569458 0.70016485452652
-1.1010059118271 0.70026457309723
-1.0953485965729 0.7003328204155
-1.0896389484406 0.70037400722504
-1.0839257240295 0.70043003559113
-1.0782240629196 0.70046627521515
-1.0725238323212 0.70042830705643
-1.0668962001801 0.7003915309906
-1.0611826181412 0.7003185749054
-1.0554603338242 0.70024353265762
-1.0498423576355 0.70016795396805
-1.0440837144852 0.70002657175064
-1.0383846759796 0.69992244243622
-1.0326700210571 0.69979554414749
-1.0269085168839 0.69964593648911
-1.0211545228958 0.69946438074112
-1.0154536962509 0.69925129413605
-1.0096769332886 0.69905483722687
-1.0039020776749 0.69883435964584
-0.99814146757126 0.69857847690582
-0.99235469102859 0.69831573963165
-0.98654490709305 0.69806134700775
-0.98070335388184 0.69779908657074
-0.97487145662308 0.69748914241791
-0.96901047229767 0.69717085361481
-0.96312445402145 0.69684588909149
-0.95723307132721 0.69648557901382
-0.9513184428215 0.69611638784409
-0.94538259506226 0.69575071334839
-0.93943297863007 0.69535094499588
-0.93265599012375 0.69499385356903
-0.92515832185745 0.69466912746429
-0.91760098934174 0.69429576396942
-0.90926647186279 0.69366997480392
-0.90001344680786 0.69277191162109
-0.89034175872803 0.69158661365509
-0.88067036867142 0.69031578302383
-0.87098741531372 0.68906444311142
-0.86132776737213 0.68783533573151
-0.85168206691742 0.68662661314011
-0.84199732542038 0.6854220032692
-0.83231270313263 0.6842155456543
-0.82265079021454 0.68300914764404
-0.81296336650848 0.68180364370346
-0.80330675840378 0.68059188127518
-0.79363948106766 0.67938768863678
-0.78395575284958 0.67818921804428
-0.77430385351181 0.67698609828949
-0.76460856199265 0.67577064037323
-0.75493919849396 0.67456686496735
-0.74526077508926 0.67335498332977
-0.73560035228729 0.6721528172493
-0.72591680288315 0.67094820737839
-0.71626079082489 0.66974705457687
-0.7065801024437 0.66853708028793
-0.69691109657288 0.6673276424408
-0.68724006414413 0.66612243652344
-0.67755687236786 0.6649078130722
-0.66789489984512 0.66369950771332
-0.65821194648743 0.6624938249588
-0.64853966236115 0.66127997636795
-0.63886904716492 0.66007363796234
-0.62920916080475 0.65886908769608
-0.61954033374786 0.65765488147736
-0.60986346006393 0.65644353628159
-0.6002002954483 0.65523540973663
-0.59052008390427 0.65402281284332
-0.58083963394165 0.65282183885574
-0.57116973400116 0.65160650014877
-0.56151312589645 0.65039849281311
-0.55183124542236 0.64919197559357
-0.54217517375946 0.64798444509506
-0.53249990940094 0.64677703380585
-0.5228168964386 0.6455671787262
-0.51315200328827 0.6443527340889
-0.50347274541855 0.64313805103302
-0.49380832910538 0.6419266462326
-0.48412823677063 0.64071249961853
-0.47446712851524 0.63949549198151
-0.46478343009949 0.6382828950882
-0.45512890815735 0.63707834482193
-0.44543981552124 0.63586270809174
-0.43577042222023 0.63465046882629
-0.42610010504723 0.63344031572342
-0.41642546653748 0.63222497701645
-0.40676206350327 0.63101524114609
-0.39708164334297 0.62980616092682
-0.38740855455399 0.6286039352417
-0.37774801254272 0.627396941185
-0.36807122826576 0.62619721889496
-0.35839265584946 0.62498825788498
-0.34871938824654 0.62377488613129
-0.33904677629471 0.62256282567978
-0.32938212156296 0.62135308980942
-0.31970444321632 0.62013530731201
-0.31002604961395 0.61893260478973
-0.30036827921867 0.61772572994232
-0.29068738222122 0.61651384830475
-0.28102561831474 0.61530697345734
-0.27135017514229 0.61409813165665
-0.26168873906136 0.61288869380951
-0.25200718641281 0.61168152093887
-0.24232895672321 0.61046773195267
-0.23266761004925 0.60926228761673
-0.22299525141716 0.60805612802505
-0.21332898736 0.60684037208557
-0.20363771915436 0.60563290119171
-0.19396287202835 0.60442650318146
-0.1842895001173 0.60321402549744
-0.17461325228214 0.60201019048691
-0.1649464815855 0.60079884529114
-0.15527491271496 0.5995866060257
-0.14560888707638 0.59837108850479
-0.13593593239784 0.59715235233307
-0.12626048922539 0.59593993425369
-0.11659343540668 0.59472918510437
-0.10691519081593 0.59351462125778
-0.097238853573799 0.59230214357376
-0.087547108530998 0.59109389781952
-0.077895469963551 0.58988553285599
-0.068236097693443 0.58868062496185
-0.058556847274303 0.58747488260269
-0.048880856484175 0.58626699447632
-0.039215717464685 0.58504927158356
-0.029531639069319 0.58383643627167
-0.019859435036778 0.58262526988983
-0.010195201262832 0.58140385150909
-0.00052617985056713 0.58019918203354
0.0091428235173225 0.57897788286209
0.018822148442268 0.5777679681778
0.028496515005827 0.57655650377274
0.038156423717737 0.57533323764801
0.047832958400249 0.57413613796234
0.057511568069458 0.5729364156723
0.067172154784203 0.57173228263855
0.076841033995152 0.57051938772202
0.086508348584175 0.56931746006012
0.096189595758915 0.56810313463211
0.10585703700781 0.56689518690109
0.11552195250988 0.56569743156433
0.12519688904285 0.56448972225189
0.13488113880157 0.56326758861542
0.14454545080662 0.5620573759079
0.15421169996262 0.5608571767807
0.16389045119286 0.55964475870132
0.17355337738991 0.55844247341156
0.18321983516216 0.55724465847015
0.19289745390415 0.5560405254364
0.2025752812624 0.55481785535812
0.21224816143513 0.55360233783722
0.22192525863647 0.55239170789719
0.23158916831017 0.55119264125824
0.24125254154205 0.5499854683876
0.2509189248085 0.54877507686615
0.26057264208794 0.5475686788559
0.27027329802513 0.54634892940521
0.27993240952492 0.54514914751053
0.28959956765175 0.54393661022186
0.29927995800972 0.54271137714386
0.30894154310226 0.54150646924973
0.31860756874084 0.54029774665833
0.32828488945961 0.53908985853195
0.33796474337578 0.53787922859192
0.34765583276749 0.53665655851364
0.35732215642929 0.53544443845749
0.36699113249779 0.53423416614532
0.37664112448692 0.53303819894791
0.38632762432098 0.53181952238083
0.39599254727364 0.53061240911484
0.40565752983093 0.52940535545349
0.41532272100449 0.52820241451263
0.42499399185181 0.52699035406113
0.43466979265213 0.52579170465469
0.44434881210327 0.52459293603897
0.45403391122818 0.52337431907654
0.46369829773903 0.52216678857803
0.47335338592529 0.52095168828964
0.48302793502808 0.51974666118622
0.49269658327103 0.51853811740875
0.50236684083939 0.51732605695724
0.51203829050064 0.51610600948334
0.52171611785889 0.51490569114685
0.53139960765839 0.51368486881256
0.54105854034424 0.51248919963837
0.55074679851532 0.51128816604614
0.56037700176239 0.51007455587387
0.57007777690887 0.50886070728302
0.57974255084991 0.50764983892441
0.58941298723221 0.50645160675049
0.59908401966095 0.50523692369461
0.60875618457794 0.50403398275375
0.61838793754578 0.5028230547905
0.62789726257324 0.50163495540619
0.63728594779968 0.50043308734894
0.64654809236526 0.49926123023033
0.65569186210632 0.49809575080872
0.66472017765045 0.49693617224693
0.67363274097443 0.49580520391464
0.68244457244873 0.49467459321022
0.69113218784332 0.49358138442039
0.69973754882812 0.49250084161758
0.70807415246964 0.49145975708961
0.71609890460968 0.49042525887489
0.72385901212692 0.48940306901932
0.73134464025497 0.48842516541481
0.7384797334671 0.48745900392532
0.74542063474655 0.48654347658157
0.75212788581848 0.48569265007973
0.75853317975998 0.48485603928566
0.76474922895432 0.48406738042831
0.77073562145233 0.48332986235619
0.77670526504517 0.4826180934906
0.7826634645462 0.4819627404213
0.78868520259857 0.481340944767
0.79571843147278 0.48072868585587
0.8032134771347 0.48035350441933
0.81049728393555 0.48004668951035
0.81765568256378 0.47979441285133
0.82467973232269 0.4795823097229
0.83160412311554 0.47940188646317
0.83834773302078 0.47923082113266
0.84494096040726 0.47910356521606
0.85137522220612 0.47905191779137
0.85772734880447 0.47905120253563
0.8645898103714 0.47916769981384
0.87153303623199 0.47937101125717
0.87839090824127 0.47960343956947
0.88530218601227 0.47993022203445
0.89223128557205 0.48033913969994
0.89921075105667 0.48079162836075
0.90623331069946 0.48135247826576
0.9128702878952 0.48192626237869
0.91951978206635 0.48249101638794
0.92623633146286 0.48315638303757
0.93307608366013 0.48392897844315
0.93994921445847 0.48479422926903
0.94682633876801 0.48571386933327
0.95384758710861 0.48676094412804
0.95989143848419 0.48772382736206
0.96517276763916 0.48851078748703
0.96995908021927 0.48895555734634
0.97559708356857 0.48952317237854
0.98194372653961 0.49045389890671
0.98836612701416 0.49177250266075
0.99469375610352 0.49318265914917
1.0011068582535 0.49474000930786
1.0075930356979 0.49645066261292
1.0139847993851 0.49824190139771
1.0203980207443 0.50016152858734
1.0268847942352 0.50222313404083
1.0334241390228 0.50438725948334
1.0398446321487 0.5066574215889
1.0463361740112 0.50904506444931
1.0527727603912 0.51156222820282
1.0591543912888 0.51417648792267
1.0653818845749 0.51680308580399
1.0715873241425 0.51954901218414
1.077659368515 0.52230858802795
1.0837562084198 0.52518665790558
1.0899369716644 0.52814948558807
1.095898270607 0.53114902973175
1.1019867658615 0.53428655862808
1.1078779697418 0.53737270832062
1.1137244701385 0.54054653644562
1.1195833683014 0.54384994506836
1.1259605884552 0.54764044284821
1.1328667402267 0.55202907323837
1.1397162675858 0.55654257535934
1.1463906764984 0.56099432706833
1.1529886722565 0.56536042690277
1.1595380306244 0.56962758302689
1.1659934520721 0.57383608818054
1.1723530292511 0.57798755168915
1.1786391735077 0.58205568790436
1.1848186254501 0.58605736494064
1.1909091472626 0.58999770879745
1.1968367099762 0.59381365776062
1.2026108503342 0.59752267599106
1.2082283496857 0.60112154483795
1.213675737381 0.60459750890732
1.2189679145813 0.60796391963959
1.223388671875 0.61083048582077
1.2274339199066 0.61348259449005
1.2313066720963 0.61602300405502
1.2350008487701 0.61845433712006
1.2385387420654 0.62077397108078
1.2419281005859 0.62302362918854
1.2451646327972 0.62511694431305
1.2482621669769 0.62713807821274
1.2511942386627 0.629035115242
1.253990650177 0.63085800409317
1.2567219734192 0.63261944055557
1.2593032121658 0.63429659605026
1.2612359523773 0.63565099239349
1.2628873586655 0.63688808679581
1.2644091844559 0.63803273439407
1.2658097743988 0.63912278413773
1.2670753002167 0.64014887809753
1.2682816982269 0.64113336801529
1.2694064378738 0.64203602075577
1.2704032659531 0.64290219545364
1.2712750434875 0.6436967253685
1.2720793485641 0.64445620775223
1.2738761901855 0.64570462703705
1.2757767438889 0.64702087640762
1.2775464057922 0.64822852611542
1.2792420387268 0.64938938617706
1.280865073204 0.65048414468765
1.2823473215103 0.65156453847885
1.2837232351303 0.6526170372963
1.2850903272629 0.65364569425583
1.2878057956696 0.65524560213089
1.2913454771042 0.6569287776947
1.2947657108307 0.65848815441132
1.2979919910431 0.65999412536621
1.3010956048965 0.66139674186707
1.3040603399277 0.66271620988846
1.3059751987457 0.6637527346611
1.3070064783096 0.66461044549942
1.3074470758438 0.66548448801041
1.3078721761703 0.66647440195084
1.3083736896515 0.66741073131561
1.3088185787201 0.66833579540253
1.309276342392 0.66923594474792
1.3098034858704 0.67015254497528
1.3096326589584 0.67074882984161
1.3083068132401 0.67116677761078
1.3065363168716 0.67166614532471
1.3046363592148 0.67228209972382
1.3038575649261 0.67306190729141
1.3038454055786 0.67382419109344
1.3037891387939 0.67455023527145
1.3035674095154 0.67526841163635
1.3032424449921 0.6759837269783
1.3041656017303 0.67665493488312
1.3059359788895 0.67717969417572
1.3077139854431 0.67770332098007
1.3094518184662 0.67821443080902
1.3111562728882 0.67870432138443
1.3128626346588 0.67916786670685
1.3145450353622 0.6796025633812
1.3161917924881 0.68003857135773
1.3178114891052 0.68044829368591
1.3194813728333 0.68082684278488
1.3210746049881 0.68121606111526
1.3225953578949 0.68156087398529
1.3241412639618 0.68188798427582
1.3256380558014 0.68220555782318
1.327152967453 0.68248736858368
1.3286349773407 0.6827746629715
1.3301041126251 0.68303072452545
1.3315570354462 0.68326842784882
1.3342649936676 0.68319606781006
1.3366501331329 0.6831681728363
1.3383305072784 0.68351608514786
1.3398380279541 0.68394178152084
1.3413690328598 0.68426442146301
1.3429119586945 0.68461155891418
1.3445222377777 0.68493258953094
1.3470755815506 0.68483150005341
1.3502118587494 0.68429505825043
1.3534154891968 0.68356025218964
1.3566118478775 0.68278241157532
1.3597738742828 0.68205153942108
1.3629118204117 0.68122494220734
1.3660385608673 0.68034553527832
1.3685419559479 0.67981511354446
1.370351433754 0.67966258525848
1.3714982271194 0.6798979640007
1.3726589679718 0.68043857812881
1.3748886585236 0.68047803640366
1.3777958154678 0.67985337972641
1.3811864852905 0.6786128282547
1.3846657276154 0.67717391252518
1.3881056308746 0.67568838596344
1.3915199041367 0.67408907413483
1.394940495491 0.6724596619606
1.3973391056061 0.67132949829102
1.3989779949188 0.67056208848953
1.4006155729294 0.66975528001785
1.4022524356842 0.66893422603607
1.4038673639297 0.6681472659111
1.40544962883 0.66729182004929
1.4070656299591 0.66641354560852
1.4086718559265 0.66551023721695
1.410308599472 0.66455328464508
1.4119528532028 0.66354387998581
1.4136264324188 0.66251981258392
1.4153397083282 0.66143018007278
1.4170048236847 0.66031992435455
1.4186547994614 0.65923351049423
1.4203095436096 0.65809202194214
1.4219838380814 0.65690952539444
1.4236594438553 0.6557070016861
1.4253332614899 0.65445291996002
1.426998257637 0.65319395065308
1.4286978244781 0.65190464258194
1.4303352832794 0.65063148736954
1.4319857358932 0.64931219816208
1.4336460828781 0.64797931909561
1.4352840185165 0.64662581682205
1.4369233846664 0.64525973796844
1.438551902771 0.64389210939407
1.4401582479477 0.64250606298447
1.4417587518692 0.64110773801804
1.4433841705322 0.63967955112457
1.4449282884598 0.63829749822617
1.4464819431305 0.63689440488815
1.4480292797089 0.63548320531845
1.4495769739151 0.63405060768127
1.4510799646378 0.63265985250473
1.4525558948517 0.63125848770142
1.4540257453918 0.62986087799072
1.4554827213287 0.62846678495407
1.4579282999039 0.62618499994278
1.4613116979599 0.62335830926895
1.4648257493973 0.62050402164459
1.4683450460434 0.61760365962982
1.4719160795212 0.61463934183121
1.4754835367203 0.61161649227142
1.4790658950806 0.6084913611412
1.4826276302338 0.60527884960175
1.4861704111099 0.60206174850464
1.4896695613861 0.59880757331848
1.493147611618 0.59551680088043
1.4972919225693 0.59170240163803
1.5018508434296 0.58700716495514
1.5066850185394 0.58178687095642
1.5114481449127 0.57652044296265
1.5164062976837 0.57120144367218
1.5213062763214 0.56608891487122
1.5260730981827 0.56117236614227
1.5308611392975 0.55635964870453
1.5356885194778 0.55162596702576
1.5405720472336 0.54692608118057
1.5454680919647 0.54234683513641
1.5503923892975 0.53785592317581
1.5554282665253 0.53339231014252
1.5605406761169 0.52904373407364
1.5656983852386 0.52479267120361
1.570862531662 0.52062058448792
1.5762584209442 0.51643311977386
1.5817646980286 0.51236140727997
1.5873456001282 0.50834500789642
1.5938571691513 0.50387626886368
1.6012532711029 0.4993642270565
1.609099984169 0.49483695626259
1.6166929006577 0.49056452512741
1.6240453720093 0.4864853322506
1.6311248540878 0.48257151246071
1.6378891468048 0.47884035110474
1.6444237232208 0.4752516746521
1.6507337093353 0.47181835770607
1.6567800045013 0.46855312585831
1.6626348495483 0.46540933847427
1.6682513952255 0.46240505576134
1.6736879348755 0.45953100919724
1.6789128780365 0.45676398277283
1.6839205026627 0.45407357811928
1.6887214183807 0.45153516530991
1.6932995319366 0.4490832388401
1.6976858377457 0.44676318764687
1.701583147049 0.44464582204819
1.7052799463272 0.44264036417007
1.7088130712509 0.44073829054832
1.7122361660004 0.43889516592026
1.7155269384384 0.4370903968811
1.7186816930771 0.43536844849586
1.7217499017715 0.43377438187599
1.7247006893158 0.43222394585609
1.7275047302246 0.43069878220558
1.7302057743073 0.42919677495956
1.732798576355 0.42773485183716
1.735307097435 0.42631608247757
1.7377321720123 0.42498722672462
1.7400634288788 0.42366641759872
1.742332816124 0.42242494225502
1.744490981102 0.42125478386879
1.7465072870255 0.42017492651939
1.7483994960785 0.41921472549438
1.7501701116562 0.41835761070251
1.7517995834351 0.41757878661156
1.753370642662 0.41687750816345
1.7548269033432 0.41624736785889
1.7561950683594 0.41566896438599
1.7574279308319 0.41519460082054
1.7585197687149 0.41486001014709
1.759606719017 0.4145639538765
1.7605845928192 0.41438469290733
1.761397600174 0.41430005431175
1.7621520757675 0.41427534818649
1.7628252506256 0.41420850157738
1.7634935379028 0.41424602270126
1.7641534805298 0.41429677605629
1.7647716999054 0.41434973478317
1.7653554677963 0.41447147727013
1.7658784389496 0.41462677717209
1.7663736343384 0.41484636068344
1.7668817043304 0.41501674056053
1.7673654556274 0.41522154211998
1.7678282260895 0.41541948914528
1.7682907581329 0.41562542319298
1.7687566280365 0.41575556993484
1.7692295312881 0.41588941216469
1.7696933746338 0.41600498557091
1.7701432704926 0.41612863540649
1.7706100940704 0.41620835661888
1.7711166143417 0.41623488068581
1.771657705307 0.41617894172668
1.7722393274307 0.41609889268875
1.7728757858276 0.41594752669334
1.7735130786896 0.41577968001366
1.7741702795029 0.41555374860764
1.7748302221298 0.41529941558838
1.7755609750748 0.41489690542221
1.77630007267 0.41446274518967
1.7770528793335 0.41399985551834
1.7778198719025 0.41350975632668
1.7785974740982 0.41290664672852
1.7793782949448 0.41231545805931
1.7801065444946 0.41174679994583
1.7808599472046 0.41115307807922
1.7816146612167 0.41056019067764
1.7823479175568 0.40993136167526
1.7830995321274 0.40936374664307
1.7838275432587 0.40876740217209
1.7845554351807 0.40807920694351
1.7852833271027 0.40738940238953
1.7860174179077 0.40667739510536
1.7867285013199 0.4059764444828
1.7874794006348 0.40520483255386
1.7882114648819 0.4043328166008
1.7889535427094 0.40345978736877
1.7897001504898 0.40260487794876
1.7904943227768 0.40164631605148
1.7911962270737 0.40072336792946
1.7919728755951 0.39965918660164
1.7926698923111 0.39867249131203
1.7934055328369 0.39757558703423
1.7941248416901 0.39644050598145
1.7945778369904 0.39599651098251
1.7948725223541 0.39574700593948
1.7951751947403 0.39546433091164
1.7954556941986 0.3951718211174
1.795693397522 0.39488881826401
1.7959562540054 0.39459577202797
1.796209692955 0.39430731534958
1.7964465618134 0.39401656389236
1.796669960022 0.39371433854103
1.7968814373016 0.39340257644653
1.7970864772797 0.39309349656105
1.7972809076309 0.39278328418732
1.7974977493286 0.3924742937088
1.7976903915405 0.39216151833534
1.7978805303574 0.39183926582336
1.7980626821518 0.39150735735893
1.7982450723648 0.39116963744164
1.7984211444855 0.39082777500153
1.7985918521881 0.39049980044365
1.7987537384033 0.39016446471214
1.79891705513 0.38982146978378
1.7990691661835 0.38948807120323
1.7992302179337 0.38914400339127
1.7993881702423 0.38880434632301
1.7995239496231 0.38845625519753
1.7996742725372 0.38811075687408
1.7998104095459 0.38775596022606
1.7999391555786 0.38740232586861
1.8000711202621 0.3870455622673
1.8002016544342 0.3866816163063
1.8003256320953 0.38632422685623
1.8004484176636 0.3859635591507
1.8005710840225 0.38560000061989
1.8006925582886 0.38524502515793
1.8008108139038 0.38488647341728
1.800926566124 0.38452702760696
1.8010425567627 0.38416254520416
1.8011486530304 0.383799046278
1.8012574911118 0.38344192504883
1.801372885704 0.38308355212212
1.8014806509018 0.38271790742874
1.8015835285187 0.38235035538673
1.8016850948334 0.38198298215866
1.8017866611481 0.38162395358086
1.8018853664398 0.38125211000443
1.8019806146622 0.38089296221733
1.8020792007446 0.38052982091904
1.8021767139435 0.38017290830612
1.8022683858871 0.37980780005455
1.8023588657379 0.37945026159286
1.8024504184723 0.37908709049225
1.802537560463 0.37872835993767
1.8026230335236 0.37836566567421
1.802711725235 0.37800258398056
1.8027979135513 0.37765011191368
1.802880525589 0.37729245424271
1.8029615879059 0.37693503499031
1.8030416965485 0.37658736109734
1.8031240701675 0.37623751163483
1.8032032251358 0.37588572502136
1.8032783269882 0.37553745508194
1.8033555746078 0.3751874268055
1.8034347295761 0.374840259552
1.8035093545914 0.37449890375137
1.8035831451416 0.37415412068367
1.8036601543427 0.3738164305687
1.8037350177765 0.37347155809402
1.8038032054901 0.37313130497932
1.8038032054901 0.37313130497932
1.8038032054901 0.37313130497932
1.8040370941162 0.37164995074272
1.8045380115509 0.36857262253761
1.8051249980927 0.3653347492218
1.8057010173798 0.36210978031158
1.8062317371368 0.35890763998032
1.8067076206207 0.35569268465042
1.8071857690811 0.35251119732857
1.8075830936432 0.34930819272995
1.8079551458359 0.34607928991318
1.8082864284515 0.34288614988327
1.808577299118 0.33968013525009
1.8088686466217 0.33649355173111
1.8091220855713 0.33333760499954
1.8093416690826 0.33014562726021
1.8095449209213 0.32697683572769
1.8097320795059 0.32378429174423
1.8098796606064 0.32061171531677
1.8100137710571 0.31748002767563
1.8101091384888 0.31428825855255
1.8101813793182 0.31111985445023
1.8102353811264 0.30792933702469
1.8102785348892 0.30474525690079
1.8102823495865 0.30155122280121
1.8102712631226 0.2983615398407
1.8102487325668 0.2951443195343
1.8102108240128 0.29200518131256
1.8101514577866 0.28880947828293
1.8100808858871 0.28561744093895
1.8100006580353 0.28243032097816
1.8098962306976 0.2792309820652
1.8097789287567 0.27604097127914
1.8096654415131 0.27286511659622
1.8095264434814 0.26968425512314
1.8093719482422 0.26655918359756
1.8092550039291 0.26433506608009
1.8090270757675 0.26305058598518
1.8086017370224 0.26252606511116
1.808042883873 0.26216623187065
1.8075125217438 0.26185745000839
1.8070538043976 0.26161625981331
1.8065702915192 0.26131373643875
1.8060739040375 0.26106065511703
1.8055909872055 0.26079040765762
1.8051948547363 0.26057821512222
1.8047806024551 0.26034897565842
1.8043909072876 0.26012590527534
1.8040424585342 0.2598614692688
1.8036979436874 0.25966292619705
1.8033630847931 0.2594159245491
1.8030265569687 0.25918397307396
1.802819609642 0.2578846514225
1.8029235601425 0.25581437349319
1.8031454086304 0.2533800303936
1.8033845424652 0.25093314051628
1.8036260604858 0.24849936366081
1.8038666248322 0.24606797099113
1.8041040897369 0.24363724887371
1.8043394088745 0.24120776355267
1.8045675754547 0.23877258598804
1.8047955036163 0.23634681105614
1.805025100708 0.23391063511372
1.8052499294281 0.23148433864117
1.8054769039154 0.22905424237251
1.8056983947754 0.22662663459778
1.8059202432632 0.22419023513794
1.8061401844025 0.22175559401512
1.8063529729843 0.21932156383991
1.8065704107285 0.21688871085644
1.8067823648453 0.21444185078144
1.8069868087769 0.21200986206532
1.8071972131729 0.20951744914055
1.8073971271515 0.20708902180195
1.8075954914093 0.20462612807751
1.8077929019928 0.20216771960258
1.8079936504364 0.19972392916679
1.8081785440445 0.19728201627731
1.8083740472794 0.19482779502869
1.8085739612579 0.192348331213
1.8087610006332 0.18989171087742
1.8089435100555 0.18742477893829
1.80912566185 0.1849510371685
1.8093025684357 0.18248081207275
1.8094755411148 0.17999893426895
1.8096516132355 0.17752265930176
1.8098180294037 0.17502005398273
1.809996008873 0.17254336178303
1.8101613521576 0.17005540430546
1.8103233575821 0.16757625341415
1.8104841709137 0.16509036719799
1.8106420040131 0.16258838772774
1.810791015625 0.16008707880974
1.8109432458878 0.15757422149181
1.8110851049423 0.15508358180523
1.8112304210663 0.15256480872631
1.8113607168198 0.15003290772438
1.8114973306656 0.14751867949963
1.8116321563721 0.14499649405479
1.8117641210556 0.14247201383114
1.8118826150894 0.13994242250919
1.8120100498199 0.137431666255
1.8121376037598 0.13490031659603
1.812250494957 0.13234421610832
1.8123772144318 0.12982992827892
1.8124895095825 0.12725946307182
1.8126020431519 0.1247094720602
1.8127098083496 0.12218756973743
1.8128201961517 0.11962803453207
1.8129190206528 0.11706628650427
1.813019156456 0.11452313512564
1.8131170272827 0.11196050792933
1.8132092952728 0.10940380394459
1.8133093118668 0.10684192180634
1.8133970499039 0.10429899394512
1.8134877681732 0.10172609239817
1.8135697841644 0.09914268553257
1.813648223877 0.096565887331963
1.813716173172 0.093973375856876
1.8137916326523 0.091402038931847
1.8138673305511 0.088824369013309
1.813933134079 0.086236014962196
1.813996553421 0.083641804754734
1.8140594959259 0.081048384308815
1.8141202926636 0.078468680381775
1.8141717910767 0.075856320559978
1.8142287731171 0.073269613087177
1.8142786026001 0.070662274956703
1.8143329620361 0.068041957914829
1.8143783807755 0.065449900925159
1.8144212961197 0.062838613986969
1.8144680261612 0.060228835791349
1.8145053386688 0.05758697912097
1.8145415782928 0.054984886199236
1.8145805597305 0.052346132695675
1.8146082162857 0.049736358225346
1.8146390914917 0.047101147472858
1.814669251442 0.0444690361619
1.8146975040436 0.041837453842163
1.8147203922272 0.039204735308886
1.8147436380386 0.036551062017679
1.8147569894791 0.033911172300577
1.814774274826 0.031249474734068
1.8147882223129 0.02861432172358
1.8147985935211 0.025947362184525
1.8148187398911 0.023296223953366
1.8148257732391 0.020641496405005
1.8148357868195 0.017974860966206
1.8148463964462 0.015292028896511
1.8148472309113 0.012604519724846
1.8148481845856 0.0099316276609898
1.8148565292358 0.0072478479705751
1.8148597478867 0.0045434636995196
1.8148638010025 0.0018508147913963
1.8148593902588 -0.00086845055921003
1.8148590326309 -0.0035808854736388
1.8148553371429 -0.0063044666312635
1.8148521184921 -0.0090199429541826
1.8148453235626 -0.011755377985537
1.8148400783539 -0.014507947489619
1.8148305416107 -0.017269568517804
1.8148168325424 -0.020016537979245
1.81480717659 -0.02281698025763
1.8147964477539 -0.025611657649279
1.8147857189178 -0.028427507728338
1.8147703409195 -0.031238917261362
1.8147577047348 -0.034065041691065
1.8147449493408 -0.036899641156197
1.8147321939468 -0.039742548018694
1.8147121667862 -0.042616251856089
1.8146930932999 -0.045468091964722
1.8146995306015 -0.049322105944157
1.8148510456085 -0.054109692573547
1.8151687383652 -0.059722322970629
1.8155791759491 -0.065520770847797
1.8158786296844 -0.071375906467438
1.8160583972931 -0.077341571450233
1.8161313533783 -0.083438478410244
1.8161153793335 -0.08964329212904
1.816036939621 -0.095961928367615
1.8157298564911 -0.1023883074522
1.8153022527695 -0.10893084853888
1.8148040771484 -0.11555173248053
1.8141326904297 -0.12225027382374
1.8134100437164 -0.12915349006653
1.8125654459 -0.13605746626854
1.8116312026978 -0.14315941929817
1.8105800151825 -0.15030853450298
1.8094141483307 -0.15756639838219
1.8081756830215 -0.16499795019627
1.8069016933441 -0.17248830199242
1.805534362793 -0.1799703091383
1.8040809631348 -0.18753881752491
1.8025500774384 -0.1951255351305
1.8009531497955 -0.20271663367748
1.7992925643921 -0.21035301685333
1.7975709438324 -0.2180505245924
1.7957445383072 -0.22581359744072
1.7938791513443 -0.23359391093254
1.7919387817383 -0.24137060344219
1.7899634838104 -0.24923098087311
1.7878744602203 -0.25709646940231
1.7857358455658 -0.2650131881237
1.7835289239883 -0.27295690774918
1.7812172174454 -0.2810734808445
1.7788760662079 -0.28920984268188
1.7764866352081 -0.29736143350601
1.7740389108658 -0.30549600720406
1.7715082168579 -0.31369471549988
1.7688916921616 -0.321922570467
1.7662032842636 -0.33018535375595
1.7634302377701 -0.33851909637451
1.7605912685394 -0.34690010547638
1.7576792240143 -0.35529562830925
1.7547197341919 -0.36377328634262
1.7516632080078 -0.37227544188499
1.7485837936401 -0.38082057237625
1.7454357147217 -0.38939923048019
1.7422167062759 -0.39804431796074
1.7389570474625 -0.40672555565834
1.7356564998627 -0.41544523835182
1.7323131561279 -0.42418342828751
1.7289251089096 -0.43297410011292
1.7254960536957 -0.44178152084351
1.7220296859741 -0.45064362883568
1.7185407876968 -0.4595077931881
1.7150003910065 -0.46844553947449
1.7114255428314 -0.47741642594337
1.7078301906586 -0.48641863465309
1.7042286396027 -0.49543118476868
1.7006063461304 -0.50446450710297
1.6970386505127 -0.51339662075043
1.6935085058212 -0.52222782373428
1.6900392770767 -0.53094071149826
1.6866054534912 -0.53953385353088
1.6832193136215 -0.54801219701767
1.6799100637436 -0.55628228187561
1.6767076253891 -0.56431013345718
1.6735846996307 -0.57214790582657
1.6705188751221 -0.57975518703461
1.6673854589462 -0.58766090869904
1.664257645607 -0.595474421978
1.6611654758453 -0.60318213701248
1.658123254776 -0.61076778173447
1.6556062698364 -0.61712324619293
1.6534420251846 -0.62285268306732
1.6513130664825 -0.62849402427673
1.6492726802826 -0.63391536474228
1.6472866535187 -0.63920259475708
1.6453593969345 -0.64432966709137
1.6434341669083 -0.64932233095169
1.6415350437164 -0.65417110919952
1.6396839618683 -0.65886986255646
1.637862443924 -0.66342008113861
1.6360833644867 -0.66785174608231
1.6343243122101 -0.67217141389847
1.6326192617416 -0.67638891935349
1.630934715271 -0.68050640821457
1.6292388439178 -0.68450975418091
1.6275787353516 -0.68844109773636
1.6259243488312 -0.69227015972137
1.6243292093277 -0.69599026441574
1.622819185257 -0.69955933094025
1.6212546825409 -0.70306593179703
1.6197229623795 -0.70654308795929
1.6182372570038 -0.70991849899292
1.616693854332 -0.71323549747467
1.6152585744858 -0.71645444631577
1.6138098239899 -0.71955168247223
1.6123876571655 -0.72260922193527
1.6109306812286 -0.72564888000488
1.6095104217529 -0.7285150885582
1.6081273555756 -0.731330037117
1.6067140102386 -0.73415923118591
1.6053102016449 -0.73694014549255
1.6046502590179 -0.73844438791275
1.604674577713 -0.73929613828659
1.6051485538483 -0.73979413509369
1.6059520244598 -0.74012726545334
1.6069205999374 -0.74048435688019
1.6071869134903 -0.7420300245285
1.6064106225967 -0.74439918994904
1.6054093837738 -0.74679559469223
1.6043697595596 -0.74916326999664
1.6033033132553 -0.75147831439972
1.6022688150406 -0.75373041629791
1.6010701656342 -0.75599944591522
1.5998871326447 -0.75818932056427
1.5987966060638 -0.76033508777618
1.5976322889328 -0.76238417625427
1.5964913368225 -0.76447510719299
1.5953047275543 -0.76646310091019
1.594146490097 -0.76843774318695
1.5929042100906 -0.77045726776123
1.5915771722794 -0.77242791652679
1.5890406370163 -0.77520573139191
1.5852065086365 -0.77857673168182
1.5805404186249 -0.78207623958588
1.5757818222046 -0.78540349006653
1.57173371315 -0.78828716278076
1.5683146715164 -0.79095923900604
1.5655462741852 -0.7933446764946
1.5634759664536 -0.79534405469894
1.5620881319046 -0.79724878072739
1.5609991550446 -0.79914534091949
1.5598876476288 -0.80121421813965
1.5587412118912 -0.80319774150848
1.5565066337585 -0.80546569824219
1.5532313585281 -0.80770128965378
1.5489040613174 -0.80989897251129
1.5436761379242 -0.81200712919235
1.5382169485092 -0.81398314237595
1.5327224731445 -0.81573134660721
1.5271217823029 -0.81746846437454
1.5214741230011 -0.81913739442825
1.5158920288086 -0.8206924200058
1.5102699995041 -0.82212084531784
1.5047389268875 -0.82342320680618
1.4990985393524 -0.82463377714157
1.4933702945709 -0.82577073574066
1.4877457618713 -0.82667922973633
1.4820255041122 -0.82750767469406
1.4763067960739 -0.82830411195755
1.4694738388062 -0.82894384860992
1.4618413448334 -0.82925719022751
1.4532972574234 -0.82920753955841
1.4443418979645 -0.82887840270996
1.4347370862961 -0.82840633392334
1.4250190258026 -0.82782661914825
1.4153159856796 -0.82721626758575
1.4055721759796 -0.82662737369537
1.39584171772 -0.82604932785034
1.3860660791397 -0.82549065351486
1.3763153553009 -0.82497280836105
1.3665457963943 -0.82445728778839
1.3567802906036 -0.82394200563431
1.3470170497894 -0.82343709468842
1.3372673988342 -0.82291632890701
1.3275057077408 -0.82240182161331
1.3177835941315 -0.82190179824829
1.3080397844315 -0.82139110565186
1.2983119487762 -0.82087886333466
1.2886158227921 -0.8203581571579
1.2789198160172 -0.81983757019043
1.2692165374756 -0.81932717561722
1.2595093250275 -0.81881666183472
1.2497953176498 -0.8183126449585
1.2400658130646 -0.81780558824539
1.2303510904312 -0.81729304790497
1.2206181287766 -0.81678837537766
1.2108659744263 -0.81628066301346
1.2011096477509 -0.81575536727905
1.191356420517 -0.81523925065994
1.1815785169601 -0.81472426652908
1.1718158721924 -0.81420594453812
1.1620526313782 -0.81369066238403
1.152286529541 -0.8131810426712
1.1425423622131 -0.81265699863434
1.1328032016754 -0.81214678287506
1.1230890750885 -0.81164437532425
1.1133680343628 -0.81112623214722
1.103640794754 -0.81060236692429
1.0939476490021 -0.81009751558304
1.0842425823212 -0.80957996845245
1.0745356082916 -0.80906546115875
1.064825296402 -0.80855596065521
1.0551083087921 -0.80804109573364
1.0453879833221 -0.80753600597382
1.0356432199478 -0.80701923370361
1.0259073972702 -0.80649650096893
1.0161439180374 -0.8059800863266
1.0063861608505 -0.80546772480011
0.99661904573441 -0.80494898557663
0.98686420917511 -0.80443847179413
0.9771015048027 -0.80391585826874
0.96735447645187 -0.80339878797531
0.95759010314941 -0.80289536714554
0.94785010814667 -0.80238324403763
0.93810606002808 -0.80186688899994
0.92840451002121 -0.80135250091553
0.91868603229523 -0.80084389448166
0.9089840054512 -0.80032902956009
0.89929741621017 -0.79982256889343
0.88960134983063 -0.79931849241257
0.87989819049835 -0.79880440235138
0.87019145488739 -0.79829561710358
0.8604639172554 -0.79778403043747
0.85074120759964 -0.79726892709732
0.84099400043488 -0.79675763845444
0.83136874437332 -0.79625558853149
0.82202863693237 -0.79576152563095
0.81296646595001 -0.79529774188995
0.80417412519455 -0.79486322402954
0.7956315279007 -0.79444217681885
0.78736174106598 -0.79404324293137
0.77929627895355 -0.79366016387939
0.77150589227676 -0.79328787326813
0.76392155885696 -0.79291611909866
0.75658047199249 -0.79254996776581
0.74947375059128 -0.79218077659607
0.74254953861237 -0.79183447360992
0.73581826686859 -0.79147499799728
0.72928923368454 -0.79112356901169
0.72294199466705 -0.79080337285995
0.71680045127869 -0.79045742750168
0.71081435680389 -0.79008615016937
0.70438796281815 -0.78977555036545
0.69806557893753 -0.78944593667984
0.69196331501007 -0.78915297985077
0.68610966205597 -0.78886955976486
0.68043887615204 -0.78854763507843
0.67499935626984 -0.7882314324379
0.66978842020035 -0.78793489933014
0.66477787494659 -0.78762251138687
0.65994465351105 -0.7873210310936
0.65526229143143 -0.78700441122055
0.65077006816864 -0.78667932748795
0.64638674259186 -0.78634184598923
0.64204329252243 -0.78600800037384
0.63782387971878 -0.7855829000473
0.63378882408142 -0.78518617153168
0.62994056940079 -0.78475522994995
0.62620484828949 -0.78439110517502
0.62249708175659 -0.78396952152252
0.6188713312149 -0.78353333473206
0.61536318063736 -0.78306925296783
0.6104701757431 -0.78206408023834
0.60466635227203 -0.78052204847336
0.59893000125885 -0.77876329421997
0.59328490495682 -0.77690905332565
0.58744645118713 -0.77487462759018
0.58160489797592 -0.77282160520554
0.57579845190048 -0.77072811126709
0.57010185718536 -0.76853674650192
0.56444734334946 -0.76632463932037
0.5594899058342 -0.76446402072906
0.55533319711685 -0.76316291093826
0.55187767744064 -0.76238256692886
0.54884874820709 -0.76189255714417
0.54473257064819 -0.7609229683876
0.54011672735214 -0.75943869352341
0.5353090763092 -0.75737553834915
0.53054916858673 -0.75506055355072
0.52601909637451 -0.75273859500885
0.52101063728333 -0.74984121322632
0.5158953666687 -0.74660062789917
0.51078230142593 -0.74335253238678
0.50582379102707 -0.74009841680527
0.50111567974091 -0.73693406581879
0.4963955283165 -0.73365581035614
0.49160566926003 -0.73026502132416
0.48705595731735 -0.72687685489655
0.48263430595398 -0.72343534231186
0.47825962305069 -0.71989715099335
0.47396212816238 -0.71627748012543
0.46965256333351 -0.71251690387726
0.46543097496033 -0.70867305994034
0.46078166365623 -0.70405942201614
0.45577389001846 -0.69866585731506
0.45045787096024 -0.69243746995926
0.44524398446083 -0.68586474657059
0.44007688760757 -0.67927914857864
0.43494516611099 -0.67265731096268
0.42981868982315 -0.66597706079483
0.4247465133667 -0.65927231311798
0.41969671845436 -0.65252250432968
0.41465467214584 -0.64570671319962
0.40962567925453 -0.63882958889008
0.40414199233055 -0.63124907016754
0.39864540100098 -0.62322294712067
0.39318078756332 -0.61511605978012
0.38772502541542 -0.60702568292618
0.38224038481712 -0.59893524646759
0.37674105167389 -0.59083878993988
0.37124446034431 -0.58276903629303
0.36573857069016 -0.57468807697296
0.36023038625717 -0.56660842895508
0.35473054647446 -0.55854338407516
0.34922713041306 -0.55046999454498
0.34374579787254 -0.54242867231369
0.33826905488968 -0.5343953371048
0.3328041434288 -0.52636921405792
0.32732445001602 -0.51832860708237
0.32184767723083 -0.51030683517456
0.31637373566628 -0.50227928161621
0.31089425086975 -0.49425333738327
0.30541652441025 -0.48621296882629
0.29993870854378 -0.47817260026932
0.29445579648018 -0.47013592720032
0.28895947337151 -0.46207937598228
0.28345569968224 -0.45399871468544
0.27795916795731 -0.44593411684036
0.27244460582733 -0.43785172700882
0.26694637537003 -0.42978644371033
0.26143687963486 -0.42170071601868
0.25593891739845 -0.41362547874451
0.25043675303459 -0.40556064248085
0.24494230747223 -0.39750295877457
0.2394654750824 -0.38944312930107
0.23399186134338 -0.381403028965
0.22851841151714 -0.37336981296539
0.22304287552834 -0.36533549427986
0.21756649017334 -0.3573060631752
0.21209728717804 -0.34928327798843
0.20663359761238 -0.3412643969059
0.20114795863628 -0.33322542905807
0.19567850232124 -0.32518953084946
0.19017641246319 -0.31712824106216
0.18469075858593 -0.30907598137856
0.1791936904192 -0.30100810527802
0.17368882894516 -0.29294672608376
0.16817985475063 -0.28485614061356
0.16267405450344 -0.27679505944252
0.15716233849525 -0.26870259642601
0.15165495872498 -0.26062089204788
0.14614608883858 -0.25255474448204
0.14064708352089 -0.24448022246361
0.13516348600388 -0.23642857372761
0.12967649102211 -0.22838442027569
0.12419800460339 -0.22035558521748
0.11873197555542 -0.21232978999615
0.11325445026159 -0.20429523289204
0.10780654847622 -0.19628503918648
0.10232051461935 -0.18824169039726
0.096850469708443 -0.18021288514137
0.091374449431896 -0.17218199372292
0.085876457393169 -0.16412392258644
0.080382965505123 -0.1560712903738
0.074885986745358 -0.14800365269184
0.069376952946186 -0.13992501795292
0.063855484127998 -0.13184121251106
0.058350533246994 -0.12376295030117
0.052848659455776 -0.11569494009018
0.047335498034954 -0.10762093216181
0.041827205568552 -0.09954921901226
0.036333344876766 -0.091485269367695
0.030836850404739 -0.083427630364895
0.025371227413416 -0.075395226478577
0.019873507320881 -0.067334249615669
0.014402227476239 -0.059304445981979
0.008923371322453 -0.051272254437208
0.0034446879290044 -0.043243985623121
-0.0020323414355516 -0.035229578614235
-0.0075151287019253 -0.027195934206247
-0.013003733940423 -0.019158132374287
-0.018485536798835 -0.011114786379039
-0.023983955383301 -0.0030560761224478
-0.029480570927262 0.0050116279162467
-0.034988023340702 0.013087818399072
-0.040489755570889 0.021157067269087
-0.046006310731173 0.029233360663056
-0.051514189690351 0.037315908819437
-0.057022251188755 0.045394159853458
-0.062526553869247 0.053461484611034
-0.068014934659004 0.061526220291853
-0.073520287871361 0.069589421153069
-0.079015597701073 0.077645123004913
-0.084489211440086 0.085689939558506
-0.089973405003548 0.093726873397827
-0.095449715852737 0.10174722969532
-0.10092154890299 0.10977053642273
-0.10640747845173 0.11780487000942
-0.11188368499279 0.12584426999092
-0.11735461652279 0.13387316465378
-0.12284121662378 0.14191967248917
-0.12834800779819 0.14997804164886
-0.13384205102921 0.15804310142994
-0.13935801386833 0.16612333059311
-0.14485104382038 0.17418223619461
-0.15035025775433 0.18225920200348
-0.15587389469147 0.19035187363625
-0.16138182580471 0.19843307137489
-0.16687712073326 0.20647735893726
-0.17237970232964 0.2145629376173
-0.17786982655525 0.22261817753315
-0.18336045742035 0.23064164817333
-0.18884988129139 0.23869034647942
-0.19432364404202 0.24672555923462
-0.19978623092175 0.25474527478218
-0.20525848865509 0.26276978850365
-0.21073898673058 0.27079513669014
-0.21621422469616 0.27882090210915
-0.22170777618885 0.28687593340874
-0.2271843701601 0.29492086172104
-0.23268207907677 0.30296874046326
-0.23818838596344 0.31103986501694
-0.24368970096111 0.31911098957062
-0.24918942153454 0.32718458771706
-0.25470077991486 0.33526781201363
-0.2601997256279 0.34334915876389
-0.26571616530418 0.35141977667809
-0.27122041583061 0.35949051380157
-0.27672317624092 0.36756026744843
-0.28221639990807 0.37562182545662
-0.28768891096115 0.38365882635117
-0.29317498207092 0.39169728755951
-0.29864138364792 0.39972516894341
-0.30412310361862 0.40777558088303
-0.30958890914917 0.41579046845436
-0.31507232785225 0.42383509874344
-0.32055807113647 0.43187579512596
-0.3260480761528 0.4399122595787
-0.33152467012405 0.44794064760208
-0.33700942993164 0.45599421858788
-0.34251266717911 0.46404391527176
-0.34801217913628 0.47212219238281
-0.35353511571884 0.48020634055138
-0.35904338955879 0.48829454183578
-0.36454859375954 0.49637475609779
-0.37005853652954 0.50444632768631
-0.37556236982346 0.51251912117004
-0.3810595870018 0.52059698104858
-0.38657253980637 0.52865874767303
-0.39204686880112 0.53668737411499
-0.3975173830986 0.54472023248672
-0.40299186110497 0.55276763439178
-0.40845385193825 0.56077039241791
-0.41392651200294 0.5688129067421
-0.41940298676491 0.57683885097504
-0.42487686872482 0.58486121892929
-0.43036141991615 0.59290856122971
-0.43583598732948 0.60093796253204
-0.44131690263748 0.6089791059494
-0.44673165678978 0.61690449714661
-0.45205402374268 0.62472033500671
-0.45733481645584 0.63244265317917
-0.46253976225853 0.64004456996918
-0.4676476418972 0.64753085374832
-0.47266644239426 0.65488034486771
-0.47762662172318 0.66215419769287
-0.48251733183861 0.66931396722794
-0.48732107877731 0.67634856700897
-0.49207043647766 0.68326127529144
-0.49672594666481 0.69009947776794
-0.50130951404572 0.69681906700134
-0.50580185651779 0.70344734191895
-0.51021581888199 0.70995652675629
-0.51457279920578 0.7163907289505
-0.51886969804764 0.72274452447891
-0.52306944131851 0.72899085283279
-0.52722907066345 0.73514938354492
-0.53133374452591 0.74123442173004
-0.53535509109497 0.74722820520401
-0.53923738002777 0.75305050611496
-0.54305469989777 0.75870382785797
-0.54670971632004 0.76418524980545
-0.55026137828827 0.76954764127731
-0.55369836091995 0.77476727962494
-0.55703258514404 0.77981513738632
-0.55978900194168 0.78397595882416
-0.56234729290009 0.78772461414337
-0.56481826305389 0.79132252931595
-0.56718361377716 0.79475921392441
-0.56941425800323 0.79801017045975
-0.57154643535614 0.80113714933395
-0.57357919216156 0.80410480499268
-0.57553052902222 0.80693608522415
-0.57738053798676 0.8096626996994
-0.57916009426117 0.81226456165314
-0.58083236217499 0.81474196910858
-0.58245629072189 0.81711196899414
-0.58398175239563 0.81936466693878
-0.58545362949371 0.82156407833099
-0.58644878864288 0.82296705245972
-0.58742988109589 0.82414352893829
-0.58835542201996 0.82519644498825
-0.58926683664322 0.82623755931854
-0.59010207653046 0.82715833187103
-0.59090936183929 0.82799732685089
-0.59162312746048 0.82869279384613
-0.59232175350189 0.82931268215179
-0.59300100803375 0.82988631725311
-0.59420645236969 0.83150607347488
-0.59546321630478 0.83333855867386
-0.59671199321747 0.83509254455566
-0.59780794382095 0.83665132522583
-0.5989156961441 0.83810776472092
-0.59996831417084 0.8395003080368
-0.60102641582489 0.84077847003937
-0.6026269197464 0.84346598386765
-0.60439956188202 0.84700566530228
-0.60609394311905 0.8503645658493
-0.60761719942093 0.85356843471527
-0.60906249284744 0.85660535097122
-0.61055374145508 0.85954630374908
-0.61197459697723 0.86247605085373
-0.61305433511734 0.86430966854095
-0.61398822069168 0.86534106731415
-0.61488145589828 0.86568558216095
-0.61590325832367 0.866091132164
-0.61678171157837 0.86634576320648
-0.61764633655548 0.86669862270355
-0.61855763196945 0.86701095104218
-0.61943942308426 0.8673831820488
-0.62031495571136 0.86775147914886
-0.62126499414444 0.86740434169769
-0.62210983037949 0.86635720729828
-0.62315362691879 0.86639434099197
-0.62421935796738 0.86720860004425
-0.62524330615997 0.8680419921875
-0.62632042169571 0.86879903078079
-0.62741476297379 0.8706465959549
-0.62826597690582 0.87353926897049
-0.6289998292923 0.87643778324127
-0.62962424755096 0.87935864925385
-0.63024520874023 0.88217431306839
-0.63079458475113 0.88512468338013
-0.63137602806091 0.88800650835037
-0.63182920217514 0.89078795909882
-0.63221895694733 0.89353668689728
-0.63252031803131 0.89630317687988
-0.63292104005814 0.89900207519531
-0.63336336612701 0.90182638168335
-0.63379842042923 0.90473765134811
-0.63413637876511 0.90776062011719
-0.63437479734421 0.91078823804855
-0.63454234600067 0.91389465332031
-0.63428670167923 0.9178039431572
-0.63357323408127 0.92218816280365
-0.63269835710526 0.92672741413116
-0.63197606801987 0.93053406476974
-0.63163882493973 0.93367207050323
-0.63159716129303 0.93640518188477
-0.63110911846161 0.9401341676712
-0.62994712591171 0.94458657503128
-0.62811696529388 0.94951802492142
-0.62607753276825 0.95434868335724
-0.62395048141479 0.95915442705154
-0.62176275253296 0.9639345407486
-0.61948162317276 0.96858632564545
-0.61711275577545 0.97322922945023
-0.61453944444656 0.97786742448807
-0.61172503232956 0.9825690984726
-0.60874670743942 0.98732709884644
-0.60549116134644 0.99213683605194
-0.60201859474182 0.99697721004486
-0.5984011888504 1.001771569252
-0.59462690353394 1.0066095590591
-0.59056913852692 1.011448264122
-0.58617556095123 1.016407251358
-0.58168435096741 1.0213948488235
-0.5768815279007 1.0264284610748
-0.57128185033798 1.031996846199
-0.56482636928558 1.0379514694214
-0.55750197172165 1.0441768169403
-0.54997766017914 1.0503759384155
-0.54251164197922 1.0566076040268
-0.53503310680389 1.0628345012665
-0.52758133411407 1.069088101387
-0.52014696598053 1.0753569602966
-0.51271522045135 1.0815889835358
-0.50527131557465 1.0878463983536
-0.49782490730286 1.0941098928452
-0.49038496613503 1.1003841161728
-0.48292222619057 1.1066617965698
-0.4754556119442 1.1129530668259
-0.467992156744 1.1192389726639
-0.46051678061485 1.1255310773849
-0.45310392975807 1.1317881345749
-0.44579187035561 1.1379705667496
-0.4385994374752 1.1440718173981
-0.43156456947327 1.1500704288483
-0.42465177178383 1.1559493541718
-0.41787704825401 1.1617171764374
-0.41128665208817 1.1673337221146
-0.40481120347977 1.1728533506393
-0.39845687150955 1.1782467365265
-0.39216166734695 1.1835577487946
-0.38601869344711 1.1887333393097
-0.37998199462891 1.1937980651855
-0.37413963675499 1.1986944675446
-0.36848968267441 1.2034524679184
-0.36299723386765 1.2080717086792
-0.35761505365372 1.2125455141068
-0.35237830877304 1.2169065475464
-0.3473025560379 1.2211210727692
-0.34237045049667 1.2251957654953
-0.33756151795387 1.2291367053986
-0.33280548453331 1.2329872846603
-0.32814535498619 1.2366532087326
-0.32363858819008 1.2402535676956
-0.31914392113686 1.2437746524811
-0.31474477052689 1.2471477985382
-0.31035298109055 1.2504210472107
-0.3061016201973 1.2535965442657
-0.30182936787605 1.2566822767258
-0.2977077960968 1.2596764564514
-0.2935671210289 1.2625690698624
-0.28943604230881 1.2653837203979
-0.28527790307999 1.2681452035904
-0.28116273880005 1.2708225250244
-0.27697855234146 1.2734555006027
-0.27283364534378 1.2759368419647
-0.26862844824791 1.2783435583115
-0.26437568664551 1.2807102203369
-0.26000398397446 1.2830140590668
-0.2556386590004 1.2852298021317
-0.25112250447273 1.2874510288239
-0.24660018086433 1.2895411252975
-0.24187076091766 1.2916224002838
-0.23703487217426 1.2936365604401
-0.23200502991676 1.2955392599106
-0.22690078616142 1.2974208593369
-0.22165775299072 1.299219250679
-0.21629774570465 1.3008992671967
-0.21069744229317 1.3025490045547
-0.20497515797615 1.3040555715561
-0.19923338294029 1.3055256605148
-0.19340009987354 1.3069097995758
-0.18752954900265 1.3081960678101
-0.18148647248745 1.3093730211258
-0.17541366815567 1.3104481697083
-0.16927495598793 1.3114743232727
-0.16312272846699 1.3124099969864
-0.15684650838375 1.3132388591766
-0.15054769814014 1.3139035701752
-0.1442401856184 1.3145275115967
-0.13786342740059 1.3150206804276
-0.13141050934792 1.315416932106
-0.12478951364756 1.3157325983047
-0.11811339855194 1.3159475326538
-0.11135844886303 1.3160448074341
-0.10455206781626 1.3160145282745
-0.097593642771244 1.3159264326096
-0.090529792010784 1.3157094717026
-0.083412818610668 1.3153774738312
-0.076134890317917 1.314929485321
-0.068775229156017 1.3143807649612
-0.061355788260698 1.3137757778168
-0.05376573652029 1.3130695819855
-0.046051122248173 1.3122560977936
-0.038245759904385 1.3113286495209
-0.030345341190696 1.3102911710739
-0.022435206919909 1.309173822403
-0.014508785679936 1.3079922199249
-0.0065486012026668 1.3067270517349
0.0014695866266266 1.3054015636444
0.0095248045399785 1.303983092308
0.017590884119272 1.3024648427963
0.025679299607873 1.3008878231049
0.0337835252285 1.2992451190948
0.041925296187401 1.2975511550903
0.050075702369213 1.2957751750946
0.058249156922102 1.2939385175705
0.06644245237112 1.2920429706573
0.074647955596447 1.2900787591934
0.082889392971992 1.2880380153656
0.091145023703575 1.2859306335449
0.099384389817715 1.2837491035461
0.10769005119801 1.2815018892288
0.1160482391715 1.2792063951492
0.12443146854639 1.2768570184708
0.13286982476711 1.2744396924973
0.14133462309837 1.2719769477844
0.14983804523945 1.2694251537323
0.15836668014526 1.2668424844742
0.16694615781307 1.2641906738281
0.17560696601868 1.2614712715149
0.18430894613266 1.2587114572525
0.19302570819855 1.2558863162994
0.20176517963409 1.2530158758163
0.21055717766285 1.2501001358032
0.21939304471016 1.2471387386322
0.22826018929482 1.244127869606
0.23713806271553 1.2410821914673
0.24606700241566 1.2380105257034
0.25502789020538 1.2349071502686
0.26401394605637 1.231765627861
0.2730373442173 1.2285885810852
0.28211086988449 1.2253756523132
0.29122045636177 1.2221405506134
0.30036142468452 1.218879699707
0.30952399969101 1.2156102657318
0.31867891550064 1.2123378515244
0.32785153388977 1.2090607881546
0.33704000711441 1.2057834863663
0.3462185561657 1.2025150060654
0.35543769598007 1.1992182731628
0.36463785171509 1.1959344148636
0.37384635210037 1.1926491260529
0.3830538392067 1.1893593072891
0.39225721359253 1.1860814094543
0.40144872665405 1.1827971935272
0.41064018011093 1.1795248985291
0.41982942819595 1.1762537956238
0.42899054288864 1.1729775667191
0.43815088272095 1.1697117090225
0.44730195403099 1.166454076767
0.45646053552628 1.1631846427917
0.46559977531433 1.1599233150482
0.47475600242615 1.1566597223282
0.48389530181885 1.1534017324448
0.49307751655579 1.15012550354
0.50224339962006 1.1468516588211
0.51142418384552 1.1435768604279
0.52060741186142 1.1402946710587
0.52982729673386 1.137017250061
0.53902977705002 1.1337316036224
0.5482462644577 1.1304309368134
0.55745327472687 1.1271477937698
0.56666350364685 1.1238684654236
0.57585448026657 1.120587348938
0.58504301309586 1.1173138618469
0.59422218799591 1.1140402555466
0.60340940952301 1.1107579469681
0.612588763237 1.1074781417847
0.62173163890839 1.1042133569717
0.6308805346489 1.1009482145309
0.64003902673721 1.0976833105087
0.64920222759247 1.0944122076035
0.65834784507751 1.0911629199982
0.66752845048904 1.0878771543503
0.67668950557709 1.0846155881882
0.68587762117386 1.0813413858414
0.6950660943985 1.0780647993088
0.70427352190018 1.0747716426849
0.71349155902863 1.0714948177338
0.72268998622894 1.0682094097137
0.73190623521805 1.0649309158325
0.74111646413803 1.0616543292999
0.75031197071075 1.0583790540695
0.75951528549194 1.0550954341888
0.76868140697479 1.0518314838409
0.77785450220108 1.0485602617264
0.78701502084732 1.0452960729599
0.79616296291351 1.0420352220535
0.8053070306778 1.0387781858444
0.81446027755737 1.0355123281479
0.82362413406372 1.0322387218475
0.83276903629303 1.0289824008942
0.84193152189255 1.0257090330124
0.85109519958496 1.0224397182465
0.86026442050934 1.0191719532013
0.86947458982468 1.0158889293671
0.87867707014084 1.0126149654388
0.88786762952805 1.0093215703964
0.89705973863602 1.0060292482376
0.90627706050873 1.0027457475662
0.91547870635986 0.99946200847626
0.92468404769897 0.99617731571198
0.93370449542999 0.99296396970749
0.94250231981277 0.98985302448273
0.95101088285446 0.98684513568878
0.95928889513016 0.9839431643486
0.96732711791992 0.98111760616302
0.97512692213058 0.97838371992111
0.98271000385284 0.97570502758026
0.99011117219925 0.973100066185
0.99727213382721 0.97056835889816
1.0042386054993 0.96812742948532
1.0110356807709 0.96573317050934
1.0176346302032 0.96340245008469
1.0240305662155 0.96111524105072
1.0302655696869 0.95888030529022
1.0363174676895 0.95669412612915
1.0422614812851 0.95454454421997
1.0480252504349 0.95247936248779
1.0536185503006 0.95041954517365
1.0582083463669 0.94878232479095
1.0635412931442 0.94693630933762
1.0689980983734 0.94506394863129
1.0741808414459 0.94323301315308
1.0792319774628 0.94143104553223
1.0841450691223 0.93968504667282
1.0888195037842 0.93795669078827
1.0933285951614 0.93626290559769
1.0976808071136 0.93458956480026
1.1019749641418 0.93295514583588
1.1061064004898 0.93129378557205
1.1100405454636 0.92964506149292
1.1138910055161 0.92804747819901
1.1176295280457 0.92653864622116
1.121265411377 0.92503291368484
1.1248558759689 0.92351114749908
1.1282476186752 0.92203390598297
1.131605386734 0.92053860425949
1.1348921060562 0.9190132021904
1.1380265951157 0.91751754283905
1.1423108577728 0.91511899232864
1.1472771167755 0.91197824478149
1.1524406671524 0.90834605693817
1.1575100421906 0.90463054180145
1.1624979972839 0.90088403224945
1.1673891544342 0.89710474014282
1.1722058057785 0.8933926820755
1.1769654750824 0.88965100049973
1.1811286211014 0.88639771938324
1.1847803592682 0.88375633955002
1.1879260540009 0.88185757398605
1.1906331777573 0.88049221038818
1.1933920383453 0.87913239002228
1.1958944797516 0.87798881530762
1.1991894245148 0.87597620487213
1.2027280330658 0.87319850921631
1.2065687179565 0.86947441101074
1.2106583118439 0.86500197649002
1.2145798206329 0.86040610074997
1.2183901071548 0.85585993528366
1.2221450805664 0.8512943983078
1.2257549762726 0.84672605991364
1.2292609214783 0.84219187498093
1.2327042818069 0.83755159378052
1.2360368967056 0.83288431167603
1.2392793893814 0.82806330919266
1.2424675226212 0.8232062458992
1.2454280853271 0.81845492124557
1.2482399940491 0.8137246966362
1.2509458065033 0.80910223722458
1.2536141872406 0.80450761318207
1.2563525438309 0.79909473657608
1.2590796947479 0.79296171665192
1.2617301940918 0.78608053922653
1.2642441987991 0.77910649776459
1.2666798830032 0.77230954170227
1.2690212726593 0.76568478345871
1.2712829113007 0.75923556089401
1.2734830379486 0.75290322303772
1.2756097316742 0.74672091007233
1.2776777744293 0.74069142341614
1.2796847820282 0.73480260372162
1.2816284894943 0.72904467582703
1.2835147380829 0.72341537475586
1.2853459119797 0.7179137468338
1.2872527837753 0.71192288398743
1.2891244888306 0.70582711696625
1.2909016609192 0.69990962743759
1.2926787137985 0.69420266151428
1.2944291830063 0.68860727548599
1.2961443662643 0.68316912651062
1.2978281974792 0.67792171239853
1.2994639873505 0.67280024290085
1.3010900020599 0.66781747341156
1.3026756048203 0.66297698020935
1.3042507171631 0.65830039978027
1.3057925701141 0.65375375747681
1.3072988986969 0.64931327104568
1.3087720870972 0.6450287103653
1.310240149498 0.64075863361359
1.3116391897202 0.63668429851532
1.3130104541779 0.63277065753937
1.3138831853867 0.62995678186417
1.3143408298492 0.62796664237976
1.3143298625946 0.62647372484207
1.3141821622849 0.62500160932541
1.3146409988403 0.62212926149368
1.3156100511551 0.61891090869904
1.3166636228561 0.61593019962311
1.3177548646927 0.613116979599
1.3187509775162 0.61046892404556
1.3196095228195 0.60811674594879
1.3204137086868 0.60591024160385
1.3211095333099 0.60388338565826
1.3218027353287 0.60188168287277
1.3225121498108 0.59991466999054
1.3231315612793 0.59818005561829
1.3237844705582 0.59644138813019
1.3243905305862 0.59487742185593
1.3249547481537 0.59338849782944
1.325430393219 0.59200215339661
1.3259471654892 0.59063345193863
1.3264399766922 0.5893120765686
1.3268305063248 0.58813011646271
1.3271783590317 0.58702546358109
1.3274947404861 0.58602398633957
1.3278110027313 0.585065305233
1.3281509876251 0.58411127328873
1.3284623622894 0.58318817615509
1.3287057876587 0.58232581615448
1.3288425207138 0.58157694339752
1.3298910856247 0.57981151342392
1.3318207263947 0.57727181911469
1.3344438076019 0.57437485456467
1.3372651338577 0.57139599323273
1.3400818109512 0.56843477487564
1.3429043292999 0.56545042991638
1.3457171916962 0.5624703168869
1.3485243320465 0.5595041513443
1.351322889328 0.55655914545059
1.3541218042374 0.55357003211975
1.356903553009 0.55062854290009
1.3596580028534 0.54768139123917
1.3624114990234 0.54477041959763
1.3644535541534 0.54248481988907
1.3658705949783 0.54072117805481
1.3665869235992 0.53930163383484
1.3667212724686 0.53825104236603
1.3665797710419 0.53727287054062
1.3662002086639 0.53643977642059
1.3658375740051 0.53559321165085
1.3653469085693 0.53482246398926
1.3648239374161 0.53411471843719
1.364262342453 0.5334387421608
1.3635890483856 0.53288376331329
1.3637590408325 0.53177297115326
1.364837884903 0.53044438362122
1.3669106960297 0.52875977754593
1.3696296215057 0.52683752775192
1.3724353313446 0.5249302983284
1.3752334117889 0.52306616306305
1.3780241012573 0.52123218774796
1.3807569742203 0.5193971991539
1.3835233449936 0.51763921976089
1.386234998703 0.51590603590012
1.388968706131 0.51416128873825
1.3916275501251 0.51243180036545
1.3943356275558 0.51071614027023
1.3969955444336 0.50905478000641
1.3996397256851 0.5073978304863
1.4023134708405 0.50572669506073
1.4049627780914 0.50414073467255
1.4076217412949 0.50256162881851
1.4102561473846 0.50100815296173
1.4129207134247 0.49945974349976
1.4155806303024 0.49797481298447
1.4182568788528 0.49648982286453
1.4209123849869 0.49503308534622
1.4235645532608 0.49357715249062
1.42624604702 0.49213522672653
1.4289577007294 0.49073877930641
1.4316861629486 0.48932963609695
1.43445789814 0.4879330098629
1.437238574028 0.4865714609623
1.4400396347046 0.48524403572083
1.4428545236588 0.48391112685204
1.4457030296326 0.4826026558876
1.4485552310944 0.48131576180458
1.4514605998993 0.48005032539368
1.4543654918671 0.47878542542458
1.4573142528534 0.4775402545929
1.4612345695496 0.47608703374863
1.4660456180573 0.47446623444557
1.4714630842209 0.47285994887352
1.4770662784576 0.47140422463417
1.4827072620392 0.46990829706192
1.4883841276169 0.46839100122452
1.4940104484558 0.46683830022812
1.4996914863586 0.46520441770554
1.5054581165314 0.46352869272232
1.511140704155 0.46180194616318
1.5168949365616 0.46001529693604
1.5226879119873 0.45818272233009
1.5284970998764 0.4563000202179
1.53435754776 0.45437502861023
1.5402193069458 0.45240488648415
1.5461022853851 0.45041355490685
1.5520716905594 0.448346555233
1.5580674409866 0.44623732566833
1.5640697479248 0.44408059120178
1.5701503753662 0.44188433885574
1.5762479305267 0.43964037299156
1.582412481308 0.43736523389816
1.5886422395706 0.43504029512405
1.5948889255524 0.43268060684204
1.6010949611664 0.43031185865402
1.6078227758408 0.42763614654541
1.6149008274078 0.42505183815956
1.6226629018784 0.4221163392067
1.6307570934296 0.41892975568771
1.6384435892105 0.41571491956711
1.6458215713501 0.41263872385025
1.6528745889664 0.40971183776855
1.6595859527588 0.40692090988159
1.665905714035 0.40433996915817
1.6718361377716 0.40189996361732
1.677413225174 0.39961442351341
1.6827157735825 0.39744010567665
1.6877610683441 0.39539811015129
1.6925623416901 0.39342457056046
1.6971641778946 0.3915166258812
1.7014890909195 0.38976007699966
1.7056039571762 0.38805165886879
1.7095527648926 0.38644030690193
1.7132867574692 0.38491719961166
1.7168509960175 0.38346028327942
1.7202880382538 0.38204461336136
1.7236025333405 0.38069000840187
1.7267364263535 0.37936860322952
1.7297685146332 0.37808507680893
1.732731461525 0.37685734033585
1.7356059551239 0.37563836574554
1.7384312152863 0.37446385622025
1.7411378622055 0.37329465150833
1.743794798851 0.37217637896538
1.7463836669922 0.37102299928665
1.7489778995514 0.36980745196342
1.7515296936035 0.36864501237869
1.7538598775864 0.36762154102325
1.7560775279999 0.36664602160454
1.7582352161407 0.36576354503632
1.7597324848175 0.36528900265694
1.7609012126923 0.36498993635178
1.7620611190796 0.36475196480751
1.763129234314 0.36453965306282
1.7641731500626 0.36438369750977
1.7650867700577 0.36431816220284
1.765837430954 0.36435723304749
1.7665382623672 0.36446386575699
1.7671554088593 0.36464968323708
1.767765045166 0.36484104394913
1.7682993412018 0.36512932181358
1.7688099145889 0.36539307236671
1.7692903280258 0.36564236879349
1.7697206735611 0.3659530878067
1.7701122760773 0.36632999777794
1.7705090045929 0.36670219898224
1.7709243297577 0.36704897880554
1.7713292837143 0.36735957860947
1.7717355489731 0.36766853928566
1.7721099853516 0.36803176999092
1.7725191116333 0.36829167604446
1.772932767868 0.36857697367668
1.7734037637711 0.36878854036331
1.7738590240479 0.36899515986443
1.7743180990219 0.36916410923004
1.7747528553009 0.36929962038994
1.7751798629761 0.36942577362061
1.7757230997086 0.36946123838425
1.776275396347 0.36951127648354
1.7767813205719 0.36955291032791
1.77732026577 0.3695080280304
1.7778694629669 0.36941304802895
1.7784614562988 0.36919179558754
1.7791048288345 0.36892729997635
1.7797362804413 0.36863654851913
1.7803535461426 0.36832651495934
1.7809299230576 0.36796194314957
1.7816022634506 0.36761400103569
1.7821979522705 0.36727786064148
1.782824754715 0.36694541573524
1.7834510803223 0.3665344119072
1.7840480804443 0.36612230539322
1.7846164703369 0.36568090319633
1.785190820694 0.36521312594414
1.7858459949493 0.36476182937622
