0 -1
1 -1
2 -1
3 -1
4 -1
5 -1
6 -1
7 -1
8 -1
9 -1
10 -1
11 -1
12 -1
13 -1
14 -1
15 -1
16 -1
17 -1
18 -1
19 -1
20 -1
21 -1
22 -1
23 -1
24 -1
25 -1
26 2624
27 12520
28 194
29 62500
30 312600
31 100
32 312604
33 87475
34 12450
35 32774
36 8379
37 199004
38 3024
39 296054
40 2510
41 323855
42 233250
43 389490
44 136264
45 14475
46 75865
47 15525
48 75635
49 153790
50 232690
51 12502
52 379055
53 75003
54 65520
55 81125
56 75004
57 331245
58 62504
59 62504
60 314056
61 314056
62 -1
63 314807
64 314807
65 312500
66 6213
67 4
68 6213
69 6213
70 600
71 3084
72 6209
73 6209
74 6209
75 6209
76 63100
77 6233
78 15525
79 312500
80 15150
81 15601
82 15601
83 382500
84 78027
85 78027
86 78027
87 77882
88 380629
89 387126
90 315004
91 378129
92 369382
93 121899
94 365632
95 20
96 381264
97 62504
98 95
99 62504
100 156264
101 600
102 312507
103 3000
104 312520
105 3000
106 312520
107 312520
108 15500
109 203004
110 15624
111 312534
112 359379
113 312560
114 375159
115 82039
116 312560
117 78159
118 312560
119 312560
120 4
121 312520
122 4
123 312520
124 312520
125 20
126 1571
127 20
128 3100
129 175039
130 171914
131 93764
132 312500
133 312500
134 312500
135 93764
136 121
137 93789
138 93764
139 93764
140 93764
141 312506
142 312500
143 93774
144 268789
145 190664
146 18789
147 18789
148 19
149 175014
150 175014
151 175014
152 328125
153 175014
154 218770
155 -1
156 268789
157 75629
158 268789
159 312500
160 77253
161 346914
162 346914
163 312500
164 312500
165 343788
166 343758
167 343783
168 3004
169 346913
170 346913
171 3100
172 206294
173 20
174 560
175 4
176 12520
177 78000
178 12504
179 315600
180 312500
181 500
182 62500
183 100
184 -1
185 12500
186 2500
187 100
188 75000
189 312520
190 379379
191 293080
192 62500
193 2500
194 237125
195 3000
196 168749
197 24
198 104
199 250614
200 43760
201 34448
202 73753
203 12500
204 190664
205 3000
206 312500
207 366294
208 312500
209 100
210 1600
211 120
212 378163
213 -1
214 378163
215 620
216 153794
217 325000
218 375000
219 337133
220 337133
221 12520
222 2500
223 15033
224 315464
225 362463
226 367325
227 295870
228 42774
229 78229
230 27279
231 62500
232 12500
233 4122
234 4122
235 246899
236 247
237 247
238 246
239 246
240 312504
241 24
242 313004
243 78129
244 379
245 234399
246 253139
247 314845
248 312524
249 253139
250 359474
251 156272
252 65626
253 171879
254 187619
255 171884
256 253134
257 375022
258 346881
259 346882
260 375097
261 188121
262 112514
263 188122
264 156272
265 34
266 313124
267 4
268 4
269 234994
270 3109
271 -1
272 24
273 524
274 24
275 104
276 2520
277 799
278 4121
279 247227
280 312500
281 523
282 24978
283 388020
284 28053
285 28052
286 315270
287 2515
288 20106
289 271374
290 390272
291 389523
292 146273
293 311399
294 389524
295 71374
296 61399
297 8775
298 139524
299 217649
300 295149
301 624
302 217024
303 217024
304 11874
305 217649
306 124
307 62624
308 217649
309 -1
310 217649
311 217649
312 217649
313 217649
314 312968
315 139524
316 124
317 218404
318 624
319 293404
320 124
321 215279
322 312519
323 136529
324 42779
325 13774
326 163774
327 62401
328 249399
329 46776
330 46801
331 312500
332 28076
333 24976
334 24976
335 24976
336 312500
337 5496
338 4121
339 12802
340 870
341 15020
342 104
343 78149
344 78149
345 624
346 15659
347 15659
348 15659
349 234490
350 20
351 312504
352 4
353 312504
354 62500
355 65000
356 75000
357 371250
358 375000
359 -1
360 389025
361 389025
362 15500
363 104
364 15000
365 2600
366 62492
367 3020
368 89872
369 3004
370 4849
371 5469
372 312975
373 313121
374 24349
375 24349
376 156870
377 4999
378 620
379 296879
380 120
381 824
382 824
383 153235
384 39
385 156320
386 34
387 346914
388 -1
389 343814
390 343814
391 346913
392 346913
393 313004
394 346913
395 362538
396 604
397 343757
398 359718
399 171996
400 62500
401 62500
402 4
403 75000
404 80629
405 184008
406 121875
407 296875
408 246875
409 149375
410 75000
411 15000
412 12600
413 500
414 63000
415 312600
416 24
417 -1
418 312504
419 315015
420 3020
421 500
422 4976
423 12500
424 246
425 2604
426 504
427 312958
428 346884
429 268759
430 312560
431 312500
432 20
433 78145
434 62134
435 156254
436 55877
437 62504
438 234379
439 86802
440 316526
441 62504
442 375000
443 375180
444 375180
445 375180
446 -1
447 77500
448 77962
449 77962
450 77962
451 15617
452 15617
453 87498
454 165498
455 165498
456 165498
457 600
458 83724
459 83724
460 624
461 4993
462 78699
463 1743
464 120
465 374
466 374
467 312500
468 312500
469 153146
470 190664
471 312500
472 12520
473 268789
474 268789
475 268794
476 315004
477 346914
478 346914
479 312504
480 346913
481 346913
482 362538
483 312800
484 343757
485 78745
486 306288
487 140699
488 153789
489 328174
490 45669
491 45694
492 45694
493 59390
494 340264
495 5646
496 310452
497 388577
498 388577
499 388577
500 75629
501 75807
502 8752
503 -1
504 12520
505 2504
506 15000
507 187376
508 65500
509 63000
510 312620
511 68995
512 24
513 310687
514 318812
515 312500
516 20
517 312500
518 312500
519 313229
520 24779
521 221270
522 27927
523 2520
524 27427
525 27427
526 64020
527 12600
528 21232
529 13004
530 4976
531 156504
532 -1
533 93874
534 313029
535 96899
536 312621
537 156361
538 191259
539 312558
540 62620
541 373899
542 312510
543 343770
544 296509
545 218774
546 375004
547 318752
548 12408
549 125004
550 8652
551 62504
552 359378
553 312500
554 378629
555 375000
556 375960
557 375960
558 387601
559 375185
560 77500
561 -1
562 77520
563 387506
564 312500
565 15004
566 389375
567 15020
568 31156
569 77812
570 77812
571 77000
572 312500
573 77805
574 77806
575 15000
576 7774
577 77967
578 78092
579 15500
580 77967
581 367018
582 77962
583 76524
584 78092
585 15500
586 20
587 15500
588 77961
589 77961
590 -1
591 39020
592 78092
593 78092
594 78020
595 299878
596 78092
597 78092
598 78092
599 77930
600 77930
601 77935
602 77961
603 78086
604 7770
605 78086
606 7770
607 78118
608 70270
609 78117
610 78117
611 70299
612 312500
613 382754
614 62493
615 77329
616 12493
617 12493
618 15554
619 -1
620 11867
621 15603
622 11747
623 11747
624 312500
625 246850
626 9370
627 3000
628 2870
629 5474
630 600
631 124
632 6099
633 600
634 313104
635 5568
636 5568
637 5568
638 234689
639 359465
640 312500
641 999
642 62620
643 199
644 75120
645 39
646 12520
647 268789
648 -1
649 236878
650 346883
651 315504
652 346913
653 346913
654 362538
655 100
656 4
657 362507
658 62500
659 62520
660 62500
661 4
662 225000
663 386875
664 71758
665 71758
666 15507
667 15507
668 33020
669 269975
670 47354
671 310870
672 388995
673 6620
674 201349
675 201349
676 201349
677 -1
678 202649
679 137129
680 137129
681 12504
682 42879
683 62401
684 390274
685 2520
686 363262
687 313807
688 2520
689 78123
690 2520
691 3020
692 374176
693 91129
694 3004
695 158750
696 3004
697 3004
698 65000
699 1504
700 75000
701 13000
702 504
703 352
704 124
705 234499
706 -1
707 96899
708 78234
709 34384
710 34384
711 156295
712 140747
713 312520
714 388774
715 350637
716 350637
717 312515
718 312515
719 373884
720 96899
721 96899
722 62009
723 141274
724 55883
725 234379
726 246879
727 90533
728 312500
729 89953
730 62504
731 378000
732 320603
733 141129
734 313301
735 -1
736 328305
737 328305
738 12500
739 375160
740 375160
741 375160
742 375160
743 375160
744 150000
745 365625
746 359380
747 359380
748 359380
749 323750
750 375006
751 77500
752 75781
753 77500
754 153125
755 78004
756 232025
757 310150
758 15000
759 78116
760 2600
761 15617
762 3000
763 93742
764 -1
765 90623
766 90623
767 3020
768 83598
769 600
770 104
771 4844
772 312545
773 359555
774 62500
775 231360
776 78164
777 325015
778 346914
779 346914
780 78145
781 128169
782 159253
783 237379
784 4
785 62504
786 312600
787 93874
788 62504
789 24
790 62500
791 387500
792 312504
793 -1
794 312500
795 62500
796 327500
797 500
798 327500
799 3000
800 3120
801 4
802 63000
803 312500
804 63100
805 620
806 366495
807 312995
808 62600
809 75100
810 76399
811 218870
812 6320
813 218379
814 218379
815 296504
816 296504
817 12520
818 215254
819 137129
820 389399
821 156001
822 -1
823 312500
824 156151
825 140551
826 377524
827 140551
828 326878
829 124951
830 377752
831 203100
832 203100
833 359750
834 3004
835 64004
836 1504
837 65000
838 62600
839 62500
840 604
841 75500
842 600
843 600
844 2500
845 600
846 2520
847 3020
848 506
849 624
850 34389
851 -1
852 150649
853 312620
854 346882
855 296895
856 312622
857 263759
858 156274
859 263759
860 338757
861 312518
862 355757
863 312503
864 313129
865 375004
866 56138
867 259253
868 218754
869 11814
870 297379
871 62500
872 78000
873 318749
874 318749
875 318749
876 75000
877 328250
878 312500
879 387375
880 -1
881 382000
882 382000
883 382000
884 388900
885 62600
886 15000
887 77775
888 93056
889 249306
890 249306
891 171181
892 314879
893 80486
894 314100
895 312500
896 1097
897 218981
898 312500
899 312500
900 312500
901 234975
902 849
903 849
904 849
905 312620
906 4074
907 375074
908 -1
909 824
910 824
911 824
912 368824
913 312538
914 153239
915 49
916 49
917 49
918 49
919 75001
920 15000
921 4
922 62520
923 313000
924 62512
925 3100
926 63104
927 303169
928 303169
929 234975
930 63124
931 346882
932 62504
933 346882
934 346881
935 346881
936 37504
937 -1
938 350006
939 350006
940 313124
941 350626
942 385899
943 350626
944 287814
945 37504
946 346875
947 350312
948 350626
949 312593
950 331343
951 370001
952 356274
953 155126
954 77626
955 137524
956 234001
957 168774
958 312251
959 320024
960 390526
961 390526
962 390526
963 390526
964 390526
965 320499
966 -1
967 316550
968 320618
969 390551
970 390551
971 320004
972 390575
973 320504
974 375000
975 323750
976 77475
977 366875
978 77985
979 310625
980 78115
981 326500
982 314004
983 31221
984 31221
985 312500
986 312500
987 92129
988 237375
989 3120
990 156800
991 193745
992 193745
993 313100
994 234993
995 -1
996 381999
997 296924
998 306899
999 387515
