0 [0.0, 0.0, 0.0, 0.0, 0.0, 0.0, 0.0, 0.0]
1 [0.0, 0.0, 0.0, 0.0, 0.0, 0.0, 0.0, 0.0]
2 [0.0, 0.0, 0.0, 0.0, 0.0, 0.0, 0.0, 0.0]
3 [0.15482418, 0.10282418, 0.080175824, 0.14882419, 0.080175824, 0.07917583, 0.07917583, 0.07817583]
4 [0.9048242, 0.8528242, 0.080175824, 0.14882419, 0.080175824, 0.07917583, 0.07917583, 0.07817583]
5 [0.9049835, 0.8559835, 0.08801648, 0.14498352, 0.14498352, 0.08201649, 0.07901649, 0.07601647]
6 [0.20976923, 0.10476922, 0.2365641, 1.1004359, 1.1004359, 0.09023078, 0.2175641, 0.07723077]
7 [1.0847692, 0.97976923, 0.10323077, 0.13376923, 0.13376923, 0.09023078, 0.08423076, 0.07723077]
8 [0.19816484, 0.10316483, 0.06583516, 0.1657912, 1.1101758, 0.10183518, 0.13479121, 0.07383516]
9 [0.18242857, 0.096428566, 0.048428565, 0.18752746, 1.1255825, 0.11657142, 0.14752747, 1.0755824]
10 [0.6824286, 0.5964286, 0.54842854, 0.14357142, 0.13657142, 0.11657142, 0.10357143, 0.086571425]
11 [0.1676868, 0.15768681, 0.05368681, 0.10731318, 0.9603132, 0.9223132, 0.11731319, 0.8933132]
12 [0.5426868, 0.5326868, 0.9286868, 0.10731318, 0.16031317, 0.12231319, 0.11731319, 0.093313195]
13 [0.9403462, 1.0123461, 0.50234616, 0.047653846, 0.9756539, 0.9766539, 0.124653846, 0.9106538]
14 [0.16204396, 1.1003773, 0.11104396, 0.025956038, 0.09595604, 0.23495606, 1.1532894, 0.11995605]
15 [0.28303295, 0.96467584, 0.104532965, 0.09553297, 0.075467035, 0.37396702, 1.120967, 1.051967]
16 [0.07998352, 0.10898352, 0.11398351, 0.087005496, 0.044994503, 0.103994496, 0.20097251, 1.1490055]
17 [1.018881, 0.1402143, 1.0528809, 0.08521429, 0.07921428, 0.06378571, 0.13978572, 0.26278573]
18 [0.052214283, 0.040214285, 0.08621428, 0.08521429, 0.07921428, 0.06378571, 0.13978572, 0.16278572]
19 [0.9670824, 0.028510986, 0.944511, 1.0030824, 0.07051099, 0.439511, 0.098489, 0.531489]
20 [0.03851099, 0.028510986, 0.06951099, 0.07451099, 0.07051099, 0.064510986, 0.098489, 0.15648901]
21 [0.6556868, 0.8956868, 0.93068683, 0.9416868, 0.06468681, 0.4346868, 0.084313184, 1.0263132]
22 [0.95016485, 0.94216484, 0.13633516, 0.9861648, 0.052664835, 0.71633154, 0.062335163, 0.76300186]
23 [0.012664837, 0.0046648327, 0.011335164, 0.048664834, 0.052664835, 0.049664833, 0.062335163, 0.096335165]
24 [0.25510988, 0.8828901, 0.88989013, 0.2841099, 0.9231099, 0.04610989, 0.80189013, 0.8238901]
25 [0.0051098876, 0.007890112, 0.014890111, 0.03410989, 0.04810989, 0.04610989, 0.051890112, 0.07389011]
26 [0.0074560447, 0.013456045, 0.018456046, 0.02345604, 0.043543953, 0.044543955, 0.044456046, 0.058456045]
27 [0.2350409, 0.9057076, 0.9097076, 0.023818681, 0.25640354, 0.9310702, 0.8983242, 0.046818685]
28 [0.01281868, 0.016818682, 0.020818684, 0.023818681, 0.03418132, 0.042181317, 0.04118132, 0.046818685]
29 [0.017043957, 0.020043956, 0.023043958, 0.025043957, 0.027043955, 0.040956043, 0.040956043, 0.039956044]
30 [0.017043957, 0.020043956, 0.023043958, 0.025043957, 0.027043955, 0.040956043, 0.8980989, 0.039956044]
31 [0.017043957, 0.020043956, 0.023043958, 0.025043957, 0.027043955, 0.040956043, 0.040956043, 0.039956044]
32 [0.021994507, 0.9962277, 0.9952277, 0.9952277, 0.04978327, 0.057772286, 1.0182167, 0.9209945]
33 [0.021994507, 0.024005497, 0.023005497, 0.023005497, 0.022005493, 0.029994506, 0.045994505, 0.045994505]
34 [0.021994507, 0.024005497, 0.023005497, 0.023005497, 0.022005493, 0.029994506, 0.045994505, 0.045994505]
35 [0.025725273, 0.024274725, 0.024274725, 0.021274723, 0.019274725, 0.017274726, 0.044725273, 0.050725274]
36 [0.029137362, 0.017862638, 0.97740805, 0.019862635, 0.016862638, 0.8888626, 0.2684101, 1.0086828]
37 [0.029137362, 0.017862638, 0.02286264, 0.019862635, 0.016862638, 0.013862636, 0.041137364, 0.054137364]
38 [0.029390112, 0.01360989, 0.02060989, 0.017609892, 0.014609888, 0.011609891, 0.8419432, 0.8847234]
39 [0.12882967, 0.11417033, 0.11917033, 0.016170327, 0.01317033, 0.0101703275, 0.00717033, 1.0008297]
40 [0.028829671, 0.014170329, 0.01917033, 0.016170327, 0.01317033, 0.0101703275, 0.00717033, 0.05082967]
41 [0.13939683, 0.9591587, 0.9621587, 0.014714286, 0.011714288, 0.008714286, 0.005714288, 0.9947301]
42 [0.028285716, 0.014714286, 0.017714288, 0.014714286, 0.011714288, 0.008714286, 0.005714288, 0.9252857]
43 [0.027653847, 0.015346154, 0.016346153, 0.013346155, 0.010346152, 0.007346155, 0.004346152, 0.049653847]
44 [0.13819903, 0.9593565, 0.014912088, 0.010912086, 0.008912088, 0.005912085, 0.003912087, 0.9925323]
45 [0.027087914, 0.014912088, 0.014912088, 0.010912086, 0.008912088, 0.005912085, 0.003912087, 0.048087914]
46 [0.9013352, 0.88766485, 0.012664833, 0.009664835, 0.0076648374, 0.0046648346, 0.0026648364, 0.9233352]
47 [0.986956, 0.76158243, 0.76058245, 0.007582415, 0.005582417, 0.0045824177, 0.0025824194, 1.008956]
48 [0.025417583, 0.0115824165, 0.010582418, 0.007582415, 0.005582417, 0.0045824177, 0.0025824194, 0.04741758]
49 [0.52354395, 0.93802744, 0.50845605, 0.006456043, 0.004456045, 0.003456046, 0.9300274, 0.97611535]
