0 [0.0, 0.0, 0.0, 0.0, 0.0, 0.0, 0.0, 0.0]
1 [0.0, 0.0, 0.0, 0.0, 0.0, 0.0, 0.0, 0.0]
2 [0.04128572, 0.04128572, 0.025714288, 0.08328572, 0.08328572, 0.025714288, 0.025714288, 0.06128571]
3 [0.04128572, 0.04128572, 0.025714288, 0.08328572, 0.08328572, 0.025714288, 0.025714288, 0.06128571]
4 [0.04128572, 0.04128572, 0.025714288, 0.08328572, 0.08328572, 0.025714288, 0.025714288, 0.06128571]
5 [0.7082216, 0.7082216, 0.6931117, 0.7502216, 0.083554946, 0.025445057, 0.025445057, 0.061554942]
6 [0.04155495, 0.04155495, 0.026445055, 0.45855495, 0.45855495, 0.025445057, 0.025445057, 0.93655497]
7 [0.04153297, 0.04153297, 0.026467035, 1.0613108, 0.08353297, 0.025467034, 0.025467034, 0.061532967]
8 [0.04153297, 0.04153297, 0.026467035, 0.45853296, 0.45853296, 0.025467034, 0.025467034, 0.936533]
9 [0.04155495, 0.04155495, 0.026445055, 0.9585549, 0.45855495, 0.025445057, 0.025445057, 0.43655494]
10 [0.9323614, 0.9323614, 0.13663858, 0.97236145, 0.97236145, 0.028527472, 0.03052747, 0.16858365]
11 [0.043472532, 0.043472532, 0.025527475, 0.95847255, 0.45847252, 0.028527472, 0.03052747, 0.43247253]
12 [0.045126375, 0.045126375, 0.02487363, 0.08312637, 0.08312637, 0.030873625, 0.03387362, 0.055126376]
13 [0.11523077, 0.10023077, 0.14723077, 1.0222307, 0.03226923, 0.037269223, 0.104769215, 0.9862308]
14 [0.052730773, 0.037730765, 0.08473077, 0.95973074, 0.03226923, 0.037269223, 0.04226922, 0.9237308]
15 [0.09080524, 0.0407503, 0.115805246, 1.0582497, 0.036972523, 0.046972536, 1.0241947, 0.07175031]
16 [0.063027464, 0.012972521, 0.08802747, 0.086027466, 0.036972523, 0.046972536, 0.05197253, 0.043972537]
17 [0.06894506, 0.00905494, 0.09194506, 0.08794505, 0.039054934, 0.052054945, 0.055054944, 0.04905495]
18 [0.06948901, 0.008510986, 0.09248901, 0.08848902, 0.03951098, 0.05251099, 0.05551099, 0.049510993]
19 [1.0166594, 0.9603406, 0.5906593, 0.58765936, 0.038340654, 0.050340667, 0.30434066, 0.5483407]
20 [1.0166594, 0.9603406, 0.5906593, 0.58765936, 0.038340654, 0.050340667, 0.30434066, 0.5483407]
21 [0.20336631, 0.9383004, 1.0293663, 0.970033, 0.026967034, 0.035967026, 0.1853663, 1.678967]
22 [0.07003297, 0.0049670315, 0.09603297, 0.09503297, 0.026967034, 0.035967026, 0.052032962, 0.80396706]
23 [1.0166209, 0.055379122, 1.0476209, 0.9600824, 0.03291759, 0.038917582, 0.084379114, 1.0086209]
24 [0.05508242, 0.01691758, 0.086082414, 0.08508242, 0.03291759, 0.038917582, 0.045917574, 0.04708242]
25 [0.04139011, 0.04139011, 0.025609888, 0.0833901, 0.0833901, 0.025609888, 0.025609888, 0.061390102]
26 [0.04139011, 0.04139011, 0.025609888, 0.0833901, 0.0833901, 0.025609888, 0.025609888, 0.061390102]
27 [0.5301978, 0.5501978, 0.5391978, 0.7831978, 0.8378022, 0.0878022, 0.013197805, 0.5051978]
28 [0.03562637, 0.16237363, 0.14737362, 0.14337362, 1.0366263, 1.0396264, 0.01037362, 0.0126263695]
29 [0.03562637, 0.06237363, 0.047373623, 0.043373626, 0.08662637, 0.08962637, 0.01037362, 0.0126263695]
30 [0.03562637, 0.06237363, 0.047373623, 0.043373626, 0.96162635, 0.08962637, 0.01037362, 0.0126263695]
31 [0.047725268, 0.031274714, 0.08727473, 0.08227471, 0.92927474, 0.96472526, 0.09772527, 0.027725276]
32 [0.047725268, 0.031274714, 0.08727473, 0.08227471, 0.054274715, 0.08972528, 0.09772527, 0.027725276]
33 [0.050824177, 0.021824181, 0.056175817, 0.110842496, 0.07084248, 0.92017585, 1.0811576, 0.10582417]
34 [0.050824177, 0.021824181, 0.056175817, 0.09417583, 0.054175816, 0.92017585, 0.97282416, 0.10582417]
35 [0.055752747, 0.030752746, 0.030247243, 0.10758059, 0.12458059, 0.077580586, 0.055580586, 1.0794194]
36 [0.055752747, 0.030752746, 0.030247243, 0.07424725, 0.09124725, 0.04424725, 0.02224725, 0.11275274]
37 [1.0368822, 0.037104394, 0.013895607, 0.0478956, 0.10611783, 0.09311782, 0.9018956, 1.0938822]
38 [0.990163, 0.036829665, 0.015829675, 0.034170337, 0.07117032, 0.21350369, 0.90582967, 0.169163]
39 [0.056829672, 0.036829665, 0.015829675, 0.034170337, 0.07117032, 0.08017034, 0.90582967, 0.035829667]
40 [0.9858223, 0.035489004, 0.01748901, 0.023510987, 0.051510982, 1.0088444, 0.96982235, 0.16382235]
41 [0.052489012, 0.035489004, 0.01748901, 0.023510987, 0.051510982, 0.075510986, 0.911489, 0.03048901]
42 [0.9394713, 0.9224713, 0.016582416, 0.020417584, 0.045417584, 0.40575093, 0.94830644, 0.36091575]
43 [1.0262833, 0.032505497, 0.016505491, 0.016494501, 0.039494514, 0.1593834, 1.0452724, 1.0152832]
44 [0.048505496, 0.032505497, 0.016505491, 0.016494501, 0.039494514, 0.07049451, 0.06749451, 0.037505493]
45 [0.047192305, 0.03219231, 0.017192312, 0.015807694, 0.036807686, 0.06580768, 1.0568187, 0.4268077]
46 [0.047192305, 0.03219231, 0.017192312, 0.015807694, 0.036807686, 0.06580768, 0.067807704, 0.04219231]
47 [0.047692303, 0.032692306, 0.01669231, 0.015307696, 0.037307687, 0.06630768, 0.068307705, 0.042692307]
48 [0.047692303, 0.032692306, 0.01669231, 0.015307696, 0.037307687, 0.06630768, 0.068307705, 0.042692307]
49 [0.04762637, 0.03262637, 0.017626373, 0.015373631, 0.03737362, 1.0517069, 0.06737362, 0.041626375]
