0.0 0.0
0.0 0.0
-6.898978E-4 1.13987035E-5
-0.0019458241 1.0078322E-5
-0.001626952 1.252737E-5
-0.0016620985 3.4541758E-6
-0.001699873 5.5486735E-6
-0.0022408008 4.003325E-6
-0.0032382149 2.391839E-4
-0.00417121 7.167173E-4
-0.0059907553 0.002644529
-0.0069847926 0.003921878
-0.0015448898 0.0057963757
-0.0015448898 0.0057963757
0.0112292515 0.0053543993
0.018270347 0.0041207937
0.02523515 0.0024212268
0.046145994 -0.0031947182
0.073291555 -0.011322042
0.073291555 -0.011322042
0.08610946 -0.015219137
0.097864255 -0.018854257
0.10888605 -0.022184916
0.1288669 -0.027891168
0.1288669 -0.027891168
0.13613752 -0.030594358
0.14167717 -0.033250414
0.15117426 -0.03694811
0.15117426 -0.03694811
0.16360705 -0.03697259
0.16825734 -0.037089266
0.17261955 -0.037046913
0.17969976 -0.036019243
0.18378013 -0.034016978
0.1965138 -0.022958566
0.20474145 -0.013314386
0.21283415 -0.0022927225
0.22846615 0.024049029
0.22846615 0.024049029
0.24612172 0.05847122
0.24612172 0.05847122
0.25448132 0.07560219
0.26745325 0.1030428
0.26745325 0.1030428
0.2834702 0.13411134
0.2834702 0.13411134
0.30047017 0.16574809
0.3075731 0.17930374
0.31294197 0.18961939
0.31294197 0.18961939
0.31656295 0.19661698
0.31939015 0.20206444
0.31939015 0.20206444
0.32197073 0.20772767
0.3243301 0.2135195
0.32662147 0.21936317
0.32662147 0.21936317
0.32872492 0.2251561
0.33143455 0.2321566
0.33143455 0.2321566
0.33561403 0.2403007
0.34012192 0.2484386
0.3445273 0.25610846
0.34916452 0.26365018
0.34916452 0.26365018
0.3531212 0.27042133
0.35644004 0.27646926
0.35948482 0.28197512
0.36718398 0.29158744
0.3714996 0.29546547
0.3714996 0.29546547
0.37607485 0.29862267
0.38071516 0.30106097
0.3897267 0.30434507
0.3897267 0.30434507
0.39550558 0.30533046
0.39550558 0.30533046
0.40249786 0.3059142
0.40749177 0.3061818
0.40749177 0.3061818
0.4117066 0.3061724
0.41618404 0.3060211
0.41618404 0.3060211
0.42029563 0.30547705
0.4261211 0.30453518
0.449095 0.30142903
0.449095 0.30142903
0.46432456 0.29929078
0.47949028 0.2970613
0.50932753 0.29289997
0.52186954 0.29121968
0.5325121 0.2897882
0.5505358 0.28700727
0.5577737 0.285887
0.57499105 0.28597873
0.5820402 0.28592262
0.5954706 0.28771302
0.6025941 0.29033792
0.61815906 0.2995983
0.6258369 0.3059688
0.6329855 0.31314325
0.6467753 0.33105084
0.654872 0.34369484
0.6708543 0.37328663
0.678486 0.38964906
0.69205344 0.4208514
0.6967958 0.432094
0.7016963 0.44434682
0.70246637 0.4473276
0.70675963 0.4571306
0.7093674 0.46290308
0.7118486 0.46893248
0.7165633 0.48116174
0.7186422 0.48714948
0.72550046 0.50171006
0.73091644 0.5094198
0.7457731 0.52466816
0.7555767 0.53228533
0.77969617 0.5472049
0.7929224 0.553981
0.8043426 0.5598095
0.82706976 0.5700427
0.8426447 0.5761614
0.8773837 0.5879066
0.8955905 0.5934501
0.93140733 0.6038157
0.94868976 0.6088007
0.97980607 0.6185259
0.994095 0.62370664
1.0186164 0.6348602
1.0299454 0.6409396
1.0433956 0.64859366
1.0639201 0.6612313
1.071301 0.66616696
1.084326 0.6753396
1.0869176 0.67740965
1.0858967 0.67717016
1.0848943 0.67701346
1.0824355 0.6777096
1.0810812 0.6785523
1.0794244 0.6796044
1.0745559 0.68244404
1.0735275 0.68433404
1.0715116 0.6877558
1.070788 0.68890524
1.069855 0.69001484
1.0696799 0.6900367
1.0700215 0.6890158
1.0705187 0.6879401
1.0717171 0.6850036
1.0722603 0.68394905
1.0727956 0.6828826
1.074395 0.6797251
1.0755057 0.67776364
1.0776209 0.67390865
1.078323 0.6724133
1.079059 0.67032087
1.0790402 0.6697911
1.0784073 0.6699009
1.078917 0.67113197
1.0842113 0.6769116
1.0874641 0.6805321
1.0911745 0.68473655
1.0998187 0.69433326
1.1046996 0.69950664
1.1191175 0.7109076
1.1284562 0.7161435
1.14963 0.7247101
1.1582094 0.72786874
1.1795805 0.7330477
1.1916416 0.7348088
1.203872 0.73569584
1.2285302 0.7352112
1.2410243 0.73422855
1.2634275 0.73124516
1.2693893 0.73024577
1.2832881 0.72782403
1.2910588 0.72647786
1.3066045 0.72354347
1.3140221 0.721905
1.3273754 0.7181597
1.333208 0.7161882
1.3387004 0.714061
1.3479183 0.7086477
1.3518285 0.70558465
1.3607438 0.70227855
1.3651072 0.70169437
1.3727955 0.7030467
1.3762804 0.704476
1.3819412 0.70845705
1.3840903 0.71077526
1.3858025 0.71321315
1.3879403 0.7177936
1.3886056 0.721016
1.390412 0.73356944
1.390663 0.74032676
1.3902973 0.7528388
1.3898085 0.758512
1.3882722 0.77019435
1.3877397 0.778719
1.3872411 0.7958453
1.3872411 0.7958453
