0 [0.0, 0.0, 0.0, 0.0, 0.0, 0.0, 0.0, 0.0]
1 [0.0, 0.0, 0.0, 0.0, 0.0, 0.0, 0.0, 0.0]
2 [0.04128572, 0.04128572, 0.025714288, 0.08328572, 0.08328572, 0.025714288, 0.025714288, 0.06128571]
3 [0.04128572, 0.04128572, 0.025714288, 0.08328572, 0.08328572, 0.025714288, 0.025714288, 0.06128571]
4 [0.04128572, 0.04128572, 0.025714288, 0.08328572, 0.08328572, 0.025714288, 0.025714288, 0.06128571]
5 [0.7082216, 0.7082216, 0.6931117, 0.7502216, 0.083554946, 0.025445057, 0.025445057, 0.061554942]
6 [0.04155495, 0.04155495, 0.026445055, 0.45855495, 0.45855495, 0.025445057, 0.025445057, 0.93655497]
7 [0.04153297, 0.04153297, 0.026467035, 1.0613108, 0.08353297, 0.025467034, 0.025467034, 0.061532967]
8 [0.04153297, 0.04153297, 0.026467035, 0.45853296, 0.45853296, 0.025467034, 0.025467034, 0.936533]
9 [0.04155495, 0.04155495, 0.026445055, 0.9585549, 0.45855495, 0.025445057, 0.025445057, 0.43655494]
10 [0.9323614, 0.9325249, 0.1463031, 1.4805485, 1.0411371, 0.028532475, 0.03052747, 0.16858365]
11 [0.043472532, 0.043482214, 0.027820652, 1.5946794, 0.4996579, 0.028533826, 0.03052747, 0.43247253]
12 [0.11523077, 0.100248165, 0.15754238, 1.5512424, 0.03452927, 0.03727569, 0.104769215, 0.9862308]
13 [0.052730773, 0.03773526, 0.0888038, 1.3006216, 0.03382042, 0.037273668, 0.04226922, 0.9237308]
14 [0.09080524, 0.040753968, 0.12000868, 1.3420767, 0.038314532, 0.046987474, 1.1184429, 0.12053722]
15 [0.063027464, 0.0129763605, 0.0985428, 0.16196042, 0.041389078, 0.04699611, 0.056289606, 0.0709615]
16 [0.06894506, 0.0090572685, 0.10148212, 0.15534922, 0.043105934, 0.052076533, 0.058556482, 0.0721083]
17 [0.06948901, 0.008510221, 0.08913218, 0.06475799, 0.038076956, 0.052511975, 0.057945006, 0.065552115]
18 [1.0166594, 0.9602569, 0.56988, 0.43489963, 0.036991835, 0.05034041, 0.31441656, 0.68248194]
19 [1.0166594, 0.9602569, 0.56988, 0.43489963, 0.036991835, 0.05034041, 0.31441656, 0.68248194]
20 [0.20336631, 0.93824404, 1.0044421, 0.79648226, 0.02631408, 0.035966862, 0.1895131, 1.9564985]
21 [0.07003297, 0.004966806, 0.094274685, 0.08217619, 0.02647329, 0.035959676, 0.0486966, 0.4230576]
22 [1.0166209, 0.05536604, 0.9477664, 0.28390497, 0.029780034, 0.03889964, 0.076728895, 0.33291835]
23 [0.05508242, 0.016912807, 0.076279454, 0.013489252, 0.029168975, 0.038899746, 0.042654335, 0.022358483]
24 [0.04139011, 0.041381028, 0.02334276, 0.028842982, 0.076007955, 0.02560085, 0.024231756, 0.036979936]
25 [0.04139011, 0.04138323, 0.023892507, 0.04206989, 0.077798024, 0.025603049, 0.024568079, 0.042937074]
26 [0.5301978, 0.55012864, 0.51186496, 0.48984054, 0.7953326, 0.08778448, 0.012792028, 0.3904257]
27 [0.03562637, 0.16235824, 0.14173302, 0.102826096, 0.9969503, 1.0394679, 0.010132807, 0.010460575]
28 [0.03562637, 0.062369157, 0.046003245, 0.03410279, 0.08412053, 0.089616045, 0.0101916175, 0.0109894965]
29 [0.03562637, 0.062370557, 0.046430834, 0.036995504, 0.94248885, 0.08963971, 0.011202395, 0.020080099]
30 [0.047725268, 0.031273548, 0.085962035, 0.073130816, 0.9152975, 0.9648414, 0.103942156, 0.040757876]
31 [0.047725268, 0.031274006, 0.08647935, 0.07673433, 0.053780083, 0.089735515, 0.10311153, 0.03901661]
32 [0.050824177, 0.021823842, 0.05582325, 0.10570221, 0.07039787, 0.9202373, 1.1170785, 0.13180387]
33 [0.050824177, 0.021823924, 0.055909354, 0.09087504, 0.05391884, 0.92022234, 0.9972527, 0.12545942]
34 [0.055752747, 0.030752473, 0.030138807, 0.104730815, 0.124133974, 0.077583544, 0.05663542, 1.2307894]
35 [1.0368822, 0.037104394, 0.013895607, 0.0478956, 0.10611783, 0.093100086, 0.8325952, 0.47281477]
36 [0.990163, 0.036829665, 0.015829675, 0.034170337, 0.07117032, 0.21350369, 0.90582967, 0.169163]
37 [0.056829672, 0.036829665, 0.015829675, 0.034170337, 0.07117032, 0.08017034, 0.90582967, 0.035829667]
38 [0.9858223, 0.035489004, 0.01748901, 0.023510987, 0.051510982, 1.0086802, 0.9061592, 0.08436066]
39 [0.052489012, 0.035489004, 0.01748901, 0.023510987, 0.051510982, 0.07550172, 0.86634034, 0.019329987]
40 [0.9394713, 0.9224713, 0.016582416, 0.020417584, 0.045417584, 0.40571332, 0.9128371, 0.26116893]
41 [1.0262833, 0.032505497, 0.016505491, 0.016494501, 0.039494514, 0.15937223, 1.0157238, 0.803212]
42 [0.048505496, 0.032505497, 0.016505491, 0.016494501, 0.039494514, 0.07049078, 0.06605249, 0.031584598]
43 [0.047192305, 0.03219231, 0.017192312, 0.015807694, 0.036807686, 0.06580505, 1.039771, 0.37593463]
44 [0.047192305, 0.03219231, 0.017192312, 0.015807694, 0.036807686, 0.06580569, 0.06698101, 0.03839141]
45 [0.047692303, 0.032692306, 0.01669231, 0.015307696, 0.037307687, 0.06630617, 0.067678295, 0.039785605]
46 [0.047692303, 0.032692306, 0.01669231, 0.015307696, 0.037307687, 0.06630654, 0.067832485, 0.040497664]
47 [0.04762637, 0.03262637, 0.017626373, 0.015373631, 0.03737362, 1.0516932, 0.067019366, 0.040009115]
48 [0.04762637, 0.03262637, 0.017626373, 0.015373631, 0.03737362, 0.06837294, 0.06710588, 0.040404078]
49 [0.04776374, 0.03276373, 0.016763734, 0.0152362585, 0.037236262, 0.06823575, 0.06703452, 0.041815646]
