0 [0.0, 0.0, 0.0, 0.0, 0.0, 0.0, 0.0, 0.0]
1 [0.0, 0.0, 0.0, 0.9768221, 0.9768225, 0.0, 0.0, 0.7868713]
2 [0.0, 0.0, 0.0, 0.9785787, 0.97858024, 0.0, 0.0, 0.78687036]
3 [0.0, 0.0, 0.0, 0.978118, 0.9781224, 0.0, 0.0, 0.7868743]
4 [0.0, 0.0, 0.0, 0.97822076, 0.97821814, 0.0, 0.0, 0.7868706]
5 [0.0, 0.0, 0.0, 0.9812793, 0.9780762, 0.0, 0.0, 0.7859033]
6 [0.0, 0.0, 0.0, 0.98407924, 0.9767074, 0.0, 0.0, 0.7847079]
7 [0.0, 0.0, 0.0, 0.9908609, 0.9707266, 0.0, 0.0, 0.7802603]
8 [0.0, 0.0, 0.0, 0.9952523, 0.0, 0.0, 0.0, 0.7707474]
9 [0.0, 0.0, 0.9580342, 0.97822434, 0.0, 0.0, 0.0, 0.7536517]
10 [0.0, 0.0, 0.94376135, 0.9639631, 0.0, 0.0, 0.0, 0.7493096]
11 [0.0, 0.0, 0.9247656, 0.9432879, 0.0, 0.0, 0.0, 0.7474778]
12 [0.0, 0.0, 0.0, 0.91580516, 0.0, 0.0, 0.0, 0.75064445]
13 [0.0, 0.0, 0.0, 0.9015348, 0.0, 0.0, 0.0, 0.7572429]
14 [0.0, 0.0, 0.0, 0.8688259, 0.8681704, 0.0, 0.0, 0.76456344]
15 [0.0, 0.0, 0.0, 0.84758836, 0.86059505, 0.0, 0.0, 0.0]
16 [0.0, 0.0, 0.0, 0.0, 0.85243815, 0.0, 0.0, 0.0]
17 [0.0, 0.0, 0.0, 0.0, 0.84108835, 0.8385032, 0.0, 0.0]
18 [0.0, 0.0, 0.0, 0.0, 0.82910204, 0.8436439, 0.0, 0.0]
19 [0.0, 0.0, 0.0, 0.0, 0.0, 0.8310349, 0.8168852, 0.0]
20 [0.0, 0.0, 0.0, 0.0, 0.0, 0.81111664, 0.82722664, 0.0]
21 [0.0, 0.0, 0.0, 0.0, 0.0, 0.0, 0.8277252, 0.0]
22 [0.0, 0.0, 0.0, 0.0, 0.0, 0.0, 0.8199094, 0.0]
23 [0.0, 0.0, 0.0, 0.0, 0.0, 0.0, 0.8023602, 0.0]
24 [0.0, 0.0, 0.0, 0.0, 0.0, 0.0, 0.7924284, 0.0]
25 [0.0, 0.0, 0.0, 0.0, 0.0, 0.0, 0.7743528, 0.0]
26 [0.0, 0.0, 0.0, 0.0, 0.0, 0.0, 0.0, 0.0]
27 [0.0, 0.0, 0.0, 0.0, 0.0, 0.0, 0.0, 0.0]
28 [0.0, 0.0, 0.0, 0.0, 0.0, 0.0, 0.0, 0.76094633]
29 [0.0, 0.0, 0.0, 0.0, 0.0, 0.0, 0.0, 0.7461259]
30 [0.0, 0.0, 0.0, 0.0, 0.0, 0.0, 0.0, 0.7309006]
31 [0.0, 0.0, 0.0, 0.0, 0.0, 0.0, 0.0, 0.7252453]
32 [0.0, 0.0, 0.0, 0.0, 0.0, 0.0, 0.0, 0.72133386]
33 [0.0, 0.0, 0.0, 0.0, 0.0, 0.0, 0.0, 0.71919394]
34 [0.0, 0.0, 0.0, 0.0, 0.0, 0.0, 0.0, 0.7186633]
35 [0.0, 0.0, 0.0, 0.0, 0.0, 0.0, 0.0, 0.7199256]
36 [0.0, 0.0, 0.0, 0.0, 0.0, 0.0, 0.0, 0.7235359]
37 [0.0, 0.0, 0.0, 0.0, 0.0, 0.0, 0.0, 0.7301102]
38 [0.0, 0.0, 0.0, 0.0, 0.0, 0.0, 0.8750602, 0.0]
39 [0.0, 0.0, 0.0, 0.0, 0.0, 0.0, 0.67787457, 0.0]
40 [0.0, 0.0, 0.0, 0.0, 0.0, 0.0, 0.6780393, 0.98797464]
41 [0.0, 0.0, 0.0, 0.0, 0.0, 0.0, 0.6764208, 0.9762268]
42 [0.0, 0.0, 0.0, 0.0, 0.0, 0.0, 0.6654027, 0.9572362]
43 [0.0, 0.0, 0.0, 0.0, 0.0, 0.0, 0.6654027, 0.9572362]
44 [0.0, 0.0, 0.0, 0.0, 0.0, 0.6494319, 0.6445294, 0.0]
45 [0.0, 0.0, 0.0, 0.0, 0.0, 0.6512531, 0.65924734, 0.0]
46 [0.0, 0.0, 0.0, 0.0, 0.8179865, 0.63875633, 0.92127734, 0.0]
47 [0.0, 0.0, 0.0, 0.0, 0.6241566, 0.6273159, 0.9185559, 0.0]
48 [0.0, 0.0, 0.0, 0.0, 0.6241566, 0.6273159, 0.9185559, 0.0]
49 [0.0, 0.0, 0.0, 0.0, 0.6253174, 0.6274331, 0.90498215, 0.0]
