0 -1
1 -1
2 237381
3 237381
4 237381
5 624
6 314000
7 500
8 314000
9 158000
10 2393
11 79250
12 234875
13 234875
14 63000
15 97426
16 176202
17 288603
18 250324
19 312685
20 312525
21 78354
22 38228
23 80631
24 80756
25 159218
26 15000
27 15191
28 2500
29 15000
30 75000
31 75000
32 312500
33 218754
34 65629
35 62500
36 75004
37 62500
38 296879
39 154382
40 140625
41 232508
42 232508
43 232508
44 12500
45 232508
46 -1
47 232508
48 312500
49 232508
50 325000
51 232508
52 351250
53 232507
54 318912
55 312500
56 312500
57 328156
58 312500
59 75024
60 108883
61 65024
62 15258
63 6008
64 205625
65 6183
66 84308
67 62500
68 316702
69 75000
70 311875
71 312500
72 312500
73 387505
74 -1
75 46254
76 61640
77 155631
78 155631
79 155631
80 186887
81 186887
82 186887
83 312384
84 40004
85 265007
86 331877
87 233756
88 58874
89 13874
90 77031
91 13000
92 77500
93 65000
94 200000
95 325000
96 375000
97 375000
98 377500
99 -1
100 325000
101 15004
102 325000
103 96879
104 325000
105 325000
106 325000
107 62500
108 317125
109 321875
110 312965
111 321875
112 325000
113 325000
114 2524
115 327500
116 12504
117 80625
118 158750
119 234875
120 234475
121 375604
122 80875
123 312500
124 315500
125 315500
126 4996
127 314000
128 -1
129 600
130 314000
131 6850
132 314000
133 13000
134 3020
135 500
136 375004
137 369212
138 13000
139 312377
140 2760
141 364500
142 65000
143 20
144 75600
145 78129
146 15545
147 100
148 3120
149 78110
150 100
151 15545
152 520
153 520
154 75500
155 2520
156 65225
157 -1
158 387500
159 2600
160 78000
161 15120
162 388004
163 12600
164 378000
165 11860
166 33800
167 62520
168 65120
169 75000
170 75100
171 62520
172 12600
173 62752
174 140720
175 62504
176 20
177 24
178 140627
179 100
180 140635
181 3074
182 312520
183 2520
184 75100
185 312500
186 -1
187 62524
188 1264
189 20
190 120
191 63024
192 600
193 24
194 24
195 378124
196 24
197 312500
198 312500
199 24
200 24
