0 [1.0, 1.0, 1.0, 1.0, 1.0, 1.0, 1.0, 1.0]
1 [1.0, 1.0, 1.0, 1.0, 1.0, 1.0, 1.0, 1.0]
2 [1.0, 1.0, 1.0, 1.0, 1.0, 1.0, 1.0, 1.0]
3 [1.0, 1.0, 1.0, 1.0, 1.0, 1.0, 1.0, 1.0]
4 [1.0, 1.0, 1.0, 1.0, 1.0, 1.0, 1.0, 1.0]
5 [1.0, 1.0, 1.0, 1.0, 1.0, 1.0, 1.0, 1.0]
6 [1.0, 1.0, 1.0, 1.0, 1.0, 1.0, 1.0, 1.0]
7 [1.0, 1.0, 1.0, 1.0, 1.0, 1.0, 1.0, 1.0]
8 [1.0, 1.0, 1.0, 1.0, 1.0, 1.0, 1.0, 1.0]
9 [1.0, 1.0, 1.0, 1.0, 1.0, 1.0, 1.0, 1.0]
10 [1.0, 1.0, 1.0, 1.0, 1.0, 1.0, 1.0, 1.0]
11 [1.0, 1.0, 1.0, 1.0, 1.0, 1.0, 1.0, 1.0]
12 [1.0, 1.0, 1.0, 1.0, 1.0, 1.0, 1.0, 1.0]
13 [1.0, 1.0, 1.0, 1.0, 1.0, 1.0, 1.0, 1.0]
14 [1.0, 1.0, 1.0, 1.0, 1.0, 1.0, 1.0, 1.0]
15 [1.0, 1.0, 1.0, 1.0, 1.0, 1.0, 1.0, 1.0]
16 [1.5747294, 1.0777812, 1.0001928, 1.0, 1.0, 1.0, 1.0, 1.0]
17 [1.6217624, 1.0841464, 1.0002086, 1.0, 1.0, 1.0, 1.0, 1.0]
18 [1.4769739, 1.0645514, 1.00016, 1.0, 1.0, 1.0, 1.0, 1.0]
19 [1.3605578, 1.0487962, 1.000121, 1.0, 1.0, 1.0, 1.0, 1.0]
20 [1.2505733, 1.0339113, 1.000084, 1.0, 1.0, 1.0, 1.0, 1.0]
21 [1.1893799, 1.0256298, 1.0000635, 1.0, 1.0, 1.0, 1.0, 1.0]
22 [1.1429873, 1.0193512, 1.0000479, 1.0, 1.0, 1.0, 1.0, 1.0]
23 [0.30688298, 0.90619683, 0.9997675, 1.0, 1.0, 1.0, 1.0, 1.0]
24 [0.40344322, 0.9192648, 0.9997999, 1.0, 1.0, 1.0, 1.0, 1.0]
25 [0.5447221, 0.93838483, 0.9998473, 1.0, 1.0, 1.0, 1.0, 1.0]
26 [0.700521, 1.2825277, 1.0444214, 1.0001104, 1.0, 1.0, 1.0, 1.0]
27 [0.8468767, 1.6183808, 1.088026, 1.0002184, 1.0, 1.0, 1.0, 1.0]
28 [1.1648115, 1.5175773, 1.0683109, 1.0001693, 1.0, 1.0, 1.0, 1.0]
29 [1.5999302, 1.4562554, 1.0518903, 1.0001281, 1.0, 1.0, 1.0, 1.0]
30 [1.4818652, 1.3484424, 1.0391946, 1.0000968, 1.0, 1.0, 1.0, 1.0]
31 [1.3659263, 1.2635853, 1.0296235, 1.0000732, 1.0, 1.0, 1.0, 1.0]
32 [1.2763904, 1.199029, 1.0223666, 1.0000552, 1.0, 1.0, 1.0, 1.0]
33 [1.126052, 0.5382715, 0.93405855, 0.9998364, 1.0, 1.0, 1.0, 1.0]
34 [1.0546641, 0.3510057, 0.9095583, 0.9997757, 1.0, 1.0, 1.0, 1.0]
35 [0.89465374, 0.47224146, 0.92919695, 0.9998245, 1.0, 1.0, 1.0, 1.0]
36 [0.33989674, 0.91066474, 0.99977857, 1.0, 1.0, 1.0, 1.0, 1.0]
37 [0.44939142, 0.6598113, 0.96320194, 0.9999092, 1.0, 1.0, 1.0, 1.0]
38 [0.58335745, 0.7430223, 0.97221595, 0.99993145, 1.0, 1.0, 1.0, 1.0]
39 [0.6850531, 0.8057729, 0.9790012, 0.9999482, 1.0, 1.0, 1.0, 1.0]
40 [0.7619649, 0.85320586, 0.9841295, 0.99996084, 1.0, 1.0, 1.0, 1.0]
41 [0.82027656, 0.88916624, 0.9880173, 0.99997044, 1.0, 1.0, 1.0, 1.0]
42 [0.8641679, 0.91623366, 0.9909437, 0.99997765, 1.0, 1.0, 1.0, 1.0]
43 [0.89744294, 0.93675405, 0.9931622, 0.99998313, 1.0, 1.0, 1.0, 1.0]
44 [0.92248905, 0.9521997, 0.99483216, 0.99998724, 1.0, 1.0, 1.0, 1.0]
45 [0.941477, 0.96390945, 0.99609804, 0.99999034, 1.0, 1.0, 1.0, 1.0]
46 [0.9557693, 0.9727233, 0.99705106, 0.9999927, 1.0, 1.0, 1.0, 1.0]
47 [1.0, 1.0, 1.0, 1.0, 1.0, 1.0, 1.0, 1.0]
48 [0.97666967, 0.99684256, 0.9999922, 1.0, 1.0, 1.0, 1.0, 1.0]
49 [1.0, 1.0, 1.0, 1.0, 1.0, 1.0, 1.0, 1.0]
