0 [0.0, 0.0, 0.0, 0.0, 0.0, 0.0, 0.0, 0.0]
1 [0.0, 0.0, 0.0, 0.0, 0.0, 0.0, 0.0, 0.0]
2 [0.0, 0.0, 0.0, 0.0, 0.0, 0.0, 0.0, 0.0]
3 [0.0, 0.0, 0.0, 0.0, 0.0, 0.0, 0.0, 0.0]
4 [0.0, 0.0, 0.0, 0.0, 0.0, 0.0, 0.0, 0.0]
5 [0.0, 0.0, 0.0, 0.0, 0.0, 0.0, 0.0, 0.0]
6 [0.0, 0.0, 0.0, 0.0, 0.0, 0.0, 0.0, 0.0]
7 [0.0, 0.0, 0.0, 0.0, 0.0, 0.0, 0.0, 0.0]
8 [0.0, 0.0, 0.0, 0.0, 0.0, 0.0, 0.0, 0.0]
9 [0.16731317, 0.11731318, 0.061686806, 0.061686806, 0.060686808, 0.060686808, 0.05968681, 0.05968681]
10 [0.16731317, 0.11731318, 0.061686806, 0.061686806, 0.060686808, 0.060686808, 0.05968681, 0.05968681]
11 [1.0417857, 0.11978571, 0.1793254, 0.17832541, 1.0096587, 0.17332539, 0.06021428, 0.93221426]
12 [0.54043406, 0.49543405, 0.34729323, 0.9826569, 0.9786569, 0.9746569, 0.061565932, 0.96665686]
13 [0.16543406, 0.12043406, 0.07456594, 0.073565945, 0.06956592, 0.06556593, 0.061565932, 0.057565935]
14 [0.53786266, 0.49786264, 0.07713735, 0.27263737, 1.0136373, 0.25763735, 0.06013737, 0.92913735]
15 [0.53786266, 0.49786264, 0.07713735, 0.27263737, 1.0136373, 0.25763735, 0.06013737, 0.92913735]
16 [0.53724724, 0.49924725, 0.062247247, 0.37646705, 1.0113242, 1.0013242, 0.058752757, 0.9287527]
17 [0.846019, 0.5380793, 0.062259246, 0.37646705, 1.0113242, 1.0013242, 0.058752757, 0.9287527]
18 [0.25892952, 0.13514897, 0.068673655, 0.09734066, 0.089340664, 0.077340655, 0.06534067, 0.053340655]
19 [0.78402156, 1.062241, 0.073841475, 0.28698853, 1.0537158, 1.0387157, 0.25098854, 0.42917034]
20 [0.21201527, 0.12882328, 0.0738386, 0.10517033, 0.099170335, 0.08417033, 0.06917034, 0.05417033]
21 [1.2751999, 1.0273898, 0.079699, 0.09830769, 0.23441881, 1.0675299, 0.1914188, 0.04930769]
22 [0.17209414, 0.121734366, 0.07969737, 0.09830769, 0.12330769, 0.09530769, 0.080307685, 0.04930769]
23 [1.213507, 1.006811, 0.07870157, 0.06430219, 0.29796886, 1.0809689, 0.25596887, 0.23196886]
24 [0.057294376, 0.1021264, 0.0786795, 0.06430219, 0.1313022, 0.11430219, 0.08930219, 0.06530219]
25 [0.07198136, 0.098745205, 0.077402085, 0.03958242, 0.13758242, 0.12658241, 0.09858241, 0.071582414]
26 [0.56841445, 0.4471352, 0.45142558, 0.04149451, 0.1245055, 0.94150555, 0.0985055, 0.8785055]
27 [0.11803394, 0.13016951, 0.079892494, 0.041499093, 0.1245055, 0.14150551, 0.0985055, 0.07850549]
28 [0.95179164, 0.76605433, 0.48890033, 0.042355403, 0.09765386, 1.1051923, 1.0781922, 0.35288462]
29 [0.18910266, 0.14924788, 0.079424806, 0.04235332, 0.09765386, 0.14365384, 0.11665384, 0.083653845]
30 [0.25350982, 0.13900039, 0.07726192, 0.045456376, 0.071549445, 0.14354944, 0.122549444, 0.81354946]
31 [0.23054403, 0.12483465, 0.07334316, 0.042581048, 0.07442307, 0.14642307, 0.12542307, 1.0839286]
32 [1.5241436, 0.65474546, 0.45526332, 0.041167848, 0.058835156, 0.41550183, 1.1015018, 0.096835166]
33 [1.2995337, 0.61406094, 0.4479314, 0.040134087, 0.04686814, 0.3266459, 1.1216459, 0.093868144]
34 [1.1464695, 0.27566597, 0.4092408, 0.040125303, 0.04686814, 0.14886814, 0.14386815, 0.093868144]
35 [0.14330104, 0.045937385, 0.053548995, 0.037865132, 0.036126375, 0.13312638, 0.26779303, 1.0954597]
36 [0.14330104, 0.045937385, 0.053548995, 0.037865132, 0.036126375, 0.13312638, 0.15112637, 0.11212637]
37 [0.10123351, 0.051546972, 0.039169226, 0.027149078, 0.019846149, 0.066846155, 1.0258461, 1.0168462]
38 [0.038460623, 0.55473495, 0.5420338, 0.52715385, 0.019846149, 0.066846155, 0.15084614, 0.14184615]
39 [0.4850281, 0.064346105, 0.090080544, 0.01952021, 0.017478019, 0.05147802, 0.12147803, 0.34847802]
40 [0.0592236, 0.44397214, 0.5770315, 0.51948637, 0.017478019, 0.05147802, 0.12147803, 0.14847803]
41 [0.05725463, 0.46781313, 0.5654485, 0.50755066, 0.020423075, 0.04342308, 0.08442307, 0.14342308]
42 [0.787894, 0.05491458, 0.06137291, 0.059360314, 0.025637362, 0.041637357, 0.06663736, 0.11563736]
43 [0.05525599, 0.057229083, 0.061615366, 0.059360884, 0.025637362, 0.041637357, 0.06663736, 0.11563736]
44 [0.8862633, 0.83330446, 0.0498902, 0.048345074, 0.029653842, 0.040653843, 0.05565384, 0.08065384]
45 [0.21823643, 0.95544565, 0.040894274, 0.040175147, 0.039175823, 0.037824173, 0.045824178, 0.05782418]
46 [0.039829224, 0.040159807, 0.040963035, 0.04017531, 0.039175823, 0.037824173, 0.045824178, 0.05782418]
47 [0.7502514, 0.894295, 0.92316276, 0.036889754, 0.03589011, 0.037109893, 0.042109888, 0.050109893]
48 [0.018264648, 0.037829313, 0.037778374, 0.036889844, 0.03589011, 0.037109893, 0.042109888, 0.050109893]
49 [0.025005493, 0.034994505, 0.033994507, 0.033994507, 0.032994505, 0.036005493, 0.039005492, 0.043005493]
