0 -1
1 -1
2 -1
3 -1
4 -1
5 -1
6 -1
7 -1
8 -1
9 156256
10 156256
11 156256
12 156256
13 156256
14 156256
15 156256
16 156256
17 156259
18 156259
19 9
20 9
21 34
22 34
23 34
24 34
25 34
26 34
27 34
28 34
29 34
30 34
31 534
32 534
33 530
34 530
35 500
36 0
37 2500
38 2500
39 2500
40 2520
41 12520
42 12520
43 12520
44 12520
45 12520
46 -1
47 46977
48 46977
49 377
50 502
51 502
52 314877
53 314877
54 314885
55 2510
