0 [1.0, 1.0, 1.0, 1.0, 1.0, 1.0, 1.0, 1.0]
1 [1.0, 1.0, 1.0, 1.0, 1.0, 1.0, 1.0, 1.0]
2 [1.0, 1.0, 1.0, 1.0, 1.0, 1.0, 1.0, 1.0]
3 [1.0, 1.0, 1.0, 1.0, 1.0, 1.0, 1.0, 1.0]
4 [1.0, 1.0, 1.0, 1.0, 1.0, 1.0, 1.0, 1.0]
5 [1.0, 1.0, 1.0, 1.0, 1.0, 1.0, 1.0, 1.0]
6 [1.0, 1.0, 1.0, 1.0, 1.0, 1.0, 1.0, 1.0]
7 [1.0, 1.0, 1.0, 1.0, 1.0, 1.0, 1.0, 1.0]
8 [1.0, 1.0, 1.0, 1.0, 1.0, 1.0, 1.0, 1.0]
9 [1.0, 1.0, 1.0, 1.0, 1.0, 1.0, 1.0, 1.0]
10 [1.6963267, 1.0942376, 1.0002337, 1.0, 1.0, 1.0, 1.0, 1.0]
11 [1.5863078, 1.0793481, 1.0001967, 1.0, 1.0, 1.0, 1.0, 1.0]
12 [1.4467688, 1.0604635, 1.0001498, 1.0, 1.0, 1.0, 1.0, 1.0]
13 [1.3378824, 1.0457274, 1.0001134, 1.0, 1.0, 1.0002337, 1.0942376, 1.6963267]
14 [1.2551242, 1.0345273, 1.0000856, 1.0, 1.0, 1.0001967, 1.0793481, 1.5863078]
15 [1.1928196, 1.0260953, 1.0002984, 1.0942376, 1.6963267, 1.0943874, 1.0606972, 1.4467688]
16 [1.8419111, 1.1139402, 1.0004792, 1.0793481, 1.5863078, 1.0794613, 1.0458784, 1.3375448]
17 [0.9000131, 0.98646826, 1.0001162, 1.0604635, 1.4467688, 1.0605491, 1.0346771, 1.2551242]
18 [0.840513, 0.9784158, 1.0000597, 1.0456817, 1.3375448, 1.0457463, 1.0261824, 1.1926268]
19 [0.8744043, 0.9830025, 1.0000434, 1.0345273, 1.2551242, 1.0345762, 1.0197883, 1.1455843]
20 [0.90476924, 0.9871119, 1.0000328, 1.0260953, 1.1928196, 1.0258648, 0.9071118, 0.31316614]
21 [0.9280794, 0.99026656, 1.0000247, 1.0197027, 1.1455843, 1.0194993, 0.918001, 0.39374417]
22 [0.9456425, 0.9926435, 0.9997513, 0.90704715, 0.31316614, 0.90689164, 0.9370446, 0.5365219]
23 [0.16209435, 0.8866018, 0.99951553, 0.9179522, 0.39374417, 0.9178347, 0.95239407, 0.64974]
24 [0.27902877, 0.90242714, 0.9996026, 0.93727505, 0.5365219, 0.93718624, 0.9640158, 0.73525983]
25 [0.4503146, 0.92560816, 0.9996981, 0.95259744, 0.64974, 0.9525304, 0.9728307, 0.8001125]
26 [0.58423567, 0.9437324, 0.9997717, 0.9641713, 0.73525983, 0.9641206, 0.97946584, 0.8489282]
27 [0.6857525, 0.95747125, 0.9998275, 0.9729211, 0.7999125, 0.97288275, 0.9844806, 0.8858224]
28 [0.7627331, 0.96788937, 0.99986976, 0.97955465, 0.8489282, 0.97952574, 0.98828244, 0.91379267]
29 [0.82067746, 0.9757313, 0.99990153, 0.98454773, 0.8858224, 0.98452586, 0.991144, 0.9348459]
30 [0.86447096, 0.98165816, 0.99992555, 0.9883214, 0.9137064, 0.9883049, 0.9933068, 0.95075756]
31 [0.9137064, 0.9883214, 0.99994916, 0.9911823, 0.9348459, 0.9911823, 0.9999781, 1.0]
32 [0.9347807, 0.9911735, 0.9999616, 0.9933358, 0.95075756, 0.99332637, 0.9961806, 0.9719004]
33 [0.9507083, 0.9933291, 0.99997103, 0.9949633, 0.9627834, 0.99495614, 0.9971134, 0.9787628]
34 [0.9627834, 0.9949633, 0.99998754, 1.0, 1.0, 1.0, 1.0, 1.0]
35 [0.97187227, 0.99619335, 0.99998343, 0.99712586, 0.9787628, 0.99712586, 0.99999285, 1.0]
36 [1.0, 1.0, 1.0, 1.0, 1.0, 1.0, 1.0, 1.0]
37 [1.0, 1.0, 1.0, 1.0, 1.0, 1.0, 1.0, 1.0]
38 [1.0, 1.0, 1.0, 1.0, 1.0, 1.0, 1.0, 1.0]
39 [1.0, 1.0, 1.0, 1.0, 1.0, 1.0, 1.0, 1.0]
40 [1.0, 1.0, 1.0, 1.0, 1.0, 1.0, 1.0, 1.0]
41 [1.0, 1.0, 1.0, 1.0, 1.0, 1.0, 1.0, 1.0]
42 [1.0, 1.0, 1.0, 1.0, 1.0, 1.0, 1.0, 1.0]
43 [1.0, 1.0, 1.0, 1.0, 1.0, 1.0, 1.0, 1.0]
44 [1.0, 1.0, 1.0, 1.0, 1.0, 1.0, 1.0, 1.0]
45 [1.0, 1.0, 1.0, 1.0, 1.0, 1.0, 1.0, 1.0]
46 [1.6962347, 1.0942252, 1.0002335, 1.0, 1.0, 1.0, 1.0, 1.0]
47 [1.5873861, 1.0794941, 1.000197, 1.0, 1.0, 1.0, 1.0, 1.0]
48 [1.4472129, 1.0605237, 1.00015, 1.0, 1.0, 1.0, 1.0, 1.0]
49 [1.3382202, 1.0457731, 1.0001135, 1.0, 1.0, 1.0, 1.0, 1.0]
