0 1.5707964
0 2.3182098E-7
0 2.4088934E-7
0 9.078623E-8
0 -0.0
0 -2.0647656E-7
0 -9.272836E-8
0 -1.5707964
0 -1.5707968
1 1.5707964
1 2.3182098E-7
1 2.4088934E-7
1 9.078623E-8
1 -0.0
1 -2.0647656E-7
1 -9.272836E-8
1 -1.5707964
1 -1.5707968
2 -3.1385598
2 -8.082718E-5
2 -5.9878083E-5
2 -5.267239E-5
2 -5.2640946E-5
2 -5.9982733E-5
2 -8.038568E-5
2 -0.0029848502
2 -1.5658439
3 -3.1385598
3 -8.082718E-5
3 -5.9878083E-5
3 -5.267239E-5
3 -5.2640946E-5
3 -5.9982733E-5
3 -8.038568E-5
3 -0.0029848502
3 -1.5658439
4 3.1341507
4 1.2802378E-4
4 9.41972E-5
4 8.2089944E-5
4 8.157403E-5
4 9.198475E-5
4 1.2297893E-4
4 0.00745722
4 -1.5550181
5 3.1326976
5 4.2593206E-4
5 3.095734E-4
5 2.6839905E-4
5 2.651553E-4
5 2.9729298E-4
5 3.9279764E-4
5 0.008902956
5 -1.5371355
6 3.1306076
6 9.867743E-4
6 7.0595427E-4
6 6.063312E-4
6 5.94081E-4
6 6.6034816E-4
6 8.607369E-4
6 0.010987558
6 -1.5136994
7 3.1289387
7 0.0017134803
7 0.0012050157
7 0.0010244653
7 9.953169E-4
7 0.0010963207
7 0.0014098578
7 0.012657045
7 -1.4894938
8 3.1292336
8 0.002186043
8 0.0015137406
8 0.0012751671
8 0.0012296364
8 0.0013436669
8 0.001708678
8 0.012360912
8 -1.4684198
9 3.1306403
9 0.0024418307
9 0.0016620771
9 0.0013864199
9 0.0013263903
9 0.0014374228
9 0.0018071326
9 0.010954323
9 -1.4461857
10 3.130953
10 0.0029450557
10 0.001966012
10 0.0016222626
10 0.0015387274
10 0.0016528812
10 0.0020534873
10 0.010641512
10 -1.4222628
11 3.1308944
11 0.0035032071
11 0.0022970573
11 0.0018770063
11 0.0017670566
11 0.0018837719
11 0.002316617
11 0.010699255
11 -1.4014264
12 3.1309202
12 0.004158583
12 0.002668533
12 0.0021560069
12 0.0020122381
12 0.002126847
12 0.0025863734
12 0.0106740575
12 -1.3777121
13 3.1316884
13 0.004770817
13 0.0029673239
13 0.0023596382
13 0.0021765041
13 0.002274281
13 0.0027256792
13 0.009905339
13 -1.3458108
14 3.1334097
14 0.0048739235
14 0.002919196
14 0.00227965
14 0.0020753548
14 0.00214161
14 0.0025274418
14 0.008183898
14 -1.310839
15 3.1335902
15 0.0056466917
15 0.003266695
15 0.0025110294
15 0.0022606547
15 0.002308895
15 0.0026912077
15 0.008003048
15 -1.2817227
16 3.1346161
16 0.0054924446
16 0.0030973158
16 0.0023546168
16 0.002103742
16 0.0021336875
16 0.0024666868
16 0.0069772583
16 -1.2620505
17 3.1352694
17 0.0055632293
17 0.0030506745
17 0.0022920328
17 0.0020316965
17 0.0020460319
17 0.0023458663
17 0.006323983
17 -1.2418967
18 3.1364043
18 0.005328698
18 0.002798369
18 0.0020661894
18 0.001810834
18 0.0018053846
18 0.0020462554
18 0.0051890756
18 -1.213386
19 3.1374967
19 0.005011704
19 0.002489715
19 0.0018007907
19 0.0015575283
19 0.0015352246
19 0.001718144
19 0.0040966654
19 -1.1812006
20 3.1393402
20 0.0032778347
20 0.001524185
20 0.0010774487
20 9.189345E-4
20 8.9508464E-4
20 9.890202E-4
20 0.002252903
20 -1.1479063
21 3.1409812
21 9.935363E-4
21 4.2619382E-4
21 2.937614E-4
21 2.4669644E-4
21 2.3720728E-4
21 2.587991E-4
21 6.118583E-4
21 -1.1134853
22 -3.1397767
22 -0.004329883
22 -0.001684869
22 -0.0011307106
22 -9.3580515E-4
22 -8.899048E-4
22 -9.5819426E-4
22 -0.0018155407
22 -1.0794803
23 -3.1395907
23 -0.0059539895
23 -0.002066483
23 -0.0013487216
23 -0.0010995128
23 -0.0010332867
23 -0.0010994291
23 -0.00200149
23 -1.0470334
24 -3.1407993
24 -0.0031104735
24 -9.460561E-4
24 -6.006937E-4
24 -4.826364E-4
24 -4.4879367E-4
24 -4.723174E-4
24 -7.929732E-4
24 -1.0172896
25 -3.1406415
25 -0.004990804
25 -0.0012519906
25 -7.689014E-4
25 -6.0785766E-4
25 -5.582365E-4
25 -5.8071356E-4
25 -9.5092604E-4
25 -0.98449725
26 3.1415887
26 -3.8132753E-4
26 -6.721788E-5
26 -3.9441104E-5
26 -3.0545627E-5
26 -2.7736385E-5
26 -2.8423588E-5
26 4.3201994E-6
26 -0.94423693
27 3.1398292
27 0.04741165
27 0.0029574633
27 0.0016275226
27 0.0012245115
27 0.0010863529
27 0.0010951686
27 0.0017639298
27 -0.89530337
28 3.1382663
28 3.0686753
28 0.00696755
28 0.0035282273
28 0.002569623
28 0.0022322314
28 0.0022088913
28 0.0033265413
28 -0.84273297
29 3.135831
29 3.089813
29 0.014933992
29 0.006890131
29 0.004858813
29 0.0041378858
29 0.004026275
29 0.005761792
29 -0.7952611
30 3.1338701
30 3.0956948
30 0.025075503
30 0.010340384
30 0.0070481687
30 0.0058843154
30 0.0056337193
30 0.0077228183
30 -0.74985737
31 3.1324017
31 3.100445
31 0.03940743
31 0.013896476
31 0.009101304
31 0.0074327975
31 0.006994334
31 0.009191092
31 -0.7019439
32 3.1318743
32 3.1069195
32 0.06216528
32 0.016940983
32 0.010541249
32 0.008384871
32 0.007735537
32 0.009718422
32 -0.6480429
33 3.1321125
33 3.1136758
33 0.12402466
33 0.019649073
33 0.011413152
33 0.008788986
33 0.007923034
33 0.009480401
33 -0.5868046
34 3.133941
34 3.1222532
34 1.4971989
34 0.019287974
34 0.010271306
34 0.007626012
34 0.0067075803
34 0.007651818
34 -0.5240862
35 3.1367733
35 3.1307297
35 3.065941
35 0.014867057
35 0.0071632583
35 0.0051253955
35 0.004403845
35 0.004819582
35 -0.46701106
36 3.1391022
36 3.1364534
36 3.120366
36 0.009428572
36 0.0040579718
36 0.0028004714
36 0.0023548328
36 0.0024906069
36 -0.41683784
37 3.141045
37 3.1405568
37 3.1382916
37 0.0025250376
37 9.545859E-4
37 6.3587236E-4
37 5.241803E-4
37 5.477591E-4
37 -0.3725406
38 -3.140616
38 -3.139776
38 -3.1366837
38 -0.0059686657
38 -0.0019282957
38 -0.0012391707
38 -0.0010018504
38 -9.765516E-4
38 -0.33188462
39 -3.1401215
39 -3.1390188
39 -3.135511
39 -0.012577908
39 -0.0031864843
39 -0.001959625
39 -0.0015498062
39 -0.0014710727
39 -0.2877506
40 -3.1397417
40 -3.1385412
40 -3.1351597
40 -0.028101115
40 -0.0044983225
40 -0.0026163845
40 -0.0020159453
40 -0.0018508543
40 -0.23886581
41 -3.1399562
41 -3.1390395
41 -3.1366885
41 -0.11796579
41 -0.0045498447
41 -0.0024715592
41 -0.0018496951
41 -0.0016362447
41 -0.18815514
42 -3.1413298
42 -3.1411974
42 -3.1408904
42 -3.134645
42 -8.6728437E-4
42 -4.3268845E-4
42 -3.135506E-4
42 -2.626943E-4
42 -0.13634807
43 3.139849
43 3.1391366
43 3.1374748
43 3.12129
43 0.0066541308
43 0.0030148202
43 0.0021137383
43 0.0017438531
43 -0.08904852
44 3.13718
44 3.135582
44 3.1319332
44 3.1061273
44 0.019779248
44 0.008117483
44 0.005525804
44 0.0044127633
44 -0.050049063
45 3.1348996
45 3.132705
45 3.1277204
45 3.0980608
45 0.03454573
45 0.012929431
45 0.00858992
45 0.006693219
45 -0.020312956
46 3.1337621
46 3.1314015
46 3.1260297
46 3.0974336
46 0.0460101
46 0.01575933
46 0.010253313
46 0.007830576
46 0.0036241242
47 3.1319187
47 3.1292179
47 3.1230333
47 3.0927198
47 0.06463547
47 0.020206865
47 0.0128950365
47 0.009674133
47 0.02453263
48 3.1330369
48 3.1308277
48 3.1257138
48 3.1023355
48 0.06602949
48 0.018557217
48 0.011608337
48 0.008555874
48 0.044883244
49 3.1355314
49 3.134046
49 3.130577
49 3.115348
49 0.052089114
49 0.01348687
49 0.008321896
49 0.006061415
49 0.058163166
