0 [0.0, 0.0, 0.0, 0.0, 0.0, 0.0, 0.0, 0.0]
1 [0.0, 0.0, 0.0, 0.0, 0.0, 0.0, 0.0, 0.0]
2 [0.0, 0.0, 0.0, 0.0, 0.0, 0.0, 0.0, 0.0]
3 [0.0, 0.0, 0.0, 0.0, 0.0, 0.0, 0.0, 0.0]
4 [0.0, 0.0, 0.0, 0.0, 0.0, 0.0, 0.0, 0.0]
5 [0.0, 0.0, 0.0, 0.0, 0.0, 0.0, 0.0, 0.0]
6 [0.0, 0.0, 0.0, 0.0, 0.0, 0.0, 0.0, 0.0]
7 [0.0, 0.0, 0.0, 0.0, 0.0, 0.0, 0.0, 0.0]
8 [0.0, 0.0, 0.0, 0.0, 0.0, 0.0, 0.0, 0.0]
9 [0.0, 0.0, 0.0, 0.0, 0.0, 0.0, 0.0, 0.0]
10 [0.0, 0.0, 0.0, 0.0, 0.0, 0.0, 0.0, 0.0]
11 [0.0, 0.0, 0.0, 0.0, 0.0, 0.0, 0.0, 0.0]
12 [0.0, 0.0, 0.0, 0.0, 0.0, 0.0, 0.0, 0.0]
13 [0.0, 0.0, 0.0, 0.0, 0.0, 0.0, 0.0, 0.0]
14 [0.0, 0.0, 0.0, 0.0, 0.0, 0.0, 0.0, 0.0]
15 [0.9494821, 0.0, 0.0, 0.0, 0.0, 0.0, 0.0, 0.0]
16 [0.8974064, 0.0, 0.0, 0.0, 0.0, 0.0, 0.0, 0.0]
17 [0.85169184, 0.0, 0.0, 0.0, 0.0, 0.0, 0.0, 0.0]
18 [0.8260171, 0.0, 0.0, 0.0, 0.0, 0.0, 0.0, 0.0]
19 [0.81198496, 0.0, 0.0, 0.0, 0.0, 0.0, 0.0, 0.0]
20 [0.8034916, 0.0, 0.0, 0.0, 0.0, 0.0, 0.0, 0.0]
21 [0.8137764, 0.0, 0.0, 0.0, 0.0, 0.0, 0.0, 0.0]
22 [0.8161881, 0.9235002, 0.0, 0.0, 0.0, 0.99294466, 0.0, 0.0]
23 [0.8141412, 0.892081, 0.0, 0.0, 0.0, 0.9628383, 0.96640056, 0.0]
24 [0.81016, 0.8698547, 0.0, 0.0, 0.0, 0.0, 0.9549395, 0.0]
25 [0.8065818, 0.85951257, 0.0, 0.0, 0.0, 0.0, 0.93506026, 0.0]
26 [0.80515385, 0.8587156, 0.0, 0.0, 0.0, 0.0, 0.9187044, 0.0]
27 [0.8051355, 0.86233836, 0.0, 0.0, 0.0, 0.0, 0.9109613, 0.0]
28 [0.8081768, 0.88212925, 0.0, 0.0, 0.0, 0.0, 0.9008885, 0.0]
29 [0.810591, 0.90722084, 0.0, 0.0, 0.0, 0.89236367, 0.89152503, 0.0]
30 [0.81135225, 0.9221656, 0.0, 0.0, 0.0, 0.8752223, 0.88482326, 0.0]
31 [0.81230146, 0.9479927, 0.0, 0.0, 0.0, 0.8752613, 0.873087, 0.0]
32 [0.8122233, 0.96397877, 0.0, 0.0, 0.0, 0.8763117, 0.86697626, 0.0]
33 [0.81233174, 0.96427387, 0.0, 1.0028977, 0.0, 0.87427926, 0.8654644, 0.0]
34 [0.81384295, 0.0, 0.0, 0.9895092, 0.0, 0.86334336, 0.85510015, 0.0]
35 [0.8162894, 0.0, 0.95838434, 0.9683739, 0.0, 0.8475862, 0.83776104, 0.0]
36 [0.8174724, 0.0, 0.9387766, 0.95263994, 0.0, 0.83765763, 0.99306846, 0.0]
37 [0.8165683, 0.0, 0.9249656, 0.9415208, 0.0, 0.8335863, 0.981645, 0.0]
38 [0.81881624, 0.0, 0.9061955, 0.9204034, 0.0, 0.8246282, 0.96086615, 0.0]
39 [0.835832, 0.0, 0.90700203, 0.0, 0.9384803, 0.81188023, 0.0, 0.0]
40 [0.8542431, 0.0, 0.90513355, 0.0, 0.8240278, 0.79910046, 0.0, 0.0]
41 [0.86758614, 0.90023077, 0.90161455, 0.0, 0.7867634, 0.789637, 0.0, 0.0]
42 [0.8717333, 0.8961709, 0.900086, 0.0, 0.77740437, 0.7866126, 0.0, 0.0]
43 [0.87172836, 0.896182, 0.9000914, 0.0, 0.77740073, 0.7866162, 0.0, 0.0]
44 [0.87280184, 0.8946197, 0.8987204, 0.0, 0.7759287, 0.7850374, 0.0, 0.0]
45 [0.88069373, 0.8828608, 0.8886716, 0.0, 0.7661647, 0.7738738, 0.0, 0.0]
46 [0.8968084, 0.8590987, 0.86711854, 0.0, 0.74444926, 0.7505791, 0.0, 0.0]
47 [0.9155142, 0.8270532, 0.8353202, 0.0, 0.7135257, 0.71815014, 0.0, 0.0]
48 [0.94299465, 0.7772195, 0.7852221, 0.0, 0.6800373, 0.66776955, 0.0, 0.0]
49 [0.95085204, 0.76055264, 0.7682254, 0.0, 0.67137975, 0.65091175, 0.0, 0.0]
