0 -1
1 -1
2 1329384
3 1329384
4 1329384
5 1486875
6 1328754
7 1174375
8 1487379
9 1331909
10 1174375
11 1175034
12 1175164
13 1207069
14 1249381
15 1184375
16 1208599
17 1184395
18 1228122
19 1346840
20 1234475
21 1181076
22 1390625
23 1406750
24 1172375
25 1175004
26 1171879
27 1171895
28 1171895
29 1171879
30 1234475
31 1171879
32 1171879
33 1484375
34 1184399
35 1484605
36 -1
37 1234399
38 1484387
39 1234399
40 1249375
41 1234387
42 1174375
43 1174875
44 1246899
45 1499875
46 1234375
47 1547495
48 1228144
49 1169129
50 781254
51 1124504
52 843754
53 1094250
54 781254
55 453627
56 390725
57 390629
58 765745
59 390629
60 390629
61 715629
62 393129
63 772512
64 765645
65 390629
66 390629
67 390629
68 637513
69 775627
70 712504
71 390629
72 778125
73 1522507
74 1515649
75 1234395
76 1500093
77 1531518
78 856278
79 1125418
80 781825
81 781829
82 861895
83 784254
84 986874
85 1031279
86 1093871
87 781354
88 781254
89 1093845
90 937524
91 781370
92 781270
93 843754
94 843750
95 1173111
96 1331247
97 -1
98 1187493
99 1178117
100 1174995
101 1174395
102 1178117
103 1409350
104 1178117
105 1562475
106 1181217
107 1233517
108 1484875
109 785616
110 1343642
111 1176236
112 1247379
113 1237504
114 1468978
115 1171879
116 1265749
117 1243523
118 1265749
119 1561970
120 1343774
121 1175649
122 1343774
123 1206274
124 640649
125 390645
126 453149
127 562519
128 453174
129 453129
130 484379
131 437504
132 409379
133 140634
134 4
135 62504
136 362539
137 78749
138 4
139 78749
140 4
141 312500
142 4
