0 [1.0, 1.0, 1.0, 1.0, 1.0, 1.0, 1.0, 1.0]
1 [1.0, 1.0, 1.0, 1.0, 1.0, 1.0, 1.0, 1.0]
2 [1.0, 1.0, 1.0, 1.0, 1.0, 1.0, 1.0, 1.0]
3 [1.0, 1.0, 1.0, 1.0, 1.0, 1.0, 1.0, 1.0]
4 [1.0, 1.0, 1.0, 1.0, 1.0, 1.0, 1.0, 1.0]
5 [1.0, 1.0, 1.0, 1.0, 1.0, 1.0, 1.0, 1.0]
6 [1.0, 1.0, 1.0, 1.0, 1.0, 1.0, 1.0, 1.0]
7 [1.0, 1.0, 1.0, 1.0, 1.0, 1.0, 1.0, 1.0]
8 [1.0, 1.0, 1.0, 1.0, 1.0, 1.0, 1.0, 1.0]
9 [1.0, 1.0, 1.0, 1.0, 1.0, 1.0, 1.0, 1.0]
10 [1.0, 1.0, 1.0, 1.0, 1.0, 1.0, 1.0, 1.0]
11 [1.0, 1.0, 1.0, 1.0, 1.0, 1.0, 1.0, 1.0]
12 [1.0, 1.0, 1.0, 1.0, 1.0, 1.0, 1.0, 1.0]
13 [1.0, 1.0, 1.0, 1.0, 1.0, 1.0, 1.0, 1.0]
14 [1.0, 1.0, 1.0, 1.0, 1.0, 1.0, 1.0, 1.0]
15 [1.0, 1.0, 1.0, 1.0, 1.0, 1.0, 1.0, 1.0]
16 [1.0, 1.0, 1.0, 1.0, 1.0, 1.0, 1.0, 1.0]
17 [1.0, 1.0, 1.0, 1.0, 1.0, 1.0, 1.0, 1.0]
18 [1.0, 1.0, 1.0, 1.0, 1.0, 1.0002337, 1.094249, 1.6964109]
19 [1.6963267, 1.0942376, 1.0002337, 1.0, 1.0, 1.0001967, 1.0793481, 1.5863078]
20 [1.586847, 1.079421, 1.0001968, 1.0, 1.0, 1.0001498, 1.0604635, 1.4467688]
21 [1.4101102, 1.0555024, 1.0001376, 1.0, 1.0, 1.000104, 1.0419185, 1.3097386]
22 [1.3100486, 1.0419605, 1.000104, 1.0, 1.0, 1.0000786, 1.0316821, 1.234101]
23 [1.234101, 1.0316821, 1.0000786, 1.0, 1.0, 1.0000592, 1.023921, 1.1767533]
24 [1.1769302, 1.0239449, 1.0000594, 1.0, 1.0, 0.99996346, 0.98525, 0.8910113]
25 [0.8988487, 0.98631066, 0.9999661, 1.0, 1.0, 0.99976766, 0.9062634, 0.3073749]
26 [0.3073749, 0.9062634, 0.99976766, 1.0, 1.0, 0.9998121, 0.92420506, 0.4399469]
27 [0.5004139, 0.93238837, 0.9998324, 1.0, 1.0, 1.0000943, 1.0380417, 1.2810918]
28 [0.62173444, 0.9488073, 0.9998731, 1.0, 1.0, 1.0001147, 1.046275, 1.3419282]
29 [0.72991204, 0.9634476, 0.9999094, 1.0, 1.0, 1.0000844, 1.034078, 1.2518045]
30 [0.7960745, 0.9724017, 0.9999316, 1.0, 1.0, 1.0000639, 1.0257665, 1.1903902]
31 [0.85744107, 0.98070675, 0.9999522, 1.0, 1.0, 1.0000446, 1.0180148, 1.1331124]
32 [0.8922563, 0.9854185, 0.9999639, 1.0, 1.0, 1.0000337, 1.0136154, 1.1006047]
33 [0.91865045, 0.98899055, 0.9999727, 1.0, 1.0, 1.0000255, 1.01028, 1.0759594]
34 [0.93851733, 0.99167925, 0.9999794, 1.0, 1.0, 0.9997508, 0.8994491, 0.2570241]
35 [0.9535324, 0.9937113, 0.9999844, 1.0, 1.0, 0.9997952, 0.91736025, 0.38937014]
36 [0.96491563, 0.99525183, 0.99998826, 1.0, 1.0, 0.9998443, 0.93720067, 0.535972]
37 [0.9734838, 0.99641144, 0.9999911, 1.0, 1.0, 0.9998823, 0.952513, 0.64911544]
38 [1.0, 1.0, 1.0, 1.0, 1.0, 0.9999162, 0.96619016, 0.75017726]
39 [1.0, 1.0, 1.0, 1.0, 1.0, 1.0, 1.0, 1.0]
40 [1.0, 1.0, 1.0, 1.0, 1.0, 0.999956, 0.9822612, 0.8689269]
41 [1.0, 1.0, 1.0, 1.0, 1.0, 0.9999668, 0.9866067, 0.9010361]
42 [1.0, 1.0, 1.0, 1.0, 1.0, 0.9999749, 0.9898776, 0.9252047]
43 [1.0, 1.0, 1.0, 1.0, 1.0, 0.99998105, 0.9923496, 0.9434709]
44 [1.0, 1.0, 1.0, 1.0, 1.0, 0.9999857, 0.9942238, 0.95731896]
45 [1.0, 1.0, 1.0, 1.0, 1.0, 0.99998915, 0.9956344, 0.9677423]
46 [1.0, 1.0, 1.0, 1.0, 1.0, 0.99999183, 0.99670386, 0.9756446]
47 [1.0, 1.0, 1.0, 1.0, 1.0, 0.9999938, 0.9975088, 0.98159254]
48 [1.0, 1.0, 1.0, 1.0, 1.0, 1.0, 1.0, 1.0]
49 [1.0, 1.0, 1.0, 1.0, 1.0, 1.0, 1.0, 1.0]
