0 [0.0, 0.0, 0.0, 0.0, 0.0, 0.0, 0.0, 0.0]
1 [0.0, 0.0, 0.0, 0.0, 0.0, 0.0, 0.0, 0.0]
2 [0.0, 0.0, 0.0, 0.0, 0.0, 0.0, 0.0, 0.0]
3 [0.0, 0.0, 0.0, 0.0, 0.0, 0.0, 0.0, 0.0]
4 [0.0, 0.0, 0.0, 0.0, 0.0, 0.0, 0.0, 0.0]
5 [0.0, 0.0, 0.0, 0.0, 0.0, 0.0, 0.0, 0.0]
6 [0.0, 0.0, 0.0, 0.0, 0.0, 0.0, 0.0, 0.0]
7 [0.0, 0.0, 0.0, 0.0, 0.0, 0.0, 0.0, 0.0]
8 [0.0, 0.0, 0.0, 0.0, 0.0, 0.0, 0.0, 0.0]
9 [0.9375, 0.0625, 0.0625, 0.0625, 0.9375, 0.0, 0.0, 0.0625]
10 [0.0, 0.0, 0.0, 0.0, 0.0, 0.85714287, 0.0, 0.0]
11 [0.06666667, 0.06666667, 0.75, 0.96666664, 0.96666664, 0.0, 0.75, 0.06666667]
12 [0.021978023, 0.021978023, 0.021978023, 0.021978023, 0.989011, 0.0, 0.0, 0.021978023]
13 [0.0, 0.0, 0.75, 0.0, 0.0, 0.0, 0.75, 0.0]
14 [0.6666667, 0.6666667, 0.6666667, 0.6666667, 0.6666667, 0.0, 0.0, 0.0]
15 [0.0, 0.0, 0.0, 0.0, 0.0, 0.0, 0.0, 0.0]
16 [0.0, 0.0, 0.375, 0.875, 0.0, 0.0, 0.375, 0.0]
17 [0.0, 0.6666667, 0.6666667, 0.6666667, 0.6666667, 0.6666667, 0.0, 0.0]
18 [0.0, 0.0, 0.0, 0.875, 0.0, 0.0, 0.0, 0.875]
19 [0.0, 0.0, 0.010989011, 0.75, 0.010989011, 0.99450547, 0.010989011, 0.75]
20 [0.0, 0.0, 0.16666667, 0.16666667, 0.16666667, 0.9444444, 0.9444444, 0.0]
21 [0.0, 0.0, 0.0, 0.375, 0.375, 0.0, 0.0, 0.875]
22 [0.027777778, 0.027777778, 0.027777778, 0.027777778, 0.9722222, 0.9722222, 0.027777778, 0.027777778]
23 [0.0, 0.0, 0.0, 0.5, 0.5, 0.0, 0.0, 0.5]
24 [0.0, 0.0, 0.0, 0.0, 0.0, 0.0, 0.0, 0.0]
25 [0.125, 0.125, 0.875, 0.875, 0.875, 0.875, 0.875, 0.875]
26 [0.14285715, 0.14285715, 0.9285714, 0.9285714, 0.9285714, 0.9285714, 0.14285715, 0.375]
27 [0.0, 0.0, 0.0, 0.0, 0.0, 0.0, 0.0, 0.0]
28 [0.115384616, 0.0, 0.0, 0.5, 0.5, 0.0, 0.99450547, 0.5]
29 [0.85714287, 0.85714287, 0.85714287, 0.85714287, 0.85714287, 0.85714287, 0.85714287, 0.85714287]
30 [0.0, 0.0, 0.0, 0.0, 0.0, 0.0, 0.0, 0.0]
31 [0.0, 0.0, 0.0, 0.0, 0.0, 0.0, 0.0, 0.0]
32 [0.125, 0.125, 0.9375, 0.875, 0.9375, 0.9375, 0.125, 0.9375]
33 [0.33333334, 0.33333334, 0.6666667, 0.875, 0.6666667, 0.6666667, 0.6666667, 0.6666667]
34 [0.0, 0.0, 0.0, 0.0, 0.0, 0.0, 0.0, 0.0]
35 [0.8333333, 0.0, 0.33333334, 0.875, 0.8333333, 0.8333333, 0.8333333, 0.8333333]
36 [0.0, 0.0, 0.0, 0.0, 0.0, 0.0, 0.0, 0.0]
37 [0.0, 0.0, 0.0, 0.0, 0.0, 0.0, 0.0, 0.0]
38 [0.0, 0.0, 0.15384616, 0.9230769, 0.15384616, 0.9230769, 0.9230769, 0.75]
39 [0.0, 0.0, 0.0, 0.0, 0.0, 0.0, 0.0, 0.0]
40 [0.0, 0.0, 0.5, 0.9230769, 0.15384616, 0.9230769, 0.9230769, 0.5]
41 [0.0, 0.125, 0.9375, 0.5, 0.125, 0.125, 0.9375, 0.5]
42 [0.0, 0.0, 0.0, 0.0, 0.0, 0.0, 0.0, 0.0]
43 [0.0, 0.1, 0.5, 0.5, 0.1, 0.95, 0.95, 0.5]
44 [0.0, 0.0, 0.0, 0.0, 0.0, 0.0, 0.0, 0.0]
45 [0.0, 0.06666667, 0.93333334, 0.375, 0.06666667, 0.93333334, 0.93333334, 0.06666667]
46 [0.0, 0.14285715, 0.9285714, 0.5, 0.14285715, 0.9285714, 0.5, 0.14285715]
47 [0.0, 0.0, 0.0, 0.0, 0.0, 0.0, 0.0, 0.0]
48 [0.0, 0.055555556, 0.5, 0.5, 0.055555556, 0.9444444, 0.9444444, 0.0]
49 [0.0, 0.0, 0.0, 0.0, 0.0, 0.0, 0.0, 0.0]
