0 -1.5707963
0 -3.1415923
0 -3.1415923
0 -3.1415925
0 -3.1415927
0 3.1415925
0 3.1415925
0 1.5707964
0 1.5707976
1 -1.5707963
1 -3.1415923
1 -3.1415923
1 -3.1415925
1 -3.1415927
1 3.1415925
1 3.1415925
1 1.5707964
1 1.5707976
2 -1.5707963
2 -3.1415923
2 -3.1415923
2 -3.1415925
2 -3.1415927
2 3.1415925
2 3.1415925
2 1.5707964
2 1.5707976
3 -1.5707963
3 -3.1415923
3 -3.1415923
3 -3.1415925
3 -3.1415927
3 3.1415925
3 3.1415925
3 1.5707964
3 1.5707976
4 -1.5707963
4 -3.1415923
4 -3.1415923
4 -3.1415925
4 -3.1415927
4 3.1415925
4 3.1415925
4 1.5707964
4 1.5707976
5 -1.5707963
5 -3.1415923
5 -3.1415923
5 -3.1415925
5 -3.1415927
5 3.1415925
5 3.1415925
5 1.5707964
5 1.5707976
6 -1.5707963
6 -3.1415923
6 -3.1415923
6 -3.1415925
6 -3.1415927
6 3.1415925
6 3.1415925
6 1.5707964
6 1.5707976
7 -1.5707963
7 -3.1415923
7 -3.1415923
7 -3.1415925
7 -3.1415927
7 3.1415925
7 3.1415925
7 1.5707964
7 1.5707976
8 -1.5707963
8 -3.1415923
8 -3.1415923
8 -3.1415925
8 -3.1415927
8 3.1415925
8 3.1415925
8 1.5707964
8 1.5707976
9 -1.5707963
9 -3.1415923
9 -3.1415923
9 -3.1415925
9 -3.1415927
9 3.1415925
9 3.1415925
9 1.5707964
9 1.5707976
10 0.010348148
10 3.1414566
10 3.1414921
10 3.1415043
10 3.1415043
10 3.1414921
10 3.1414578
10 3.131294
10 1.5756432
11 -0.01326212
11 -3.1413162
11 -3.1413894
11 -3.141415
11 -3.1414163
11 -3.1413937
11 -3.141327
11 -3.1283138
11 1.5867063
12 -0.009242784
12 -3.1411607
12 -3.1412787
12 -3.1413205
12 -3.1413236
12 -3.141291
12 -3.1411936
12 -3.132348
12 1.6036191
13 -0.009767645
13 -3.1407528
13 -3.1409912
13 -3.1410756
13 -3.1410859
13 -3.141029
13 -3.140857
13 -3.1318202
13 1.6261154
14 -0.010151055
14 -3.1401765
14 -3.1405988
14 -3.1407487
14 -3.1407735
14 -3.1406915
14 -3.1404355
14 -3.1314406
14 1.6548795
15 -0.009617414
15 -3.1395524
15 -3.1401987
15 -3.1404276
15 -3.1404762
15 -3.1403806
15 -3.1400654
15 -3.1319733
15 1.6908056
16 -0.00943542
16 -3.1386418
16 -3.1396484
16 -3.1399996
16 -3.14009
16 -3.1399875
16 -3.1396134
16 -3.1321561
16 1.7346284
17 -0.008061051
17 -3.1379473
17 -3.1393042
17 -3.1397643
17 -3.1399007
17 -3.139819
17 -3.139458
17 -3.1335309
17 1.7866548
18 -0.0066570397
18 -3.1373556
18 -3.1390898
18 -3.1396506
18 -3.1398325
18 -3.139784
18 -3.139469
18 -3.1349347
18 1.8426156
19 -0.004770935
19 -3.1375642
19 -3.1393633
19 -3.1399117
19 -3.1400988
19 -3.140085
19 -3.1398594
19 -3.1368208
19 1.8933636
20 -0.003526913
20 -3.1378734
20 -3.1396596
20 -3.140171
20 -3.14035
20 -3.1403568
20 -3.1401954
20 -3.1380653
20 1.9345682
21 -0.0021352188
21 -3.1388834
21 -3.1402714
21 -3.1406436
21 -3.1407754
21 -3.14079
21 -3.1406977
21 -3.139457
21 1.9703826
22 -5.593442E-4
22 -3.1408153
22 -3.1412404
22 -3.141346
22 -3.1413834
22 -3.1413898
22 -3.1413693
22 -3.1410327
22 2.0056064
23 0.0020234445
23 3.137428
23 3.1398609
23 3.1404092
23 3.140603
23 3.140644
23 3.1405628
23 3.1395695
23 2.0395582
24 0.0021042896
24 3.136277
24 3.1395867
24 3.140257
24 3.140492
24 3.1405497
24 3.1404736
24 3.1394887
24 2.0715482
25 0.00187559
25 3.1359482
25 3.1396437
25 3.1403222
25 3.1405578
25 3.1406205
25 3.1405587
25 3.1397176
25 2.0958781
26 0.0012028182
26 3.1375625
26 3.140268
26 3.1407385
26 3.1409009
26 3.1409454
26 3.1409073
26 3.1403902
26 2.1077523
27 0.0011592654
27 3.1376708
27 3.1403093
27 3.1407661
27 3.1409233
27 3.140967
27 3.1409302
27 3.1404338
27 2.1087558
28 0.0017526296
28 3.1358852
28 3.1397035
28 3.1403723
28 3.1406033
28 3.1406667
28 3.1406116
28 3.1398404
28 2.1060534
29 0.0014372437
29 3.136938
29 3.1400406
29 3.1405885
29 3.140778
29 3.1408298
29 3.1407838
29 3.1401558
29 2.1043615
30 0.0015383282
30 3.1366394
30 3.139938
30 3.140522
30 3.1407237
30 3.1407788
30 3.1407297
30 3.1400547
30 2.1039543
31 0.0016378296
31 3.1364617
31 3.1398551
31 3.1404648
31 3.1406758
31 3.140733
31 3.1406798
31 3.1399553
31 2.100642
32 0.0016378296
32 3.1364617
32 3.1398551
32 3.1404648
32 3.1406758
32 3.140733
32 3.1406798
32 3.1399553
32 2.100642
33 0.0010268715
33 3.1383743
33 3.1404898
33 3.140875
33 3.1410084
33 3.1410441
33 3.1410098
33 3.140566
33 2.0977814
34 0.0010268715
34 3.1383743
34 3.1404898
34 3.140875
34 3.1410084
34 3.1410441
34 3.1410098
34 3.140566
34 2.0977814
35 0.0014566139
35 3.1371193
35 3.140057
35 3.140593
35 3.1407788
35 3.1408286
35 3.1407804
35 3.1401365
35 2.0973523
36 0.0014566139
36 3.1371193
36 3.140057
36 3.140593
36 3.1407788
36 3.1408286
36 3.1407804
36 3.1401365
36 2.0973523
37 0.0011480651
37 3.1380336
37 3.14037
37 3.1407964
37 3.1409442
37 3.1409838
37 3.1409457
37 3.140445
37 2.0971448
38 0.0011480651
38 3.1380336
38 3.14037
38 3.1407964
38 3.1409442
38 3.1409838
38 3.1409457
38 3.140445
38 2.0971448
39 0.0014615611
39 3.1371045
39 3.1400523
39 3.1405897
39 3.1407762
39 3.140826
39 3.1407778
39 3.1401315
39 2.0973659
40 0.0014615611
40 3.1371045
40 3.1400523
40 3.1405897
40 3.1407762
40 3.140826
40 3.1407778
40 3.1401315
40 2.0973659
41 0.0012778593
41 3.1377327
41 3.1402519
41 3.1407173
41 3.140879
41 3.1409218
41 3.1408787
41 3.1403153
41 2.0943162
42 0.0012778593
42 3.1377327
42 3.1402519
42 3.1407173
42 3.140879
42 3.1409218
42 3.1408787
42 3.1403153
42 2.0943162
43 0.0010470719
43 3.138595
43 3.140515
43 3.1408837
43 3.141012
43 3.141045
43 3.1410081
43 3.1405458
43 2.0853493
44 0.0010470719
44 3.138595
44 3.140515
44 3.1408837
44 3.141012
44 3.141045
44 3.1410081
44 3.1405458
44 2.0853493
45 8.776629E-4
45 3.139297
45 3.140723
45 3.1410131
45 3.1411147
45 3.1411395
45 3.1411064
45 3.1407154
45 2.070416
46 8.776629E-4
46 3.139297
46 3.140723
46 3.1410131
46 3.1411147
46 3.1411395
46 3.1411064
46 3.1407154
46 2.070416
47 8.6070865E-4
47 3.1396198
47 3.1407952
47 3.1410522
47 3.1411426
47 3.1411629
47 3.1411276
47 3.1407325
47 2.0496469
48 8.6070865E-4
48 3.1396198
48 3.1407952
48 3.1410522
48 3.1411426
48 3.1411629
48 3.1411276
48 3.1407325
48 2.0496469
49 0.0012656744
49 3.139185
49 3.140547
49 3.140869
49 3.140983
49 3.1410048
49 3.1409504
49 3.1403275
49 2.0230322
