0 [0.0, 0.0, 0.0, 0.0, 0.0, 0.0, 0.0, 0.0]
1 [0.0, 0.0, 0.0, 0.0, 0.0, 0.0, 0.0, 0.0]
2 [0.0, 0.0, 0.0, 0.0, 0.0, 0.0, 0.0, 0.0]
3 [0.041280225, 0.041280225, 0.025719782, 0.08328022, 0.08328022, 0.025719782, 0.025719782, 0.061280217]
4 [1.0304451, 1.0304451, 0.025565935, 0.45943406, 0.45943406, 0.025565935, 0.025565935, 0.9364341]
5 [0.99063736, 0.99063736, 0.026362639, 0.58363736, 0.58363736, 0.026362639, 0.026362639, 0.6606374]
6 [0.04063737, 0.04063737, 0.026362639, 0.083637364, 0.083637364, 0.026362639, 0.026362639, 0.060637362]
7 [0.04063737, 0.04063737, 0.026362639, 0.083637364, 0.083637364, 0.026362639, 0.026362639, 0.060637362]
8 [0.04063737, 0.04063737, 0.026362639, 0.083637364, 0.083637364, 0.026362639, 0.026362639, 0.060637362]
9 [0.18455862, 1.029003, 0.015774727, 0.46822527, 0.46822527, 0.015774727, 0.015774727, 1.7765524]
10 [0.04166484, 0.04166484, 0.025335167, 0.083664834, 0.083664834, 0.025335167, 0.025335167, 1.0506759]
11 [0.04166484, 0.04166484, 0.025335167, 0.45866483, 0.45866483, 0.025335167, 0.025335167, 0.9366648]
12 [0.7060238, 0.8736905, 0.86097616, 0.91769046, 0.08435715, 0.024642862, 0.023642864, 0.73102385]
13 [0.039357148, 0.040357146, 0.02764286, 0.08435715, 0.08435715, 0.024642862, 0.023642864, 0.06435715]
14 [0.17665386, 0.18106045, 0.9583681, 1.0137748, 0.4612033, 0.021796694, 0.019796696, 0.9382033]
15 [0.033796705, 0.038203295, 0.02979671, 0.4602033, 0.4612033, 0.021796694, 0.019796696, 0.9382033]
16 [0.03165385, 0.047653846, 0.020346161, 0.09565385, 0.09665385, 0.011346145, 0.008346148, 0.80034614]
17 [0.033906598, 0.038093407, 0.029906599, 0.08609341, 0.087093405, 0.020906584, 0.017906588, 1.0501044]
18 [0.033906598, 0.038093407, 0.029906599, 0.08609341, 0.087093405, 0.020906584, 0.017906588, 0.06109341]
19 [0.033362642, 0.038637362, 0.028362645, 0.08663736, 0.08663736, 0.021362629, 0.01836263, 0.060637366]
20 [0.04871978, 0.049719777, 0.01828023, 0.8947198, 0.89571977, 0.81228024, 0.81128025, 1.6782802]
21 [0.04871978, 0.049719777, 0.01828023, 0.09471978, 0.09571978, 0.012280213, 0.0112802135, 0.80328023]
22 [0.041423064, 0.041423064, 0.02557692, 0.45942307, 0.45942307, 0.02457692, 0.02357692, 0.93842304]
23 [0.043384615, 0.99075305, 0.02561538, 0.58338463, 1.030753, 0.028615376, 0.0296154, 1.0047531]
24 [0.043384615, 0.043384615, 0.02561538, 0.08338461, 0.08338461, 0.028615376, 0.0296154, 0.057384614]
25 [0.047791205, 0.034791205, 0.024208786, 0.083791204, 0.08179121, 0.0342088, 0.038208794, 0.051791213]
26 [0.07202931, 0.03430403, 0.10202931, 0.8343626, 1.0169708, 0.039637364, 0.06330403, 1.029696]
27 [0.055362638, 0.017637363, 0.08536264, 0.08436263, 0.03363737, 0.039637364, 0.04663736, 0.046362635]
28 [1.0352387, 0.039761297, 0.11679426, 1.0592387, 0.03598352, 0.045983512, 0.08076128, 0.7920165]
29 [0.111895606, 0.05710439, 1.0448956, 1.0398955, 0.039104395, 0.054104406, 0.10810441, 0.79710436]
30 [0.0618956, 0.0071043908, 0.0948956, 0.089895606, 0.039104395, 0.054104406, 0.058104403, 0.04710439]
31 [0.024406593, 0.09940659, 1.044775, 0.40559343, 0.046593398, 0.064593405, 0.057593413, 0.4115934]
32 [0.031494502, 0.104494505, 0.09849451, 0.036505494, 0.058505498, 0.070505485, 0.06850549, 0.025494507]
33 [0.031494502, 0.104494505, 0.09849451, 0.036505494, 0.058505498, 0.070505485, 0.06850549, 0.025494507]
34 [0.110802196, 1.0499787, 0.7721978, 0.045197792, 0.074197814, 0.07619781, 0.0621978, 0.7818022]
35 [0.110802196, 0.1088022, 0.02219779, 0.045197792, 0.074197814, 0.07619781, 0.0621978, 0.031802192]
36 [1.069304, 1.062304, 0.02707693, 0.057076924, 0.07707693, 0.08207692, 0.045076914, 0.03692308]
37 [1.0846813, 0.3966813, 0.9083187, 0.07031869, 0.084318675, 0.07931868, 0.4043187, 0.04168132]
38 [0.12468132, 0.021681316, 0.03331868, 0.07031869, 0.084318675, 0.07931868, 0.029318683, 0.04168132]
39 [1.0950886, 0.9005714, 0.41342854, 0.068428576, 0.08342856, 0.057428565, 0.39257145, 0.047571428]
40 [0.056901094, 0.027901098, 0.046098903, 0.06309891, 0.08109889, 0.04009891, 0.024901101, 0.0529011]
41 [0.056901094, 0.027901098, 0.046098903, 0.06309891, 0.08109889, 0.04009891, 0.024901101, 0.0529011]
42 [1.0259475, 0.77072525, 0.09005249, 1.0554969, 0.0990525, 0.033274718, 0.7737253, 1.1099474]
43 [0.048598897, 0.026401103, 0.060401093, 0.08440109, 0.06240109, 0.030401098, 0.020598901, 0.1335989]
44 [0.10473077, 0.53976923, 0.9972692, 0.14826924, 0.055769235, 0.5277692, 0.51723075, 1.0657308]
45 [0.04223077, 0.039769225, 0.059769228, 0.08576923, 0.055769235, 0.027769236, 0.017230768, 0.12823077]
46 [0.055514045, 0.076041505, 0.11004152, 0.092041515, 0.043263733, 0.89926374, 0.9877363, 1.0889585]
47 [0.027736269, 0.04826373, 0.082263745, 0.06426374, 0.043263733, 0.024263728, 0.11273626, 0.11673626]
48 [0.04930769, 0.060692314, 0.0506923, 0.03869231, 0.027692297, 0.10630769, 0.10930769, 0.8166923]
49 [0.045708787, 0.06429122, 0.0542912, 0.042291213, 0.031291198, 0.102708794, 0.10570879, 1.0022142]
