0 -1
1 -1
2 -1
3 -1
4 -1
5 -1
6 -1
7 -1
8 -1
9 -1
10 -1
11 -1
12 -1
13 1329384
14 1484376
15 1174875
16 1487375
17 1328754
18 1174875
19 1328754
20 1331879
21 1253754
22 1174379
23 1254384
24 1176409
25 1174379
26 1175819
27 1184375
28 1226096
29 1225347
30 1385079
31 1194694
32 1210469
33 1210324
34 1210324
35 1186854
36 1174480
37 1229846
38 1226722
39 1561875
40 1211098
41 1211098
42 1246895
43 1211099
44 1207974
45 1223624
46 1201171
47 1227472
48 1562145
49 1361221
50 -1
51 1267471
52 1486015
53 1249895
54 1345621
55 1345621
56 1249895
57 1249635
58 1234145
59 1267349
60 1234875
61 1267473
62 1267472
63 1237395
64 781350
65 843770
66 1158900
67 1172475
68 1484375
69 1172375
70 1172375
71 1484478
72 1171879
73 1172375
74 1174875
75 1174375
76 1187524
77 1174375
78 1171895
79 715745
80 1174379
81 1184475
82 1184379
83 1184379
84 1234975
85 1250500
86 1188105
87 1246879
88 1440615
89 1240627
90 1234379
91 1484975
92 1234399
93 1328725
94 1234399
95 1174375
96 1234399
97 -1
98 1174499
99 1546875
100 1093750
101 1093750
102 1093750
103 1095002
104 1156254
105 1093750
106 843754
107 1140625
108 1100003
109 1143792
110 1103128
111 1103129
112 1106254
113 850000
114 928153
115 1103125
116 1103125
117 946250
118 844350
119 946250
120 781370
121 781750
122 859379
123 862475
124 783750
125 1408750
126 700750
127 465625
128 453625
129 465625
130 453625
131 768625
132 406225
133 453745
134 403125
135 -1
136 734625
137 403725
138 734625
139 404275
140 1240125
141 796375
142 784250
143 1184375
144 1538125
145 1315000
146 1171879
147 1534375
148 1171879
149 1334379
150 1312506
151 1325004
152 1312504
153 1390625
154 1468750
155 1246875
156 1246875
157 1398125
158 1246875
159 1174875
160 1547499
161 1531274
162 744149
163 730004
164 -1
165 703425
166 765629
167 468125
168 544875
169 703125
170 1109384
171 1168856
172 1125009
173 1109377
174 1140631
175 1125002
176 1150016
177 1168767
178 1144377
179 1093774
180 1015649
181 843754
182 1078125
183 1078284
184 1100002
185 156270
186 350000
187 765745
188 390634
189 453745
190 390789
191 393725
192 766125
193 -1
194 703625
195 703125
196 431125
197 396250
198 703125
199 1174375
200 1484375
201 1199544
202 1199419
203 1199419
204 1199419
205 1199419
206 1171879
207 1484875
208 1174875
209 1484375
210 1174906
211 1408874
212 1484675
213 1481274
214 1484375
215 1562375
216 1172475
217 1484375
218 1269995
