-0.41947242617607 0.70000070333481
-0.41973686218262 0.69824993610382
-0.42027655243874 0.69247263669968
-0.42109808325768 0.6831596493721
-0.421950340271 0.67340844869614
-0.42281699180603 0.66369169950485
-0.42368763685226 0.65399467945099
-0.42456904053688 0.64430564641953
-0.42544656991959 0.63457274436951
-0.42631530761719 0.62487429380417
-0.42721143364906 0.61519002914429
-0.42810741066933 0.60552531480789
-0.42901864647865 0.59584355354309
-0.42996102571487 0.58621108531952
-0.43092355132103 0.57673311233521
-0.43195706605911 0.56736952066422
-0.4330287873745 0.55814611911774
-0.43414449691772 0.54901444911957
-0.43515402078629 0.53988993167877
-0.43608927726746 0.53070455789566
-0.43711537122726 0.52146571874619
-0.43827739357948 0.51232075691223
-0.43940073251724 0.50300699472427
-0.44044369459152 0.49374651908875
-0.44126519560814 0.48478347063065
-0.44195175170898 0.47593110799789
-0.44257926940918 0.46705660223961
-0.44316905736923 0.45816487073898
-0.44373258948326 0.44928431510925
-0.44427305459976 0.44037914276123
-0.44477421045303 0.43147563934326
-0.44524317979813 0.42251664400101
-0.44568410515785 0.41357555985451
-0.44609370827675 0.40462160110474
-0.44648885726929 0.39568084478378
-0.44686236977577 0.38671571016312
-0.44719940423965 0.37773185968399
-0.44750756025314 0.36874777078629
-0.44780403375626 0.35973611474037
-0.44798535108566 0.35152262449265
-0.44835263490677 0.34386605024338
-0.44882100820541 0.33629441261292
-0.44922789931297 0.32874149084091
-0.44946202635765 0.32056039571762
-0.44959154725075 0.31229108572006
-0.44962912797928 0.30409419536591
-0.44961413741112 0.2959586083889
-0.44954055547714 0.28775849938393
-0.44941282272339 0.2794916331768
-0.44922018051147 0.27130150794983
-0.4489726126194 0.26300638914108
-0.44864797592163 0.25472086668015
-0.44824370741844 0.24646191298962
-0.4477972984314 0.23820349574089
-0.44729575514793 0.22984933853149
-0.44669833779335 0.22154159843922
-0.44602823257446 0.21320047974586
-0.44533243775368 0.20490022003651
-0.44453883171082 0.19653968513012
-0.44368249177933 0.18816883862019
-0.44276458024979 0.17974345386028
-0.44180479645729 0.17134568095207
-0.44079023599625 0.16291260719299
-0.43972712755203 0.15442016720772
-0.43858417868614 0.14597326517105
-0.43740183115005 0.13744120299816
-0.43613082170486 0.12891063094139
-0.43481373786926 0.12036347389221
-0.43342503905296 0.11180229485035
-0.43199616670609 0.10320899635553
-0.43048763275146 0.094582431018353
-0.42894291877747 0.085948593914509
-0.42716661095619 0.076642215251923
-0.42518553137779 0.067082829773426
-0.42315301299095 0.05753343179822
-0.42111572623253 0.048009626567364
-0.4191115796566 0.0384870916605
-0.41710004210472 0.028938319534063
-0.41509300470352 0.019400261342525
-0.41309133172035 0.0098617514595389
-0.41109290719032 0.00032709568040445
-0.40909448266029 -0.009198491461575
-0.40709072351456 -0.018754905089736
-0.40508300065994 -0.028306787833571
-0.40308505296707 -0.037829842418432
-0.40107908844948 -0.047375727444887
-0.39908900856972 -0.056922387331724
-0.39707839488983 -0.066470637917519
-0.39506906270981 -0.076019749045372
-0.39305832982063 -0.085537619888783
-0.39105030894279 -0.095088958740234
-0.38904818892479 -0.10463874042034
-0.38704746961594 -0.11416520923376
-0.38504058122635 -0.12370850145817
-0.38303905725479 -0.13323879241943
-0.38103896379471 -0.1427865922451
-0.37904503941536 -0.15231920778751
-0.37704432010651 -0.16186252236366
-0.37504893541336 -0.17140141129494
-0.37303751707077 -0.18096800148487
-0.37104865908623 -0.19050624966621
-0.36906224489212 -0.20003399252892
-0.36705455183983 -0.20956894755363
-0.36505144834518 -0.21910659968853
-0.36304998397827 -0.22865632176399
-0.36104562878609 -0.23820886015892
-0.35903948545456 -0.2477271258831
-0.35704094171524 -0.2572723031044
-0.35503906011581 -0.26681342720985
-0.35302355885506 -0.27636021375656
-0.35104337334633 -0.28589150309563
-0.34905499219894 -0.29539403319359
-0.34707623720169 -0.30475395917892
-0.34514513611794 -0.31399613618851
-0.34323072433472 -0.32310479879379
-0.34135371446609 -0.33193534612656
-0.33955061435699 -0.34047275781631
-0.33777433633804 -0.34874519705772
-0.33605265617371 -0.356749355793
-0.33439037203789 -0.36452466249466
-0.3327708542347 -0.37202057242393
-0.33120542764664 -0.3793038725853
-0.32969737052917 -0.38633438944817
-0.32823830842972 -0.39313104748726
-0.32683262228966 -0.39970844984055
-0.32546299695969 -0.40608802437782
-0.32417064905167 -0.41223749518394
-0.32264080643654 -0.41971546411514
-0.32114154100418 -0.42737001180649
-0.31972849369049 -0.43487578630447
-0.31833198666573 -0.44227656722069
-0.3169866502285 -0.4495741724968
-0.31567478179932 -0.45679050683975
-0.31438502669334 -0.46391302347183
-0.3132019340992 -0.47034469246864
-0.31199964880943 -0.47629460692406
-0.31089895963669 -0.48194241523743
-0.30985766649246 -0.48723298311234
-0.3088544011116 -0.49222046136856
-0.30796366930008 -0.49682030081749
-0.30709260702133 -0.5011111497879
-0.30618923902512 -0.50514775514603
-0.30534082651138 -0.50935953855515
-0.30448538064957 -0.51345574855804
-0.30372902750969 -0.51728320121765
-0.30294904112816 -0.52099484205246
-0.3022552728653 -0.52449786663055
-0.30157923698425 -0.52780669927597
-0.30093166232109 -0.53093659877777
-0.30037486553192 -0.53536337614059
-0.30008652806282 -0.54062688350677
-0.29995322227478 -0.54567170143127
-0.29991468787193 -0.55059319734573
-0.29986158013344 -0.55537474155426
-0.29983371496201 -0.56005775928497
-0.29984122514725 -0.56464231014252
-0.29985967278481 -0.56918382644653
-0.29994487762451 -0.57358241081238
-0.30005222558975 -0.57796317338943
-0.30021652579308 -0.58218270540237
-0.30068266391754 -0.58742713928223
-0.30141970515251 -0.59304612874985
-0.30221676826477 -0.59855526685715
-0.30285170674324 -0.60332018136978
-0.30328288674355 -0.6075821518898
-0.30369931459427 -0.61173689365387
-0.30424213409424 -0.61613088846207
-0.30520468950272 -0.62127822637558
-0.30656149983406 -0.62720173597336
-0.30825251340866 -0.6331353187561
-0.30995044112206 -0.63894897699356
-0.31174299120903 -0.64472961425781
-0.31319934129715 -0.64961731433868
-0.3142129778862 -0.65399438142776
-0.31482097506523 -0.65756130218506
-0.31574267148972 -0.66193234920502
-0.31720390915871 -0.66696906089783
-0.31907725334167 -0.67214953899384
-0.32123121619225 -0.67734706401825
-0.32349047064781 -0.6824723482132
-0.32584095001221 -0.68757498264313
-0.32833284139633 -0.6926577091217
-0.33101266622543 -0.69784164428711
-0.33383893966675 -0.70298731327057
-0.33690577745438 -0.70823889970779
-0.34010872244835 -0.71348452568054
-0.34350672364235 -0.71879106760025
-0.34704992175102 -0.72406619787216
-0.35078400373459 -0.72939211130142
-0.35471725463867 -0.73472881317139
-0.35886198282242 -0.74009001255035
-0.3631831407547 -0.74548721313477
-0.36770233511925 -0.75095498561859
-0.37244489789009 -0.7564577460289
-0.3774226307869 -0.76204091310501
-0.38257068395615 -0.76767414808273
-0.38847368955612 -0.77384793758392
-0.39518177509308 -0.78050196170807
-0.40229424834251 -0.78717190027237
-0.40944314002991 -0.79376113414764
-0.41656818985939 -0.8003511428833
-0.42368394136429 -0.80702865123749
-0.43077912926674 -0.81371736526489
-0.43784636259079 -0.82038086652756
-0.44493928551674 -0.82708722352982
-0.45203417539597 -0.83377349376678
-0.45912542939186 -0.84048670530319
-0.46620941162109 -0.84717655181885
-0.47327762842178 -0.8538703918457
-0.48037868738174 -0.86055743694305
-0.4874464571476 -0.86725056171417
-0.49453616142273 -0.87393778562546
-0.50161254405975 -0.88062632083893
-0.50869232416153 -0.88733232021332
-0.51577264070511 -0.89401227235794
-0.52283650636673 -0.90070515871048
-0.52990913391113 -0.90738761425018
-0.5370027422905 -0.91408145427704
-0.544085085392 -0.9207911491394
-0.5511719584465 -0.92747926712036
-0.55825144052505 -0.93417632579803
-0.56533586978912 -0.94087994098663
-0.57244980335236 -0.94757920503616
-0.57953298091888 -0.95426797866821
-0.58661210536957 -0.96096152067184
-0.59363102912903 -0.96756142377853
-0.6005927324295 -0.9741085767746
-0.60748136043549 -0.98055946826935
-0.61431151628494 -0.986960709095
-0.62103313207626 -0.99328565597534
-0.62771505117416 -0.99953764677048
-0.63430029153824 -1.005740404129
-0.64085167646408 -1.0118720531464
-0.64730060100555 -1.0179376602173
-0.65366721153259 -1.0239641666412
-0.65998405218124 -1.0299341678619
-0.66620922088623 -1.0358449220657
-0.67240911722183 -1.0417438745499
-0.67851459980011 -1.0475976467133
-0.68455451726913 -1.0534421205521
-0.69056403636932 -1.0592669248581
-0.69645845890045 -1.0650708675385
-0.70232397317886 -1.0708305835724
-0.70783632993698 -1.0762107372284
-0.71312129497528 -1.0812923908234
-0.71819049119949 -1.0861873626709
-0.72308146953583 -1.090988278389
-0.72866582870483 -1.0966596603394
-0.73438197374344 -1.1028063297272
-0.74001210927963 -1.1090481281281
-0.74556696414948 -1.1153175830841
-0.75107020139694 -1.1215045452118
-0.75643336772919 -1.1276079416275
-0.76172864437103 -1.1336431503296
-0.7668941617012 -1.1395481824875
-0.77201008796692 -1.1454926729202
-0.77708888053894 -1.1514073610306
-0.7818683385849 -1.1571667194366
-0.78666770458221 -1.1630182266235
-0.79143649339676 -1.1689391136169
-0.7960352897644 -1.1747162342072
-0.80063998699188 -1.1806415319443
-0.8052169084549 -1.1866360902786
-0.80971604585648 -1.1926597356796
-0.81408560276031 -1.1986825466156
-0.81837731599808 -1.2047189474106
-0.82259482145309 -1.2108001708984
-0.82678616046906 -1.2170478105545
-0.8309366106987 -1.2233072519302
-0.83501875400543 -1.2296614646912
-0.83908289670944 -1.2361642122269
-0.84305334091187 -1.2427322864532
-0.84743118286133 -1.250167131424
-0.85193967819214 -1.2585055828094
-0.85639649629593 -1.2671864032745
-0.86085492372513 -1.2758724689484
-0.8652663230896 -1.2845685482025
-0.86971271038055 -1.2932512760162
-0.87416994571686 -1.3019367456436
-0.87863624095917 -1.3105881214142
-0.88309681415558 -1.319247841835
-0.88757306337357 -1.3279075622559
-0.89203584194183 -1.3365700244904
-0.89651679992676 -1.3452150821686
-0.90100783109665 -1.3538941144943
-0.90549051761627 -1.3625704050064
-0.90994894504547 -1.3712062835693
-0.91440999507904 -1.3798620700836
-0.91888570785522 -1.3885194063187
-0.92337149381638 -1.3971948623657
-0.92784643173218 -1.4058372974396
-0.93231165409088 -1.4145127534866
-0.93679845333099 -1.423162817955
-0.94125336408615 -1.4318205118179
-0.94574868679047 -1.440479516983
-0.95024842023849 -1.4491580724716
-0.9546982049942 -1.4578113555908
-0.95916450023651 -1.466460108757
-0.96357011795044 -1.4750138521194
-0.96783173084259 -1.48335313797
-0.97195470333099 -1.4914041757584
-0.97589856386185 -1.49913418293
-0.97963917255402 -1.5065243244171
-0.98323094844818 -1.5136291980743
-0.98664110898972 -1.5204437971115
-0.98994445800781 -1.5269762277603
-0.99309313297272 -1.5332610607147
-0.99612933397293 -1.5392948389053
-0.99902677536011 -1.5450761318207
-1.0018763542175 -1.5506349802017
-1.004515171051 -1.5558642148972
-1.0070526599884 -1.5608785152435
-1.0095096826553 -1.565677523613
-1.0118579864502 -1.5702060461044
-1.014092206955 -1.5745956897736
-1.0162626504898 -1.5788142681122
-1.0183417797089 -1.5828531980515
-1.0203660726547 -1.5867402553558
-1.0223408937454 -1.5904985666275
-1.024267077446 -1.5941270589828
-1.0261447429657 -1.5976595878601
-1.0280086994171 -1.6010564565659
-1.0298337936401 -1.6043317317963
-1.0316033363342 -1.6075636148453
-1.0333137512207 -1.6107002496719
-1.0349231958389 -1.6136467456818
-1.0364229679108 -1.6164404153824
-1.0378803014755 -1.6190893650055
-1.0391962528229 -1.621644616127
-1.0404058694839 -1.6240174770355
-1.041520357132 -1.6263449192047
-1.0425050258636 -1.6284713745117
-1.043403506279 -1.6305211782455
-1.0442513227463 -1.6325616836548
-1.0450630187988 -1.634498000145
-1.0458482503891 -1.6364181041718
-1.0466428995132 -1.6383041143417
-1.0474746227264 -1.6402107477188
-1.0483492612839 -1.6420797109604
-1.0492641925812 -1.6439861059189
-1.0501980781555 -1.6458669900894
-1.0512111186981 -1.6477746963501
-1.0523678064346 -1.6497166156769
-1.0536774396896 -1.6517595052719
-1.0550572872162 -1.6537628173828
-1.0565893650055 -1.6558158397675
-1.0583944320679 -1.6579389572144
-1.0603785514832 -1.6600204706192
-1.0624010562897 -1.662104010582
-1.0644768476486 -1.6641603708267
-1.0666617155075 -1.6662067174911
-1.0689928531647 -1.6682525873184
-1.0715425014496 -1.6701618432999
-1.0742690563202 -1.6721458435059
-1.0770781040192 -1.6740411520004
-1.0800275802612 -1.6759071350098
-1.0831609964371 -1.6777356863022
-1.0864585638046 -1.6794464588165
-1.0900433063507 -1.6811860799789
-1.0939166545868 -1.6828429698944
-1.0978560447693 -1.6843411922455
