0 -3.1415286
0 -3.1415925
0 -3.1415925
0 -3.1415925
0 -3.1415927
0 3.1415923
0 3.1415925
0 -6.4194304E-5
0 1.0471984
1 -3.1415286
1 -3.1415925
1 -3.1415925
1 -3.1415925
1 -3.1415927
1 3.1415923
1 3.1415925
1 -6.4194304E-5
1 1.0471984
2 -3.1415286
2 -3.1415925
2 -3.1415925
2 -3.1415925
2 -3.1415927
2 3.1415923
2 3.1415925
2 -6.4194304E-5
2 1.0471984
3 -3.1415286
3 -3.1415925
3 -3.1415925
3 -3.1415925
3 -3.1415927
3 3.1415923
3 3.1415925
3 -6.4194304E-5
3 1.0471984
4 -3.1415286
4 -3.1415925
4 -3.1415925
4 -3.1415925
4 -3.1415927
4 3.1415923
4 3.1415925
4 -6.4194304E-5
4 1.0471984
5 -3.1415286
5 -3.1415925
5 -3.1415925
5 -3.1415925
5 -3.1415927
5 3.1415923
5 3.1415925
5 -6.4194304E-5
5 1.0471984
6 -3.1415286
6 -3.1415925
6 -3.1415925
6 -3.1415925
6 -3.1415927
6 3.1415923
6 3.1415925
6 -6.4194304E-5
6 1.0471984
7 -3.1415286
7 -3.1415925
7 -3.1415925
7 -3.1415925
7 -3.1415927
7 3.1415923
7 3.1415925
7 -6.4194304E-5
7 1.0471984
8 -3.1415286
8 -3.1415925
8 -3.1415925
8 -3.1415925
8 -3.1415927
8 3.1415923
8 3.1415925
8 -6.4194304E-5
8 1.0471984
9 -3.1415286
9 -3.1415925
9 -3.1415925
9 -3.1415925
9 -3.1415927
9 3.1415923
9 3.1415925
9 -6.4194304E-5
9 1.0471984
10 -3.1415286
10 -3.1415925
10 -3.1415925
10 -3.1415925
10 -3.1415927
10 3.1415923
10 3.1415925
10 -6.4194304E-5
10 1.0471984
11 -3.1415286
11 -3.1415925
11 -3.1415925
11 -3.1415925
11 -3.1415927
11 3.1415923
11 3.1415925
11 -6.4194304E-5
11 1.0471984
12 -3.1415286
12 -3.1415925
12 -3.1415925
12 -3.1415925
12 -3.1415927
12 3.1415923
12 3.1415925
12 -6.4194304E-5
12 1.0471984
13 -3.1415286
13 -3.1415925
13 -3.1415925
13 -3.1415925
13 -3.1415927
13 3.1415923
13 3.1415925
13 -6.4194304E-5
13 1.0471984
14 -3.1415286
14 -3.1415925
14 -3.1415925
14 -3.1415925
14 -3.1415927
14 3.1415923
14 3.1415925
14 -6.4194304E-5
14 1.0471984
15 -3.1415286
15 -3.1415925
15 -3.1415925
15 -3.1415925
15 -3.1415927
15 3.1415923
15 3.1415925
15 -6.4194304E-5
15 1.0471984
16 -3.1415286
16 -3.1415925
16 -3.1415925
16 -3.1415925
16 -3.1415927
16 3.1415923
16 3.1415925
16 -6.4194304E-5
16 1.0471984
17 -3.1415286
17 -3.1415925
17 -3.1415925
17 -3.1415925
17 -3.1415927
17 3.1415923
17 3.1415925
17 -6.4194304E-5
17 1.0471984
18 -3.1415286
18 -3.1415925
18 -3.1415925
18 -3.1415925
18 -3.1415927
18 3.1415923
18 3.1415925
18 -6.4194304E-5
18 1.0471984
19 -3.1415286
19 -3.1415925
19 -3.1415925
19 -3.1415925
19 -3.1415927
19 3.1415923
19 3.1415925
19 -6.4194304E-5
19 1.0471984
20 -3.1415286
20 -3.1415925
20 -3.1415925
20 -3.1415925
20 -3.1415927
20 3.1415923
20 3.1415925
20 -6.4194304E-5
20 1.0471984
21 -3.1415286
21 -3.1415925
21 -3.1415925
21 -3.1415925
21 -3.1415927
21 3.1415923
21 3.1415925
21 -6.4194304E-5
21 1.0471984
22 -3.1415286
22 -3.1415925
22 -3.1415925
22 -3.1415925
22 -3.1415927
22 3.1415923
22 3.1415925
22 -6.4194304E-5
22 1.0471984
23 -3.1415286
23 -3.1415925
23 -3.1415925
23 -3.1415925
23 -3.1415927
23 3.1415923
23 3.1415925
23 -6.4194304E-5
23 1.0471984
24 -3.1415286
24 -3.1415925
24 -3.1415925
24 -3.1415925
24 -3.1415927
24 3.1415923
24 3.1415925
24 -6.4194304E-5
24 1.0471984
25 -3.1415286
25 -3.1415925
25 -3.1415925
25 -3.1415925
25 -3.1415927
25 3.1415923
25 3.1415925
25 -6.4194304E-5
25 1.0471984
26 -3.1415286
26 -3.1415925
26 -3.1415925
26 -3.1415925
26 -3.1415927
26 3.1415923
26 3.1415925
26 -6.4194304E-5
26 1.0471984
27 -3.1415286
27 -3.1415925
27 -3.1415925
27 -3.1415925
27 -3.1415927
27 3.1415923
27 3.1415925
27 -6.4194304E-5
27 1.0471984
28 -3.1415286
28 -3.1415925
28 -3.1415925
28 -3.1415925
28 -3.1415927
28 3.1415923
28 3.1415925
28 -6.4194304E-5
28 1.0471984
29 -3.1415286
29 -3.1415925
29 -3.1415925
29 -3.1415925
29 -3.1415927
29 3.1415923
29 3.1415925
29 -6.4194304E-5
29 1.0471984
30 -3.1415286
30 -3.1415925
30 -3.1415925
30 -3.1415925
30 -3.1415927
30 3.1415923
30 3.1415925
30 -6.4194304E-5
30 1.0471984
31 -3.1415286
31 -3.1415925
31 -3.1415925
31 -3.1415925
31 -3.1415927
31 3.1415923
31 3.1415925
31 -6.4194304E-5
31 1.0471984
32 -3.1415286
32 -3.1415925
32 -3.1415925
32 -3.1415925
32 -3.1415927
32 3.1415923
32 3.1415925
32 -6.4194304E-5
32 1.0471984
33 -3.1415286
33 -3.1415925
33 -3.1415925
33 -3.1415925
33 -3.1415927
33 3.1415923
33 3.1415925
33 -6.4194304E-5
33 1.0471984
34 -3.1415286
34 -3.1415925
34 -3.1415925
34 -3.1415925
34 -3.1415927
34 3.1415923
34 3.1415925
34 -6.4194304E-5
34 1.0471984
35 -3.1415286
35 -3.1415925
35 -3.1415925
35 -3.1415925
35 -3.1415927
35 3.1415923
35 3.1415925
35 -6.4194304E-5
35 1.0471984
36 -3.1415286
36 -3.1415925
36 -3.1415925
36 -3.1415925
36 -3.1415927
36 3.1415923
36 3.1415925
36 -6.4194304E-5
36 1.0471984
37 -3.1415286
37 -3.1415925
37 -3.1415925
37 -3.1415925
37 -3.1415927
37 3.1415923
37 3.1415925
37 -6.4194304E-5
37 1.0471984
38 -3.1415286
38 -3.1415925
38 -3.1415925
38 -3.1415925
38 -3.1415927
38 3.1415923
38 3.1415925
38 -6.4194304E-5
38 1.0471984
39 -3.1415286
39 -3.1415925
39 -3.1415925
39 -3.1415925
39 -3.1415927
39 3.1415923
39 3.1415925
39 -6.4194304E-5
39 1.0471984
40 -3.1415286
40 -3.1415925
40 -3.1415925
40 -3.1415925
40 -3.1415927
40 3.1415923
40 3.1415925
40 -6.4194304E-5
40 1.0471984
41 -3.1415286
41 -3.1415925
41 -3.1415925
41 -3.1415925
41 -3.1415927
41 3.1415923
41 3.1415925
41 -6.4194304E-5
41 1.0471984
42 -3.1415286
42 -3.1415925
42 -3.1415925
42 -3.1415925
42 -3.1415927
42 3.1415923
42 3.1415925
42 -6.4194304E-5
42 1.0471984
43 -3.1415286
43 -3.1415925
43 -3.1415925
43 -3.1415925
43 -3.1415927
43 3.1415923
43 3.1415925
43 -6.4194304E-5
43 1.0471984
44 -3.1415286
44 -3.1415925
44 -3.1415925
44 -3.1415925
44 -3.1415927
44 3.1415923
44 3.1415925
44 -6.4194304E-5
44 1.0471984
45 -3.1415286
45 -3.1415925
45 -3.1415925
45 -3.1415925
45 -3.1415927
45 3.1415923
45 3.1415925
45 -6.4194304E-5
45 1.0471984
46 -3.1415286
46 -3.1415925
46 -3.1415925
46 -3.1415925
46 -3.1415927
46 3.1415923
46 3.1415925
46 -6.4194304E-5
46 1.0471984
47 -3.1415286
47 -3.1415925
47 -3.1415925
47 -3.1415925
47 -3.1415927
47 3.1415923
47 3.1415925
47 -6.4194304E-5
47 1.0471984
48 -3.1415286
48 -3.1415925
48 -3.1415925
48 -3.1415925
48 -3.1415927
48 3.1415923
48 3.1415925
48 -6.4194304E-5
48 1.0471984
49 -3.1415286
49 -3.1415925
49 -3.1415925
49 -3.1415925
49 -3.1415927
49 3.1415923
49 3.1415925
49 -6.4194304E-5
49 1.0471984
