0 [0.0, 0.0, 0.0, 0.0, 0.0, 0.0, 0.0, 0.0]
1 [0.0, 0.0, 0.0, 0.0, 0.0, 0.0, 0.0, 0.0]
2 [0.0, 0.0, 0.0, 0.0, 0.0, 0.0, 0.0, 0.0]
3 [0.17667033, 0.06367032, 0.033329684, 0.033329684, 0.09167033, 0.03232966, 0.03132966, 0.10267033]
4 [0.1772088, 0.22687545, 0.8701245, 0.86812454, 0.9235421, 0.032791197, 0.0317912, 0.26887548]
5 [0.1772088, 0.060208786, 0.036791217, 0.03479122, 0.09020879, 0.032791197, 0.0317912, 0.10220879]
6 [0.17771429, 1.0062597, 0.091740265, 0.9968312, 1.0422597, 0.034285706, 0.030285709, 1.0602597]
7 [0.17771429, 0.051714286, 0.04628572, 0.04228572, 0.087714285, 0.034285706, 0.030285709, 0.105714284]
8 [0.17716484, 0.9538351, 0.15083517, 0.9448351, 0.9871648, 0.034835156, 0.02983516, 0.20716484]
9 [0.17716484, 0.05383516, 0.050835166, 0.04483517, 0.087164834, 0.034835156, 0.02983516, 0.10716484]
10 [0.17767033, 0.06232966, 0.056329668, 0.049329672, 0.08667033, 0.087670326, 0.02732967, 0.10967033]
11 [0.17767033, 0.06232966, 0.056329668, 0.049329672, 0.08667033, 0.087670326, 0.02732967, 0.10967033]
12 [1.0103333, 0.89633334, 0.8913333, 0.8843333, 0.9203333, 0.088, 0.027, 0.7726667]
13 [0.25946522, 0.14520146, 0.14220147, 0.13420147, 1.0593541, 0.17146519, 0.026868135, 1.076354]
14 [0.17613187, 0.061868124, 0.05886813, 0.050868135, 0.087131865, 0.08813186, 0.026868135, 0.10413187]
15 [0.17613187, 0.061868124, 0.05886813, 0.050868135, 0.087131865, 0.08813186, 0.026868135, 0.10413187]
16 [1.1141758, 0.31032416, 0.30732417, 0.04932418, 0.08767583, 0.08867583, 0.02632418, 1.0411758]
17 [0.17667583, 0.060324173, 0.057324175, 0.04932418, 0.08767583, 0.08867583, 0.02632418, 0.10367583]
18 [0.4626154, 0.3398132, 0.3378132, 0.045098912, 0.089901105, 0.94804394, 0.8822418, 0.96504396]
19 [0.17437363, 1.0265958, 0.07240416, 0.06740414, 0.119151406, 1.0028486, 0.026626376, 0.1381514]
20 [0.5648132, 0.5648132, 0.5311868, 0.5311868, 0.5928132, 0.031186813, 0.031186813, 0.6028132]
21 [0.06481319, 0.06481319, 0.031186813, 0.031186813, 0.09281319, 0.031186813, 0.031186813, 0.10281319]
22 [0.06481319, 0.06481319, 0.031186813, 0.031186813, 0.09281319, 0.031186813, 0.031186813, 0.10281319]
23 [0.0784011, 1.0279183, 0.025598908, 0.09540109, 1.0599183, 0.039598893, 0.075401105, 0.0944011]
24 [0.0784011, 0.062401105, 0.025598908, 0.09540109, 0.0944011, 0.039598893, 0.075401105, 0.0944011]
25 [0.07976373, 0.020236254, 0.025236271, 0.09476373, 0.09376373, 0.041236255, 0.07676374, 0.09276374]
26 [0.3260763, 0.019368123, 0.024368143, 0.09563186, 0.3390763, 0.04036813, 0.3210763, 1.0714097]
27 [0.08163186, 0.019368123, 0.024368143, 0.09563186, 0.094631866, 0.04036813, 0.07663187, 0.09363186]
28 [0.22213003, 0.01120329, 0.016203308, 0.103796706, 0.102796696, 0.032203294, 0.21613005, 1.7115366]
29 [0.2967326, 0.01993406, 0.024934055, 0.09606594, 0.09506594, 0.039934065, 1.0302674, 1.0773993]
30 [0.08006593, 0.01993406, 0.024934055, 0.09606594, 0.09506594, 0.039934065, 0.046934057, 0.09406594]
31 [1.045815, 0.9875183, 0.02485164, 0.49614835, 0.095148355, 0.03785165, 0.043851648, 1.061815]
32 [0.07914836, 0.020851644, 0.02485164, 0.09614835, 0.095148355, 0.03785165, 0.043851648, 0.095148355]
33 [0.078346156, 0.020653842, 0.024653839, 0.096346155, 0.09534615, 0.03765385, 0.042653844, 0.096346155]
34 [0.07687913, 1.0166264, 0.025120873, 0.17829672, 0.09587912, 0.035120886, 0.039120883, 0.1802967]
35 [0.07687913, 0.022120874, 0.025120873, 0.09587912, 0.09587912, 0.035120886, 0.039120883, 0.09787912]
36 [0.07518132, 0.05618132, 0.025818676, 0.095181316, 0.095181316, 0.03481869, 0.03781869, 0.099181324]
37 [0.07302748, 0.057027467, 0.026972525, 0.09502747, 0.09502747, 0.03297252, 0.03597254, 0.10002747]
38 [0.07302748, 0.057027467, 0.026972525, 0.09502747, 0.09502747, 0.03297252, 0.03597254, 0.10002747]
39 [0.35627288, 1.0422729, 0.026060442, 0.3802729, 0.096939564, 0.031060437, 0.033060435, 0.38627288]
40 [0.07293956, 0.05893956, 0.026060442, 0.096939564, 0.096939564, 0.031060437, 0.033060435, 0.10293955]
41 [0.07295605, 0.058956046, 0.026043957, 0.096956044, 0.096956044, 0.029043954, 0.031043952, 0.103956036]
42 [0.75393355, 1.0176609, 0.024884615, 0.7067028, 0.09911539, 0.024884615, 0.025884615, 1.0616608]
43 [0.072115384, 0.06311538, 0.024884615, 0.024884615, 0.09911539, 0.024884615, 0.025884615, 0.10711539]
44 [0.072560444, 0.06156044, 0.02443956, 0.02443956, 0.37528574, 0.023439562, 0.023439562, 1.0925715]
45 [1.0457113, 1.0307112, 0.02351099, 0.02251099, 0.10148902, 0.02251099, 0.02251099, 1.0727112]
46 [0.07348901, 0.058489013, 0.02351099, 0.02251099, 0.10148902, 0.02251099, 0.02251099, 0.10048902]
47 [0.18396702, 1.0440879, 0.021923073, 0.021923073, 0.10207692, 0.021923073, 0.021923073, 1.086088]
48 [0.07407692, 0.055076916, 0.021923073, 0.021923073, 0.10207692, 0.021923073, 0.021923073, 0.09707692]
49 [0.30900365, 1.004663, 0.021329667, 0.02032967, 0.10367032, 0.02032967, 0.02032967, 1.0790037]
