0 1.5707964
0 2.3182098E-7
0 2.4088934E-7
0 9.078623E-8
0 -0.0
0 -2.0647656E-7
0 -9.272836E-8
0 -1.5707964
0 -1.5707968
1 1.5707964
1 2.3182098E-7
1 2.4088934E-7
1 9.078623E-8
1 -0.0
1 -2.0647656E-7
1 -9.272836E-8
1 -1.5707964
1 -1.5707968
2 -3.1385598
2 -8.082718E-5
2 -5.9878083E-5
2 -5.267239E-5
2 -5.2640946E-5
2 -5.9982733E-5
2 -8.038568E-5
2 -0.0029848502
2 -1.5658439
3 -3.1385598
3 -8.082718E-5
3 -5.9878083E-5
3 -5.267239E-5
3 -5.2640946E-5
3 -5.9982733E-5
3 -8.038568E-5
3 -0.0029848502
3 -1.5658439
4 3.1341507
4 1.2802378E-4
4 9.41972E-5
4 8.2089944E-5
4 8.157403E-5
4 9.198475E-5
4 1.2297893E-4
4 0.00745722
4 -1.5550181
5 3.1341507
5 1.2802378E-4
5 9.41972E-5
5 8.2089944E-5
5 8.157403E-5
5 9.198475E-5
5 1.2297893E-4
5 0.00745722
5 -1.5550181
6 3.1306076
6 9.867743E-4
6 7.0595427E-4
6 6.063312E-4
6 5.94081E-4
6 6.6034816E-4
6 8.607369E-4
6 0.010987558
6 -1.5136994
7 3.1306076
7 9.867743E-4
7 7.0595427E-4
7 6.063312E-4
7 5.94081E-4
7 6.6034816E-4
7 8.607369E-4
7 0.010987558
7 -1.5136994
8 3.1304283
8 0.001431569
8 0.0010093059
8 8.593497E-4
8 8.3587755E-4
8 9.218942E-4
8 0.0011876826
8 0.011167788
8 -1.4929125
9 3.1304283
9 0.001431569
9 0.0010093059
9 8.593497E-4
9 8.3587755E-4
9 9.218942E-4
9 0.0011876826
9 0.011167788
9 -1.4929125
10 3.1293406
10 0.0019835897
10 0.0013811839
10 0.0011672102
10 0.0011285797
10 0.0012366496
10 0.0015787848
10 0.012254929
10 -1.4758425
11 3.1293406
11 0.0019835897
11 0.0013811839
11 0.0011672102
11 0.0011285797
11 0.0012366496
11 0.0015787848
11 0.012254929
11 -1.4758425
12 3.1292415
12 0.002398705
12 0.0016503445
12 0.0013851086
12 0.0013317433
12 0.0014507361
12 0.0018367583
12 0.012353336
12 -1.460006
13 3.1292415
13 0.002398705
13 0.0016503445
13 0.0013851086
13 0.0013317433
13 0.0014507361
13 0.0018367583
13 0.012353336
13 -1.460006
14 3.129671
14 0.002614197
14 0.0017820301
14 0.0014876777
14 0.0014243124
14 0.001544651
14 0.001943844
14 0.011923586
14 -1.4481118
15 3.129671
15 0.002614197
15 0.0017820301
15 0.0014876777
15 0.0014243124
15 0.001544651
15 0.001943844
15 0.011923586
15 -1.4481118
16 3.130876
16 0.0024305775
16 0.0016519893
16 0.0013768587
16 0.0013163694
16 0.001425671
16 0.0017906043
16 0.010718807
16 -1.4443604
17 3.130876
17 0.0024305775
17 0.0016519893
17 0.0013768587
17 0.0013163694
17 0.001425671
17 0.0017906043
17 0.010718807
17 -1.4443604
18 3.131903
18 0.0021517084
18 0.0014646442
18 0.0012217062
18 0.001168836
18 0.0012666881
18 0.0015924731
18 0.009690611
18 -1.4462205
19 3.1316102
19 0.0021369597
19 0.0014589245
19 0.0012190238
19 0.0011678502
19 0.0012673851
19 0.0015966092
19 0.00998445
19 -1.4500195
20 3.1331065
20 0.0016888506
20 0.0011589684
20 9.711988E-4
20 9.3255425E-4
20 0.0010144471
20 0.001282233
20 0.008487713
20 -1.4565375
21 3.1336157
21 0.0014527965
21 0.0010028888
21 8.4327074E-4
21 8.1206247E-4
21 8.8603847E-4
21 0.001124454
21 0.007978345
21 -1.4644344
22 3.132762
22 0.001359768
22 9.487931E-4
22 8.028823E-4
22 7.770773E-4
22 8.5248414E-4
22 0.0010900821
22 0.008832261
22 -1.478798
23 3.1344776
23 7.452356E-4
23 5.2948325E-4
23 4.5285624E-4
23 4.421344E-4
23 4.8950734E-4
23 6.3457206E-4
23 0.0071182474
23 -1.503797
24 3.1367617
24 2.1895983E-4
24 1.5893493E-4
24 1.3759558E-4
24 1.3580127E-4
24 1.5199522E-4
24 2.0074293E-4
24 0.0048386613
24 -1.5353183
25 1.569022
25 -1.22065576E-4
25 -9.0465976E-5
25 -7.970305E-5
25 -7.9778096E-5
25 -9.092357E-5
25 -1.2227359E-4
25 -1.569022
25 -1.5702369
26 -2.054004E-4
26 -6.466986E-5
26 -4.8937687E-5
26 -4.367615E-5
26 -4.428892E-5
26 -5.1259616E-5
26 -7.024466E-5
26 -3.141391
26 -1.6019965
27 -2.054004E-4
27 -6.466986E-5
27 -4.8937687E-5
27 -4.367615E-5
27 -4.428892E-5
27 -5.1259616E-5
27 -7.024466E-5
27 -3.141391
27 -1.6019965
28 0.0014257536
28 9.448257E-5
28 7.3189105E-5
28 6.5986955E-5
28 6.759967E-5
28 7.894463E-5
28 1.1166175E-4
28 3.1401649
28 -1.6426805
29 0.0014257536
29 9.448257E-5
29 7.3189105E-5
29 6.5986955E-5
29 6.759967E-5
29 7.894463E-5
29 1.1166175E-4
29 3.1401649
29 -1.6426805
30 9.871981E-4
30 6.408669E-5
30 4.9951665E-5
30 4.5224508E-5
30 4.6535766E-5
30 5.4481992E-5
30 7.772102E-5
30 3.1406043
30 -1.6537598
31 9.871981E-4
31 6.408669E-5
31 4.9951665E-5
31 4.5224508E-5
31 4.6535766E-5
31 5.4481992E-5
31 7.772102E-5
31 3.1406043
31 -1.6537598
32 -0.004083454
32 -5.49394E-4
32 -4.283414E-4
32 -3.896618E-4
32 -4.0184392E-4
32 -4.7384016E-4
32 -6.758657E-4
32 -3.137511
32 -1.6569716
33 -0.004083454
33 -5.49394E-4
33 -4.283414E-4
33 -3.896618E-4
33 -4.0184392E-4
33 -4.7384016E-4
33 -6.758657E-4
33 -3.137511
33 -1.6569716
34 -0.006549392
34 -8.38585E-4
34 -6.53315E-4
34 -5.93991E-4
34 -6.1212236E-4
34 -7.2127505E-4
34 -0.0010282075
34 -3.1350446
34 -1.6556162
35 -0.006549392
35 -8.38585E-4
35 -6.53315E-4
35 -5.93991E-4
35 -6.1212236E-4
35 -7.2127505E-4
35 -0.0010282075
35 -3.1350446
35 -1.6556162
36 -0.007938255
36 -9.7306893E-4
36 -7.5695355E-4
36 -6.8732724E-4
36 -7.075346E-4
36 -8.325883E-4
36 -0.001183995
36 -3.1336558
36 -1.6524657
37 -0.007938255
37 -9.7306893E-4
37 -7.5695355E-4
37 -6.8732724E-4
37 -7.075346E-4
37 -8.325883E-4
37 -0.001183995
37 -3.1336558
37 -1.6524657
38 -0.0086284
38 -0.0010027713
38 -7.780848E-4
38 -7.0534146E-4
38 -7.2495744E-4
38 -8.5136725E-4
38 -0.0012068163
38 -3.1329646
38 -1.6479708
39 -0.00796903
39 -8.7947916E-4
39 -6.8066595E-4
39 -6.1586767E-4
39 -6.3193066E-4
39 -7.406396E-4
39 -0.0010461753
39 -3.1336257
39 -1.6431252
40 -0.008268656
40 -8.541284E-4
40 -6.5901066E-4
40 -5.951189E-4
40 -6.0952344E-4
40 -7.1283587E-4
40 -0.0010033973
40 -3.1333263
40 -1.6379566
41 -0.008268656
41 -8.541284E-4
41 -6.5901066E-4
41 -5.951189E-4
41 -6.0952344E-4
41 -7.1283587E-4
41 -0.0010033973
41 -3.1333263
41 -1.6379566
42 -0.0030521476
42 -3.0273516E-4
42 -2.3214724E-4
42 -2.0876508E-4
42 -2.1300172E-4
42 -2.4807305E-4
42 -3.4633887E-4
42 -3.1385436
42 -1.6266873
43 -0.0030521476
43 -3.0273516E-4
43 -2.3214724E-4
43 -2.0876508E-4
43 -2.1300172E-4
43 -2.4807305E-4
43 -3.4633887E-4
43 -3.1385436
43 -1.6266873
44 -0.0011448573
44 -1.3223804E-4
44 -1.0069674E-4
44 -9.030641E-5
44 -9.193499E-5
44 -1.06747124E-4
44 -1.4799323E-4
44 -3.1404517
44 -1.6169665
45 -0.0011448573
45 -1.3223804E-4
45 -1.0069674E-4
45 -9.030641E-5
45 -9.193499E-5
45 -1.06747124E-4
45 -1.4799323E-4
45 -3.1404517
45 -1.6169665
46 0.0021134603
46 6.215801E-5
46 4.714878E-5
46 4.1864627E-5
46 4.237825E-5
46 4.8668837E-5
46 6.7476096E-5
46 3.1394768
46 -1.6079051
47 0.0021134603
47 6.215801E-5
47 4.714878E-5
47 4.1864627E-5
47 4.237825E-5
47 4.8668837E-5
47 6.7476096E-5
47 3.1394768
47 -1.6079051
48 0.0010291217
48 -2.5863471E-6
48 -2.0263537E-6
48 -1.9339107E-6
48 -2.0637447E-6
48 -2.598781E-6
48 -3.4805125E-6
48 3.1405566
48 -1.6046269
49 0.0016586223
49 1.3115254E-5
49 9.963565E-6
49 8.6919E-6
49 8.677408E-6
49 9.724131E-6
49 1.3568966E-5
49 3.1399298
49 -1.5981832
