0 [10.0, 10.0, 10.0, 10.0, 10.0, 10.0, 10.0, 10.0, 10.0, 10.0, 10.0, 10.0, 10.0, 10.0, 10.0, 10.0, 10.0, 10.0, 10.0, 10.0, 10.0, 10.0, 10.0, 10.0, 10.0, 10.0, 10.0, 10.0, 10.0, 10.0, 10.0, 10.0, 10.0, 10.0, 10.0, 10.0, 10.0, 10.0, 10.0, 10.0, 10.0, 10.0, 10.0, 10.0, 10.0, 10.0, 10.0, 10.0, 10.0, 10.0, 10.0, 10.0, 10.0, 10.0, 10.0, 10.0, 10.0, 10.0, 10.0, 10.0, 10.0, 10.0, 10.0, 10.0, 10.0, 10.0, 10.0, 10.0, 10.0, 10.0, 10.0, 10.0, 10.0, 10.0, 10.0, 10.0, 10.0, 10.0, 10.0, 10.0, 10.0, 10.0, 10.0, 10.0, 10.0, 10.0, 10.0, 10.0, 10.0, 10.0, 10.0, 10.0, 10.0, 10.0, 10.0, 10.0, 10.0, 10.0, 10.0, 10.0, 10.0, 10.0, 10.0, 10.0, 10.0, 10.0, 10.0, 10.0, 10.0, 10.0, 10.0, 10.0, 10.0, 10.0, 10.0, 10.0, 10.0, 10.0, 10.0, 10.0, 10.0, 10.0, 10.0, 10.0, 10.0, 10.0, 10.0, 10.0, 10.0, 10.0, 10.0, 10.0, 10.0, 10.0, 10.0, 10.0, 10.0, 10.0, 10.0, 10.0, 10.0, 10.0, 10.0, 10.0, 10.0, 10.0, 10.0, 10.0, 10.0, 10.0, 10.0, 10.0, 10.0, 10.0, 10.0, 10.0, 10.0, 10.0, 10.0, 10.0, 10.0, 10.0, 10.0, 10.0, 10.0, 10.0, 10.0, 10.0, 10.0, 10.0, 10.0, 10.0, 10.0, 10.0, 10.0, 10.0, 10.0, 10.0, 10.0, 10.0, 10.0, 10.0]
1 [1.03, 2.13, 2.17, 2.21, 2.25, 2.29, 2.33, 2.37, 2.41, 2.45, 2.5, 2.54, 2.59, 2.63, 2.68, 2.73, 2.78, 2.83, 2.88, 2.93, 2.98, 3.04, 3.1, 2.16, 2.16, 2.16, 2.16, 2.16, 2.16, 2.16, 2.16, 2.19, 2.23, 2.28, 2.33, 3.13, 3.13, 3.13, 3.13, 3.13, 3.13, 3.13, 3.13, 3.13, 3.13, 3.13, 3.13, 3.13, 3.13, 3.13, 3.13, 3.13, 3.13, 3.13, 3.13, 3.13, 3.13, 3.13, 3.13, 3.13, 3.13, 3.13, 3.13, 3.13, 3.13, 3.13, 3.13, 3.13, 3.13, 3.13, 3.13, 3.13, 3.13, 3.13, 3.13, 3.12, 3.12, 3.12, 3.12, 3.12, 3.12, 3.12, 3.12, 3.12, 3.12, 3.12, 3.12, 3.12, 3.12, 3.12, 3.12, 3.12, 1.88, 1.88, 1.88, 1.88, 1.88, 1.88, 1.88, 1.88, 1.88, 1.88, 1.88, 1.88, 3.12, 3.12, 3.12, 3.12, 3.12, 3.12, 3.12, 3.12, 3.12, 3.12, 3.12, 3.12, 3.12, 3.12, 3.12, 3.12, 3.12, 3.12, 3.12, 3.12, 3.12, 3.12, 3.12, 3.12, 3.12, 3.12, 3.12, 3.12, 3.12, 3.12, 3.12, 3.12, 3.12, 3.11, 3.11, 3.11, 3.11, 3.11, 3.11, 3.11, 3.11, 3.11, 3.11, 3.11, 3.11, 3.11, 3.11, 3.11, 3.11, 3.11, 3.11, 3.11, 3.11, 3.11, 3.11, 3.11, 3.11, 3.11, 3.11, 3.11, 1.94, 1.9, 1.87, 1.84, 1.8, 1.77, 1.77, 1.77, 1.77, 1.77, 1.77, 1.77, 1.77, 2.82, 2.77, 2.72, 2.67, 2.62]
2 [1.01, 1.03, 2.15, 2.18, 2.22, 2.26, 2.3, 2.34, 2.38, 2.42, 2.46, 2.51, 2.55, 2.6, 2.64, 2.69, 2.74, 2.79, 2.84, 2.89, 2.94, 2.99, 3.05, 3.1, 3.16, 2.18, 2.18, 2.18, 2.18, 2.18, 2.18, 2.18, 2.19, 2.23, 2.28, 2.33, 2.37, 3.15, 3.15, 3.15, 3.15, 3.15, 3.15, 3.15, 3.15, 3.15, 3.15, 3.14, 3.14, 3.14, 3.14, 3.14, 3.14, 3.14, 3.14, 3.14, 3.14, 3.14, 3.14, 3.14, 3.14, 3.14, 3.14, 3.14, 3.14, 3.14, 3.14, 3.13, 3.13, 3.13, 3.13, 3.13, 3.13, 3.13, 3.13, 3.13, 3.13, 3.13, 3.13, 3.13, 3.13, 3.13, 3.13, 3.13, 3.13, 3.13, 3.13, 3.13, 3.13, 3.12, 3.12, 3.12, 3.12, 1.88, 1.88, 1.88, 1.88, 1.88, 1.88, 1.88, 1.88, 1.88, 1.88, 1.88, 1.88, 1.88, 3.12, 3.12, 3.12, 3.12, 3.12, 3.11, 3.11, 3.11, 3.11, 3.11, 3.11, 3.11, 3.11, 3.11, 3.11, 3.11, 3.11, 3.11, 3.11, 3.11, 3.11, 3.11, 3.11, 3.11, 3.11, 3.11, 3.1, 3.1, 3.1, 3.1, 3.1, 3.1, 3.1, 3.1, 3.1, 3.1, 3.1, 3.1, 3.1, 3.1, 3.1, 3.1, 3.1, 3.1, 3.09, 3.09, 3.09, 3.09, 3.09, 3.09, 3.09, 3.09, 3.09, 3.09, 3.09, 3.09, 3.09, 3.09, 3.09, 1.93, 1.9, 1.86, 1.83, 1.8, 1.76, 1.76, 1.76, 1.76, 1.76, 1.76, 1.76, 1.76, 2.8, 2.75, 2.7, 2.65]
3 [0.97, 0.99, 1.01, 1.02, 1.04, 1.06, 1.08, 2.24, 2.28, 2.31, 2.35, 2.39, 2.43, 2.47, 2.51, 2.56, 2.6, 2.64, 2.69, 2.73, 2.78, 2.83, 2.88, 2.93, 2.98, 3.03, 3.09, 3.14, 3.2, 2.24, 2.24, 2.24, 2.23, 2.23, 2.23, 2.23, 2.23, 2.25, 2.29, 2.34, 2.38, 3.22, 3.21, 3.21, 3.21, 3.21, 3.21, 3.2, 3.2, 3.2, 3.2, 3.2, 3.19, 3.19, 3.19, 3.19, 3.19, 3.19, 3.18, 3.18, 3.18, 3.18, 3.18, 3.17, 3.17, 3.17, 3.17, 3.17, 3.17, 3.16, 3.16, 3.16, 3.16, 3.16, 3.16, 3.15, 3.15, 3.15, 3.15, 3.15, 3.15, 3.14, 3.14, 3.14, 3.14, 3.14, 3.14, 3.14, 3.13, 3.13, 3.13, 3.13, 3.13, 3.13, 3.12, 3.12, 3.12, 3.12, 1.88, 1.88, 1.88, 1.88, 1.88, 1.87, 1.87, 1.87, 1.87, 1.87, 1.87, 1.87, 3.1, 3.1, 3.1, 3.09, 3.09, 3.09, 3.09, 3.09, 3.09, 3.08, 3.08, 3.08, 3.08, 3.08, 3.08, 3.07, 3.07, 3.07, 3.07, 3.07, 3.07, 3.06, 3.06, 3.06, 3.06, 3.06, 3.06, 3.05, 3.05, 3.05, 3.05, 3.05, 3.04, 3.04, 3.04, 3.04, 3.04, 3.04, 3.03, 3.03, 3.03, 3.03, 3.03, 3.02, 3.02, 3.02, 3.02, 3.02, 3.01, 3.01, 3.01, 3.01, 3.0, 3.0, 3.0, 3.0, 3.0, 2.99, 2.99, 2.99, 1.87, 1.83, 1.8, 1.76, 1.73, 1.7, 1.7, 1.7, 1.69, 1.69, 1.69, 1.69]
4 [0.96, 0.97, 0.99, 1.0, 1.02, 1.04, 1.05, 1.07, 1.09, 1.11, 2.3, 2.34, 2.38, 2.42, 2.46, 2.5, 2.54, 2.58, 2.62, 2.67, 2.71, 2.76, 2.8, 2.85, 2.9, 2.95, 3.0, 3.05, 3.1, 3.16, 3.22, 3.27, 2.26, 2.26, 2.26, 2.26, 2.26, 2.25, 2.25, 2.25, 2.29, 2.34, 2.39, 2.43, 3.24, 3.24, 3.24, 3.24, 3.23, 3.23, 3.23, 3.23, 3.22, 3.22, 3.22, 3.22, 3.21, 3.21, 3.21, 3.21, 3.2, 3.2, 3.2, 3.2, 3.19, 3.19, 3.19, 3.19, 3.18, 3.18, 3.18, 3.18, 3.18, 3.17, 3.17, 3.17, 3.17, 3.16, 3.16, 3.16, 3.16, 3.16, 3.15, 3.15, 3.15, 3.15, 3.14, 3.14, 3.14, 3.14, 3.14, 3.13, 3.13, 3.13, 3.13, 3.13, 3.12, 3.12, 3.12, 3.12, 3.11, 1.88, 1.88, 1.87, 1.87, 1.87, 1.87, 1.87, 1.87, 1.87, 1.86, 1.86, 1.86, 3.09, 3.08, 3.08, 3.08, 3.08, 3.08, 3.07, 3.07, 3.07, 3.07, 3.06, 3.06, 3.06, 3.06, 3.06, 3.05, 3.05, 3.05, 3.05, 3.04, 3.04, 3.04, 3.04, 3.03, 3.03, 3.03, 3.03, 3.03, 3.02, 3.02, 3.02, 3.02, 3.01, 3.01, 3.01, 3.01, 3.0, 3.0, 3.0, 2.99, 2.99, 2.99, 2.99, 2.98, 2.98, 2.98, 2.98, 2.97, 2.97, 2.97, 2.96, 2.96, 2.96, 2.95, 2.95, 2.95, 2.95, 2.94, 2.94, 1.85, 1.81, 1.78, 1.74, 1.71, 1.68, 1.67, 1.66, 1.66, 1.66]
5 [0.94, 0.96, 0.97, 0.99, 1.0, 1.02, 1.04, 1.05, 1.07, 1.09, 1.1, 1.12, 2.34, 2.37, 2.41, 2.45, 2.49, 2.53, 2.57, 2.61, 2.66, 2.7, 2.74, 2.79, 2.84, 2.88, 2.93, 2.98, 3.03, 3.08, 3.14, 3.19, 3.25, 3.31, 2.28, 2.28, 2.28, 2.28, 2.27, 2.27, 2.27, 2.27, 2.31, 2.36, 2.4, 2.45, 3.27, 3.26, 3.26, 3.26, 3.25, 3.25, 3.25, 3.24, 3.24, 3.24, 3.23, 3.23, 3.23, 3.23, 3.22, 3.22, 3.22, 3.21, 3.21, 3.21, 3.2, 3.2, 3.2, 3.2, 3.19, 3.19, 3.19, 3.19, 3.18, 3.18, 3.18, 3.17, 3.17, 3.17, 3.17, 3.16, 3.16, 3.16, 3.16, 3.15, 3.15, 3.15, 3.14, 3.14, 3.14, 3.14, 3.13, 3.13, 3.13, 3.13, 3.12, 3.12, 3.12, 3.12, 3.11, 3.11, 3.11, 1.87, 1.87, 1.87, 1.87, 1.87, 1.86, 1.86, 1.86, 1.86, 1.86, 1.86, 1.85, 3.07, 3.07, 3.07, 3.07, 3.06, 3.06, 3.06, 3.06, 3.05, 3.05, 3.05, 3.04, 3.04, 3.04, 3.04, 3.03, 3.03, 3.03, 3.03, 3.02, 3.02, 3.02, 3.01, 3.01, 3.01, 3.01, 3.0, 3.0, 3.0, 2.99, 2.99, 2.99, 2.98, 2.98, 2.98, 2.98, 2.97, 2.97, 2.97, 2.96, 2.96, 2.96, 2.95, 2.95, 2.95, 2.94, 2.94, 2.94, 2.93, 2.93, 2.93, 2.92, 2.92, 2.91, 2.91, 2.91, 2.9, 2.9, 2.9, 1.82, 1.79, 1.75, 1.72, 1.68, 1.65, 0.0, 10.0]
6 [0.94, 0.94, 0.96, 0.97, 0.99, 1.0, 1.02, 1.04, 1.05, 1.07, 1.09, 1.1, 1.12, 2.33, 2.37, 2.41, 2.45, 2.49, 2.53, 2.57, 2.61, 2.65, 2.69, 2.74, 2.78, 2.83, 2.87, 2.92, 2.97, 3.02, 3.07, 3.12, 3.17, 3.23, 3.29, 3.34, 2.3, 2.3, 2.29, 2.29, 2.29, 2.28, 2.28, 2.29, 2.34, 2.38, 2.43, 2.47, 3.28, 3.28, 3.27, 3.27, 3.27, 3.26, 3.26, 3.26, 3.25, 3.25, 3.25, 3.24, 3.24, 3.23, 3.23, 3.23, 3.22, 3.22, 3.22, 3.21, 3.21, 3.21, 3.2, 3.2, 3.2, 3.19, 3.19, 3.19, 3.18, 3.18, 3.18, 3.17, 3.17, 3.17, 3.17, 3.16, 3.16, 3.16, 3.15, 3.15, 3.15, 3.14, 3.14, 3.14, 3.13, 3.13, 3.13, 3.13, 3.12, 3.12, 3.12, 3.11, 3.11, 3.11, 3.1, 3.1, 3.1, 1.86, 1.86, 1.86, 1.86, 1.86, 1.85, 1.85, 1.85, 1.85, 1.85, 1.85, 1.84, 3.06, 3.06, 3.05, 3.05, 3.05, 3.04, 3.04, 3.04, 3.03, 3.03, 3.03, 3.02, 3.02, 3.02, 3.01, 3.01, 3.01, 3.0, 3.0, 3.0, 2.99, 2.99, 2.99, 2.99, 2.98, 2.98, 2.97, 2.97, 2.97, 2.96, 2.96, 2.96, 2.95, 2.95, 2.95, 2.94, 2.94, 2.94, 2.93, 2.93, 2.92, 2.92, 2.92, 2.91, 2.91, 2.91, 2.9, 2.9, 2.89, 2.89, 2.88, 2.88, 2.88, 2.87, 2.87, 2.86, 2.86, 2.85, 2.85, 1.79, 1.76, 1.72, 1.69, 1.65, 1.62]
7 [0.94, 0.94, 0.95, 0.96, 0.98, 0.99, 1.01, 1.02, 1.04, 1.06, 1.07, 1.09, 1.11, 1.12, 2.34, 2.38, 2.42, 2.45, 2.49, 2.53, 2.57, 2.61, 2.65, 2.7, 2.74, 2.78, 2.83, 2.88, 2.92, 2.97, 3.02, 3.07, 3.12, 3.17, 3.23, 3.28, 3.34, 2.31, 2.3, 2.3, 2.3, 2.29, 2.29, 2.29, 2.29, 2.33, 2.37, 2.42, 2.47, 3.29, 3.29, 3.28, 3.28, 3.27, 3.27, 3.27, 3.26, 3.26, 3.25, 3.25, 3.25, 3.24, 3.24, 3.23, 3.23, 3.23, 3.22, 3.22, 3.22, 3.21, 3.21, 3.2, 3.2, 3.2, 3.19, 3.19, 3.19, 3.18, 3.18, 3.18, 3.17, 3.17, 3.17, 3.16, 3.16, 3.15, 3.15, 3.15, 3.14, 3.14, 3.14, 3.13, 3.13, 3.13, 3.12, 3.12, 3.12, 3.11, 3.11, 3.11, 3.1, 3.1, 3.1, 3.09, 3.09, 3.09, 1.85, 1.85, 1.85, 1.85, 1.85, 1.84, 1.84, 1.84, 1.84, 1.84, 1.83, 1.83, 3.04, 3.04, 3.04, 3.03, 3.03, 3.03, 3.02, 3.02, 3.02, 3.01, 3.01, 3.01, 3.0, 3.0, 3.0, 2.99, 2.99, 2.98, 2.98, 2.98, 2.97, 2.97, 2.97, 2.96, 2.96, 2.96, 2.95, 2.95, 2.94, 2.94, 2.94, 2.93, 2.93, 2.92, 2.92, 2.92, 2.91, 2.91, 2.9, 2.9, 2.9, 2.89, 2.89, 2.88, 2.88, 2.88, 2.87, 2.87, 2.86, 2.86, 2.85, 2.85, 2.84, 2.84, 2.83, 2.83, 2.82, 2.82, 2.81, 2.81, 1.75, 1.72, 1.68, 1.65]
8 [0.94, 0.94, 0.94, 0.96, 0.97, 0.99, 1.0, 1.02, 1.04, 1.05, 1.07, 1.08, 1.1, 1.12, 2.33, 2.37, 2.41, 2.44, 2.48, 2.52, 2.56, 2.6, 2.64, 2.68, 2.73, 2.77, 2.81, 2.86, 2.91, 2.95, 3.0, 3.05, 3.1, 3.16, 3.21, 3.26, 3.32, 2.3, 2.3, 2.3, 2.29, 2.29, 2.29, 2.28, 2.28, 2.31, 2.35, 2.4, 2.45, 3.29, 3.28, 3.28, 3.28, 3.27, 3.27, 3.26, 3.26, 3.25, 3.25, 3.25, 3.24, 3.24, 3.23, 3.23, 3.23, 3.22, 3.22, 3.21, 3.21, 3.21, 3.2, 3.2, 3.2, 3.19, 3.19, 3.18, 3.18, 3.18, 3.17, 3.17, 3.17, 3.16, 3.16, 3.16, 3.15, 3.15, 3.15, 3.14, 3.14, 3.13, 3.13, 3.13, 3.12, 3.12, 3.12, 3.11, 3.11, 3.11, 3.1, 3.1, 3.1, 3.09, 3.09, 3.09, 3.08, 3.08, 3.08, 1.84, 1.84, 1.84, 1.84, 1.84, 1.83, 1.83, 1.83, 1.83, 1.83, 1.82, 1.82, 3.03, 3.03, 3.02, 3.02, 3.02, 3.01, 3.01, 3.01, 3.0, 3.0, 3.0, 2.99, 2.99, 2.98, 2.98, 2.98, 2.97, 2.97, 2.97, 2.96, 2.96, 2.96, 2.95, 2.95, 2.94, 2.94, 2.94, 2.93, 2.93, 2.92, 2.92, 2.92, 2.91, 2.91, 2.9, 2.9, 2.9, 2.89, 2.89, 2.88, 2.88, 2.87, 2.87, 2.87, 2.86, 2.86, 2.85, 2.85, 2.84, 2.84, 2.83, 2.83, 2.82, 2.82, 2.81, 2.81, 2.8, 2.8, 2.79, 1.76, 1.73, 1.69, 1.66]
9 [0.94, 0.94, 0.94, 0.96, 0.97, 0.99, 1.0, 1.02, 1.04, 1.05, 1.07, 1.08, 1.1, 1.12, 2.33, 2.37, 2.41, 2.44, 2.48, 2.52, 2.56, 2.6, 2.64, 2.68, 2.73, 2.77, 2.81, 2.86, 2.91, 2.95, 3.0, 3.05, 3.1, 3.16, 3.21, 3.26, 3.32, 2.3, 2.3, 2.3, 2.29, 2.29, 2.29, 2.28, 2.28, 2.31, 2.35, 2.4, 2.45, 3.29, 3.28, 3.28, 3.28, 3.27, 3.27, 3.26, 3.26, 3.25, 3.25, 3.25, 3.24, 3.24, 3.23, 3.23, 3.23, 3.22, 3.22, 3.21, 3.21, 3.21, 3.2, 3.2, 3.2, 3.19, 3.19, 3.18, 3.18, 3.18, 3.17, 3.17, 3.17, 3.16, 3.16, 3.16, 3.15, 3.15, 3.15, 3.14, 3.14, 3.13, 3.13, 3.13, 3.12, 3.12, 3.12, 3.11, 3.11, 3.11, 3.1, 3.1, 3.1, 3.09, 3.09, 3.09, 3.08, 3.08, 3.08, 1.84, 1.84, 1.84, 1.84, 1.84, 1.83, 1.83, 1.83, 1.83, 1.83, 1.82, 1.82, 3.03, 3.03, 3.02, 3.02, 3.02, 3.01, 3.01, 3.01, 3.0, 3.0, 3.0, 2.99, 2.99, 2.98, 2.98, 2.98, 2.97, 2.97, 2.97, 2.96, 2.96, 2.96, 2.95, 2.95, 2.94, 2.94, 2.94, 2.93, 2.93, 2.92, 2.92, 2.92, 2.91, 2.91, 2.9, 2.9, 2.9, 2.89, 2.89, 2.88, 2.88, 2.87, 2.87, 2.87, 2.86, 2.86, 2.85, 2.85, 2.84, 2.84, 2.83, 2.83, 2.82, 2.82, 2.81, 2.81, 2.8, 2.8, 2.79, 1.76, 1.73, 1.69, 1.66]
10 [0.92, 0.93, 0.95, 0.96, 0.98, 0.99, 1.01, 1.02, 1.04, 1.05, 1.07, 1.09, 1.1, 2.31, 2.34, 2.38, 2.42, 2.45, 2.49, 2.53, 2.57, 2.61, 2.65, 2.7, 2.74, 2.78, 2.83, 2.88, 2.92, 2.97, 3.02, 3.07, 3.12, 3.18, 3.23, 3.29, 2.27, 2.27, 2.27, 2.27, 2.26, 2.26, 2.26, 2.25, 2.29, 2.33, 2.37, 2.42, 3.26, 3.26, 3.25, 3.25, 3.24, 3.24, 3.24, 3.23, 3.23, 3.22, 3.22, 3.22, 3.21, 3.21, 3.21, 3.2, 3.2, 3.19, 3.19, 3.19, 3.18, 3.18, 3.18, 3.17, 3.17, 3.17, 3.16, 3.16, 3.15, 3.15, 3.15, 3.14, 3.14, 3.14, 3.13, 3.13, 3.13, 3.12, 3.12, 3.12, 3.11, 3.11, 3.11, 3.1, 3.1, 3.1, 3.09, 3.09, 3.09, 3.08, 3.08, 3.08, 3.07, 3.07, 3.07, 3.06, 3.06, 3.06, 1.82, 1.82, 1.82, 1.82, 1.82, 1.82, 1.81, 1.81, 1.81, 1.81, 1.81, 1.8, 1.8, 3.01, 3.01, 3.01, 3.0, 3.0, 3.0, 2.99, 2.99, 2.99, 2.98, 2.98, 2.98, 2.97, 2.97, 2.96, 2.96, 2.96, 2.95, 2.95, 2.95, 2.94, 2.94, 2.94, 2.93, 2.93, 2.93, 2.92, 2.92, 2.91, 2.91, 2.91, 2.9, 2.9, 2.9, 2.89, 2.89, 2.88, 2.88, 2.88, 2.87, 2.87, 2.86, 2.86, 2.86, 2.85, 2.85, 2.84, 2.84, 2.83, 2.83, 2.82, 2.82, 2.82, 2.81, 2.81, 2.8, 2.8, 2.79, 2.79, 1.75, 1.72, 1.68, 1.65]
11 [0.93, 0.94, 0.96, 0.97, 0.99, 1.0, 1.02, 1.03, 1.05, 1.07, 2.23, 2.26, 2.3, 2.34, 2.37, 2.41, 2.45, 2.49, 2.53, 2.57, 2.61, 2.65, 2.7, 2.74, 2.79, 2.83, 2.88, 2.93, 2.98, 3.03, 3.08, 3.13, 3.18, 3.24, 2.24, 2.24, 2.23, 2.23, 2.23, 2.23, 2.22, 2.22, 2.25, 2.3, 2.34, 2.39, 3.22, 3.22, 3.22, 3.21, 3.21, 3.21, 3.2, 3.2, 3.2, 3.19, 3.19, 3.19, 3.18, 3.18, 3.18, 3.17, 3.17, 3.17, 3.16, 3.16, 3.16, 3.15, 3.15, 3.15, 3.14, 3.14, 3.14, 3.13, 3.13, 3.13, 3.12, 3.12, 3.12, 3.12, 3.11, 3.11, 3.11, 3.1, 3.1, 3.1, 3.1, 3.09, 3.09, 3.09, 3.08, 3.08, 3.08, 3.07, 3.07, 3.07, 3.07, 3.06, 3.06, 3.06, 3.05, 3.05, 3.05, 3.05, 3.04, 1.81, 1.81, 1.81, 1.8, 1.8, 1.8, 1.8, 1.8, 1.8, 1.79, 1.79, 1.79, 3.01, 3.0, 3.0, 3.0, 2.99, 2.99, 2.99, 2.99, 2.98, 2.98, 2.98, 2.97, 2.97, 2.97, 2.96, 2.96, 2.96, 2.96, 2.95, 2.95, 2.95, 2.94, 2.94, 2.94, 2.93, 2.93, 2.93, 2.92, 2.92, 2.92, 2.91, 2.91, 2.91, 2.9, 2.9, 2.9, 2.89, 2.89, 2.89, 2.88, 2.88, 2.88, 2.87, 2.87, 2.86, 2.86, 2.86, 2.85, 2.85, 2.85, 2.84, 2.84, 2.83, 2.83, 2.83, 2.82, 2.82, 2.81, 2.81, 2.8, 1.75, 1.72, 1.69, 1.65, 1.62]
12 [0.96, 0.97, 0.99, 1.0, 1.02, 2.13, 2.17, 2.21, 2.24, 2.28, 2.32, 2.35, 2.39, 2.43, 2.47, 2.52, 2.56, 2.6, 2.64, 2.69, 2.73, 2.78, 2.83, 2.88, 2.93, 2.98, 3.03, 3.08, 3.14, 2.17, 2.17, 2.17, 2.17, 2.17, 2.17, 2.16, 2.16, 2.19, 2.23, 2.28, 2.32, 3.15, 3.15, 3.15, 3.15, 3.15, 3.14, 3.14, 3.14, 3.14, 3.13, 3.13, 3.13, 3.13, 3.13, 3.12, 3.12, 3.12, 3.12, 3.12, 3.11, 3.11, 3.11, 3.11, 3.11, 3.1, 3.1, 3.1, 3.1, 3.1, 3.09, 3.09, 3.09, 3.09, 3.09, 3.08, 3.08, 3.08, 3.08, 3.08, 3.07, 3.07, 3.07, 3.07, 3.07, 3.07, 3.06, 3.06, 3.06, 3.06, 3.06, 3.05, 3.05, 3.05, 3.05, 3.05, 3.05, 3.04, 3.04, 3.04, 1.8, 1.8, 1.8, 1.8, 1.8, 1.8, 1.8, 1.79, 1.79, 1.79, 1.79, 1.79, 1.79, 3.01, 3.01, 3.01, 3.01, 3.01, 3.01, 3.0, 3.0, 3.0, 3.0, 3.0, 2.99, 2.99, 2.99, 2.99, 2.99, 2.98, 2.98, 2.98, 2.98, 2.98, 2.98, 2.97, 2.97, 2.97, 2.97, 2.97, 2.96, 2.96, 2.96, 2.96, 2.95, 2.95, 2.95, 2.95, 2.95, 2.94, 2.94, 2.94, 2.94, 2.93, 2.93, 2.93, 2.93, 2.93, 2.92, 2.92, 2.92, 2.92, 2.91, 2.91, 2.91, 2.91, 2.9, 2.9, 2.9, 2.9, 2.89, 2.89, 2.89, 1.8, 1.77, 1.73, 1.7, 1.67, 1.64, 1.61, 1.61, 1.6]
13 [2.09, 2.13, 2.17, 2.21, 2.24, 2.28, 2.32, 2.36, 2.41, 2.45, 2.49, 2.54, 2.58, 2.63, 2.68, 2.72, 2.77, 2.82, 2.88, 2.93, 2.98, 2.06, 2.06, 2.06, 2.06, 2.06, 2.06, 2.06, 2.06, 2.1, 2.14, 2.18, 2.23, 3.02, 3.02, 3.02, 3.02, 3.02, 3.02, 3.02, 3.02, 3.02, 3.02, 3.02, 3.02, 3.02, 3.02, 3.02, 3.02, 3.02, 3.02, 3.02, 3.02, 3.02, 3.02, 3.02, 3.02, 3.02, 3.02, 3.02, 3.02, 3.02, 3.02, 3.02, 3.02, 3.02, 3.02, 3.02, 3.02, 3.02, 3.02, 3.02, 3.02, 3.02, 3.02, 3.02, 3.02, 3.02, 3.02, 3.02, 3.02, 3.02, 3.02, 3.02, 3.02, 3.02, 3.02, 3.02, 3.02, 3.02, 3.02, 3.02, 1.78, 1.78, 1.78, 1.78, 1.78, 1.78, 1.78, 1.78, 1.78, 1.78, 1.78, 1.78, 1.78, 3.02, 3.02, 3.02, 3.02, 3.02, 3.02, 3.02, 3.02, 3.02, 3.02, 3.02, 3.02, 3.02, 3.02, 3.02, 3.02, 3.02, 3.02, 3.02, 3.02, 3.02, 3.02, 3.02, 3.02, 3.02, 3.02, 3.02, 3.02, 3.02, 3.02, 3.02, 3.02, 3.02, 3.02, 3.02, 3.02, 3.02, 3.02, 3.02, 3.02, 3.02, 3.02, 3.02, 3.02, 3.02, 3.02, 3.02, 3.02, 3.02, 3.02, 3.02, 3.02, 3.02, 3.02, 3.02, 3.02, 3.02, 3.02, 3.02, 3.02, 3.02, 1.88, 1.84, 1.81, 1.78, 1.75, 1.72, 1.69, 1.68, 1.68, 1.68, 1.68, 1.68, 1.68, 1.68, 2.67, 2.63]
14 [2.26, 2.31, 2.35, 2.4, 2.44, 2.49, 2.54, 2.58, 2.63, 2.68, 2.74, 1.9, 1.9, 1.91, 1.91, 1.91, 1.91, 1.91, 1.92, 1.94, 1.98, 2.02, 2.06, 2.11, 2.85, 2.85, 2.86, 2.86, 2.86, 2.86, 2.86, 2.87, 2.87, 2.87, 2.87, 2.88, 2.88, 2.88, 2.88, 2.88, 2.89, 2.89, 2.89, 2.89, 2.9, 2.9, 2.9, 2.9, 2.9, 2.91, 2.91, 2.91, 2.91, 2.91, 2.92, 2.92, 2.92, 2.92, 2.92, 2.93, 2.93, 2.93, 2.93, 2.93, 2.93, 2.94, 2.94, 2.94, 2.94, 2.94, 2.95, 2.95, 2.95, 2.95, 2.95, 2.96, 2.96, 2.96, 2.96, 2.96, 2.96, 2.97, 2.97, 2.97, 1.73, 1.73, 1.74, 1.74, 1.74, 1.74, 1.74, 1.74, 1.74, 1.74, 1.74, 1.75, 1.75, 3.0, 3.0, 3.0, 3.0, 3.0, 3.01, 3.01, 3.01, 3.01, 3.01, 3.02, 3.02, 3.02, 3.02, 3.02, 3.03, 3.03, 3.03, 3.03, 3.03, 3.03, 3.04, 3.04, 3.04, 3.04, 3.05, 3.05, 3.05, 3.05, 3.05, 3.06, 3.06, 3.06, 3.06, 3.06, 3.07, 3.07, 3.07, 3.07, 3.08, 3.08, 3.08, 3.08, 3.09, 3.09, 3.09, 3.09, 3.1, 3.1, 3.1, 3.1, 3.11, 3.11, 3.11, 3.11, 3.12, 3.12, 3.12, 3.12, 3.13, 3.13, 3.13, 1.93, 1.89, 1.86, 1.83, 1.8, 1.77, 1.74, 1.74, 1.74, 1.74, 1.74, 1.74, 1.75, 1.75, 2.79, 2.75, 2.7, 2.66, 2.61, 2.57, 2.53, 2.49, 2.45]
15 [2.29, 2.34, 2.38, 2.43, 2.48, 2.52, 2.57, 2.62, 2.67, 1.87, 1.87, 1.88, 1.88, 1.88, 1.88, 1.88, 1.89, 1.9, 1.94, 1.98, 2.02, 2.06, 2.82, 2.82, 2.82, 2.82, 2.83, 2.83, 2.83, 2.83, 2.84, 2.84, 2.84, 2.85, 2.85, 2.85, 2.85, 2.86, 2.86, 2.86, 2.86, 2.87, 2.87, 2.87, 2.87, 2.87, 2.88, 2.88, 2.88, 2.88, 2.89, 2.89, 2.89, 2.89, 2.9, 2.9, 2.9, 2.9, 2.9, 2.91, 2.91, 2.91, 2.91, 2.92, 2.92, 2.92, 2.92, 2.92, 2.93, 2.93, 2.93, 2.93, 2.93, 2.94, 2.94, 2.94, 2.94, 2.95, 2.95, 2.95, 2.95, 2.95, 1.72, 1.72, 1.72, 1.72, 1.72, 1.73, 1.73, 1.73, 1.73, 1.73, 1.73, 1.73, 1.73, 1.74, 2.99, 2.99, 2.99, 2.99, 2.99, 3.0, 3.0, 3.0, 3.0, 3.01, 3.01, 3.01, 3.01, 3.01, 3.02, 3.02, 3.02, 3.02, 3.03, 3.03, 3.03, 3.03, 3.04, 3.04, 3.04, 3.04, 3.04, 3.05, 3.05, 3.05, 3.05, 3.06, 3.06, 3.06, 3.06, 3.07, 3.07, 3.07, 3.07, 3.08, 3.08, 3.08, 3.09, 3.09, 3.09, 3.09, 3.1, 3.1, 3.1, 3.11, 3.11, 3.11, 3.11, 3.12, 3.12, 3.12, 3.13, 3.13, 3.13, 3.14, 3.14, 3.14, 1.93, 1.9, 1.87, 1.83, 1.8, 1.78, 1.75, 1.74, 1.74, 1.74, 1.75, 1.75, 1.75, 1.75, 2.8, 2.76, 2.71, 2.67, 2.63, 2.59, 2.55, 2.5, 2.46, 2.43]
16 [2.31, 2.35, 2.4, 2.44, 2.49, 2.54, 2.59, 2.64, 1.84, 1.84, 1.85, 1.85, 1.85, 1.85, 1.86, 1.86, 1.87, 1.91, 1.95, 1.99, 2.03, 2.79, 2.79, 2.79, 2.79, 2.8, 2.8, 2.8, 2.81, 2.81, 2.81, 2.81, 2.82, 2.82, 2.82, 2.82, 2.83, 2.83, 2.83, 2.83, 2.84, 2.84, 2.84, 2.84, 2.85, 2.85, 2.85, 2.85, 2.86, 2.86, 2.86, 2.86, 2.87, 2.87, 2.87, 2.87, 2.87, 2.88, 2.88, 2.88, 2.88, 2.89, 2.89, 2.89, 2.89, 2.9, 2.9, 2.9, 2.9, 2.9, 2.91, 2.91, 2.91, 2.91, 2.92, 2.92, 2.92, 2.92, 2.92, 2.93, 2.93, 2.93, 1.7, 1.7, 1.7, 1.7, 1.7, 1.7, 1.7, 1.7, 1.71, 1.71, 1.71, 1.71, 1.71, 2.96, 2.96, 2.97, 2.97, 2.97, 2.97, 2.97, 2.98, 2.98, 2.98, 2.98, 2.99, 2.99, 2.99, 2.99, 3.0, 3.0, 3.0, 3.0, 3.0, 3.01, 3.01, 3.01, 3.01, 3.02, 3.02, 3.02, 3.02, 3.03, 3.03, 3.03, 3.03, 3.04, 3.04, 3.04, 3.04, 3.05, 3.05, 3.05, 3.06, 3.06, 3.06, 3.06, 3.07, 3.07, 3.07, 3.08, 3.08, 3.08, 3.08, 3.09, 3.09, 3.09, 3.1, 3.1, 3.1, 3.11, 3.11, 3.11, 3.12, 3.12, 3.12, 3.13, 3.13, 1.89, 1.86, 1.83, 1.8, 1.77, 1.74, 1.72, 1.72, 1.72, 1.73, 1.73, 1.73, 1.73, 1.74, 2.75, 2.7, 2.66, 2.62, 2.58, 2.54, 2.5, 2.46, 2.42]
17 [2.3, 2.35, 2.39, 2.44, 2.49, 2.53, 2.58, 2.63, 1.83, 1.83, 1.83, 1.84, 1.84, 1.84, 1.84, 1.84, 1.87, 1.91, 1.95, 1.99, 2.03, 2.77, 2.77, 2.78, 2.78, 2.78, 2.79, 2.79, 2.79, 2.79, 2.8, 2.8, 2.8, 2.8, 2.81, 2.81, 2.81, 2.81, 2.82, 2.82, 2.82, 2.82, 2.83, 2.83, 2.83, 2.83, 2.84, 2.84, 2.84, 2.84, 2.85, 2.85, 2.85, 2.85, 2.86, 2.86, 2.86, 2.86, 2.86, 2.87, 2.87, 2.87, 2.87, 2.88, 2.88, 2.88, 2.88, 2.88, 2.89, 2.89, 2.89, 2.89, 2.89, 2.9, 2.9, 2.9, 2.9, 2.91, 2.91, 2.91, 2.91, 2.91, 1.68, 1.68, 1.68, 1.68, 1.68, 1.69, 1.69, 1.69, 1.69, 1.69, 1.69, 1.69, 1.69, 1.7, 2.95, 2.95, 2.95, 2.95, 2.96, 2.96, 2.96, 2.96, 2.96, 2.97, 2.97, 2.97, 2.97, 2.98, 2.98, 2.98, 2.98, 2.98, 2.99, 2.99, 2.99, 2.99, 3.0, 3.0, 3.0, 3.0, 3.01, 3.01, 3.01, 3.01, 3.02, 3.02, 3.02, 3.02, 3.03, 3.03, 3.03, 3.03, 3.04, 3.04, 3.04, 3.04, 3.05, 3.05, 3.05, 3.06, 3.06, 3.06, 3.06, 3.07, 3.07, 3.07, 3.08, 3.08, 3.08, 3.09, 3.09, 3.09, 3.1, 3.1, 3.1, 3.11, 3.11, 1.89, 1.86, 1.83, 1.8, 1.77, 1.74, 1.71, 1.7, 1.7, 1.71, 1.71, 1.71, 1.71, 1.71, 2.75, 2.71, 2.66, 2.62, 2.58, 2.54, 2.5, 10.0, 10.0]
18 [2.3, 2.34, 2.39, 2.43, 2.48, 2.53, 2.57, 2.62, 1.82, 1.82, 1.82, 1.82, 1.83, 1.83, 1.83, 1.83, 1.86, 1.9, 1.94, 1.98, 2.02, 2.76, 2.76, 2.77, 2.77, 2.77, 2.77, 2.78, 2.78, 2.78, 2.79, 2.79, 2.79, 2.79, 2.8, 2.8, 2.8, 2.8, 2.8, 2.81, 2.81, 2.81, 2.81, 2.82, 2.82, 2.82, 2.82, 2.83, 2.83, 2.83, 2.83, 2.83, 2.84, 2.84, 2.84, 2.84, 2.85, 2.85, 2.85, 2.85, 2.85, 2.86, 2.86, 2.86, 2.86, 2.86, 2.87, 2.87, 2.87, 2.87, 2.88, 2.88, 2.88, 2.88, 2.88, 2.89, 2.89, 2.89, 2.89, 2.89, 2.9, 2.9, 1.66, 1.66, 1.67, 1.67, 1.67, 1.67, 1.67, 1.67, 1.67, 1.67, 1.67, 1.68, 1.68, 1.68, 2.93, 2.93, 2.93, 2.93, 2.94, 2.94, 2.94, 2.94, 2.95, 2.95, 2.95, 2.95, 2.95, 2.96, 2.96, 2.96, 2.96, 2.96, 2.97, 2.97, 2.97, 2.97, 2.98, 2.98, 2.98, 2.98, 2.99, 2.99, 2.99, 2.99, 2.99, 3.0, 3.0, 3.0, 3.0, 3.01, 3.01, 3.01, 3.01, 3.02, 3.02, 3.02, 3.02, 3.03, 3.03, 3.03, 3.04, 3.04, 3.04, 3.04, 3.05, 3.05, 3.05, 3.06, 3.06, 3.06, 3.06, 3.07, 3.07, 3.07, 3.08, 3.08, 3.08, 3.09, 1.86, 1.83, 1.8, 1.77, 1.74, 1.71, 1.69, 1.68, 1.68, 1.69, 1.69, 1.69, 1.69, 1.69, 2.71, 2.67, 2.63, 2.58, 2.54, 2.5, 2.46, 2.42]
19 [2.27, 2.32, 2.36, 2.41, 2.45, 2.5, 2.55, 2.59, 1.81, 1.81, 1.81, 1.82, 1.82, 1.82, 1.82, 1.82, 1.84, 1.87, 1.91, 1.95, 1.99, 2.76, 2.76, 2.76, 2.76, 2.77, 2.77, 2.77, 2.77, 2.77, 2.78, 2.78, 2.78, 2.78, 2.79, 2.79, 2.79, 2.79, 2.79, 2.8, 2.8, 2.8, 2.8, 2.8, 2.81, 2.81, 2.81, 2.81, 2.81, 2.82, 2.82, 2.82, 2.82, 2.82, 2.83, 2.83, 2.83, 2.83, 2.83, 2.84, 2.84, 2.84, 2.84, 2.84, 2.85, 2.85, 2.85, 2.85, 2.85, 2.85, 2.86, 2.86, 2.86, 2.86, 2.86, 2.87, 2.87, 2.87, 2.87, 2.87, 2.87, 2.88, 2.88, 1.64, 1.64, 1.64, 1.65, 1.65, 1.65, 1.65, 1.65, 1.65, 1.65, 1.65, 1.65, 1.65, 1.66, 2.9, 2.91, 2.91, 2.91, 2.91, 2.91, 2.92, 2.92, 2.92, 2.92, 2.92, 2.93, 2.93, 2.93, 2.93, 2.93, 2.93, 2.94, 2.94, 2.94, 2.94, 2.94, 2.95, 2.95, 2.95, 2.95, 2.95, 2.96, 2.96, 2.96, 2.96, 2.97, 2.97, 2.97, 2.97, 2.97, 2.98, 2.98, 2.98, 2.98, 2.98, 2.99, 2.99, 2.99, 2.99, 3.0, 3.0, 3.0, 3.0, 3.01, 3.01, 3.01, 3.01, 3.02, 3.02, 3.02, 3.02, 3.03, 3.03, 3.03, 3.04, 3.04, 3.04, 3.04, 3.05, 1.82, 1.79, 1.76, 1.73, 1.7, 1.68, 1.65, 1.65, 1.65, 1.65, 1.65, 1.65, 1.66, 1.66, 2.65, 2.61, 2.56, 2.52, 2.48, 2.44]
20 [2.26, 2.3, 2.35, 2.39, 2.44, 2.48, 2.53, 2.58, 2.63, 1.81, 1.81, 1.81, 1.82, 1.82, 1.82, 1.82, 1.82, 1.86, 1.9, 1.94, 1.98, 2.02, 2.76, 2.76, 2.76, 2.76, 2.77, 2.77, 2.77, 2.77, 2.77, 2.78, 2.78, 2.78, 2.78, 2.78, 2.79, 2.79, 2.79, 2.79, 2.79, 2.8, 2.8, 2.8, 2.8, 2.8, 2.81, 2.81, 2.81, 2.81, 2.81, 2.82, 2.82, 2.82, 2.82, 2.82, 2.82, 2.83, 2.83, 2.83, 2.83, 2.83, 2.83, 2.84, 2.84, 2.84, 2.84, 2.84, 2.84, 2.85, 2.85, 2.85, 2.85, 2.85, 2.86, 2.86, 2.86, 2.86, 2.86, 2.86, 2.87, 2.87, 2.87, 2.87, 1.63, 1.63, 1.64, 1.64, 1.64, 1.64, 1.64, 1.64, 1.64, 1.64, 1.64, 1.64, 1.65, 1.65, 2.9, 2.9, 2.9, 2.9, 2.9, 2.9, 2.91, 2.91, 2.91, 2.91, 2.91, 2.91, 2.92, 2.92, 2.92, 2.92, 2.92, 2.92, 2.93, 2.93, 2.93, 2.93, 2.93, 2.94, 2.94, 2.94, 2.94, 2.94, 2.95, 2.95, 2.95, 2.95, 2.95, 2.95, 2.96, 2.96, 2.96, 2.96, 2.97, 2.97, 2.97, 2.97, 2.97, 2.98, 2.98, 2.98, 2.98, 2.98, 2.99, 2.99, 2.99, 2.99, 3.0, 3.0, 3.0, 3.0, 3.01, 3.01, 3.01, 3.01, 3.02, 3.02, 3.02, 3.02, 3.03, 1.8, 1.77, 1.74, 1.71, 1.68, 1.66, 1.63, 1.63, 1.63, 1.63, 1.64, 1.64, 1.64, 1.64, 2.62, 2.58, 2.53, 2.49, 2.45]
21 [2.23, 2.28, 2.32, 2.36, 2.41, 2.45, 2.5, 2.54, 2.59, 1.8, 1.8, 1.8, 1.8, 1.81, 1.81, 1.81, 1.81, 1.83, 1.87, 1.9, 1.94, 1.98, 2.75, 2.75, 2.75, 2.76, 2.76, 2.76, 2.76, 2.76, 2.76, 2.77, 2.77, 2.77, 2.77, 2.77, 2.77, 2.78, 2.78, 2.78, 2.78, 2.78, 2.78, 2.79, 2.79, 2.79, 2.79, 2.79, 2.79, 2.8, 2.8, 2.8, 2.8, 2.8, 2.8, 2.8, 2.81, 2.81, 2.81, 2.81, 2.81, 2.81, 2.81, 2.82, 2.82, 2.82, 2.82, 2.82, 2.82, 2.82, 2.83, 2.83, 2.83, 2.83, 2.83, 2.83, 2.83, 2.84, 2.84, 2.84, 2.84, 2.84, 2.84, 2.84, 2.84, 1.61, 1.61, 1.61, 1.61, 1.61, 1.61, 1.61, 1.61, 1.61, 1.61, 1.62, 1.62, 1.62, 1.62, 2.87, 2.87, 2.87, 2.87, 2.87, 2.87, 2.87, 2.88, 2.88, 2.88, 2.88, 2.88, 2.88, 2.88, 2.89, 2.89, 2.89, 2.89, 2.89, 2.89, 2.89, 2.9, 2.9, 2.9, 2.9, 2.9, 2.9, 2.91, 2.91, 2.91, 2.91, 2.91, 2.91, 2.91, 2.92, 2.92, 2.92, 2.92, 2.92, 2.92, 2.93, 2.93, 2.93, 2.93, 2.93, 2.94, 2.94, 2.94, 2.94, 2.94, 2.94, 2.95, 2.95, 2.95, 2.95, 2.95, 2.96, 2.96, 2.96, 2.96, 2.96, 2.97, 2.97, 2.97, 2.97, 2.98, 1.76, 1.73, 1.7, 1.68, 1.65, 1.62, 1.59, 1.59, 1.59, 1.59, 1.59, 1.59, 1.6, 1.6, 2.56, 2.52, 2.48]
22 [2.21, 2.25, 2.29, 2.33, 2.38, 2.42, 2.47, 2.51, 2.56, 2.61, 1.8, 1.81, 1.81, 1.81, 1.81, 1.81, 1.81, 1.81, 1.84, 1.88, 1.91, 1.95, 1.99, 2.76, 2.76, 2.76, 2.76, 2.76, 2.76, 2.77, 2.77, 2.77, 2.77, 2.77, 2.77, 2.77, 2.78, 2.78, 2.78, 2.78, 2.78, 2.78, 2.78, 2.79, 2.79, 2.79, 2.79, 2.79, 2.79, 2.79, 2.79, 2.8, 2.8, 2.8, 2.8, 2.8, 2.8, 2.8, 2.8, 2.81, 2.81, 2.81, 2.81, 2.81, 2.81, 2.81, 2.81, 2.81, 2.82, 2.82, 2.82, 2.82, 2.82, 2.82, 2.82, 2.82, 2.82, 2.83, 2.83, 2.83, 2.83, 2.83, 2.83, 2.83, 2.83, 2.84, 1.6, 1.6, 1.6, 1.6, 1.6, 1.6, 1.6, 1.6, 1.6, 1.6, 1.6, 1.6, 1.6, 1.61, 2.85, 2.85, 2.85, 2.86, 2.86, 2.86, 2.86, 2.86, 2.86, 2.86, 2.86, 2.86, 2.87, 2.87, 2.87, 2.87, 2.87, 2.87, 2.87, 2.87, 2.88, 2.88, 2.88, 2.88, 2.88, 2.88, 2.88, 2.88, 2.89, 2.89, 2.89, 2.89, 2.89, 2.89, 2.89, 2.9, 2.9, 2.9, 2.9, 2.9, 2.9, 2.9, 2.9, 2.91, 2.91, 2.91, 2.91, 2.91, 2.91, 2.92, 2.92, 2.92, 2.92, 2.92, 2.92, 2.92, 2.93, 2.93, 2.93, 2.93, 2.93, 2.94, 2.94, 2.94, 2.94, 2.94, 1.75, 1.72, 1.69, 1.67, 1.64, 1.61, 1.58, 1.56, 1.56, 1.57, 1.57, 1.57, 1.57, 1.57, 1.57, 2.5]
23 [2.19, 2.23, 2.27, 2.31, 2.35, 2.4, 2.44, 2.49, 2.53, 2.58, 1.8, 1.8, 1.8, 1.8, 1.8, 1.8, 1.8, 1.8, 1.82, 1.85, 1.89, 1.93, 1.96, 2.75, 2.75, 2.75, 2.75, 2.76, 2.76, 2.76, 2.76, 2.76, 2.76, 2.76, 2.76, 2.77, 2.77, 2.77, 2.77, 2.77, 2.77, 2.77, 2.77, 2.77, 2.77, 2.78, 2.78, 2.78, 2.78, 2.78, 2.78, 2.78, 2.78, 2.78, 2.78, 2.79, 2.79, 2.79, 2.79, 2.79, 2.79, 2.79, 2.79, 2.79, 2.79, 2.8, 2.8, 2.8, 2.8, 2.8, 2.8, 2.8, 2.8, 2.8, 2.8, 2.8, 2.81, 2.81, 2.81, 2.81, 2.81, 2.81, 2.81, 2.81, 2.81, 2.81, 2.81, 1.58, 1.58, 1.58, 1.58, 1.58, 1.58, 1.58, 1.58, 1.58, 1.58, 1.58, 1.58, 1.58, 1.58, 1.58, 2.83, 2.83, 2.83, 2.83, 2.83, 2.83, 2.83, 2.83, 2.84, 2.84, 2.84, 2.84, 2.84, 2.84, 2.84, 2.84, 2.84, 2.84, 2.85, 2.85, 2.85, 2.85, 2.85, 2.85, 2.85, 2.85, 2.85, 2.85, 2.86, 2.86, 2.86, 2.86, 2.86, 2.86, 2.86, 2.86, 2.86, 2.87, 2.87, 2.87, 2.87, 2.87, 2.87, 2.87, 2.87, 2.87, 2.88, 2.88, 2.88, 2.88, 2.88, 2.88, 2.88, 2.88, 2.89, 2.89, 2.89, 2.89, 2.89, 2.89, 2.89, 2.9, 2.9, 2.9, 2.9, 2.9, 1.71, 1.68, 1.65, 1.63, 1.6, 1.57, 1.55, 1.53, 1.53, 1.53, 1.53, 1.53, 1.53, 1.53]
24 [2.17, 2.21, 2.25, 2.29, 2.33, 2.37, 2.41, 2.46, 2.5, 2.55, 2.6, 1.79, 1.79, 1.79, 1.79, 1.79, 1.79, 1.79, 1.79, 1.83, 1.86, 1.9, 1.93, 1.97, 2.75, 2.75, 2.75, 2.75, 2.75, 2.75, 2.75, 2.75, 2.75, 2.75, 2.75, 2.76, 2.76, 2.76, 2.76, 2.76, 2.76, 2.76, 2.76, 2.76, 2.76, 2.76, 2.76, 2.76, 2.77, 2.77, 2.77, 2.77, 2.77, 2.77, 2.77, 2.77, 2.77, 2.77, 2.77, 2.77, 2.77, 2.77, 2.78, 2.78, 2.78, 2.78, 2.78, 2.78, 2.78, 2.78, 2.78, 2.78, 2.78, 2.78, 2.78, 2.78, 2.78, 2.79, 2.79, 2.79, 2.79, 2.79, 2.79, 2.79, 2.79, 2.79, 2.79, 2.79, 1.55, 1.55, 1.55, 1.55, 1.55, 1.55, 1.55, 1.55, 1.56, 1.56, 1.56, 1.56, 1.56, 1.56, 1.56, 2.8, 2.8, 2.8, 2.8, 2.8, 2.81, 2.81, 2.81, 2.81, 2.81, 2.81, 2.81, 2.81, 2.81, 2.81, 2.81, 2.81, 2.81, 2.81, 2.82, 2.82, 2.82, 2.82, 2.82, 2.82, 2.82, 2.82, 2.82, 2.82, 2.82, 2.82, 2.82, 2.82, 2.83, 2.83, 2.83, 2.83, 2.83, 2.83, 2.83, 2.83, 2.83, 2.83, 2.83, 2.83, 2.84, 2.84, 2.84, 2.84, 2.84, 2.84, 2.84, 2.84, 2.84, 2.84, 2.84, 2.85, 2.85, 2.85, 2.85, 2.85, 2.85, 2.85, 2.85, 2.85, 2.85, 2.86, 1.67, 1.64, 1.62, 1.59, 1.56, 1.54, 1.51, 1.49, 1.49, 1.49, 1.49, 1.49]
25 [2.15, 2.19, 2.23, 2.27, 2.31, 2.36, 2.4, 2.44, 2.49, 2.53, 2.58, 1.78, 1.78, 1.78, 1.78, 1.78, 1.78, 1.78, 1.78, 1.81, 1.85, 1.88, 1.92, 1.96, 2.74, 2.74, 2.74, 2.74, 2.74, 2.74, 2.74, 2.74, 2.75, 2.75, 2.75, 2.75, 2.75, 2.75, 2.75, 2.75, 2.75, 2.75, 2.75, 2.75, 2.75, 2.75, 2.75, 2.75, 2.75, 2.76, 2.76, 2.76, 2.76, 2.76, 2.76, 2.76, 2.76, 2.76, 2.76, 2.76, 2.76, 2.76, 2.76, 2.76, 2.76, 2.76, 2.76, 2.77, 2.77, 2.77, 2.77, 2.77, 2.77, 2.77, 2.77, 2.77, 2.77, 2.77, 2.77, 2.77, 2.77, 2.77, 2.77, 2.77, 2.77, 2.77, 2.78, 2.78, 2.78, 1.54, 1.54, 1.54, 1.54, 1.54, 1.54, 1.54, 1.54, 1.54, 1.54, 1.54, 1.54, 1.54, 1.54, 1.54, 2.78, 2.78, 2.79, 2.79, 2.79, 2.79, 2.79, 2.79, 2.79, 2.79, 2.79, 2.79, 2.79, 2.79, 2.79, 2.79, 2.79, 2.79, 2.79, 2.79, 2.79, 2.8, 2.8, 2.8, 2.8, 2.8, 2.8, 2.8, 2.8, 2.8, 2.8, 2.8, 2.8, 2.8, 2.8, 2.8, 2.8, 2.8, 2.81, 2.81, 2.81, 2.81, 2.81, 2.81, 2.81, 2.81, 2.81, 2.81, 2.81, 2.81, 2.81, 2.81, 2.82, 2.82, 2.82, 2.82, 2.82, 2.82, 2.82, 2.82, 2.82, 2.82, 2.82, 2.82, 2.82, 2.83, 2.83, 1.65, 1.63, 1.6, 1.57, 1.54, 1.52, 1.49, 1.47, 1.47, 1.47, 1.47]
26 [2.11, 2.15, 2.19, 2.23, 2.27, 2.31, 2.35, 2.39, 2.43, 2.48, 2.52, 2.56, 1.77, 1.77, 1.77, 1.77, 1.77, 1.77, 1.77, 1.77, 1.8, 1.83, 1.86, 1.9, 1.94, 2.74, 2.74, 2.74, 2.74, 2.74, 2.74, 2.74, 2.74, 2.74, 2.74, 2.74, 2.74, 2.74, 2.74, 2.74, 2.74, 2.74, 2.74, 2.74, 2.74, 2.74, 2.74, 2.74, 2.74, 2.74, 2.74, 2.74, 2.74, 2.74, 2.74, 2.74, 2.74, 2.74, 2.74, 2.74, 2.74, 2.74, 2.74, 2.74, 2.74, 2.74, 2.74, 2.74, 2.74, 2.74, 2.74, 2.74, 2.74, 2.74, 2.74, 2.74, 2.74, 2.74, 2.74, 2.74, 2.74, 2.74, 2.74, 2.74, 2.74, 2.74, 2.74, 2.74, 2.74, 2.74, 2.74, 1.5, 1.5, 1.5, 1.5, 1.5, 1.5, 1.5, 1.5, 1.5, 1.5, 1.5, 1.5, 1.5, 1.5, 1.5, 2.74, 2.74, 2.74, 2.74, 2.74, 2.74, 2.74, 2.74, 2.74, 2.74, 2.74, 2.74, 2.74, 2.74, 2.74, 2.74, 2.74, 2.74, 2.74, 2.74, 2.74, 2.74, 2.74, 2.74, 2.74, 2.74, 2.74, 2.74, 2.74, 2.74, 2.74, 2.74, 2.74, 2.74, 2.74, 2.74, 2.74, 2.74, 2.74, 2.74, 2.74, 2.74, 2.74, 2.74, 2.74, 2.74, 2.74, 2.74, 2.74, 2.74, 2.74, 2.74, 2.75, 2.75, 2.75, 2.75, 2.75, 2.75, 2.75, 2.75, 2.75, 2.75, 2.75, 2.75, 2.75, 2.75, 2.75, 2.75, 1.6, 1.58, 1.55, 1.52, 1.5, 1.47, 1.45, 1.42]
27 [2.1, 2.14, 2.18, 2.22, 2.26, 2.3, 2.34, 2.38, 2.42, 2.46, 2.51, 1.74, 1.74, 1.74, 1.74, 1.74, 1.74, 1.74, 1.74, 1.75, 1.78, 1.82, 1.85, 1.89, 1.92, 2.71, 2.71, 2.71, 2.71, 2.71, 2.71, 2.71, 2.71, 2.71, 2.71, 2.71, 2.71, 2.71, 2.71, 2.71, 2.71, 2.71, 2.71, 2.71, 2.71, 2.71, 2.71, 2.71, 2.71, 2.71, 2.71, 2.71, 2.71, 2.71, 2.71, 2.71, 2.71, 2.71, 2.71, 2.71, 2.71, 2.71, 2.71, 2.71, 2.71, 2.71, 2.71, 2.71, 2.71, 2.71, 2.7, 2.7, 2.7, 2.7, 2.7, 2.7, 2.7, 2.7, 2.7, 2.7, 2.7, 2.7, 2.7, 2.7, 2.7, 2.7, 2.7, 2.7, 2.7, 2.7, 2.7, 2.7, 1.46, 1.46, 1.46, 1.46, 1.46, 1.46, 1.46, 1.46, 1.46, 1.46, 1.46, 1.46, 1.46, 1.46, 1.46, 2.7, 2.7, 2.7, 2.7, 2.7, 2.7, 2.7, 2.7, 2.7, 2.7, 2.7, 2.7, 2.7, 2.7, 2.7, 2.7, 2.7, 2.7, 2.7, 2.7, 2.7, 2.7, 2.7, 2.7, 2.7, 2.7, 2.7, 2.7, 2.7, 2.7, 2.7, 2.7, 2.7, 2.7, 2.7, 2.7, 2.7, 2.7, 2.7, 2.7, 2.7, 2.7, 2.7, 2.7, 2.7, 2.7, 2.7, 2.7, 2.7, 2.7, 2.7, 2.7, 2.7, 2.7, 2.7, 2.7, 2.7, 2.7, 2.7, 2.7, 2.7, 2.7, 2.7, 2.7, 2.7, 2.7, 2.7, 2.7, 2.7, 1.56, 1.53, 1.5, 1.48, 1.45, 1.43]
28 [2.11, 2.14, 2.18, 2.22, 2.26, 2.3, 2.34, 2.38, 2.42, 2.46, 1.7, 1.7, 1.7, 1.7, 1.7, 1.7, 1.7, 1.7, 1.72, 1.75, 1.79, 1.82, 1.85, 1.89, 2.67, 2.67, 2.67, 2.67, 2.67, 2.67, 2.67, 2.67, 2.67, 2.67, 2.67, 2.67, 2.67, 2.67, 2.67, 2.67, 2.67, 2.67, 2.67, 2.67, 2.67, 2.67, 2.67, 2.67, 2.67, 2.67, 2.66, 2.66, 2.66, 2.66, 2.66, 2.66, 2.66, 2.66, 2.66, 2.66, 2.66, 2.66, 2.66, 2.66, 2.66, 2.66, 2.66, 2.66, 2.66, 2.66, 2.66, 2.66, 2.66, 2.66, 2.66, 2.66, 2.66, 2.66, 2.66, 2.66, 2.66, 2.66, 2.66, 2.66, 2.66, 2.66, 2.66, 2.66, 2.66, 2.66, 2.66, 2.66, 1.42, 1.42, 1.42, 1.42, 1.42, 1.42, 1.42, 1.42, 1.42, 1.42, 1.42, 1.42, 1.42, 1.42, 1.42, 1.42, 2.66, 2.66, 2.66, 2.66, 2.66, 2.66, 2.66, 2.66, 2.66, 2.66, 2.66, 2.66, 2.66, 2.66, 2.66, 2.66, 2.66, 2.66, 2.66, 2.66, 2.66, 2.66, 2.66, 2.66, 2.66, 2.66, 2.66, 2.66, 2.66, 2.66, 2.66, 2.66, 2.66, 2.66, 2.66, 2.66, 2.66, 2.66, 2.66, 2.66, 2.66, 2.66, 2.66, 2.66, 2.66, 2.66, 2.66, 2.66, 2.66, 2.66, 2.66, 2.66, 2.66, 2.66, 2.66, 2.66, 2.66, 2.66, 2.66, 2.66, 2.66, 2.66, 2.66, 2.66, 2.66, 2.66, 2.66, 2.66, 2.66, 2.66, 1.5, 1.48, 1.45, 1.43]
29 [2.11, 2.14, 2.18, 2.22, 2.26, 2.3, 2.34, 2.38, 1.66, 1.66, 1.66, 1.66, 1.66, 1.66, 1.66, 1.66, 1.66, 1.69, 1.72, 1.75, 1.79, 1.82, 1.85, 2.63, 2.63, 2.63, 2.63, 2.63, 2.63, 2.63, 2.63, 2.63, 2.63, 2.63, 2.63, 2.63, 2.63, 2.63, 2.63, 2.63, 2.63, 2.63, 2.63, 2.63, 2.62, 2.62, 2.62, 2.62, 2.62, 2.62, 2.62, 2.62, 2.62, 2.62, 2.62, 2.62, 2.62, 2.62, 2.62, 2.62, 2.62, 2.62, 2.62, 2.62, 2.62, 2.62, 2.62, 2.62, 2.62, 2.62, 2.62, 2.62, 2.62, 2.62, 2.62, 2.62, 2.62, 2.62, 2.62, 2.62, 2.62, 2.62, 2.62, 2.62, 2.62, 2.62, 2.62, 2.62, 2.62, 2.62, 2.62, 2.62, 1.38, 1.38, 1.38, 1.38, 1.38, 1.38, 1.38, 1.38, 1.38, 1.38, 1.38, 1.38, 1.38, 1.38, 1.38, 1.38, 2.62, 2.62, 2.62, 2.62, 2.62, 2.62, 2.62, 2.62, 2.62, 2.62, 2.62, 2.62, 2.62, 2.62, 2.62, 2.62, 2.62, 2.62, 2.62, 2.62, 2.62, 2.62, 2.62, 2.62, 2.62, 2.62, 2.62, 2.62, 2.62, 2.62, 2.62, 2.62, 2.62, 2.62, 2.62, 2.62, 2.62, 2.62, 2.62, 2.62, 2.62, 2.62, 2.62, 2.62, 2.62, 2.62, 2.62, 2.62, 2.62, 2.62, 2.62, 2.62, 2.62, 2.62, 2.62, 2.62, 2.62, 2.62, 2.62, 2.62, 2.62, 2.62, 2.62, 2.62, 2.62, 2.62, 2.62, 2.62, 2.62, 2.62, 2.62, 1.48, 1.45, 1.43]
30 [2.1, 2.14, 2.18, 2.22, 2.26, 2.3, 2.34, 1.63, 1.63, 1.63, 1.63, 1.63, 1.63, 1.63, 1.63, 1.63, 1.66, 1.69, 1.72, 1.75, 1.78, 1.82, 2.6, 2.6, 2.6, 2.6, 2.6, 2.6, 2.6, 2.6, 2.6, 2.6, 2.6, 2.6, 2.6, 2.6, 2.6, 2.6, 2.6, 2.6, 2.6, 2.6, 2.6, 2.6, 2.6, 2.6, 2.6, 2.6, 2.6, 2.6, 2.6, 2.6, 2.6, 2.6, 2.6, 2.6, 2.6, 2.59, 2.59, 2.59, 2.59, 2.59, 2.59, 2.59, 2.59, 2.59, 2.59, 2.59, 2.59, 2.59, 2.59, 2.59, 2.59, 2.59, 2.59, 2.59, 2.59, 2.59, 2.59, 2.59, 2.59, 2.59, 2.59, 2.59, 2.59, 2.59, 2.59, 2.59, 2.59, 2.59, 2.59, 2.59, 1.35, 1.35, 1.35, 1.35, 1.35, 1.35, 1.35, 1.35, 1.35, 1.35, 1.35, 1.35, 1.35, 1.35, 1.35, 1.35, 2.59, 2.59, 2.59, 2.59, 2.59, 2.59, 2.59, 2.59, 2.59, 2.59, 2.59, 2.59, 2.59, 2.59, 2.59, 2.59, 2.59, 2.59, 2.59, 2.59, 2.59, 2.59, 2.59, 2.59, 2.59, 2.59, 2.59, 2.59, 2.59, 2.59, 2.59, 2.59, 2.59, 2.59, 2.59, 2.59, 2.59, 2.59, 2.59, 2.59, 2.59, 2.59, 2.59, 2.59, 2.59, 2.59, 2.59, 2.59, 2.59, 2.59, 2.59, 2.59, 2.59, 2.59, 2.59, 2.59, 2.59, 2.59, 2.59, 2.59, 2.59, 2.59, 2.59, 2.59, 2.59, 2.59, 2.59, 2.59, 2.59, 2.59, 2.59, 2.59, 2.59, 1.43]
31 [2.07, 2.11, 2.14, 2.18, 2.22, 2.25, 2.29, 2.33, 1.63, 1.63, 1.63, 1.63, 1.63, 1.63, 1.63, 1.63, 1.63, 1.65, 1.68, 1.71, 1.74, 1.77, 1.81, 2.6, 2.6, 2.6, 2.6, 2.6, 2.6, 2.6, 2.6, 2.6, 2.6, 2.6, 2.6, 2.6, 2.6, 2.6, 2.6, 2.59, 2.59, 2.59, 2.59, 2.59, 2.59, 2.59, 2.59, 2.59, 2.59, 2.59, 2.59, 2.59, 2.59, 2.59, 2.59, 2.59, 2.59, 2.59, 2.59, 2.58, 2.58, 2.58, 2.58, 2.58, 2.58, 2.58, 2.58, 2.58, 2.58, 2.58, 2.58, 2.58, 2.58, 2.58, 2.58, 2.58, 2.58, 2.58, 2.58, 2.58, 2.58, 2.58, 2.57, 2.57, 2.57, 2.57, 2.57, 2.57, 2.57, 2.57, 2.57, 2.57, 2.57, 2.57, 1.33, 1.33, 1.33, 1.33, 1.33, 1.33, 1.33, 1.33, 1.33, 1.33, 1.33, 1.33, 1.33, 1.33, 1.33, 1.33, 1.33, 2.56, 2.56, 2.56, 2.56, 2.56, 2.56, 2.56, 2.56, 2.56, 2.56, 2.56, 2.56, 2.56, 2.56, 2.56, 2.56, 2.56, 2.55, 2.55, 2.55, 2.55, 2.55, 2.55, 2.55, 2.55, 2.55, 2.55, 2.55, 2.55, 2.55, 2.55, 2.55, 2.55, 2.55, 2.55, 2.55, 2.55, 2.54, 2.54, 2.54, 2.54, 2.54, 2.54, 2.54, 2.54, 2.54, 2.54, 2.54, 2.54, 2.54, 2.54, 2.54, 2.54, 2.54, 2.53, 2.53, 2.53, 2.53, 2.53, 2.53, 2.53, 2.53, 2.53, 2.53, 2.53, 2.53, 2.53, 2.53, 2.52, 2.52, 2.52]
32 [2.07, 2.11, 2.14, 2.18, 2.22, 2.25, 2.29, 2.33, 1.63, 1.63, 1.63, 1.63, 1.63, 1.63, 1.63, 1.63, 1.63, 1.65, 1.68, 1.71, 1.74, 1.77, 1.81, 2.6, 2.6, 2.6, 2.6, 2.6, 2.6, 2.6, 2.6, 2.6, 2.6, 2.6, 2.6, 2.6, 2.6, 2.6, 2.6, 2.59, 2.59, 2.59, 2.59, 2.59, 2.59, 2.59, 2.59, 2.59, 2.59, 2.59, 2.59, 2.59, 2.59, 2.59, 2.59, 2.59, 2.59, 2.59, 2.59, 2.58, 2.58, 2.58, 2.58, 2.58, 2.58, 2.58, 2.58, 2.58, 2.58, 2.58, 2.58, 2.58, 2.58, 2.58, 2.58, 2.58, 2.58, 2.58, 2.58, 2.58, 2.58, 2.58, 2.57, 2.57, 2.57, 2.57, 2.57, 2.57, 2.57, 2.57, 2.57, 2.57, 2.57, 2.57, 1.33, 1.33, 1.33, 1.33, 1.33, 1.33, 1.33, 1.33, 1.33, 1.33, 1.33, 1.33, 1.33, 1.33, 1.33, 1.33, 1.33, 2.56, 2.56, 2.56, 2.56, 2.56, 2.56, 2.56, 2.56, 2.56, 2.56, 2.56, 2.56, 2.56, 2.56, 2.56, 2.56, 2.56, 2.55, 2.55, 2.55, 2.55, 2.55, 2.55, 2.55, 2.55, 2.55, 2.55, 2.55, 2.55, 2.55, 2.55, 2.55, 2.55, 2.55, 2.55, 2.55, 2.55, 2.54, 2.54, 2.54, 2.54, 2.54, 2.54, 2.54, 2.54, 2.54, 2.54, 2.54, 2.54, 2.54, 2.54, 2.54, 2.54, 2.54, 2.53, 2.53, 2.53, 2.53, 2.53, 2.53, 2.53, 2.53, 2.53, 2.53, 2.53, 2.53, 2.53, 2.53, 2.52, 2.52, 2.52]
33 [2.01, 2.04, 2.08, 2.11, 2.15, 2.18, 2.22, 2.26, 2.29, 2.33, 2.37, 2.41, 1.66, 1.66, 1.66, 1.66, 1.65, 1.65, 1.65, 1.65, 1.67, 1.7, 1.73, 1.76, 1.79, 1.82, 2.64, 2.64, 2.64, 2.64, 2.64, 2.64, 2.63, 2.63, 2.63, 2.63, 2.63, 2.63, 2.62, 2.62, 2.62, 2.62, 2.62, 2.62, 2.62, 2.61, 2.61, 2.61, 2.61, 2.61, 2.61, 2.61, 2.6, 2.6, 2.6, 2.6, 2.6, 2.6, 2.6, 2.6, 2.59, 2.59, 2.59, 2.59, 2.59, 2.59, 2.59, 2.59, 2.58, 2.58, 2.58, 2.58, 2.58, 2.58, 2.58, 2.58, 2.58, 2.57, 2.57, 2.57, 2.57, 2.57, 2.57, 2.57, 2.57, 2.56, 2.56, 2.56, 2.56, 2.56, 2.56, 2.56, 2.56, 2.56, 2.55, 2.55, 2.55, 1.31, 1.31, 1.31, 1.31, 1.31, 1.31, 1.31, 1.31, 1.31, 1.31, 1.31, 1.31, 1.31, 1.31, 1.3, 1.3, 1.3, 1.3, 2.53, 2.53, 2.53, 2.53, 2.53, 2.53, 2.52, 2.52, 2.52, 2.52, 2.52, 2.52, 2.52, 2.52, 2.51, 2.51, 2.51, 2.51, 2.51, 2.51, 2.51, 2.51, 2.5, 2.5, 2.5, 2.5, 2.5, 2.5, 2.5, 2.5, 2.49, 2.49, 2.49, 2.49, 2.49, 2.49, 2.49, 2.48, 2.48, 2.48, 2.48, 2.48, 2.48, 2.48, 2.47, 2.47, 2.47, 2.47, 2.47, 2.47, 2.46, 2.46, 2.46, 2.46, 2.46, 2.46, 2.45, 2.45, 2.45, 2.45, 2.45, 2.44, 2.44, 2.44, 2.44, 2.44, 2.43]
34 [1.97, 2.0, 2.04, 2.07, 2.11, 2.14, 2.17, 2.21, 2.25, 2.28, 2.32, 2.36, 2.4, 2.44, 1.68, 1.68, 1.68, 1.68, 1.68, 1.67, 1.67, 1.67, 1.68, 1.71, 1.74, 1.77, 1.8, 1.83, 1.87, 2.67, 2.67, 2.67, 2.66, 2.66, 2.66, 2.66, 2.66, 2.65, 2.65, 2.65, 2.65, 2.64, 2.64, 2.64, 2.64, 2.64, 2.63, 2.63, 2.63, 2.63, 2.63, 2.63, 2.62, 2.62, 2.62, 2.62, 2.62, 2.61, 2.61, 2.61, 2.61, 2.61, 2.6, 2.6, 2.6, 2.6, 2.6, 2.6, 2.59, 2.59, 2.59, 2.59, 2.59, 2.59, 2.58, 2.58, 2.58, 2.58, 2.58, 2.58, 2.57, 2.57, 2.57, 2.57, 2.57, 2.57, 2.56, 2.56, 2.56, 2.56, 2.56, 2.56, 2.56, 2.55, 2.55, 2.55, 2.55, 2.55, 2.55, 2.54, 1.31, 1.31, 1.3, 1.3, 1.3, 1.3, 1.3, 1.3, 1.3, 1.3, 1.3, 1.3, 1.3, 1.3, 1.29, 1.29, 1.29, 2.52, 2.51, 2.51, 2.51, 2.51, 2.51, 2.51, 2.5, 2.5, 2.5, 2.5, 2.5, 2.5, 2.49, 2.49, 2.49, 2.49, 2.49, 2.49, 2.48, 2.48, 2.48, 2.48, 2.48, 2.47, 2.47, 2.47, 2.47, 2.47, 2.47, 2.46, 2.46, 2.46, 2.46, 2.46, 2.45, 2.45, 2.45, 2.45, 2.45, 2.44, 2.44, 2.44, 2.44, 2.44, 2.43, 2.43, 2.43, 2.43, 2.42, 2.42, 2.42, 2.42, 2.42, 2.41, 2.41, 2.41, 2.41, 2.4, 2.4, 2.4, 2.4, 2.39, 2.39, 2.39]
35 [1.87, 1.9, 1.93, 1.96, 1.99, 2.02, 2.05, 2.08, 2.11, 2.15, 2.18, 2.21, 2.25, 2.28, 2.32, 2.35, 2.39, 2.43, 2.46, 2.5, 2.54, 1.76, 1.75, 1.75, 1.75, 1.74, 1.74, 1.74, 1.73, 1.74, 1.77, 1.79, 1.82, 1.85, 1.89, 1.92, 2.76, 2.76, 2.75, 2.75, 2.74, 2.74, 2.73, 2.73, 2.73, 2.72, 2.72, 2.71, 2.71, 2.71, 2.7, 2.7, 2.69, 2.69, 2.69, 2.68, 2.68, 2.68, 2.67, 2.67, 2.67, 2.66, 2.66, 2.66, 2.65, 2.65, 2.64, 2.64, 2.64, 2.63, 2.63, 2.63, 2.62, 2.62, 2.62, 2.62, 2.61, 2.61, 2.61, 2.6, 2.6, 2.6, 2.59, 2.59, 2.59, 2.58, 2.58, 2.58, 2.57, 2.57, 2.57, 2.57, 2.56, 2.56, 2.56, 2.55, 2.55, 2.55, 2.54, 2.54, 2.54, 2.53, 2.53, 2.53, 2.53, 2.52, 2.52, 2.52, 1.29, 1.29, 1.28, 1.28, 1.28, 1.28, 1.28, 1.28, 1.27, 1.27, 1.27, 1.27, 1.27, 1.27, 1.27, 1.26, 1.26, 2.46, 2.46, 2.46, 2.45, 2.45, 2.45, 2.44, 2.44, 2.44, 2.43, 2.43, 2.43, 2.43, 2.42, 2.42, 2.42, 2.41, 2.41, 2.41, 2.4, 2.4, 2.4, 2.39, 2.39, 2.39, 2.38, 2.38, 2.37, 2.37, 2.37, 2.36, 2.36, 2.36, 2.35, 2.35, 2.35, 2.34, 2.34, 2.33, 2.33, 2.33, 2.32, 2.32, 2.31, 2.31, 2.31, 2.3, 2.3, 2.29, 2.29, 2.29, 2.28, 2.28, 2.27, 2.27, 2.26, 2.26]
36 [1.74, 1.77, 1.79, 1.82, 1.85, 1.87, 1.9, 1.92, 1.95, 1.98, 2.01, 2.03, 2.06, 2.09, 2.12, 2.15, 2.18, 2.21, 2.24, 2.27, 2.3, 2.33, 2.37, 2.4, 2.43, 2.47, 2.5, 2.54, 2.57, 2.61, 2.65, 2.69, 1.86, 1.86, 1.85, 1.85, 1.84, 1.83, 1.83, 1.82, 1.82, 1.84, 1.87, 1.9, 1.93, 1.96, 1.99, 2.88, 2.87, 2.87, 2.86, 2.85, 2.85, 2.84, 2.83, 2.82, 2.82, 2.81, 2.8, 2.8, 2.79, 2.78, 2.78, 2.77, 2.76, 2.76, 2.75, 2.74, 2.74, 2.73, 2.73, 2.72, 2.71, 2.71, 2.7, 2.7, 2.69, 2.68, 2.68, 2.67, 2.67, 2.66, 2.65, 2.65, 2.64, 2.64, 2.63, 2.63, 2.62, 2.62, 2.61, 2.61, 2.6, 2.59, 2.59, 2.58, 2.58, 2.57, 2.57, 2.56, 2.56, 2.55, 2.55, 2.54, 2.54, 2.53, 2.53, 2.52, 2.52, 2.51, 2.51, 2.5, 2.49, 2.49, 2.48, 2.48, 2.47, 2.47, 2.46, 1.26, 1.25, 1.25, 1.25, 1.24, 1.24, 1.24, 1.24, 1.23, 1.23, 1.23, 1.23, 1.22, 1.22, 1.22, 1.22, 1.21, 1.21, 2.37, 2.36, 2.36, 2.35, 2.34, 2.34, 2.33, 2.33, 2.32, 2.32, 2.31, 2.31, 2.3, 2.3, 2.29, 2.28, 2.28, 2.27, 2.27, 2.26, 2.26, 2.25, 2.24, 2.24, 2.23, 2.23, 2.22, 2.21, 2.21, 2.2, 2.2, 2.19, 2.18, 2.18, 2.17, 2.16, 2.16, 2.15, 2.14, 2.14, 2.13, 2.12, 2.12, 2.11, 2.1]
37 [1.69, 1.71, 1.74, 1.76, 1.78, 1.81, 1.83, 1.85, 1.88, 1.9, 1.93, 1.95, 1.98, 2.01, 2.03, 2.06, 2.09, 2.11, 2.14, 2.17, 2.2, 2.23, 2.26, 2.29, 2.32, 2.35, 2.38, 2.41, 2.44, 2.47, 2.51, 2.54, 2.57, 2.61, 2.64, 2.68, 2.72, 2.75, 2.79, 1.91, 1.9, 1.89, 1.89, 1.88, 1.87, 1.87, 1.86, 1.87, 1.9, 1.93, 1.96, 1.99, 2.02, 2.05, 2.93, 2.92, 2.91, 2.9, 2.89, 2.89, 2.88, 2.87, 2.86, 2.85, 2.84, 2.83, 2.83, 2.82, 2.81, 2.8, 2.79, 2.79, 2.78, 2.77, 2.76, 2.75, 2.75, 2.74, 2.73, 2.72, 2.72, 2.71, 2.7, 2.7, 2.69, 2.68, 2.67, 2.67, 2.66, 2.65, 2.65, 2.64, 2.63, 2.63, 2.62, 2.61, 2.61, 2.6, 2.59, 2.59, 2.58, 2.57, 2.57, 2.56, 2.55, 2.55, 2.54, 2.53, 2.53, 2.52, 2.52, 2.51, 2.5, 2.5, 2.49, 2.48, 2.48, 2.47, 2.46, 2.46, 2.45, 2.45, 2.44, 2.43, 2.43, 2.42, 1.23, 1.23, 1.22, 1.22, 1.22, 1.22, 1.21, 1.21, 1.21, 1.2, 1.2, 1.2, 1.19, 1.19, 1.19, 1.18, 1.18, 1.18, 2.3, 2.29, 2.29, 2.28, 2.27, 2.27, 2.26, 2.25, 2.25, 2.24, 2.23, 2.23, 2.22, 2.21, 2.21, 2.2, 2.19, 2.19, 2.18, 2.17, 2.17, 2.16, 2.15, 2.14, 2.14, 2.13, 2.12, 2.11, 2.11, 2.1, 2.09, 2.08, 2.08, 2.07, 2.06, 2.05, 10.0, 10.0]
38 [1.64, 1.67, 1.69, 1.71, 1.73, 1.75, 1.78, 1.8, 1.82, 1.84, 1.87, 1.89, 1.91, 1.94, 1.96, 1.99, 2.01, 2.04, 2.06, 2.09, 2.11, 2.14, 2.17, 2.19, 2.22, 2.25, 2.28, 2.31, 2.33, 2.36, 2.39, 2.42, 2.45, 2.49, 2.52, 2.55, 2.58, 2.61, 2.65, 2.68, 2.72, 2.75, 2.79, 2.83, 1.96, 1.95, 1.94, 1.93, 1.92, 1.91, 1.91, 1.9, 1.89, 1.91, 1.94, 1.97, 1.99, 2.02, 2.05, 2.98, 2.97, 2.96, 2.95, 2.94, 2.93, 2.92, 2.91, 2.9, 2.89, 2.88, 2.87, 2.86, 2.85, 2.84, 2.83, 2.82, 2.81, 2.8, 2.79, 2.78, 2.77, 2.77, 2.76, 2.75, 2.74, 2.73, 2.72, 2.71, 2.71, 2.7, 2.69, 2.68, 2.67, 2.66, 2.66, 2.65, 2.64, 2.63, 2.62, 2.62, 2.61, 2.6, 2.59, 2.59, 2.58, 2.57, 2.56, 2.55, 2.55, 2.54, 2.53, 2.52, 2.52, 2.51, 2.5, 2.49, 2.49, 2.48, 2.47, 2.46, 2.46, 2.45, 2.44, 2.43, 2.43, 2.42, 2.41, 2.41, 2.4, 2.39, 2.38, 2.38, 1.21, 1.2, 1.2, 1.2, 1.19, 1.19, 1.18, 1.18, 1.18, 1.17, 1.17, 1.17, 1.16, 1.16, 1.15, 1.15, 1.15, 1.14, 2.24, 2.23, 2.22, 2.21, 2.21, 2.2, 2.19, 2.18, 2.17, 2.17, 2.16, 2.15, 2.14, 2.13, 2.13, 2.12, 2.11, 2.1, 2.09, 2.09, 2.08, 2.07, 2.06, 2.05, 2.04, 2.04, 2.03, 2.02, 2.01, 2.0, 1.99, 1.98]
39 [0.76, 0.77, 0.78, 0.79, 0.8, 0.81, 1.7, 1.72, 1.74, 1.76, 1.78, 1.8, 1.82, 1.84, 1.86, 1.89, 1.91, 1.93, 1.95, 1.97, 2.0, 2.02, 2.04, 2.07, 2.09, 2.11, 2.14, 2.16, 2.19, 2.21, 2.24, 2.26, 2.29, 2.31, 2.34, 2.37, 2.39, 2.42, 2.45, 2.48, 2.51, 2.53, 2.56, 2.59, 2.62, 2.66, 2.69, 2.72, 2.75, 2.79, 2.82, 2.85, 2.89, 2.92, 2.01, 2.0, 1.99, 1.98, 1.97, 1.96, 1.95, 1.94, 1.93, 1.96, 1.98, 2.01, 2.04, 2.07, 2.1, 3.03, 3.02, 3.01, 2.99, 2.98, 2.97, 2.95, 2.94, 2.93, 2.92, 2.9, 2.89, 2.88, 2.87, 2.86, 2.85, 2.83, 2.82, 2.81, 2.8, 2.79, 2.78, 2.77, 2.76, 2.75, 2.73, 2.72, 2.71, 2.7, 2.69, 2.68, 2.67, 2.66, 2.65, 2.64, 2.63, 2.62, 2.61, 2.6, 2.59, 2.58, 2.57, 2.56, 2.55, 2.54, 2.54, 2.53, 2.52, 2.51, 2.5, 2.49, 2.48, 2.47, 2.46, 2.45, 2.44, 2.43, 2.42, 2.41, 2.4, 2.4, 2.39, 2.38, 2.37, 2.36, 2.35, 2.34, 2.33, 2.32, 2.31, 2.31, 2.3, 2.29, 1.16, 1.15, 1.15, 1.14, 1.14, 1.14, 1.13, 1.13, 1.12, 1.12, 1.11, 1.11, 1.1, 1.1, 1.09, 1.09, 1.08, 1.08, 2.11, 2.1, 2.09, 2.09, 2.08, 2.07, 2.06, 2.05, 2.04, 2.03, 2.02, 2.01, 2.0, 1.99, 1.98, 1.97, 1.96, 1.95, 1.94, 1.93, 10.0, 10.0]
40 [0.76, 0.77, 0.78, 0.79, 0.8, 0.81, 1.7, 1.72, 1.74, 1.76, 1.78, 1.8, 1.82, 1.84, 1.86, 1.89, 1.91, 1.93, 1.95, 1.97, 2.0, 2.02, 2.04, 2.07, 2.09, 2.11, 2.14, 2.16, 2.19, 2.21, 2.24, 2.26, 2.29, 2.31, 2.34, 2.37, 2.39, 2.42, 2.45, 2.48, 2.51, 2.53, 2.56, 2.59, 2.62, 2.66, 2.69, 2.72, 2.75, 2.79, 2.82, 2.85, 2.89, 2.92, 2.01, 2.0, 1.99, 1.98, 1.97, 1.96, 1.95, 1.94, 1.93, 1.96, 1.98, 2.01, 2.04, 2.07, 2.1, 3.03, 3.02, 3.01, 2.99, 2.98, 2.97, 2.95, 2.94, 2.93, 2.92, 2.9, 2.89, 2.88, 2.87, 2.86, 2.85, 2.83, 2.82, 2.81, 2.8, 2.79, 2.78, 2.77, 2.76, 2.75, 2.73, 2.72, 2.71, 2.7, 2.69, 2.68, 2.67, 2.66, 2.65, 2.64, 2.63, 2.62, 2.61, 2.6, 2.59, 2.58, 2.57, 2.56, 2.55, 2.54, 2.54, 2.53, 2.52, 2.51, 2.5, 2.49, 2.48, 2.47, 2.46, 2.45, 2.44, 2.43, 2.42, 2.41, 2.4, 2.4, 2.39, 2.38, 2.37, 2.36, 2.35, 2.34, 2.33, 2.32, 2.31, 2.31, 2.3, 2.29, 1.16, 1.15, 1.15, 1.14, 1.14, 1.14, 1.13, 1.13, 1.12, 1.12, 1.11, 1.11, 1.1, 1.1, 1.09, 1.09, 1.08, 1.08, 2.11, 2.1, 2.09, 2.09, 2.08, 2.07, 2.06, 2.05, 2.04, 2.03, 2.02, 2.01, 2.0, 1.99, 1.98, 1.97, 1.96, 1.95, 1.94, 1.93, 1.92, 1.91]
41 [0.74, 0.75, 0.76, 0.77, 0.78, 0.78, 0.79, 0.8, 0.81, 0.82, 0.83, 0.84, 0.85, 1.78, 1.8, 1.82, 1.84, 1.86, 1.88, 1.9, 1.92, 1.94, 1.96, 1.98, 2.0, 2.02, 2.04, 2.06, 2.08, 2.11, 2.13, 2.15, 2.17, 2.2, 2.22, 2.24, 2.27, 2.29, 2.31, 2.34, 2.36, 2.39, 2.42, 2.44, 2.47, 2.49, 2.52, 2.55, 2.58, 2.6, 2.63, 2.66, 2.69, 2.72, 2.75, 2.78, 2.81, 2.85, 2.88, 2.91, 2.95, 2.98, 2.04, 2.03, 2.01, 2.0, 1.99, 1.98, 1.97, 1.96, 1.95, 1.98, 2.0, 2.03, 2.05, 2.08, 2.11, 3.05, 3.04, 3.02, 3.01, 2.99, 2.98, 2.96, 2.95, 2.93, 2.92, 2.91, 2.89, 2.88, 2.87, 2.85, 2.84, 2.83, 2.81, 2.8, 2.79, 2.77, 2.76, 2.75, 2.74, 2.72, 2.71, 2.7, 2.69, 2.68, 2.66, 2.65, 2.64, 2.63, 2.62, 2.61, 2.59, 2.58, 2.57, 2.56, 2.55, 2.54, 2.53, 2.52, 2.51, 2.49, 2.48, 2.47, 2.46, 2.45, 2.44, 2.43, 2.42, 2.41, 2.4, 2.39, 2.38, 2.37, 2.36, 2.35, 2.33, 2.32, 2.31, 2.3, 2.29, 2.28, 2.27, 2.26, 2.25, 2.24, 2.23, 2.22, 2.21, 2.2, 2.19, 1.1, 1.1, 1.09, 1.09, 1.08, 1.08, 1.07, 1.07, 1.06, 1.06, 1.05, 1.05, 1.04, 1.04, 1.03, 1.02, 1.02, 1.01, 1.99, 1.98, 1.97, 1.96, 1.95, 1.94, 1.92, 1.91, 1.9, 1.89, 1.88, 1.87, 1.86]
42 [0.74, 0.75, 0.76, 0.77, 0.78, 0.78, 0.79, 0.8, 0.81, 0.82, 0.83, 0.84, 0.85, 1.78, 1.8, 1.82, 1.84, 1.86, 1.88, 1.9, 1.92, 1.94, 1.96, 1.98, 2.0, 2.02, 2.04, 2.06, 2.08, 2.11, 2.13, 2.15, 2.17, 2.2, 2.22, 2.24, 2.27, 2.29, 2.31, 2.34, 2.36, 2.39, 2.42, 2.44, 2.47, 2.49, 2.52, 2.55, 2.58, 2.6, 2.63, 2.66, 2.69, 2.72, 2.75, 2.78, 2.81, 2.85, 2.88, 2.91, 2.95, 2.98, 2.04, 2.03, 2.01, 2.0, 1.99, 1.98, 1.97, 1.96, 1.95, 1.98, 2.0, 2.03, 2.05, 2.08, 2.11, 3.05, 3.04, 3.02, 3.01, 2.99, 2.98, 2.96, 2.95, 2.93, 2.92, 2.91, 2.89, 2.88, 2.87, 2.85, 2.84, 2.83, 2.81, 2.8, 2.79, 2.77, 2.76, 2.75, 2.74, 2.72, 2.71, 2.7, 2.69, 2.68, 2.66, 2.65, 2.64, 2.63, 2.62, 2.61, 2.59, 2.58, 2.57, 2.56, 2.55, 2.54, 2.53, 2.52, 2.51, 2.49, 2.48, 2.47, 2.46, 2.45, 2.44, 2.43, 2.42, 2.41, 2.4, 2.39, 2.38, 2.37, 2.36, 2.35, 2.33, 2.32, 2.31, 2.3, 2.29, 2.28, 2.27, 2.26, 2.25, 2.24, 2.23, 2.22, 2.21, 2.2, 2.19, 1.1, 1.1, 1.09, 1.09, 1.08, 1.08, 1.07, 1.07, 1.06, 1.06, 1.05, 1.05, 1.04, 1.04, 1.03, 1.02, 1.02, 1.01, 1.99, 1.98, 1.97, 1.96, 1.95, 1.94, 1.92, 1.91, 1.9, 1.89, 1.88, 1.87, 1.86]
43 [0.72, 0.73, 0.74, 0.75, 0.75, 0.76, 0.77, 0.78, 0.79, 0.8, 0.8, 0.81, 0.82, 0.83, 0.84, 0.85, 0.85, 0.86, 0.87, 0.88, 1.86, 1.87, 1.89, 1.91, 1.93, 1.95, 1.97, 1.99, 2.01, 2.03, 2.05, 2.07, 2.09, 2.11, 2.13, 2.15, 2.17, 2.19, 2.21, 2.23, 2.26, 2.28, 2.3, 2.32, 2.35, 2.37, 2.39, 2.42, 2.44, 2.47, 2.49, 2.52, 2.54, 2.57, 2.59, 2.62, 2.65, 2.67, 2.7, 2.73, 2.76, 2.79, 2.82, 2.85, 2.88, 2.91, 2.94, 2.97, 3.01, 2.06, 2.05, 2.03, 2.02, 2.01, 2.0, 1.98, 1.97, 1.96, 1.98, 2.0, 2.03, 2.05, 2.08, 2.1, 3.06, 3.05, 3.03, 3.01, 3.0, 2.98, 2.96, 2.95, 2.93, 2.92, 2.9, 2.88, 2.87, 2.85, 2.84, 2.83, 2.81, 2.8, 2.78, 2.77, 2.75, 2.74, 2.73, 2.71, 2.7, 2.68, 2.67, 2.66, 2.64, 2.63, 2.62, 2.6, 2.59, 2.58, 2.57, 2.55, 2.54, 2.53, 2.52, 2.5, 2.49, 2.48, 2.47, 2.45, 2.44, 2.43, 2.42, 2.41, 2.39, 2.38, 2.37, 2.36, 2.35, 2.33, 2.32, 2.31, 2.3, 2.29, 2.28, 2.26, 2.25, 2.24, 2.23, 2.22, 2.21, 2.19, 2.18, 2.17, 2.16, 2.15, 2.14, 2.13, 2.11, 2.1, 1.17, 1.05, 1.04, 1.04, 1.03, 1.03, 1.02, 1.02, 1.01, 1.0, 1.0, 0.99, 0.99, 0.98, 0.97, 0.97, 0.96, 0.96, 0.95, 1.87, 1.86, 1.84, 1.83, 1.82]
44 [0.75, 0.73, 0.73, 0.74, 0.75, 0.76, 0.76, 0.77, 0.78, 0.79, 0.8, 0.8, 0.81, 0.82, 0.83, 0.84, 0.84, 0.85, 0.86, 0.87, 0.88, 0.89, 1.87, 1.89, 1.91, 1.93, 1.94, 1.96, 1.98, 2.0, 2.02, 2.04, 2.06, 2.08, 2.1, 2.12, 2.14, 2.16, 2.18, 2.2, 2.22, 2.24, 2.26, 2.29, 2.31, 2.33, 2.35, 2.38, 2.4, 2.42, 2.44, 2.47, 2.49, 2.52, 2.54, 2.57, 2.59, 2.62, 2.65, 2.67, 2.7, 2.73, 2.76, 2.78, 2.81, 2.84, 2.87, 2.9, 2.93, 2.96, 3.0, 3.03, 2.06, 2.04, 2.03, 2.02, 2.0, 1.99, 1.98, 1.97, 1.96, 1.99, 2.01, 2.04, 2.06, 2.09, 2.11, 3.06, 3.04, 3.02, 3.0, 2.99, 2.97, 2.95, 2.94, 2.92, 2.9, 2.89, 2.87, 2.86, 2.84, 2.83, 2.81, 2.79, 2.78, 2.77, 2.75, 2.74, 2.72, 2.71, 2.69, 2.68, 2.66, 2.65, 2.64, 2.62, 2.61, 2.6, 2.58, 2.57, 2.56, 2.54, 2.53, 2.52, 2.5, 2.49, 2.48, 2.47, 2.45, 2.44, 2.43, 2.41, 2.4, 2.39, 2.38, 2.36, 2.35, 2.34, 2.33, 2.32, 2.3, 2.29, 2.28, 2.27, 2.26, 2.24, 2.23, 2.22, 2.21, 2.2, 2.18, 2.17, 2.16, 2.15, 2.14, 2.12, 2.11, 2.1, 2.09, 2.08, 2.06, 1.09, 1.03, 1.02, 1.02, 1.01, 1.01, 1.0, 0.99, 0.99, 0.98, 0.97, 0.97, 0.96, 0.96, 0.95, 0.94, 0.94, 0.93, 0.93, 1.82, 1.81]
45 [0.8, 0.78, 0.75, 0.74, 0.74, 0.75, 0.76, 0.77, 0.77, 0.78, 0.79, 0.8, 0.81, 0.81, 0.82, 0.83, 0.84, 0.85, 0.85, 0.86, 0.87, 0.88, 0.89, 0.9, 1.89, 1.91, 1.93, 1.95, 1.97, 1.98, 2.0, 2.02, 2.04, 2.06, 2.08, 2.1, 2.12, 2.14, 2.16, 2.18, 2.2, 2.22, 2.24, 2.26, 2.28, 2.3, 2.32, 2.35, 2.37, 2.39, 2.41, 2.44, 2.46, 2.48, 2.51, 2.53, 2.56, 2.58, 2.61, 2.63, 2.66, 2.69, 2.71, 2.74, 2.77, 2.8, 2.82, 2.85, 2.88, 2.91, 2.94, 2.98, 3.01, 3.04, 2.06, 2.04, 2.03, 2.02, 2.0, 1.99, 1.98, 1.97, 1.97, 1.99, 2.01, 2.04, 2.06, 2.09, 2.12, 3.05, 3.03, 3.02, 3.0, 2.98, 2.96, 2.95, 2.93, 2.91, 2.9, 2.88, 2.86, 2.85, 2.83, 2.82, 2.8, 2.79, 2.77, 2.76, 2.74, 2.73, 2.71, 2.7, 2.68, 2.67, 2.65, 2.64, 2.62, 2.61, 2.6, 2.58, 2.57, 2.55, 2.54, 2.53, 2.51, 2.5, 2.49, 2.47, 2.46, 2.45, 2.44, 2.42, 2.41, 2.4, 2.38, 2.37, 2.36, 2.35, 2.33, 2.32, 2.31, 2.3, 2.28, 2.27, 2.26, 2.25, 2.23, 2.22, 2.21, 2.2, 2.18, 2.17, 2.16, 2.15, 2.13, 2.12, 2.11, 2.1, 2.09, 2.07, 2.06, 2.05, 2.04, 1.08, 1.01, 1.01, 1.0, 1.0, 0.99, 0.98, 0.98, 0.97, 0.97, 0.96, 0.95, 0.95, 0.94, 0.93, 0.93, 0.92, 0.92, 0.91]
46 [1.49, 0.85, 0.81, 0.78, 0.76, 0.75, 0.75, 0.76, 0.77, 0.78, 0.78, 0.79, 0.8, 0.81, 0.82, 0.82, 0.83, 0.84, 0.85, 0.86, 0.86, 0.87, 0.88, 0.89, 0.9, 0.9, 1.91, 1.93, 1.95, 1.97, 1.98, 2.0, 2.02, 2.04, 2.06, 2.08, 2.1, 2.11, 2.13, 2.15, 2.17, 2.19, 2.21, 2.23, 2.25, 2.27, 2.3, 2.32, 2.34, 2.36, 2.38, 2.4, 2.43, 2.45, 2.47, 2.5, 2.52, 2.54, 2.57, 2.59, 2.62, 2.64, 2.67, 2.69, 2.72, 2.75, 2.78, 2.8, 2.83, 2.86, 2.89, 2.92, 2.95, 2.98, 3.01, 3.04, 2.06, 2.05, 2.03, 2.02, 2.01, 1.99, 1.98, 1.97, 1.97, 1.99, 2.01, 2.04, 2.06, 2.09, 2.11, 3.05, 3.03, 3.01, 3.0, 2.98, 2.96, 2.94, 2.93, 2.91, 2.89, 2.87, 2.86, 2.84, 2.83, 2.81, 2.79, 2.78, 2.76, 2.75, 2.73, 2.72, 2.7, 2.69, 2.67, 2.66, 2.64, 2.63, 2.61, 2.6, 2.58, 2.57, 2.56, 2.54, 2.53, 2.51, 2.5, 2.49, 2.47, 2.46, 2.45, 2.43, 2.42, 2.41, 2.39, 2.38, 2.37, 2.35, 2.34, 2.33, 2.31, 2.3, 2.29, 2.27, 2.26, 2.25, 2.24, 2.22, 2.21, 2.2, 2.19, 2.17, 2.16, 2.15, 2.14, 2.12, 2.11, 2.1, 2.09, 2.07, 2.06, 2.05, 2.04, 2.02, 2.01, 1.12, 1.0, 0.99, 0.99, 0.98, 0.98, 0.97, 0.96, 0.96, 0.95, 0.94, 0.94, 0.93, 0.92, 0.92, 0.91, 0.9]
47 [1.48, 1.5, 1.51, 1.53, 0.86, 0.83, 0.8, 0.77, 0.76, 0.77, 0.78, 0.79, 0.79, 0.8, 0.81, 0.82, 0.82, 0.83, 0.84, 0.85, 0.85, 0.86, 0.87, 0.88, 0.88, 0.89, 0.9, 0.91, 0.92, 1.94, 1.96, 1.98, 1.99, 2.01, 2.03, 2.05, 2.07, 2.08, 2.1, 2.12, 2.14, 2.16, 2.18, 2.2, 2.22, 2.24, 2.26, 2.28, 2.3, 2.32, 2.34, 2.36, 2.38, 2.4, 2.42, 2.45, 2.47, 2.49, 2.51, 2.54, 2.56, 2.58, 2.61, 2.63, 2.66, 2.68, 2.71, 2.73, 2.76, 2.79, 2.82, 2.84, 2.87, 2.9, 2.93, 2.96, 2.99, 3.02, 3.05, 2.06, 2.05, 2.04, 2.02, 2.01, 1.99, 1.98, 1.97, 1.97, 1.99, 2.01, 2.03, 2.06, 2.08, 2.11, 3.05, 3.03, 3.01, 2.99, 2.97, 2.95, 2.94, 2.92, 2.9, 2.88, 2.86, 2.85, 2.83, 2.81, 2.8, 2.78, 2.76, 2.75, 2.73, 2.72, 2.7, 2.68, 2.67, 2.65, 2.64, 2.62, 2.61, 2.59, 2.58, 2.56, 2.55, 2.53, 2.52, 2.5, 2.49, 2.48, 2.46, 2.45, 2.43, 2.42, 2.41, 2.39, 2.38, 2.36, 2.35, 2.34, 2.32, 2.31, 2.3, 2.28, 2.27, 2.26, 2.24, 2.23, 2.22, 2.2, 2.19, 2.18, 2.16, 2.15, 2.14, 2.13, 2.11, 2.1, 2.09, 2.07, 2.06, 2.05, 2.03, 2.02, 2.01, 2.0, 1.98, 1.97, 1.96, 0.98, 0.97, 0.97, 0.96, 0.95, 0.95, 0.94, 0.93, 0.93, 0.92, 0.91, 0.91, 0.9]
48 [1.47, 1.49, 1.5, 1.52, 1.53, 1.55, 1.56, 0.9, 0.86, 0.83, 0.8, 0.78, 0.79, 0.79, 0.8, 0.81, 0.81, 0.82, 0.83, 0.84, 0.84, 0.85, 0.86, 0.87, 0.87, 0.88, 0.89, 0.9, 0.9, 0.91, 0.92, 0.93, 1.97, 1.98, 2.0, 2.02, 2.04, 2.05, 2.07, 2.09, 2.11, 2.12, 2.14, 2.16, 2.18, 2.2, 2.22, 2.23, 2.25, 2.27, 2.29, 2.31, 2.33, 2.35, 2.37, 2.39, 2.42, 2.44, 2.46, 2.48, 2.5, 2.52, 2.55, 2.57, 2.59, 2.62, 2.64, 2.66, 2.69, 2.71, 2.74, 2.76, 2.79, 2.82, 2.84, 2.87, 2.9, 2.93, 2.96, 2.99, 3.02, 3.05, 2.08, 2.06, 2.05, 2.03, 2.02, 2.0, 1.99, 1.97, 1.96, 1.98, 2.0, 2.02, 2.05, 2.07, 2.09, 3.05, 3.03, 3.01, 2.99, 2.97, 2.95, 2.93, 2.92, 2.9, 2.88, 2.86, 2.84, 2.83, 2.81, 2.79, 2.77, 2.76, 2.74, 2.72, 2.71, 2.69, 2.67, 2.66, 2.64, 2.62, 2.61, 2.59, 2.58, 2.56, 2.55, 2.53, 2.52, 2.5, 2.49, 2.47, 2.46, 2.44, 2.43, 2.41, 2.4, 2.38, 2.37, 2.35, 2.34, 2.33, 2.31, 2.3, 2.28, 2.27, 2.26, 2.24, 2.23, 2.21, 2.2, 2.19, 2.17, 2.16, 2.14, 2.13, 2.12, 2.1, 2.09, 2.08, 2.06, 2.05, 2.04, 2.02, 2.01, 2.0, 1.98, 1.97, 1.96, 1.94, 1.93, 1.92, 1.0, 0.95, 0.94, 0.94, 0.93, 0.92, 0.92, 0.91, 0.9, 0.9]
49 [1.47, 1.48, 1.5, 1.51, 1.53, 1.54, 1.56, 1.57, 1.58, 1.6, 0.91, 0.87, 0.84, 0.81, 0.8, 0.8, 0.81, 0.82, 0.82, 0.83, 0.84, 0.84, 0.85, 0.86, 0.87, 0.87, 0.88, 0.89, 0.9, 0.9, 0.91, 0.92, 0.93, 0.93, 0.94, 2.0, 2.01, 2.03, 2.05, 2.06, 2.08, 2.1, 2.12, 2.13, 2.15, 2.17, 2.19, 2.2, 2.22, 2.24, 2.26, 2.28, 2.3, 2.32, 2.34, 2.36, 2.38, 2.4, 2.42, 2.44, 2.46, 2.48, 2.5, 2.52, 2.54, 2.57, 2.59, 2.61, 2.64, 2.66, 2.68, 2.71, 2.73, 2.76, 2.78, 2.81, 2.83, 2.86, 2.89, 2.91, 2.94, 2.97, 3.0, 3.03, 3.06, 2.08, 2.06, 2.05, 2.03, 2.02, 2.0, 1.99, 1.97, 1.96, 1.98, 2.0, 2.03, 2.05, 2.07, 2.1, 3.04, 3.02, 3.0, 2.98, 2.96, 2.94, 2.92, 2.9, 2.88, 2.87, 2.85, 2.83, 2.81, 2.79, 2.77, 2.76, 2.74, 2.72, 2.7, 2.69, 2.67, 2.65, 2.64, 2.62, 2.6, 2.59, 2.57, 2.55, 2.54, 2.52, 2.51, 2.49, 2.48, 2.46, 2.45, 2.43, 2.41, 2.4, 2.38, 2.37, 2.35, 2.34, 2.33, 2.31, 2.3, 2.28, 2.27, 2.25, 2.24, 2.22, 2.21, 2.19, 2.18, 2.17, 2.15, 2.14, 2.12, 2.11, 2.1, 2.08, 2.07, 2.05, 2.04, 2.03, 2.01, 2.0, 1.98, 1.97, 1.96, 1.94, 1.93, 1.92, 1.9, 1.89, 1.87, 0.94, 0.93, 0.92, 0.92, 0.91, 0.9, 0.89]
